[
    {
        "id": "8372725",
        "src640": "https://cdn.pixabay.com/photo/2023/11/07/15/44/ai-generated-8372725_640.jpg",
        "src1280": "https://cdn.pixabay.com/photo/2023/11/07/15/44/ai-generated-8372725_1280.jpg"
    },
    {
        "id": "2047412",
        "src640": "https://cdn.pixabay.com/photo/2017/02/08/00/51/lion-2047412_640.jpg",
        "src1280": "https://cdn.pixabay.com/photo/2017/02/08/00/51/lion-2047412_1280.jpg"
    },
    {
        "id": "7734171",
        "src640": "https://cdn.pixabay.com/photo/2023/01/21/15/05/ai-generated-7734171_640.jpg",
        "src1280": "https://cdn.pixabay.com/photo/2023/01/21/15/05/ai-generated-7734171_1280.jpg"
    },
    {
        "id": "7349838",
        "src640": "https://cdn.pixabay.com/photo/2022/07/28/13/09/boy-7349838_640.jpg",
        "src1280": "https://cdn.pixabay.com/photo/2022/07/28/13/09/boy-7349838_1280.jpg"
    },
    {
        "id": "7552897",
        "src640": "https://cdn.pixabay.com/photo/2022/10/28/11/02/whale-7552897_640.jpg",
        "src1280": "https://cdn.pixabay.com/photo/2022/10/28/11/02/whale-7552897_1280.jpg"
    },
    {
        "id": "990320",
        "src640": "https://cdn.pixabay.com/photo/2015/10/16/01/11/water-990320_640.jpg",
        "src1280": "https://cdn.pixabay.com/photo/2015/10/16/01/11/water-990320_1280.jpg"
    },
    {
        "id": "5190760",
        "src640": "https://cdn.pixabay.com/photo/2020/05/19/13/17/cartoon-5190760_640.jpg",
        "src1280": "https://cdn.pixabay.com/photo/2020/05/19/13/17/cartoon-5190760_1280.jpg"
    },
    {
        "id": "8379447",
        "src640": "https://cdn.pixabay.com/photo/2023/11/10/14/39/ai-generated-8379447_640.jpg",
        "src1280": "https://cdn.pixabay.com/photo/2023/11/10/14/39/ai-generated-8379447_1280.jpg"
    },
    {
        "id": "1235199",
        "src640": "https://cdn.pixabay.com/photo/2016/03/03/22/55/animals-1235199_640.jpg",
        "src1280": "https://cdn.pixabay.com/photo/2016/03/03/22/55/animals-1235199_1280.jpg"
    },
    {
        "id": "5436748",
        "src640": "https://cdn.pixabay.com/photo/2020/07/25/13/47/boat-5436748_640.jpg",
        "src1280": "https://cdn.pixabay.com/photo/2020/07/25/13/47/boat-5436748_1280.jpg"
    },
    {
        "id": "8465420",
        "src640": "https://cdn.pixabay.com/photo/2023/12/23/12/21/ai-generated-8465420_640.jpg",
        "src1280": "https://cdn.pixabay.com/photo/2023/12/23/12/21/ai-generated-8465420_1280.jpg"
    },
    {
        "id": "1831516",
        "src640": "https://cdn.pixabay.com/photo/2016/11/17/13/03/caricature-1831516_640.jpg",
        "src1280": "https://cdn.pixabay.com/photo/2016/11/17/13/03/caricature-1831516_1280.jpg"
    },
    {
        "id": "5307402",
        "src640": "https://cdn.pixabay.com/photo/2020/06/16/22/06/horse-5307402_640.jpg",
        "src1280": "https://cdn.pixabay.com/photo/2020/06/16/22/06/horse-5307402_1280.jpg"
    },
    {
        "id": "6027438",
        "src640": "https://cdn.pixabay.com/photo/2021/02/18/14/47/girl-6027438_640.jpg",
        "src1280": "https://cdn.pixabay.com/photo/2021/02/18/14/47/girl-6027438_1280.jpg"
    },
    {
        "id": "985966",
        "src640": "https://cdn.pixabay.com/photo/2015/10/13/11/42/abstract-985966_640.jpg",
        "src1280": "https://cdn.pixabay.com/photo/2015/10/13/11/42/abstract-985966_1280.jpg"
    },
    {
        "id": "1246810",
        "src640": "https://cdn.pixabay.com/photo/2016/03/09/16/27/frame-1246810_640.jpg",
        "src1280": "https://cdn.pixabay.com/photo/2016/03/09/16/27/frame-1246810_1280.jpg"
    },
    {
        "id": "3255208",
        "src640": "https://cdn.pixabay.com/photo/2018/03/23/22/44/pirate-3255208_640.jpg",
        "src1280": "https://cdn.pixabay.com/photo/2018/03/23/22/44/pirate-3255208_1280.jpg"
    },
    {
        "id": "1935294",
        "src640": "https://cdn.pixabay.com/photo/2016/12/28/03/18/water-1935294_640.jpg",
        "src1280": "https://cdn.pixabay.com/photo/2016/12/28/03/18/water-1935294_1280.jpg"
    },
    {
        "id": "8090724",
        "src640": "https://cdn.pixabay.com/photo/2023/06/26/20/28/ai-generated-8090724_640.jpg",
        "src1280": "https://cdn.pixabay.com/photo/2023/06/26/20/28/ai-generated-8090724_1280.jpg"
    },
    {
        "id": "7773957",
        "src640": "https://cdn.pixabay.com/photo/2023/02/07/11/49/lady-7773957_640.jpg",
        "src1280": "https://cdn.pixabay.com/photo/2023/02/07/11/49/lady-7773957_1280.jpg"
    },
    {
        "id": "5876896",
        "src640": "https://cdn.pixabay.com/photo/2020/12/31/15/57/woman-5876896_640.jpg",
        "src1280": "https://cdn.pixabay.com/photo/2020/12/31/15/57/woman-5876896_1280.jpg"
    },
    {
        "id": "990365",
        "src640": "https://cdn.pixabay.com/photo/2015/10/16/01/24/pet-990365_640.jpg",
        "src1280": "https://cdn.pixabay.com/photo/2015/10/16/01/24/pet-990365_1280.jpg"
    },
    {
        "id": "2953383",
        "src640": "https://cdn.pixabay.com/photo/2017/11/16/05/42/tourist-2953383_640.jpg",
        "src1280": "https://cdn.pixabay.com/photo/2017/11/16/05/42/tourist-2953383_1280.jpg"
    },
    {
        "id": "909232",
        "src640": "https://cdn.pixabay.com/photo/2015/08/27/00/00/letter-c-909232_640.jpg",
        "src1280": "https://cdn.pixabay.com/photo/2015/08/27/00/00/letter-c-909232_1280.jpg"
    },
    {
        "id": "580758",
        "src640": "https://cdn.pixabay.com/photo/2014/12/26/22/31/squirrel-580758_640.jpg",
        "src1280": "https://cdn.pixabay.com/photo/2014/12/26/22/31/squirrel-580758_1280.jpg"
    }
]