[
    {
        "id": "7070335",
        "src640": "https://cdn.pixabay.com/photo/2022/03/15/13/11/cake-7070335_640.jpg",
        "src1280": "https://cdn.pixabay.com/photo/2022/03/15/13/11/cake-7070335_1280.jpg"
    },
    {
        "id": "6125384",
        "src640": "https://cdn.pixabay.com/photo/2021/03/26/09/33/bear-6125384_640.jpg",
        "src1280": "https://cdn.pixabay.com/photo/2021/03/26/09/33/bear-6125384_1280.jpg"
    },
    {
        "id": "8447108",
        "src640": "https://cdn.pixabay.com/photo/2023/12/13/15/24/woman-8447108_640.jpg",
        "src1280": "https://cdn.pixabay.com/photo/2023/12/13/15/24/woman-8447108_1280.jpg"
    },
    {
        "id": "5190763",
        "src640": "https://cdn.pixabay.com/photo/2020/05/19/13/18/cartoon-5190763_640.jpg",
        "src1280": "https://cdn.pixabay.com/photo/2020/05/19/13/18/cartoon-5190763_1280.jpg"
    },
    {
        "id": "1611056",
        "src640": "https://cdn.pixabay.com/photo/2016/08/21/23/47/tree-1611056_640.jpg",
        "src1280": "https://cdn.pixabay.com/photo/2016/08/21/23/47/tree-1611056_1280.jpg"
    },
    {
        "id": "2976421",
        "src640": "https://cdn.pixabay.com/photo/2017/11/25/09/24/model-2976421_640.jpg",
        "src1280": "https://cdn.pixabay.com/photo/2017/11/25/09/24/model-2976421_1280.jpg"
    },
    {
        "id": "1111703",
        "src640": "https://cdn.pixabay.com/photo/2015/12/28/17/41/person-1111703_640.jpg",
        "src1280": "https://cdn.pixabay.com/photo/2015/12/28/17/41/person-1111703_1280.jpg"
    },
    {
        "id": "5190772",
        "src640": "https://cdn.pixabay.com/photo/2020/05/19/13/20/cartoon-5190772_640.jpg",
        "src1280": "https://cdn.pixabay.com/photo/2020/05/19/13/20/cartoon-5190772_1280.jpg"
    },
    {
        "id": "1070323",
        "src640": "https://cdn.pixabay.com/photo/2015/11/30/13/18/food-1070323_640.jpg",
        "src1280": "https://cdn.pixabay.com/photo/2015/11/30/13/18/food-1070323_1280.jpg"
    },
    {
        "id": "6144174",
        "src640": "https://cdn.pixabay.com/photo/2021/04/02/07/41/girl-6144174_640.jpg",
        "src1280": "https://cdn.pixabay.com/photo/2021/04/02/07/41/girl-6144174_1280.jpg"
    },
    {
        "id": "817751",
        "src640": "https://cdn.pixabay.com/photo/2015/06/22/16/45/dogs-817751_640.jpg",
        "src1280": "https://cdn.pixabay.com/photo/2015/06/22/16/45/dogs-817751_1280.jpg"
    },
    {
        "id": "8347911",
        "src640": "https://cdn.pixabay.com/photo/2023/10/28/16/43/dalmatian-8347911_640.jpg",
        "src1280": "https://cdn.pixabay.com/photo/2023/10/28/16/43/dalmatian-8347911_1280.jpg"
    },
    {
        "id": "985367",
        "src640": "https://cdn.pixabay.com/photo/2015/10/12/23/49/comic-985367_640.jpg",
        "src1280": "https://cdn.pixabay.com/photo/2015/10/12/23/49/comic-985367_1280.jpg"
    },
    {
        "id": "7482340",
        "src640": "https://cdn.pixabay.com/photo/2022/09/27/08/22/violonist-7482340_640.jpg",
        "src1280": "https://cdn.pixabay.com/photo/2022/09/27/08/22/violonist-7482340_1280.jpg"
    },
    {
        "id": "7681056",
        "src640": "https://cdn.pixabay.com/photo/2022/12/27/14/05/dogs-7681056_640.jpg",
        "src1280": "https://cdn.pixabay.com/photo/2022/12/27/14/05/dogs-7681056_1280.jpg"
    },
    {
        "id": "5260500",
        "src640": "https://cdn.pixabay.com/photo/2020/06/04/20/51/cartoon-5260500_640.jpg",
        "src1280": "https://cdn.pixabay.com/photo/2020/06/04/20/51/cartoon-5260500_1280.jpg"
    },
    {
        "id": "6177632",
        "src640": "https://cdn.pixabay.com/photo/2021/04/14/08/16/girl-6177632_640.jpg",
        "src1280": "https://cdn.pixabay.com/photo/2021/04/14/08/16/girl-6177632_1280.jpg"
    },
    {
        "id": "1118397",
        "src640": "https://cdn.pixabay.com/photo/2016/01/02/16/08/one-piece-1118397_640.jpg",
        "src1280": "https://cdn.pixabay.com/photo/2016/01/02/16/08/one-piece-1118397_1280.jpg"
    },
    {
        "id": "4807369",
        "src640": "https://cdn.pixabay.com/photo/2020/01/31/07/47/cartoon-4807369_640.jpg",
        "src1280": "https://cdn.pixabay.com/photo/2020/01/31/07/47/cartoon-4807369_1280.jpg"
    },
    {
        "id": "5307356",
        "src640": "https://cdn.pixabay.com/photo/2020/06/16/21/46/men-5307356_640.jpg",
        "src1280": "https://cdn.pixabay.com/photo/2020/06/16/21/46/men-5307356_1280.jpg"
    },
    {
        "id": "7770788",
        "src640": "https://cdn.pixabay.com/photo/2023/02/05/22/53/tape-7770788_640.jpg",
        "src1280": "https://cdn.pixabay.com/photo/2023/02/05/22/53/tape-7770788_1280.jpg"
    },
    {
        "id": "220279",
        "src640": "https://cdn.pixabay.com/photo/2013/11/28/11/31/parrot-220279_640.jpg",
        "src1280": "https://cdn.pixabay.com/photo/2013/11/28/11/31/parrot-220279_1280.jpg"
    },
    {
        "id": "5200910",
        "src640": "https://cdn.pixabay.com/photo/2020/05/21/14/09/mouse-5200910_640.jpg",
        "src1280": "https://cdn.pixabay.com/photo/2020/05/21/14/09/mouse-5200910_1280.jpg"
    },
    {
        "id": "7552895",
        "src640": "https://cdn.pixabay.com/photo/2022/10/28/11/02/whales-7552895_640.jpg",
        "src1280": "https://cdn.pixabay.com/photo/2022/10/28/11/02/whales-7552895_1280.jpg"
    },
    {
        "id": "6789190",
        "src640": "https://cdn.pixabay.com/photo/2021/11/12/14/33/captain-america-6789190_640.jpg",
        "src1280": "https://cdn.pixabay.com/photo/2021/11/12/14/33/captain-america-6789190_1280.jpg"
    },
    {
        "id": "5876895",
        "src640": "https://cdn.pixabay.com/photo/2020/12/31/15/57/bicycle-5876895_640.jpg",
        "src1280": "https://cdn.pixabay.com/photo/2020/12/31/15/57/bicycle-5876895_1280.jpg"
    },
    {
        "id": "4826581",
        "src640": "https://cdn.pixabay.com/photo/2020/02/07/08/45/mountain-4826581_640.jpg",
        "src1280": "https://cdn.pixabay.com/photo/2020/02/07/08/45/mountain-4826581_1280.jpg"
    },
    {
        "id": "7552896",
        "src640": "https://cdn.pixabay.com/photo/2022/10/28/11/02/whale-7552896_640.jpg",
        "src1280": "https://cdn.pixabay.com/photo/2022/10/28/11/02/whale-7552896_1280.jpg"
    },
    {
        "id": "2958232",
        "src640": "https://cdn.pixabay.com/photo/2017/11/17/19/12/businessman-2958232_640.jpg",
        "src1280": "https://cdn.pixabay.com/photo/2017/11/17/19/12/businessman-2958232_1280.jpg"
    }
]