[
    {
        "id": "5239295",
        "src640": "https://cdn.pixabay.com/photo/2020/05/30/15/29/space-5239295_640.jpg",
        "src1280": "https://cdn.pixabay.com/photo/2020/05/30/15/29/space-5239295_1280.jpg"
    },
    {
        "id": "8400115",
        "src640": "https://cdn.pixabay.com/photo/2023/11/20/02/04/women-8400115_640.jpg",
        "src1280": "https://cdn.pixabay.com/photo/2023/11/20/02/04/women-8400115_1280.jpg"
    },
    {
        "id": "8183911",
        "src640": "https://cdn.pixabay.com/photo/2023/08/11/16/46/man-8183911_640.jpg",
        "src1280": "https://cdn.pixabay.com/photo/2023/08/11/16/46/man-8183911_1280.jpg"
    },
    {
        "id": "5424442",
        "src640": "https://cdn.pixabay.com/photo/2020/07/20/21/43/dog-house-5424442_640.jpg",
        "src1280": "https://cdn.pixabay.com/photo/2020/07/20/21/43/dog-house-5424442_1280.jpg"
    },
    {
        "id": "4451035",
        "src640": "https://cdn.pixabay.com/photo/2019/09/04/08/36/gaulois-4451035_640.jpg",
        "src1280": "https://cdn.pixabay.com/photo/2019/09/04/08/36/gaulois-4451035_1280.jpg"
    },
    {
        "id": "225695",
        "src640": "https://cdn.pixabay.com/photo/2013/12/09/10/03/woman-225695_640.jpg",
        "src1280": "https://cdn.pixabay.com/photo/2013/12/09/10/03/woman-225695_1280.jpg"
    },
    {
        "id": "1185918",
        "src640": "https://cdn.pixabay.com/photo/2016/02/08/01/09/smiley-background-1185918_640.jpg",
        "src1280": "https://cdn.pixabay.com/photo/2016/02/08/01/09/smiley-background-1185918_1280.jpg"
    },
    {
        "id": "6144177",
        "src640": "https://cdn.pixabay.com/photo/2021/04/02/07/41/bear-6144177_640.jpg",
        "src1280": "https://cdn.pixabay.com/photo/2021/04/02/07/41/bear-6144177_1280.jpg"
    },
    {
        "id": "7237993",
        "src640": "https://cdn.pixabay.com/photo/2022/06/02/13/06/girl-7237993_640.jpg",
        "src1280": "https://cdn.pixabay.com/photo/2022/06/02/13/06/girl-7237993_1280.jpg"
    },
    {
        "id": "1693733",
        "src640": "https://cdn.pixabay.com/photo/2016/09/25/13/53/cow-1693733_640.jpg",
        "src1280": "https://cdn.pixabay.com/photo/2016/09/25/13/53/cow-1693733_1280.jpg"
    },
    {
        "id": "7368651",
        "src640": "https://cdn.pixabay.com/photo/2022/08/06/13/38/business-woman-7368651_640.jpg",
        "src1280": "https://cdn.pixabay.com/photo/2022/08/06/13/38/business-woman-7368651_1280.jpg"
    },
    {
        "id": "7043140",
        "src640": "https://cdn.pixabay.com/photo/2022/03/02/13/05/lost-7043140_640.jpg",
        "src1280": "https://cdn.pixabay.com/photo/2022/03/02/13/05/lost-7043140_1280.jpg"
    },
    {
        "id": "5009737",
        "src640": "https://cdn.pixabay.com/photo/2020/04/06/13/40/cowboy-5009737_640.jpg",
        "src1280": "https://cdn.pixabay.com/photo/2020/04/06/13/40/cowboy-5009737_1280.jpg"
    },
    {
        "id": "6255522",
        "src640": "https://cdn.pixabay.com/photo/2021/05/15/10/59/beauty-6255522_640.jpg",
        "src1280": "https://cdn.pixabay.com/photo/2021/05/15/10/59/beauty-6255522_1280.jpg"
    },
    {
        "id": "2006742",
        "src640": "https://cdn.pixabay.com/photo/2017/01/24/23/58/simpsons-2006742_640.jpg",
        "src1280": "https://cdn.pixabay.com/photo/2017/01/24/23/58/simpsons-2006742_1280.jpg"
    },
    {
        "id": "8214534",
        "src640": "https://cdn.pixabay.com/photo/2023/08/26/09/39/doctor-8214534_640.jpg",
        "src1280": "https://cdn.pixabay.com/photo/2023/08/26/09/39/doctor-8214534_1280.jpg"
    },
    {
        "id": "8360864",
        "src640": "https://cdn.pixabay.com/photo/2023/11/02/15/09/cartoon-8360864_640.jpg",
        "src1280": "https://cdn.pixabay.com/photo/2023/11/02/15/09/cartoon-8360864_1280.jpg"
    },
    {
        "id": "8158682",
        "src640": "https://cdn.pixabay.com/photo/2023/07/30/11/39/girl-8158682_640.jpg",
        "src1280": "https://cdn.pixabay.com/photo/2023/07/30/11/39/girl-8158682_1280.jpg"
    },
    {
        "id": "7817335",
        "src640": "https://cdn.pixabay.com/photo/2023/02/27/04/26/rainbow-7817335_640.jpg",
        "src1280": "https://cdn.pixabay.com/photo/2023/02/27/04/26/rainbow-7817335_1280.jpg"
    },
    {
        "id": "7623461",
        "src640": "https://cdn.pixabay.com/photo/2022/11/29/01/05/t-rex-7623461_640.jpg",
        "src1280": "https://cdn.pixabay.com/photo/2022/11/29/01/05/t-rex-7623461_1280.jpg"
    },
    {
        "id": "4385316",
        "src640": "https://cdn.pixabay.com/photo/2019/08/05/06/16/turtle-4385316_640.jpg",
        "src1280": "https://cdn.pixabay.com/photo/2019/08/05/06/16/turtle-4385316_1280.jpg"
    },
    {
        "id": "7148119",
        "src640": "https://cdn.pixabay.com/photo/2022/04/21/18/52/flowers-7148119_640.jpg",
        "src1280": "https://cdn.pixabay.com/photo/2022/04/21/18/52/flowers-7148119_1280.jpg"
    },
    {
        "id": "1099747",
        "src640": "https://cdn.pixabay.com/photo/2015/12/19/13/07/child-1099747_640.jpg",
        "src1280": "https://cdn.pixabay.com/photo/2015/12/19/13/07/child-1099747_1280.jpg"
    },
    {
        "id": "7477619",
        "src640": "https://cdn.pixabay.com/photo/2022/09/25/05/31/red-riding-hood-7477619_640.jpg",
        "src1280": "https://cdn.pixabay.com/photo/2022/09/25/05/31/red-riding-hood-7477619_1280.jpg"
    },
    {
        "id": "7804249",
        "src640": "https://cdn.pixabay.com/photo/2023/02/21/13/09/poster-7804249_640.jpg",
        "src1280": "https://cdn.pixabay.com/photo/2023/02/21/13/09/poster-7804249_1280.jpg"
    },
    {
        "id": "7833565",
        "src640": "https://cdn.pixabay.com/photo/2023/03/06/14/19/monkey-7833565_640.jpg",
        "src1280": "https://cdn.pixabay.com/photo/2023/03/06/14/19/monkey-7833565_1280.jpg"
    },
    {
        "id": "8229796",
        "src640": "https://cdn.pixabay.com/photo/2023/09/03/02/21/ai-generated-8229796_640.jpg",
        "src1280": "https://cdn.pixabay.com/photo/2023/09/03/02/21/ai-generated-8229796_1280.jpg"
    },
    {
        "id": "4921654",
        "src640": "https://cdn.pixabay.com/photo/2020/03/11/10/09/schoolgirl-4921654_640.jpg",
        "src1280": "https://cdn.pixabay.com/photo/2020/03/11/10/09/schoolgirl-4921654_1280.jpg"
    },
    {
        "id": "3349343",
        "src640": "https://cdn.pixabay.com/photo/2018/04/25/11/56/marketing-3349343_640.jpg",
        "src1280": "https://cdn.pixabay.com/photo/2018/04/25/11/56/marketing-3349343_1280.jpg"
    },
    {
        "id": "985544",
        "src640": "https://cdn.pixabay.com/photo/2015/10/13/03/24/agriculture-985544_640.jpg",
        "src1280": "https://cdn.pixabay.com/photo/2015/10/13/03/24/agriculture-985544_1280.jpg"
    }
]