[
    {
        "id": "817214",
        "src640": "https://cdn.pixabay.com/photo/2015/06/22/02/22/portrait-817214_640.jpg",
        "src1280": "https://cdn.pixabay.com/photo/2015/06/22/02/22/portrait-817214_1280.jpg"
    },
    {
        "id": "2124560",
        "src640": "https://cdn.pixabay.com/photo/2017/03/07/16/31/people-2124560_640.jpg",
        "src1280": "https://cdn.pixabay.com/photo/2017/03/07/16/31/people-2124560_1280.jpg"
    },
    {
        "id": "6587539",
        "src640": "https://cdn.pixabay.com/photo/2021/08/31/02/59/painting-6587539_640.jpg",
        "src1280": "https://cdn.pixabay.com/photo/2021/08/31/02/59/painting-6587539_1280.jpg"
    },
    {
        "id": "2124568",
        "src640": "https://cdn.pixabay.com/photo/2017/03/07/16/39/people-2124568_640.jpg",
        "src1280": "https://cdn.pixabay.com/photo/2017/03/07/16/39/people-2124568_1280.jpg"
    },
    {
        "id": "8321687",
        "src640": "https://cdn.pixabay.com/photo/2023/10/17/15/52/ai-generated-8321687_640.jpg",
        "src1280": "https://cdn.pixabay.com/photo/2023/10/17/15/52/ai-generated-8321687_1280.jpg"
    },
    {
        "id": "4341816",
        "src640": "https://cdn.pixabay.com/photo/2019/07/16/12/52/nun-4341816_640.jpg",
        "src1280": "https://cdn.pixabay.com/photo/2019/07/16/12/52/nun-4341816_1280.jpg"
    },
    {
        "id": "7546504",
        "src640": "https://cdn.pixabay.com/photo/2022/10/25/17/48/halloween-7546504_640.jpg",
        "src1280": "https://cdn.pixabay.com/photo/2022/10/25/17/48/halloween-7546504_1280.jpg"
    },
    {
        "id": "8158680",
        "src640": "https://cdn.pixabay.com/photo/2023/07/30/11/39/girl-8158680_640.jpg",
        "src1280": "https://cdn.pixabay.com/photo/2023/07/30/11/39/girl-8158680_1280.jpg"
    },
    {
        "id": "1316359",
        "src640": "https://cdn.pixabay.com/photo/2016/04/08/15/55/people-1316359_640.jpg",
        "src1280": "https://cdn.pixabay.com/photo/2016/04/08/15/55/people-1316359_1280.jpg"
    },
    {
        "id": "7267877",
        "src640": "https://cdn.pixabay.com/photo/2022/06/17/12/57/medieval-7267877_640.jpg",
        "src1280": "https://cdn.pixabay.com/photo/2022/06/17/12/57/medieval-7267877_1280.jpg"
    },
    {
        "id": "5483539",
        "src640": "https://cdn.pixabay.com/photo/2020/08/12/19/39/beef-5483539_640.jpg",
        "src1280": "https://cdn.pixabay.com/photo/2020/08/12/19/39/beef-5483539_1280.jpg"
    },
    {
        "id": "7895149",
        "src640": "https://cdn.pixabay.com/photo/2023/04/02/18/08/woman-7895149_640.jpg",
        "src1280": "https://cdn.pixabay.com/photo/2023/04/02/18/08/woman-7895149_1280.jpg"
    },
    {
        "id": "8158683",
        "src640": "https://cdn.pixabay.com/photo/2023/07/30/11/39/girl-8158683_640.jpg",
        "src1280": "https://cdn.pixabay.com/photo/2023/07/30/11/39/girl-8158683_1280.jpg"
    },
    {
        "id": "4385317",
        "src640": "https://cdn.pixabay.com/photo/2019/08/05/06/16/gopher-4385317_640.jpg",
        "src1280": "https://cdn.pixabay.com/photo/2019/08/05/06/16/gopher-4385317_1280.jpg"
    },
    {
        "id": "7267869",
        "src640": "https://cdn.pixabay.com/photo/2022/06/17/12/56/business-7267869_640.jpg",
        "src1280": "https://cdn.pixabay.com/photo/2022/06/17/12/56/business-7267869_1280.jpg"
    },
    {
        "id": "8158679",
        "src640": "https://cdn.pixabay.com/photo/2023/07/30/11/39/girl-8158679_640.jpg",
        "src1280": "https://cdn.pixabay.com/photo/2023/07/30/11/39/girl-8158679_1280.jpg"
    },
    {
        "id": "7198952",
        "src640": "https://cdn.pixabay.com/photo/2022/05/15/20/25/girl-7198952_640.jpg",
        "src1280": "https://cdn.pixabay.com/photo/2022/05/15/20/25/girl-7198952_1280.jpg"
    },
    {
        "id": "7668111",
        "src640": "https://cdn.pixabay.com/photo/2022/12/20/15/03/dog-7668111_640.jpg",
        "src1280": "https://cdn.pixabay.com/photo/2022/12/20/15/03/dog-7668111_1280.jpg"
    },
    {
        "id": "1845224",
        "src640": "https://cdn.pixabay.com/photo/2016/11/21/12/49/mural-1845224_640.jpg",
        "src1280": "https://cdn.pixabay.com/photo/2016/11/21/12/49/mural-1845224_1280.jpg"
    },
    {
        "id": "2691224",
        "src640": "https://cdn.pixabay.com/photo/2017/08/28/20/52/spider-2691224_640.jpg",
        "src1280": "https://cdn.pixabay.com/photo/2017/08/28/20/52/spider-2691224_1280.jpg"
    },
    {
        "id": "7895150",
        "src640": "https://cdn.pixabay.com/photo/2023/04/02/18/08/woman-7895150_640.jpg",
        "src1280": "https://cdn.pixabay.com/photo/2023/04/02/18/08/woman-7895150_1280.jpg"
    },
    {
        "id": "7834488",
        "src640": "https://cdn.pixabay.com/photo/2023/03/06/21/22/love-7834488_640.jpg",
        "src1280": "https://cdn.pixabay.com/photo/2023/03/06/21/22/love-7834488_1280.jpg"
    },
    {
        "id": "2945101",
        "src640": "https://cdn.pixabay.com/photo/2017/11/13/09/50/musician-2945101_640.jpg",
        "src1280": "https://cdn.pixabay.com/photo/2017/11/13/09/50/musician-2945101_1280.jpg"
    },
    {
        "id": "7552899",
        "src640": "https://cdn.pixabay.com/photo/2022/10/28/11/02/whales-7552899_640.jpg",
        "src1280": "https://cdn.pixabay.com/photo/2022/10/28/11/02/whales-7552899_1280.jpg"
    },
    {
        "id": "4841848",
        "src640": "https://cdn.pixabay.com/photo/2020/02/12/06/59/the-addams-family-4841848_640.jpg",
        "src1280": "https://cdn.pixabay.com/photo/2020/02/12/06/59/the-addams-family-4841848_1280.jpg"
    },
    {
        "id": "7127715",
        "src640": "https://cdn.pixabay.com/photo/2022/04/12/10/43/cartoon-7127715_640.jpg",
        "src1280": "https://cdn.pixabay.com/photo/2022/04/12/10/43/cartoon-7127715_1280.jpg"
    },
    {
        "id": "5436749",
        "src640": "https://cdn.pixabay.com/photo/2020/07/25/13/47/boat-5436749_640.jpg",
        "src1280": "https://cdn.pixabay.com/photo/2020/07/25/13/47/boat-5436749_1280.jpg"
    },
    {
        "id": "3281950",
        "src640": "https://cdn.pixabay.com/photo/2018/04/01/19/53/realtor-3281950_640.jpg",
        "src1280": "https://cdn.pixabay.com/photo/2018/04/01/19/53/realtor-3281950_1280.jpg"
    },
    {
        "id": "1314677",
        "src640": "https://cdn.pixabay.com/photo/2016/04/07/20/49/holidays-1314677_640.jpg",
        "src1280": "https://cdn.pixabay.com/photo/2016/04/07/20/49/holidays-1314677_1280.jpg"
    },
    {
        "id": "4370087",
        "src640": "https://cdn.pixabay.com/photo/2019/07/29/07/39/gaulois-4370087_640.jpg",
        "src1280": "https://cdn.pixabay.com/photo/2019/07/29/07/39/gaulois-4370087_1280.jpg"
    },
    {
        "id": "4370092",
        "src640": "https://cdn.pixabay.com/photo/2019/07/29/07/39/gaulois-4370092_640.jpg",
        "src1280": "https://cdn.pixabay.com/photo/2019/07/29/07/39/gaulois-4370092_1280.jpg"
    },
    {
        "id": "8111105",
        "src640": "https://cdn.pixabay.com/photo/2023/07/06/18/55/medieval-8111105_640.jpg",
        "src1280": "https://cdn.pixabay.com/photo/2023/07/06/18/55/medieval-8111105_1280.jpg"
    },
    {
        "id": "7127718",
        "src640": "https://cdn.pixabay.com/photo/2022/04/12/10/44/cartoon-7127718_640.jpg",
        "src1280": "https://cdn.pixabay.com/photo/2022/04/12/10/44/cartoon-7127718_1280.jpg"
    },
    {
        "id": "8311160",
        "src640": "https://cdn.pixabay.com/photo/2023/10/12/16/07/ai-generated-8311160_640.jpg",
        "src1280": "https://cdn.pixabay.com/photo/2023/10/12/16/07/ai-generated-8311160_1280.jpg"
    },
    {
        "id": "2006756",
        "src640": "https://cdn.pixabay.com/photo/2017/01/24/23/59/simpsons-2006756_640.jpg",
        "src1280": "https://cdn.pixabay.com/photo/2017/01/24/23/59/simpsons-2006756_1280.jpg"
    },
    {
        "id": "6966487",
        "src640": "https://cdn.pixabay.com/photo/2022/01/25/15/26/monster-6966487_640.jpg",
        "src1280": "https://cdn.pixabay.com/photo/2022/01/25/15/26/monster-6966487_1280.jpg"
    },
    {
        "id": "988861",
        "src640": "https://cdn.pixabay.com/photo/2015/10/15/03/10/flag-988861_640.jpg",
        "src1280": "https://cdn.pixabay.com/photo/2015/10/15/03/10/flag-988861_1280.jpg"
    }
]