[
    {
        "id": "8388224",
        "src640": "https://cdn.pixabay.com/photo/2023/11/14/17/49/man-8388224_640.jpg",
        "src1280": "https://cdn.pixabay.com/photo/2023/11/14/17/49/man-8388224_1280.jpg"
    },
    {
        "id": "8249029",
        "src640": "https://cdn.pixabay.com/photo/2023/09/12/15/12/ai-generated-8249029_640.jpg",
        "src1280": "https://cdn.pixabay.com/photo/2023/09/12/15/12/ai-generated-8249029_1280.jpg"
    },
    {
        "id": "313458",
        "src640": "https://cdn.pixabay.com/photo/2014/04/04/14/56/cartoons-313458_640.jpg",
        "src1280": "https://cdn.pixabay.com/photo/2014/04/04/14/56/cartoons-313458_1280.jpg"
    },
    {
        "id": "6668859",
        "src640": "https://cdn.pixabay.com/photo/2021/09/30/03/13/cat-6668859_640.jpg",
        "src1280": "https://cdn.pixabay.com/photo/2021/09/30/03/13/cat-6668859_1280.jpg"
    },
    {
        "id": "7127711",
        "src640": "https://cdn.pixabay.com/photo/2022/04/12/10/39/cartoon-7127711_640.jpg",
        "src1280": "https://cdn.pixabay.com/photo/2022/04/12/10/39/cartoon-7127711_1280.jpg"
    },
    {
        "id": "8249025",
        "src640": "https://cdn.pixabay.com/photo/2023/09/12/15/12/ai-generated-8249025_640.jpg",
        "src1280": "https://cdn.pixabay.com/photo/2023/09/12/15/12/ai-generated-8249025_1280.jpg"
    },
    {
        "id": "2006754",
        "src640": "https://cdn.pixabay.com/photo/2017/01/24/23/59/simpsons-2006754_640.jpg",
        "src1280": "https://cdn.pixabay.com/photo/2017/01/24/23/59/simpsons-2006754_1280.jpg"
    },
    {
        "id": "1568553",
        "src640": "https://cdn.pixabay.com/photo/2016/08/04/08/06/newspaper-1568553_640.jpg",
        "src1280": "https://cdn.pixabay.com/photo/2016/08/04/08/06/newspaper-1568553_1280.jpg"
    },
    {
        "id": "7400760",
        "src640": "https://cdn.pixabay.com/photo/2022/08/21/09/28/birds-7400760_640.jpg",
        "src1280": "https://cdn.pixabay.com/photo/2022/08/21/09/28/birds-7400760_1280.jpg"
    },
    {
        "id": "8337711",
        "src640": "https://cdn.pixabay.com/photo/2023/10/24/08/27/art-8337711_640.jpg",
        "src1280": "https://cdn.pixabay.com/photo/2023/10/24/08/27/art-8337711_1280.jpg"
    },
    {
        "id": "8026380",
        "src640": "https://cdn.pixabay.com/photo/2023/05/29/15/46/man-8026380_640.jpg",
        "src1280": "https://cdn.pixabay.com/photo/2023/05/29/15/46/man-8026380_1280.jpg"
    },
    {
        "id": "6897939",
        "src640": "https://cdn.pixabay.com/photo/2021/12/27/18/12/woman-6897939_640.jpg",
        "src1280": "https://cdn.pixabay.com/photo/2021/12/27/18/12/woman-6897939_1280.jpg"
    },
    {
        "id": "7847128",
        "src640": "https://cdn.pixabay.com/photo/2023/03/12/15/06/girl-7847128_640.jpg",
        "src1280": "https://cdn.pixabay.com/photo/2023/03/12/15/06/girl-7847128_1280.jpg"
    },
    {
        "id": "7275197",
        "src640": "https://cdn.pixabay.com/photo/2022/06/21/06/07/medieval-7275197_640.jpg",
        "src1280": "https://cdn.pixabay.com/photo/2022/06/21/06/07/medieval-7275197_1280.jpg"
    },
    {
        "id": "8269119",
        "src640": "https://cdn.pixabay.com/photo/2023/09/22/13/52/ai-generated-8269119_640.jpg",
        "src1280": "https://cdn.pixabay.com/photo/2023/09/22/13/52/ai-generated-8269119_1280.jpg"
    },
    {
        "id": "8380874",
        "src640": "https://cdn.pixabay.com/photo/2023/11/11/09/38/man-8380874_640.jpg",
        "src1280": "https://cdn.pixabay.com/photo/2023/11/11/09/38/man-8380874_1280.jpg"
    },
    {
        "id": "8026383",
        "src640": "https://cdn.pixabay.com/photo/2023/05/29/15/47/man-8026383_640.jpg",
        "src1280": "https://cdn.pixabay.com/photo/2023/05/29/15/47/man-8026383_1280.jpg"
    },
    {
        "id": "8348983",
        "src640": "https://cdn.pixabay.com/photo/2023/10/29/08/39/ai-generated-8348983_640.jpg",
        "src1280": "https://cdn.pixabay.com/photo/2023/10/29/08/39/ai-generated-8348983_1280.jpg"
    },
    {
        "id": "5652555",
        "src640": "https://cdn.pixabay.com/photo/2020/10/13/18/31/woman-5652555_640.jpg",
        "src1280": "https://cdn.pixabay.com/photo/2020/10/13/18/31/woman-5652555_1280.jpg"
    },
    {
        "id": "8239132",
        "src640": "https://cdn.pixabay.com/photo/2023/09/07/13/52/ai-generated-8239132_640.jpg",
        "src1280": "https://cdn.pixabay.com/photo/2023/09/07/13/52/ai-generated-8239132_1280.jpg"
    },
    {
        "id": "7339946",
        "src640": "https://cdn.pixabay.com/photo/2022/07/23/13/26/baby-7339946_640.jpg",
        "src1280": "https://cdn.pixabay.com/photo/2022/07/23/13/26/baby-7339946_1280.jpg"
    },
    {
        "id": "7275206",
        "src640": "https://cdn.pixabay.com/photo/2022/06/21/06/08/business-7275206_640.jpg",
        "src1280": "https://cdn.pixabay.com/photo/2022/06/21/06/08/business-7275206_1280.jpg"
    },
    {
        "id": "7965185",
        "src640": "https://cdn.pixabay.com/photo/2023/05/02/13/07/gaul-7965185_640.jpg",
        "src1280": "https://cdn.pixabay.com/photo/2023/05/02/13/07/gaul-7965185_1280.jpg"
    },
    {
        "id": "7965189",
        "src640": "https://cdn.pixabay.com/photo/2023/05/02/13/08/gaul-7965189_640.jpg",
        "src1280": "https://cdn.pixabay.com/photo/2023/05/02/13/08/gaul-7965189_1280.jpg"
    },
    {
        "id": "7804721",
        "src640": "https://cdn.pixabay.com/photo/2023/02/21/17/20/backpacking-7804721_640.jpg",
        "src1280": "https://cdn.pixabay.com/photo/2023/02/21/17/20/backpacking-7804721_1280.jpg"
    },
    {
        "id": "8269115",
        "src640": "https://cdn.pixabay.com/photo/2023/09/22/13/52/ai-generated-8269115_640.jpg",
        "src1280": "https://cdn.pixabay.com/photo/2023/09/22/13/52/ai-generated-8269115_1280.jpg"
    },
    {
        "id": "8324410",
        "src640": "https://cdn.pixabay.com/photo/2023/10/18/14/26/man-8324410_640.jpg",
        "src1280": "https://cdn.pixabay.com/photo/2023/10/18/14/26/man-8324410_1280.jpg"
    },
    {
        "id": "4766135",
        "src640": "https://cdn.pixabay.com/photo/2020/01/14/19/46/gadgets-4766135_640.jpg",
        "src1280": "https://cdn.pixabay.com/photo/2020/01/14/19/46/gadgets-4766135_1280.jpg"
    },
    {
        "id": "7824666",
        "src640": "https://cdn.pixabay.com/photo/2023/03/02/07/02/superhero-7824666_640.jpg",
        "src1280": "https://cdn.pixabay.com/photo/2023/03/02/07/02/superhero-7824666_1280.jpg"
    },
    {
        "id": "7426878",
        "src640": "https://cdn.pixabay.com/photo/2022/09/02/07/26/rick-sanchez-7426878_640.jpg",
        "src1280": "https://cdn.pixabay.com/photo/2022/09/02/07/26/rick-sanchez-7426878_1280.jpg"
    },
    {
        "id": "2794863",
        "src640": "https://cdn.pixabay.com/photo/2017/09/28/09/36/squirrel-2794863_640.jpg",
        "src1280": "https://cdn.pixabay.com/photo/2017/09/28/09/36/squirrel-2794863_1280.jpg"
    },
    {
        "id": "8111111",
        "src640": "https://cdn.pixabay.com/photo/2023/07/06/18/55/medieval-8111111_640.jpg",
        "src1280": "https://cdn.pixabay.com/photo/2023/07/06/18/55/medieval-8111111_1280.jpg"
    },
    {
        "id": "2639609",
        "src640": "https://cdn.pixabay.com/photo/2017/08/14/07/52/harlequins-2639609_640.jpg",
        "src1280": "https://cdn.pixabay.com/photo/2017/08/14/07/52/harlequins-2639609_1280.jpg"
    },
    {
        "id": "8026386",
        "src640": "https://cdn.pixabay.com/photo/2023/05/29/15/47/man-8026386_640.jpg",
        "src1280": "https://cdn.pixabay.com/photo/2023/05/29/15/47/man-8026386_1280.jpg"
    },
    {
        "id": "7306111",
        "src640": "https://cdn.pixabay.com/photo/2022/07/06/22/29/monster-7306111_640.jpg",
        "src1280": "https://cdn.pixabay.com/photo/2022/07/06/22/29/monster-7306111_1280.jpg"
    },
    {
        "id": "562937",
        "src640": "https://cdn.pixabay.com/photo/2014/12/10/09/54/cartoon-562937_640.jpg",
        "src1280": "https://cdn.pixabay.com/photo/2014/12/10/09/54/cartoon-562937_1280.jpg"
    },
    {
        "id": "8259111",
        "src640": "https://cdn.pixabay.com/photo/2023/09/17/18/20/ai-generated-8259111_640.jpg",
        "src1280": "https://cdn.pixabay.com/photo/2023/09/17/18/20/ai-generated-8259111_1280.jpg"
    },
    {
        "id": "81406",
        "src640": "https://cdn.pixabay.com/photo/2013/02/13/17/46/shoe-81406_640.jpg",
        "src1280": "https://cdn.pixabay.com/photo/2013/02/13/17/46/shoe-81406_1280.jpg"
    }
]