[
    {
        "id": "8007753",
        "src640": "https://cdn.pixabay.com/photo/2023/05/21/03/18/ai-generated-8007753_640.jpg",
        "src1280": "https://cdn.pixabay.com/photo/2023/05/21/03/18/ai-generated-8007753_1280.jpg"
    },
    {
        "id": "8395966",
        "src640": "https://cdn.pixabay.com/photo/2023/11/18/09/11/ai-generated-8395966_640.jpg",
        "src1280": "https://cdn.pixabay.com/photo/2023/11/18/09/11/ai-generated-8395966_1280.jpg"
    },
    {
        "id": "1639651",
        "src640": "https://cdn.pixabay.com/photo/2016/09/02/16/09/addiction-1639651_640.jpg",
        "src1280": "https://cdn.pixabay.com/photo/2016/09/02/16/09/addiction-1639651_1280.jpg"
    },
    {
        "id": "7971312",
        "src640": "https://cdn.pixabay.com/photo/2023/05/05/01/08/fairy-tale-7971312_640.jpg",
        "src1280": "https://cdn.pixabay.com/photo/2023/05/05/01/08/fairy-tale-7971312_1280.jpg"
    },
    {
        "id": "4409483",
        "src640": "https://cdn.pixabay.com/photo/2019/08/16/06/19/coloring-pages-4409483_640.jpg",
        "src1280": "https://cdn.pixabay.com/photo/2019/08/16/06/19/coloring-pages-4409483_1280.jpg"
    },
    {
        "id": "6136129",
        "src640": "https://cdn.pixabay.com/photo/2021/03/30/07/30/snoopy-6136129_640.jpg",
        "src1280": "https://cdn.pixabay.com/photo/2021/03/30/07/30/snoopy-6136129_1280.jpg"
    },
    {
        "id": "5362857",
        "src640": "https://cdn.pixabay.com/photo/2020/07/02/12/34/skeleton-5362857_640.jpg",
        "src1280": "https://cdn.pixabay.com/photo/2020/07/02/12/34/skeleton-5362857_1280.jpg"
    },
    {
        "id": "1033300",
        "src640": "https://cdn.pixabay.com/photo/2015/11/08/09/08/little-1033300_640.jpg",
        "src1280": "https://cdn.pixabay.com/photo/2015/11/08/09/08/little-1033300_1280.jpg"
    },
    {
        "id": "6524762",
        "src640": "https://cdn.pixabay.com/photo/2021/08/05/19/52/doll-6524762_640.jpg",
        "src1280": "https://cdn.pixabay.com/photo/2021/08/05/19/52/doll-6524762_1280.jpg"
    },
    {
        "id": "6125374",
        "src640": "https://cdn.pixabay.com/photo/2021/03/26/09/32/snoopy-6125374_640.jpg",
        "src1280": "https://cdn.pixabay.com/photo/2021/03/26/09/32/snoopy-6125374_1280.jpg"
    },
    {
        "id": "5311845",
        "src640": "https://cdn.pixabay.com/photo/2020/06/18/03/56/dancers-5311845_640.jpg",
        "src1280": "https://cdn.pixabay.com/photo/2020/06/18/03/56/dancers-5311845_1280.jpg"
    },
    {
        "id": "7971314",
        "src640": "https://cdn.pixabay.com/photo/2023/05/05/01/09/fairy-tale-7971314_640.jpg",
        "src1280": "https://cdn.pixabay.com/photo/2023/05/05/01/09/fairy-tale-7971314_1280.jpg"
    },
    {
        "id": "3451342",
        "src640": "https://cdn.pixabay.com/photo/2018/06/03/19/28/donkey-3451342_640.jpg",
        "src1280": "https://cdn.pixabay.com/photo/2018/06/03/19/28/donkey-3451342_1280.jpg"
    },
    {
        "id": "2750905",
        "src640": "https://cdn.pixabay.com/photo/2017/09/15/01/28/water-2750905_640.jpg",
        "src1280": "https://cdn.pixabay.com/photo/2017/09/15/01/28/water-2750905_1280.jpg"
    },
    {
        "id": "8213010",
        "src640": "https://cdn.pixabay.com/photo/2023/08/25/13/23/ai-generated-8213010_640.jpg",
        "src1280": "https://cdn.pixabay.com/photo/2023/08/25/13/23/ai-generated-8213010_1280.jpg"
    },
    {
        "id": "3694814",
        "src640": "https://cdn.pixabay.com/photo/2018/09/22/09/52/music-music-fruit-3694814_640.jpg",
        "src1280": "https://cdn.pixabay.com/photo/2018/09/22/09/52/music-music-fruit-3694814_1280.jpg"
    },
    {
        "id": "4990203",
        "src640": "https://cdn.pixabay.com/photo/2020/04/01/07/05/medieval-4990203_640.jpg",
        "src1280": "https://cdn.pixabay.com/photo/2020/04/01/07/05/medieval-4990203_1280.jpg"
    },
    {
        "id": "7922946",
        "src640": "https://cdn.pixabay.com/photo/2023/04/13/16/33/laziness-7922946_640.jpg",
        "src1280": "https://cdn.pixabay.com/photo/2023/04/13/16/33/laziness-7922946_1280.jpg"
    },
    {
        "id": "7922813",
        "src640": "https://cdn.pixabay.com/photo/2023/04/13/15/28/ai-generated-7922813_640.jpg",
        "src1280": "https://cdn.pixabay.com/photo/2023/04/13/15/28/ai-generated-7922813_1280.jpg"
    },
    {
        "id": "1276493",
        "src640": "https://cdn.pixabay.com/photo/2016/03/24/10/38/happy-1276493_640.jpg",
        "src1280": "https://cdn.pixabay.com/photo/2016/03/24/10/38/happy-1276493_1280.jpg"
    },
    {
        "id": "7971317",
        "src640": "https://cdn.pixabay.com/photo/2023/05/05/01/09/fairy-tale-7971317_640.jpg",
        "src1280": "https://cdn.pixabay.com/photo/2023/05/05/01/09/fairy-tale-7971317_1280.jpg"
    },
    {
        "id": "7971259",
        "src640": "https://cdn.pixabay.com/photo/2023/05/04/23/09/ai-generated-7971259_640.jpg",
        "src1280": "https://cdn.pixabay.com/photo/2023/05/04/23/09/ai-generated-7971259_1280.jpg"
    },
    {
        "id": "7925132",
        "src640": "https://cdn.pixabay.com/photo/2023/04/14/13/44/ai-generated-7925132_640.jpg",
        "src1280": "https://cdn.pixabay.com/photo/2023/04/14/13/44/ai-generated-7925132_1280.jpg"
    },
    {
        "id": "5693615",
        "src640": "https://cdn.pixabay.com/photo/2020/10/28/14/13/sign-5693615_640.jpg",
        "src1280": "https://cdn.pixabay.com/photo/2020/10/28/14/13/sign-5693615_1280.jpg"
    },
    {
        "id": "7542337",
        "src640": "https://cdn.pixabay.com/photo/2022/10/24/00/27/wolf-7542337_640.jpg",
        "src1280": "https://cdn.pixabay.com/photo/2022/10/24/00/27/wolf-7542337_1280.jpg"
    },
    {
        "id": "6524760",
        "src640": "https://cdn.pixabay.com/photo/2021/08/05/19/51/doll-6524760_640.jpg",
        "src1280": "https://cdn.pixabay.com/photo/2021/08/05/19/51/doll-6524760_1280.jpg"
    },
    {
        "id": "1385523",
        "src640": "https://cdn.pixabay.com/photo/2016/05/11/11/09/astronaut-1385523_640.jpg",
        "src1280": "https://cdn.pixabay.com/photo/2016/05/11/11/09/astronaut-1385523_1280.jpg"
    },
    {
        "id": "4785537",
        "src640": "https://cdn.pixabay.com/photo/2020/01/22/15/11/comicbook-4785537_640.jpg",
        "src1280": "https://cdn.pixabay.com/photo/2020/01/22/15/11/comicbook-4785537_1280.jpg"
    },
    {
        "id": "8275807",
        "src640": "https://cdn.pixabay.com/photo/2023/09/25/18/19/ai-generated-8275807_640.jpg",
        "src1280": "https://cdn.pixabay.com/photo/2023/09/25/18/19/ai-generated-8275807_1280.jpg"
    },
    {
        "id": "2469557",
        "src640": "https://cdn.pixabay.com/photo/2017/07/04/01/19/angry-groot-2469557_640.jpg",
        "src1280": "https://cdn.pixabay.com/photo/2017/07/04/01/19/angry-groot-2469557_1280.jpg"
    },
    {
        "id": "4040351",
        "src640": "https://cdn.pixabay.com/photo/2019/03/07/14/59/captain-4040351_640.jpg",
        "src1280": "https://cdn.pixabay.com/photo/2019/03/07/14/59/captain-4040351_1280.jpg"
    }
]