[
    {
        "id": "3158996",
        "src640": "https://cdn.pixabay.com/photo/2018/02/17/00/15/cute-3158996_640.jpg",
        "src1280": "https://cdn.pixabay.com/photo/2018/02/17/00/15/cute-3158996_1280.jpg"
    },
    {
        "id": "7468838",
        "src640": "https://cdn.pixabay.com/photo/2022/09/20/21/54/fox-7468838_640.jpg",
        "src1280": "https://cdn.pixabay.com/photo/2022/09/20/21/54/fox-7468838_1280.jpg"
    },
    {
        "id": "5540550",
        "src640": "https://cdn.pixabay.com/photo/2020/09/03/08/32/pumpkin-5540550_640.jpg",
        "src1280": "https://cdn.pixabay.com/photo/2020/09/03/08/32/pumpkin-5540550_1280.jpg"
    },
    {
        "id": "5137578",
        "src640": "https://cdn.pixabay.com/photo/2020/05/06/13/36/cat-5137578_640.jpg",
        "src1280": "https://cdn.pixabay.com/photo/2020/05/06/13/36/cat-5137578_1280.jpg"
    },
    {
        "id": "2124524",
        "src640": "https://cdn.pixabay.com/photo/2017/03/07/16/23/kids-2124524_640.jpg",
        "src1280": "https://cdn.pixabay.com/photo/2017/03/07/16/23/kids-2124524_1280.jpg"
    },
    {
        "id": "2371117",
        "src640": "https://cdn.pixabay.com/photo/2017/06/04/13/48/doll-2371117_640.jpg",
        "src1280": "https://cdn.pixabay.com/photo/2017/06/04/13/48/doll-2371117_1280.jpg"
    },
    {
        "id": "5876894",
        "src640": "https://cdn.pixabay.com/photo/2020/12/31/15/57/fox-5876894_640.jpg",
        "src1280": "https://cdn.pixabay.com/photo/2020/12/31/15/57/fox-5876894_1280.jpg"
    },
    {
        "id": "278866",
        "src640": "https://cdn.pixabay.com/photo/2014/03/03/10/50/jumping-278866_640.jpg",
        "src1280": "https://cdn.pixabay.com/photo/2014/03/03/10/50/jumping-278866_1280.jpg"
    },
    {
        "id": "3251376",
        "src640": "https://cdn.pixabay.com/photo/2018/03/22/18/17/tiger-3251376_640.jpg",
        "src1280": "https://cdn.pixabay.com/photo/2018/03/22/18/17/tiger-3251376_1280.jpg"
    },
    {
        "id": "4960366",
        "src640": "https://cdn.pixabay.com/photo/2020/03/23/10/49/corona-4960366_640.jpg",
        "src1280": "https://cdn.pixabay.com/photo/2020/03/23/10/49/corona-4960366_1280.jpg"
    },
    {
        "id": "5306731",
        "src640": "https://cdn.pixabay.com/photo/2020/06/16/17/54/women-5306731_640.jpg",
        "src1280": "https://cdn.pixabay.com/photo/2020/06/16/17/54/women-5306731_1280.jpg"
    },
    {
        "id": "1641554",
        "src640": "https://cdn.pixabay.com/photo/2016/09/03/12/06/marvel-1641554_640.jpg",
        "src1280": "https://cdn.pixabay.com/photo/2016/09/03/12/06/marvel-1641554_1280.jpg"
    },
    {
        "id": "4372069",
        "src640": "https://cdn.pixabay.com/photo/2019/07/30/06/11/astronaut-4372069_640.jpg",
        "src1280": "https://cdn.pixabay.com/photo/2019/07/30/06/11/astronaut-4372069_1280.jpg"
    },
    {
        "id": "5200902",
        "src640": "https://cdn.pixabay.com/photo/2020/05/21/14/09/little-girl-5200902_640.jpg",
        "src1280": "https://cdn.pixabay.com/photo/2020/05/21/14/09/little-girl-5200902_1280.jpg"
    },
    {
        "id": "2478979",
        "src640": "https://cdn.pixabay.com/photo/2017/07/06/18/49/batgirl-2478979_640.jpg",
        "src1280": "https://cdn.pixabay.com/photo/2017/07/06/18/49/batgirl-2478979_1280.jpg"
    },
    {
        "id": "8446886",
        "src640": "https://cdn.pixabay.com/photo/2023/12/13/13/10/reindeer-8446886_640.jpg",
        "src1280": "https://cdn.pixabay.com/photo/2023/12/13/13/10/reindeer-8446886_1280.jpg"
    },
    {
        "id": "4807385",
        "src640": "https://cdn.pixabay.com/photo/2020/01/31/07/50/cartoon-4807385_640.jpg",
        "src1280": "https://cdn.pixabay.com/photo/2020/01/31/07/50/cartoon-4807385_1280.jpg"
    },
    {
        "id": "7979066",
        "src640": "https://cdn.pixabay.com/photo/2023/05/08/15/57/ai-generated-7979066_640.jpg",
        "src1280": "https://cdn.pixabay.com/photo/2023/05/08/15/57/ai-generated-7979066_1280.jpg"
    },
    {
        "id": "924795",
        "src640": "https://cdn.pixabay.com/photo/2015/09/05/19/44/flamingo-924795_640.jpg",
        "src1280": "https://cdn.pixabay.com/photo/2015/09/05/19/44/flamingo-924795_1280.jpg"
    },
    {
        "id": "2055481",
        "src640": "https://cdn.pixabay.com/photo/2017/02/10/16/02/duck-2055481_640.jpg",
        "src1280": "https://cdn.pixabay.com/photo/2017/02/10/16/02/duck-2055481_1280.jpg"
    },
    {
        "id": "4286688",
        "src640": "https://cdn.pixabay.com/photo/2019/06/20/10/05/picture-puzzle-4286688_640.jpg",
        "src1280": "https://cdn.pixabay.com/photo/2019/06/20/10/05/picture-puzzle-4286688_1280.jpg"
    },
    {
        "id": "4841703",
        "src640": "https://cdn.pixabay.com/photo/2020/02/12/05/16/dog-cartoon-4841703_640.jpg",
        "src1280": "https://cdn.pixabay.com/photo/2020/02/12/05/16/dog-cartoon-4841703_1280.jpg"
    },
    {
        "id": "1582537",
        "src640": "https://cdn.pixabay.com/photo/2016/08/10/06/22/cartoon-1582537_640.jpg",
        "src1280": "https://cdn.pixabay.com/photo/2016/08/10/06/22/cartoon-1582537_1280.jpg"
    },
    {
        "id": "5190766",
        "src640": "https://cdn.pixabay.com/photo/2020/05/19/13/18/cartoon-5190766_640.jpg",
        "src1280": "https://cdn.pixabay.com/photo/2020/05/19/13/18/cartoon-5190766_1280.jpg"
    },
    {
        "id": "5200908",
        "src640": "https://cdn.pixabay.com/photo/2020/05/21/14/09/frogs-5200908_640.jpg",
        "src1280": "https://cdn.pixabay.com/photo/2020/05/21/14/09/frogs-5200908_1280.jpg"
    }
]