[
    {
        "id": "8277669",
        "src640": "https://cdn.pixabay.com/photo/2023/09/26/15/32/ai-generated-8277669_640.jpg",
        "src1280": "https://cdn.pixabay.com/photo/2023/09/26/15/32/ai-generated-8277669_1280.jpg"
    },
    {
        "id": "8380872",
        "src640": "https://cdn.pixabay.com/photo/2023/11/11/09/38/man-8380872_640.jpg",
        "src1280": "https://cdn.pixabay.com/photo/2023/11/11/09/38/man-8380872_1280.jpg"
    },
    {
        "id": "8366706",
        "src640": "https://cdn.pixabay.com/photo/2023/11/05/10/13/ai-generated-8366706_640.jpg",
        "src1280": "https://cdn.pixabay.com/photo/2023/11/05/10/13/ai-generated-8366706_1280.jpg"
    },
    {
        "id": "6190630",
        "src640": "https://cdn.pixabay.com/photo/2021/04/19/07/36/hello-kitty-6190630_640.jpg",
        "src1280": "https://cdn.pixabay.com/photo/2021/04/19/07/36/hello-kitty-6190630_1280.jpg"
    },
    {
        "id": "8075472",
        "src640": "https://cdn.pixabay.com/photo/2023/06/19/20/16/orange-8075472_640.jpg",
        "src1280": "https://cdn.pixabay.com/photo/2023/06/19/20/16/orange-8075472_1280.jpg"
    },
    {
        "id": "8394950",
        "src640": "https://cdn.pixabay.com/photo/2023/11/17/19/51/ai-generated-8394950_640.jpg",
        "src1280": "https://cdn.pixabay.com/photo/2023/11/17/19/51/ai-generated-8394950_1280.jpg"
    },
    {
        "id": "8132074",
        "src640": "https://cdn.pixabay.com/photo/2023/07/17/07/45/ai-generated-8132074_640.jpg",
        "src1280": "https://cdn.pixabay.com/photo/2023/07/17/07/45/ai-generated-8132074_1280.jpg"
    },
    {
        "id": "8334415",
        "src640": "https://cdn.pixabay.com/photo/2023/10/22/16/57/ai-generated-8334415_640.jpg",
        "src1280": "https://cdn.pixabay.com/photo/2023/10/22/16/57/ai-generated-8334415_1280.jpg"
    },
    {
        "id": "7543842",
        "src640": "https://cdn.pixabay.com/photo/2022/10/24/16/28/woman-7543842_640.jpg",
        "src1280": "https://cdn.pixabay.com/photo/2022/10/24/16/28/woman-7543842_1280.jpg"
    },
    {
        "id": "8400111",
        "src640": "https://cdn.pixabay.com/photo/2023/11/20/02/04/ai-generated-8400111_640.jpg",
        "src1280": "https://cdn.pixabay.com/photo/2023/11/20/02/04/ai-generated-8400111_1280.jpg"
    },
    {
        "id": "7965117",
        "src640": "https://cdn.pixabay.com/photo/2023/05/02/12/21/little-red-riding-hood-7965117_640.jpg",
        "src1280": "https://cdn.pixabay.com/photo/2023/05/02/12/21/little-red-riding-hood-7965117_1280.jpg"
    },
    {
        "id": "313601",
        "src640": "https://cdn.pixabay.com/photo/2014/04/04/14/57/cartoon-313601_640.jpg",
        "src1280": "https://cdn.pixabay.com/photo/2014/04/04/14/57/cartoon-313601_1280.jpg"
    },
    {
        "id": "7971315",
        "src640": "https://cdn.pixabay.com/photo/2023/05/05/01/09/fairy-tale-7971315_640.jpg",
        "src1280": "https://cdn.pixabay.com/photo/2023/05/05/01/09/fairy-tale-7971315_1280.jpg"
    },
    {
        "id": "8375389",
        "src640": "https://cdn.pixabay.com/photo/2023/11/08/17/44/ai-generated-8375389_640.jpg",
        "src1280": "https://cdn.pixabay.com/photo/2023/11/08/17/44/ai-generated-8375389_1280.jpg"
    },
    {
        "id": "8489929",
        "src640": "https://cdn.pixabay.com/photo/2024/01/05/18/03/ai-generated-8489929_640.jpg",
        "src1280": "https://cdn.pixabay.com/photo/2024/01/05/18/03/ai-generated-8489929_1280.jpg"
    },
    {
        "id": "3247517",
        "src640": "https://cdn.pixabay.com/photo/2018/03/21/17/37/woman-3247517_640.jpg",
        "src1280": "https://cdn.pixabay.com/photo/2018/03/21/17/37/woman-3247517_1280.jpg"
    },
    {
        "id": "8300324",
        "src640": "https://cdn.pixabay.com/photo/2023/10/07/14/51/ai-generated-8300324_640.jpg",
        "src1280": "https://cdn.pixabay.com/photo/2023/10/07/14/51/ai-generated-8300324_1280.jpg"
    },
    {
        "id": "6102154",
        "src640": "https://cdn.pixabay.com/photo/2021/03/17/11/45/writer-6102154_640.jpg",
        "src1280": "https://cdn.pixabay.com/photo/2021/03/17/11/45/writer-6102154_1280.jpg"
    },
    {
        "id": "4248664",
        "src640": "https://cdn.pixabay.com/photo/2019/06/03/10/57/cowboy-4248664_640.jpg",
        "src1280": "https://cdn.pixabay.com/photo/2019/06/03/10/57/cowboy-4248664_1280.jpg"
    },
    {
        "id": "8355062",
        "src640": "https://cdn.pixabay.com/photo/2023/10/31/12/40/background-8355062_640.jpg",
        "src1280": "https://cdn.pixabay.com/photo/2023/10/31/12/40/background-8355062_1280.jpg"
    },
    {
        "id": "8133932",
        "src640": "https://cdn.pixabay.com/photo/2023/07/18/03/46/cute-8133932_640.jpg",
        "src1280": "https://cdn.pixabay.com/photo/2023/07/18/03/46/cute-8133932_1280.jpg"
    },
    {
        "id": "8203284",
        "src640": "https://cdn.pixabay.com/photo/2023/08/20/22/42/ai-generated-8203284_640.jpg",
        "src1280": "https://cdn.pixabay.com/photo/2023/08/20/22/42/ai-generated-8203284_1280.jpg"
    },
    {
        "id": "8277668",
        "src640": "https://cdn.pixabay.com/photo/2023/09/26/15/32/ai-generated-8277668_640.jpg",
        "src1280": "https://cdn.pixabay.com/photo/2023/09/26/15/32/ai-generated-8277668_1280.jpg"
    },
    {
        "id": "2748241",
        "src640": "https://cdn.pixabay.com/photo/2017/09/14/07/53/girl-2748241_640.jpg",
        "src1280": "https://cdn.pixabay.com/photo/2017/09/14/07/53/girl-2748241_1280.jpg"
    },
    {
        "id": "8342712",
        "src640": "https://cdn.pixabay.com/photo/2023/10/26/13/57/ai-generated-8342712_640.jpg",
        "src1280": "https://cdn.pixabay.com/photo/2023/10/26/13/57/ai-generated-8342712_1280.jpg"
    },
    {
        "id": "7871881",
        "src640": "https://cdn.pixabay.com/photo/2023/03/23/13/09/anime-7871881_640.jpg",
        "src1280": "https://cdn.pixabay.com/photo/2023/03/23/13/09/anime-7871881_1280.jpg"
    },
    {
        "id": "7971318",
        "src640": "https://cdn.pixabay.com/photo/2023/05/05/01/09/fairy-tale-7971318_640.jpg",
        "src1280": "https://cdn.pixabay.com/photo/2023/05/05/01/09/fairy-tale-7971318_1280.jpg"
    },
    {
        "id": "8386913",
        "src640": "https://cdn.pixabay.com/photo/2023/11/14/06/08/ai-generated-8386913_640.jpg",
        "src1280": "https://cdn.pixabay.com/photo/2023/11/14/06/08/ai-generated-8386913_1280.jpg"
    },
    {
        "id": "8133044",
        "src640": "https://cdn.pixabay.com/photo/2023/07/17/16/32/ai-generated-8133044_640.jpg",
        "src1280": "https://cdn.pixabay.com/photo/2023/07/17/16/32/ai-generated-8133044_1280.jpg"
    },
    {
        "id": "8366699",
        "src640": "https://cdn.pixabay.com/photo/2023/11/05/10/13/ai-generated-8366699_640.jpg",
        "src1280": "https://cdn.pixabay.com/photo/2023/11/05/10/13/ai-generated-8366699_1280.jpg"
    },
    {
        "id": "8075473",
        "src640": "https://cdn.pixabay.com/photo/2023/06/19/20/16/red-8075473_640.jpg",
        "src1280": "https://cdn.pixabay.com/photo/2023/06/19/20/16/red-8075473_1280.jpg"
    },
    {
        "id": "8210442",
        "src640": "https://cdn.pixabay.com/photo/2023/08/24/11/10/woman-8210442_640.jpg",
        "src1280": "https://cdn.pixabay.com/photo/2023/08/24/11/10/woman-8210442_1280.jpg"
    },
    {
        "id": "8241948",
        "src640": "https://cdn.pixabay.com/photo/2023/09/08/20/18/ai-generated-8241948_640.jpg",
        "src1280": "https://cdn.pixabay.com/photo/2023/09/08/20/18/ai-generated-8241948_1280.jpg"
    },
    {
        "id": "8380871",
        "src640": "https://cdn.pixabay.com/photo/2023/11/11/09/38/man-8380871_640.jpg",
        "src1280": "https://cdn.pixabay.com/photo/2023/11/11/09/38/man-8380871_1280.jpg"
    },
    {
        "id": "7877276",
        "src640": "https://cdn.pixabay.com/photo/2023/03/26/01/18/ai-generated-7877276_640.jpg",
        "src1280": "https://cdn.pixabay.com/photo/2023/03/26/01/18/ai-generated-7877276_1280.jpg"
    },
    {
        "id": "8455359",
        "src640": "https://cdn.pixabay.com/photo/2023/12/18/06/38/ai-generated-8455359_640.jpg",
        "src1280": "https://cdn.pixabay.com/photo/2023/12/18/06/38/ai-generated-8455359_1280.jpg"
    },
    {
        "id": "8449345",
        "src640": "https://cdn.pixabay.com/photo/2023/12/14/17/50/ai-generated-8449345_640.jpg",
        "src1280": "https://cdn.pixabay.com/photo/2023/12/14/17/50/ai-generated-8449345_1280.jpg"
    },
    {
        "id": "8316306",
        "src640": "https://cdn.pixabay.com/photo/2023/10/15/07/03/ai-generated-8316306_640.jpg",
        "src1280": "https://cdn.pixabay.com/photo/2023/10/15/07/03/ai-generated-8316306_1280.jpg"
    },
    {
        "id": "6930897",
        "src640": "https://cdn.pixabay.com/photo/2022/01/11/15/41/woman-6930897_640.jpg",
        "src1280": "https://cdn.pixabay.com/photo/2022/01/11/15/41/woman-6930897_1280.jpg"
    },
    {
        "id": "7467335",
        "src640": "https://cdn.pixabay.com/photo/2022/09/20/08/51/halloween-7467335_640.jpg",
        "src1280": "https://cdn.pixabay.com/photo/2022/09/20/08/51/halloween-7467335_1280.jpg"
    },
    {
        "id": "8343756",
        "src640": "https://cdn.pixabay.com/photo/2023/10/27/00/00/fashion-8343756_640.jpg",
        "src1280": "https://cdn.pixabay.com/photo/2023/10/27/00/00/fashion-8343756_1280.jpg"
    },
    {
        "id": "8366681",
        "src640": "https://cdn.pixabay.com/photo/2023/11/05/10/12/ai-generated-8366681_640.jpg",
        "src1280": "https://cdn.pixabay.com/photo/2023/11/05/10/12/ai-generated-8366681_1280.jpg"
    },
    {
        "id": "7177496",
        "src640": "https://cdn.pixabay.com/photo/2022/05/06/04/57/flamingo-7177496_640.jpg",
        "src1280": "https://cdn.pixabay.com/photo/2022/05/06/04/57/flamingo-7177496_1280.jpg"
    },
    {
        "id": "7934442",
        "src640": "https://cdn.pixabay.com/photo/2023/04/18/07/51/ai-generated-7934442_640.jpg",
        "src1280": "https://cdn.pixabay.com/photo/2023/04/18/07/51/ai-generated-7934442_1280.jpg"
    }
]