[
    {
        "id": "8248929",
        "src640": "https://cdn.pixabay.com/photo/2023/09/12/14/10/ai-generated-8248929_640.jpg",
        "src1280": "https://cdn.pixabay.com/photo/2023/09/12/14/10/ai-generated-8248929_1280.jpg"
    },
    {
        "id": "1467040",
        "src640": "https://cdn.pixabay.com/photo/2016/06/19/15/59/graffiti-1467040_640.jpg",
        "src1280": "https://cdn.pixabay.com/photo/2016/06/19/15/59/graffiti-1467040_1280.jpg"
    },
    {
        "id": "8268211",
        "src640": "https://cdn.pixabay.com/photo/2023/09/22/06/26/ai-generated-8268211_640.jpg",
        "src1280": "https://cdn.pixabay.com/photo/2023/09/22/06/26/ai-generated-8268211_1280.jpg"
    },
    {
        "id": "7864866",
        "src640": "https://cdn.pixabay.com/photo/2023/03/20/14/13/anime-7864866_640.jpg",
        "src1280": "https://cdn.pixabay.com/photo/2023/03/20/14/13/anime-7864866_1280.jpg"
    },
    {
        "id": "7876214",
        "src640": "https://cdn.pixabay.com/photo/2023/03/25/15/26/ai-generated-7876214_640.jpg",
        "src1280": "https://cdn.pixabay.com/photo/2023/03/25/15/26/ai-generated-7876214_1280.jpg"
    },
    {
        "id": "7877275",
        "src640": "https://cdn.pixabay.com/photo/2023/03/26/01/17/ai-generated-7877275_640.jpg",
        "src1280": "https://cdn.pixabay.com/photo/2023/03/26/01/17/ai-generated-7877275_1280.jpg"
    },
    {
        "id": "8066770",
        "src640": "https://cdn.pixabay.com/photo/2023/06/16/00/47/man-8066770_640.jpg",
        "src1280": "https://cdn.pixabay.com/photo/2023/06/16/00/47/man-8066770_1280.jpg"
    },
    {
        "id": "1136501",
        "src640": "https://cdn.pixabay.com/photo/2016/01/12/19/37/khartoum-1136501_640.jpg",
        "src1280": "https://cdn.pixabay.com/photo/2016/01/12/19/37/khartoum-1136501_1280.jpg"
    },
    {
        "id": "8260897",
        "src640": "https://cdn.pixabay.com/photo/2023/09/18/16/08/cigarette-8260897_640.jpg",
        "src1280": "https://cdn.pixabay.com/photo/2023/09/18/16/08/cigarette-8260897_1280.jpg"
    },
    {
        "id": "8295086",
        "src640": "https://cdn.pixabay.com/photo/2023/10/05/07/31/ai-generated-8295086_640.jpg",
        "src1280": "https://cdn.pixabay.com/photo/2023/10/05/07/31/ai-generated-8295086_1280.jpg"
    },
    {
        "id": "7867020",
        "src640": "https://cdn.pixabay.com/photo/2023/03/21/11/23/ai-generated-7867020_640.jpg",
        "src1280": "https://cdn.pixabay.com/photo/2023/03/21/11/23/ai-generated-7867020_1280.jpg"
    },
    {
        "id": "313484",
        "src640": "https://cdn.pixabay.com/photo/2014/04/04/14/56/cartoon-313484_640.jpg",
        "src1280": "https://cdn.pixabay.com/photo/2014/04/04/14/56/cartoon-313484_1280.jpg"
    },
    {
        "id": "7321876",
        "src640": "https://cdn.pixabay.com/photo/2022/07/14/20/03/unicorn-7321876_640.jpg",
        "src1280": "https://cdn.pixabay.com/photo/2022/07/14/20/03/unicorn-7321876_1280.jpg"
    },
    {
        "id": "7831678",
        "src640": "https://cdn.pixabay.com/photo/2023/03/05/15/24/ai-generated-7831678_640.jpg",
        "src1280": "https://cdn.pixabay.com/photo/2023/03/05/15/24/ai-generated-7831678_1280.jpg"
    },
    {
        "id": "6098645",
        "src640": "https://cdn.pixabay.com/photo/2021/03/16/04/32/cartoon-6098645_640.jpg",
        "src1280": "https://cdn.pixabay.com/photo/2021/03/16/04/32/cartoon-6098645_1280.jpg"
    },
    {
        "id": "5942759",
        "src640": "https://cdn.pixabay.com/photo/2021/01/23/15/07/unicorn-5942759_640.jpg",
        "src1280": "https://cdn.pixabay.com/photo/2021/01/23/15/07/unicorn-5942759_1280.jpg"
    },
    {
        "id": "1154243",
        "src640": "https://cdn.pixabay.com/photo/2016/01/21/17/23/cat-1154243_640.jpg",
        "src1280": "https://cdn.pixabay.com/photo/2016/01/21/17/23/cat-1154243_1280.jpg"
    },
    {
        "id": "1136507",
        "src640": "https://cdn.pixabay.com/photo/2016/01/12/19/37/khartoum-1136507_640.jpg",
        "src1280": "https://cdn.pixabay.com/photo/2016/01/12/19/37/khartoum-1136507_1280.jpg"
    },
    {
        "id": "8066767",
        "src640": "https://cdn.pixabay.com/photo/2023/06/16/00/47/man-8066767_640.jpg",
        "src1280": "https://cdn.pixabay.com/photo/2023/06/16/00/47/man-8066767_1280.jpg"
    },
    {
        "id": "8342721",
        "src640": "https://cdn.pixabay.com/photo/2023/10/26/13/58/ai-generated-8342721_640.jpg",
        "src1280": "https://cdn.pixabay.com/photo/2023/10/26/13/58/ai-generated-8342721_1280.jpg"
    },
    {
        "id": "7871910",
        "src640": "https://cdn.pixabay.com/photo/2023/03/23/13/14/anime-7871910_640.jpg",
        "src1280": "https://cdn.pixabay.com/photo/2023/03/23/13/14/anime-7871910_1280.jpg"
    },
    {
        "id": "6144169",
        "src640": "https://cdn.pixabay.com/photo/2021/04/02/07/40/girl-6144169_640.jpg",
        "src1280": "https://cdn.pixabay.com/photo/2021/04/02/07/40/girl-6144169_1280.jpg"
    },
    {
        "id": "8286047",
        "src640": "https://cdn.pixabay.com/photo/2023/09/30/16/30/ai-generated-8286047_640.jpg",
        "src1280": "https://cdn.pixabay.com/photo/2023/09/30/16/30/ai-generated-8286047_1280.jpg"
    },
    {
        "id": "7040390",
        "src640": "https://cdn.pixabay.com/photo/2022/03/01/02/01/bicycle-7040390_640.jpg",
        "src1280": "https://cdn.pixabay.com/photo/2022/03/01/02/01/bicycle-7040390_1280.jpg"
    },
    {
        "id": "7520263",
        "src640": "https://cdn.pixabay.com/photo/2022/10/14/01/47/woman-7520263_640.jpg",
        "src1280": "https://cdn.pixabay.com/photo/2022/10/14/01/47/woman-7520263_1280.jpg"
    },
    {
        "id": "7684927",
        "src640": "https://cdn.pixabay.com/photo/2022/12/29/13/20/winter-7684927_640.jpg",
        "src1280": "https://cdn.pixabay.com/photo/2022/12/29/13/20/winter-7684927_1280.jpg"
    },
    {
        "id": "8206594",
        "src640": "https://cdn.pixabay.com/photo/2023/08/22/15/04/animal-8206594_640.jpg",
        "src1280": "https://cdn.pixabay.com/photo/2023/08/22/15/04/animal-8206594_1280.jpg"
    },
    {
        "id": "7829482",
        "src640": "https://cdn.pixabay.com/photo/2023/03/04/12/31/ai-generated-7829482_640.jpg",
        "src1280": "https://cdn.pixabay.com/photo/2023/03/04/12/31/ai-generated-7829482_1280.jpg"
    },
    {
        "id": "8449347",
        "src640": "https://cdn.pixabay.com/photo/2023/12/14/17/50/ai-generated-8449347_640.jpg",
        "src1280": "https://cdn.pixabay.com/photo/2023/12/14/17/50/ai-generated-8449347_1280.jpg"
    },
    {
        "id": "7476096",
        "src640": "https://cdn.pixabay.com/photo/2022/09/24/10/14/halloween-7476096_640.jpg",
        "src1280": "https://cdn.pixabay.com/photo/2022/09/24/10/14/halloween-7476096_1280.jpg"
    },
    {
        "id": "8066765",
        "src640": "https://cdn.pixabay.com/photo/2023/06/16/00/46/man-8066765_640.jpg",
        "src1280": "https://cdn.pixabay.com/photo/2023/06/16/00/46/man-8066765_1280.jpg"
    },
    {
        "id": "3999997",
        "src640": "https://cdn.pixabay.com/photo/2019/02/16/09/52/young-3999997_640.jpg",
        "src1280": "https://cdn.pixabay.com/photo/2019/02/16/09/52/young-3999997_1280.jpg"
    },
    {
        "id": "8301130",
        "src640": "https://cdn.pixabay.com/photo/2023/10/07/22/58/ai-generated-8301130_640.jpg",
        "src1280": "https://cdn.pixabay.com/photo/2023/10/07/22/58/ai-generated-8301130_1280.jpg"
    },
    {
        "id": "7522497",
        "src640": "https://cdn.pixabay.com/photo/2022/10/15/04/02/astronaut-7522497_640.jpg",
        "src1280": "https://cdn.pixabay.com/photo/2022/10/15/04/02/astronaut-7522497_1280.jpg"
    },
    {
        "id": "8321533",
        "src640": "https://cdn.pixabay.com/photo/2023/10/17/15/06/girl-8321533_640.jpg",
        "src1280": "https://cdn.pixabay.com/photo/2023/10/17/15/06/girl-8321533_1280.jpg"
    },
    {
        "id": "7210444",
        "src640": "https://cdn.pixabay.com/photo/2022/05/20/23/37/bubble-tea-7210444_640.jpg",
        "src1280": "https://cdn.pixabay.com/photo/2022/05/20/23/37/bubble-tea-7210444_1280.jpg"
    },
    {
        "id": "7248857",
        "src640": "https://cdn.pixabay.com/photo/2022/06/07/17/02/fire-7248857_640.jpg",
        "src1280": "https://cdn.pixabay.com/photo/2022/06/07/17/02/fire-7248857_1280.jpg"
    },
    {
        "id": "7651015",
        "src640": "https://cdn.pixabay.com/photo/2022/12/12/13/06/giraffe-7651015_640.jpg",
        "src1280": "https://cdn.pixabay.com/photo/2022/12/12/13/06/giraffe-7651015_1280.jpg"
    },
    {
        "id": "8011001",
        "src640": "https://cdn.pixabay.com/photo/2023/05/22/15/52/ai-generated-8011001_640.jpg",
        "src1280": "https://cdn.pixabay.com/photo/2023/05/22/15/52/ai-generated-8011001_1280.jpg"
    }
]