[
    {
        "id": "8404417",
        "src640": "https://cdn.pixabay.com/photo/2023/11/21/22/48/ai-generated-8404417_640.jpg",
        "src1280": "https://cdn.pixabay.com/photo/2023/11/21/22/48/ai-generated-8404417_1280.jpg"
    },
    {
        "id": "3100412",
        "src640": "https://cdn.pixabay.com/photo/2018/01/23/01/02/child-3100412_640.jpg",
        "src1280": "https://cdn.pixabay.com/photo/2018/01/23/01/02/child-3100412_1280.jpg"
    },
    {
        "id": "2436976",
        "src640": "https://cdn.pixabay.com/photo/2017/06/24/08/16/woman-2436976_640.jpg",
        "src1280": "https://cdn.pixabay.com/photo/2017/06/24/08/16/woman-2436976_1280.jpg"
    },
    {
        "id": "2071566",
        "src640": "https://cdn.pixabay.com/photo/2017/02/16/14/02/wallpaper-2071566_640.jpg",
        "src1280": "https://cdn.pixabay.com/photo/2017/02/16/14/02/wallpaper-2071566_1280.jpg"
    },
    {
        "id": "5607018",
        "src640": "https://cdn.pixabay.com/photo/2020/09/27/16/10/woman-5607018_640.jpg",
        "src1280": "https://cdn.pixabay.com/photo/2020/09/27/16/10/woman-5607018_1280.jpg"
    },
    {
        "id": "3148115",
        "src640": "https://cdn.pixabay.com/photo/2018/02/12/11/52/nature-3148115_640.jpg",
        "src1280": "https://cdn.pixabay.com/photo/2018/02/12/11/52/nature-3148115_1280.jpg"
    },
    {
        "id": "6040617",
        "src640": "https://cdn.pixabay.com/photo/2021/02/22/14/56/woman-6040617_640.jpg",
        "src1280": "https://cdn.pixabay.com/photo/2021/02/22/14/56/woman-6040617_1280.jpg"
    },
    {
        "id": "510447",
        "src640": "https://cdn.pixabay.com/photo/2014/10/31/07/05/girl-510447_640.jpg",
        "src1280": "https://cdn.pixabay.com/photo/2014/10/31/07/05/girl-510447_1280.jpg"
    },
    {
        "id": "2437249",
        "src640": "https://cdn.pixabay.com/photo/2017/06/24/10/02/womens-2437249_640.jpg",
        "src1280": "https://cdn.pixabay.com/photo/2017/06/24/10/02/womens-2437249_1280.jpg"
    },
    {
        "id": "8390453",
        "src640": "https://cdn.pixabay.com/photo/2023/11/15/16/38/beautiful-8390453_640.jpg",
        "src1280": "https://cdn.pixabay.com/photo/2023/11/15/16/38/beautiful-8390453_1280.jpg"
    },
    {
        "id": "2359654",
        "src640": "https://cdn.pixabay.com/photo/2017/05/31/09/22/eye-2359654_640.jpg",
        "src1280": "https://cdn.pixabay.com/photo/2017/05/31/09/22/eye-2359654_1280.jpg"
    },
    {
        "id": "4991075",
        "src640": "https://cdn.pixabay.com/photo/2020/04/01/12/42/fairy-4991075_640.jpg",
        "src1280": "https://cdn.pixabay.com/photo/2020/04/01/12/42/fairy-4991075_1280.jpg"
    },
    {
        "id": "2605437",
        "src640": "https://cdn.pixabay.com/photo/2017/08/07/16/28/woman-2605437_640.jpg",
        "src1280": "https://cdn.pixabay.com/photo/2017/08/07/16/28/woman-2605437_1280.jpg"
    },
    {
        "id": "4378269",
        "src640": "https://cdn.pixabay.com/photo/2019/08/01/20/27/attractive-4378269_640.jpg",
        "src1280": "https://cdn.pixabay.com/photo/2019/08/01/20/27/attractive-4378269_1280.jpg"
    },
    {
        "id": "2586823",
        "src640": "https://cdn.pixabay.com/photo/2017/08/05/23/52/laugh-2586823_640.jpg",
        "src1280": "https://cdn.pixabay.com/photo/2017/08/05/23/52/laugh-2586823_1280.jpg"
    },
    {
        "id": "8176896",
        "src640": "https://cdn.pixabay.com/photo/2023/08/08/09/26/ai-generated-8176896_640.jpg",
        "src1280": "https://cdn.pixabay.com/photo/2023/08/08/09/26/ai-generated-8176896_1280.jpg"
    },
    {
        "id": "5345348",
        "src640": "https://cdn.pixabay.com/photo/2020/06/27/09/53/girl-5345348_640.jpg",
        "src1280": "https://cdn.pixabay.com/photo/2020/06/27/09/53/girl-5345348_1280.jpg"
    },
    {
        "id": "5805571",
        "src640": "https://cdn.pixabay.com/photo/2020/12/05/10/31/woman-5805571_640.jpg",
        "src1280": "https://cdn.pixabay.com/photo/2020/12/05/10/31/woman-5805571_1280.jpg"
    },
    {
        "id": "8453781",
        "src640": "https://cdn.pixabay.com/photo/2023/12/17/08/23/ai-generated-8453781_640.jpg",
        "src1280": "https://cdn.pixabay.com/photo/2023/12/17/08/23/ai-generated-8453781_1280.jpg"
    },
    {
        "id": "3031960",
        "src640": "https://cdn.pixabay.com/photo/2017/12/21/15/14/beauty-3031960_640.jpg",
        "src1280": "https://cdn.pixabay.com/photo/2017/12/21/15/14/beauty-3031960_1280.jpg"
    },
    {
        "id": "4985209",
        "src640": "https://cdn.pixabay.com/photo/2020/03/30/19/06/wedding-4985209_640.jpg",
        "src1280": "https://cdn.pixabay.com/photo/2020/03/30/19/06/wedding-4985209_1280.jpg"
    },
    {
        "id": "5584066",
        "src640": "https://cdn.pixabay.com/photo/2020/09/19/10/19/woman-5584066_640.jpg",
        "src1280": "https://cdn.pixabay.com/photo/2020/09/19/10/19/woman-5584066_1280.jpg"
    },
    {
        "id": "8024877",
        "src640": "https://cdn.pixabay.com/photo/2023/05/29/02/20/girl-8024877_640.jpg",
        "src1280": "https://cdn.pixabay.com/photo/2023/05/29/02/20/girl-8024877_1280.jpg"
    },
    {
        "id": "1334222",
        "src640": "https://cdn.pixabay.com/photo/2016/04/17/05/24/lady-1334222_640.jpg",
        "src1280": "https://cdn.pixabay.com/photo/2016/04/17/05/24/lady-1334222_1280.jpg"
    },
    {
        "id": "5164838",
        "src640": "https://cdn.pixabay.com/photo/2020/05/12/20/19/woman-5164838_640.jpg",
        "src1280": "https://cdn.pixabay.com/photo/2020/05/12/20/19/woman-5164838_1280.jpg"
    },
    {
        "id": "6240870",
        "src640": "https://cdn.pixabay.com/photo/2021/05/09/12/57/knitted-swimsuit-6240870_640.jpg",
        "src1280": "https://cdn.pixabay.com/photo/2021/05/09/12/57/knitted-swimsuit-6240870_1280.jpg"
    },
    {
        "id": "6635588",
        "src640": "https://cdn.pixabay.com/photo/2021/09/18/16/39/woman-6635588_640.jpg",
        "src1280": "https://cdn.pixabay.com/photo/2021/09/18/16/39/woman-6635588_1280.jpg"
    },
    {
        "id": "5200683",
        "src640": "https://cdn.pixabay.com/photo/2020/05/21/13/02/young-5200683_640.jpg",
        "src1280": "https://cdn.pixabay.com/photo/2020/05/21/13/02/young-5200683_1280.jpg"
    },
    {
        "id": "5946577",
        "src640": "https://cdn.pixabay.com/photo/2021/01/24/21/19/woman-5946577_640.jpg",
        "src1280": "https://cdn.pixabay.com/photo/2021/01/24/21/19/woman-5946577_1280.jpg"
    },
    {
        "id": "2105174",
        "src640": "https://cdn.pixabay.com/photo/2017/02/28/08/37/girl-2105174_640.jpg",
        "src1280": "https://cdn.pixabay.com/photo/2017/02/28/08/37/girl-2105174_1280.jpg"
    },
    {
        "id": "7774324",
        "src640": "https://cdn.pixabay.com/photo/2023/02/07/14/49/ai-generated-7774324_640.jpg",
        "src1280": "https://cdn.pixabay.com/photo/2023/02/07/14/49/ai-generated-7774324_1280.jpg"
    },
    {
        "id": "8419891",
        "src640": "https://cdn.pixabay.com/photo/2023/11/29/15/28/grim-reaper-8419891_640.jpg",
        "src1280": "https://cdn.pixabay.com/photo/2023/11/29/15/28/grim-reaper-8419891_1280.jpg"
    },
    {
        "id": "3959548",
        "src640": "https://cdn.pixabay.com/photo/2019/01/28/03/24/fashion-model-3959548_640.jpg",
        "src1280": "https://cdn.pixabay.com/photo/2019/01/28/03/24/fashion-model-3959548_1280.jpg"
    },
    {
        "id": "1316158",
        "src640": "https://cdn.pixabay.com/photo/2016/04/08/14/25/flowers-1316158_640.jpg",
        "src1280": "https://cdn.pixabay.com/photo/2016/04/08/14/25/flowers-1316158_1280.jpg"
    },
    {
        "id": "5559948",
        "src640": "https://cdn.pixabay.com/photo/2020/09/10/10/07/girl-5559948_640.jpg",
        "src1280": "https://cdn.pixabay.com/photo/2020/09/10/10/07/girl-5559948_1280.jpg"
    },
    {
        "id": "3759686",
        "src640": "https://cdn.pixabay.com/photo/2018/10/19/21/51/woman-3759686_640.jpg",
        "src1280": "https://cdn.pixabay.com/photo/2018/10/19/21/51/woman-3759686_1280.jpg"
    },
    {
        "id": "4334382",
        "src640": "https://cdn.pixabay.com/photo/2019/07/13/09/27/fantasy-4334382_640.jpg",
        "src1280": "https://cdn.pixabay.com/photo/2019/07/13/09/27/fantasy-4334382_1280.jpg"
    },
    {
        "id": "8166725",
        "src640": "https://cdn.pixabay.com/photo/2023/08/03/10/12/ai-generated-8166725_640.jpg",
        "src1280": "https://cdn.pixabay.com/photo/2023/08/03/10/12/ai-generated-8166725_1280.jpg"
    },
    {
        "id": "4890863",
        "src640": "https://cdn.pixabay.com/photo/2020/02/29/19/00/girl-4890863_640.jpg",
        "src1280": "https://cdn.pixabay.com/photo/2020/02/29/19/00/girl-4890863_1280.jpg"
    },
    {
        "id": "4862638",
        "src640": "https://cdn.pixabay.com/photo/2020/02/19/16/42/gangster-4862638_640.jpg",
        "src1280": "https://cdn.pixabay.com/photo/2020/02/19/16/42/gangster-4862638_1280.jpg"
    },
    {
        "id": "5354563",
        "src640": "https://cdn.pixabay.com/photo/2020/06/29/22/00/lady-5354563_640.jpg",
        "src1280": "https://cdn.pixabay.com/photo/2020/06/29/22/00/lady-5354563_1280.jpg"
    },
    {
        "id": "5990117",
        "src640": "https://cdn.pixabay.com/photo/2021/02/07/05/09/woman-5990117_640.jpg",
        "src1280": "https://cdn.pixabay.com/photo/2021/02/07/05/09/woman-5990117_1280.jpg"
    },
    {
        "id": "7720467",
        "src640": "https://cdn.pixabay.com/photo/2023/01/15/16/02/ki-generated-7720467_640.jpg",
        "src1280": "https://cdn.pixabay.com/photo/2023/01/15/16/02/ki-generated-7720467_1280.jpg"
    },
    {
        "id": "982626",
        "src640": "https://cdn.pixabay.com/photo/2015/10/11/17/17/girl-face-982626_640.jpg",
        "src1280": "https://cdn.pixabay.com/photo/2015/10/11/17/17/girl-face-982626_1280.jpg"
    },
    {
        "id": "3665848",
        "src640": "https://cdn.pixabay.com/photo/2018/09/09/23/50/girl-3665848_640.jpg",
        "src1280": "https://cdn.pixabay.com/photo/2018/09/09/23/50/girl-3665848_1280.jpg"
    },
    {
        "id": "4683532",
        "src640": "https://cdn.pixabay.com/photo/2019/12/09/13/27/portrait-4683532_640.jpg",
        "src1280": "https://cdn.pixabay.com/photo/2019/12/09/13/27/portrait-4683532_1280.jpg"
    }
]