[
    {
        "id": "2364510",
        "src640": "https://cdn.pixabay.com/photo/2017/06/01/20/42/girl-2364510_640.jpg",
        "src1280": "https://cdn.pixabay.com/photo/2017/06/01/20/42/girl-2364510_1280.jpg"
    },
    {
        "id": "2041118",
        "src640": "https://cdn.pixabay.com/photo/2017/02/05/20/20/girl-2041118_640.jpg",
        "src1280": "https://cdn.pixabay.com/photo/2017/02/05/20/20/girl-2041118_1280.jpg"
    },
    {
        "id": "3366112",
        "src640": "https://cdn.pixabay.com/photo/2018/05/01/16/42/summer-3366112_640.jpg",
        "src1280": "https://cdn.pixabay.com/photo/2018/05/01/16/42/summer-3366112_1280.jpg"
    },
    {
        "id": "8083879",
        "src640": "https://cdn.pixabay.com/photo/2023/06/23/17/37/girl-8083879_640.jpg",
        "src1280": "https://cdn.pixabay.com/photo/2023/06/23/17/37/girl-8083879_1280.jpg"
    },
    {
        "id": "7884469",
        "src640": "https://cdn.pixabay.com/photo/2023/03/29/02/58/girl-7884469_640.jpg",
        "src1280": "https://cdn.pixabay.com/photo/2023/03/29/02/58/girl-7884469_1280.jpg"
    },
    {
        "id": "5918498",
        "src640": "https://cdn.pixabay.com/photo/2021/01/15/05/50/woman-5918498_640.jpg",
        "src1280": "https://cdn.pixabay.com/photo/2021/01/15/05/50/woman-5918498_1280.jpg"
    },
    {
        "id": "2074602",
        "src640": "https://cdn.pixabay.com/photo/2017/02/17/17/09/model-2074602_640.jpg",
        "src1280": "https://cdn.pixabay.com/photo/2017/02/17/17/09/model-2074602_1280.jpg"
    },
    {
        "id": "4285858",
        "src640": "https://cdn.pixabay.com/photo/2019/06/20/00/12/woman-4285858_640.jpg",
        "src1280": "https://cdn.pixabay.com/photo/2019/06/20/00/12/woman-4285858_1280.jpg"
    },
    {
        "id": "6574852",
        "src640": "https://cdn.pixabay.com/photo/2021/08/26/02/25/woman-6574852_640.jpg",
        "src1280": "https://cdn.pixabay.com/photo/2021/08/26/02/25/woman-6574852_1280.jpg"
    },
    {
        "id": "2091829",
        "src640": "https://cdn.pixabay.com/photo/2017/02/23/10/47/woman-2091829_640.jpg",
        "src1280": "https://cdn.pixabay.com/photo/2017/02/23/10/47/woman-2091829_1280.jpg"
    },
    {
        "id": "888819",
        "src640": "https://cdn.pixabay.com/photo/2015/08/14/19/55/nature-888819_640.jpg",
        "src1280": "https://cdn.pixabay.com/photo/2015/08/14/19/55/nature-888819_1280.jpg"
    },
    {
        "id": "15677",
        "src640": "https://cdn.pixabay.com/photo/2012/02/23/08/34/barefoot-15677_640.jpg",
        "src1280": "https://cdn.pixabay.com/photo/2012/02/23/08/34/barefoot-15677_1280.jpg"
    },
    {
        "id": "3401409",
        "src640": "https://cdn.pixabay.com/photo/2018/05/14/20/00/cute-3401409_640.jpg",
        "src1280": "https://cdn.pixabay.com/photo/2018/05/14/20/00/cute-3401409_1280.jpg"
    },
    {
        "id": "358301",
        "src640": "https://cdn.pixabay.com/photo/2014/05/30/14/31/girl-358301_640.jpg",
        "src1280": "https://cdn.pixabay.com/photo/2014/05/30/14/31/girl-358301_1280.jpg"
    },
    {
        "id": "7533440",
        "src640": "https://cdn.pixabay.com/photo/2022/10/19/19/56/woman-7533440_640.jpg",
        "src1280": "https://cdn.pixabay.com/photo/2022/10/19/19/56/woman-7533440_1280.jpg"
    },
    {
        "id": "5882320",
        "src640": "https://cdn.pixabay.com/photo/2021/01/02/17/04/girl-5882320_640.jpg",
        "src1280": "https://cdn.pixabay.com/photo/2021/01/02/17/04/girl-5882320_1280.jpg"
    },
    {
        "id": "7503899",
        "src640": "https://cdn.pixabay.com/photo/2022/10/07/01/56/woman-7503899_640.jpg",
        "src1280": "https://cdn.pixabay.com/photo/2022/10/07/01/56/woman-7503899_1280.jpg"
    },
    {
        "id": "2308892",
        "src640": "https://cdn.pixabay.com/photo/2017/05/13/07/29/womens-2308892_640.jpg",
        "src1280": "https://cdn.pixabay.com/photo/2017/05/13/07/29/womens-2308892_1280.jpg"
    },
    {
        "id": "5584071",
        "src640": "https://cdn.pixabay.com/photo/2020/09/19/10/21/woman-5584071_640.jpg",
        "src1280": "https://cdn.pixabay.com/photo/2020/09/19/10/21/woman-5584071_1280.jpg"
    },
    {
        "id": "4669952",
        "src640": "https://cdn.pixabay.com/photo/2019/12/03/12/32/portrait-4669952_640.jpg",
        "src1280": "https://cdn.pixabay.com/photo/2019/12/03/12/32/portrait-4669952_1280.jpg"
    },
    {
        "id": "19447",
        "src640": "https://cdn.pixabay.com/photo/2012/02/29/16/12/beautiful-19447_640.jpg",
        "src1280": "https://cdn.pixabay.com/photo/2012/02/29/16/12/beautiful-19447_1280.jpg"
    },
    {
        "id": "2339782",
        "src640": "https://cdn.pixabay.com/photo/2017/05/24/07/55/model-2339782_640.jpg",
        "src1280": "https://cdn.pixabay.com/photo/2017/05/24/07/55/model-2339782_1280.jpg"
    },
    {
        "id": "3289066",
        "src640": "https://cdn.pixabay.com/photo/2018/04/04/07/37/portrait-3289066_640.jpg",
        "src1280": "https://cdn.pixabay.com/photo/2018/04/04/07/37/portrait-3289066_1280.jpg"
    },
    {
        "id": "7560839",
        "src640": "https://cdn.pixabay.com/photo/2022/10/31/22/19/woman-7560839_640.jpg",
        "src1280": "https://cdn.pixabay.com/photo/2022/10/31/22/19/woman-7560839_1280.jpg"
    },
    {
        "id": "6488972",
        "src640": "https://cdn.pixabay.com/photo/2021/07/24/08/43/woman-6488972_640.jpg",
        "src1280": "https://cdn.pixabay.com/photo/2021/07/24/08/43/woman-6488972_1280.jpg"
    },
    {
        "id": "4257911",
        "src640": "https://cdn.pixabay.com/photo/2019/06/07/10/02/fashion-4257911_640.jpg",
        "src1280": "https://cdn.pixabay.com/photo/2019/06/07/10/02/fashion-4257911_1280.jpg"
    },
    {
        "id": "2640647",
        "src640": "https://cdn.pixabay.com/photo/2017/08/14/14/18/beautiful-woman-face-2640647_640.jpg",
        "src1280": "https://cdn.pixabay.com/photo/2017/08/14/14/18/beautiful-woman-face-2640647_1280.jpg"
    },
    {
        "id": "5937465",
        "src640": "https://cdn.pixabay.com/photo/2021/01/21/13/57/woman-5937465_640.jpg",
        "src1280": "https://cdn.pixabay.com/photo/2021/01/21/13/57/woman-5937465_1280.jpg"
    },
    {
        "id": "6138603",
        "src640": "https://cdn.pixabay.com/photo/2021/03/31/05/47/beauty-6138603_640.jpg",
        "src1280": "https://cdn.pixabay.com/photo/2021/03/31/05/47/beauty-6138603_1280.jpg"
    },
    {
        "id": "868785",
        "src640": "https://cdn.pixabay.com/photo/2015/07/31/08/37/girl-868785_640.jpg",
        "src1280": "https://cdn.pixabay.com/photo/2015/07/31/08/37/girl-868785_1280.jpg"
    },
    {
        "id": "2281949",
        "src640": "https://cdn.pixabay.com/photo/2017/05/03/19/32/girl-2281949_640.jpg",
        "src1280": "https://cdn.pixabay.com/photo/2017/05/03/19/32/girl-2281949_1280.jpg"
    },
    {
        "id": "2748701",
        "src640": "https://cdn.pixabay.com/photo/2017/09/14/11/31/romantic-2748701_640.jpg",
        "src1280": "https://cdn.pixabay.com/photo/2017/09/14/11/31/romantic-2748701_1280.jpg"
    },
    {
        "id": "5211449",
        "src640": "https://cdn.pixabay.com/photo/2020/05/23/21/03/girl-5211449_640.jpg",
        "src1280": "https://cdn.pixabay.com/photo/2020/05/23/21/03/girl-5211449_1280.jpg"
    },
    {
        "id": "2591248",
        "src640": "https://cdn.pixabay.com/photo/2017/08/06/10/54/people-2591248_640.jpg",
        "src1280": "https://cdn.pixabay.com/photo/2017/08/06/10/54/people-2591248_1280.jpg"
    },
    {
        "id": "1131585",
        "src640": "https://cdn.pixabay.com/photo/2016/01/10/08/33/girls-1131585_640.jpg",
        "src1280": "https://cdn.pixabay.com/photo/2016/01/10/08/33/girls-1131585_1280.jpg"
    },
    {
        "id": "2099356",
        "src640": "https://cdn.pixabay.com/photo/2017/02/26/02/36/girl-2099356_640.jpg",
        "src1280": "https://cdn.pixabay.com/photo/2017/02/26/02/36/girl-2099356_1280.jpg"
    },
    {
        "id": "4314173",
        "src640": "https://cdn.pixabay.com/photo/2019/07/03/10/46/panama-4314173_640.jpg",
        "src1280": "https://cdn.pixabay.com/photo/2019/07/03/10/46/panama-4314173_1280.jpg"
    },
    {
        "id": "5727750",
        "src640": "https://cdn.pixabay.com/photo/2020/11/09/20/28/woman-5727750_640.jpg",
        "src1280": "https://cdn.pixabay.com/photo/2020/11/09/20/28/woman-5727750_1280.jpg"
    },
    {
        "id": "6658431",
        "src640": "https://cdn.pixabay.com/photo/2021/09/26/17/31/woman-6658431_640.jpg",
        "src1280": "https://cdn.pixabay.com/photo/2021/09/26/17/31/woman-6658431_1280.jpg"
    },
    {
        "id": "7171843",
        "src640": "https://cdn.pixabay.com/photo/2022/05/03/14/30/the-little-girl-7171843_640.jpg",
        "src1280": "https://cdn.pixabay.com/photo/2022/05/03/14/30/the-little-girl-7171843_1280.jpg"
    },
    {
        "id": "6137302",
        "src640": "https://cdn.pixabay.com/photo/2021/03/30/16/15/beauty-6137302_640.jpg",
        "src1280": "https://cdn.pixabay.com/photo/2021/03/30/16/15/beauty-6137302_1280.jpg"
    },
    {
        "id": "7098752",
        "src640": "https://cdn.pixabay.com/photo/2022/03/29/05/08/woman-7098752_640.jpg",
        "src1280": "https://cdn.pixabay.com/photo/2022/03/29/05/08/woman-7098752_1280.jpg"
    },
    {
        "id": "5841412",
        "src640": "https://cdn.pixabay.com/photo/2020/12/18/07/45/the-little-girl-5841412_640.jpg",
        "src1280": "https://cdn.pixabay.com/photo/2020/12/18/07/45/the-little-girl-5841412_1280.jpg"
    },
    {
        "id": "6890710",
        "src640": "https://cdn.pixabay.com/photo/2021/12/24/08/41/woman-6890710_640.jpg",
        "src1280": "https://cdn.pixabay.com/photo/2021/12/24/08/41/woman-6890710_1280.jpg"
    },
    {
        "id": "6792959",
        "src640": "https://cdn.pixabay.com/photo/2021/11/14/06/08/model-6792959_640.jpg",
        "src1280": "https://cdn.pixabay.com/photo/2021/11/14/06/08/model-6792959_1280.jpg"
    },
    {
        "id": "5584076",
        "src640": "https://cdn.pixabay.com/photo/2020/09/19/10/21/woman-5584076_640.jpg",
        "src1280": "https://cdn.pixabay.com/photo/2020/09/19/10/21/woman-5584076_1280.jpg"
    },
    {
        "id": "3438101",
        "src640": "https://cdn.pixabay.com/photo/2018/05/29/07/01/girl-3438101_640.jpg",
        "src1280": "https://cdn.pixabay.com/photo/2018/05/29/07/01/girl-3438101_1280.jpg"
    },
    {
        "id": "1237383",
        "src640": "https://cdn.pixabay.com/photo/2016/03/05/08/36/girl-1237383_640.jpg",
        "src1280": "https://cdn.pixabay.com/photo/2016/03/05/08/36/girl-1237383_1280.jpg"
    },
    {
        "id": "8024881",
        "src640": "https://cdn.pixabay.com/photo/2023/05/29/02/22/girl-8024881_640.jpg",
        "src1280": "https://cdn.pixabay.com/photo/2023/05/29/02/22/girl-8024881_1280.jpg"
    },
    {
        "id": "5304695",
        "src640": "https://cdn.pixabay.com/photo/2020/06/16/08/12/dress-5304695_640.jpg",
        "src1280": "https://cdn.pixabay.com/photo/2020/06/16/08/12/dress-5304695_1280.jpg"
    },
    {
        "id": "8314154",
        "src640": "https://cdn.pixabay.com/photo/2023/10/14/06/22/ai-generated-8314154_640.jpg",
        "src1280": "https://cdn.pixabay.com/photo/2023/10/14/06/22/ai-generated-8314154_1280.jpg"
    },
    {
        "id": "4760327",
        "src640": "https://cdn.pixabay.com/photo/2020/01/12/16/13/portrait-4760327_640.jpg",
        "src1280": "https://cdn.pixabay.com/photo/2020/01/12/16/13/portrait-4760327_1280.jpg"
    },
    {
        "id": "8136227",
        "src640": "https://cdn.pixabay.com/photo/2023/07/19/06/54/girl-8136227_640.jpg",
        "src1280": "https://cdn.pixabay.com/photo/2023/07/19/06/54/girl-8136227_1280.jpg"
    },
    {
        "id": "18998",
        "src640": "https://cdn.pixabay.com/photo/2012/02/29/12/18/baby-18998_640.jpg",
        "src1280": "https://cdn.pixabay.com/photo/2012/02/29/12/18/baby-18998_1280.jpg"
    },
    {
        "id": "6146393",
        "src640": "https://cdn.pixabay.com/photo/2021/04/03/03/04/cheongsam-6146393_640.jpg",
        "src1280": "https://cdn.pixabay.com/photo/2021/04/03/03/04/cheongsam-6146393_1280.jpg"
    },
    {
        "id": "3516937",
        "src640": "https://cdn.pixabay.com/photo/2018/07/04/20/50/makeup-3516937_640.jpg",
        "src1280": "https://cdn.pixabay.com/photo/2018/07/04/20/50/makeup-3516937_1280.jpg"
    },
    {
        "id": "5557869",
        "src640": "https://cdn.pixabay.com/photo/2020/09/09/14/48/woman-5557869_640.jpg",
        "src1280": "https://cdn.pixabay.com/photo/2020/09/09/14/48/woman-5557869_1280.jpg"
    },
    {
        "id": "5739698",
        "src640": "https://cdn.pixabay.com/photo/2020/11/13/19/25/girl-5739698_640.jpg",
        "src1280": "https://cdn.pixabay.com/photo/2020/11/13/19/25/girl-5739698_1280.jpg"
    },
    {
        "id": "8267869",
        "src640": "https://cdn.pixabay.com/photo/2023/09/22/02/12/ai-generated-8267869_640.jpg",
        "src1280": "https://cdn.pixabay.com/photo/2023/09/22/02/12/ai-generated-8267869_1280.jpg"
    },
    {
        "id": "8215396",
        "src640": "https://cdn.pixabay.com/photo/2023/08/26/16/36/ai-generated-8215396_640.jpg",
        "src1280": "https://cdn.pixabay.com/photo/2023/08/26/16/36/ai-generated-8215396_1280.jpg"
    }
]