[
    {
        "id": "3902603",
        "src640": "https://cdn.pixabay.com/photo/2018/12/30/04/10/clothes-3902603_640.jpg",
        "src1280": "https://cdn.pixabay.com/photo/2018/12/30/04/10/clothes-3902603_1280.jpg"
    },
    {
        "id": "7570921",
        "src640": "https://cdn.pixabay.com/photo/2022/11/05/01/09/ai-generated-7570921_640.jpg",
        "src1280": "https://cdn.pixabay.com/photo/2022/11/05/01/09/ai-generated-7570921_1280.jpg"
    },
    {
        "id": "4442836",
        "src640": "https://cdn.pixabay.com/photo/2019/08/31/05/51/fashion-4442836_640.jpg",
        "src1280": "https://cdn.pixabay.com/photo/2019/08/31/05/51/fashion-4442836_1280.jpg"
    },
    {
        "id": "4314170",
        "src640": "https://cdn.pixabay.com/photo/2019/07/03/10/45/panama-4314170_640.jpg",
        "src1280": "https://cdn.pixabay.com/photo/2019/07/03/10/45/panama-4314170_1280.jpg"
    },
    {
        "id": "4222512",
        "src640": "https://cdn.pixabay.com/photo/2019/05/22/20/48/woman-4222512_640.jpg",
        "src1280": "https://cdn.pixabay.com/photo/2019/05/22/20/48/woman-4222512_1280.jpg"
    },
    {
        "id": "2590352",
        "src640": "https://cdn.pixabay.com/photo/2017/08/06/08/40/man-2590352_640.jpg",
        "src1280": "https://cdn.pixabay.com/photo/2017/08/06/08/40/man-2590352_1280.jpg"
    },
    {
        "id": "7323756",
        "src640": "https://cdn.pixabay.com/photo/2022/07/15/18/39/fashion-7323756_640.jpg",
        "src1280": "https://cdn.pixabay.com/photo/2022/07/15/18/39/fashion-7323756_1280.jpg"
    },
    {
        "id": "6614416",
        "src640": "https://cdn.pixabay.com/photo/2021/09/11/01/24/girl-6614416_640.jpg",
        "src1280": "https://cdn.pixabay.com/photo/2021/09/11/01/24/girl-6614416_1280.jpg"
    },
    {
        "id": "7588257",
        "src640": "https://cdn.pixabay.com/photo/2022/11/13/04/18/woman-7588257_640.jpg",
        "src1280": "https://cdn.pixabay.com/photo/2022/11/13/04/18/woman-7588257_1280.jpg"
    },
    {
        "id": "1589837",
        "src640": "https://cdn.pixabay.com/photo/2016/08/12/22/11/girl-1589837_640.jpg",
        "src1280": "https://cdn.pixabay.com/photo/2016/08/12/22/11/girl-1589837_1280.jpg"
    },
    {
        "id": "8149796",
        "src640": "https://cdn.pixabay.com/photo/2023/07/25/19/36/ai-generated-8149796_640.jpg",
        "src1280": "https://cdn.pixabay.com/photo/2023/07/25/19/36/ai-generated-8149796_1280.jpg"
    },
    {
        "id": "2437097",
        "src640": "https://cdn.pixabay.com/photo/2017/06/24/09/03/womens-2437097_640.jpg",
        "src1280": "https://cdn.pixabay.com/photo/2017/06/24/09/03/womens-2437097_1280.jpg"
    },
    {
        "id": "2355172",
        "src640": "https://cdn.pixabay.com/photo/2017/05/29/22/50/sexy-2355172_640.jpg",
        "src1280": "https://cdn.pixabay.com/photo/2017/05/29/22/50/sexy-2355172_1280.jpg"
    },
    {
        "id": "6057651",
        "src640": "https://cdn.pixabay.com/photo/2021/02/28/16/33/beauty-6057651_640.jpg",
        "src1280": "https://cdn.pixabay.com/photo/2021/02/28/16/33/beauty-6057651_1280.jpg"
    },
    {
        "id": "4104003",
        "src640": "https://cdn.pixabay.com/photo/2019/04/04/22/57/fashion-4104003_640.jpg",
        "src1280": "https://cdn.pixabay.com/photo/2019/04/04/22/57/fashion-4104003_1280.jpg"
    },
    {
        "id": "5682184",
        "src640": "https://cdn.pixabay.com/photo/2020/10/24/17/46/woman-5682184_640.jpg",
        "src1280": "https://cdn.pixabay.com/photo/2020/10/24/17/46/woman-5682184_1280.jpg"
    },
    {
        "id": "6146397",
        "src640": "https://cdn.pixabay.com/photo/2021/04/03/03/12/ao-dai-6146397_640.jpg",
        "src1280": "https://cdn.pixabay.com/photo/2021/04/03/03/12/ao-dai-6146397_1280.jpg"
    },
    {
        "id": "8273285",
        "src640": "https://cdn.pixabay.com/photo/2023/09/24/16/00/woman-8273285_640.jpg",
        "src1280": "https://cdn.pixabay.com/photo/2023/09/24/16/00/woman-8273285_1280.jpg"
    },
    {
        "id": "7994769",
        "src640": "https://cdn.pixabay.com/photo/2023/05/15/11/22/woman-7994769_640.jpg",
        "src1280": "https://cdn.pixabay.com/photo/2023/05/15/11/22/woman-7994769_1280.jpg"
    },
    {
        "id": "4505175",
        "src640": "https://cdn.pixabay.com/photo/2019/09/26/06/03/beauty-4505175_640.jpg",
        "src1280": "https://cdn.pixabay.com/photo/2019/09/26/06/03/beauty-4505175_1280.jpg"
    },
    {
        "id": "5670276",
        "src640": "https://cdn.pixabay.com/photo/2020/10/20/11/51/child-5670276_640.jpg",
        "src1280": "https://cdn.pixabay.com/photo/2020/10/20/11/51/child-5670276_1280.jpg"
    },
    {
        "id": "2463051",
        "src640": "https://cdn.pixabay.com/photo/2017/07/01/22/52/girl-2463051_640.jpg",
        "src1280": "https://cdn.pixabay.com/photo/2017/07/01/22/52/girl-2463051_1280.jpg"
    },
    {
        "id": "7323796",
        "src640": "https://cdn.pixabay.com/photo/2022/07/15/18/43/fashion-7323796_640.jpg",
        "src1280": "https://cdn.pixabay.com/photo/2022/07/15/18/43/fashion-7323796_1280.jpg"
    },
    {
        "id": "4785011",
        "src640": "https://cdn.pixabay.com/photo/2020/01/22/10/36/fantasy-4785011_640.jpg",
        "src1280": "https://cdn.pixabay.com/photo/2020/01/22/10/36/fantasy-4785011_1280.jpg"
    },
    {
        "id": "2399214",
        "src640": "https://cdn.pixabay.com/photo/2017/06/13/15/36/girl-2399214_640.jpg",
        "src1280": "https://cdn.pixabay.com/photo/2017/06/13/15/36/girl-2399214_1280.jpg"
    },
    {
        "id": "2960497",
        "src640": "https://cdn.pixabay.com/photo/2017/11/18/16/55/hands-2960497_640.jpg",
        "src1280": "https://cdn.pixabay.com/photo/2017/11/18/16/55/hands-2960497_1280.jpg"
    },
    {
        "id": "2281709",
        "src640": "https://cdn.pixabay.com/photo/2017/05/03/18/15/women-2281709_640.jpg",
        "src1280": "https://cdn.pixabay.com/photo/2017/05/03/18/15/women-2281709_1280.jpg"
    },
    {
        "id": "3665821",
        "src640": "https://cdn.pixabay.com/photo/2018/09/09/23/44/girl-3665821_640.jpg",
        "src1280": "https://cdn.pixabay.com/photo/2018/09/09/23/44/girl-3665821_1280.jpg"
    },
    {
        "id": "8422893",
        "src640": "https://cdn.pixabay.com/photo/2023/12/01/05/31/woman-8422893_640.jpg",
        "src1280": "https://cdn.pixabay.com/photo/2023/12/01/05/31/woman-8422893_1280.jpg"
    },
    {
        "id": "7184187",
        "src640": "https://cdn.pixabay.com/photo/2022/05/09/10/05/girl-7184187_640.jpg",
        "src1280": "https://cdn.pixabay.com/photo/2022/05/09/10/05/girl-7184187_1280.jpg"
    },
    {
        "id": "8109792",
        "src640": "https://cdn.pixabay.com/photo/2023/07/06/06/46/woman-8109792_640.jpg",
        "src1280": "https://cdn.pixabay.com/photo/2023/07/06/06/46/woman-8109792_1280.jpg"
    },
    {
        "id": "6203990",
        "src640": "https://cdn.pixabay.com/photo/2021/04/24/12/11/bride-6203990_640.jpg",
        "src1280": "https://cdn.pixabay.com/photo/2021/04/24/12/11/bride-6203990_1280.jpg"
    },
    {
        "id": "6135657",
        "src640": "https://cdn.pixabay.com/photo/2021/03/30/02/07/beauty-6135657_640.jpg",
        "src1280": "https://cdn.pixabay.com/photo/2021/03/30/02/07/beauty-6135657_1280.jpg"
    },
    {
        "id": "3101245",
        "src640": "https://cdn.pixabay.com/photo/2018/01/23/11/35/woman-3101245_640.jpg",
        "src1280": "https://cdn.pixabay.com/photo/2018/01/23/11/35/woman-3101245_1280.jpg"
    },
    {
        "id": "5212331",
        "src640": "https://cdn.pixabay.com/photo/2020/05/24/03/59/girl-5212331_640.jpg",
        "src1280": "https://cdn.pixabay.com/photo/2020/05/24/03/59/girl-5212331_1280.jpg"
    },
    {
        "id": "6163733",
        "src640": "https://cdn.pixabay.com/photo/2021/04/09/08/00/woman-6163733_640.jpg",
        "src1280": "https://cdn.pixabay.com/photo/2021/04/09/08/00/woman-6163733_1280.jpg"
    },
    {
        "id": "3851324",
        "src640": "https://cdn.pixabay.com/photo/2018/12/02/14/46/girl-3851324_640.jpg",
        "src1280": "https://cdn.pixabay.com/photo/2018/12/02/14/46/girl-3851324_1280.jpg"
    },
    {
        "id": "6676640",
        "src640": "https://cdn.pixabay.com/photo/2021/10/03/01/28/adult-6676640_640.jpg",
        "src1280": "https://cdn.pixabay.com/photo/2021/10/03/01/28/adult-6676640_1280.jpg"
    },
    {
        "id": "6276298",
        "src640": "https://cdn.pixabay.com/photo/2021/05/23/14/06/model-6276298_640.jpg",
        "src1280": "https://cdn.pixabay.com/photo/2021/05/23/14/06/model-6276298_1280.jpg"
    },
    {
        "id": "6566767",
        "src640": "https://cdn.pixabay.com/photo/2021/08/23/05/58/girl-6566767_640.jpg",
        "src1280": "https://cdn.pixabay.com/photo/2021/08/23/05/58/girl-6566767_1280.jpg"
    },
    {
        "id": "5289250",
        "src640": "https://cdn.pixabay.com/photo/2020/06/12/05/52/girl-5289250_640.jpg",
        "src1280": "https://cdn.pixabay.com/photo/2020/06/12/05/52/girl-5289250_1280.jpg"
    },
    {
        "id": "5112776",
        "src640": "https://cdn.pixabay.com/photo/2020/04/30/12/59/man-5112776_640.jpg",
        "src1280": "https://cdn.pixabay.com/photo/2020/04/30/12/59/man-5112776_1280.jpg"
    },
    {
        "id": "6830874",
        "src640": "https://cdn.pixabay.com/photo/2021/11/28/17/41/woman-6830874_640.jpg",
        "src1280": "https://cdn.pixabay.com/photo/2021/11/28/17/41/woman-6830874_1280.jpg"
    },
    {
        "id": "8411222",
        "src640": "https://cdn.pixabay.com/photo/2023/11/25/07/11/woman-8411222_640.jpg",
        "src1280": "https://cdn.pixabay.com/photo/2023/11/25/07/11/woman-8411222_1280.jpg"
    },
    {
        "id": "8357933",
        "src640": "https://cdn.pixabay.com/photo/2023/11/01/15/02/woman-8357933_640.jpg",
        "src1280": "https://cdn.pixabay.com/photo/2023/11/01/15/02/woman-8357933_1280.jpg"
    },
    {
        "id": "5871267",
        "src640": "https://cdn.pixabay.com/photo/2020/12/29/18/43/woman-5871267_640.jpg",
        "src1280": "https://cdn.pixabay.com/photo/2020/12/29/18/43/woman-5871267_1280.jpg"
    },
    {
        "id": "5138311",
        "src640": "https://cdn.pixabay.com/photo/2020/05/06/17/01/fashion-5138311_640.jpg",
        "src1280": "https://cdn.pixabay.com/photo/2020/05/06/17/01/fashion-5138311_1280.jpg"
    },
    {
        "id": "2099357",
        "src640": "https://cdn.pixabay.com/photo/2017/02/26/02/36/girl-2099357_640.jpg",
        "src1280": "https://cdn.pixabay.com/photo/2017/02/26/02/36/girl-2099357_1280.jpg"
    },
    {
        "id": "7082379",
        "src640": "https://cdn.pixabay.com/photo/2022/03/21/06/31/woman-7082379_640.jpg",
        "src1280": "https://cdn.pixabay.com/photo/2022/03/21/06/31/woman-7082379_1280.jpg"
    },
    {
        "id": "8402998",
        "src640": "https://cdn.pixabay.com/photo/2023/11/21/11/14/ai-generated-8402998_640.jpg",
        "src1280": "https://cdn.pixabay.com/photo/2023/11/21/11/14/ai-generated-8402998_1280.jpg"
    },
    {
        "id": "2805784",
        "src640": "https://cdn.pixabay.com/photo/2017/10/01/14/55/woman-2805784_640.jpg",
        "src1280": "https://cdn.pixabay.com/photo/2017/10/01/14/55/woman-2805784_1280.jpg"
    },
    {
        "id": "6368907",
        "src640": "https://cdn.pixabay.com/photo/2021/06/27/13/58/fashion-6368907_640.jpg",
        "src1280": "https://cdn.pixabay.com/photo/2021/06/27/13/58/fashion-6368907_1280.jpg"
    },
    {
        "id": "7042748",
        "src640": "https://cdn.pixabay.com/photo/2022/03/02/09/40/sand-7042748_640.jpg",
        "src1280": "https://cdn.pixabay.com/photo/2022/03/02/09/40/sand-7042748_1280.jpg"
    },
    {
        "id": "2533151",
        "src640": "https://cdn.pixabay.com/photo/2017/07/23/23/43/medicine-2533151_640.jpg",
        "src1280": "https://cdn.pixabay.com/photo/2017/07/23/23/43/medicine-2533151_1280.jpg"
    },
    {
        "id": "7027994",
        "src640": "https://cdn.pixabay.com/photo/2022/02/22/04/28/woman-7027994_640.jpg",
        "src1280": "https://cdn.pixabay.com/photo/2022/02/22/04/28/woman-7027994_1280.jpg"
    },
    {
        "id": "4714821",
        "src640": "https://cdn.pixabay.com/photo/2019/12/23/15/37/portrait-4714821_640.jpg",
        "src1280": "https://cdn.pixabay.com/photo/2019/12/23/15/37/portrait-4714821_1280.jpg"
    },
    {
        "id": "6529475",
        "src640": "https://cdn.pixabay.com/photo/2021/08/07/22/03/woman-6529475_640.jpg",
        "src1280": "https://cdn.pixabay.com/photo/2021/08/07/22/03/woman-6529475_1280.jpg"
    },
    {
        "id": "5312744",
        "src640": "https://cdn.pixabay.com/photo/2020/06/18/09/42/fashion-5312744_640.jpg",
        "src1280": "https://cdn.pixabay.com/photo/2020/06/18/09/42/fashion-5312744_1280.jpg"
    },
    {
        "id": "7198147",
        "src640": "https://cdn.pixabay.com/photo/2022/05/15/13/48/woman-7198147_640.jpg",
        "src1280": "https://cdn.pixabay.com/photo/2022/05/15/13/48/woman-7198147_1280.jpg"
    },
    {
        "id": "8411329",
        "src640": "https://cdn.pixabay.com/photo/2023/11/25/08/40/beautiful-8411329_640.jpg",
        "src1280": "https://cdn.pixabay.com/photo/2023/11/25/08/40/beautiful-8411329_1280.jpg"
    },
    {
        "id": "6173360",
        "src640": "https://cdn.pixabay.com/photo/2021/04/12/17/21/fashion-6173360_640.jpg",
        "src1280": "https://cdn.pixabay.com/photo/2021/04/12/17/21/fashion-6173360_1280.jpg"
    },
    {
        "id": "5981056",
        "src640": "https://cdn.pixabay.com/photo/2021/02/04/11/37/woman-5981056_640.jpg",
        "src1280": "https://cdn.pixabay.com/photo/2021/02/04/11/37/woman-5981056_1280.jpg"
    }
]