[
    {
        "id": "3389355",
        "src640": "https://cdn.pixabay.com/photo/2018/05/11/01/40/ride-3389355_640.jpg",
        "src1280": "https://cdn.pixabay.com/photo/2018/05/11/01/40/ride-3389355_1280.jpg"
    },
    {
        "id": "3849771",
        "src640": "https://cdn.pixabay.com/photo/2018/12/01/16/26/girl-3849771_640.jpg",
        "src1280": "https://cdn.pixabay.com/photo/2018/12/01/16/26/girl-3849771_1280.jpg"
    },
    {
        "id": "6138596",
        "src640": "https://cdn.pixabay.com/photo/2021/03/31/05/42/fashion-6138596_640.jpg",
        "src1280": "https://cdn.pixabay.com/photo/2021/03/31/05/42/fashion-6138596_1280.jpg"
    },
    {
        "id": "4762910",
        "src640": "https://cdn.pixabay.com/photo/2020/01/13/16/24/baby-4762910_640.jpg",
        "src1280": "https://cdn.pixabay.com/photo/2020/01/13/16/24/baby-4762910_1280.jpg"
    },
    {
        "id": "4940550",
        "src640": "https://cdn.pixabay.com/photo/2020/03/17/14/43/dress-4940550_640.jpg",
        "src1280": "https://cdn.pixabay.com/photo/2020/03/17/14/43/dress-4940550_1280.jpg"
    },
    {
        "id": "4513358",
        "src640": "https://cdn.pixabay.com/photo/2019/09/29/13/43/woman-4513358_640.jpg",
        "src1280": "https://cdn.pixabay.com/photo/2019/09/29/13/43/woman-4513358_1280.jpg"
    },
    {
        "id": "5582203",
        "src640": "https://cdn.pixabay.com/photo/2020/09/18/15/59/woman-5582203_640.jpg",
        "src1280": "https://cdn.pixabay.com/photo/2020/09/18/15/59/woman-5582203_1280.jpg"
    },
    {
        "id": "8339183",
        "src640": "https://cdn.pixabay.com/photo/2023/10/24/21/40/woman-8339183_640.jpg",
        "src1280": "https://cdn.pixabay.com/photo/2023/10/24/21/40/woman-8339183_1280.jpg"
    },
    {
        "id": "2742242",
        "src640": "https://cdn.pixabay.com/photo/2017/09/12/12/55/theatre-2742242_640.jpg",
        "src1280": "https://cdn.pixabay.com/photo/2017/09/12/12/55/theatre-2742242_1280.jpg"
    },
    {
        "id": "3861356",
        "src640": "https://cdn.pixabay.com/photo/2018/12/07/09/33/women-3861356_640.jpg",
        "src1280": "https://cdn.pixabay.com/photo/2018/12/07/09/33/women-3861356_1280.jpg"
    },
    {
        "id": "7127008",
        "src640": "https://cdn.pixabay.com/photo/2022/04/12/02/13/woman-7127008_640.jpg",
        "src1280": "https://cdn.pixabay.com/photo/2022/04/12/02/13/woman-7127008_1280.jpg"
    },
    {
        "id": "8249780",
        "src640": "https://cdn.pixabay.com/photo/2023/09/12/23/57/ai-generated-8249780_640.jpg",
        "src1280": "https://cdn.pixabay.com/photo/2023/09/12/23/57/ai-generated-8249780_1280.jpg"
    },
    {
        "id": "6196871",
        "src640": "https://cdn.pixabay.com/photo/2021/04/21/16/37/woman-6196871_640.jpg",
        "src1280": "https://cdn.pixabay.com/photo/2021/04/21/16/37/woman-6196871_1280.jpg"
    },
    {
        "id": "8358154",
        "src640": "https://cdn.pixabay.com/photo/2023/11/01/16/26/ao-dai-8358154_640.jpg",
        "src1280": "https://cdn.pixabay.com/photo/2023/11/01/16/26/ao-dai-8358154_1280.jpg"
    },
    {
        "id": "7015021",
        "src640": "https://cdn.pixabay.com/photo/2022/02/15/14/07/woman-7015021_640.jpg",
        "src1280": "https://cdn.pixabay.com/photo/2022/02/15/14/07/woman-7015021_1280.jpg"
    },
    {
        "id": "3484126",
        "src640": "https://cdn.pixabay.com/photo/2018/06/19/09/49/girl-3484126_640.jpg",
        "src1280": "https://cdn.pixabay.com/photo/2018/06/19/09/49/girl-3484126_1280.jpg"
    },
    {
        "id": "4483393",
        "src640": "https://cdn.pixabay.com/photo/2019/09/17/12/40/fashion-4483393_640.jpg",
        "src1280": "https://cdn.pixabay.com/photo/2019/09/17/12/40/fashion-4483393_1280.jpg"
    },
    {
        "id": "4184807",
        "src640": "https://cdn.pixabay.com/photo/2019/05/07/01/46/dress-4184807_640.jpg",
        "src1280": "https://cdn.pixabay.com/photo/2019/05/07/01/46/dress-4184807_1280.jpg"
    },
    {
        "id": "4342533",
        "src640": "https://cdn.pixabay.com/photo/2019/07/16/20/23/girl-4342533_640.jpg",
        "src1280": "https://cdn.pixabay.com/photo/2019/07/16/20/23/girl-4342533_1280.jpg"
    },
    {
        "id": "8272266",
        "src640": "https://cdn.pixabay.com/photo/2023/09/24/07/23/ai-generated-8272266_640.jpg",
        "src1280": "https://cdn.pixabay.com/photo/2023/09/24/07/23/ai-generated-8272266_1280.jpg"
    },
    {
        "id": "4425272",
        "src640": "https://cdn.pixabay.com/photo/2019/08/23/08/34/beauty-4425272_640.jpg",
        "src1280": "https://cdn.pixabay.com/photo/2019/08/23/08/34/beauty-4425272_1280.jpg"
    },
    {
        "id": "2584055",
        "src640": "https://cdn.pixabay.com/photo/2017/08/05/14/33/people-2584055_640.jpg",
        "src1280": "https://cdn.pixabay.com/photo/2017/08/05/14/33/people-2584055_1280.jpg"
    },
    {
        "id": "8113451",
        "src640": "https://cdn.pixabay.com/photo/2023/07/07/22/25/ai-generated-8113451_640.jpg",
        "src1280": "https://cdn.pixabay.com/photo/2023/07/07/22/25/ai-generated-8113451_1280.jpg"
    },
    {
        "id": "864105",
        "src640": "https://cdn.pixabay.com/photo/2015/07/28/09/18/tomsk-864105_640.jpg",
        "src1280": "https://cdn.pixabay.com/photo/2015/07/28/09/18/tomsk-864105_1280.jpg"
    },
    {
        "id": "8443587",
        "src640": "https://cdn.pixabay.com/photo/2023/12/11/13/10/woman-8443587_640.jpg",
        "src1280": "https://cdn.pixabay.com/photo/2023/12/11/13/10/woman-8443587_1280.jpg"
    },
    {
        "id": "7034240",
        "src640": "https://cdn.pixabay.com/photo/2022/02/25/14/23/face-7034240_640.jpg",
        "src1280": "https://cdn.pixabay.com/photo/2022/02/25/14/23/face-7034240_1280.jpg"
    },
    {
        "id": "4919573",
        "src640": "https://cdn.pixabay.com/photo/2020/03/10/17/03/attractive-4919573_640.jpg",
        "src1280": "https://cdn.pixabay.com/photo/2020/03/10/17/03/attractive-4919573_1280.jpg"
    },
    {
        "id": "19236",
        "src640": "https://cdn.pixabay.com/photo/2012/02/29/15/54/adult-19236_640.jpg",
        "src1280": "https://cdn.pixabay.com/photo/2012/02/29/15/54/adult-19236_1280.jpg"
    },
    {
        "id": "2118500",
        "src640": "https://cdn.pixabay.com/photo/2017/03/05/12/19/woman-2118500_640.jpg",
        "src1280": "https://cdn.pixabay.com/photo/2017/03/05/12/19/woman-2118500_1280.jpg"
    },
    {
        "id": "2889885",
        "src640": "https://cdn.pixabay.com/photo/2017/10/26/01/09/girl-2889885_640.jpg",
        "src1280": "https://cdn.pixabay.com/photo/2017/10/26/01/09/girl-2889885_1280.jpg"
    },
    {
        "id": "8381098",
        "src640": "https://cdn.pixabay.com/photo/2023/11/11/12/39/forest-8381098_640.jpg",
        "src1280": "https://cdn.pixabay.com/photo/2023/11/11/12/39/forest-8381098_1280.jpg"
    },
    {
        "id": "84486",
        "src640": "https://cdn.pixabay.com/photo/2013/02/21/19/02/attractive-84486_640.jpg",
        "src1280": "https://cdn.pixabay.com/photo/2013/02/21/19/02/attractive-84486_1280.jpg"
    },
    {
        "id": "1822567",
        "src640": "https://cdn.pixabay.com/photo/2016/11/14/04/13/activity-1822567_640.jpg",
        "src1280": "https://cdn.pixabay.com/photo/2016/11/14/04/13/activity-1822567_1280.jpg"
    },
    {
        "id": "8344963",
        "src640": "https://cdn.pixabay.com/photo/2023/10/27/10/29/girl-8344963_640.jpg",
        "src1280": "https://cdn.pixabay.com/photo/2023/10/27/10/29/girl-8344963_1280.jpg"
    },
    {
        "id": "3293849",
        "src640": "https://cdn.pixabay.com/photo/2018/04/05/19/04/portrait-3293849_640.jpg",
        "src1280": "https://cdn.pixabay.com/photo/2018/04/05/19/04/portrait-3293849_1280.jpg"
    },
    {
        "id": "5176245",
        "src640": "https://cdn.pixabay.com/photo/2020/05/16/06/52/woman-5176245_640.jpg",
        "src1280": "https://cdn.pixabay.com/photo/2020/05/16/06/52/woman-5176245_1280.jpg"
    },
    {
        "id": "8421966",
        "src640": "https://cdn.pixabay.com/photo/2023/11/30/15/50/ai-generated-8421966_640.jpg",
        "src1280": "https://cdn.pixabay.com/photo/2023/11/30/15/50/ai-generated-8421966_1280.jpg"
    },
    {
        "id": "5521854",
        "src640": "https://cdn.pixabay.com/photo/2020/08/27/11/18/model-5521854_640.jpg",
        "src1280": "https://cdn.pixabay.com/photo/2020/08/27/11/18/model-5521854_1280.jpg"
    },
    {
        "id": "3335531",
        "src640": "https://cdn.pixabay.com/photo/2018/04/20/09/35/fantasy-3335531_640.jpg",
        "src1280": "https://cdn.pixabay.com/photo/2018/04/20/09/35/fantasy-3335531_1280.jpg"
    },
    {
        "id": "5679685",
        "src640": "https://cdn.pixabay.com/photo/2020/10/23/18/44/girl-5679685_640.jpg",
        "src1280": "https://cdn.pixabay.com/photo/2020/10/23/18/44/girl-5679685_1280.jpg"
    },
    {
        "id": "4802124",
        "src640": "https://cdn.pixabay.com/photo/2020/01/29/10/42/ballerina-4802124_640.jpg",
        "src1280": "https://cdn.pixabay.com/photo/2020/01/29/10/42/ballerina-4802124_1280.jpg"
    },
    {
        "id": "5305063",
        "src640": "https://cdn.pixabay.com/photo/2020/06/16/10/15/fashion-5305063_640.jpg",
        "src1280": "https://cdn.pixabay.com/photo/2020/06/16/10/15/fashion-5305063_1280.jpg"
    },
    {
        "id": "6017464",
        "src640": "https://cdn.pixabay.com/photo/2021/02/15/11/07/girl-6017464_640.jpg",
        "src1280": "https://cdn.pixabay.com/photo/2021/02/15/11/07/girl-6017464_1280.jpg"
    },
    {
        "id": "8236314",
        "src640": "https://cdn.pixabay.com/photo/2023/09/06/04/32/ai-generated-8236314_640.jpg",
        "src1280": "https://cdn.pixabay.com/photo/2023/09/06/04/32/ai-generated-8236314_1280.jpg"
    },
    {
        "id": "4721341",
        "src640": "https://cdn.pixabay.com/photo/2019/12/26/22/10/girl-4721341_640.jpg",
        "src1280": "https://cdn.pixabay.com/photo/2019/12/26/22/10/girl-4721341_1280.jpg"
    },
    {
        "id": "6486272",
        "src640": "https://cdn.pixabay.com/photo/2021/07/23/00/47/white-suit-6486272_640.jpg",
        "src1280": "https://cdn.pixabay.com/photo/2021/07/23/00/47/white-suit-6486272_1280.jpg"
    },
    {
        "id": "3360604",
        "src640": "https://cdn.pixabay.com/photo/2018/04/29/17/37/woman-3360604_640.jpg",
        "src1280": "https://cdn.pixabay.com/photo/2018/04/29/17/37/woman-3360604_1280.jpg"
    },
    {
        "id": "7584070",
        "src640": "https://cdn.pixabay.com/photo/2022/11/11/02/39/woman-7584070_640.jpg",
        "src1280": "https://cdn.pixabay.com/photo/2022/11/11/02/39/woman-7584070_1280.jpg"
    },
    {
        "id": "7686299",
        "src640": "https://cdn.pixabay.com/photo/2022/12/30/06/14/beautiful-girl-7686299_640.jpg",
        "src1280": "https://cdn.pixabay.com/photo/2022/12/30/06/14/beautiful-girl-7686299_1280.jpg"
    },
    {
        "id": "2945535",
        "src640": "https://cdn.pixabay.com/photo/2017/11/13/12/59/photo-2945535_640.jpg",
        "src1280": "https://cdn.pixabay.com/photo/2017/11/13/12/59/photo-2945535_1280.jpg"
    },
    {
        "id": "2798451",
        "src640": "https://cdn.pixabay.com/photo/2017/09/29/09/15/laugh-2798451_640.jpg",
        "src1280": "https://cdn.pixabay.com/photo/2017/09/29/09/15/laugh-2798451_1280.jpg"
    },
    {
        "id": "4347712",
        "src640": "https://cdn.pixabay.com/photo/2019/07/19/01/01/portrait-4347712_640.jpg",
        "src1280": "https://cdn.pixabay.com/photo/2019/07/19/01/01/portrait-4347712_1280.jpg"
    },
    {
        "id": "6495623",
        "src640": "https://cdn.pixabay.com/photo/2021/07/27/01/50/ao-dai-6495623_640.jpg",
        "src1280": "https://cdn.pixabay.com/photo/2021/07/27/01/50/ao-dai-6495623_1280.jpg"
    },
    {
        "id": "3426062",
        "src640": "https://cdn.pixabay.com/photo/2018/05/24/08/38/beautiful-3426062_640.jpg",
        "src1280": "https://cdn.pixabay.com/photo/2018/05/24/08/38/beautiful-3426062_1280.jpg"
    },
    {
        "id": "200934",
        "src640": "https://cdn.pixabay.com/photo/2013/10/26/02/36/woman-200934_640.jpg",
        "src1280": "https://cdn.pixabay.com/photo/2013/10/26/02/36/woman-200934_1280.jpg"
    },
    {
        "id": "8443593",
        "src640": "https://cdn.pixabay.com/photo/2023/12/11/13/10/woman-8443593_640.jpg",
        "src1280": "https://cdn.pixabay.com/photo/2023/12/11/13/10/woman-8443593_1280.jpg"
    },
    {
        "id": "4907305",
        "src640": "https://cdn.pixabay.com/photo/2020/03/06/15/02/model-4907305_640.jpg",
        "src1280": "https://cdn.pixabay.com/photo/2020/03/06/15/02/model-4907305_1280.jpg"
    },
    {
        "id": "655488",
        "src640": "https://cdn.pixabay.com/photo/2015/03/02/00/10/redhead-655488_640.jpg",
        "src1280": "https://cdn.pixabay.com/photo/2015/03/02/00/10/redhead-655488_1280.jpg"
    }
]