[
    {
        "id": "7198112",
        "src640": "https://cdn.pixabay.com/photo/2022/05/15/13/44/woman-7198112_640.jpg",
        "src1280": "https://cdn.pixabay.com/photo/2022/05/15/13/44/woman-7198112_1280.jpg"
    },
    {
        "id": "18933",
        "src640": "https://cdn.pixabay.com/photo/2012/02/29/12/12/adult-18933_640.jpg",
        "src1280": "https://cdn.pixabay.com/photo/2012/02/29/12/12/adult-18933_1280.jpg"
    },
    {
        "id": "3991326",
        "src640": "https://cdn.pixabay.com/photo/2019/02/12/04/42/suitcase-3991326_640.jpg",
        "src1280": "https://cdn.pixabay.com/photo/2019/02/12/04/42/suitcase-3991326_1280.jpg"
    },
    {
        "id": "5173152",
        "src640": "https://cdn.pixabay.com/photo/2020/05/15/10/23/skirt-5173152_640.jpg",
        "src1280": "https://cdn.pixabay.com/photo/2020/05/15/10/23/skirt-5173152_1280.jpg"
    },
    {
        "id": "7004963",
        "src640": "https://cdn.pixabay.com/photo/2022/02/10/09/29/woman-7004963_640.jpg",
        "src1280": "https://cdn.pixabay.com/photo/2022/02/10/09/29/woman-7004963_1280.jpg"
    },
    {
        "id": "6511883",
        "src640": "https://cdn.pixabay.com/photo/2021/07/31/12/28/woman-6511883_640.jpg",
        "src1280": "https://cdn.pixabay.com/photo/2021/07/31/12/28/woman-6511883_1280.jpg"
    },
    {
        "id": "6807051",
        "src640": "https://cdn.pixabay.com/photo/2021/11/18/18/30/woman-6807051_640.jpg",
        "src1280": "https://cdn.pixabay.com/photo/2021/11/18/18/30/woman-6807051_1280.jpg"
    },
    {
        "id": "8308483",
        "src640": "https://cdn.pixabay.com/photo/2023/10/11/11/56/ai-generated-8308483_640.jpg",
        "src1280": "https://cdn.pixabay.com/photo/2023/10/11/11/56/ai-generated-8308483_1280.jpg"
    },
    {
        "id": "8322921",
        "src640": "https://cdn.pixabay.com/photo/2023/10/18/05/15/girl-8322921_640.jpg",
        "src1280": "https://cdn.pixabay.com/photo/2023/10/18/05/15/girl-8322921_1280.jpg"
    },
    {
        "id": "7668738",
        "src640": "https://cdn.pixabay.com/photo/2022/12/20/21/15/ai-generated-7668738_640.jpg",
        "src1280": "https://cdn.pixabay.com/photo/2022/12/20/21/15/ai-generated-7668738_1280.jpg"
    },
    {
        "id": "6138584",
        "src640": "https://cdn.pixabay.com/photo/2021/03/31/05/38/ao-dai-6138584_640.jpg",
        "src1280": "https://cdn.pixabay.com/photo/2021/03/31/05/38/ao-dai-6138584_1280.jpg"
    },
    {
        "id": "7609525",
        "src640": "https://cdn.pixabay.com/photo/2022/11/22/12/30/woman-7609525_640.jpg",
        "src1280": "https://cdn.pixabay.com/photo/2022/11/22/12/30/woman-7609525_1280.jpg"
    },
    {
        "id": "2359694",
        "src640": "https://cdn.pixabay.com/photo/2017/05/31/09/30/womens-2359694_640.jpg",
        "src1280": "https://cdn.pixabay.com/photo/2017/05/31/09/30/womens-2359694_1280.jpg"
    },
    {
        "id": "3910942",
        "src640": "https://cdn.pixabay.com/photo/2019/01/03/13/21/portrait-3910942_640.jpg",
        "src1280": "https://cdn.pixabay.com/photo/2019/01/03/13/21/portrait-3910942_1280.jpg"
    },
    {
        "id": "6146365",
        "src640": "https://cdn.pixabay.com/photo/2021/04/03/02/48/ao-dai-6146365_640.jpg",
        "src1280": "https://cdn.pixabay.com/photo/2021/04/03/02/48/ao-dai-6146365_1280.jpg"
    },
    {
        "id": "3682887",
        "src640": "https://cdn.pixabay.com/photo/2018/09/17/02/44/girl-3682887_640.jpg",
        "src1280": "https://cdn.pixabay.com/photo/2018/09/17/02/44/girl-3682887_1280.jpg"
    },
    {
        "id": "5144075",
        "src640": "https://cdn.pixabay.com/photo/2020/05/08/04/29/girls-5144075_640.jpg",
        "src1280": "https://cdn.pixabay.com/photo/2020/05/08/04/29/girls-5144075_1280.jpg"
    },
    {
        "id": "5849882",
        "src640": "https://cdn.pixabay.com/photo/2020/12/21/13/00/woman-5849882_640.jpg",
        "src1280": "https://cdn.pixabay.com/photo/2020/12/21/13/00/woman-5849882_1280.jpg"
    },
    {
        "id": "5596494",
        "src640": "https://cdn.pixabay.com/photo/2020/09/23/16/41/woman-5596494_640.jpg",
        "src1280": "https://cdn.pixabay.com/photo/2020/09/23/16/41/woman-5596494_1280.jpg"
    },
    {
        "id": "5679934",
        "src640": "https://cdn.pixabay.com/photo/2020/10/23/20/53/girl-5679934_640.jpg",
        "src1280": "https://cdn.pixabay.com/photo/2020/10/23/20/53/girl-5679934_1280.jpg"
    },
    {
        "id": "8415556",
        "src640": "https://cdn.pixabay.com/photo/2023/11/27/15/01/ai-generated-8415556_640.jpg",
        "src1280": "https://cdn.pixabay.com/photo/2023/11/27/15/01/ai-generated-8415556_1280.jpg"
    },
    {
        "id": "3366235",
        "src640": "https://cdn.pixabay.com/photo/2018/05/01/17/27/lovely-3366235_640.jpg",
        "src1280": "https://cdn.pixabay.com/photo/2018/05/01/17/27/lovely-3366235_1280.jpg"
    },
    {
        "id": "6580095",
        "src640": "https://cdn.pixabay.com/photo/2021/08/28/05/43/woman-6580095_640.jpg",
        "src1280": "https://cdn.pixabay.com/photo/2021/08/28/05/43/woman-6580095_1280.jpg"
    },
    {
        "id": "6587149",
        "src640": "https://cdn.pixabay.com/photo/2021/08/30/21/39/woman-6587149_640.jpg",
        "src1280": "https://cdn.pixabay.com/photo/2021/08/30/21/39/woman-6587149_1280.jpg"
    },
    {
        "id": "4102775",
        "src640": "https://cdn.pixabay.com/photo/2019/04/04/13/29/pants-4102775_640.jpg",
        "src1280": "https://cdn.pixabay.com/photo/2019/04/04/13/29/pants-4102775_1280.jpg"
    },
    {
        "id": "5864217",
        "src640": "https://cdn.pixabay.com/photo/2020/12/27/14/31/woman-5864217_640.jpg",
        "src1280": "https://cdn.pixabay.com/photo/2020/12/27/14/31/woman-5864217_1280.jpg"
    },
    {
        "id": "5769008",
        "src640": "https://cdn.pixabay.com/photo/2020/11/23/08/01/girl-5769008_640.jpg",
        "src1280": "https://cdn.pixabay.com/photo/2020/11/23/08/01/girl-5769008_1280.jpg"
    },
    {
        "id": "4785529",
        "src640": "https://cdn.pixabay.com/photo/2020/01/22/15/11/fashion-4785529_640.jpg",
        "src1280": "https://cdn.pixabay.com/photo/2020/01/22/15/11/fashion-4785529_1280.jpg"
    },
    {
        "id": "5843566",
        "src640": "https://cdn.pixabay.com/photo/2020/12/19/04/19/girl-5843566_640.jpg",
        "src1280": "https://cdn.pixabay.com/photo/2020/12/19/04/19/girl-5843566_1280.jpg"
    },
    {
        "id": "4726875",
        "src640": "https://cdn.pixabay.com/photo/2019/12/29/12/19/girl-4726875_640.jpg",
        "src1280": "https://cdn.pixabay.com/photo/2019/12/29/12/19/girl-4726875_1280.jpg"
    },
    {
        "id": "6068643",
        "src640": "https://cdn.pixabay.com/photo/2021/03/04/16/25/woman-6068643_640.jpg",
        "src1280": "https://cdn.pixabay.com/photo/2021/03/04/16/25/woman-6068643_1280.jpg"
    },
    {
        "id": "3007076",
        "src640": "https://cdn.pixabay.com/photo/2017/12/09/01/42/girl-3007076_640.jpg",
        "src1280": "https://cdn.pixabay.com/photo/2017/12/09/01/42/girl-3007076_1280.jpg"
    },
    {
        "id": "4882443",
        "src640": "https://cdn.pixabay.com/photo/2020/02/26/18/05/girl-4882443_640.jpg",
        "src1280": "https://cdn.pixabay.com/photo/2020/02/26/18/05/girl-4882443_1280.jpg"
    },
    {
        "id": "7536574",
        "src640": "https://cdn.pixabay.com/photo/2022/10/21/09/01/fashion-7536574_640.jpg",
        "src1280": "https://cdn.pixabay.com/photo/2022/10/21/09/01/fashion-7536574_1280.jpg"
    },
    {
        "id": "6626068",
        "src640": "https://cdn.pixabay.com/photo/2021/09/15/07/27/woman-6626068_640.jpg",
        "src1280": "https://cdn.pixabay.com/photo/2021/09/15/07/27/woman-6626068_1280.jpg"
    },
    {
        "id": "5059017",
        "src640": "https://cdn.pixabay.com/photo/2020/04/18/12/03/shoes-5059017_640.jpg",
        "src1280": "https://cdn.pixabay.com/photo/2020/04/18/12/03/shoes-5059017_1280.jpg"
    },
    {
        "id": "2587261",
        "src640": "https://cdn.pixabay.com/photo/2017/08/06/00/56/people-2587261_640.jpg",
        "src1280": "https://cdn.pixabay.com/photo/2017/08/06/00/56/people-2587261_1280.jpg"
    },
    {
        "id": "6577472",
        "src640": "https://cdn.pixabay.com/photo/2021/08/27/01/15/woman-6577472_640.jpg",
        "src1280": "https://cdn.pixabay.com/photo/2021/08/27/01/15/woman-6577472_1280.jpg"
    },
    {
        "id": "2081292",
        "src640": "https://cdn.pixabay.com/photo/2017/02/20/00/12/beauty-2081292_640.jpg",
        "src1280": "https://cdn.pixabay.com/photo/2017/02/20/00/12/beauty-2081292_1280.jpg"
    },
    {
        "id": "1026509",
        "src640": "https://cdn.pixabay.com/photo/2015/11/06/11/50/woman-1026509_640.jpg",
        "src1280": "https://cdn.pixabay.com/photo/2015/11/06/11/50/woman-1026509_1280.jpg"
    },
    {
        "id": "3514040",
        "src640": "https://cdn.pixabay.com/photo/2018/07/03/15/09/girl-3514040_640.jpg",
        "src1280": "https://cdn.pixabay.com/photo/2018/07/03/15/09/girl-3514040_1280.jpg"
    },
    {
        "id": "6242586",
        "src640": "https://cdn.pixabay.com/photo/2021/05/10/05/05/ao-dai-6242586_640.jpg",
        "src1280": "https://cdn.pixabay.com/photo/2021/05/10/05/05/ao-dai-6242586_1280.jpg"
    },
    {
        "id": "5718070",
        "src640": "https://cdn.pixabay.com/photo/2020/11/06/15/31/woman-5718070_640.jpg",
        "src1280": "https://cdn.pixabay.com/photo/2020/11/06/15/31/woman-5718070_1280.jpg"
    },
    {
        "id": "2678444",
        "src640": "https://cdn.pixabay.com/photo/2017/08/24/21/23/teen-2678444_640.jpg",
        "src1280": "https://cdn.pixabay.com/photo/2017/08/24/21/23/teen-2678444_1280.jpg"
    },
    {
        "id": "4681672",
        "src640": "https://cdn.pixabay.com/photo/2019/12/08/17/11/forest-4681672_640.jpg",
        "src1280": "https://cdn.pixabay.com/photo/2019/12/08/17/11/forest-4681672_1280.jpg"
    },
    {
        "id": "7536571",
        "src640": "https://cdn.pixabay.com/photo/2022/10/21/09/01/fashion-7536571_640.jpg",
        "src1280": "https://cdn.pixabay.com/photo/2022/10/21/09/01/fashion-7536571_1280.jpg"
    },
    {
        "id": "3007506",
        "src640": "https://cdn.pixabay.com/photo/2017/12/09/09/29/posing-3007506_640.jpg",
        "src1280": "https://cdn.pixabay.com/photo/2017/12/09/09/29/posing-3007506_1280.jpg"
    },
    {
        "id": "868783",
        "src640": "https://cdn.pixabay.com/photo/2015/07/31/08/37/girl-868783_640.jpg",
        "src1280": "https://cdn.pixabay.com/photo/2015/07/31/08/37/girl-868783_1280.jpg"
    },
    {
        "id": "3304160",
        "src640": "https://cdn.pixabay.com/photo/2018/04/09/14/17/woman-3304160_640.jpg",
        "src1280": "https://cdn.pixabay.com/photo/2018/04/09/14/17/woman-3304160_1280.jpg"
    },
    {
        "id": "4886481",
        "src640": "https://cdn.pixabay.com/photo/2020/02/28/04/22/teen-4886481_640.jpg",
        "src1280": "https://cdn.pixabay.com/photo/2020/02/28/04/22/teen-4886481_1280.jpg"
    },
    {
        "id": "6374757",
        "src640": "https://cdn.pixabay.com/photo/2021/06/29/18/04/woman-6374757_640.jpg",
        "src1280": "https://cdn.pixabay.com/photo/2021/06/29/18/04/woman-6374757_1280.jpg"
    },
    {
        "id": "5313918",
        "src640": "https://cdn.pixabay.com/photo/2020/06/18/15/05/the-girl-in-the-bathtub-5313918_640.jpg",
        "src1280": "https://cdn.pixabay.com/photo/2020/06/18/15/05/the-girl-in-the-bathtub-5313918_1280.jpg"
    },
    {
        "id": "7464862",
        "src640": "https://cdn.pixabay.com/photo/2022/09/19/07/40/woman-7464862_640.jpg",
        "src1280": "https://cdn.pixabay.com/photo/2022/09/19/07/40/woman-7464862_1280.jpg"
    },
    {
        "id": "2608584",
        "src640": "https://cdn.pixabay.com/photo/2017/08/07/22/27/model-2608584_640.jpg",
        "src1280": "https://cdn.pixabay.com/photo/2017/08/07/22/27/model-2608584_1280.jpg"
    },
    {
        "id": "8357762",
        "src640": "https://cdn.pixabay.com/photo/2023/11/01/14/43/girl-8357762_640.jpg",
        "src1280": "https://cdn.pixabay.com/photo/2023/11/01/14/43/girl-8357762_1280.jpg"
    },
    {
        "id": "8319380",
        "src640": "https://cdn.pixabay.com/photo/2023/10/16/14/55/woman-8319380_640.jpg",
        "src1280": "https://cdn.pixabay.com/photo/2023/10/16/14/55/woman-8319380_1280.jpg"
    },
    {
        "id": "2798442",
        "src640": "https://cdn.pixabay.com/photo/2017/09/29/09/12/laugh-2798442_640.jpg",
        "src1280": "https://cdn.pixabay.com/photo/2017/09/29/09/12/laugh-2798442_1280.jpg"
    },
    {
        "id": "2675496",
        "src640": "https://cdn.pixabay.com/photo/2017/08/24/05/40/lady-2675496_640.jpg",
        "src1280": "https://cdn.pixabay.com/photo/2017/08/24/05/40/lady-2675496_1280.jpg"
    },
    {
        "id": "4783126",
        "src640": "https://cdn.pixabay.com/photo/2020/01/21/15/26/fashion-4783126_640.jpg",
        "src1280": "https://cdn.pixabay.com/photo/2020/01/21/15/26/fashion-4783126_1280.jpg"
    },
    {
        "id": "6304451",
        "src640": "https://cdn.pixabay.com/photo/2021/06/02/13/18/fashion-6304451_640.jpg",
        "src1280": "https://cdn.pixabay.com/photo/2021/06/02/13/18/fashion-6304451_1280.jpg"
    },
    {
        "id": "7959989",
        "src640": "https://cdn.pixabay.com/photo/2023/04/30/07/59/girl-7959989_640.jpg",
        "src1280": "https://cdn.pixabay.com/photo/2023/04/30/07/59/girl-7959989_1280.jpg"
    },
    {
        "id": "8325435",
        "src640": "https://cdn.pixabay.com/photo/2023/10/19/02/49/ai-generated-8325435_640.jpg",
        "src1280": "https://cdn.pixabay.com/photo/2023/10/19/02/49/ai-generated-8325435_1280.jpg"
    },
    {
        "id": "4940570",
        "src640": "https://cdn.pixabay.com/photo/2020/03/17/14/44/dress-4940570_640.jpg",
        "src1280": "https://cdn.pixabay.com/photo/2020/03/17/14/44/dress-4940570_1280.jpg"
    },
    {
        "id": "6844351",
        "src640": "https://cdn.pixabay.com/photo/2021/12/04/04/44/woman-6844351_640.jpg",
        "src1280": "https://cdn.pixabay.com/photo/2021/12/04/04/44/woman-6844351_1280.jpg"
    },
    {
        "id": "4081795",
        "src640": "https://cdn.pixabay.com/photo/2019/03/26/03/14/wedding-4081795_640.jpg",
        "src1280": "https://cdn.pixabay.com/photo/2019/03/26/03/14/wedding-4081795_1280.jpg"
    },
    {
        "id": "7046637",
        "src640": "https://cdn.pixabay.com/photo/2022/03/04/06/18/woman-7046637_640.jpg",
        "src1280": "https://cdn.pixabay.com/photo/2022/03/04/06/18/woman-7046637_1280.jpg"
    },
    {
        "id": "4897526",
        "src640": "https://cdn.pixabay.com/photo/2020/03/03/04/51/crown-4897526_640.jpg",
        "src1280": "https://cdn.pixabay.com/photo/2020/03/03/04/51/crown-4897526_1280.jpg"
    },
    {
        "id": "2976689",
        "src640": "https://cdn.pixabay.com/photo/2017/11/25/12/18/guitarist-2976689_640.jpg",
        "src1280": "https://cdn.pixabay.com/photo/2017/11/25/12/18/guitarist-2976689_1280.jpg"
    },
    {
        "id": "4505179",
        "src640": "https://cdn.pixabay.com/photo/2019/09/26/06/04/beauty-4505179_640.jpg",
        "src1280": "https://cdn.pixabay.com/photo/2019/09/26/06/04/beauty-4505179_1280.jpg"
    },
    {
        "id": "3678028",
        "src640": "https://cdn.pixabay.com/photo/2018/09/14/20/02/girl-3678028_640.jpg",
        "src1280": "https://cdn.pixabay.com/photo/2018/09/14/20/02/girl-3678028_1280.jpg"
    },
    {
        "id": "6477402",
        "src640": "https://cdn.pixabay.com/photo/2021/07/19/07/22/woman-6477402_640.jpg",
        "src1280": "https://cdn.pixabay.com/photo/2021/07/19/07/22/woman-6477402_1280.jpg"
    },
    {
        "id": "1875990",
        "src640": "https://cdn.pixabay.com/photo/2016/12/01/19/31/beautiful-1875990_640.jpg",
        "src1280": "https://cdn.pixabay.com/photo/2016/12/01/19/31/beautiful-1875990_1280.jpg"
    },
    {
        "id": "5339072",
        "src640": "https://cdn.pixabay.com/photo/2020/06/25/09/04/womens-5339072_640.jpg",
        "src1280": "https://cdn.pixabay.com/photo/2020/06/25/09/04/womens-5339072_1280.jpg"
    }
]