[
    {
        "id": "5302340",
        "src640": "https://cdn.pixabay.com/photo/2020/06/15/15/42/girl-5302340_640.jpg",
        "src1280": "https://cdn.pixabay.com/photo/2020/06/15/15/42/girl-5302340_1280.jpg"
    },
    {
        "id": "5679936",
        "src640": "https://cdn.pixabay.com/photo/2020/10/23/20/53/girl-5679936_640.jpg",
        "src1280": "https://cdn.pixabay.com/photo/2020/10/23/20/53/girl-5679936_1280.jpg"
    },
    {
        "id": "8279697",
        "src640": "https://cdn.pixabay.com/photo/2023/09/27/15/02/ai-generated-8279697_640.jpg",
        "src1280": "https://cdn.pixabay.com/photo/2023/09/27/15/02/ai-generated-8279697_1280.jpg"
    },
    {
        "id": "771810",
        "src640": "https://cdn.pixabay.com/photo/2015/05/18/02/22/women-771810_640.jpg",
        "src1280": "https://cdn.pixabay.com/photo/2015/05/18/02/22/women-771810_1280.jpg"
    },
    {
        "id": "8253234",
        "src640": "https://cdn.pixabay.com/photo/2023/09/14/15/48/woman-8253234_640.jpg",
        "src1280": "https://cdn.pixabay.com/photo/2023/09/14/15/48/woman-8253234_1280.jpg"
    },
    {
        "id": "3121054",
        "src640": "https://cdn.pixabay.com/photo/2018/01/31/12/37/nature-3121054_640.jpg",
        "src1280": "https://cdn.pixabay.com/photo/2018/01/31/12/37/nature-3121054_1280.jpg"
    },
    {
        "id": "5862503",
        "src640": "https://cdn.pixabay.com/photo/2020/12/26/22/06/woman-5862503_640.jpg",
        "src1280": "https://cdn.pixabay.com/photo/2020/12/26/22/06/woman-5862503_1280.jpg"
    },
    {
        "id": "213348",
        "src640": "https://cdn.pixabay.com/photo/2013/11/19/16/42/model-213348_640.jpg",
        "src1280": "https://cdn.pixabay.com/photo/2013/11/19/16/42/model-213348_1280.jpg"
    },
    {
        "id": "5245892",
        "src640": "https://cdn.pixabay.com/photo/2020/06/01/09/18/fashion-5245892_640.jpg",
        "src1280": "https://cdn.pixabay.com/photo/2020/06/01/09/18/fashion-5245892_1280.jpg"
    },
    {
        "id": "4683503",
        "src640": "https://cdn.pixabay.com/photo/2019/12/09/13/15/portrait-4683503_640.jpg",
        "src1280": "https://cdn.pixabay.com/photo/2019/12/09/13/15/portrait-4683503_1280.jpg"
    },
    {
        "id": "2969970",
        "src640": "https://cdn.pixabay.com/photo/2017/11/22/08/34/swing-2969970_640.jpg",
        "src1280": "https://cdn.pixabay.com/photo/2017/11/22/08/34/swing-2969970_1280.jpg"
    },
    {
        "id": "4425254",
        "src640": "https://cdn.pixabay.com/photo/2019/08/23/08/30/beauty-4425254_640.jpg",
        "src1280": "https://cdn.pixabay.com/photo/2019/08/23/08/30/beauty-4425254_1280.jpg"
    },
    {
        "id": "6557148",
        "src640": "https://cdn.pixabay.com/photo/2021/08/19/06/22/young-woman-6557148_640.jpg",
        "src1280": "https://cdn.pixabay.com/photo/2021/08/19/06/22/young-woman-6557148_1280.jpg"
    },
    {
        "id": "3395359",
        "src640": "https://cdn.pixabay.com/photo/2018/05/13/04/20/princess-3395359_640.jpg",
        "src1280": "https://cdn.pixabay.com/photo/2018/05/13/04/20/princess-3395359_1280.jpg"
    },
    {
        "id": "8273078",
        "src640": "https://cdn.pixabay.com/photo/2023/09/24/15/10/woman-8273078_640.jpg",
        "src1280": "https://cdn.pixabay.com/photo/2023/09/24/15/10/woman-8273078_1280.jpg"
    },
    {
        "id": "2365708",
        "src640": "https://cdn.pixabay.com/photo/2017/06/02/08/46/girl-2365708_640.jpg",
        "src1280": "https://cdn.pixabay.com/photo/2017/06/02/08/46/girl-2365708_1280.jpg"
    },
    {
        "id": "3359226",
        "src640": "https://cdn.pixabay.com/photo/2018/04/29/07/41/woman-3359226_640.jpg",
        "src1280": "https://cdn.pixabay.com/photo/2018/04/29/07/41/woman-3359226_1280.jpg"
    },
    {
        "id": "6495627",
        "src640": "https://cdn.pixabay.com/photo/2021/07/27/01/50/ao-dai-6495627_640.jpg",
        "src1280": "https://cdn.pixabay.com/photo/2021/07/27/01/50/ao-dai-6495627_1280.jpg"
    },
    {
        "id": "8281256",
        "src640": "https://cdn.pixabay.com/photo/2023/09/28/11/10/forest-8281256_640.jpg",
        "src1280": "https://cdn.pixabay.com/photo/2023/09/28/11/10/forest-8281256_1280.jpg"
    },
    {
        "id": "7187694",
        "src640": "https://cdn.pixabay.com/photo/2022/05/10/17/49/girl-7187694_640.jpg",
        "src1280": "https://cdn.pixabay.com/photo/2022/05/10/17/49/girl-7187694_1280.jpg"
    },
    {
        "id": "7013279",
        "src640": "https://cdn.pixabay.com/photo/2022/02/14/15/00/woman-7013279_640.jpg",
        "src1280": "https://cdn.pixabay.com/photo/2022/02/14/15/00/woman-7013279_1280.jpg"
    },
    {
        "id": "2693424",
        "src640": "https://cdn.pixabay.com/photo/2017/08/29/14/01/woman-2693424_640.jpg",
        "src1280": "https://cdn.pixabay.com/photo/2017/08/29/14/01/woman-2693424_1280.jpg"
    },
    {
        "id": "4741571",
        "src640": "https://cdn.pixabay.com/photo/2020/01/04/20/12/portrait-4741571_640.jpg",
        "src1280": "https://cdn.pixabay.com/photo/2020/01/04/20/12/portrait-4741571_1280.jpg"
    },
    {
        "id": "7198075",
        "src640": "https://cdn.pixabay.com/photo/2022/05/15/13/38/woman-7198075_640.jpg",
        "src1280": "https://cdn.pixabay.com/photo/2022/05/15/13/38/woman-7198075_1280.jpg"
    },
    {
        "id": "7570917",
        "src640": "https://cdn.pixabay.com/photo/2022/11/05/01/09/ai-generated-7570917_640.jpg",
        "src1280": "https://cdn.pixabay.com/photo/2022/11/05/01/09/ai-generated-7570917_1280.jpg"
    },
    {
        "id": "6862064",
        "src640": "https://cdn.pixabay.com/photo/2021/12/11/07/05/woman-6862064_640.jpg",
        "src1280": "https://cdn.pixabay.com/photo/2021/12/11/07/05/woman-6862064_1280.jpg"
    },
    {
        "id": "6488971",
        "src640": "https://cdn.pixabay.com/photo/2021/07/24/08/43/woman-6488971_640.jpg",
        "src1280": "https://cdn.pixabay.com/photo/2021/07/24/08/43/woman-6488971_1280.jpg"
    },
    {
        "id": "5325020",
        "src640": "https://cdn.pixabay.com/photo/2020/06/21/14/08/girl-5325020_640.jpg",
        "src1280": "https://cdn.pixabay.com/photo/2020/06/21/14/08/girl-5325020_1280.jpg"
    },
    {
        "id": "2105170",
        "src640": "https://cdn.pixabay.com/photo/2017/02/28/08/37/girl-2105170_640.jpg",
        "src1280": "https://cdn.pixabay.com/photo/2017/02/28/08/37/girl-2105170_1280.jpg"
    },
    {
        "id": "7491913",
        "src640": "https://cdn.pixabay.com/photo/2022/10/01/17/03/woman-7491913_640.jpg",
        "src1280": "https://cdn.pixabay.com/photo/2022/10/01/17/03/woman-7491913_1280.jpg"
    },
    {
        "id": "3726459",
        "src640": "https://cdn.pixabay.com/photo/2018/10/05/17/54/woman-3726459_640.jpg",
        "src1280": "https://cdn.pixabay.com/photo/2018/10/05/17/54/woman-3726459_1280.jpg"
    },
    {
        "id": "7144462",
        "src640": "https://cdn.pixabay.com/photo/2022/04/20/06/27/young-woman-7144462_640.jpg",
        "src1280": "https://cdn.pixabay.com/photo/2022/04/20/06/27/young-woman-7144462_1280.jpg"
    },
    {
        "id": "3976639",
        "src640": "https://cdn.pixabay.com/photo/2019/02/05/10/44/woman-3976639_640.jpg",
        "src1280": "https://cdn.pixabay.com/photo/2019/02/05/10/44/woman-3976639_1280.jpg"
    },
    {
        "id": "6339975",
        "src640": "https://cdn.pixabay.com/photo/2021/06/16/02/12/girl-6339975_640.jpg",
        "src1280": "https://cdn.pixabay.com/photo/2021/06/16/02/12/girl-6339975_1280.jpg"
    },
    {
        "id": "6566748",
        "src640": "https://cdn.pixabay.com/photo/2021/08/23/05/42/woman-6566748_640.jpg",
        "src1280": "https://cdn.pixabay.com/photo/2021/08/23/05/42/woman-6566748_1280.jpg"
    },
    {
        "id": "6106020",
        "src640": "https://cdn.pixabay.com/photo/2021/03/18/22/32/fashion-6106020_640.jpg",
        "src1280": "https://cdn.pixabay.com/photo/2021/03/18/22/32/fashion-6106020_1280.jpg"
    },
    {
        "id": "6683393",
        "src640": "https://cdn.pixabay.com/photo/2021/10/05/18/13/woman-6683393_640.jpg",
        "src1280": "https://cdn.pixabay.com/photo/2021/10/05/18/13/woman-6683393_1280.jpg"
    },
    {
        "id": "8385062",
        "src640": "https://cdn.pixabay.com/photo/2023/11/13/10/47/ai-generated-8385062_640.jpg",
        "src1280": "https://cdn.pixabay.com/photo/2023/11/13/10/47/ai-generated-8385062_1280.jpg"
    },
    {
        "id": "1733354",
        "src640": "https://cdn.pixabay.com/photo/2016/10/12/02/58/girl-1733354_640.jpg",
        "src1280": "https://cdn.pixabay.com/photo/2016/10/12/02/58/girl-1733354_1280.jpg"
    },
    {
        "id": "5987399",
        "src640": "https://cdn.pixabay.com/photo/2021/02/06/08/57/woman-5987399_640.jpg",
        "src1280": "https://cdn.pixabay.com/photo/2021/02/06/08/57/woman-5987399_1280.jpg"
    },
    {
        "id": "7013281",
        "src640": "https://cdn.pixabay.com/photo/2022/02/14/15/01/woman-7013281_640.jpg",
        "src1280": "https://cdn.pixabay.com/photo/2022/02/14/15/01/woman-7013281_1280.jpg"
    },
    {
        "id": "7608394",
        "src640": "https://cdn.pixabay.com/photo/2022/11/21/22/50/portrait-7608394_640.jpg",
        "src1280": "https://cdn.pixabay.com/photo/2022/11/21/22/50/portrait-7608394_1280.jpg"
    },
    {
        "id": "4032767",
        "src640": "https://cdn.pixabay.com/photo/2019/03/03/20/17/woman-4032767_640.jpg",
        "src1280": "https://cdn.pixabay.com/photo/2019/03/03/20/17/woman-4032767_1280.jpg"
    },
    {
        "id": "3144068",
        "src640": "https://cdn.pixabay.com/photo/2018/02/10/17/15/beautiful-3144068_640.jpg",
        "src1280": "https://cdn.pixabay.com/photo/2018/02/10/17/15/beautiful-3144068_1280.jpg"
    },
    {
        "id": "6216038",
        "src640": "https://cdn.pixabay.com/photo/2021/04/29/08/10/little-black-dress-6216038_640.jpg",
        "src1280": "https://cdn.pixabay.com/photo/2021/04/29/08/10/little-black-dress-6216038_1280.jpg"
    },
    {
        "id": "1239391",
        "src640": "https://cdn.pixabay.com/photo/2016/03/05/22/54/animal-1239391_640.jpg",
        "src1280": "https://cdn.pixabay.com/photo/2016/03/05/22/54/animal-1239391_1280.jpg"
    },
    {
        "id": "7748386",
        "src640": "https://cdn.pixabay.com/photo/2023/01/27/10/53/anime-7748386_640.jpg",
        "src1280": "https://cdn.pixabay.com/photo/2023/01/27/10/53/anime-7748386_1280.jpg"
    },
    {
        "id": "4669956",
        "src640": "https://cdn.pixabay.com/photo/2019/12/03/12/35/portrait-4669956_640.jpg",
        "src1280": "https://cdn.pixabay.com/photo/2019/12/03/12/35/portrait-4669956_1280.jpg"
    },
    {
        "id": "6585406",
        "src640": "https://cdn.pixabay.com/photo/2021/08/30/09/49/woman-6585406_640.jpg",
        "src1280": "https://cdn.pixabay.com/photo/2021/08/30/09/49/woman-6585406_1280.jpg"
    },
    {
        "id": "2308903",
        "src640": "https://cdn.pixabay.com/photo/2017/05/13/07/30/milk-2308903_640.jpg",
        "src1280": "https://cdn.pixabay.com/photo/2017/05/13/07/30/milk-2308903_1280.jpg"
    },
    {
        "id": "7762499",
        "src640": "https://cdn.pixabay.com/photo/2023/02/02/10/25/little-girl-7762499_640.jpg",
        "src1280": "https://cdn.pixabay.com/photo/2023/02/02/10/25/little-girl-7762499_1280.jpg"
    },
    {
        "id": "5144992",
        "src640": "https://cdn.pixabay.com/photo/2020/05/08/10/04/woman-5144992_640.jpg",
        "src1280": "https://cdn.pixabay.com/photo/2020/05/08/10/04/woman-5144992_1280.jpg"
    },
    {
        "id": "5840443",
        "src640": "https://cdn.pixabay.com/photo/2020/12/17/20/06/woman-5840443_640.jpg",
        "src1280": "https://cdn.pixabay.com/photo/2020/12/17/20/06/woman-5840443_1280.jpg"
    },
    {
        "id": "6882635",
        "src640": "https://cdn.pixabay.com/photo/2021/12/20/09/44/adult-6882635_640.jpg",
        "src1280": "https://cdn.pixabay.com/photo/2021/12/20/09/44/adult-6882635_1280.jpg"
    },
    {
        "id": "4361001",
        "src640": "https://cdn.pixabay.com/photo/2019/07/24/19/20/girl-4361001_640.jpg",
        "src1280": "https://cdn.pixabay.com/photo/2019/07/24/19/20/girl-4361001_1280.jpg"
    },
    {
        "id": "5312737",
        "src640": "https://cdn.pixabay.com/photo/2020/06/18/09/41/fashion-5312737_640.jpg",
        "src1280": "https://cdn.pixabay.com/photo/2020/06/18/09/41/fashion-5312737_1280.jpg"
    },
    {
        "id": "7198090",
        "src640": "https://cdn.pixabay.com/photo/2022/05/15/13/39/woman-7198090_640.jpg",
        "src1280": "https://cdn.pixabay.com/photo/2022/05/15/13/39/woman-7198090_1280.jpg"
    },
    {
        "id": "4808902",
        "src640": "https://cdn.pixabay.com/photo/2020/01/31/20/31/portrait-4808902_640.jpg",
        "src1280": "https://cdn.pixabay.com/photo/2020/01/31/20/31/portrait-4808902_1280.jpg"
    },
    {
        "id": "7032714",
        "src640": "https://cdn.pixabay.com/photo/2022/02/24/16/04/woman-7032714_640.jpg",
        "src1280": "https://cdn.pixabay.com/photo/2022/02/24/16/04/woman-7032714_1280.jpg"
    },
    {
        "id": "4426118",
        "src640": "https://cdn.pixabay.com/photo/2019/08/23/17/31/girl-4426118_640.jpg",
        "src1280": "https://cdn.pixabay.com/photo/2019/08/23/17/31/girl-4426118_1280.jpg"
    },
    {
        "id": "7871541",
        "src640": "https://cdn.pixabay.com/photo/2023/03/23/09/31/girl-7871541_640.jpg",
        "src1280": "https://cdn.pixabay.com/photo/2023/03/23/09/31/girl-7871541_1280.jpg"
    },
    {
        "id": "3727130",
        "src640": "https://cdn.pixabay.com/photo/2018/10/05/23/51/emotion-3727130_640.jpg",
        "src1280": "https://cdn.pixabay.com/photo/2018/10/05/23/51/emotion-3727130_1280.jpg"
    },
    {
        "id": "6399369",
        "src640": "https://cdn.pixabay.com/photo/2021/07/09/15/29/girl-6399369_640.jpg",
        "src1280": "https://cdn.pixabay.com/photo/2021/07/09/15/29/girl-6399369_1280.jpg"
    },
    {
        "id": "3514041",
        "src640": "https://cdn.pixabay.com/photo/2018/07/03/15/09/girl-3514041_640.jpg",
        "src1280": "https://cdn.pixabay.com/photo/2018/07/03/15/09/girl-3514041_1280.jpg"
    },
    {
        "id": "3042401",
        "src640": "https://cdn.pixabay.com/photo/2017/12/27/10/52/woman-3042401_640.jpg",
        "src1280": "https://cdn.pixabay.com/photo/2017/12/27/10/52/woman-3042401_1280.jpg"
    },
    {
        "id": "3215696",
        "src640": "https://cdn.pixabay.com/photo/2018/03/11/00/10/girl-3215696_640.jpg",
        "src1280": "https://cdn.pixabay.com/photo/2018/03/11/00/10/girl-3215696_1280.jpg"
    },
    {
        "id": "2426340",
        "src640": "https://cdn.pixabay.com/photo/2017/06/21/07/37/muslim-dressing-2426340_640.jpg",
        "src1280": "https://cdn.pixabay.com/photo/2017/06/21/07/37/muslim-dressing-2426340_1280.jpg"
    }
]