[
    {
        "id": "4878704",
        "src640": "https://cdn.pixabay.com/photo/2020/02/25/11/48/portrait-4878704_640.jpg",
        "src1280": "https://cdn.pixabay.com/photo/2020/02/25/11/48/portrait-4878704_1280.jpg"
    },
    {
        "id": "3014606",
        "src640": "https://cdn.pixabay.com/photo/2017/12/12/12/30/girl-3014606_640.jpg",
        "src1280": "https://cdn.pixabay.com/photo/2017/12/12/12/30/girl-3014606_1280.jpg"
    },
    {
        "id": "2603904",
        "src640": "https://cdn.pixabay.com/photo/2017/08/07/13/37/people-2603904_640.jpg",
        "src1280": "https://cdn.pixabay.com/photo/2017/08/07/13/37/people-2603904_1280.jpg"
    },
    {
        "id": "8424280",
        "src640": "https://cdn.pixabay.com/photo/2023/12/01/18/31/girl-8424280_640.jpg",
        "src1280": "https://cdn.pixabay.com/photo/2023/12/01/18/31/girl-8424280_1280.jpg"
    },
    {
        "id": "4849516",
        "src640": "https://cdn.pixabay.com/photo/2020/02/14/21/45/girl-4849516_640.jpg",
        "src1280": "https://cdn.pixabay.com/photo/2020/02/14/21/45/girl-4849516_1280.jpg"
    },
    {
        "id": "4927952",
        "src640": "https://cdn.pixabay.com/photo/2020/03/13/13/38/girl-4927952_640.jpg",
        "src1280": "https://cdn.pixabay.com/photo/2020/03/13/13/38/girl-4927952_1280.jpg"
    },
    {
        "id": "2359568",
        "src640": "https://cdn.pixabay.com/photo/2017/05/31/09/10/womens-2359568_640.jpg",
        "src1280": "https://cdn.pixabay.com/photo/2017/05/31/09/10/womens-2359568_1280.jpg"
    },
    {
        "id": "1354616",
        "src640": "https://cdn.pixabay.com/photo/2016/04/26/15/31/pin-up-girl-1354616_640.jpg",
        "src1280": "https://cdn.pixabay.com/photo/2016/04/26/15/31/pin-up-girl-1354616_1280.jpg"
    },
    {
        "id": "2339852",
        "src640": "https://cdn.pixabay.com/photo/2017/05/24/08/07/model-2339852_640.jpg",
        "src1280": "https://cdn.pixabay.com/photo/2017/05/24/08/07/model-2339852_1280.jpg"
    },
    {
        "id": "4375570",
        "src640": "https://cdn.pixabay.com/photo/2019/07/31/16/35/portrait-4375570_640.jpg",
        "src1280": "https://cdn.pixabay.com/photo/2019/07/31/16/35/portrait-4375570_1280.jpg"
    },
    {
        "id": "2322890",
        "src640": "https://cdn.pixabay.com/photo/2017/05/18/08/13/womens-2322890_640.jpg",
        "src1280": "https://cdn.pixabay.com/photo/2017/05/18/08/13/womens-2322890_1280.jpg"
    },
    {
        "id": "5277483",
        "src640": "https://cdn.pixabay.com/photo/2020/06/09/08/15/girl-5277483_640.jpg",
        "src1280": "https://cdn.pixabay.com/photo/2020/06/09/08/15/girl-5277483_1280.jpg"
    },
    {
        "id": "2405033",
        "src640": "https://cdn.pixabay.com/photo/2017/06/15/11/28/jeans-2405033_640.jpg",
        "src1280": "https://cdn.pixabay.com/photo/2017/06/15/11/28/jeans-2405033_1280.jpg"
    },
    {
        "id": "3023853",
        "src640": "https://cdn.pixabay.com/photo/2017/12/17/08/44/girl-3023853_640.jpg",
        "src1280": "https://cdn.pixabay.com/photo/2017/12/17/08/44/girl-3023853_1280.jpg"
    },
    {
        "id": "565137",
        "src640": "https://cdn.pixabay.com/photo/2014/12/12/07/38/girl-565137_640.jpg",
        "src1280": "https://cdn.pixabay.com/photo/2014/12/12/07/38/girl-565137_1280.jpg"
    },
    {
        "id": "2373495",
        "src640": "https://cdn.pixabay.com/photo/2017/06/05/09/31/model-2373495_640.jpg",
        "src1280": "https://cdn.pixabay.com/photo/2017/06/05/09/31/model-2373495_1280.jpg"
    },
    {
        "id": "1535859",
        "src640": "https://cdn.pixabay.com/photo/2016/07/22/21/40/girl-1535859_640.jpg",
        "src1280": "https://cdn.pixabay.com/photo/2016/07/22/21/40/girl-1535859_1280.jpg"
    },
    {
        "id": "1487823",
        "src640": "https://cdn.pixabay.com/photo/2016/06/29/21/14/girls-1487823_640.jpg",
        "src1280": "https://cdn.pixabay.com/photo/2016/06/29/21/14/girls-1487823_1280.jpg"
    },
    {
        "id": "2354920",
        "src640": "https://cdn.pixabay.com/photo/2017/05/29/21/01/womens-2354920_640.jpg",
        "src1280": "https://cdn.pixabay.com/photo/2017/05/29/21/01/womens-2354920_1280.jpg"
    },
    {
        "id": "5955208",
        "src640": "https://cdn.pixabay.com/photo/2021/01/27/15/16/woman-5955208_640.jpg",
        "src1280": "https://cdn.pixabay.com/photo/2021/01/27/15/16/woman-5955208_1280.jpg"
    },
    {
        "id": "4017641",
        "src640": "https://cdn.pixabay.com/photo/2019/02/24/14/16/woman-4017641_640.jpg",
        "src1280": "https://cdn.pixabay.com/photo/2019/02/24/14/16/woman-4017641_1280.jpg"
    },
    {
        "id": "2971222",
        "src640": "https://cdn.pixabay.com/photo/2017/11/22/19/01/portrait-2971222_640.jpg",
        "src1280": "https://cdn.pixabay.com/photo/2017/11/22/19/01/portrait-2971222_1280.jpg"
    },
    {
        "id": "4364166",
        "src640": "https://cdn.pixabay.com/photo/2019/07/26/08/02/portrait-4364166_640.jpg",
        "src1280": "https://cdn.pixabay.com/photo/2019/07/26/08/02/portrait-4364166_1280.jpg"
    },
    {
        "id": "2319194",
        "src640": "https://cdn.pixabay.com/photo/2017/05/16/22/05/model-2319194_640.jpg",
        "src1280": "https://cdn.pixabay.com/photo/2017/05/16/22/05/model-2319194_1280.jpg"
    },
    {
        "id": "2418410",
        "src640": "https://cdn.pixabay.com/photo/2017/06/19/07/40/water-2418410_640.jpg",
        "src1280": "https://cdn.pixabay.com/photo/2017/06/19/07/40/water-2418410_1280.jpg"
    },
    {
        "id": "1959125",
        "src640": "https://cdn.pixabay.com/photo/2017/01/06/22/34/portrait-1959125_640.jpg",
        "src1280": "https://cdn.pixabay.com/photo/2017/01/06/22/34/portrait-1959125_1280.jpg"
    },
    {
        "id": "4155870",
        "src640": "https://cdn.pixabay.com/photo/2019/04/25/20/40/fantasy-4155870_640.jpg",
        "src1280": "https://cdn.pixabay.com/photo/2019/04/25/20/40/fantasy-4155870_1280.jpg"
    },
    {
        "id": "2931342",
        "src640": "https://cdn.pixabay.com/photo/2017/11/08/18/53/new-years-eve-2931342_640.jpg",
        "src1280": "https://cdn.pixabay.com/photo/2017/11/08/18/53/new-years-eve-2931342_1280.jpg"
    },
    {
        "id": "410346",
        "src640": "https://cdn.pixabay.com/photo/2014/08/05/11/29/woman-410346_640.jpg",
        "src1280": "https://cdn.pixabay.com/photo/2014/08/05/11/29/woman-410346_1280.jpg"
    },
    {
        "id": "4990144",
        "src640": "https://cdn.pixabay.com/photo/2020/04/01/06/49/girl-4990144_640.jpg",
        "src1280": "https://cdn.pixabay.com/photo/2020/04/01/06/49/girl-4990144_1280.jpg"
    },
    {
        "id": "8432428",
        "src640": "https://cdn.pixabay.com/photo/2023/12/05/20/44/ai-generated-8432428_640.jpg",
        "src1280": "https://cdn.pixabay.com/photo/2023/12/05/20/44/ai-generated-8432428_1280.jpg"
    },
    {
        "id": "5922233",
        "src640": "https://cdn.pixabay.com/photo/2021/01/16/13/46/woman-5922233_640.jpg",
        "src1280": "https://cdn.pixabay.com/photo/2021/01/16/13/46/woman-5922233_1280.jpg"
    },
    {
        "id": "2350562",
        "src640": "https://cdn.pixabay.com/photo/2017/05/28/09/43/model-2350562_640.jpg",
        "src1280": "https://cdn.pixabay.com/photo/2017/05/28/09/43/model-2350562_1280.jpg"
    },
    {
        "id": "1266288",
        "src640": "https://cdn.pixabay.com/photo/2016/03/19/06/55/girl-1266288_640.jpg",
        "src1280": "https://cdn.pixabay.com/photo/2016/03/19/06/55/girl-1266288_1280.jpg"
    },
    {
        "id": "2554430",
        "src640": "https://cdn.pixabay.com/photo/2017/07/30/14/03/portrait-2554430_640.jpg",
        "src1280": "https://cdn.pixabay.com/photo/2017/07/30/14/03/portrait-2554430_1280.jpg"
    },
    {
        "id": "1120459",
        "src640": "https://cdn.pixabay.com/photo/2016/01/04/08/39/smoke-1120459_640.jpg",
        "src1280": "https://cdn.pixabay.com/photo/2016/01/04/08/39/smoke-1120459_1280.jpg"
    },
    {
        "id": "2380572",
        "src640": "https://cdn.pixabay.com/photo/2017/06/07/14/54/bw-2380572_640.jpg",
        "src1280": "https://cdn.pixabay.com/photo/2017/06/07/14/54/bw-2380572_1280.jpg"
    },
    {
        "id": "1732101",
        "src640": "https://cdn.pixabay.com/photo/2016/10/11/16/55/girl-1732101_640.jpg",
        "src1280": "https://cdn.pixabay.com/photo/2016/10/11/16/55/girl-1732101_1280.jpg"
    },
    {
        "id": "2598485",
        "src640": "https://cdn.pixabay.com/photo/2017/08/07/01/37/people-2598485_640.jpg",
        "src1280": "https://cdn.pixabay.com/photo/2017/08/07/01/37/people-2598485_1280.jpg"
    },
    {
        "id": "4719899",
        "src640": "https://cdn.pixabay.com/photo/2019/12/26/08/22/girl-4719899_640.jpg",
        "src1280": "https://cdn.pixabay.com/photo/2019/12/26/08/22/girl-4719899_1280.jpg"
    },
    {
        "id": "4548290",
        "src640": "https://cdn.pixabay.com/photo/2019/10/14/09/06/portrait-4548290_640.jpg",
        "src1280": "https://cdn.pixabay.com/photo/2019/10/14/09/06/portrait-4548290_1280.jpg"
    },
    {
        "id": "2586825",
        "src640": "https://cdn.pixabay.com/photo/2017/08/05/23/52/fashion-2586825_640.jpg",
        "src1280": "https://cdn.pixabay.com/photo/2017/08/05/23/52/fashion-2586825_1280.jpg"
    },
    {
        "id": "4436027",
        "src640": "https://cdn.pixabay.com/photo/2019/08/28/07/47/portrait-4436027_640.jpg",
        "src1280": "https://cdn.pixabay.com/photo/2019/08/28/07/47/portrait-4436027_1280.jpg"
    },
    {
        "id": "5831511",
        "src640": "https://cdn.pixabay.com/photo/2020/12/14/16/55/girl-5831511_640.jpg",
        "src1280": "https://cdn.pixabay.com/photo/2020/12/14/16/55/girl-5831511_1280.jpg"
    },
    {
        "id": "3027506",
        "src640": "https://cdn.pixabay.com/photo/2017/12/19/07/31/girl-3027506_640.jpg",
        "src1280": "https://cdn.pixabay.com/photo/2017/12/19/07/31/girl-3027506_1280.jpg"
    },
    {
        "id": "1498350",
        "src640": "https://cdn.pixabay.com/photo/2016/07/05/09/31/portrait-1498350_640.jpg",
        "src1280": "https://cdn.pixabay.com/photo/2016/07/05/09/31/portrait-1498350_1280.jpg"
    },
    {
        "id": "4723483",
        "src640": "https://cdn.pixabay.com/photo/2019/12/27/21/39/woman-4723483_640.jpg",
        "src1280": "https://cdn.pixabay.com/photo/2019/12/27/21/39/woman-4723483_1280.jpg"
    },
    {
        "id": "3625326",
        "src640": "https://cdn.pixabay.com/photo/2018/08/23/06/31/beauty-3625326_640.jpg",
        "src1280": "https://cdn.pixabay.com/photo/2018/08/23/06/31/beauty-3625326_1280.jpg"
    },
    {
        "id": "2346279",
        "src640": "https://cdn.pixabay.com/photo/2017/05/26/15/20/model-2346279_640.jpg",
        "src1280": "https://cdn.pixabay.com/photo/2017/05/26/15/20/model-2346279_1280.jpg"
    }
]