[
    {
        "id": "2932",
        "src640": "https://cdn.pixabay.com/photo/2010/12/13/10/34/star-2932_640.jpg",
        "src1280": "https://cdn.pixabay.com/photo/2010/12/13/10/34/star-2932_1280.jpg"
    },
    {
        "id": "425626",
        "src640": "https://cdn.pixabay.com/photo/2014/08/23/18/11/apple-425626_640.jpg",
        "src1280": "https://cdn.pixabay.com/photo/2014/08/23/18/11/apple-425626_1280.jpg"
    },
    {
        "id": "69484",
        "src640": "https://cdn.pixabay.com/photo/2012/12/11/21/28/chocolate-buttons-69484_640.jpg",
        "src1280": "https://cdn.pixabay.com/photo/2012/12/11/21/28/chocolate-buttons-69484_1280.jpg"
    },
    {
        "id": "928199",
        "src640": "https://cdn.pixabay.com/photo/2015/09/07/06/37/miso-soup-928199_640.jpg",
        "src1280": "https://cdn.pixabay.com/photo/2015/09/07/06/37/miso-soup-928199_1280.jpg"
    },
    {
        "id": "72295",
        "src640": "https://cdn.pixabay.com/photo/2012/12/24/08/40/autumn-72295_640.jpg",
        "src1280": "https://cdn.pixabay.com/photo/2012/12/24/08/40/autumn-72295_1280.jpg"
    },
    {
        "id": "1838320",
        "src640": "https://cdn.pixabay.com/photo/2016/11/19/09/43/bowl-1838320_640.jpg",
        "src1280": "https://cdn.pixabay.com/photo/2016/11/19/09/43/bowl-1838320_1280.jpg"
    },
    {
        "id": "15477",
        "src640": "https://cdn.pixabay.com/photo/2012/02/22/19/35/christmas-15477_640.jpg",
        "src1280": "https://cdn.pixabay.com/photo/2012/02/22/19/35/christmas-15477_1280.jpg"
    },
    {
        "id": "2387551",
        "src640": "https://cdn.pixabay.com/photo/2017/06/09/17/07/pomegranate-2387551_640.jpg",
        "src1280": "https://cdn.pixabay.com/photo/2017/06/09/17/07/pomegranate-2387551_1280.jpg"
    },
    {
        "id": "1578686",
        "src640": "https://cdn.pixabay.com/photo/2016/08/08/16/19/cheesecake-1578686_640.jpg",
        "src1280": "https://cdn.pixabay.com/photo/2016/08/08/16/19/cheesecake-1578686_1280.jpg"
    },
    {
        "id": "1754724",
        "src640": "https://cdn.pixabay.com/photo/2016/10/20/06/00/still-life-1754724_640.jpg",
        "src1280": "https://cdn.pixabay.com/photo/2016/10/20/06/00/still-life-1754724_1280.jpg"
    },
    {
        "id": "5259456",
        "src640": "https://cdn.pixabay.com/photo/2020/06/04/16/24/wheat-5259456_640.jpg",
        "src1280": "https://cdn.pixabay.com/photo/2020/06/04/16/24/wheat-5259456_1280.jpg"
    },
    {
        "id": "106838",
        "src640": "https://cdn.pixabay.com/photo/2013/04/24/12/56/cake-106838_640.jpg",
        "src1280": "https://cdn.pixabay.com/photo/2013/04/24/12/56/cake-106838_1280.jpg"
    },
    {
        "id": "985515",
        "src640": "https://cdn.pixabay.com/photo/2015/10/13/03/05/tree-985515_640.jpg",
        "src1280": "https://cdn.pixabay.com/photo/2015/10/13/03/05/tree-985515_1280.jpg"
    },
    {
        "id": "7059675",
        "src640": "https://cdn.pixabay.com/photo/2022/03/10/11/16/cake-7059675_640.jpg",
        "src1280": "https://cdn.pixabay.com/photo/2022/03/10/11/16/cake-7059675_1280.jpg"
    },
    {
        "id": "84530",
        "src640": "https://cdn.pixabay.com/photo/2013/02/21/19/06/food-84530_640.jpg",
        "src1280": "https://cdn.pixabay.com/photo/2013/02/21/19/06/food-84530_1280.jpg"
    },
    {
        "id": "2962769",
        "src640": "https://cdn.pixabay.com/photo/2017/11/19/13/24/spice-2962769_640.jpg",
        "src1280": "https://cdn.pixabay.com/photo/2017/11/19/13/24/spice-2962769_1280.jpg"
    },
    {
        "id": "2608611",
        "src640": "https://cdn.pixabay.com/photo/2017/08/07/22/30/carrots-2608611_640.jpg",
        "src1280": "https://cdn.pixabay.com/photo/2017/08/07/22/30/carrots-2608611_1280.jpg"
    },
    {
        "id": "1414426",
        "src640": "https://cdn.pixabay.com/photo/2016/05/25/10/43/ice-1414426_640.jpg",
        "src1280": "https://cdn.pixabay.com/photo/2016/05/25/10/43/ice-1414426_1280.jpg"
    },
    {
        "id": "2469303",
        "src640": "https://cdn.pixabay.com/photo/2017/07/03/22/53/eat-2469303_640.jpg",
        "src1280": "https://cdn.pixabay.com/photo/2017/07/03/22/53/eat-2469303_1280.jpg"
    },
    {
        "id": "3008315",
        "src640": "https://cdn.pixabay.com/photo/2017/12/09/17/56/diabetes-3008315_640.jpg",
        "src1280": "https://cdn.pixabay.com/photo/2017/12/09/17/56/diabetes-3008315_1280.jpg"
    },
    {
        "id": "2818729",
        "src640": "https://cdn.pixabay.com/photo/2017/10/05/09/00/cake-2818729_640.jpg",
        "src1280": "https://cdn.pixabay.com/photo/2017/10/05/09/00/cake-2818729_1280.jpg"
    },
    {
        "id": "656246",
        "src640": "https://cdn.pixabay.com/photo/2015/03/02/17/08/meises-656246_640.jpg",
        "src1280": "https://cdn.pixabay.com/photo/2015/03/02/17/08/meises-656246_1280.jpg"
    },
    {
        "id": "2424496",
        "src640": "https://cdn.pixabay.com/photo/2017/06/20/19/53/ganache-2424496_640.jpg",
        "src1280": "https://cdn.pixabay.com/photo/2017/06/20/19/53/ganache-2424496_1280.jpg"
    },
    {
        "id": "3150583",
        "src640": "https://cdn.pixabay.com/photo/2018/02/13/11/52/food-3150583_640.jpg",
        "src1280": "https://cdn.pixabay.com/photo/2018/02/13/11/52/food-3150583_1280.jpg"
    },
    {
        "id": "415586",
        "src640": "https://cdn.pixabay.com/photo/2014/08/11/14/25/meat-415586_640.jpg",
        "src1280": "https://cdn.pixabay.com/photo/2014/08/11/14/25/meat-415586_1280.jpg"
    },
    {
        "id": "2275693",
        "src640": "https://cdn.pixabay.com/photo/2017/05/01/14/47/cherries-2275693_640.jpg",
        "src1280": "https://cdn.pixabay.com/photo/2017/05/01/14/47/cherries-2275693_1280.jpg"
    },
    {
        "id": "1500484",
        "src640": "https://cdn.pixabay.com/photo/2016/07/06/13/25/rice-pudding-1500484_640.jpg",
        "src1280": "https://cdn.pixabay.com/photo/2016/07/06/13/25/rice-pudding-1500484_1280.jpg"
    },
    {
        "id": "885871",
        "src640": "https://cdn.pixabay.com/photo/2015/08/12/13/30/food-for-hungry-children-885871_640.jpg",
        "src1280": "https://cdn.pixabay.com/photo/2015/08/12/13/30/food-for-hungry-children-885871_1280.jpg"
    },
    {
        "id": "7392766",
        "src640": "https://cdn.pixabay.com/photo/2022/08/17/15/21/grapes-7392766_640.jpg",
        "src1280": "https://cdn.pixabay.com/photo/2022/08/17/15/21/grapes-7392766_1280.jpg"
    },
    {
        "id": "6217893",
        "src640": "https://cdn.pixabay.com/photo/2021/04/30/04/43/pumpkin-soup-6217893_640.jpg",
        "src1280": "https://cdn.pixabay.com/photo/2021/04/30/04/43/pumpkin-soup-6217893_1280.jpg"
    },
    {
        "id": "2586921",
        "src640": "https://cdn.pixabay.com/photo/2017/08/06/00/08/strawberry-2586921_640.jpg",
        "src1280": "https://cdn.pixabay.com/photo/2017/08/06/00/08/strawberry-2586921_1280.jpg"
    },
    {
        "id": "7713148",
        "src640": "https://cdn.pixabay.com/photo/2023/01/12/02/43/ai-generated-7713148_640.jpg",
        "src1280": "https://cdn.pixabay.com/photo/2023/01/12/02/43/ai-generated-7713148_1280.jpg"
    },
    {
        "id": "750841",
        "src640": "https://cdn.pixabay.com/photo/2015/05/03/07/03/lobster-750841_640.jpg",
        "src1280": "https://cdn.pixabay.com/photo/2015/05/03/07/03/lobster-750841_1280.jpg"
    },
    {
        "id": "8342924",
        "src640": "https://cdn.pixabay.com/photo/2023/10/26/15/16/squash-8342924_640.jpg",
        "src1280": "https://cdn.pixabay.com/photo/2023/10/26/15/16/squash-8342924_1280.jpg"
    },
    {
        "id": "861761",
        "src640": "https://cdn.pixabay.com/photo/2015/07/26/21/31/daisy-cake-861761_640.jpg",
        "src1280": "https://cdn.pixabay.com/photo/2015/07/26/21/31/daisy-cake-861761_1280.jpg"
    },
    {
        "id": "5801390",
        "src640": "https://cdn.pixabay.com/photo/2020/12/03/19/39/apple-5801390_640.jpg",
        "src1280": "https://cdn.pixabay.com/photo/2020/12/03/19/39/apple-5801390_1280.jpg"
    },
    {
        "id": "7952764",
        "src640": "https://cdn.pixabay.com/photo/2023/04/26/16/20/vegetables-7952764_640.jpg",
        "src1280": "https://cdn.pixabay.com/photo/2023/04/26/16/20/vegetables-7952764_1280.jpg"
    },
    {
        "id": "8178937",
        "src640": "https://cdn.pixabay.com/photo/2023/08/09/08/12/mushroom-8178937_640.jpg",
        "src1280": "https://cdn.pixabay.com/photo/2023/08/09/08/12/mushroom-8178937_1280.jpg"
    },
    {
        "id": "2273740",
        "src640": "https://cdn.pixabay.com/photo/2017/04/30/19/31/egg-2273740_640.jpg",
        "src1280": "https://cdn.pixabay.com/photo/2017/04/30/19/31/egg-2273740_1280.jpg"
    },
    {
        "id": "3863045",
        "src640": "https://cdn.pixabay.com/photo/2018/12/08/09/09/beer-3863045_640.jpg",
        "src1280": "https://cdn.pixabay.com/photo/2018/12/08/09/09/beer-3863045_1280.jpg"
    },
    {
        "id": "8370004",
        "src640": "https://cdn.pixabay.com/photo/2023/11/06/15/59/squirrel-8370004_640.jpg",
        "src1280": "https://cdn.pixabay.com/photo/2023/11/06/15/59/squirrel-8370004_1280.jpg"
    },
    {
        "id": "16840",
        "src640": "https://cdn.pixabay.com/photo/2012/02/25/18/45/appetizer-16840_640.jpg",
        "src1280": "https://cdn.pixabay.com/photo/2012/02/25/18/45/appetizer-16840_1280.jpg"
    },
    {
        "id": "702204",
        "src640": "https://cdn.pixabay.com/photo/2015/04/01/11/44/easter-702204_640.jpg",
        "src1280": "https://cdn.pixabay.com/photo/2015/04/01/11/44/easter-702204_1280.jpg"
    },
    {
        "id": "7658810",
        "src640": "https://cdn.pixabay.com/photo/2022/12/16/02/28/apples-7658810_640.jpg",
        "src1280": "https://cdn.pixabay.com/photo/2022/12/16/02/28/apples-7658810_1280.jpg"
    },
    {
        "id": "1845630",
        "src640": "https://cdn.pixabay.com/photo/2016/11/21/14/15/cold-1845630_640.jpg",
        "src1280": "https://cdn.pixabay.com/photo/2016/11/21/14/15/cold-1845630_1280.jpg"
    },
    {
        "id": "69747",
        "src640": "https://cdn.pixabay.com/photo/2012/12/13/11/48/slice-69747_640.jpg",
        "src1280": "https://cdn.pixabay.com/photo/2012/12/13/11/48/slice-69747_1280.jpg"
    },
    {
        "id": "7952767",
        "src640": "https://cdn.pixabay.com/photo/2023/04/26/16/20/chips-7952767_640.jpg",
        "src1280": "https://cdn.pixabay.com/photo/2023/04/26/16/20/chips-7952767_1280.jpg"
    },
    {
        "id": "6463745",
        "src640": "https://cdn.pixabay.com/photo/2021/07/13/14/58/watermelon-6463745_640.jpg",
        "src1280": "https://cdn.pixabay.com/photo/2021/07/13/14/58/watermelon-6463745_1280.jpg"
    },
    {
        "id": "8462308",
        "src640": "https://cdn.pixabay.com/photo/2023/12/21/18/12/lemons-8462308_640.jpg",
        "src1280": "https://cdn.pixabay.com/photo/2023/12/21/18/12/lemons-8462308_1280.jpg"
    },
    {
        "id": "7681890",
        "src640": "https://cdn.pixabay.com/photo/2022/12/27/22/38/grapes-7681890_640.jpg",
        "src1280": "https://cdn.pixabay.com/photo/2022/12/27/22/38/grapes-7681890_1280.jpg"
    },
    {
        "id": "926642",
        "src640": "https://cdn.pixabay.com/photo/2015/09/06/00/31/donuts-926642_640.jpg",
        "src1280": "https://cdn.pixabay.com/photo/2015/09/06/00/31/donuts-926642_1280.jpg"
    },
    {
        "id": "441287",
        "src640": "https://cdn.pixabay.com/photo/2014/09/10/23/43/corn-441287_640.jpg",
        "src1280": "https://cdn.pixabay.com/photo/2014/09/10/23/43/corn-441287_1280.jpg"
    },
    {
        "id": "5213431",
        "src640": "https://cdn.pixabay.com/photo/2020/05/24/09/54/girl-5213431_640.jpg",
        "src1280": "https://cdn.pixabay.com/photo/2020/05/24/09/54/girl-5213431_1280.jpg"
    },
    {
        "id": "2444788",
        "src640": "https://cdn.pixabay.com/photo/2017/06/26/19/04/apricots-2444788_640.jpg",
        "src1280": "https://cdn.pixabay.com/photo/2017/06/26/19/04/apricots-2444788_1280.jpg"
    },
    {
        "id": "4678934",
        "src640": "https://cdn.pixabay.com/photo/2019/12/07/09/08/still-life-4678934_640.jpg",
        "src1280": "https://cdn.pixabay.com/photo/2019/12/07/09/08/still-life-4678934_1280.jpg"
    },
    {
        "id": "8407489",
        "src640": "https://cdn.pixabay.com/photo/2023/11/23/09/21/pineapples-8407489_640.jpg",
        "src1280": "https://cdn.pixabay.com/photo/2023/11/23/09/21/pineapples-8407489_1280.jpg"
    },
    {
        "id": "1238478",
        "src640": "https://cdn.pixabay.com/photo/2016/03/05/19/42/beef-1238478_640.jpg",
        "src1280": "https://cdn.pixabay.com/photo/2016/03/05/19/42/beef-1238478_1280.jpg"
    },
    {
        "id": "7952746",
        "src640": "https://cdn.pixabay.com/photo/2023/04/26/16/19/potatoes-7952746_640.jpg",
        "src1280": "https://cdn.pixabay.com/photo/2023/04/26/16/19/potatoes-7952746_1280.jpg"
    }
]