[
    {
        "id": "8011734",
        "src640": "https://cdn.pixabay.com/photo/2023/05/23/02/14/ai-generated-8011734_640.jpg",
        "src1280": "https://cdn.pixabay.com/photo/2023/05/23/02/14/ai-generated-8011734_1280.jpg"
    },
    {
        "id": "1707722",
        "src640": "https://cdn.pixabay.com/photo/2016/10/01/15/04/snow-peas-1707722_640.jpg",
        "src1280": "https://cdn.pixabay.com/photo/2016/10/01/15/04/snow-peas-1707722_1280.jpg"
    },
    {
        "id": "2312490",
        "src640": "https://cdn.pixabay.com/photo/2017/05/14/16/47/alcohol-2312490_640.jpg",
        "src1280": "https://cdn.pixabay.com/photo/2017/05/14/16/47/alcohol-2312490_1280.jpg"
    },
    {
        "id": "5358121",
        "src640": "https://cdn.pixabay.com/photo/2020/07/01/01/42/tea-5358121_640.jpg",
        "src1280": "https://cdn.pixabay.com/photo/2020/07/01/01/42/tea-5358121_1280.jpg"
    },
    {
        "id": "3507848",
        "src640": "https://cdn.pixabay.com/photo/2018/06/30/15/36/sugar-peas-3507848_640.jpg",
        "src1280": "https://cdn.pixabay.com/photo/2018/06/30/15/36/sugar-peas-3507848_1280.jpg"
    },
    {
        "id": "3198837",
        "src640": "https://cdn.pixabay.com/photo/2018/03/04/18/38/acerola-3198837_640.jpg",
        "src1280": "https://cdn.pixabay.com/photo/2018/03/04/18/38/acerola-3198837_1280.jpg"
    },
    {
        "id": "2328350",
        "src640": "https://cdn.pixabay.com/photo/2017/05/20/08/14/honey-2328350_640.jpg",
        "src1280": "https://cdn.pixabay.com/photo/2017/05/20/08/14/honey-2328350_1280.jpg"
    },
    {
        "id": "1563564",
        "src640": "https://cdn.pixabay.com/photo/2016/08/02/14/47/lobster-1563564_640.jpg",
        "src1280": "https://cdn.pixabay.com/photo/2016/08/02/14/47/lobster-1563564_1280.jpg"
    },
    {
        "id": "1305326",
        "src640": "https://cdn.pixabay.com/photo/2016/04/03/19/25/blossom-1305326_640.jpg",
        "src1280": "https://cdn.pixabay.com/photo/2016/04/03/19/25/blossom-1305326_1280.jpg"
    },
    {
        "id": "943097",
        "src640": "https://cdn.pixabay.com/photo/2015/09/16/18/07/smoothie-943097_640.jpg",
        "src1280": "https://cdn.pixabay.com/photo/2015/09/16/18/07/smoothie-943097_1280.jpg"
    },
    {
        "id": "3065851",
        "src640": "https://cdn.pixabay.com/photo/2018/01/06/20/22/candle-3065851_640.jpg",
        "src1280": "https://cdn.pixabay.com/photo/2018/01/06/20/22/candle-3065851_1280.jpg"
    },
    {
        "id": "8081604",
        "src640": "https://cdn.pixabay.com/photo/2023/06/22/14/52/ai-generated-8081604_640.jpg",
        "src1280": "https://cdn.pixabay.com/photo/2023/06/22/14/52/ai-generated-8081604_1280.jpg"
    },
    {
        "id": "277056",
        "src640": "https://cdn.pixabay.com/photo/2014/02/28/18/05/trout-277056_640.jpg",
        "src1280": "https://cdn.pixabay.com/photo/2014/02/28/18/05/trout-277056_1280.jpg"
    },
    {
        "id": "3943708",
        "src640": "https://cdn.pixabay.com/photo/2019/01/20/12/44/peppers-3943708_640.jpg",
        "src1280": "https://cdn.pixabay.com/photo/2019/01/20/12/44/peppers-3943708_1280.jpg"
    },
    {
        "id": "3378142",
        "src640": "https://cdn.pixabay.com/photo/2018/05/06/08/56/food-3378142_640.jpg",
        "src1280": "https://cdn.pixabay.com/photo/2018/05/06/08/56/food-3378142_1280.jpg"
    },
    {
        "id": "543983",
        "src640": "https://cdn.pixabay.com/photo/2014/11/24/13/01/dried-plum-543983_640.jpg",
        "src1280": "https://cdn.pixabay.com/photo/2014/11/24/13/01/dried-plum-543983_1280.jpg"
    },
    {
        "id": "6949049",
        "src640": "https://cdn.pixabay.com/photo/2022/01/19/07/45/pumpkins-6949049_640.jpg",
        "src1280": "https://cdn.pixabay.com/photo/2022/01/19/07/45/pumpkins-6949049_1280.jpg"
    },
    {
        "id": "3312937",
        "src640": "https://cdn.pixabay.com/photo/2018/04/12/09/36/food-3312937_640.jpg",
        "src1280": "https://cdn.pixabay.com/photo/2018/04/12/09/36/food-3312937_1280.jpg"
    },
    {
        "id": "8265112",
        "src640": "https://cdn.pixabay.com/photo/2023/09/20/15/46/hamburger-8265112_640.jpg",
        "src1280": "https://cdn.pixabay.com/photo/2023/09/20/15/46/hamburger-8265112_1280.jpg"
    },
    {
        "id": "6531950",
        "src640": "https://cdn.pixabay.com/photo/2021/08/08/21/03/hamburger-6531950_640.jpg",
        "src1280": "https://cdn.pixabay.com/photo/2021/08/08/21/03/hamburger-6531950_1280.jpg"
    },
    {
        "id": "518012",
        "src640": "https://cdn.pixabay.com/photo/2014/11/05/15/30/berries-518012_640.jpg",
        "src1280": "https://cdn.pixabay.com/photo/2014/11/05/15/30/berries-518012_1280.jpg"
    },
    {
        "id": "7800332",
        "src640": "https://cdn.pixabay.com/photo/2023/02/19/14/36/ice-cream-7800332_640.jpg",
        "src1280": "https://cdn.pixabay.com/photo/2023/02/19/14/36/ice-cream-7800332_1280.jpg"
    },
    {
        "id": "6856259",
        "src640": "https://cdn.pixabay.com/photo/2021/12/08/16/46/dish-6856259_640.jpg",
        "src1280": "https://cdn.pixabay.com/photo/2021/12/08/16/46/dish-6856259_1280.jpg"
    },
    {
        "id": "74366",
        "src640": "https://cdn.pixabay.com/photo/2013/01/08/01/43/oregano-74366_640.jpg",
        "src1280": "https://cdn.pixabay.com/photo/2013/01/08/01/43/oregano-74366_1280.jpg"
    },
    {
        "id": "4574859",
        "src640": "https://cdn.pixabay.com/photo/2019/10/24/18/12/peppers-4574859_640.jpg",
        "src1280": "https://cdn.pixabay.com/photo/2019/10/24/18/12/peppers-4574859_1280.jpg"
    },
    {
        "id": "2298113",
        "src640": "https://cdn.pixabay.com/photo/2017/05/09/12/11/bread-2298113_640.jpg",
        "src1280": "https://cdn.pixabay.com/photo/2017/05/09/12/11/bread-2298113_1280.jpg"
    },
    {
        "id": "2962772",
        "src640": "https://cdn.pixabay.com/photo/2017/11/19/13/25/spice-2962772_640.jpg",
        "src1280": "https://cdn.pixabay.com/photo/2017/11/19/13/25/spice-2962772_1280.jpg"
    },
    {
        "id": "2302425",
        "src640": "https://cdn.pixabay.com/photo/2017/05/11/00/55/capers-2302425_640.jpg",
        "src1280": "https://cdn.pixabay.com/photo/2017/05/11/00/55/capers-2302425_1280.jpg"
    },
    {
        "id": "6244187",
        "src640": "https://cdn.pixabay.com/photo/2021/05/10/19/37/pastry-6244187_640.jpg",
        "src1280": "https://cdn.pixabay.com/photo/2021/05/10/19/37/pastry-6244187_1280.jpg"
    },
    {
        "id": "6016316",
        "src640": "https://cdn.pixabay.com/photo/2021/02/15/01/01/garlic-6016316_640.jpg",
        "src1280": "https://cdn.pixabay.com/photo/2021/02/15/01/01/garlic-6016316_1280.jpg"
    },
    {
        "id": "2289040",
        "src640": "https://cdn.pixabay.com/photo/2017/05/06/06/13/apple-2289040_640.jpg",
        "src1280": "https://cdn.pixabay.com/photo/2017/05/06/06/13/apple-2289040_1280.jpg"
    },
    {
        "id": "7951794",
        "src640": "https://cdn.pixabay.com/photo/2023/04/26/07/31/egg-plant-7951794_640.jpg",
        "src1280": "https://cdn.pixabay.com/photo/2023/04/26/07/31/egg-plant-7951794_1280.jpg"
    },
    {
        "id": "1394218",
        "src640": "https://cdn.pixabay.com/photo/2016/05/15/19/04/dough-1394218_640.jpg",
        "src1280": "https://cdn.pixabay.com/photo/2016/05/15/19/04/dough-1394218_1280.jpg"
    },
    {
        "id": "3930476",
        "src640": "https://cdn.pixabay.com/photo/2019/01/13/14/21/shrimp-3930476_640.jpg",
        "src1280": "https://cdn.pixabay.com/photo/2019/01/13/14/21/shrimp-3930476_1280.jpg"
    },
    {
        "id": "393778",
        "src640": "https://cdn.pixabay.com/photo/2014/07/15/10/23/strawberry-393778_640.jpg",
        "src1280": "https://cdn.pixabay.com/photo/2014/07/15/10/23/strawberry-393778_1280.jpg"
    },
    {
        "id": "2551272",
        "src640": "https://cdn.pixabay.com/photo/2017/07/29/11/47/pear-2551272_640.jpg",
        "src1280": "https://cdn.pixabay.com/photo/2017/07/29/11/47/pear-2551272_1280.jpg"
    },
    {
        "id": "714667",
        "src640": "https://cdn.pixabay.com/photo/2015/04/09/16/16/cafe-714667_640.jpg",
        "src1280": "https://cdn.pixabay.com/photo/2015/04/09/16/16/cafe-714667_1280.jpg"
    },
    {
        "id": "224029",
        "src640": "https://cdn.pixabay.com/photo/2013/12/06/01/26/food-224029_640.jpg",
        "src1280": "https://cdn.pixabay.com/photo/2013/12/06/01/26/food-224029_1280.jpg"
    },
    {
        "id": "68004",
        "src640": "https://cdn.pixabay.com/photo/2012/11/30/08/15/bird-68004_640.jpg",
        "src1280": "https://cdn.pixabay.com/photo/2012/11/30/08/15/bird-68004_1280.jpg"
    },
    {
        "id": "472258",
        "src640": "https://cdn.pixabay.com/photo/2014/10/03/22/06/purple-potatoes-472258_640.jpg",
        "src1280": "https://cdn.pixabay.com/photo/2014/10/03/22/06/purple-potatoes-472258_1280.jpg"
    },
    {
        "id": "1521164",
        "src640": "https://cdn.pixabay.com/photo/2016/07/16/08/28/arbol-1521164_640.jpg",
        "src1280": "https://cdn.pixabay.com/photo/2016/07/16/08/28/arbol-1521164_1280.jpg"
    },
    {
        "id": "536997",
        "src640": "https://cdn.pixabay.com/photo/2014/11/19/06/50/berries-536997_640.jpg",
        "src1280": "https://cdn.pixabay.com/photo/2014/11/19/06/50/berries-536997_1280.jpg"
    },
    {
        "id": "8192858",
        "src640": "https://cdn.pixabay.com/photo/2023/08/15/21/17/plums-8192858_640.jpg",
        "src1280": "https://cdn.pixabay.com/photo/2023/08/15/21/17/plums-8192858_1280.jpg"
    },
    {
        "id": "3827255",
        "src640": "https://cdn.pixabay.com/photo/2018/11/20/12/20/nature-3827255_640.jpg",
        "src1280": "https://cdn.pixabay.com/photo/2018/11/20/12/20/nature-3827255_1280.jpg"
    },
    {
        "id": "1619524",
        "src640": "https://cdn.pixabay.com/photo/2016/08/25/14/01/radish-1619524_640.jpg",
        "src1280": "https://cdn.pixabay.com/photo/2016/08/25/14/01/radish-1619524_1280.jpg"
    },
    {
        "id": "1568561",
        "src640": "https://cdn.pixabay.com/photo/2016/08/04/08/07/pasta-1568561_640.jpg",
        "src1280": "https://cdn.pixabay.com/photo/2016/08/04/08/07/pasta-1568561_1280.jpg"
    },
    {
        "id": "8377089",
        "src640": "https://cdn.pixabay.com/photo/2023/11/09/11/26/ai-generated-8377089_640.jpg",
        "src1280": "https://cdn.pixabay.com/photo/2023/11/09/11/26/ai-generated-8377089_1280.jpg"
    },
    {
        "id": "1680021",
        "src640": "https://cdn.pixabay.com/photo/2016/09/19/10/56/autumn-1680021_640.jpg",
        "src1280": "https://cdn.pixabay.com/photo/2016/09/19/10/56/autumn-1680021_1280.jpg"
    },
    {
        "id": "4806787",
        "src640": "https://cdn.pixabay.com/photo/2020/01/30/23/21/cafe-4806787_640.jpg",
        "src1280": "https://cdn.pixabay.com/photo/2020/01/30/23/21/cafe-4806787_1280.jpg"
    },
    {
        "id": "361165",
        "src640": "https://cdn.pixabay.com/photo/2014/06/03/12/34/bundeva-361165_640.jpg",
        "src1280": "https://cdn.pixabay.com/photo/2014/06/03/12/34/bundeva-361165_1280.jpg"
    },
    {
        "id": "3621383",
        "src640": "https://cdn.pixabay.com/photo/2018/08/21/14/38/fruit-3621383_640.jpg",
        "src1280": "https://cdn.pixabay.com/photo/2018/08/21/14/38/fruit-3621383_1280.jpg"
    },
    {
        "id": "1409814",
        "src640": "https://cdn.pixabay.com/photo/2016/05/23/07/11/jack-fruit-1409814_640.jpg",
        "src1280": "https://cdn.pixabay.com/photo/2016/05/23/07/11/jack-fruit-1409814_1280.jpg"
    },
    {
        "id": "2741204",
        "src640": "https://cdn.pixabay.com/photo/2017/09/12/04/12/squash-2741204_640.jpg",
        "src1280": "https://cdn.pixabay.com/photo/2017/09/12/04/12/squash-2741204_1280.jpg"
    },
    {
        "id": "1096863",
        "src640": "https://cdn.pixabay.com/photo/2015/12/17/03/16/chives-1096863_640.jpg",
        "src1280": "https://cdn.pixabay.com/photo/2015/12/17/03/16/chives-1096863_1280.jpg"
    },
    {
        "id": "1769840",
        "src640": "https://cdn.pixabay.com/photo/2016/10/25/19/47/chef-1769840_640.jpg",
        "src1280": "https://cdn.pixabay.com/photo/2016/10/25/19/47/chef-1769840_1280.jpg"
    },
    {
        "id": "1719484",
        "src640": "https://cdn.pixabay.com/photo/2016/10/06/17/10/onion-1719484_640.jpg",
        "src1280": "https://cdn.pixabay.com/photo/2016/10/06/17/10/onion-1719484_1280.jpg"
    },
    {
        "id": "86251",
        "src640": "https://cdn.pixabay.com/photo/2013/02/26/09/40/kohlrabi-86251_640.jpg",
        "src1280": "https://cdn.pixabay.com/photo/2013/02/26/09/40/kohlrabi-86251_1280.jpg"
    },
    {
        "id": "2874239",
        "src640": "https://cdn.pixabay.com/photo/2017/10/21/10/24/apple-tree-2874239_640.jpg",
        "src1280": "https://cdn.pixabay.com/photo/2017/10/21/10/24/apple-tree-2874239_1280.jpg"
    },
    {
        "id": "3680496",
        "src640": "https://cdn.pixabay.com/photo/2018/09/15/23/22/basil-3680496_640.jpg",
        "src1280": "https://cdn.pixabay.com/photo/2018/09/15/23/22/basil-3680496_1280.jpg"
    },
    {
        "id": "614230",
        "src640": "https://cdn.pixabay.com/photo/2015/01/27/20/51/fondue-614230_640.jpg",
        "src1280": "https://cdn.pixabay.com/photo/2015/01/27/20/51/fondue-614230_1280.jpg"
    },
    {
        "id": "6828451",
        "src640": "https://cdn.pixabay.com/photo/2021/11/27/16/25/fruit-6828451_640.jpg",
        "src1280": "https://cdn.pixabay.com/photo/2021/11/27/16/25/fruit-6828451_1280.jpg"
    },
    {
        "id": "2133111",
        "src640": "https://cdn.pixabay.com/photo/2017/03/10/15/34/cold-cuts-2133111_640.jpg",
        "src1280": "https://cdn.pixabay.com/photo/2017/03/10/15/34/cold-cuts-2133111_1280.jpg"
    },
    {
        "id": "71564",
        "src640": "https://cdn.pixabay.com/photo/2012/12/21/10/06/agriculture-71564_640.jpg",
        "src1280": "https://cdn.pixabay.com/photo/2012/12/21/10/06/agriculture-71564_1280.jpg"
    },
    {
        "id": "831117",
        "src640": "https://cdn.pixabay.com/photo/2015/07/04/09/57/shrimp-831117_640.jpg",
        "src1280": "https://cdn.pixabay.com/photo/2015/07/04/09/57/shrimp-831117_1280.jpg"
    },
    {
        "id": "573895",
        "src640": "https://cdn.pixabay.com/photo/2014/12/20/12/54/the-squirrel-573895_640.jpg",
        "src1280": "https://cdn.pixabay.com/photo/2014/12/20/12/54/the-squirrel-573895_1280.jpg"
    },
    {
        "id": "7060305",
        "src640": "https://cdn.pixabay.com/photo/2022/03/10/16/52/apple-7060305_640.jpg",
        "src1280": "https://cdn.pixabay.com/photo/2022/03/10/16/52/apple-7060305_1280.jpg"
    },
    {
        "id": "4351797",
        "src640": "https://cdn.pixabay.com/photo/2019/07/21/01/32/chile-en-nogada-4351797_640.jpg",
        "src1280": "https://cdn.pixabay.com/photo/2019/07/21/01/32/chile-en-nogada-4351797_1280.jpg"
    },
    {
        "id": "6296515",
        "src640": "https://cdn.pixabay.com/photo/2021/05/30/17/13/marshmallows-6296515_640.jpg",
        "src1280": "https://cdn.pixabay.com/photo/2021/05/30/17/13/marshmallows-6296515_1280.jpg"
    },
    {
        "id": "664778",
        "src640": "https://cdn.pixabay.com/photo/2015/03/08/21/50/fruits-664778_640.jpg",
        "src1280": "https://cdn.pixabay.com/photo/2015/03/08/21/50/fruits-664778_1280.jpg"
    },
    {
        "id": "642516",
        "src640": "https://cdn.pixabay.com/photo/2015/02/19/19/04/baking-642516_640.jpg",
        "src1280": "https://cdn.pixabay.com/photo/2015/02/19/19/04/baking-642516_1280.jpg"
    },
    {
        "id": "4418552",
        "src640": "https://cdn.pixabay.com/photo/2019/08/20/11/47/raspberry-4418552_640.jpg",
        "src1280": "https://cdn.pixabay.com/photo/2019/08/20/11/47/raspberry-4418552_1280.jpg"
    },
    {
        "id": "8030536",
        "src640": "https://cdn.pixabay.com/photo/2023/05/31/05/37/juice-8030536_640.jpg",
        "src1280": "https://cdn.pixabay.com/photo/2023/05/31/05/37/juice-8030536_1280.jpg"
    },
    {
        "id": "1635203",
        "src640": "https://cdn.pixabay.com/photo/2016/09/01/04/32/kimchi-stick-to-1635203_640.jpg",
        "src1280": "https://cdn.pixabay.com/photo/2016/09/01/04/32/kimchi-stick-to-1635203_1280.jpg"
    },
    {
        "id": "2257642",
        "src640": "https://cdn.pixabay.com/photo/2017/04/24/20/09/lemon-2257642_640.jpg",
        "src1280": "https://cdn.pixabay.com/photo/2017/04/24/20/09/lemon-2257642_1280.jpg"
    },
    {
        "id": "1214258",
        "src640": "https://cdn.pixabay.com/photo/2016/02/21/20/47/waffle-1214258_640.jpg",
        "src1280": "https://cdn.pixabay.com/photo/2016/02/21/20/47/waffle-1214258_1280.jpg"
    },
    {
        "id": "2082654",
        "src640": "https://cdn.pixabay.com/photo/2017/02/20/14/20/orange-2082654_640.jpg",
        "src1280": "https://cdn.pixabay.com/photo/2017/02/20/14/20/orange-2082654_1280.jpg"
    },
    {
        "id": "7711888",
        "src640": "https://cdn.pixabay.com/photo/2023/01/11/14/58/animal-7711888_640.jpg",
        "src1280": "https://cdn.pixabay.com/photo/2023/01/11/14/58/animal-7711888_1280.jpg"
    },
    {
        "id": "5180827",
        "src640": "https://cdn.pixabay.com/photo/2020/05/17/09/56/markets-5180827_640.jpg",
        "src1280": "https://cdn.pixabay.com/photo/2020/05/17/09/56/markets-5180827_1280.jpg"
    },
    {
        "id": "448555",
        "src640": "https://cdn.pixabay.com/photo/2014/09/16/17/54/egg-448555_640.jpg",
        "src1280": "https://cdn.pixabay.com/photo/2014/09/16/17/54/egg-448555_1280.jpg"
    },
    {
        "id": "6172156",
        "src640": "https://cdn.pixabay.com/photo/2021/04/12/10/36/food-6172156_640.jpg",
        "src1280": "https://cdn.pixabay.com/photo/2021/04/12/10/36/food-6172156_1280.jpg"
    },
    {
        "id": "234943",
        "src640": "https://cdn.pixabay.com/photo/2013/12/29/00/21/caligo-eurilochus-234943_640.jpg",
        "src1280": "https://cdn.pixabay.com/photo/2013/12/29/00/21/caligo-eurilochus-234943_1280.jpg"
    },
    {
        "id": "5326404",
        "src640": "https://cdn.pixabay.com/photo/2020/06/21/19/29/sandwich-5326404_640.jpg",
        "src1280": "https://cdn.pixabay.com/photo/2020/06/21/19/29/sandwich-5326404_1280.jpg"
    },
    {
        "id": "6686133",
        "src640": "https://cdn.pixabay.com/photo/2021/10/06/15/59/grapes-6686133_640.jpg",
        "src1280": "https://cdn.pixabay.com/photo/2021/10/06/15/59/grapes-6686133_1280.jpg"
    },
    {
        "id": "7280410",
        "src640": "https://cdn.pixabay.com/photo/2022/06/23/18/42/cherries-7280410_640.jpg",
        "src1280": "https://cdn.pixabay.com/photo/2022/06/23/18/42/cherries-7280410_1280.jpg"
    },
    {
        "id": "7947262",
        "src640": "https://cdn.pixabay.com/photo/2023/04/24/05/32/pancakes-7947262_640.jpg",
        "src1280": "https://cdn.pixabay.com/photo/2023/04/24/05/32/pancakes-7947262_1280.jpg"
    },
    {
        "id": "7526527",
        "src640": "https://cdn.pixabay.com/photo/2022/10/17/02/48/red-currant-7526527_640.jpg",
        "src1280": "https://cdn.pixabay.com/photo/2022/10/17/02/48/red-currant-7526527_1280.jpg"
    },
    {
        "id": "8015687",
        "src640": "https://cdn.pixabay.com/photo/2023/05/24/19/57/burgers-8015687_640.jpg",
        "src1280": "https://cdn.pixabay.com/photo/2023/05/24/19/57/burgers-8015687_1280.jpg"
    },
    {
        "id": "7142256",
        "src640": "https://cdn.pixabay.com/photo/2022/04/19/08/52/drink-7142256_640.jpg",
        "src1280": "https://cdn.pixabay.com/photo/2022/04/19/08/52/drink-7142256_1280.jpg"
    },
    {
        "id": "7191893",
        "src640": "https://cdn.pixabay.com/photo/2022/05/12/16/53/fruit-7191893_640.jpg",
        "src1280": "https://cdn.pixabay.com/photo/2022/05/12/16/53/fruit-7191893_1280.jpg"
    },
    {
        "id": "573228",
        "src640": "https://cdn.pixabay.com/photo/2014/12/19/14/43/banana-573228_640.jpg",
        "src1280": "https://cdn.pixabay.com/photo/2014/12/19/14/43/banana-573228_1280.jpg"
    },
    {
        "id": "6699385",
        "src640": "https://cdn.pixabay.com/photo/2021/10/11/04/10/oranges-6699385_640.jpg",
        "src1280": "https://cdn.pixabay.com/photo/2021/10/11/04/10/oranges-6699385_1280.jpg"
    }
]