[
    {
        "id": "7988675",
        "src640": "https://cdn.pixabay.com/photo/2023/05/12/14/45/pomegranates-7988675_640.jpg",
        "src1280": "https://cdn.pixabay.com/photo/2023/05/12/14/45/pomegranates-7988675_1280.jpg"
    },
    {
        "id": "3989045",
        "src640": "https://cdn.pixabay.com/photo/2019/02/11/08/54/grapes-3989045_640.jpg",
        "src1280": "https://cdn.pixabay.com/photo/2019/02/11/08/54/grapes-3989045_1280.jpg"
    },
    {
        "id": "3323731",
        "src640": "https://cdn.pixabay.com/photo/2018/04/16/06/13/jar-3323731_640.jpg",
        "src1280": "https://cdn.pixabay.com/photo/2018/04/16/06/13/jar-3323731_1280.jpg"
    },
    {
        "id": "8011735",
        "src640": "https://cdn.pixabay.com/photo/2023/05/23/02/14/ai-generated-8011735_640.jpg",
        "src1280": "https://cdn.pixabay.com/photo/2023/05/23/02/14/ai-generated-8011735_1280.jpg"
    },
    {
        "id": "3248278",
        "src640": "https://cdn.pixabay.com/photo/2018/03/21/21/23/coconut-3248278_640.jpg",
        "src1280": "https://cdn.pixabay.com/photo/2018/03/21/21/23/coconut-3248278_1280.jpg"
    },
    {
        "id": "6497176",
        "src640": "https://cdn.pixabay.com/photo/2021/07/27/15/16/culinary-6497176_640.jpg",
        "src1280": "https://cdn.pixabay.com/photo/2021/07/27/15/16/culinary-6497176_1280.jpg"
    },
    {
        "id": "2189341",
        "src640": "https://cdn.pixabay.com/photo/2017/03/30/18/39/raspberry-2189341_640.jpg",
        "src1280": "https://cdn.pixabay.com/photo/2017/03/30/18/39/raspberry-2189341_1280.jpg"
    },
    {
        "id": "214167",
        "src640": "https://cdn.pixabay.com/photo/2013/11/20/23/00/monkey-business-214167_640.jpg",
        "src1280": "https://cdn.pixabay.com/photo/2013/11/20/23/00/monkey-business-214167_1280.jpg"
    },
    {
        "id": "3295846",
        "src640": "https://cdn.pixabay.com/photo/2018/04/06/13/40/shallots-3295846_640.jpg",
        "src1280": "https://cdn.pixabay.com/photo/2018/04/06/13/40/shallots-3295846_1280.jpg"
    },
    {
        "id": "7872024",
        "src640": "https://cdn.pixabay.com/photo/2023/03/23/14/07/food-7872024_640.jpg",
        "src1280": "https://cdn.pixabay.com/photo/2023/03/23/14/07/food-7872024_1280.jpg"
    },
    {
        "id": "2958705",
        "src640": "https://cdn.pixabay.com/photo/2017/11/17/22/57/portugal-2958705_640.jpg",
        "src1280": "https://cdn.pixabay.com/photo/2017/11/17/22/57/portugal-2958705_1280.jpg"
    },
    {
        "id": "382296",
        "src640": "https://cdn.pixabay.com/photo/2014/07/02/17/17/pea-pod-382296_640.jpg",
        "src1280": "https://cdn.pixabay.com/photo/2014/07/02/17/17/pea-pod-382296_1280.jpg"
    },
    {
        "id": "2869729",
        "src640": "https://cdn.pixabay.com/photo/2017/10/20/00/06/appetizer-2869729_640.jpg",
        "src1280": "https://cdn.pixabay.com/photo/2017/10/20/00/06/appetizer-2869729_1280.jpg"
    },
    {
        "id": "1821782",
        "src640": "https://cdn.pixabay.com/photo/2016/11/13/19/25/fish-1821782_640.jpg",
        "src1280": "https://cdn.pixabay.com/photo/2016/11/13/19/25/fish-1821782_1280.jpg"
    },
    {
        "id": "88196",
        "src640": "https://cdn.pixabay.com/photo/2013/03/01/19/02/coated-88196_640.jpg",
        "src1280": "https://cdn.pixabay.com/photo/2013/03/01/19/02/coated-88196_1280.jpg"
    },
    {
        "id": "1496554",
        "src640": "https://cdn.pixabay.com/photo/2016/07/04/12/41/shrub-1496554_640.jpg",
        "src1280": "https://cdn.pixabay.com/photo/2016/07/04/12/41/shrub-1496554_1280.jpg"
    },
    {
        "id": "5410848",
        "src640": "https://cdn.pixabay.com/photo/2020/07/16/12/48/cherries-5410848_640.jpg",
        "src1280": "https://cdn.pixabay.com/photo/2020/07/16/12/48/cherries-5410848_1280.jpg"
    },
    {
        "id": "7923573",
        "src640": "https://cdn.pixabay.com/photo/2023/04/13/22/44/food-7923573_640.jpg",
        "src1280": "https://cdn.pixabay.com/photo/2023/04/13/22/44/food-7923573_1280.jpg"
    },
    {
        "id": "1238846",
        "src640": "https://cdn.pixabay.com/photo/2016/03/05/20/57/abstract-1238846_640.jpg",
        "src1280": "https://cdn.pixabay.com/photo/2016/03/05/20/57/abstract-1238846_1280.jpg"
    },
    {
        "id": "6901546",
        "src640": "https://cdn.pixabay.com/photo/2021/12/29/12/29/empanadas-6901546_640.jpg",
        "src1280": "https://cdn.pixabay.com/photo/2021/12/29/12/29/empanadas-6901546_1280.jpg"
    },
    {
        "id": "5931735",
        "src640": "https://cdn.pixabay.com/photo/2021/01/19/16/10/donut-5931735_640.jpg",
        "src1280": "https://cdn.pixabay.com/photo/2021/01/19/16/10/donut-5931735_1280.jpg"
    },
    {
        "id": "917373",
        "src640": "https://cdn.pixabay.com/photo/2015/09/01/18/19/cake-917373_640.jpg",
        "src1280": "https://cdn.pixabay.com/photo/2015/09/01/18/19/cake-917373_1280.jpg"
    },
    {
        "id": "6216667",
        "src640": "https://cdn.pixabay.com/photo/2021/04/29/13/53/gastronomy-6216667_640.jpg",
        "src1280": "https://cdn.pixabay.com/photo/2021/04/29/13/53/gastronomy-6216667_1280.jpg"
    },
    {
        "id": "4859267",
        "src640": "https://cdn.pixabay.com/photo/2020/02/18/11/49/salat-4859267_640.jpg",
        "src1280": "https://cdn.pixabay.com/photo/2020/02/18/11/49/salat-4859267_1280.jpg"
    },
    {
        "id": "3506921",
        "src640": "https://cdn.pixabay.com/photo/2018/06/30/00/39/dill-3506921_640.jpg",
        "src1280": "https://cdn.pixabay.com/photo/2018/06/30/00/39/dill-3506921_1280.jpg"
    },
    {
        "id": "8290821",
        "src640": "https://cdn.pixabay.com/photo/2023/10/03/08/27/ai-generated-8290821_640.jpg",
        "src1280": "https://cdn.pixabay.com/photo/2023/10/03/08/27/ai-generated-8290821_1280.jpg"
    },
    {
        "id": "4554507",
        "src640": "https://cdn.pixabay.com/photo/2019/10/16/13/33/salad-4554507_640.jpg",
        "src1280": "https://cdn.pixabay.com/photo/2019/10/16/13/33/salad-4554507_1280.jpg"
    },
    {
        "id": "3038556",
        "src640": "https://cdn.pixabay.com/photo/2017/12/25/15/07/bird-3038556_640.jpg",
        "src1280": "https://cdn.pixabay.com/photo/2017/12/25/15/07/bird-3038556_1280.jpg"
    },
    {
        "id": "1627748",
        "src640": "https://cdn.pixabay.com/photo/2016/08/29/09/38/mussels-1627748_640.jpg",
        "src1280": "https://cdn.pixabay.com/photo/2016/08/29/09/38/mussels-1627748_1280.jpg"
    },
    {
        "id": "669382",
        "src640": "https://cdn.pixabay.com/photo/2015/03/11/23/04/macaron-669382_640.jpg",
        "src1280": "https://cdn.pixabay.com/photo/2015/03/11/23/04/macaron-669382_1280.jpg"
    },
    {
        "id": "3775258",
        "src640": "https://cdn.pixabay.com/photo/2018/10/26/19/51/wine-3775258_640.jpg",
        "src1280": "https://cdn.pixabay.com/photo/2018/10/26/19/51/wine-3775258_1280.jpg"
    },
    {
        "id": "3617332",
        "src640": "https://cdn.pixabay.com/photo/2018/08/19/18/54/bread-3617332_640.jpg",
        "src1280": "https://cdn.pixabay.com/photo/2018/08/19/18/54/bread-3617332_1280.jpg"
    },
    {
        "id": "1764355",
        "src640": "https://cdn.pixabay.com/photo/2016/10/23/20/07/lettuce-1764355_640.jpg",
        "src1280": "https://cdn.pixabay.com/photo/2016/10/23/20/07/lettuce-1764355_1280.jpg"
    },
    {
        "id": "3522861",
        "src640": "https://cdn.pixabay.com/photo/2018/07/07/21/01/food-3522861_640.jpg",
        "src1280": "https://cdn.pixabay.com/photo/2018/07/07/21/01/food-3522861_1280.jpg"
    },
    {
        "id": "3771118",
        "src640": "https://cdn.pixabay.com/photo/2018/10/24/19/54/pomegranate-3771118_640.jpg",
        "src1280": "https://cdn.pixabay.com/photo/2018/10/24/19/54/pomegranate-3771118_1280.jpg"
    },
    {
        "id": "3164987",
        "src640": "https://cdn.pixabay.com/photo/2018/02/19/13/05/cream-3164987_640.jpg",
        "src1280": "https://cdn.pixabay.com/photo/2018/02/19/13/05/cream-3164987_1280.jpg"
    },
    {
        "id": "7253708",
        "src640": "https://cdn.pixabay.com/photo/2022/06/10/05/08/kebab-wrap-7253708_640.jpg",
        "src1280": "https://cdn.pixabay.com/photo/2022/06/10/05/08/kebab-wrap-7253708_1280.jpg"
    },
    {
        "id": "2676954",
        "src640": "https://cdn.pixabay.com/photo/2017/08/24/14/07/wine-2676954_640.jpg",
        "src1280": "https://cdn.pixabay.com/photo/2017/08/24/14/07/wine-2676954_1280.jpg"
    },
    {
        "id": "1496475",
        "src640": "https://cdn.pixabay.com/photo/2016/07/04/11/49/cucumber-1496475_640.jpg",
        "src1280": "https://cdn.pixabay.com/photo/2016/07/04/11/49/cucumber-1496475_1280.jpg"
    },
    {
        "id": "453847",
        "src640": "https://cdn.pixabay.com/photo/2014/09/20/14/35/cake-453847_640.jpg",
        "src1280": "https://cdn.pixabay.com/photo/2014/09/20/14/35/cake-453847_1280.jpg"
    },
    {
        "id": "1151557",
        "src640": "https://cdn.pixabay.com/photo/2016/01/20/13/27/vegetables-1151557_640.jpg",
        "src1280": "https://cdn.pixabay.com/photo/2016/01/20/13/27/vegetables-1151557_1280.jpg"
    },
    {
        "id": "74368",
        "src640": "https://cdn.pixabay.com/photo/2013/01/08/01/44/rosemary-74368_640.jpg",
        "src1280": "https://cdn.pixabay.com/photo/2013/01/08/01/44/rosemary-74368_1280.jpg"
    },
    {
        "id": "7615449",
        "src640": "https://cdn.pixabay.com/photo/2022/11/25/05/42/bbq-7615449_640.jpg",
        "src1280": "https://cdn.pixabay.com/photo/2022/11/25/05/42/bbq-7615449_1280.jpg"
    },
    {
        "id": "5591411",
        "src640": "https://cdn.pixabay.com/photo/2020/09/21/22/58/meal-5591411_640.jpg",
        "src1280": "https://cdn.pixabay.com/photo/2020/09/21/22/58/meal-5591411_1280.jpg"
    },
    {
        "id": "8129323",
        "src640": "https://cdn.pixabay.com/photo/2023/07/15/16/59/bananas-8129323_640.jpg",
        "src1280": "https://cdn.pixabay.com/photo/2023/07/15/16/59/bananas-8129323_1280.jpg"
    },
    {
        "id": "3511566",
        "src640": "https://cdn.pixabay.com/photo/2018/07/02/13/34/eat-3511566_640.jpg",
        "src1280": "https://cdn.pixabay.com/photo/2018/07/02/13/34/eat-3511566_1280.jpg"
    },
    {
        "id": "7600267",
        "src640": "https://cdn.pixabay.com/photo/2022/11/18/14/39/eggplant-7600267_640.jpg",
        "src1280": "https://cdn.pixabay.com/photo/2022/11/18/14/39/eggplant-7600267_1280.jpg"
    },
    {
        "id": "5613100",
        "src640": "https://cdn.pixabay.com/photo/2020/09/29/14/42/corn-5613100_640.jpg",
        "src1280": "https://cdn.pixabay.com/photo/2020/09/29/14/42/corn-5613100_1280.jpg"
    },
    {
        "id": "3531930",
        "src640": "https://cdn.pixabay.com/photo/2018/07/11/21/25/lychee-3531930_640.jpg",
        "src1280": "https://cdn.pixabay.com/photo/2018/07/11/21/25/lychee-3531930_1280.jpg"
    },
    {
        "id": "3772273",
        "src640": "https://cdn.pixabay.com/photo/2018/10/25/12/26/fish-3772273_640.jpg",
        "src1280": "https://cdn.pixabay.com/photo/2018/10/25/12/26/fish-3772273_1280.jpg"
    },
    {
        "id": "937315",
        "src640": "https://cdn.pixabay.com/photo/2015/09/12/20/47/decorated-white-cake-937315_640.jpg",
        "src1280": "https://cdn.pixabay.com/photo/2015/09/12/20/47/decorated-white-cake-937315_1280.jpg"
    },
    {
        "id": "71624",
        "src640": "https://cdn.pixabay.com/photo/2012/12/21/10/07/tomatoes-71624_640.jpg",
        "src1280": "https://cdn.pixabay.com/photo/2012/12/21/10/07/tomatoes-71624_1280.jpg"
    },
    {
        "id": "4426689",
        "src640": "https://cdn.pixabay.com/photo/2019/08/23/22/50/glass-bottle-4426689_640.jpg",
        "src1280": "https://cdn.pixabay.com/photo/2019/08/23/22/50/glass-bottle-4426689_1280.jpg"
    },
    {
        "id": "1370183",
        "src640": "https://cdn.pixabay.com/photo/2016/05/03/21/11/thistle-1370183_640.jpg",
        "src1280": "https://cdn.pixabay.com/photo/2016/05/03/21/11/thistle-1370183_1280.jpg"
    },
    {
        "id": "724045",
        "src640": "https://cdn.pixabay.com/photo/2015/04/15/16/01/peppers-724045_640.jpg",
        "src1280": "https://cdn.pixabay.com/photo/2015/04/15/16/01/peppers-724045_1280.jpg"
    },
    {
        "id": "6225914",
        "src640": "https://cdn.pixabay.com/photo/2021/05/03/10/50/fruit-tray-6225914_640.jpg",
        "src1280": "https://cdn.pixabay.com/photo/2021/05/03/10/50/fruit-tray-6225914_1280.jpg"
    },
    {
        "id": "1234583",
        "src640": "https://cdn.pixabay.com/photo/2016/03/03/16/55/tomatoes-1234583_640.jpg",
        "src1280": "https://cdn.pixabay.com/photo/2016/03/03/16/55/tomatoes-1234583_1280.jpg"
    },
    {
        "id": "1318126",
        "src640": "https://cdn.pixabay.com/photo/2016/04/09/14/17/cheese-1318126_640.jpg",
        "src1280": "https://cdn.pixabay.com/photo/2016/04/09/14/17/cheese-1318126_1280.jpg"
    },
    {
        "id": "3930117",
        "src640": "https://cdn.pixabay.com/photo/2019/01/13/10/58/candy-3930117_640.jpg",
        "src1280": "https://cdn.pixabay.com/photo/2019/01/13/10/58/candy-3930117_1280.jpg"
    },
    {
        "id": "1426654",
        "src640": "https://cdn.pixabay.com/photo/2016/05/31/11/29/lemon-1426654_640.jpg",
        "src1280": "https://cdn.pixabay.com/photo/2016/05/31/11/29/lemon-1426654_1280.jpg"
    },
    {
        "id": "8048261",
        "src640": "https://cdn.pixabay.com/photo/2023/06/07/21/08/apricots-8048261_640.jpg",
        "src1280": "https://cdn.pixabay.com/photo/2023/06/07/21/08/apricots-8048261_1280.jpg"
    },
    {
        "id": "749425",
        "src640": "https://cdn.pixabay.com/photo/2015/05/02/02/16/woman-749425_640.jpg",
        "src1280": "https://cdn.pixabay.com/photo/2015/05/02/02/16/woman-749425_1280.jpg"
    },
    {
        "id": "4467331",
        "src640": "https://cdn.pixabay.com/photo/2019/09/10/20/47/fruit-4467331_640.jpg",
        "src1280": "https://cdn.pixabay.com/photo/2019/09/10/20/47/fruit-4467331_1280.jpg"
    },
    {
        "id": "7347557",
        "src640": "https://cdn.pixabay.com/photo/2022/07/27/10/09/grains-7347557_640.jpg",
        "src1280": "https://cdn.pixabay.com/photo/2022/07/27/10/09/grains-7347557_1280.jpg"
    },
    {
        "id": "1528238",
        "src640": "https://cdn.pixabay.com/photo/2016/07/19/14/20/food-1528238_640.jpg",
        "src1280": "https://cdn.pixabay.com/photo/2016/07/19/14/20/food-1528238_1280.jpg"
    },
    {
        "id": "1408154",
        "src640": "https://cdn.pixabay.com/photo/2016/05/22/10/05/corn-1408154_640.jpg",
        "src1280": "https://cdn.pixabay.com/photo/2016/05/22/10/05/corn-1408154_1280.jpg"
    },
    {
        "id": "2081115",
        "src640": "https://cdn.pixabay.com/photo/2017/02/19/22/41/dine-2081115_640.jpg",
        "src1280": "https://cdn.pixabay.com/photo/2017/02/19/22/41/dine-2081115_1280.jpg"
    },
    {
        "id": "2425488",
        "src640": "https://cdn.pixabay.com/photo/2017/06/21/00/16/pizza-2425488_640.jpg",
        "src1280": "https://cdn.pixabay.com/photo/2017/06/21/00/16/pizza-2425488_1280.jpg"
    },
    {
        "id": "4156981",
        "src640": "https://cdn.pixabay.com/photo/2019/04/26/08/07/apple-pie-4156981_640.jpg",
        "src1280": "https://cdn.pixabay.com/photo/2019/04/26/08/07/apple-pie-4156981_1280.jpg"
    },
    {
        "id": "1128376",
        "src640": "https://cdn.pixabay.com/photo/2016/01/08/15/30/fruits-1128376_640.jpg",
        "src1280": "https://cdn.pixabay.com/photo/2016/01/08/15/30/fruits-1128376_1280.jpg"
    },
    {
        "id": "816408",
        "src640": "https://cdn.pixabay.com/photo/2015/06/21/05/44/soup-816408_640.jpg",
        "src1280": "https://cdn.pixabay.com/photo/2015/06/21/05/44/soup-816408_1280.jpg"
    },
    {
        "id": "1128378",
        "src640": "https://cdn.pixabay.com/photo/2016/01/08/15/30/broccoli-1128378_640.jpg",
        "src1280": "https://cdn.pixabay.com/photo/2016/01/08/15/30/broccoli-1128378_1280.jpg"
    },
    {
        "id": "8087320",
        "src640": "https://cdn.pixabay.com/photo/2023/06/25/13/33/pancakes-8087320_640.jpg",
        "src1280": "https://cdn.pixabay.com/photo/2023/06/25/13/33/pancakes-8087320_1280.jpg"
    },
    {
        "id": "8087317",
        "src640": "https://cdn.pixabay.com/photo/2023/06/25/13/33/waffles-8087317_640.jpg",
        "src1280": "https://cdn.pixabay.com/photo/2023/06/25/13/33/waffles-8087317_1280.jpg"
    },
    {
        "id": "1177841",
        "src640": "https://cdn.pixabay.com/photo/2016/02/03/19/50/fish-1177841_640.jpg",
        "src1280": "https://cdn.pixabay.com/photo/2016/02/03/19/50/fish-1177841_1280.jpg"
    },
    {
        "id": "2303367",
        "src640": "https://cdn.pixabay.com/photo/2017/05/11/08/49/woman-2303367_640.jpg",
        "src1280": "https://cdn.pixabay.com/photo/2017/05/11/08/49/woman-2303367_1280.jpg"
    },
    {
        "id": "1629549",
        "src640": "https://cdn.pixabay.com/photo/2016/08/30/00/04/ham-1629549_640.jpg",
        "src1280": "https://cdn.pixabay.com/photo/2016/08/30/00/04/ham-1629549_1280.jpg"
    },
    {
        "id": "3319111",
        "src640": "https://cdn.pixabay.com/photo/2018/04/14/14/18/fruit-3319111_640.jpg",
        "src1280": "https://cdn.pixabay.com/photo/2018/04/14/14/18/fruit-3319111_1280.jpg"
    },
    {
        "id": "1354825",
        "src640": "https://cdn.pixabay.com/photo/2016/04/26/17/13/box-1354825_640.jpg",
        "src1280": "https://cdn.pixabay.com/photo/2016/04/26/17/13/box-1354825_1280.jpg"
    },
    {
        "id": "1568109",
        "src640": "https://cdn.pixabay.com/photo/2016/08/03/23/33/baking-1568109_640.jpg",
        "src1280": "https://cdn.pixabay.com/photo/2016/08/03/23/33/baking-1568109_1280.jpg"
    },
    {
        "id": "7426843",
        "src640": "https://cdn.pixabay.com/photo/2022/09/02/07/03/raspberries-7426843_640.jpg",
        "src1280": "https://cdn.pixabay.com/photo/2022/09/02/07/03/raspberries-7426843_1280.jpg"
    },
    {
        "id": "458889",
        "src640": "https://cdn.pixabay.com/photo/2014/09/24/09/36/cucumber-458889_640.jpg",
        "src1280": "https://cdn.pixabay.com/photo/2014/09/24/09/36/cucumber-458889_1280.jpg"
    },
    {
        "id": "3413955",
        "src640": "https://cdn.pixabay.com/photo/2018/05/19/18/06/cheese-3413955_640.jpg",
        "src1280": "https://cdn.pixabay.com/photo/2018/05/19/18/06/cheese-3413955_1280.jpg"
    },
    {
        "id": "2419158",
        "src640": "https://cdn.pixabay.com/photo/2017/06/19/12/31/currants-2419158_640.jpg",
        "src1280": "https://cdn.pixabay.com/photo/2017/06/19/12/31/currants-2419158_1280.jpg"
    },
    {
        "id": "1246355",
        "src640": "https://cdn.pixabay.com/photo/2016/03/09/12/32/fruit-1246355_640.jpg",
        "src1280": "https://cdn.pixabay.com/photo/2016/03/09/12/32/fruit-1246355_1280.jpg"
    },
    {
        "id": "208015",
        "src640": "https://cdn.pixabay.com/photo/2013/11/09/20/46/root-208015_640.jpg",
        "src1280": "https://cdn.pixabay.com/photo/2013/11/09/20/46/root-208015_1280.jpg"
    },
    {
        "id": "8119587",
        "src640": "https://cdn.pixabay.com/photo/2023/07/11/05/08/spaghetti-8119587_640.jpg",
        "src1280": "https://cdn.pixabay.com/photo/2023/07/11/05/08/spaghetti-8119587_1280.jpg"
    },
    {
        "id": "365290",
        "src640": "https://cdn.pixabay.com/photo/2014/06/09/06/46/zucchini-365290_640.jpg",
        "src1280": "https://cdn.pixabay.com/photo/2014/06/09/06/46/zucchini-365290_1280.jpg"
    },
    {
        "id": "4548798",
        "src640": "https://cdn.pixabay.com/photo/2019/10/14/12/44/food-4548798_640.jpg",
        "src1280": "https://cdn.pixabay.com/photo/2019/10/14/12/44/food-4548798_1280.jpg"
    },
    {
        "id": "7146427",
        "src640": "https://cdn.pixabay.com/photo/2022/04/21/00/44/fruit-7146427_640.jpg",
        "src1280": "https://cdn.pixabay.com/photo/2022/04/21/00/44/fruit-7146427_1280.jpg"
    }
]