[
    {
        "id": "1898196",
        "src640": "https://cdn.pixabay.com/photo/2016/12/10/21/28/plums-1898196_640.jpg",
        "src1280": "https://cdn.pixabay.com/photo/2016/12/10/21/28/plums-1898196_1280.jpg"
    },
    {
        "id": "1900194",
        "src640": "https://cdn.pixabay.com/photo/2016/12/11/20/01/coffee-1900194_640.jpg",
        "src1280": "https://cdn.pixabay.com/photo/2016/12/11/20/01/coffee-1900194_1280.jpg"
    },
    {
        "id": "3574427",
        "src640": "https://cdn.pixabay.com/photo/2018/07/31/07/55/tomatoes-3574427_640.jpg",
        "src1280": "https://cdn.pixabay.com/photo/2018/07/31/07/55/tomatoes-3574427_1280.jpg"
    },
    {
        "id": "1534063",
        "src640": "https://cdn.pixabay.com/photo/2016/07/22/02/58/cherries-1534063_640.jpg",
        "src1280": "https://cdn.pixabay.com/photo/2016/07/22/02/58/cherries-1534063_1280.jpg"
    },
    {
        "id": "1867398",
        "src640": "https://cdn.pixabay.com/photo/2016/11/29/04/49/blueberries-1867398_640.jpg",
        "src1280": "https://cdn.pixabay.com/photo/2016/11/29/04/49/blueberries-1867398_1280.jpg"
    },
    {
        "id": "2045580",
        "src640": "https://cdn.pixabay.com/photo/2017/02/07/11/15/honey-2045580_640.jpg",
        "src1280": "https://cdn.pixabay.com/photo/2017/02/07/11/15/honey-2045580_1280.jpg"
    },
    {
        "id": "3016761",
        "src640": "https://cdn.pixabay.com/photo/2017/12/13/13/16/fruit-3016761_640.jpg",
        "src1280": "https://cdn.pixabay.com/photo/2017/12/13/13/16/fruit-3016761_1280.jpg"
    },
    {
        "id": "1914117",
        "src640": "https://cdn.pixabay.com/photo/2016/12/17/18/49/pepper-1914117_640.jpg",
        "src1280": "https://cdn.pixabay.com/photo/2016/12/17/18/49/pepper-1914117_1280.jpg"
    },
    {
        "id": "2023403",
        "src640": "https://cdn.pixabay.com/photo/2017/01/31/09/29/raspberries-2023403_640.jpg",
        "src1280": "https://cdn.pixabay.com/photo/2017/01/31/09/29/raspberries-2023403_1280.jpg"
    },
    {
        "id": "6372410",
        "src640": "https://cdn.pixabay.com/photo/2021/06/28/18/36/cereals-6372410_640.jpg",
        "src1280": "https://cdn.pixabay.com/photo/2021/06/28/18/36/cereals-6372410_1280.jpg"
    },
    {
        "id": "539134",
        "src640": "https://cdn.pixabay.com/photo/2014/11/20/13/54/blueberries-539134_640.jpg",
        "src1280": "https://cdn.pixabay.com/photo/2014/11/20/13/54/blueberries-539134_1280.jpg"
    },
    {
        "id": "6006446",
        "src640": "https://cdn.pixabay.com/photo/2021/02/11/20/24/dessert-6006446_640.jpg",
        "src1280": "https://cdn.pixabay.com/photo/2021/02/11/20/24/dessert-6006446_1280.jpg"
    },
    {
        "id": "715541",
        "src640": "https://cdn.pixabay.com/photo/2015/04/10/00/41/food-715541_640.jpg",
        "src1280": "https://cdn.pixabay.com/photo/2015/04/10/00/41/food-715541_1280.jpg"
    },
    {
        "id": "6526807",
        "src640": "https://cdn.pixabay.com/photo/2021/08/06/17/06/breakfast-6526807_640.jpg",
        "src1280": "https://cdn.pixabay.com/photo/2021/08/06/17/06/breakfast-6526807_1280.jpg"
    },
    {
        "id": "1914118",
        "src640": "https://cdn.pixabay.com/photo/2016/12/17/18/50/cherry-1914118_640.jpg",
        "src1280": "https://cdn.pixabay.com/photo/2016/12/17/18/50/cherry-1914118_1280.jpg"
    },
    {
        "id": "1331460",
        "src640": "https://cdn.pixabay.com/photo/2016/04/15/17/23/green-asparagus-1331460_640.jpg",
        "src1280": "https://cdn.pixabay.com/photo/2016/04/15/17/23/green-asparagus-1331460_1280.jpg"
    },
    {
        "id": "4936947",
        "src640": "https://cdn.pixabay.com/photo/2020/03/16/12/46/food-4936947_640.jpg",
        "src1280": "https://cdn.pixabay.com/photo/2020/03/16/12/46/food-4936947_1280.jpg"
    },
    {
        "id": "5847940",
        "src640": "https://cdn.pixabay.com/photo/2020/12/20/19/21/cookies-5847940_640.jpg",
        "src1280": "https://cdn.pixabay.com/photo/2020/12/20/19/21/cookies-5847940_1280.jpg"
    },
    {
        "id": "2777165",
        "src640": "https://cdn.pixabay.com/photo/2017/09/22/21/35/milk-2777165_640.jpg",
        "src1280": "https://cdn.pixabay.com/photo/2017/09/22/21/35/milk-2777165_1280.jpg"
    },
    {
        "id": "906140",
        "src640": "https://cdn.pixabay.com/photo/2015/08/25/03/50/herbs-906140_640.jpg",
        "src1280": "https://cdn.pixabay.com/photo/2015/08/25/03/50/herbs-906140_1280.jpg"
    },
    {
        "id": "3623694",
        "src640": "https://cdn.pixabay.com/photo/2018/08/22/13/58/grapes-3623694_640.jpg",
        "src1280": "https://cdn.pixabay.com/photo/2018/08/22/13/58/grapes-3623694_1280.jpg"
    },
    {
        "id": "1050813",
        "src640": "https://cdn.pixabay.com/photo/2015/11/19/10/38/food-1050813_640.jpg",
        "src1280": "https://cdn.pixabay.com/photo/2015/11/19/10/38/food-1050813_1280.jpg"
    },
    {
        "id": "3623692",
        "src640": "https://cdn.pixabay.com/photo/2018/08/22/13/56/grapes-3623692_640.jpg",
        "src1280": "https://cdn.pixabay.com/photo/2018/08/22/13/56/grapes-3623692_1280.jpg"
    },
    {
        "id": "794464",
        "src640": "https://cdn.pixabay.com/photo/2015/06/01/23/43/pasta-794464_640.jpg",
        "src1280": "https://cdn.pixabay.com/photo/2015/06/01/23/43/pasta-794464_1280.jpg"
    },
    {
        "id": "1914127",
        "src640": "https://cdn.pixabay.com/photo/2016/12/17/18/51/persimmon-1914127_640.jpg",
        "src1280": "https://cdn.pixabay.com/photo/2016/12/17/18/51/persimmon-1914127_1280.jpg"
    },
    {
        "id": "1589012",
        "src640": "https://cdn.pixabay.com/photo/2016/08/12/16/01/cake-1589012_640.jpg",
        "src1280": "https://cdn.pixabay.com/photo/2016/08/12/16/01/cake-1589012_1280.jpg"
    },
    {
        "id": "2188869",
        "src640": "https://cdn.pixabay.com/photo/2017/03/30/15/46/churros-2188869_640.jpg",
        "src1280": "https://cdn.pixabay.com/photo/2017/03/30/15/46/churros-2188869_1280.jpg"
    },
    {
        "id": "1887240",
        "src640": "https://cdn.pixabay.com/photo/2016/12/06/18/27/tomatoes-1887240_640.jpg",
        "src1280": "https://cdn.pixabay.com/photo/2016/12/06/18/27/tomatoes-1887240_1280.jpg"
    },
    {
        "id": "775503",
        "src640": "https://cdn.pixabay.com/photo/2015/05/20/14/23/baby-775503_640.jpg",
        "src1280": "https://cdn.pixabay.com/photo/2015/05/20/14/23/baby-775503_1280.jpg"
    },
    {
        "id": "7188630",
        "src640": "https://cdn.pixabay.com/photo/2022/05/11/07/10/porridge-7188630_640.jpg",
        "src1280": "https://cdn.pixabay.com/photo/2022/05/11/07/10/porridge-7188630_1280.jpg"
    },
    {
        "id": "7213407",
        "src640": "https://cdn.pixabay.com/photo/2022/05/22/13/36/raspberries-7213407_640.jpg",
        "src1280": "https://cdn.pixabay.com/photo/2022/05/22/13/36/raspberries-7213407_1280.jpg"
    },
    {
        "id": "5705180",
        "src640": "https://cdn.pixabay.com/photo/2020/11/01/23/22/breakfast-5705180_640.jpg",
        "src1280": "https://cdn.pixabay.com/photo/2020/11/01/23/22/breakfast-5705180_1280.jpg"
    },
    {
        "id": "4470981",
        "src640": "https://cdn.pixabay.com/photo/2019/09/12/08/45/pumpkin-4470981_640.jpg",
        "src1280": "https://cdn.pixabay.com/photo/2019/09/12/08/45/pumpkin-4470981_1280.jpg"
    },
    {
        "id": "5978060",
        "src640": "https://cdn.pixabay.com/photo/2021/02/03/13/54/shanghai-5978060_640.jpg",
        "src1280": "https://cdn.pixabay.com/photo/2021/02/03/13/54/shanghai-5978060_1280.jpg"
    },
    {
        "id": "5878892",
        "src640": "https://cdn.pixabay.com/photo/2021/01/01/15/31/sushi-balls-5878892_640.jpg",
        "src1280": "https://cdn.pixabay.com/photo/2021/01/01/15/31/sushi-balls-5878892_1280.jpg"
    },
    {
        "id": "5856039",
        "src640": "https://cdn.pixabay.com/photo/2020/12/23/21/21/macarons-5856039_640.jpg",
        "src1280": "https://cdn.pixabay.com/photo/2020/12/23/21/21/macarons-5856039_1280.jpg"
    },
    {
        "id": "8214486",
        "src640": "https://cdn.pixabay.com/photo/2023/08/26/09/04/strawberry-8214486_640.jpg",
        "src1280": "https://cdn.pixabay.com/photo/2023/08/26/09/04/strawberry-8214486_1280.jpg"
    },
    {
        "id": "1281742",
        "src640": "https://cdn.pixabay.com/photo/2016/03/26/22/58/food-1281742_640.jpg",
        "src1280": "https://cdn.pixabay.com/photo/2016/03/26/22/58/food-1281742_1280.jpg"
    },
    {
        "id": "7353447",
        "src640": "https://cdn.pixabay.com/photo/2022/07/30/10/29/peaches-7353447_640.jpg",
        "src1280": "https://cdn.pixabay.com/photo/2022/07/30/10/29/peaches-7353447_1280.jpg"
    },
    {
        "id": "890885",
        "src640": "https://cdn.pixabay.com/photo/2015/08/16/12/38/man-890885_640.jpg",
        "src1280": "https://cdn.pixabay.com/photo/2015/08/16/12/38/man-890885_1280.jpg"
    },
    {
        "id": "2023405",
        "src640": "https://cdn.pixabay.com/photo/2017/01/31/09/30/raspberry-2023405_640.jpg",
        "src1280": "https://cdn.pixabay.com/photo/2017/01/31/09/30/raspberry-2023405_1280.jpg"
    },
    {
        "id": "1898194",
        "src640": "https://cdn.pixabay.com/photo/2016/12/10/21/26/food-1898194_640.jpg",
        "src1280": "https://cdn.pixabay.com/photo/2016/12/10/21/26/food-1898194_1280.jpg"
    },
    {
        "id": "839233",
        "src640": "https://cdn.pixabay.com/photo/2015/07/10/14/04/coffee-839233_640.jpg",
        "src1280": "https://cdn.pixabay.com/photo/2015/07/10/14/04/coffee-839233_1280.jpg"
    },
    {
        "id": "731823",
        "src640": "https://cdn.pixabay.com/photo/2015/04/20/17/00/pastry-731823_640.jpg",
        "src1280": "https://cdn.pixabay.com/photo/2015/04/20/17/00/pastry-731823_1280.jpg"
    },
    {
        "id": "101636",
        "src640": "https://cdn.pixabay.com/photo/2013/04/07/21/30/bread-101636_640.jpg",
        "src1280": "https://cdn.pixabay.com/photo/2013/04/07/21/30/bread-101636_1280.jpg"
    },
    {
        "id": "2023410",
        "src640": "https://cdn.pixabay.com/photo/2017/01/31/09/31/raspberry-2023410_640.jpg",
        "src1280": "https://cdn.pixabay.com/photo/2017/01/31/09/31/raspberry-2023410_1280.jpg"
    },
    {
        "id": "4851545",
        "src640": "https://cdn.pixabay.com/photo/2020/02/15/17/36/macaroons-4851545_640.jpg",
        "src1280": "https://cdn.pixabay.com/photo/2020/02/15/17/36/macaroons-4851545_1280.jpg"
    },
    {
        "id": "3669245",
        "src640": "https://cdn.pixabay.com/photo/2018/09/11/11/47/cake-3669245_640.jpg",
        "src1280": "https://cdn.pixabay.com/photo/2018/09/11/11/47/cake-3669245_1280.jpg"
    },
    {
        "id": "1836411",
        "src640": "https://cdn.pixabay.com/photo/2016/11/18/19/00/bread-1836411_640.jpg",
        "src1280": "https://cdn.pixabay.com/photo/2016/11/18/19/00/bread-1836411_1280.jpg"
    },
    {
        "id": "4637421",
        "src640": "https://cdn.pixabay.com/photo/2019/11/19/13/21/savoy-4637421_640.jpg",
        "src1280": "https://cdn.pixabay.com/photo/2019/11/19/13/21/savoy-4637421_1280.jpg"
    },
    {
        "id": "1971492",
        "src640": "https://cdn.pixabay.com/photo/2017/01/11/11/02/anise-1971492_640.jpg",
        "src1280": "https://cdn.pixabay.com/photo/2017/01/11/11/02/anise-1971492_1280.jpg"
    },
    {
        "id": "2282101",
        "src640": "https://cdn.pixabay.com/photo/2017/05/03/20/49/tomato-2282101_640.jpg",
        "src1280": "https://cdn.pixabay.com/photo/2017/05/03/20/49/tomato-2282101_1280.jpg"
    },
    {
        "id": "1952999",
        "src640": "https://cdn.pixabay.com/photo/2017/01/04/19/42/apples-1952999_640.jpg",
        "src1280": "https://cdn.pixabay.com/photo/2017/01/04/19/42/apples-1952999_1280.jpg"
    },
    {
        "id": "9218",
        "src640": "https://cdn.pixabay.com/photo/2011/09/14/12/37/grapes-9218_640.jpg",
        "src1280": "https://cdn.pixabay.com/photo/2011/09/14/12/37/grapes-9218_1280.jpg"
    },
    {
        "id": "5521372",
        "src640": "https://cdn.pixabay.com/photo/2020/08/27/07/31/restaurant-5521372_640.jpg",
        "src1280": "https://cdn.pixabay.com/photo/2020/08/27/07/31/restaurant-5521372_1280.jpg"
    },
    {
        "id": "4625476",
        "src640": "https://cdn.pixabay.com/photo/2019/11/14/07/17/smoothie-4625476_640.jpg",
        "src1280": "https://cdn.pixabay.com/photo/2019/11/14/07/17/smoothie-4625476_1280.jpg"
    },
    {
        "id": "2926",
        "src640": "https://cdn.pixabay.com/photo/2010/12/13/10/34/cinnamon-sticks-2926_640.jpg",
        "src1280": "https://cdn.pixabay.com/photo/2010/12/13/10/34/cinnamon-sticks-2926_1280.jpg"
    },
    {
        "id": "8407451",
        "src640": "https://cdn.pixabay.com/photo/2023/11/23/09/01/pineapple-8407451_640.jpg",
        "src1280": "https://cdn.pixabay.com/photo/2023/11/23/09/01/pineapple-8407451_1280.jpg"
    },
    {
        "id": "7661889",
        "src640": "https://cdn.pixabay.com/photo/2022/12/17/15/20/ice-cream-7661889_640.jpg",
        "src1280": "https://cdn.pixabay.com/photo/2022/12/17/15/20/ice-cream-7661889_1280.jpg"
    },
    {
        "id": "1463918",
        "src640": "https://cdn.pixabay.com/photo/2016/06/17/19/09/pasta-1463918_640.jpg",
        "src1280": "https://cdn.pixabay.com/photo/2016/06/17/19/09/pasta-1463918_1280.jpg"
    },
    {
        "id": "7783131",
        "src640": "https://cdn.pixabay.com/photo/2023/02/11/15/18/apples-7783131_640.jpg",
        "src1280": "https://cdn.pixabay.com/photo/2023/02/11/15/18/apples-7783131_1280.jpg"
    },
    {
        "id": "1887231",
        "src640": "https://cdn.pixabay.com/photo/2016/12/06/18/26/star-anise-1887231_640.jpg",
        "src1280": "https://cdn.pixabay.com/photo/2016/12/06/18/26/star-anise-1887231_1280.jpg"
    },
    {
        "id": "1887233",
        "src640": "https://cdn.pixabay.com/photo/2016/12/06/18/27/cheese-1887233_640.jpg",
        "src1280": "https://cdn.pixabay.com/photo/2016/12/06/18/27/cheese-1887233_1280.jpg"
    },
    {
        "id": "2139844",
        "src640": "https://cdn.pixabay.com/photo/2017/03/13/13/39/pancakes-2139844_640.jpg",
        "src1280": "https://cdn.pixabay.com/photo/2017/03/13/13/39/pancakes-2139844_1280.jpg"
    },
    {
        "id": "2600954",
        "src640": "https://cdn.pixabay.com/photo/2017/08/07/07/18/table-2600954_640.jpg",
        "src1280": "https://cdn.pixabay.com/photo/2017/08/07/07/18/table-2600954_1280.jpg"
    },
    {
        "id": "5547626",
        "src640": "https://cdn.pixabay.com/photo/2020/09/05/22/11/cobweb-5547626_640.jpg",
        "src1280": "https://cdn.pixabay.com/photo/2020/09/05/22/11/cobweb-5547626_1280.jpg"
    },
    {
        "id": "1887237",
        "src640": "https://cdn.pixabay.com/photo/2016/12/06/18/27/cereal-1887237_640.jpg",
        "src1280": "https://cdn.pixabay.com/photo/2016/12/06/18/27/cereal-1887237_1280.jpg"
    },
    {
        "id": "2044037",
        "src640": "https://cdn.pixabay.com/photo/2017/02/06/19/38/apples-2044037_640.jpg",
        "src1280": "https://cdn.pixabay.com/photo/2017/02/06/19/38/apples-2044037_1280.jpg"
    },
    {
        "id": "2295052",
        "src640": "https://cdn.pixabay.com/photo/2017/05/08/10/43/people-2295052_640.jpg",
        "src1280": "https://cdn.pixabay.com/photo/2017/05/08/10/43/people-2295052_1280.jpg"
    },
    {
        "id": "1852934",
        "src640": "https://cdn.pixabay.com/photo/2016/11/23/13/46/honey-1852934_640.jpg",
        "src1280": "https://cdn.pixabay.com/photo/2016/11/23/13/46/honey-1852934_1280.jpg"
    },
    {
        "id": "5711139",
        "src640": "https://cdn.pixabay.com/photo/2020/11/03/23/55/cookies-5711139_640.jpg",
        "src1280": "https://cdn.pixabay.com/photo/2020/11/03/23/55/cookies-5711139_1280.jpg"
    },
    {
        "id": "1869421",
        "src640": "https://cdn.pixabay.com/photo/2016/11/29/12/15/berries-1869421_640.jpg",
        "src1280": "https://cdn.pixabay.com/photo/2016/11/29/12/15/berries-1869421_1280.jpg"
    },
    {
        "id": "1961538",
        "src640": "https://cdn.pixabay.com/photo/2017/01/07/20/40/candy-1961538_640.jpg",
        "src1280": "https://cdn.pixabay.com/photo/2017/01/07/20/40/candy-1961538_1280.jpg"
    },
    {
        "id": "1123738",
        "src640": "https://cdn.pixabay.com/photo/2016/01/06/08/10/coconut-1123738_640.jpg",
        "src1280": "https://cdn.pixabay.com/photo/2016/01/06/08/10/coconut-1123738_1280.jpg"
    },
    {
        "id": "4637398",
        "src640": "https://cdn.pixabay.com/photo/2019/11/19/13/10/fruit-4637398_640.jpg",
        "src1280": "https://cdn.pixabay.com/photo/2019/11/19/13/10/fruit-4637398_1280.jpg"
    },
    {
        "id": "7213383",
        "src640": "https://cdn.pixabay.com/photo/2022/05/22/13/21/healthy-7213383_640.jpg",
        "src1280": "https://cdn.pixabay.com/photo/2022/05/22/13/21/healthy-7213383_1280.jpg"
    },
    {
        "id": "6851675",
        "src640": "https://cdn.pixabay.com/photo/2021/12/06/21/34/sweets-6851675_640.jpg",
        "src1280": "https://cdn.pixabay.com/photo/2021/12/06/21/34/sweets-6851675_1280.jpg"
    },
    {
        "id": "5828241",
        "src640": "https://cdn.pixabay.com/photo/2020/12/13/13/30/cinnamon-sticks-5828241_640.jpg",
        "src1280": "https://cdn.pixabay.com/photo/2020/12/13/13/30/cinnamon-sticks-5828241_1280.jpg"
    },
    {
        "id": "2764589",
        "src640": "https://cdn.pixabay.com/photo/2017/09/19/08/52/pancake-2764589_640.jpg",
        "src1280": "https://cdn.pixabay.com/photo/2017/09/19/08/52/pancake-2764589_1280.jpg"
    },
    {
        "id": "6808367",
        "src640": "https://cdn.pixabay.com/photo/2021/11/19/08/20/strawberries-6808367_640.jpg",
        "src1280": "https://cdn.pixabay.com/photo/2021/11/19/08/20/strawberries-6808367_1280.jpg"
    },
    {
        "id": "783354",
        "src640": "https://cdn.pixabay.com/photo/2015/05/25/14/30/blueberries-783354_640.jpg",
        "src1280": "https://cdn.pixabay.com/photo/2015/05/25/14/30/blueberries-783354_1280.jpg"
    },
    {
        "id": "8083484",
        "src640": "https://cdn.pixabay.com/photo/2023/06/23/12/42/tea-8083484_640.jpg",
        "src1280": "https://cdn.pixabay.com/photo/2023/06/23/12/42/tea-8083484_1280.jpg"
    },
    {
        "id": "4936949",
        "src640": "https://cdn.pixabay.com/photo/2020/03/16/12/46/food-4936949_640.jpg",
        "src1280": "https://cdn.pixabay.com/photo/2020/03/16/12/46/food-4936949_1280.jpg"
    }
]