[
    {
        "id": "3727033",
        "src640": "https://cdn.pixabay.com/photo/2018/10/05/22/46/pumpkin-3727033_640.jpg",
        "src1280": "https://cdn.pixabay.com/photo/2018/10/05/22/46/pumpkin-3727033_1280.jpg"
    },
    {
        "id": "2201782",
        "src640": "https://cdn.pixabay.com/photo/2017/04/04/16/31/cake-2201782_640.jpg",
        "src1280": "https://cdn.pixabay.com/photo/2017/04/04/16/31/cake-2201782_1280.jpg"
    },
    {
        "id": "4021349",
        "src640": "https://cdn.pixabay.com/photo/2019/02/26/07/53/more-4021349_640.jpg",
        "src1280": "https://cdn.pixabay.com/photo/2019/02/26/07/53/more-4021349_1280.jpg"
    },
    {
        "id": "2163969",
        "src640": "https://cdn.pixabay.com/photo/2017/03/22/04/34/black-forrest-2163969_640.jpg",
        "src1280": "https://cdn.pixabay.com/photo/2017/03/22/04/34/black-forrest-2163969_1280.jpg"
    },
    {
        "id": "1022225",
        "src640": "https://cdn.pixabay.com/photo/2015/11/04/10/04/candy-1022225_640.jpg",
        "src1280": "https://cdn.pixabay.com/photo/2015/11/04/10/04/candy-1022225_1280.jpg"
    },
    {
        "id": "1239391",
        "src640": "https://cdn.pixabay.com/photo/2016/03/05/22/54/animal-1239391_640.jpg",
        "src1280": "https://cdn.pixabay.com/photo/2016/03/05/22/54/animal-1239391_1280.jpg"
    },
    {
        "id": "4059154",
        "src640": "https://cdn.pixabay.com/photo/2019/03/16/15/45/etagere-4059154_640.jpg",
        "src1280": "https://cdn.pixabay.com/photo/2019/03/16/15/45/etagere-4059154_1280.jpg"
    },
    {
        "id": "3531910",
        "src640": "https://cdn.pixabay.com/photo/2018/07/11/21/17/green-3531910_640.jpg",
        "src1280": "https://cdn.pixabay.com/photo/2018/07/11/21/17/green-3531910_1280.jpg"
    },
    {
        "id": "3323906",
        "src640": "https://cdn.pixabay.com/photo/2018/04/16/08/38/candy-bar-3323906_640.jpg",
        "src1280": "https://cdn.pixabay.com/photo/2018/04/16/08/38/candy-bar-3323906_1280.jpg"
    },
    {
        "id": "3381444",
        "src640": "https://cdn.pixabay.com/photo/2018/05/07/19/08/chocolate-3381444_640.jpg",
        "src1280": "https://cdn.pixabay.com/photo/2018/05/07/19/08/chocolate-3381444_1280.jpg"
    },
    {
        "id": "4021340",
        "src640": "https://cdn.pixabay.com/photo/2019/02/26/07/51/vegetarian-4021340_640.jpg",
        "src1280": "https://cdn.pixabay.com/photo/2019/02/26/07/51/vegetarian-4021340_1280.jpg"
    },
    {
        "id": "4729383",
        "src640": "https://cdn.pixabay.com/photo/2019/12/30/10/51/wine-4729383_640.jpg",
        "src1280": "https://cdn.pixabay.com/photo/2019/12/30/10/51/wine-4729383_1280.jpg"
    },
    {
        "id": "3447300",
        "src640": "https://cdn.pixabay.com/photo/2018/06/01/22/07/strawberry-single-3447300_640.jpg",
        "src1280": "https://cdn.pixabay.com/photo/2018/06/01/22/07/strawberry-single-3447300_1280.jpg"
    },
    {
        "id": "2596101",
        "src640": "https://cdn.pixabay.com/photo/2017/08/06/20/38/colorful-2596101_640.jpg",
        "src1280": "https://cdn.pixabay.com/photo/2017/08/06/20/38/colorful-2596101_1280.jpg"
    },
    {
        "id": "3810712",
        "src640": "https://cdn.pixabay.com/photo/2018/11/12/11/59/apples-3810712_640.jpg",
        "src1280": "https://cdn.pixabay.com/photo/2018/11/12/11/59/apples-3810712_1280.jpg"
    },
    {
        "id": "6583404",
        "src640": "https://cdn.pixabay.com/photo/2021/08/29/14/27/doner-kebab-6583404_640.jpg",
        "src1280": "https://cdn.pixabay.com/photo/2021/08/29/14/27/doner-kebab-6583404_1280.jpg"
    },
    {
        "id": "5935802",
        "src640": "https://cdn.pixabay.com/photo/2021/01/20/22/32/woman-5935802_640.jpg",
        "src1280": "https://cdn.pixabay.com/photo/2021/01/20/22/32/woman-5935802_1280.jpg"
    },
    {
        "id": "3318107",
        "src640": "https://cdn.pixabay.com/photo/2018/04/14/01/02/pineapple-3318107_640.jpg",
        "src1280": "https://cdn.pixabay.com/photo/2018/04/14/01/02/pineapple-3318107_1280.jpg"
    },
    {
        "id": "6604389",
        "src640": "https://cdn.pixabay.com/photo/2021/09/07/16/34/pear-6604389_640.jpg",
        "src1280": "https://cdn.pixabay.com/photo/2021/09/07/16/34/pear-6604389_1280.jpg"
    },
    {
        "id": "5097144",
        "src640": "https://cdn.pixabay.com/photo/2020/04/26/20/43/milk-5097144_640.jpg",
        "src1280": "https://cdn.pixabay.com/photo/2020/04/26/20/43/milk-5097144_1280.jpg"
    },
    {
        "id": "116213",
        "src640": "https://cdn.pixabay.com/photo/2013/06/04/16/04/cake-116213_640.jpg",
        "src1280": "https://cdn.pixabay.com/photo/2013/06/04/16/04/cake-116213_1280.jpg"
    },
    {
        "id": "3790406",
        "src640": "https://cdn.pixabay.com/photo/2018/11/02/15/21/pork-tenderloin-3790406_640.jpg",
        "src1280": "https://cdn.pixabay.com/photo/2018/11/02/15/21/pork-tenderloin-3790406_1280.jpg"
    },
    {
        "id": "7937833",
        "src640": "https://cdn.pixabay.com/photo/2023/04/19/13/51/apple-7937833_640.jpg",
        "src1280": "https://cdn.pixabay.com/photo/2023/04/19/13/51/apple-7937833_1280.jpg"
    },
    {
        "id": "2593639",
        "src640": "https://cdn.pixabay.com/photo/2017/08/06/15/54/fruit-2593639_640.jpg",
        "src1280": "https://cdn.pixabay.com/photo/2017/08/06/15/54/fruit-2593639_1280.jpg"
    },
    {
        "id": "4077590",
        "src640": "https://cdn.pixabay.com/photo/2019/03/24/13/06/bees-4077590_640.jpg",
        "src1280": "https://cdn.pixabay.com/photo/2019/03/24/13/06/bees-4077590_1280.jpg"
    },
    {
        "id": "4740433",
        "src640": "https://cdn.pixabay.com/photo/2020/01/04/12/13/caviar-4740433_640.jpg",
        "src1280": "https://cdn.pixabay.com/photo/2020/01/04/12/13/caviar-4740433_1280.jpg"
    },
    {
        "id": "1134206",
        "src640": "https://cdn.pixabay.com/photo/2016/01/11/19/06/strawberries-1134206_640.jpg",
        "src1280": "https://cdn.pixabay.com/photo/2016/01/11/19/06/strawberries-1134206_1280.jpg"
    },
    {
        "id": "1497488",
        "src640": "https://cdn.pixabay.com/photo/2016/07/04/21/25/cherries-1497488_640.jpg",
        "src1280": "https://cdn.pixabay.com/photo/2016/07/04/21/25/cherries-1497488_1280.jpg"
    },
    {
        "id": "909522",
        "src640": "https://cdn.pixabay.com/photo/2015/08/27/05/11/western-909522_640.jpg",
        "src1280": "https://cdn.pixabay.com/photo/2015/08/27/05/11/western-909522_1280.jpg"
    },
    {
        "id": "3526569",
        "src640": "https://cdn.pixabay.com/photo/2018/07/09/17/03/malina-3526569_640.jpg",
        "src1280": "https://cdn.pixabay.com/photo/2018/07/09/17/03/malina-3526569_1280.jpg"
    },
    {
        "id": "7952762",
        "src640": "https://cdn.pixabay.com/photo/2023/04/26/16/20/pork-7952762_640.jpg",
        "src1280": "https://cdn.pixabay.com/photo/2023/04/26/16/20/pork-7952762_1280.jpg"
    },
    {
        "id": "5072245",
        "src640": "https://cdn.pixabay.com/photo/2020/04/21/09/05/food-5072245_640.jpg",
        "src1280": "https://cdn.pixabay.com/photo/2020/04/21/09/05/food-5072245_1280.jpg"
    },
    {
        "id": "2112699",
        "src640": "https://cdn.pixabay.com/photo/2017/03/02/23/06/fruit-2112699_640.jpg",
        "src1280": "https://cdn.pixabay.com/photo/2017/03/02/23/06/fruit-2112699_1280.jpg"
    },
    {
        "id": "7649570",
        "src640": "https://cdn.pixabay.com/photo/2022/12/11/19/19/hamburger-7649570_640.jpg",
        "src1280": "https://cdn.pixabay.com/photo/2022/12/11/19/19/hamburger-7649570_1280.jpg"
    },
    {
        "id": "8394893",
        "src640": "https://cdn.pixabay.com/photo/2023/11/17/19/07/cookies-8394893_640.jpg",
        "src1280": "https://cdn.pixabay.com/photo/2023/11/17/19/07/cookies-8394893_1280.jpg"
    },
    {
        "id": "750844",
        "src640": "https://cdn.pixabay.com/photo/2015/05/03/07/20/fig-750844_640.jpg",
        "src1280": "https://cdn.pixabay.com/photo/2015/05/03/07/20/fig-750844_1280.jpg"
    },
    {
        "id": "17515",
        "src640": "https://cdn.pixabay.com/photo/2012/02/27/17/03/candy-17515_640.jpg",
        "src1280": "https://cdn.pixabay.com/photo/2012/02/27/17/03/candy-17515_1280.jpg"
    },
    {
        "id": "4333026",
        "src640": "https://cdn.pixabay.com/photo/2019/07/12/14/47/strawberry-4333026_640.jpg",
        "src1280": "https://cdn.pixabay.com/photo/2019/07/12/14/47/strawberry-4333026_1280.jpg"
    },
    {
        "id": "5350478",
        "src640": "https://cdn.pixabay.com/photo/2020/06/28/19/29/cherry-5350478_640.jpg",
        "src1280": "https://cdn.pixabay.com/photo/2020/06/28/19/29/cherry-5350478_1280.jpg"
    },
    {
        "id": "4325370",
        "src640": "https://cdn.pixabay.com/photo/2019/07/08/19/06/elder-4325370_640.jpg",
        "src1280": "https://cdn.pixabay.com/photo/2019/07/08/19/06/elder-4325370_1280.jpg"
    },
    {
        "id": "4863446",
        "src640": "https://cdn.pixabay.com/photo/2020/02/19/22/55/vegan-4863446_640.jpg",
        "src1280": "https://cdn.pixabay.com/photo/2020/02/19/22/55/vegan-4863446_1280.jpg"
    },
    {
        "id": "1695553",
        "src640": "https://cdn.pixabay.com/photo/2016/09/26/09/48/raspberries-1695553_640.jpg",
        "src1280": "https://cdn.pixabay.com/photo/2016/09/26/09/48/raspberries-1695553_1280.jpg"
    },
    {
        "id": "4925525",
        "src640": "https://cdn.pixabay.com/photo/2020/03/12/16/10/coffee-4925525_640.jpg",
        "src1280": "https://cdn.pixabay.com/photo/2020/03/12/16/10/coffee-4925525_1280.jpg"
    },
    {
        "id": "2157136",
        "src640": "https://cdn.pixabay.com/photo/2017/03/19/17/57/bread-2157136_640.jpg",
        "src1280": "https://cdn.pixabay.com/photo/2017/03/19/17/57/bread-2157136_1280.jpg"
    },
    {
        "id": "57305",
        "src640": "https://cdn.pixabay.com/photo/2012/09/20/22/33/acorn-cluster-57305_640.jpg",
        "src1280": "https://cdn.pixabay.com/photo/2012/09/20/22/33/acorn-cluster-57305_1280.jpg"
    },
    {
        "id": "4415684",
        "src640": "https://cdn.pixabay.com/photo/2019/08/19/07/53/potato-beetle-4415684_640.jpg",
        "src1280": "https://cdn.pixabay.com/photo/2019/08/19/07/53/potato-beetle-4415684_1280.jpg"
    },
    {
        "id": "6487869",
        "src640": "https://cdn.pixabay.com/photo/2021/07/23/18/04/common-hazel-6487869_640.jpg",
        "src1280": "https://cdn.pixabay.com/photo/2021/07/23/18/04/common-hazel-6487869_1280.jpg"
    },
    {
        "id": "1197659",
        "src640": "https://cdn.pixabay.com/photo/2016/02/13/11/14/menu-1197659_640.jpg",
        "src1280": "https://cdn.pixabay.com/photo/2016/02/13/11/14/menu-1197659_1280.jpg"
    },
    {
        "id": "5590186",
        "src640": "https://cdn.pixabay.com/photo/2020/09/21/14/07/meal-5590186_640.jpg",
        "src1280": "https://cdn.pixabay.com/photo/2020/09/21/14/07/meal-5590186_1280.jpg"
    },
    {
        "id": "5301407",
        "src640": "https://cdn.pixabay.com/photo/2020/06/15/11/26/vegetables-5301407_640.jpg",
        "src1280": "https://cdn.pixabay.com/photo/2020/06/15/11/26/vegetables-5301407_1280.jpg"
    },
    {
        "id": "8394897",
        "src640": "https://cdn.pixabay.com/photo/2023/11/17/19/07/cookies-8394897_640.jpg",
        "src1280": "https://cdn.pixabay.com/photo/2023/11/17/19/07/cookies-8394897_1280.jpg"
    },
    {
        "id": "7952761",
        "src640": "https://cdn.pixabay.com/photo/2023/04/26/16/20/pork-7952761_640.jpg",
        "src1280": "https://cdn.pixabay.com/photo/2023/04/26/16/20/pork-7952761_1280.jpg"
    },
    {
        "id": "5651579",
        "src640": "https://cdn.pixabay.com/photo/2020/10/13/11/17/picnic-5651579_640.jpg",
        "src1280": "https://cdn.pixabay.com/photo/2020/10/13/11/17/picnic-5651579_1280.jpg"
    },
    {
        "id": "621158",
        "src640": "https://cdn.pixabay.com/photo/2015/02/02/17/33/coffee-621158_640.jpg",
        "src1280": "https://cdn.pixabay.com/photo/2015/02/02/17/33/coffee-621158_1280.jpg"
    },
    {
        "id": "5154447",
        "src640": "https://cdn.pixabay.com/photo/2020/05/10/15/26/smoothie-5154447_640.jpg",
        "src1280": "https://cdn.pixabay.com/photo/2020/05/10/15/26/smoothie-5154447_1280.jpg"
    },
    {
        "id": "2853376",
        "src640": "https://cdn.pixabay.com/photo/2017/10/15/11/41/cake-2853376_640.jpg",
        "src1280": "https://cdn.pixabay.com/photo/2017/10/15/11/41/cake-2853376_1280.jpg"
    },
    {
        "id": "4961405",
        "src640": "https://cdn.pixabay.com/photo/2020/03/23/16/53/eat-4961405_640.jpg",
        "src1280": "https://cdn.pixabay.com/photo/2020/03/23/16/53/eat-4961405_1280.jpg"
    },
    {
        "id": "5180885",
        "src640": "https://cdn.pixabay.com/photo/2020/05/17/10/13/markets-5180885_640.jpg",
        "src1280": "https://cdn.pixabay.com/photo/2020/05/17/10/13/markets-5180885_1280.jpg"
    },
    {
        "id": "794467",
        "src640": "https://cdn.pixabay.com/photo/2015/06/01/23/43/bakery-794467_640.jpg",
        "src1280": "https://cdn.pixabay.com/photo/2015/06/01/23/43/bakery-794467_1280.jpg"
    },
    {
        "id": "5720372",
        "src640": "https://cdn.pixabay.com/photo/2020/11/07/09/35/grapes-5720372_640.jpg",
        "src1280": "https://cdn.pixabay.com/photo/2020/11/07/09/35/grapes-5720372_1280.jpg"
    },
    {
        "id": "1330095",
        "src640": "https://cdn.pixabay.com/photo/2016/04/15/00/45/grill-1330095_640.jpg",
        "src1280": "https://cdn.pixabay.com/photo/2016/04/15/00/45/grill-1330095_1280.jpg"
    },
    {
        "id": "7274782",
        "src640": "https://cdn.pixabay.com/photo/2022/06/21/00/39/pineapple-7274782_640.jpg",
        "src1280": "https://cdn.pixabay.com/photo/2022/06/21/00/39/pineapple-7274782_1280.jpg"
    },
    {
        "id": "5029296",
        "src640": "https://cdn.pixabay.com/photo/2020/04/11/08/07/vegetarian-5029296_640.jpg",
        "src1280": "https://cdn.pixabay.com/photo/2020/04/11/08/07/vegetarian-5029296_1280.jpg"
    },
    {
        "id": "5094363",
        "src640": "https://cdn.pixabay.com/photo/2020/04/26/09/18/prairie-dogs-5094363_640.jpg",
        "src1280": "https://cdn.pixabay.com/photo/2020/04/26/09/18/prairie-dogs-5094363_1280.jpg"
    },
    {
        "id": "6171041",
        "src640": "https://cdn.pixabay.com/photo/2021/04/12/00/54/juice-6171041_640.jpg",
        "src1280": "https://cdn.pixabay.com/photo/2021/04/12/00/54/juice-6171041_1280.jpg"
    },
    {
        "id": "660552",
        "src640": "https://cdn.pixabay.com/photo/2015/03/05/16/24/parmesan-660552_640.jpg",
        "src1280": "https://cdn.pixabay.com/photo/2015/03/05/16/24/parmesan-660552_1280.jpg"
    },
    {
        "id": "898000",
        "src640": "https://cdn.pixabay.com/photo/2015/08/20/19/26/red-currant-898000_640.jpg",
        "src1280": "https://cdn.pixabay.com/photo/2015/08/20/19/26/red-currant-898000_1280.jpg"
    },
    {
        "id": "2154987",
        "src640": "https://cdn.pixabay.com/photo/2017/03/18/21/28/lobster-2154987_640.jpg",
        "src1280": "https://cdn.pixabay.com/photo/2017/03/18/21/28/lobster-2154987_1280.jpg"
    },
    {
        "id": "606966",
        "src640": "https://cdn.pixabay.com/photo/2015/01/21/17/19/vegetables-606966_640.jpg",
        "src1280": "https://cdn.pixabay.com/photo/2015/01/21/17/19/vegetables-606966_1280.jpg"
    },
    {
        "id": "8298620",
        "src640": "https://cdn.pixabay.com/photo/2023/10/06/16/11/paratha-8298620_640.jpg",
        "src1280": "https://cdn.pixabay.com/photo/2023/10/06/16/11/paratha-8298620_1280.jpg"
    },
    {
        "id": "2251840",
        "src640": "https://cdn.pixabay.com/photo/2017/04/22/17/11/baklava-2251840_640.jpg",
        "src1280": "https://cdn.pixabay.com/photo/2017/04/22/17/11/baklava-2251840_1280.jpg"
    },
    {
        "id": "2591541",
        "src640": "https://cdn.pixabay.com/photo/2017/08/06/11/28/olives-2591541_640.jpg",
        "src1280": "https://cdn.pixabay.com/photo/2017/08/06/11/28/olives-2591541_1280.jpg"
    },
    {
        "id": "4757691",
        "src640": "https://cdn.pixabay.com/photo/2020/01/11/14/31/rhubarb-4757691_640.jpg",
        "src1280": "https://cdn.pixabay.com/photo/2020/01/11/14/31/rhubarb-4757691_1280.jpg"
    },
    {
        "id": "5726705",
        "src640": "https://cdn.pixabay.com/photo/2020/11/09/13/32/pancakes-5726705_640.jpg",
        "src1280": "https://cdn.pixabay.com/photo/2020/11/09/13/32/pancakes-5726705_1280.jpg"
    },
    {
        "id": "2655276",
        "src640": "https://cdn.pixabay.com/photo/2017/08/18/15/08/breakfast-2655276_640.jpg",
        "src1280": "https://cdn.pixabay.com/photo/2017/08/18/15/08/breakfast-2655276_1280.jpg"
    },
    {
        "id": "8355724",
        "src640": "https://cdn.pixabay.com/photo/2023/10/31/18/13/mushroom-8355724_640.jpg",
        "src1280": "https://cdn.pixabay.com/photo/2023/10/31/18/13/mushroom-8355724_1280.jpg"
    },
    {
        "id": "58652",
        "src640": "https://cdn.pixabay.com/photo/2012/10/01/15/28/animal-58652_640.jpg",
        "src1280": "https://cdn.pixabay.com/photo/2012/10/01/15/28/animal-58652_1280.jpg"
    },
    {
        "id": "2597647",
        "src640": "https://cdn.pixabay.com/photo/2017/08/06/23/45/garlic-2597647_640.jpg",
        "src1280": "https://cdn.pixabay.com/photo/2017/08/06/23/45/garlic-2597647_1280.jpg"
    },
    {
        "id": "5047787",
        "src640": "https://cdn.pixabay.com/photo/2020/04/15/18/48/black-background-5047787_640.jpg",
        "src1280": "https://cdn.pixabay.com/photo/2020/04/15/18/48/black-background-5047787_1280.jpg"
    }
]