[
    {
        "id": "5232766",
        "src640": "https://cdn.pixabay.com/photo/2020/05/28/21/25/coffee-5232766_640.jpg",
        "src1280": "https://cdn.pixabay.com/photo/2020/05/28/21/25/coffee-5232766_1280.jpg"
    },
    {
        "id": "5580015",
        "src640": "https://cdn.pixabay.com/photo/2020/09/17/18/18/background-5580015_640.jpg",
        "src1280": "https://cdn.pixabay.com/photo/2020/09/17/18/18/background-5580015_1280.jpg"
    },
    {
        "id": "5580037",
        "src640": "https://cdn.pixabay.com/photo/2020/09/17/18/22/background-5580037_640.jpg",
        "src1280": "https://cdn.pixabay.com/photo/2020/09/17/18/22/background-5580037_1280.jpg"
    },
    {
        "id": "3270893",
        "src640": "https://cdn.pixabay.com/photo/2018/03/28/23/25/easter-bunny-3270893_640.jpg",
        "src1280": "https://cdn.pixabay.com/photo/2018/03/28/23/25/easter-bunny-3270893_1280.jpg"
    },
    {
        "id": "3524451",
        "src640": "https://cdn.pixabay.com/photo/2018/07/08/18/33/vegetables-3524451_640.jpg",
        "src1280": "https://cdn.pixabay.com/photo/2018/07/08/18/33/vegetables-3524451_1280.jpg"
    },
    {
        "id": "916621",
        "src640": "https://cdn.pixabay.com/photo/2015/09/01/08/16/chinese-916621_640.jpg",
        "src1280": "https://cdn.pixabay.com/photo/2015/09/01/08/16/chinese-916621_1280.jpg"
    },
    {
        "id": "164869",
        "src640": "https://cdn.pixabay.com/photo/2013/07/18/20/24/berry-164869_640.jpg",
        "src1280": "https://cdn.pixabay.com/photo/2013/07/18/20/24/berry-164869_1280.jpg"
    },
    {
        "id": "5935805",
        "src640": "https://cdn.pixabay.com/photo/2021/01/20/22/32/woman-5935805_640.jpg",
        "src1280": "https://cdn.pixabay.com/photo/2021/01/20/22/32/woman-5935805_1280.jpg"
    },
    {
        "id": "3541918",
        "src640": "https://cdn.pixabay.com/photo/2018/07/16/13/22/vegetables-3541918_640.jpg",
        "src1280": "https://cdn.pixabay.com/photo/2018/07/16/13/22/vegetables-3541918_1280.jpg"
    },
    {
        "id": "1838538",
        "src640": "https://cdn.pixabay.com/photo/2016/11/19/10/39/bowl-1838538_640.jpg",
        "src1280": "https://cdn.pixabay.com/photo/2016/11/19/10/39/bowl-1838538_1280.jpg"
    },
    {
        "id": "4049474",
        "src640": "https://cdn.pixabay.com/photo/2019/03/11/21/02/macarons-4049474_640.jpg",
        "src1280": "https://cdn.pixabay.com/photo/2019/03/11/21/02/macarons-4049474_1280.jpg"
    },
    {
        "id": "3950244",
        "src640": "https://cdn.pixabay.com/photo/2019/01/23/13/15/food-3950244_640.jpg",
        "src1280": "https://cdn.pixabay.com/photo/2019/01/23/13/15/food-3950244_1280.jpg"
    },
    {
        "id": "1239121",
        "src640": "https://cdn.pixabay.com/photo/2016/03/05/21/52/appetite-1239121_640.jpg",
        "src1280": "https://cdn.pixabay.com/photo/2016/03/05/21/52/appetite-1239121_1280.jpg"
    },
    {
        "id": "434664",
        "src640": "https://cdn.pixabay.com/photo/2014/09/03/15/12/canker-434664_640.jpg",
        "src1280": "https://cdn.pixabay.com/photo/2014/09/03/15/12/canker-434664_1280.jpg"
    },
    {
        "id": "2590599",
        "src640": "https://cdn.pixabay.com/photo/2017/08/06/09/20/food-2590599_640.jpg",
        "src1280": "https://cdn.pixabay.com/photo/2017/08/06/09/20/food-2590599_1280.jpg"
    },
    {
        "id": "7279388",
        "src640": "https://cdn.pixabay.com/photo/2022/06/23/09/38/food-and-drink-industry-7279388_640.jpg",
        "src1280": "https://cdn.pixabay.com/photo/2022/06/23/09/38/food-and-drink-industry-7279388_1280.jpg"
    },
    {
        "id": "1284383",
        "src640": "https://cdn.pixabay.com/photo/2016/03/27/21/40/food-1284383_640.jpg",
        "src1280": "https://cdn.pixabay.com/photo/2016/03/27/21/40/food-1284383_1280.jpg"
    },
    {
        "id": "3130569",
        "src640": "https://cdn.pixabay.com/photo/2018/02/04/18/56/meat-3130569_640.jpg",
        "src1280": "https://cdn.pixabay.com/photo/2018/02/04/18/56/meat-3130569_1280.jpg"
    },
    {
        "id": "592565",
        "src640": "https://cdn.pixabay.com/photo/2015/01/08/08/26/corn-leaves-592565_640.jpg",
        "src1280": "https://cdn.pixabay.com/photo/2015/01/08/08/26/corn-leaves-592565_1280.jpg"
    },
    {
        "id": "6828060",
        "src640": "https://cdn.pixabay.com/photo/2021/11/27/13/24/pear-6828060_640.jpg",
        "src1280": "https://cdn.pixabay.com/photo/2021/11/27/13/24/pear-6828060_1280.jpg"
    },
    {
        "id": "1176408",
        "src640": "https://cdn.pixabay.com/photo/2016/02/03/01/02/tomato-1176408_640.jpg",
        "src1280": "https://cdn.pixabay.com/photo/2016/02/03/01/02/tomato-1176408_1280.jpg"
    },
    {
        "id": "1104407",
        "src640": "https://cdn.pixabay.com/photo/2015/12/22/17/42/fruit-1104407_640.jpg",
        "src1280": "https://cdn.pixabay.com/photo/2015/12/22/17/42/fruit-1104407_1280.jpg"
    },
    {
        "id": "3450",
        "src640": "https://cdn.pixabay.com/photo/2010/12/16/01/41/cherries-3450_640.jpg",
        "src1280": "https://cdn.pixabay.com/photo/2010/12/16/01/41/cherries-3450_1280.jpg"
    },
    {
        "id": "761120",
        "src640": "https://cdn.pixabay.com/photo/2015/05/10/16/53/pancakes-761120_640.jpg",
        "src1280": "https://cdn.pixabay.com/photo/2015/05/10/16/53/pancakes-761120_1280.jpg"
    },
    {
        "id": "5960105",
        "src640": "https://cdn.pixabay.com/photo/2021/01/29/08/10/burger-5960105_640.jpg",
        "src1280": "https://cdn.pixabay.com/photo/2021/01/29/08/10/burger-5960105_1280.jpg"
    },
    {
        "id": "2069020",
        "src640": "https://cdn.pixabay.com/photo/2017/02/15/15/17/meal-2069020_640.jpg",
        "src1280": "https://cdn.pixabay.com/photo/2017/02/15/15/17/meal-2069020_1280.jpg"
    },
    {
        "id": "3687347",
        "src640": "https://cdn.pixabay.com/photo/2018/09/18/21/43/pumpkin-3687347_640.jpg",
        "src1280": "https://cdn.pixabay.com/photo/2018/09/18/21/43/pumpkin-3687347_1280.jpg"
    },
    {
        "id": "1457515",
        "src640": "https://cdn.pixabay.com/photo/2016/06/14/21/21/cherry-1457515_640.jpg",
        "src1280": "https://cdn.pixabay.com/photo/2016/06/14/21/21/cherry-1457515_1280.jpg"
    },
    {
        "id": "5707467",
        "src640": "https://cdn.pixabay.com/photo/2020/11/02/18/06/chocolate-5707467_640.jpg",
        "src1280": "https://cdn.pixabay.com/photo/2020/11/02/18/06/chocolate-5707467_1280.jpg"
    },
    {
        "id": "3531915",
        "src640": "https://cdn.pixabay.com/photo/2018/07/11/21/18/green-3531915_640.jpg",
        "src1280": "https://cdn.pixabay.com/photo/2018/07/11/21/18/green-3531915_1280.jpg"
    },
    {
        "id": "3535344",
        "src640": "https://cdn.pixabay.com/photo/2018/07/13/09/49/currants-3535344_640.jpg",
        "src1280": "https://cdn.pixabay.com/photo/2018/07/13/09/49/currants-3535344_1280.jpg"
    },
    {
        "id": "5151353",
        "src640": "https://cdn.pixabay.com/photo/2020/05/09/20/20/asparagus-5151353_640.jpg",
        "src1280": "https://cdn.pixabay.com/photo/2020/05/09/20/20/asparagus-5151353_1280.jpg"
    },
    {
        "id": "5509206",
        "src640": "https://cdn.pixabay.com/photo/2020/08/22/18/47/wife-5509206_640.jpg",
        "src1280": "https://cdn.pixabay.com/photo/2020/08/22/18/47/wife-5509206_1280.jpg"
    },
    {
        "id": "7323692",
        "src640": "https://cdn.pixabay.com/photo/2022/07/15/18/16/beef-burger-7323692_640.jpg",
        "src1280": "https://cdn.pixabay.com/photo/2022/07/15/18/16/beef-burger-7323692_1280.jpg"
    },
    {
        "id": "2789928",
        "src640": "https://cdn.pixabay.com/photo/2017/09/26/20/10/ice-2789928_640.jpg",
        "src1280": "https://cdn.pixabay.com/photo/2017/09/26/20/10/ice-2789928_1280.jpg"
    },
    {
        "id": "802991",
        "src640": "https://cdn.pixabay.com/photo/2015/06/09/06/16/grapefruit-802991_640.jpg",
        "src1280": "https://cdn.pixabay.com/photo/2015/06/09/06/16/grapefruit-802991_1280.jpg"
    },
    {
        "id": "6760885",
        "src640": "https://cdn.pixabay.com/photo/2021/11/01/15/55/vegetables-6760885_640.jpg",
        "src1280": "https://cdn.pixabay.com/photo/2021/11/01/15/55/vegetables-6760885_1280.jpg"
    },
    {
        "id": "2786",
        "src640": "https://cdn.pixabay.com/photo/2010/12/13/10/24/cheese-2786_640.jpg",
        "src1280": "https://cdn.pixabay.com/photo/2010/12/13/10/24/cheese-2786_1280.jpg"
    },
    {
        "id": "7808566",
        "src640": "https://cdn.pixabay.com/photo/2023/02/23/11/12/egg-7808566_640.jpg",
        "src1280": "https://cdn.pixabay.com/photo/2023/02/23/11/12/egg-7808566_1280.jpg"
    },
    {
        "id": "16933",
        "src640": "https://cdn.pixabay.com/photo/2012/02/25/19/07/bacon-16933_640.jpg",
        "src1280": "https://cdn.pixabay.com/photo/2012/02/25/19/07/bacon-16933_1280.jpg"
    },
    {
        "id": "4246724",
        "src640": "https://cdn.pixabay.com/photo/2019/06/02/15/56/picnic-4246724_640.jpg",
        "src1280": "https://cdn.pixabay.com/photo/2019/06/02/15/56/picnic-4246724_1280.jpg"
    },
    {
        "id": "6714996",
        "src640": "https://cdn.pixabay.com/photo/2021/10/16/13/03/murtabak-6714996_640.jpg",
        "src1280": "https://cdn.pixabay.com/photo/2021/10/16/13/03/murtabak-6714996_1280.jpg"
    },
    {
        "id": "7305326",
        "src640": "https://cdn.pixabay.com/photo/2022/07/06/15/12/mute-swan-7305326_640.jpg",
        "src1280": "https://cdn.pixabay.com/photo/2022/07/06/15/12/mute-swan-7305326_1280.jpg"
    },
    {
        "id": "1757404",
        "src640": "https://cdn.pixabay.com/photo/2016/10/21/08/00/food-1757404_640.jpg",
        "src1280": "https://cdn.pixabay.com/photo/2016/10/21/08/00/food-1757404_1280.jpg"
    },
    {
        "id": "700064",
        "src640": "https://cdn.pixabay.com/photo/2015/03/30/19/37/smoked-meat-700064_640.jpg",
        "src1280": "https://cdn.pixabay.com/photo/2015/03/30/19/37/smoked-meat-700064_1280.jpg"
    },
    {
        "id": "5900725",
        "src640": "https://cdn.pixabay.com/photo/2021/01/08/19/59/macarons-5900725_640.jpg",
        "src1280": "https://cdn.pixabay.com/photo/2021/01/08/19/59/macarons-5900725_1280.jpg"
    },
    {
        "id": "4226737",
        "src640": "https://cdn.pixabay.com/photo/2019/05/24/17/03/egg-4226737_640.jpg",
        "src1280": "https://cdn.pixabay.com/photo/2019/05/24/17/03/egg-4226737_1280.jpg"
    },
    {
        "id": "5891918",
        "src640": "https://cdn.pixabay.com/photo/2021/01/05/17/19/apple-pie-5891918_640.jpg",
        "src1280": "https://cdn.pixabay.com/photo/2021/01/05/17/19/apple-pie-5891918_1280.jpg"
    },
    {
        "id": "4046579",
        "src640": "https://cdn.pixabay.com/photo/2019/03/10/16/46/donuts-4046579_640.jpg",
        "src1280": "https://cdn.pixabay.com/photo/2019/03/10/16/46/donuts-4046579_1280.jpg"
    },
    {
        "id": "5729381",
        "src640": "https://cdn.pixabay.com/photo/2020/11/10/10/57/wedding-5729381_640.jpg",
        "src1280": "https://cdn.pixabay.com/photo/2020/11/10/10/57/wedding-5729381_1280.jpg"
    },
    {
        "id": "4423770",
        "src640": "https://cdn.pixabay.com/photo/2019/08/22/15/02/blackberries-4423770_640.jpg",
        "src1280": "https://cdn.pixabay.com/photo/2019/08/22/15/02/blackberries-4423770_1280.jpg"
    },
    {
        "id": "4388460",
        "src640": "https://cdn.pixabay.com/photo/2019/08/06/13/58/sugar-4388460_640.jpg",
        "src1280": "https://cdn.pixabay.com/photo/2019/08/06/13/58/sugar-4388460_1280.jpg"
    },
    {
        "id": "655894",
        "src640": "https://cdn.pixabay.com/photo/2015/03/02/12/00/breakfast-655894_640.jpg",
        "src1280": "https://cdn.pixabay.com/photo/2015/03/02/12/00/breakfast-655894_1280.jpg"
    },
    {
        "id": "3574406",
        "src640": "https://cdn.pixabay.com/photo/2018/07/31/07/44/breakfast-3574406_640.jpg",
        "src1280": "https://cdn.pixabay.com/photo/2018/07/31/07/44/breakfast-3574406_1280.jpg"
    },
    {
        "id": "4862441",
        "src640": "https://cdn.pixabay.com/photo/2020/02/19/15/26/spices-4862441_640.jpg",
        "src1280": "https://cdn.pixabay.com/photo/2020/02/19/15/26/spices-4862441_1280.jpg"
    },
    {
        "id": "3258364",
        "src640": "https://cdn.pixabay.com/photo/2018/03/25/00/15/betel-nut-3258364_640.jpg",
        "src1280": "https://cdn.pixabay.com/photo/2018/03/25/00/15/betel-nut-3258364_1280.jpg"
    },
    {
        "id": "7756878",
        "src640": "https://cdn.pixabay.com/photo/2023/01/31/00/47/pudding-7756878_640.jpg",
        "src1280": "https://cdn.pixabay.com/photo/2023/01/31/00/47/pudding-7756878_1280.jpg"
    },
    {
        "id": "4596273",
        "src640": "https://cdn.pixabay.com/photo/2019/11/02/12/54/cereals-4596273_640.jpg",
        "src1280": "https://cdn.pixabay.com/photo/2019/11/02/12/54/cereals-4596273_1280.jpg"
    },
    {
        "id": "696417",
        "src640": "https://cdn.pixabay.com/photo/2015/03/28/19/58/sandwich-696417_640.jpg",
        "src1280": "https://cdn.pixabay.com/photo/2015/03/28/19/58/sandwich-696417_1280.jpg"
    },
    {
        "id": "2644426",
        "src640": "https://cdn.pixabay.com/photo/2017/08/15/15/46/bread-2644426_640.jpg",
        "src1280": "https://cdn.pixabay.com/photo/2017/08/15/15/46/bread-2644426_1280.jpg"
    },
    {
        "id": "1239332",
        "src640": "https://cdn.pixabay.com/photo/2016/03/05/22/36/animal-1239332_640.jpg",
        "src1280": "https://cdn.pixabay.com/photo/2016/03/05/22/36/animal-1239332_1280.jpg"
    },
    {
        "id": "3176773",
        "src640": "https://cdn.pixabay.com/photo/2018/02/23/22/04/food-3176773_640.jpg",
        "src1280": "https://cdn.pixabay.com/photo/2018/02/23/22/04/food-3176773_1280.jpg"
    },
    {
        "id": "4842066",
        "src640": "https://cdn.pixabay.com/photo/2020/02/12/09/13/churro-4842066_640.jpg",
        "src1280": "https://cdn.pixabay.com/photo/2020/02/12/09/13/churro-4842066_1280.jpg"
    },
    {
        "id": "4901172",
        "src640": "https://cdn.pixabay.com/photo/2020/03/04/10/01/pig-4901172_640.jpg",
        "src1280": "https://cdn.pixabay.com/photo/2020/03/04/10/01/pig-4901172_1280.jpg"
    },
    {
        "id": "1853355",
        "src640": "https://cdn.pixabay.com/photo/2016/11/23/14/54/adult-1853355_640.jpg",
        "src1280": "https://cdn.pixabay.com/photo/2016/11/23/14/54/adult-1853355_1280.jpg"
    },
    {
        "id": "4736837",
        "src640": "https://cdn.pixabay.com/photo/2020/01/02/21/16/cheesecake-4736837_640.jpg",
        "src1280": "https://cdn.pixabay.com/photo/2020/01/02/21/16/cheesecake-4736837_1280.jpg"
    },
    {
        "id": "3541912",
        "src640": "https://cdn.pixabay.com/photo/2018/07/16/13/21/vegetables-3541912_640.jpg",
        "src1280": "https://cdn.pixabay.com/photo/2018/07/16/13/21/vegetables-3541912_1280.jpg"
    },
    {
        "id": "2940448",
        "src640": "https://cdn.pixabay.com/photo/2017/11/11/20/56/food-2940448_640.jpg",
        "src1280": "https://cdn.pixabay.com/photo/2017/11/11/20/56/food-2940448_1280.jpg"
    },
    {
        "id": "73745",
        "src640": "https://cdn.pixabay.com/photo/2013/01/05/11/27/pizza-73745_640.jpg",
        "src1280": "https://cdn.pixabay.com/photo/2013/01/05/11/27/pizza-73745_1280.jpg"
    },
    {
        "id": "2559667",
        "src640": "https://cdn.pixabay.com/photo/2017/07/31/18/12/blackberry-2559667_640.jpg",
        "src1280": "https://cdn.pixabay.com/photo/2017/07/31/18/12/blackberry-2559667_1280.jpg"
    },
    {
        "id": "3365223",
        "src640": "https://cdn.pixabay.com/photo/2018/05/01/10/38/burger-3365223_640.jpg",
        "src1280": "https://cdn.pixabay.com/photo/2018/05/01/10/38/burger-3365223_1280.jpg"
    },
    {
        "id": "3287614",
        "src640": "https://cdn.pixabay.com/photo/2018/04/03/18/31/fruit-3287614_640.jpg",
        "src1280": "https://cdn.pixabay.com/photo/2018/04/03/18/31/fruit-3287614_1280.jpg"
    },
    {
        "id": "2558907",
        "src640": "https://cdn.pixabay.com/photo/2017/07/31/16/47/coffee-2558907_640.jpg",
        "src1280": "https://cdn.pixabay.com/photo/2017/07/31/16/47/coffee-2558907_1280.jpg"
    },
    {
        "id": "1757301",
        "src640": "https://cdn.pixabay.com/photo/2016/10/21/06/54/kvass-1757301_640.jpg",
        "src1280": "https://cdn.pixabay.com/photo/2016/10/21/06/54/kvass-1757301_1280.jpg"
    },
    {
        "id": "905381",
        "src640": "https://cdn.pixabay.com/photo/2015/08/24/18/07/tomatoes-905381_640.jpg",
        "src1280": "https://cdn.pixabay.com/photo/2015/08/24/18/07/tomatoes-905381_1280.jpg"
    },
    {
        "id": "3676793",
        "src640": "https://cdn.pixabay.com/photo/2018/09/14/11/12/food-3676793_640.jpg",
        "src1280": "https://cdn.pixabay.com/photo/2018/09/14/11/12/food-3676793_1280.jpg"
    }
]