[
    {
        "id": "7291159",
        "src640": "https://cdn.pixabay.com/photo/2022/06/29/07/46/the-little-girl-7291159_640.jpg",
        "src1280": "https://cdn.pixabay.com/photo/2022/06/29/07/46/the-little-girl-7291159_1280.jpg"
    },
    {
        "id": "2766445",
        "src640": "https://cdn.pixabay.com/photo/2017/09/19/20/10/breakfast-2766445_640.jpg",
        "src1280": "https://cdn.pixabay.com/photo/2017/09/19/20/10/breakfast-2766445_1280.jpg"
    },
    {
        "id": "4388458",
        "src640": "https://cdn.pixabay.com/photo/2019/08/06/13/56/sugar-4388458_640.jpg",
        "src1280": "https://cdn.pixabay.com/photo/2019/08/06/13/56/sugar-4388458_1280.jpg"
    },
    {
        "id": "3185005",
        "src640": "https://cdn.pixabay.com/photo/2018/02/27/09/14/garlic-3185005_640.jpg",
        "src1280": "https://cdn.pixabay.com/photo/2018/02/27/09/14/garlic-3185005_1280.jpg"
    },
    {
        "id": "868075",
        "src640": "https://cdn.pixabay.com/photo/2015/07/30/17/24/pineapple-868075_640.jpg",
        "src1280": "https://cdn.pixabay.com/photo/2015/07/30/17/24/pineapple-868075_1280.jpg"
    },
    {
        "id": "5732336",
        "src640": "https://cdn.pixabay.com/photo/2020/11/11/12/17/breakfast-5732336_640.jpg",
        "src1280": "https://cdn.pixabay.com/photo/2020/11/11/12/17/breakfast-5732336_1280.jpg"
    },
    {
        "id": "1046525",
        "src640": "https://cdn.pixabay.com/photo/2015/11/16/22/08/small-birds-1046525_640.jpg",
        "src1280": "https://cdn.pixabay.com/photo/2015/11/16/22/08/small-birds-1046525_1280.jpg"
    },
    {
        "id": "6129091",
        "src640": "https://cdn.pixabay.com/photo/2021/03/27/17/18/twigs-6129091_640.jpg",
        "src1280": "https://cdn.pixabay.com/photo/2021/03/27/17/18/twigs-6129091_1280.jpg"
    },
    {
        "id": "2308903",
        "src640": "https://cdn.pixabay.com/photo/2017/05/13/07/30/milk-2308903_640.jpg",
        "src1280": "https://cdn.pixabay.com/photo/2017/05/13/07/30/milk-2308903_1280.jpg"
    },
    {
        "id": "3596252",
        "src640": "https://cdn.pixabay.com/photo/2018/08/10/07/19/color-3596252_640.jpg",
        "src1280": "https://cdn.pixabay.com/photo/2018/08/10/07/19/color-3596252_1280.jpg"
    },
    {
        "id": "4878995",
        "src640": "https://cdn.pixabay.com/photo/2020/02/25/14/24/snack-4878995_640.jpg",
        "src1280": "https://cdn.pixabay.com/photo/2020/02/25/14/24/snack-4878995_1280.jpg"
    },
    {
        "id": "92416",
        "src640": "https://cdn.pixabay.com/photo/2013/03/11/09/24/bottle-92416_640.jpg",
        "src1280": "https://cdn.pixabay.com/photo/2013/03/11/09/24/bottle-92416_1280.jpg"
    },
    {
        "id": "670344",
        "src640": "https://cdn.pixabay.com/photo/2015/03/12/15/03/yogurt-670344_640.jpg",
        "src1280": "https://cdn.pixabay.com/photo/2015/03/12/15/03/yogurt-670344_1280.jpg"
    },
    {
        "id": "7785437",
        "src640": "https://cdn.pixabay.com/photo/2023/02/12/16/04/soup-7785437_640.jpg",
        "src1280": "https://cdn.pixabay.com/photo/2023/02/12/16/04/soup-7785437_1280.jpg"
    },
    {
        "id": "5455724",
        "src640": "https://cdn.pixabay.com/photo/2020/08/01/16/06/grain-5455724_640.jpg",
        "src1280": "https://cdn.pixabay.com/photo/2020/08/01/16/06/grain-5455724_1280.jpg"
    },
    {
        "id": "2760715",
        "src640": "https://cdn.pixabay.com/photo/2017/09/18/05/07/apple-2760715_640.jpg",
        "src1280": "https://cdn.pixabay.com/photo/2017/09/18/05/07/apple-2760715_1280.jpg"
    },
    {
        "id": "5227756",
        "src640": "https://cdn.pixabay.com/photo/2020/05/27/15/52/food-5227756_640.jpg",
        "src1280": "https://cdn.pixabay.com/photo/2020/05/27/15/52/food-5227756_1280.jpg"
    },
    {
        "id": "74349",
        "src640": "https://cdn.pixabay.com/photo/2013/01/08/01/25/lemon-verbena-74349_640.jpg",
        "src1280": "https://cdn.pixabay.com/photo/2013/01/08/01/25/lemon-verbena-74349_1280.jpg"
    },
    {
        "id": "1149963",
        "src640": "https://cdn.pixabay.com/photo/2016/01/19/17/54/pineapple-1149963_640.jpg",
        "src1280": "https://cdn.pixabay.com/photo/2016/01/19/17/54/pineapple-1149963_1280.jpg"
    },
    {
        "id": "5271514",
        "src640": "https://cdn.pixabay.com/photo/2020/06/07/18/20/county-fair-5271514_640.jpg",
        "src1280": "https://cdn.pixabay.com/photo/2020/06/07/18/20/county-fair-5271514_1280.jpg"
    },
    {
        "id": "1818542",
        "src640": "https://cdn.pixabay.com/photo/2016/11/12/10/07/goat-1818542_640.jpg",
        "src1280": "https://cdn.pixabay.com/photo/2016/11/12/10/07/goat-1818542_1280.jpg"
    },
    {
        "id": "1029036",
        "src640": "https://cdn.pixabay.com/photo/2015/11/06/15/36/fish-1029036_640.jpg",
        "src1280": "https://cdn.pixabay.com/photo/2015/11/06/15/36/fish-1029036_1280.jpg"
    },
    {
        "id": "3787428",
        "src640": "https://cdn.pixabay.com/photo/2018/11/01/07/37/drink-3787428_640.jpg",
        "src1280": "https://cdn.pixabay.com/photo/2018/11/01/07/37/drink-3787428_1280.jpg"
    },
    {
        "id": "2247540",
        "src640": "https://cdn.pixabay.com/photo/2017/04/21/03/47/cake-2247540_640.jpg",
        "src1280": "https://cdn.pixabay.com/photo/2017/04/21/03/47/cake-2247540_1280.jpg"
    },
    {
        "id": "1141220",
        "src640": "https://cdn.pixabay.com/photo/2016/01/15/06/37/western-1141220_640.jpg",
        "src1280": "https://cdn.pixabay.com/photo/2016/01/15/06/37/western-1141220_1280.jpg"
    },
    {
        "id": "6064",
        "src640": "https://cdn.pixabay.com/photo/2011/04/05/10/08/pork-6064_640.jpg",
        "src1280": "https://cdn.pixabay.com/photo/2011/04/05/10/08/pork-6064_1280.jpg"
    },
    {
        "id": "7403645",
        "src640": "https://cdn.pixabay.com/photo/2022/08/22/13/08/pancakes-7403645_640.jpg",
        "src1280": "https://cdn.pixabay.com/photo/2022/08/22/13/08/pancakes-7403645_1280.jpg"
    },
    {
        "id": "3160313",
        "src640": "https://cdn.pixabay.com/photo/2018/02/17/16/37/carambola-3160313_640.jpg",
        "src1280": "https://cdn.pixabay.com/photo/2018/02/17/16/37/carambola-3160313_1280.jpg"
    },
    {
        "id": "4599825",
        "src640": "https://cdn.pixabay.com/photo/2019/11/03/23/21/paprika-4599825_640.jpg",
        "src1280": "https://cdn.pixabay.com/photo/2019/11/03/23/21/paprika-4599825_1280.jpg"
    },
    {
        "id": "7636322",
        "src640": "https://cdn.pixabay.com/photo/2022/12/05/09/20/monkey-7636322_640.jpg",
        "src1280": "https://cdn.pixabay.com/photo/2022/12/05/09/20/monkey-7636322_1280.jpg"
    },
    {
        "id": "5116001",
        "src640": "https://cdn.pixabay.com/photo/2020/05/01/09/12/cupcakes-5116001_640.jpg",
        "src1280": "https://cdn.pixabay.com/photo/2020/05/01/09/12/cupcakes-5116001_1280.jpg"
    },
    {
        "id": "7743509",
        "src640": "https://cdn.pixabay.com/photo/2023/01/25/12/48/corn-7743509_640.jpg",
        "src1280": "https://cdn.pixabay.com/photo/2023/01/25/12/48/corn-7743509_1280.jpg"
    },
    {
        "id": "4057485",
        "src640": "https://cdn.pixabay.com/photo/2019/03/15/16/34/candy-4057485_640.jpg",
        "src1280": "https://cdn.pixabay.com/photo/2019/03/15/16/34/candy-4057485_1280.jpg"
    },
    {
        "id": "5793",
        "src640": "https://cdn.pixabay.com/photo/2011/03/24/11/04/pineapple-5793_640.jpg",
        "src1280": "https://cdn.pixabay.com/photo/2011/03/24/11/04/pineapple-5793_1280.jpg"
    },
    {
        "id": "4280364",
        "src640": "https://cdn.pixabay.com/photo/2019/06/17/16/25/willamette-4280364_640.jpg",
        "src1280": "https://cdn.pixabay.com/photo/2019/06/17/16/25/willamette-4280364_1280.jpg"
    },
    {
        "id": "8279458",
        "src640": "https://cdn.pixabay.com/photo/2023/09/27/12/11/wine-8279458_640.jpg",
        "src1280": "https://cdn.pixabay.com/photo/2023/09/27/12/11/wine-8279458_1280.jpg"
    },
    {
        "id": "3541917",
        "src640": "https://cdn.pixabay.com/photo/2018/07/16/13/22/vegetables-3541917_640.jpg",
        "src1280": "https://cdn.pixabay.com/photo/2018/07/16/13/22/vegetables-3541917_1280.jpg"
    },
    {
        "id": "1936339",
        "src640": "https://cdn.pixabay.com/photo/2016/12/28/15/44/melon-1936339_640.jpg",
        "src1280": "https://cdn.pixabay.com/photo/2016/12/28/15/44/melon-1936339_1280.jpg"
    },
    {
        "id": "5660175",
        "src640": "https://cdn.pixabay.com/photo/2020/10/16/17/21/apples-5660175_640.jpg",
        "src1280": "https://cdn.pixabay.com/photo/2020/10/16/17/21/apples-5660175_1280.jpg"
    },
    {
        "id": "7937832",
        "src640": "https://cdn.pixabay.com/photo/2023/04/19/13/51/vegetables-7937832_640.jpg",
        "src1280": "https://cdn.pixabay.com/photo/2023/04/19/13/51/vegetables-7937832_1280.jpg"
    },
    {
        "id": "4048066",
        "src640": "https://cdn.pixabay.com/photo/2019/03/11/08/25/cafe-4048066_640.jpg",
        "src1280": "https://cdn.pixabay.com/photo/2019/03/11/08/25/cafe-4048066_1280.jpg"
    },
    {
        "id": "3789554",
        "src640": "https://cdn.pixabay.com/photo/2018/11/02/03/49/coffee-3789554_640.jpg",
        "src1280": "https://cdn.pixabay.com/photo/2018/11/02/03/49/coffee-3789554_1280.jpg"
    },
    {
        "id": "5167546",
        "src640": "https://cdn.pixabay.com/photo/2020/05/13/13/52/fields-5167546_640.jpg",
        "src1280": "https://cdn.pixabay.com/photo/2020/05/13/13/52/fields-5167546_1280.jpg"
    },
    {
        "id": "3996458",
        "src640": "https://cdn.pixabay.com/photo/2019/02/14/11/44/apple-pie-3996458_640.jpg",
        "src1280": "https://cdn.pixabay.com/photo/2019/02/14/11/44/apple-pie-3996458_1280.jpg"
    },
    {
        "id": "3281952",
        "src640": "https://cdn.pixabay.com/photo/2018/04/01/19/54/pizza-3281952_640.jpg",
        "src1280": "https://cdn.pixabay.com/photo/2018/04/01/19/54/pizza-3281952_1280.jpg"
    },
    {
        "id": "3447299",
        "src640": "https://cdn.pixabay.com/photo/2018/06/01/22/07/strawberry-square-3447299_640.jpg",
        "src1280": "https://cdn.pixabay.com/photo/2018/06/01/22/07/strawberry-square-3447299_1280.jpg"
    },
    {
        "id": "2587413",
        "src640": "https://cdn.pixabay.com/photo/2017/08/06/01/20/ingredients-2587413_640.jpg",
        "src1280": "https://cdn.pixabay.com/photo/2017/08/06/01/20/ingredients-2587413_1280.jpg"
    },
    {
        "id": "2122188",
        "src640": "https://cdn.pixabay.com/photo/2017/03/06/18/39/lemons-2122188_640.jpg",
        "src1280": "https://cdn.pixabay.com/photo/2017/03/06/18/39/lemons-2122188_1280.jpg"
    },
    {
        "id": "6002008",
        "src640": "https://cdn.pixabay.com/photo/2021/02/10/13/03/orange-6002008_640.jpg",
        "src1280": "https://cdn.pixabay.com/photo/2021/02/10/13/03/orange-6002008_1280.jpg"
    },
    {
        "id": "3388538",
        "src640": "https://cdn.pixabay.com/photo/2018/05/10/19/42/pasta-3388538_640.jpg",
        "src1280": "https://cdn.pixabay.com/photo/2018/05/10/19/42/pasta-3388538_1280.jpg"
    },
    {
        "id": "8323371",
        "src640": "https://cdn.pixabay.com/photo/2023/10/18/09/17/ice-cream-8323371_640.jpg",
        "src1280": "https://cdn.pixabay.com/photo/2023/10/18/09/17/ice-cream-8323371_1280.jpg"
    },
    {
        "id": "4922675",
        "src640": "https://cdn.pixabay.com/photo/2020/03/11/16/56/pepper-4922675_640.jpg",
        "src1280": "https://cdn.pixabay.com/photo/2020/03/11/16/56/pepper-4922675_1280.jpg"
    },
    {
        "id": "58391",
        "src640": "https://cdn.pixabay.com/photo/2012/09/28/15/12/banana-flowers-58391_640.jpg",
        "src1280": "https://cdn.pixabay.com/photo/2012/09/28/15/12/banana-flowers-58391_1280.jpg"
    },
    {
        "id": "4677222",
        "src640": "https://cdn.pixabay.com/photo/2019/12/06/12/05/cookies-4677222_640.jpg",
        "src1280": "https://cdn.pixabay.com/photo/2019/12/06/12/05/cookies-4677222_1280.jpg"
    },
    {
        "id": "5087206",
        "src640": "https://cdn.pixabay.com/photo/2020/04/24/15/00/chocolate-bread-5087206_640.jpg",
        "src1280": "https://cdn.pixabay.com/photo/2020/04/24/15/00/chocolate-bread-5087206_1280.jpg"
    },
    {
        "id": "5384828",
        "src640": "https://cdn.pixabay.com/photo/2020/07/08/18/35/vegetables-5384828_640.jpg",
        "src1280": "https://cdn.pixabay.com/photo/2020/07/08/18/35/vegetables-5384828_1280.jpg"
    },
    {
        "id": "5705157",
        "src640": "https://cdn.pixabay.com/photo/2020/11/01/23/06/nuts-5705157_640.jpg",
        "src1280": "https://cdn.pixabay.com/photo/2020/11/01/23/06/nuts-5705157_1280.jpg"
    },
    {
        "id": "8283261",
        "src640": "https://cdn.pixabay.com/photo/2023/09/29/07/57/fruit-8283261_640.jpg",
        "src1280": "https://cdn.pixabay.com/photo/2023/09/29/07/57/fruit-8283261_1280.jpg"
    },
    {
        "id": "3590177",
        "src640": "https://cdn.pixabay.com/photo/2018/08/07/16/47/raspberries-3590177_640.jpg",
        "src1280": "https://cdn.pixabay.com/photo/2018/08/07/16/47/raspberries-3590177_1280.jpg"
    },
    {
        "id": "4223800",
        "src640": "https://cdn.pixabay.com/photo/2019/05/23/12/33/kitchen-4223800_640.jpg",
        "src1280": "https://cdn.pixabay.com/photo/2019/05/23/12/33/kitchen-4223800_1280.jpg"
    },
    {
        "id": "5705162",
        "src640": "https://cdn.pixabay.com/photo/2020/11/01/23/15/cookies-5705162_640.jpg",
        "src1280": "https://cdn.pixabay.com/photo/2020/11/01/23/15/cookies-5705162_1280.jpg"
    },
    {
        "id": "2708678",
        "src640": "https://cdn.pixabay.com/photo/2017/09/02/21/51/hot-peppers-2708678_640.jpg",
        "src1280": "https://cdn.pixabay.com/photo/2017/09/02/21/51/hot-peppers-2708678_1280.jpg"
    },
    {
        "id": "3169623",
        "src640": "https://cdn.pixabay.com/photo/2018/02/21/07/20/food-3169623_640.jpg",
        "src1280": "https://cdn.pixabay.com/photo/2018/02/21/07/20/food-3169623_1280.jpg"
    },
    {
        "id": "4265997",
        "src640": "https://cdn.pixabay.com/photo/2019/06/11/04/00/pork-4265997_640.jpg",
        "src1280": "https://cdn.pixabay.com/photo/2019/06/11/04/00/pork-4265997_1280.jpg"
    },
    {
        "id": "1017433",
        "src640": "https://cdn.pixabay.com/photo/2015/11/01/19/26/naturmort-1017433_640.jpg",
        "src1280": "https://cdn.pixabay.com/photo/2015/11/01/19/26/naturmort-1017433_1280.jpg"
    },
    {
        "id": "3413976",
        "src640": "https://cdn.pixabay.com/photo/2018/05/19/18/13/red-3413976_640.jpg",
        "src1280": "https://cdn.pixabay.com/photo/2018/05/19/18/13/red-3413976_1280.jpg"
    },
    {
        "id": "962413",
        "src640": "https://cdn.pixabay.com/photo/2015/09/28/17/42/fruit-962413_640.jpg",
        "src1280": "https://cdn.pixabay.com/photo/2015/09/28/17/42/fruit-962413_1280.jpg"
    },
    {
        "id": "3444160",
        "src640": "https://cdn.pixabay.com/photo/2018/05/31/14/41/papaya-3444160_640.jpg",
        "src1280": "https://cdn.pixabay.com/photo/2018/05/31/14/41/papaya-3444160_1280.jpg"
    },
    {
        "id": "1543255",
        "src640": "https://cdn.pixabay.com/photo/2016/07/26/16/44/cookies-1543255_640.jpg",
        "src1280": "https://cdn.pixabay.com/photo/2016/07/26/16/44/cookies-1543255_1280.jpg"
    },
    {
        "id": "3171660",
        "src640": "https://cdn.pixabay.com/photo/2018/02/21/22/09/blood-orange-3171660_640.jpg",
        "src1280": "https://cdn.pixabay.com/photo/2018/02/21/22/09/blood-orange-3171660_1280.jpg"
    },
    {
        "id": "5931581",
        "src640": "https://cdn.pixabay.com/photo/2021/01/19/15/40/brownies-5931581_640.jpg",
        "src1280": "https://cdn.pixabay.com/photo/2021/01/19/15/40/brownies-5931581_1280.jpg"
    },
    {
        "id": "932956",
        "src640": "https://cdn.pixabay.com/photo/2015/09/09/20/02/breakfast-932956_640.jpg",
        "src1280": "https://cdn.pixabay.com/photo/2015/09/09/20/02/breakfast-932956_1280.jpg"
    },
    {
        "id": "3087217",
        "src640": "https://cdn.pixabay.com/photo/2018/01/17/00/58/pepper-3087217_640.jpg",
        "src1280": "https://cdn.pixabay.com/photo/2018/01/17/00/58/pepper-3087217_1280.jpg"
    },
    {
        "id": "8308657",
        "src640": "https://cdn.pixabay.com/photo/2023/10/11/13/31/pattern-8308657_640.jpg",
        "src1280": "https://cdn.pixabay.com/photo/2023/10/11/13/31/pattern-8308657_1280.jpg"
    },
    {
        "id": "4530217",
        "src640": "https://cdn.pixabay.com/photo/2019/10/06/13/25/egg-4530217_640.jpg",
        "src1280": "https://cdn.pixabay.com/photo/2019/10/06/13/25/egg-4530217_1280.jpg"
    },
    {
        "id": "327078",
        "src640": "https://cdn.pixabay.com/photo/2014/04/18/10/40/fig-327078_640.jpg",
        "src1280": "https://cdn.pixabay.com/photo/2014/04/18/10/40/fig-327078_1280.jpg"
    },
    {
        "id": "64407",
        "src640": "https://cdn.pixabay.com/photo/2012/11/06/21/03/inflorescences-64407_640.jpg",
        "src1280": "https://cdn.pixabay.com/photo/2012/11/06/21/03/inflorescences-64407_1280.jpg"
    },
    {
        "id": "4867832",
        "src640": "https://cdn.pixabay.com/photo/2020/02/21/15/26/sausage-4867832_640.jpg",
        "src1280": "https://cdn.pixabay.com/photo/2020/02/21/15/26/sausage-4867832_1280.jpg"
    },
    {
        "id": "2599997",
        "src640": "https://cdn.pixabay.com/photo/2017/08/07/04/49/pineapple-2599997_640.jpg",
        "src1280": "https://cdn.pixabay.com/photo/2017/08/07/04/49/pineapple-2599997_1280.jpg"
    },
    {
        "id": "4006137",
        "src640": "https://cdn.pixabay.com/photo/2019/02/19/05/44/wine-4006137_640.jpg",
        "src1280": "https://cdn.pixabay.com/photo/2019/02/19/05/44/wine-4006137_1280.jpg"
    },
    {
        "id": "2618345",
        "src640": "https://cdn.pixabay.com/photo/2017/08/10/04/55/boiled-2618345_640.jpg",
        "src1280": "https://cdn.pixabay.com/photo/2017/08/10/04/55/boiled-2618345_1280.jpg"
    },
    {
        "id": "2944750",
        "src640": "https://cdn.pixabay.com/photo/2017/11/13/05/59/fishing-2944750_640.jpg",
        "src1280": "https://cdn.pixabay.com/photo/2017/11/13/05/59/fishing-2944750_1280.jpg"
    },
    {
        "id": "7621766",
        "src640": "https://cdn.pixabay.com/photo/2022/11/28/10/52/generated-7621766_640.jpg",
        "src1280": "https://cdn.pixabay.com/photo/2022/11/28/10/52/generated-7621766_1280.jpg"
    },
    {
        "id": "445144",
        "src640": "https://cdn.pixabay.com/photo/2014/09/14/16/25/waffle-445144_640.jpg",
        "src1280": "https://cdn.pixabay.com/photo/2014/09/14/16/25/waffle-445144_1280.jpg"
    },
    {
        "id": "2152672",
        "src640": "https://cdn.pixabay.com/photo/2017/03/17/21/01/heart-2152672_640.jpg",
        "src1280": "https://cdn.pixabay.com/photo/2017/03/17/21/01/heart-2152672_1280.jpg"
    },
    {
        "id": "7279427",
        "src640": "https://cdn.pixabay.com/photo/2022/06/23/09/43/drink-7279427_640.jpg",
        "src1280": "https://cdn.pixabay.com/photo/2022/06/23/09/43/drink-7279427_1280.jpg"
    }
]