[
    {
        "id": "1162230",
        "src640": "https://cdn.pixabay.com/photo/2016/01/26/10/56/table-1162230_640.jpg",
        "src1280": "https://cdn.pixabay.com/photo/2016/01/26/10/56/table-1162230_1280.jpg"
    },
    {
        "id": "5712704",
        "src640": "https://cdn.pixabay.com/photo/2020/11/04/15/13/burger-5712704_640.jpg",
        "src1280": "https://cdn.pixabay.com/photo/2020/11/04/15/13/burger-5712704_1280.jpg"
    },
    {
        "id": "1868892",
        "src640": "https://cdn.pixabay.com/photo/2016/11/29/10/02/apples-1868892_640.jpg",
        "src1280": "https://cdn.pixabay.com/photo/2016/11/29/10/02/apples-1868892_1280.jpg"
    },
    {
        "id": "818432",
        "src640": "https://cdn.pixabay.com/photo/2015/06/23/08/54/child-818432_640.jpg",
        "src1280": "https://cdn.pixabay.com/photo/2015/06/23/08/54/child-818432_1280.jpg"
    },
    {
        "id": "1955229",
        "src640": "https://cdn.pixabay.com/photo/2017/01/05/14/10/valentines-day-1955229_640.jpg",
        "src1280": "https://cdn.pixabay.com/photo/2017/01/05/14/10/valentines-day-1955229_1280.jpg"
    },
    {
        "id": "8112573",
        "src640": "https://cdn.pixabay.com/photo/2023/07/07/13/25/cherries-8112573_640.jpg",
        "src1280": "https://cdn.pixabay.com/photo/2023/07/07/13/25/cherries-8112573_1280.jpg"
    },
    {
        "id": "4165490",
        "src640": "https://cdn.pixabay.com/photo/2019/04/29/08/19/diet-4165490_640.jpg",
        "src1280": "https://cdn.pixabay.com/photo/2019/04/29/08/19/diet-4165490_1280.jpg"
    },
    {
        "id": "1547577",
        "src640": "https://cdn.pixabay.com/photo/2016/07/28/11/19/pepperoni-1547577_640.jpg",
        "src1280": "https://cdn.pixabay.com/photo/2016/07/28/11/19/pepperoni-1547577_1280.jpg"
    },
    {
        "id": "2000142",
        "src640": "https://cdn.pixabay.com/photo/2017/01/22/16/25/baking-2000142_640.jpg",
        "src1280": "https://cdn.pixabay.com/photo/2017/01/22/16/25/baking-2000142_1280.jpg"
    },
    {
        "id": "1961531",
        "src640": "https://cdn.pixabay.com/photo/2017/01/07/20/39/cheese-1961531_640.jpg",
        "src1280": "https://cdn.pixabay.com/photo/2017/01/07/20/39/cheese-1961531_1280.jpg"
    },
    {
        "id": "3148039",
        "src640": "https://cdn.pixabay.com/photo/2018/02/12/11/14/healthy-3148039_640.jpg",
        "src1280": "https://cdn.pixabay.com/photo/2018/02/12/11/14/healthy-3148039_1280.jpg"
    },
    {
        "id": "5179968",
        "src640": "https://cdn.pixabay.com/photo/2020/05/17/04/33/cheese-5179968_640.jpg",
        "src1280": "https://cdn.pixabay.com/photo/2020/05/17/04/33/cheese-5179968_1280.jpg"
    },
    {
        "id": "1798840",
        "src640": "https://cdn.pixabay.com/photo/2016/11/04/20/08/carrots-1798840_640.jpg",
        "src1280": "https://cdn.pixabay.com/photo/2016/11/04/20/08/carrots-1798840_1280.jpg"
    },
    {
        "id": "1898198",
        "src640": "https://cdn.pixabay.com/photo/2016/12/10/21/28/corn-1898198_640.jpg",
        "src1280": "https://cdn.pixabay.com/photo/2016/12/10/21/28/corn-1898198_1280.jpg"
    },
    {
        "id": "952532",
        "src640": "https://cdn.pixabay.com/photo/2015/09/22/21/49/broccoli-952532_640.jpg",
        "src1280": "https://cdn.pixabay.com/photo/2015/09/22/21/49/broccoli-952532_1280.jpg"
    },
    {
        "id": "2000602",
        "src640": "https://cdn.pixabay.com/photo/2017/01/22/19/12/pizza-2000602_640.jpg",
        "src1280": "https://cdn.pixabay.com/photo/2017/01/22/19/12/pizza-2000602_1280.jpg"
    },
    {
        "id": "4854733",
        "src640": "https://cdn.pixabay.com/photo/2020/02/16/20/33/macarons-4854733_640.jpg",
        "src1280": "https://cdn.pixabay.com/photo/2020/02/16/20/33/macarons-4854733_1280.jpg"
    },
    {
        "id": "3633076",
        "src640": "https://cdn.pixabay.com/photo/2018/08/26/19/15/yogurt-3633076_640.jpg",
        "src1280": "https://cdn.pixabay.com/photo/2018/08/26/19/15/yogurt-3633076_1280.jpg"
    },
    {
        "id": "1769114",
        "src640": "https://cdn.pixabay.com/photo/2016/10/25/15/03/milk-1769114_640.jpg",
        "src1280": "https://cdn.pixabay.com/photo/2016/10/25/15/03/milk-1769114_1280.jpg"
    },
    {
        "id": "791640",
        "src640": "https://cdn.pixabay.com/photo/2015/05/31/13/01/food-791640_640.jpg",
        "src1280": "https://cdn.pixabay.com/photo/2015/05/31/13/01/food-791640_1280.jpg"
    },
    {
        "id": "4461645",
        "src640": "https://cdn.pixabay.com/photo/2019/09/08/18/53/aviary-4461645_640.jpg",
        "src1280": "https://cdn.pixabay.com/photo/2019/09/08/18/53/aviary-4461645_1280.jpg"
    },
    {
        "id": "986784",
        "src640": "https://cdn.pixabay.com/photo/2015/10/13/21/05/sandwich-986784_640.jpg",
        "src1280": "https://cdn.pixabay.com/photo/2015/10/13/21/05/sandwich-986784_1280.jpg"
    },
    {
        "id": "18721",
        "src640": "https://cdn.pixabay.com/photo/2012/02/29/11/57/apple-18721_640.jpg",
        "src1280": "https://cdn.pixabay.com/photo/2012/02/29/11/57/apple-18721_1280.jpg"
    },
    {
        "id": "7998336",
        "src640": "https://cdn.pixabay.com/photo/2023/05/16/18/16/baker-7998336_640.jpg",
        "src1280": "https://cdn.pixabay.com/photo/2023/05/16/18/16/baker-7998336_1280.jpg"
    },
    {
        "id": "1290656",
        "src640": "https://cdn.pixabay.com/photo/2016/03/30/13/17/mom-1290656_640.jpg",
        "src1280": "https://cdn.pixabay.com/photo/2016/03/30/13/17/mom-1290656_1280.jpg"
    },
    {
        "id": "1914114",
        "src640": "https://cdn.pixabay.com/photo/2016/12/17/18/48/cheese-1914114_640.jpg",
        "src1280": "https://cdn.pixabay.com/photo/2016/12/17/18/48/cheese-1914114_1280.jpg"
    },
    {
        "id": "1795556",
        "src640": "https://cdn.pixabay.com/photo/2016/11/03/18/13/food-1795556_640.jpg",
        "src1280": "https://cdn.pixabay.com/photo/2016/11/03/18/13/food-1795556_1280.jpg"
    },
    {
        "id": "3127015",
        "src640": "https://cdn.pixabay.com/photo/2018/02/03/06/45/sweet-3127015_640.jpg",
        "src1280": "https://cdn.pixabay.com/photo/2018/02/03/06/45/sweet-3127015_1280.jpg"
    },
    {
        "id": "1070318",
        "src640": "https://cdn.pixabay.com/photo/2015/11/30/13/15/food-1070318_640.jpg",
        "src1280": "https://cdn.pixabay.com/photo/2015/11/30/13/15/food-1070318_1280.jpg"
    },
    {
        "id": "2097312",
        "src640": "https://cdn.pixabay.com/photo/2017/02/25/09/30/lemonade-2097312_640.jpg",
        "src1280": "https://cdn.pixabay.com/photo/2017/02/25/09/30/lemonade-2097312_1280.jpg"
    },
    {
        "id": "7690927",
        "src640": "https://cdn.pixabay.com/photo/2023/01/01/22/02/burger-7690927_640.jpg",
        "src1280": "https://cdn.pixabay.com/photo/2023/01/01/22/02/burger-7690927_1280.jpg"
    },
    {
        "id": "1821389",
        "src640": "https://cdn.pixabay.com/photo/2016/11/13/15/53/blue-1821389_640.jpg",
        "src1280": "https://cdn.pixabay.com/photo/2016/11/13/15/53/blue-1821389_1280.jpg"
    },
    {
        "id": "2190554",
        "src640": "https://cdn.pixabay.com/photo/2017/03/31/07/09/wheat-2190554_640.jpg",
        "src1280": "https://cdn.pixabay.com/photo/2017/03/31/07/09/wheat-2190554_1280.jpg"
    },
    {
        "id": "1105587",
        "src640": "https://cdn.pixabay.com/photo/2015/12/23/13/57/bag-1105587_640.jpg",
        "src1280": "https://cdn.pixabay.com/photo/2015/12/23/13/57/bag-1105587_1280.jpg"
    },
    {
        "id": "1326097",
        "src640": "https://cdn.pixabay.com/photo/2016/04/13/06/23/toddler-1326097_640.jpg",
        "src1280": "https://cdn.pixabay.com/photo/2016/04/13/06/23/toddler-1326097_1280.jpg"
    }
]