[
    {
        "id": "5503123",
        "src640": "https://cdn.pixabay.com/photo/2020/08/20/10/14/blueberries-5503123_640.jpg",
        "src1280": "https://cdn.pixabay.com/photo/2020/08/20/10/14/blueberries-5503123_1280.jpg"
    },
    {
        "id": "4687457",
        "src640": "https://cdn.pixabay.com/photo/2019/12/11/05/07/olive-4687457_640.jpg",
        "src1280": "https://cdn.pixabay.com/photo/2019/12/11/05/07/olive-4687457_1280.jpg"
    },
    {
        "id": "2561390",
        "src640": "https://cdn.pixabay.com/photo/2017/07/31/21/45/pears-2561390_640.jpg",
        "src1280": "https://cdn.pixabay.com/photo/2017/07/31/21/45/pears-2561390_1280.jpg"
    },
    {
        "id": "5125480",
        "src640": "https://cdn.pixabay.com/photo/2020/05/03/15/28/mallo-5125480_640.jpg",
        "src1280": "https://cdn.pixabay.com/photo/2020/05/03/15/28/mallo-5125480_1280.jpg"
    },
    {
        "id": "2405578",
        "src640": "https://cdn.pixabay.com/photo/2017/06/15/14/26/fire-2405578_640.jpg",
        "src1280": "https://cdn.pixabay.com/photo/2017/06/15/14/26/fire-2405578_1280.jpg"
    },
    {
        "id": "4941609",
        "src640": "https://cdn.pixabay.com/photo/2020/03/17/19/23/galletas-4941609_640.jpg",
        "src1280": "https://cdn.pixabay.com/photo/2020/03/17/19/23/galletas-4941609_1280.jpg"
    },
    {
        "id": "8308644",
        "src640": "https://cdn.pixabay.com/photo/2023/10/11/13/25/pumpkins-8308644_640.jpg",
        "src1280": "https://cdn.pixabay.com/photo/2023/10/11/13/25/pumpkins-8308644_1280.jpg"
    },
    {
        "id": "3687349",
        "src640": "https://cdn.pixabay.com/photo/2018/09/18/21/43/pumpkin-3687349_640.jpg",
        "src1280": "https://cdn.pixabay.com/photo/2018/09/18/21/43/pumpkin-3687349_1280.jpg"
    },
    {
        "id": "4465596",
        "src640": "https://cdn.pixabay.com/photo/2019/09/10/08/36/food-4465596_640.jpg",
        "src1280": "https://cdn.pixabay.com/photo/2019/09/10/08/36/food-4465596_1280.jpg"
    },
    {
        "id": "7551042",
        "src640": "https://cdn.pixabay.com/photo/2022/10/27/14/46/wheat-7551042_640.jpg",
        "src1280": "https://cdn.pixabay.com/photo/2022/10/27/14/46/wheat-7551042_1280.jpg"
    },
    {
        "id": "1554238",
        "src640": "https://cdn.pixabay.com/photo/2016/07/29/15/46/bergamot-1554238_640.jpg",
        "src1280": "https://cdn.pixabay.com/photo/2016/07/29/15/46/bergamot-1554238_1280.jpg"
    },
    {
        "id": "4390102",
        "src640": "https://cdn.pixabay.com/photo/2019/08/07/07/26/lychee-4390102_640.jpg",
        "src1280": "https://cdn.pixabay.com/photo/2019/08/07/07/26/lychee-4390102_1280.jpg"
    },
    {
        "id": "3260743",
        "src640": "https://cdn.pixabay.com/photo/2018/03/25/21/14/food-3260743_640.jpg",
        "src1280": "https://cdn.pixabay.com/photo/2018/03/25/21/14/food-3260743_1280.jpg"
    },
    {
        "id": "4204777",
        "src640": "https://cdn.pixabay.com/photo/2019/05/15/11/12/dessert-4204777_640.jpg",
        "src1280": "https://cdn.pixabay.com/photo/2019/05/15/11/12/dessert-4204777_1280.jpg"
    },
    {
        "id": "4368596",
        "src640": "https://cdn.pixabay.com/photo/2019/07/28/11/53/cereals-4368596_640.jpg",
        "src1280": "https://cdn.pixabay.com/photo/2019/07/28/11/53/cereals-4368596_1280.jpg"
    },
    {
        "id": "7895417",
        "src640": "https://cdn.pixabay.com/photo/2023/04/02/20/42/baby-7895417_640.jpg",
        "src1280": "https://cdn.pixabay.com/photo/2023/04/02/20/42/baby-7895417_1280.jpg"
    },
    {
        "id": "8281116",
        "src640": "https://cdn.pixabay.com/photo/2023/09/28/10/26/indian-restaurant-8281116_640.jpg",
        "src1280": "https://cdn.pixabay.com/photo/2023/09/28/10/26/indian-restaurant-8281116_1280.jpg"
    },
    {
        "id": "5775377",
        "src640": "https://cdn.pixabay.com/photo/2020/11/25/11/16/tartlets-5775377_640.jpg",
        "src1280": "https://cdn.pixabay.com/photo/2020/11/25/11/16/tartlets-5775377_1280.jpg"
    },
    {
        "id": "3364023",
        "src640": "https://cdn.pixabay.com/photo/2018/04/30/20/54/food-3364023_640.jpg",
        "src1280": "https://cdn.pixabay.com/photo/2018/04/30/20/54/food-3364023_1280.jpg"
    },
    {
        "id": "5921476",
        "src640": "https://cdn.pixabay.com/photo/2021/01/16/09/03/salad-5921476_640.jpg",
        "src1280": "https://cdn.pixabay.com/photo/2021/01/16/09/03/salad-5921476_1280.jpg"
    },
    {
        "id": "3524457",
        "src640": "https://cdn.pixabay.com/photo/2018/07/08/18/34/vegetables-3524457_640.jpg",
        "src1280": "https://cdn.pixabay.com/photo/2018/07/08/18/34/vegetables-3524457_1280.jpg"
    },
    {
        "id": "1841094",
        "src640": "https://cdn.pixabay.com/photo/2016/11/19/20/47/agriculture-1841094_640.jpg",
        "src1280": "https://cdn.pixabay.com/photo/2016/11/19/20/47/agriculture-1841094_1280.jpg"
    },
    {
        "id": "1397133",
        "src640": "https://cdn.pixabay.com/photo/2016/05/16/23/22/noodles-1397133_640.jpg",
        "src1280": "https://cdn.pixabay.com/photo/2016/05/16/23/22/noodles-1397133_1280.jpg"
    },
    {
        "id": "1526676",
        "src640": "https://cdn.pixabay.com/photo/2016/07/18/20/13/currants-1526676_640.jpg",
        "src1280": "https://cdn.pixabay.com/photo/2016/07/18/20/13/currants-1526676_1280.jpg"
    },
    {
        "id": "2593048",
        "src640": "https://cdn.pixabay.com/photo/2017/08/06/14/32/gift-2593048_640.jpg",
        "src1280": "https://cdn.pixabay.com/photo/2017/08/06/14/32/gift-2593048_1280.jpg"
    },
    {
        "id": "6940070",
        "src640": "https://cdn.pixabay.com/photo/2022/01/15/16/33/food-6940070_640.jpg",
        "src1280": "https://cdn.pixabay.com/photo/2022/01/15/16/33/food-6940070_1280.jpg"
    },
    {
        "id": "5290236",
        "src640": "https://cdn.pixabay.com/photo/2020/06/12/12/11/mushroom-5290236_640.jpg",
        "src1280": "https://cdn.pixabay.com/photo/2020/06/12/12/11/mushroom-5290236_1280.jpg"
    },
    {
        "id": "4602739",
        "src640": "https://cdn.pixabay.com/photo/2019/11/05/05/25/chilli-4602739_640.jpg",
        "src1280": "https://cdn.pixabay.com/photo/2019/11/05/05/25/chilli-4602739_1280.jpg"
    },
    {
        "id": "5392160",
        "src640": "https://cdn.pixabay.com/photo/2020/07/10/20/54/varenyky-5392160_640.jpg",
        "src1280": "https://cdn.pixabay.com/photo/2020/07/10/20/54/varenyky-5392160_1280.jpg"
    },
    {
        "id": "2940287",
        "src640": "https://cdn.pixabay.com/photo/2017/11/11/20/09/food-2940287_640.jpg",
        "src1280": "https://cdn.pixabay.com/photo/2017/11/11/20/09/food-2940287_1280.jpg"
    },
    {
        "id": "4873854",
        "src640": "https://cdn.pixabay.com/photo/2020/02/23/16/25/kiwi-4873854_640.jpg",
        "src1280": "https://cdn.pixabay.com/photo/2020/02/23/16/25/kiwi-4873854_1280.jpg"
    },
    {
        "id": "4390240",
        "src640": "https://cdn.pixabay.com/photo/2019/08/07/08/34/ice-cream-4390240_640.jpg",
        "src1280": "https://cdn.pixabay.com/photo/2019/08/07/08/34/ice-cream-4390240_1280.jpg"
    },
    {
        "id": "2688119",
        "src640": "https://cdn.pixabay.com/photo/2017/08/28/00/32/chilli-2688119_640.jpg",
        "src1280": "https://cdn.pixabay.com/photo/2017/08/28/00/32/chilli-2688119_1280.jpg"
    },
    {
        "id": "1262584",
        "src640": "https://cdn.pixabay.com/photo/2016/03/17/09/24/jackfruit-1262584_640.jpg",
        "src1280": "https://cdn.pixabay.com/photo/2016/03/17/09/24/jackfruit-1262584_1280.jpg"
    },
    {
        "id": "4453889",
        "src640": "https://cdn.pixabay.com/photo/2019/09/05/12/24/grapes-4453889_640.jpg",
        "src1280": "https://cdn.pixabay.com/photo/2019/09/05/12/24/grapes-4453889_1280.jpg"
    },
    {
        "id": "531925",
        "src640": "https://cdn.pixabay.com/photo/2014/11/15/13/14/trusses-531925_640.jpg",
        "src1280": "https://cdn.pixabay.com/photo/2014/11/15/13/14/trusses-531925_1280.jpg"
    },
    {
        "id": "1835202",
        "src640": "https://cdn.pixabay.com/photo/2016/11/18/15/04/diet-1835202_640.jpg",
        "src1280": "https://cdn.pixabay.com/photo/2016/11/18/15/04/diet-1835202_1280.jpg"
    },
    {
        "id": "4506630",
        "src640": "https://cdn.pixabay.com/photo/2019/09/26/17/44/tea-4506630_640.jpg",
        "src1280": "https://cdn.pixabay.com/photo/2019/09/26/17/44/tea-4506630_1280.jpg"
    },
    {
        "id": "5932995",
        "src640": "https://cdn.pixabay.com/photo/2021/01/20/03/37/wafer-biscuits-5932995_640.jpg",
        "src1280": "https://cdn.pixabay.com/photo/2021/01/20/03/37/wafer-biscuits-5932995_1280.jpg"
    },
    {
        "id": "2810133",
        "src640": "https://cdn.pixabay.com/photo/2017/10/02/20/44/picnic-2810133_640.jpg",
        "src1280": "https://cdn.pixabay.com/photo/2017/10/02/20/44/picnic-2810133_1280.jpg"
    },
    {
        "id": "91698",
        "src640": "https://cdn.pixabay.com/photo/2013/03/09/02/36/strawberry-91698_640.jpg",
        "src1280": "https://cdn.pixabay.com/photo/2013/03/09/02/36/strawberry-91698_1280.jpg"
    },
    {
        "id": "6001000",
        "src640": "https://cdn.pixabay.com/photo/2021/02/10/06/09/monkey-6001000_640.jpg",
        "src1280": "https://cdn.pixabay.com/photo/2021/02/10/06/09/monkey-6001000_1280.jpg"
    },
    {
        "id": "3789562",
        "src640": "https://cdn.pixabay.com/photo/2018/11/02/03/57/restaurant-3789562_640.jpg",
        "src1280": "https://cdn.pixabay.com/photo/2018/11/02/03/57/restaurant-3789562_1280.jpg"
    },
    {
        "id": "7056030",
        "src640": "https://cdn.pixabay.com/photo/2022/03/08/15/55/appetizer-7056030_640.jpg",
        "src1280": "https://cdn.pixabay.com/photo/2022/03/08/15/55/appetizer-7056030_1280.jpg"
    },
    {
        "id": "1705137",
        "src640": "https://cdn.pixabay.com/photo/2016/09/30/12/02/blueberries-1705137_640.jpg",
        "src1280": "https://cdn.pixabay.com/photo/2016/09/30/12/02/blueberries-1705137_1280.jpg"
    },
    {
        "id": "3739019",
        "src640": "https://cdn.pixabay.com/photo/2018/10/11/06/42/basil-3739019_640.jpg",
        "src1280": "https://cdn.pixabay.com/photo/2018/10/11/06/42/basil-3739019_1280.jpg"
    },
    {
        "id": "1571701",
        "src640": "https://cdn.pixabay.com/photo/2016/08/05/07/16/snack-1571701_640.jpg",
        "src1280": "https://cdn.pixabay.com/photo/2016/08/05/07/16/snack-1571701_1280.jpg"
    },
    {
        "id": "4692689",
        "src640": "https://cdn.pixabay.com/photo/2019/12/13/10/44/cookies-4692689_640.jpg",
        "src1280": "https://cdn.pixabay.com/photo/2019/12/13/10/44/cookies-4692689_1280.jpg"
    },
    {
        "id": "2202366",
        "src640": "https://cdn.pixabay.com/photo/2017/04/04/17/34/food-2202366_640.jpg",
        "src1280": "https://cdn.pixabay.com/photo/2017/04/04/17/34/food-2202366_1280.jpg"
    },
    {
        "id": "1708230",
        "src640": "https://cdn.pixabay.com/photo/2016/10/01/20/02/old-jar-1708230_640.jpg",
        "src1280": "https://cdn.pixabay.com/photo/2016/10/01/20/02/old-jar-1708230_1280.jpg"
    },
    {
        "id": "829119",
        "src640": "https://cdn.pixabay.com/photo/2015/07/02/13/02/watermelon-829119_640.jpg",
        "src1280": "https://cdn.pixabay.com/photo/2015/07/02/13/02/watermelon-829119_1280.jpg"
    },
    {
        "id": "4936952",
        "src640": "https://cdn.pixabay.com/photo/2020/03/16/12/47/food-4936952_640.jpg",
        "src1280": "https://cdn.pixabay.com/photo/2020/03/16/12/47/food-4936952_1280.jpg"
    },
    {
        "id": "1721370",
        "src640": "https://cdn.pixabay.com/photo/2016/10/07/12/01/berry-1721370_640.jpg",
        "src1280": "https://cdn.pixabay.com/photo/2016/10/07/12/01/berry-1721370_1280.jpg"
    },
    {
        "id": "3289144",
        "src640": "https://cdn.pixabay.com/photo/2018/04/04/08/21/plant-3289144_640.jpg",
        "src1280": "https://cdn.pixabay.com/photo/2018/04/04/08/21/plant-3289144_1280.jpg"
    },
    {
        "id": "5205578",
        "src640": "https://cdn.pixabay.com/photo/2020/05/22/14/27/wheat-5205578_640.jpg",
        "src1280": "https://cdn.pixabay.com/photo/2020/05/22/14/27/wheat-5205578_1280.jpg"
    },
    {
        "id": "2911499",
        "src640": "https://cdn.pixabay.com/photo/2017/11/02/15/38/thanksgiving-2911499_640.jpg",
        "src1280": "https://cdn.pixabay.com/photo/2017/11/02/15/38/thanksgiving-2911499_1280.jpg"
    },
    {
        "id": "4693131",
        "src640": "https://cdn.pixabay.com/photo/2019/12/13/14/43/creme-brulee-4693131_640.jpg",
        "src1280": "https://cdn.pixabay.com/photo/2019/12/13/14/43/creme-brulee-4693131_1280.jpg"
    },
    {
        "id": "7556198",
        "src640": "https://cdn.pixabay.com/photo/2022/10/29/21/48/food-7556198_640.jpg",
        "src1280": "https://cdn.pixabay.com/photo/2022/10/29/21/48/food-7556198_1280.jpg"
    },
    {
        "id": "440801",
        "src640": "https://cdn.pixabay.com/photo/2014/09/10/13/06/black-elderberry-440801_640.jpg",
        "src1280": "https://cdn.pixabay.com/photo/2014/09/10/13/06/black-elderberry-440801_1280.jpg"
    },
    {
        "id": "5282739",
        "src640": "https://cdn.pixabay.com/photo/2020/06/10/13/37/mini-cupcake-5282739_640.jpg",
        "src1280": "https://cdn.pixabay.com/photo/2020/06/10/13/37/mini-cupcake-5282739_1280.jpg"
    },
    {
        "id": "3281866",
        "src640": "https://cdn.pixabay.com/photo/2018/04/01/19/22/drink-3281866_640.jpg",
        "src1280": "https://cdn.pixabay.com/photo/2018/04/01/19/22/drink-3281866_1280.jpg"
    },
    {
        "id": "4450583",
        "src640": "https://cdn.pixabay.com/photo/2019/09/04/02/34/fruit-4450583_640.jpg",
        "src1280": "https://cdn.pixabay.com/photo/2019/09/04/02/34/fruit-4450583_1280.jpg"
    },
    {
        "id": "6648236",
        "src640": "https://cdn.pixabay.com/photo/2021/09/23/01/47/strawberry-6648236_640.jpg",
        "src1280": "https://cdn.pixabay.com/photo/2021/09/23/01/47/strawberry-6648236_1280.jpg"
    },
    {
        "id": "1304228",
        "src640": "https://cdn.pixabay.com/photo/2016/04/03/09/44/rhino-1304228_640.jpg",
        "src1280": "https://cdn.pixabay.com/photo/2016/04/03/09/44/rhino-1304228_1280.jpg"
    },
    {
        "id": "6122386",
        "src640": "https://cdn.pixabay.com/photo/2021/03/25/08/36/tomatoes-6122386_640.jpg",
        "src1280": "https://cdn.pixabay.com/photo/2021/03/25/08/36/tomatoes-6122386_1280.jpg"
    },
    {
        "id": "4054332",
        "src640": "https://cdn.pixabay.com/photo/2019/03/14/07/24/coffee-4054332_640.jpg",
        "src1280": "https://cdn.pixabay.com/photo/2019/03/14/07/24/coffee-4054332_1280.jpg"
    },
    {
        "id": "7759743",
        "src640": "https://cdn.pixabay.com/photo/2023/02/01/07/11/cupcakes-7759743_640.jpg",
        "src1280": "https://cdn.pixabay.com/photo/2023/02/01/07/11/cupcakes-7759743_1280.jpg"
    },
    {
        "id": "3088353",
        "src640": "https://cdn.pixabay.com/photo/2018/01/17/14/52/food-3088353_640.jpg",
        "src1280": "https://cdn.pixabay.com/photo/2018/01/17/14/52/food-3088353_1280.jpg"
    },
    {
        "id": "2162475",
        "src640": "https://cdn.pixabay.com/photo/2017/03/21/15/33/strawberry-2162475_640.jpg",
        "src1280": "https://cdn.pixabay.com/photo/2017/03/21/15/33/strawberry-2162475_1280.jpg"
    },
    {
        "id": "3416777",
        "src640": "https://cdn.pixabay.com/photo/2018/05/20/21/05/ripe-strawberry-3416777_640.jpg",
        "src1280": "https://cdn.pixabay.com/photo/2018/05/20/21/05/ripe-strawberry-3416777_1280.jpg"
    },
    {
        "id": "1397130",
        "src640": "https://cdn.pixabay.com/photo/2016/05/16/23/22/noodles-1397130_640.jpg",
        "src1280": "https://cdn.pixabay.com/photo/2016/05/16/23/22/noodles-1397130_1280.jpg"
    },
    {
        "id": "5178866",
        "src640": "https://cdn.pixabay.com/photo/2020/05/16/19/27/breakfast-5178866_640.jpg",
        "src1280": "https://cdn.pixabay.com/photo/2020/05/16/19/27/breakfast-5178866_1280.jpg"
    },
    {
        "id": "5599559",
        "src640": "https://cdn.pixabay.com/photo/2020/09/24/18/54/roti-5599559_640.jpg",
        "src1280": "https://cdn.pixabay.com/photo/2020/09/24/18/54/roti-5599559_1280.jpg"
    },
    {
        "id": "3060365",
        "src640": "https://cdn.pixabay.com/photo/2018/01/04/11/15/fruit-3060365_640.jpg",
        "src1280": "https://cdn.pixabay.com/photo/2018/01/04/11/15/fruit-3060365_1280.jpg"
    },
    {
        "id": "7621761",
        "src640": "https://cdn.pixabay.com/photo/2022/11/28/10/49/generated-7621761_640.jpg",
        "src1280": "https://cdn.pixabay.com/photo/2022/11/28/10/49/generated-7621761_1280.jpg"
    },
    {
        "id": "4481641",
        "src640": "https://cdn.pixabay.com/photo/2019/09/16/18/00/strawberries-4481641_640.jpg",
        "src1280": "https://cdn.pixabay.com/photo/2019/09/16/18/00/strawberries-4481641_1280.jpg"
    },
    {
        "id": "2413243",
        "src640": "https://cdn.pixabay.com/photo/2017/06/17/19/15/croissant-2413243_640.jpg",
        "src1280": "https://cdn.pixabay.com/photo/2017/06/17/19/15/croissant-2413243_1280.jpg"
    },
    {
        "id": "2314064",
        "src640": "https://cdn.pixabay.com/photo/2017/05/15/08/32/coffee-2314064_640.jpg",
        "src1280": "https://cdn.pixabay.com/photo/2017/05/15/08/32/coffee-2314064_1280.jpg"
    },
    {
        "id": "8060290",
        "src640": "https://cdn.pixabay.com/photo/2023/06/13/08/41/dish-8060290_640.jpg",
        "src1280": "https://cdn.pixabay.com/photo/2023/06/13/08/41/dish-8060290_1280.jpg"
    },
    {
        "id": "1471455",
        "src640": "https://cdn.pixabay.com/photo/2016/06/21/16/36/tea-1471455_640.jpg",
        "src1280": "https://cdn.pixabay.com/photo/2016/06/21/16/36/tea-1471455_1280.jpg"
    },
    {
        "id": "7104501",
        "src640": "https://cdn.pixabay.com/photo/2022/04/01/10/20/panipuri-7104501_640.jpg",
        "src1280": "https://cdn.pixabay.com/photo/2022/04/01/10/20/panipuri-7104501_1280.jpg"
    },
    {
        "id": "7237027",
        "src640": "https://cdn.pixabay.com/photo/2022/06/02/05/06/strawberry-7237027_640.jpg",
        "src1280": "https://cdn.pixabay.com/photo/2022/06/02/05/06/strawberry-7237027_1280.jpg"
    },
    {
        "id": "6533743",
        "src640": "https://cdn.pixabay.com/photo/2021/08/09/16/16/grapes-6533743_640.jpg",
        "src1280": "https://cdn.pixabay.com/photo/2021/08/09/16/16/grapes-6533743_1280.jpg"
    },
    {
        "id": "1836963",
        "src640": "https://cdn.pixabay.com/photo/2016/11/18/21/30/fast-food-1836963_640.jpg",
        "src1280": "https://cdn.pixabay.com/photo/2016/11/18/21/30/fast-food-1836963_1280.jpg"
    },
    {
        "id": "5997300",
        "src640": "https://cdn.pixabay.com/photo/2021/02/09/03/53/thai-food-5997300_640.jpg",
        "src1280": "https://cdn.pixabay.com/photo/2021/02/09/03/53/thai-food-5997300_1280.jpg"
    },
    {
        "id": "772298",
        "src640": "https://cdn.pixabay.com/photo/2015/05/18/14/22/asparagus-772298_640.jpg",
        "src1280": "https://cdn.pixabay.com/photo/2015/05/18/14/22/asparagus-772298_1280.jpg"
    },
    {
        "id": "972285",
        "src640": "https://cdn.pixabay.com/photo/2015/10/05/08/04/cornfield-972285_640.jpg",
        "src1280": "https://cdn.pixabay.com/photo/2015/10/05/08/04/cornfield-972285_1280.jpg"
    },
    {
        "id": "3091751",
        "src640": "https://cdn.pixabay.com/photo/2018/01/19/04/46/soup-3091751_640.jpg",
        "src1280": "https://cdn.pixabay.com/photo/2018/01/19/04/46/soup-3091751_1280.jpg"
    },
    {
        "id": "4337902",
        "src640": "https://cdn.pixabay.com/photo/2019/07/14/19/31/cherry-4337902_640.jpg",
        "src1280": "https://cdn.pixabay.com/photo/2019/07/14/19/31/cherry-4337902_1280.jpg"
    },
    {
        "id": "2383839",
        "src640": "https://cdn.pixabay.com/photo/2017/06/08/15/00/dessert-2383839_640.jpg",
        "src1280": "https://cdn.pixabay.com/photo/2017/06/08/15/00/dessert-2383839_1280.jpg"
    }
]