[
    {
        "id": "838506",
        "src640": "https://cdn.pixabay.com/photo/2015/07/09/20/19/ham-838506_640.jpg",
        "src1280": "https://cdn.pixabay.com/photo/2015/07/09/20/19/ham-838506_1280.jpg"
    },
    {
        "id": "4273",
        "src640": "https://cdn.pixabay.com/photo/2010/12/30/13/04/lobster-4273_640.jpg",
        "src1280": "https://cdn.pixabay.com/photo/2010/12/30/13/04/lobster-4273_1280.jpg"
    },
    {
        "id": "1500468",
        "src640": "https://cdn.pixabay.com/photo/2016/07/06/13/23/bratwurst-1500468_640.jpg",
        "src1280": "https://cdn.pixabay.com/photo/2016/07/06/13/23/bratwurst-1500468_1280.jpg"
    },
    {
        "id": "3680502",
        "src640": "https://cdn.pixabay.com/photo/2018/09/15/23/29/basil-3680502_640.jpg",
        "src1280": "https://cdn.pixabay.com/photo/2018/09/15/23/29/basil-3680502_1280.jpg"
    },
    {
        "id": "5128894",
        "src640": "https://cdn.pixabay.com/photo/2020/05/04/12/06/brownie-5128894_640.jpg",
        "src1280": "https://cdn.pixabay.com/photo/2020/05/04/12/06/brownie-5128894_1280.jpg"
    },
    {
        "id": "1536124",
        "src640": "https://cdn.pixabay.com/photo/2016/07/23/00/39/currants-1536124_640.jpg",
        "src1280": "https://cdn.pixabay.com/photo/2016/07/23/00/39/currants-1536124_1280.jpg"
    },
    {
        "id": "2577675",
        "src640": "https://cdn.pixabay.com/photo/2017/08/03/18/06/people-2577675_640.jpg",
        "src1280": "https://cdn.pixabay.com/photo/2017/08/03/18/06/people-2577675_1280.jpg"
    },
    {
        "id": "8493725",
        "src640": "https://cdn.pixabay.com/photo/2024/01/07/17/48/smoothie-8493725_640.jpg",
        "src1280": "https://cdn.pixabay.com/photo/2024/01/07/17/48/smoothie-8493725_1280.jpg"
    },
    {
        "id": "951555",
        "src640": "https://cdn.pixabay.com/photo/2015/09/22/12/46/fruit-tree-951555_640.jpg",
        "src1280": "https://cdn.pixabay.com/photo/2015/09/22/12/46/fruit-tree-951555_1280.jpg"
    },
    {
        "id": "5392160",
        "src640": "https://cdn.pixabay.com/photo/2020/07/10/20/54/varenyky-5392160_640.jpg",
        "src1280": "https://cdn.pixabay.com/photo/2020/07/10/20/54/varenyky-5392160_1280.jpg"
    },
    {
        "id": "3529121",
        "src640": "https://cdn.pixabay.com/photo/2018/07/10/17/00/fruits-3529121_640.jpg",
        "src1280": "https://cdn.pixabay.com/photo/2018/07/10/17/00/fruits-3529121_1280.jpg"
    },
    {
        "id": "4763024",
        "src640": "https://cdn.pixabay.com/photo/2020/01/13/17/26/pasta-4763024_640.jpg",
        "src1280": "https://cdn.pixabay.com/photo/2020/01/13/17/26/pasta-4763024_1280.jpg"
    },
    {
        "id": "6601759",
        "src640": "https://cdn.pixabay.com/photo/2021/09/06/13/53/pigeon-6601759_640.jpg",
        "src1280": "https://cdn.pixabay.com/photo/2021/09/06/13/53/pigeon-6601759_1280.jpg"
    },
    {
        "id": "5948313",
        "src640": "https://cdn.pixabay.com/photo/2021/01/25/13/32/pancakes-5948313_640.jpg",
        "src1280": "https://cdn.pixabay.com/photo/2021/01/25/13/32/pancakes-5948313_1280.jpg"
    },
    {
        "id": "5900755",
        "src640": "https://cdn.pixabay.com/photo/2021/01/08/20/21/mushrooms-5900755_640.jpg",
        "src1280": "https://cdn.pixabay.com/photo/2021/01/08/20/21/mushrooms-5900755_1280.jpg"
    },
    {
        "id": "985595",
        "src640": "https://cdn.pixabay.com/photo/2015/10/13/04/58/chicken-985595_640.jpg",
        "src1280": "https://cdn.pixabay.com/photo/2015/10/13/04/58/chicken-985595_1280.jpg"
    },
    {
        "id": "841660",
        "src640": "https://cdn.pixabay.com/photo/2015/07/12/09/17/greenhouse-841660_640.jpg",
        "src1280": "https://cdn.pixabay.com/photo/2015/07/12/09/17/greenhouse-841660_1280.jpg"
    },
    {
        "id": "5812484",
        "src640": "https://cdn.pixabay.com/photo/2020/12/07/18/15/rice-5812484_640.jpg",
        "src1280": "https://cdn.pixabay.com/photo/2020/12/07/18/15/rice-5812484_1280.jpg"
    },
    {
        "id": "7604888",
        "src640": "https://cdn.pixabay.com/photo/2022/11/20/18/18/chilli-7604888_640.jpg",
        "src1280": "https://cdn.pixabay.com/photo/2022/11/20/18/18/chilli-7604888_1280.jpg"
    },
    {
        "id": "315844",
        "src640": "https://cdn.pixabay.com/photo/2014/04/05/11/29/squash-315844_640.jpg",
        "src1280": "https://cdn.pixabay.com/photo/2014/04/05/11/29/squash-315844_1280.jpg"
    },
    {
        "id": "7249306",
        "src640": "https://cdn.pixabay.com/photo/2022/06/07/21/10/tofu-7249306_640.jpg",
        "src1280": "https://cdn.pixabay.com/photo/2022/06/07/21/10/tofu-7249306_1280.jpg"
    },
    {
        "id": "4337902",
        "src640": "https://cdn.pixabay.com/photo/2019/07/14/19/31/cherry-4337902_640.jpg",
        "src1280": "https://cdn.pixabay.com/photo/2019/07/14/19/31/cherry-4337902_1280.jpg"
    },
    {
        "id": "3529128",
        "src640": "https://cdn.pixabay.com/photo/2018/07/10/17/01/fruits-3529128_640.jpg",
        "src1280": "https://cdn.pixabay.com/photo/2018/07/10/17/01/fruits-3529128_1280.jpg"
    },
    {
        "id": "7864266",
        "src640": "https://cdn.pixabay.com/photo/2023/03/20/10/03/dimsum-7864266_640.jpg",
        "src1280": "https://cdn.pixabay.com/photo/2023/03/20/10/03/dimsum-7864266_1280.jpg"
    },
    {
        "id": "2395973",
        "src640": "https://cdn.pixabay.com/photo/2017/06/12/16/10/strawberry-2395973_640.jpg",
        "src1280": "https://cdn.pixabay.com/photo/2017/06/12/16/10/strawberry-2395973_1280.jpg"
    },
    {
        "id": "1680653",
        "src640": "https://cdn.pixabay.com/photo/2016/09/19/16/25/flower-1680653_640.jpg",
        "src1280": "https://cdn.pixabay.com/photo/2016/09/19/16/25/flower-1680653_1280.jpg"
    },
    {
        "id": "4671634",
        "src640": "https://cdn.pixabay.com/photo/2019/12/04/04/23/flower-4671634_640.jpg",
        "src1280": "https://cdn.pixabay.com/photo/2019/12/04/04/23/flower-4671634_1280.jpg"
    },
    {
        "id": "1542504",
        "src640": "https://cdn.pixabay.com/photo/2016/07/26/10/49/pepperoni-1542504_640.jpg",
        "src1280": "https://cdn.pixabay.com/photo/2016/07/26/10/49/pepperoni-1542504_1280.jpg"
    },
    {
        "id": "375358",
        "src640": "https://cdn.pixabay.com/photo/2014/06/23/17/23/crackers-375358_640.jpg",
        "src1280": "https://cdn.pixabay.com/photo/2014/06/23/17/23/crackers-375358_1280.jpg"
    },
    {
        "id": "8308321",
        "src640": "https://cdn.pixabay.com/photo/2023/10/11/10/54/croissant-8308321_640.jpg",
        "src1280": "https://cdn.pixabay.com/photo/2023/10/11/10/54/croissant-8308321_1280.jpg"
    },
    {
        "id": "6565730",
        "src640": "https://cdn.pixabay.com/photo/2021/08/22/17/41/celery-6565730_640.jpg",
        "src1280": "https://cdn.pixabay.com/photo/2021/08/22/17/41/celery-6565730_1280.jpg"
    },
    {
        "id": "4815144",
        "src640": "https://cdn.pixabay.com/photo/2020/02/03/09/26/cherry-4815144_640.jpg",
        "src1280": "https://cdn.pixabay.com/photo/2020/02/03/09/26/cherry-4815144_1280.jpg"
    },
    {
        "id": "4953591",
        "src640": "https://cdn.pixabay.com/photo/2020/03/21/11/54/chilli-4953591_640.jpg",
        "src1280": "https://cdn.pixabay.com/photo/2020/03/21/11/54/chilli-4953591_1280.jpg"
    },
    {
        "id": "772298",
        "src640": "https://cdn.pixabay.com/photo/2015/05/18/14/22/asparagus-772298_640.jpg",
        "src1280": "https://cdn.pixabay.com/photo/2015/05/18/14/22/asparagus-772298_1280.jpg"
    },
    {
        "id": "7552454",
        "src640": "https://cdn.pixabay.com/photo/2022/10/28/06/17/pumpkin-7552454_640.jpg",
        "src1280": "https://cdn.pixabay.com/photo/2022/10/28/06/17/pumpkin-7552454_1280.jpg"
    },
    {
        "id": "6625183",
        "src640": "https://cdn.pixabay.com/photo/2021/09/14/22/11/peas-6625183_640.jpg",
        "src1280": "https://cdn.pixabay.com/photo/2021/09/14/22/11/peas-6625183_1280.jpg"
    },
    {
        "id": "4837803",
        "src640": "https://cdn.pixabay.com/photo/2020/02/10/21/45/pasta-4837803_640.jpg",
        "src1280": "https://cdn.pixabay.com/photo/2020/02/10/21/45/pasta-4837803_1280.jpg"
    },
    {
        "id": "1260820",
        "src640": "https://cdn.pixabay.com/photo/2016/03/16/14/09/eat-1260820_640.jpg",
        "src1280": "https://cdn.pixabay.com/photo/2016/03/16/14/09/eat-1260820_1280.jpg"
    },
    {
        "id": "7592521",
        "src640": "https://cdn.pixabay.com/photo/2022/11/14/20/46/hotel-7592521_640.jpg",
        "src1280": "https://cdn.pixabay.com/photo/2022/11/14/20/46/hotel-7592521_1280.jpg"
    },
    {
        "id": "21067",
        "src640": "https://cdn.pixabay.com/photo/2012/03/02/10/59/adult-21067_640.jpg",
        "src1280": "https://cdn.pixabay.com/photo/2012/03/02/10/59/adult-21067_1280.jpg"
    },
    {
        "id": "2766445",
        "src640": "https://cdn.pixabay.com/photo/2017/09/19/20/10/breakfast-2766445_640.jpg",
        "src1280": "https://cdn.pixabay.com/photo/2017/09/19/20/10/breakfast-2766445_1280.jpg"
    },
    {
        "id": "2682564",
        "src640": "https://cdn.pixabay.com/photo/2017/08/26/09/34/landscape-2682564_640.jpg",
        "src1280": "https://cdn.pixabay.com/photo/2017/08/26/09/34/landscape-2682564_1280.jpg"
    },
    {
        "id": "4181154",
        "src640": "https://cdn.pixabay.com/photo/2019/05/05/17/34/pumpkins-4181154_640.jpg",
        "src1280": "https://cdn.pixabay.com/photo/2019/05/05/17/34/pumpkins-4181154_1280.jpg"
    },
    {
        "id": "2336616",
        "src640": "https://cdn.pixabay.com/photo/2017/05/23/09/09/glass-2336616_640.jpg",
        "src1280": "https://cdn.pixabay.com/photo/2017/05/23/09/09/glass-2336616_1280.jpg"
    },
    {
        "id": "7673302",
        "src640": "https://cdn.pixabay.com/photo/2022/12/22/21/37/cookies-7673302_640.jpg",
        "src1280": "https://cdn.pixabay.com/photo/2022/12/22/21/37/cookies-7673302_1280.jpg"
    },
    {
        "id": "6042397",
        "src640": "https://cdn.pixabay.com/photo/2021/02/23/06/09/cake-6042397_640.jpg",
        "src1280": "https://cdn.pixabay.com/photo/2021/02/23/06/09/cake-6042397_1280.jpg"
    },
    {
        "id": "846466",
        "src640": "https://cdn.pixabay.com/photo/2015/07/15/16/18/allium-schoenoprasum-846466_640.jpg",
        "src1280": "https://cdn.pixabay.com/photo/2015/07/15/16/18/allium-schoenoprasum-846466_1280.jpg"
    },
    {
        "id": "4807369",
        "src640": "https://cdn.pixabay.com/photo/2020/01/31/07/47/cartoon-4807369_640.jpg",
        "src1280": "https://cdn.pixabay.com/photo/2020/01/31/07/47/cartoon-4807369_1280.jpg"
    },
    {
        "id": "2004775",
        "src640": "https://cdn.pixabay.com/photo/2017/01/24/08/19/girl-in-bed-2004775_640.jpg",
        "src1280": "https://cdn.pixabay.com/photo/2017/01/24/08/19/girl-in-bed-2004775_1280.jpg"
    },
    {
        "id": "3114260",
        "src640": "https://cdn.pixabay.com/photo/2018/01/28/17/35/oil-3114260_640.jpg",
        "src1280": "https://cdn.pixabay.com/photo/2018/01/28/17/35/oil-3114260_1280.jpg"
    },
    {
        "id": "4288033",
        "src640": "https://cdn.pixabay.com/photo/2019/06/20/21/15/taco-4288033_640.jpg",
        "src1280": "https://cdn.pixabay.com/photo/2019/06/20/21/15/taco-4288033_1280.jpg"
    },
    {
        "id": "2700617",
        "src640": "https://cdn.pixabay.com/photo/2017/08/31/12/39/fruit-juice-2700617_640.jpg",
        "src1280": "https://cdn.pixabay.com/photo/2017/08/31/12/39/fruit-juice-2700617_1280.jpg"
    },
    {
        "id": "5480398",
        "src640": "https://cdn.pixabay.com/photo/2020/08/11/16/16/vegetables-5480398_640.jpg",
        "src1280": "https://cdn.pixabay.com/photo/2020/08/11/16/16/vegetables-5480398_1280.jpg"
    },
    {
        "id": "5966911",
        "src640": "https://cdn.pixabay.com/photo/2021/01/31/13/17/cake-5966911_640.jpg",
        "src1280": "https://cdn.pixabay.com/photo/2021/01/31/13/17/cake-5966911_1280.jpg"
    },
    {
        "id": "945774",
        "src640": "https://cdn.pixabay.com/photo/2015/09/18/15/13/bread-rolls-945774_640.jpg",
        "src1280": "https://cdn.pixabay.com/photo/2015/09/18/15/13/bread-rolls-945774_1280.jpg"
    },
    {
        "id": "69744",
        "src640": "https://cdn.pixabay.com/photo/2012/12/13/11/48/tropical-69744_640.jpg",
        "src1280": "https://cdn.pixabay.com/photo/2012/12/13/11/48/tropical-69744_1280.jpg"
    },
    {
        "id": "4548138",
        "src640": "https://cdn.pixabay.com/photo/2019/10/14/08/01/owl-4548138_640.jpg",
        "src1280": "https://cdn.pixabay.com/photo/2019/10/14/08/01/owl-4548138_1280.jpg"
    },
    {
        "id": "3529122",
        "src640": "https://cdn.pixabay.com/photo/2018/07/10/17/00/fruits-3529122_640.jpg",
        "src1280": "https://cdn.pixabay.com/photo/2018/07/10/17/00/fruits-3529122_1280.jpg"
    },
    {
        "id": "4936961",
        "src640": "https://cdn.pixabay.com/photo/2020/03/16/12/47/food-4936961_640.jpg",
        "src1280": "https://cdn.pixabay.com/photo/2020/03/16/12/47/food-4936961_1280.jpg"
    },
    {
        "id": "1971502",
        "src640": "https://cdn.pixabay.com/photo/2017/01/11/11/03/cookies-1971502_640.jpg",
        "src1280": "https://cdn.pixabay.com/photo/2017/01/11/11/03/cookies-1971502_1280.jpg"
    },
    {
        "id": "3247254",
        "src640": "https://cdn.pixabay.com/photo/2018/03/21/16/18/growing-3247254_640.jpg",
        "src1280": "https://cdn.pixabay.com/photo/2018/03/21/16/18/growing-3247254_1280.jpg"
    },
    {
        "id": "3662637",
        "src640": "https://cdn.pixabay.com/photo/2018/09/08/15/14/walnut-3662637_640.jpg",
        "src1280": "https://cdn.pixabay.com/photo/2018/09/08/15/14/walnut-3662637_1280.jpg"
    },
    {
        "id": "3709883",
        "src640": "https://cdn.pixabay.com/photo/2018/09/28/18/20/vegetables-3709883_640.jpg",
        "src1280": "https://cdn.pixabay.com/photo/2018/09/28/18/20/vegetables-3709883_1280.jpg"
    },
    {
        "id": "4350756",
        "src640": "https://cdn.pixabay.com/photo/2019/07/20/12/58/bunch-of-grapes-4350756_640.jpg",
        "src1280": "https://cdn.pixabay.com/photo/2019/07/20/12/58/bunch-of-grapes-4350756_1280.jpg"
    },
    {
        "id": "7249302",
        "src640": "https://cdn.pixabay.com/photo/2022/06/07/21/10/tofu-7249302_640.jpg",
        "src1280": "https://cdn.pixabay.com/photo/2022/06/07/21/10/tofu-7249302_1280.jpg"
    },
    {
        "id": "7286992",
        "src640": "https://cdn.pixabay.com/photo/2022/06/27/08/01/christmas-7286992_640.jpg",
        "src1280": "https://cdn.pixabay.com/photo/2022/06/27/08/01/christmas-7286992_1280.jpg"
    },
    {
        "id": "4025508",
        "src640": "https://cdn.pixabay.com/photo/2019/02/28/08/17/eating-4025508_640.jpg",
        "src1280": "https://cdn.pixabay.com/photo/2019/02/28/08/17/eating-4025508_1280.jpg"
    },
    {
        "id": "7059669",
        "src640": "https://cdn.pixabay.com/photo/2022/03/10/11/13/macarons-7059669_640.jpg",
        "src1280": "https://cdn.pixabay.com/photo/2022/03/10/11/13/macarons-7059669_1280.jpg"
    },
    {
        "id": "1680663",
        "src640": "https://cdn.pixabay.com/photo/2016/09/19/16/27/flower-1680663_640.jpg",
        "src1280": "https://cdn.pixabay.com/photo/2016/09/19/16/27/flower-1680663_1280.jpg"
    },
    {
        "id": "2267992",
        "src640": "https://cdn.pixabay.com/photo/2017/04/28/10/02/rhubarb-2267992_640.jpg",
        "src1280": "https://cdn.pixabay.com/photo/2017/04/28/10/02/rhubarb-2267992_1280.jpg"
    },
    {
        "id": "7627854",
        "src640": "https://cdn.pixabay.com/photo/2022/11/30/21/37/generated-7627854_640.jpg",
        "src1280": "https://cdn.pixabay.com/photo/2022/11/30/21/37/generated-7627854_1280.jpg"
    },
    {
        "id": "1543197",
        "src640": "https://cdn.pixabay.com/photo/2016/07/26/16/23/teatime-1543197_640.jpg",
        "src1280": "https://cdn.pixabay.com/photo/2016/07/26/16/23/teatime-1543197_1280.jpg"
    },
    {
        "id": "843835",
        "src640": "https://cdn.pixabay.com/photo/2015/07/13/21/14/cookies-843835_640.jpg",
        "src1280": "https://cdn.pixabay.com/photo/2015/07/13/21/14/cookies-843835_1280.jpg"
    },
    {
        "id": "5175790",
        "src640": "https://cdn.pixabay.com/photo/2020/05/16/03/29/cook-5175790_640.jpg",
        "src1280": "https://cdn.pixabay.com/photo/2020/05/16/03/29/cook-5175790_1280.jpg"
    },
    {
        "id": "1747253",
        "src640": "https://cdn.pixabay.com/photo/2016/10/17/10/09/vegetables-1747253_640.jpg",
        "src1280": "https://cdn.pixabay.com/photo/2016/10/17/10/09/vegetables-1747253_1280.jpg"
    },
    {
        "id": "5925425",
        "src640": "https://cdn.pixabay.com/photo/2021/01/17/15/25/dumplings-5925425_640.jpg",
        "src1280": "https://cdn.pixabay.com/photo/2021/01/17/15/25/dumplings-5925425_1280.jpg"
    },
    {
        "id": "7790547",
        "src640": "https://cdn.pixabay.com/photo/2023/02/14/22/40/glass-7790547_640.jpg",
        "src1280": "https://cdn.pixabay.com/photo/2023/02/14/22/40/glass-7790547_1280.jpg"
    },
    {
        "id": "3196863",
        "src640": "https://cdn.pixabay.com/photo/2018/03/03/23/10/pineapple-3196863_640.jpg",
        "src1280": "https://cdn.pixabay.com/photo/2018/03/03/23/10/pineapple-3196863_1280.jpg"
    },
    {
        "id": "255265",
        "src640": "https://cdn.pixabay.com/photo/2014/01/31/04/23/fruits-255265_640.jpg",
        "src1280": "https://cdn.pixabay.com/photo/2014/01/31/04/23/fruits-255265_1280.jpg"
    },
    {
        "id": "6000999",
        "src640": "https://cdn.pixabay.com/photo/2021/02/10/06/08/monkey-6000999_640.jpg",
        "src1280": "https://cdn.pixabay.com/photo/2021/02/10/06/08/monkey-6000999_1280.jpg"
    },
    {
        "id": "7854180",
        "src640": "https://cdn.pixabay.com/photo/2023/03/15/10/09/sandwich-7854180_640.jpg",
        "src1280": "https://cdn.pixabay.com/photo/2023/03/15/10/09/sandwich-7854180_1280.jpg"
    },
    {
        "id": "5774915",
        "src640": "https://cdn.pixabay.com/photo/2020/11/25/08/18/pasta-5774915_640.jpg",
        "src1280": "https://cdn.pixabay.com/photo/2020/11/25/08/18/pasta-5774915_1280.jpg"
    },
    {
        "id": "6083201",
        "src640": "https://cdn.pixabay.com/photo/2021/03/10/00/57/cookies-6083201_640.jpg",
        "src1280": "https://cdn.pixabay.com/photo/2021/03/10/00/57/cookies-6083201_1280.jpg"
    },
    {
        "id": "1269967",
        "src640": "https://cdn.pixabay.com/photo/2016/03/21/03/52/red-apple-1269967_640.jpg",
        "src1280": "https://cdn.pixabay.com/photo/2016/03/21/03/52/red-apple-1269967_1280.jpg"
    },
    {
        "id": "2204561",
        "src640": "https://cdn.pixabay.com/photo/2017/04/05/10/24/grain-2204561_640.jpg",
        "src1280": "https://cdn.pixabay.com/photo/2017/04/05/10/24/grain-2204561_1280.jpg"
    },
    {
        "id": "3687348",
        "src640": "https://cdn.pixabay.com/photo/2018/09/18/21/43/pumpkin-3687348_640.jpg",
        "src1280": "https://cdn.pixabay.com/photo/2018/09/18/21/43/pumpkin-3687348_1280.jpg"
    }
]