[
    {
        "id": "1314346",
        "src640": "https://cdn.pixabay.com/photo/2016/04/07/18/00/berries-1314346_640.jpg",
        "src1280": "https://cdn.pixabay.com/photo/2016/04/07/18/00/berries-1314346_1280.jpg"
    },
    {
        "id": "6712572",
        "src640": "https://cdn.pixabay.com/photo/2021/10/15/13/18/tacos-6712572_640.jpg",
        "src1280": "https://cdn.pixabay.com/photo/2021/10/15/13/18/tacos-6712572_1280.jpg"
    },
    {
        "id": "5904758",
        "src640": "https://cdn.pixabay.com/photo/2021/01/10/11/04/persimmon-5904758_640.jpg",
        "src1280": "https://cdn.pixabay.com/photo/2021/01/10/11/04/persimmon-5904758_1280.jpg"
    },
    {
        "id": "1542431",
        "src640": "https://cdn.pixabay.com/photo/2016/07/26/09/56/sugar-1542431_640.jpg",
        "src1280": "https://cdn.pixabay.com/photo/2016/07/26/09/56/sugar-1542431_1280.jpg"
    },
    {
        "id": "4424603",
        "src640": "https://cdn.pixabay.com/photo/2019/08/23/00/29/cherry-4424603_640.jpg",
        "src1280": "https://cdn.pixabay.com/photo/2019/08/23/00/29/cherry-4424603_1280.jpg"
    },
    {
        "id": "6731377",
        "src640": "https://cdn.pixabay.com/photo/2021/10/22/07/42/chicken-6731377_640.jpg",
        "src1280": "https://cdn.pixabay.com/photo/2021/10/22/07/42/chicken-6731377_1280.jpg"
    },
    {
        "id": "4622217",
        "src640": "https://cdn.pixabay.com/photo/2019/11/12/23/00/biquinho-4622217_640.jpg",
        "src1280": "https://cdn.pixabay.com/photo/2019/11/12/23/00/biquinho-4622217_1280.jpg"
    },
    {
        "id": "4565168",
        "src640": "https://cdn.pixabay.com/photo/2019/10/21/05/32/banana-4565168_640.jpg",
        "src1280": "https://cdn.pixabay.com/photo/2019/10/21/05/32/banana-4565168_1280.jpg"
    },
    {
        "id": "926477",
        "src640": "https://cdn.pixabay.com/photo/2015/09/06/00/03/raspberries-926477_640.jpg",
        "src1280": "https://cdn.pixabay.com/photo/2015/09/06/00/03/raspberries-926477_1280.jpg"
    },
    {
        "id": "3506243",
        "src640": "https://cdn.pixabay.com/photo/2018/06/29/15/56/tomatoes-3506243_640.jpg",
        "src1280": "https://cdn.pixabay.com/photo/2018/06/29/15/56/tomatoes-3506243_1280.jpg"
    },
    {
        "id": "5790",
        "src640": "https://cdn.pixabay.com/photo/2011/03/24/11/02/pineapple-5790_640.jpg",
        "src1280": "https://cdn.pixabay.com/photo/2011/03/24/11/02/pineapple-5790_1280.jpg"
    },
    {
        "id": "2568451",
        "src640": "https://cdn.pixabay.com/photo/2017/08/01/22/55/lifestyle-2568451_640.jpg",
        "src1280": "https://cdn.pixabay.com/photo/2017/08/01/22/55/lifestyle-2568451_1280.jpg"
    },
    {
        "id": "2531499",
        "src640": "https://cdn.pixabay.com/photo/2017/07/23/14/11/pineapple-bread-2531499_640.jpg",
        "src1280": "https://cdn.pixabay.com/photo/2017/07/23/14/11/pineapple-bread-2531499_1280.jpg"
    },
    {
        "id": "5799",
        "src640": "https://cdn.pixabay.com/photo/2011/03/24/11/10/potatoes-5799_640.jpg",
        "src1280": "https://cdn.pixabay.com/photo/2011/03/24/11/10/potatoes-5799_1280.jpg"
    },
    {
        "id": "5294744",
        "src640": "https://cdn.pixabay.com/photo/2020/06/13/15/52/furniture-5294744_640.jpg",
        "src1280": "https://cdn.pixabay.com/photo/2020/06/13/15/52/furniture-5294744_1280.jpg"
    },
    {
        "id": "4897703",
        "src640": "https://cdn.pixabay.com/photo/2020/03/03/07/01/bananas-4897703_640.jpg",
        "src1280": "https://cdn.pixabay.com/photo/2020/03/03/07/01/bananas-4897703_1280.jpg"
    },
    {
        "id": "5810",
        "src640": "https://cdn.pixabay.com/photo/2011/03/24/11/19/egg-5810_640.jpg",
        "src1280": "https://cdn.pixabay.com/photo/2011/03/24/11/19/egg-5810_1280.jpg"
    },
    {
        "id": "6165589",
        "src640": "https://cdn.pixabay.com/photo/2021/04/09/22/00/strawberry-6165589_640.jpg",
        "src1280": "https://cdn.pixabay.com/photo/2021/04/09/22/00/strawberry-6165589_1280.jpg"
    },
    {
        "id": "5862477",
        "src640": "https://cdn.pixabay.com/photo/2020/12/26/21/47/pineapple-5862477_640.jpg",
        "src1280": "https://cdn.pixabay.com/photo/2020/12/26/21/47/pineapple-5862477_1280.jpg"
    },
    {
        "id": "7831353",
        "src640": "https://cdn.pixabay.com/photo/2023/03/05/13/20/croissant-7831353_640.jpg",
        "src1280": "https://cdn.pixabay.com/photo/2023/03/05/13/20/croissant-7831353_1280.jpg"
    },
    {
        "id": "4883841",
        "src640": "https://cdn.pixabay.com/photo/2020/02/27/08/40/starfruit-4883841_640.jpg",
        "src1280": "https://cdn.pixabay.com/photo/2020/02/27/08/40/starfruit-4883841_1280.jpg"
    },
    {
        "id": "3288727",
        "src640": "https://cdn.pixabay.com/photo/2018/04/04/03/17/food-3288727_640.jpg",
        "src1280": "https://cdn.pixabay.com/photo/2018/04/04/03/17/food-3288727_1280.jpg"
    },
    {
        "id": "1599148",
        "src640": "https://cdn.pixabay.com/photo/2016/08/16/22/31/nut-1599148_640.jpg",
        "src1280": "https://cdn.pixabay.com/photo/2016/08/16/22/31/nut-1599148_1280.jpg"
    },
    {
        "id": "7724008",
        "src640": "https://cdn.pixabay.com/photo/2023/01/17/08/00/food-7724008_640.jpg",
        "src1280": "https://cdn.pixabay.com/photo/2023/01/17/08/00/food-7724008_1280.jpg"
    },
    {
        "id": "3639376",
        "src640": "https://cdn.pixabay.com/photo/2018/08/29/08/40/meat-3639376_640.jpg",
        "src1280": "https://cdn.pixabay.com/photo/2018/08/29/08/40/meat-3639376_1280.jpg"
    },
    {
        "id": "959939",
        "src640": "https://cdn.pixabay.com/photo/2015/09/26/22/56/salad-959939_640.jpg",
        "src1280": "https://cdn.pixabay.com/photo/2015/09/26/22/56/salad-959939_1280.jpg"
    },
    {
        "id": "5695513",
        "src640": "https://cdn.pixabay.com/photo/2020/10/29/08/11/fruit-5695513_640.jpg",
        "src1280": "https://cdn.pixabay.com/photo/2020/10/29/08/11/fruit-5695513_1280.jpg"
    },
    {
        "id": "84324",
        "src640": "https://cdn.pixabay.com/photo/2013/02/21/17/07/greengrocer-84324_640.jpg",
        "src1280": "https://cdn.pixabay.com/photo/2013/02/21/17/07/greengrocer-84324_1280.jpg"
    },
    {
        "id": "7450896",
        "src640": "https://cdn.pixabay.com/photo/2022/09/13/04/32/background-7450896_640.jpg",
        "src1280": "https://cdn.pixabay.com/photo/2022/09/13/04/32/background-7450896_1280.jpg"
    },
    {
        "id": "4665397",
        "src640": "https://cdn.pixabay.com/photo/2019/12/01/12/29/pumpkin-4665397_640.jpg",
        "src1280": "https://cdn.pixabay.com/photo/2019/12/01/12/29/pumpkin-4665397_1280.jpg"
    },
    {
        "id": "5376039",
        "src640": "https://cdn.pixabay.com/photo/2020/07/06/08/29/espagueti-5376039_640.jpg",
        "src1280": "https://cdn.pixabay.com/photo/2020/07/06/08/29/espagueti-5376039_1280.jpg"
    },
    {
        "id": "4704533",
        "src640": "https://cdn.pixabay.com/photo/2019/12/18/18/05/clementines-4704533_640.jpg",
        "src1280": "https://cdn.pixabay.com/photo/2019/12/18/18/05/clementines-4704533_1280.jpg"
    },
    {
        "id": "4829642",
        "src640": "https://cdn.pixabay.com/photo/2020/02/08/10/08/pineapple-4829642_640.jpg",
        "src1280": "https://cdn.pixabay.com/photo/2020/02/08/10/08/pineapple-4829642_1280.jpg"
    },
    {
        "id": "5783429",
        "src640": "https://cdn.pixabay.com/photo/2020/11/28/02/02/picnic-5783429_640.jpg",
        "src1280": "https://cdn.pixabay.com/photo/2020/11/28/02/02/picnic-5783429_1280.jpg"
    },
    {
        "id": "650239",
        "src640": "https://cdn.pixabay.com/photo/2015/02/26/12/22/grass-650239_640.jpg",
        "src1280": "https://cdn.pixabay.com/photo/2015/02/26/12/22/grass-650239_1280.jpg"
    },
    {
        "id": "4910639",
        "src640": "https://cdn.pixabay.com/photo/2020/03/07/19/11/lemon-4910639_640.jpg",
        "src1280": "https://cdn.pixabay.com/photo/2020/03/07/19/11/lemon-4910639_1280.jpg"
    },
    {
        "id": "4139607",
        "src640": "https://cdn.pixabay.com/photo/2019/04/19/14/14/green-4139607_640.jpg",
        "src1280": "https://cdn.pixabay.com/photo/2019/04/19/14/14/green-4139607_1280.jpg"
    },
    {
        "id": "5700599",
        "src640": "https://cdn.pixabay.com/photo/2020/10/31/08/47/soup-5700599_640.jpg",
        "src1280": "https://cdn.pixabay.com/photo/2020/10/31/08/47/soup-5700599_1280.jpg"
    },
    {
        "id": "3129534",
        "src640": "https://cdn.pixabay.com/photo/2018/02/04/10/37/bird-3129534_640.jpg",
        "src1280": "https://cdn.pixabay.com/photo/2018/02/04/10/37/bird-3129534_1280.jpg"
    },
    {
        "id": "3304912",
        "src640": "https://cdn.pixabay.com/photo/2018/04/09/18/02/green-3304912_640.jpg",
        "src1280": "https://cdn.pixabay.com/photo/2018/04/09/18/02/green-3304912_1280.jpg"
    },
    {
        "id": "1271398",
        "src640": "https://cdn.pixabay.com/photo/2016/03/21/19/58/apple-1271398_640.jpg",
        "src1280": "https://cdn.pixabay.com/photo/2016/03/21/19/58/apple-1271398_1280.jpg"
    },
    {
        "id": "7482969",
        "src640": "https://cdn.pixabay.com/photo/2022/09/27/14/58/sandwich-7482969_640.jpg",
        "src1280": "https://cdn.pixabay.com/photo/2022/09/27/14/58/sandwich-7482969_1280.jpg"
    },
    {
        "id": "6029614",
        "src640": "https://cdn.pixabay.com/photo/2021/02/19/09/06/spices-6029614_640.jpg",
        "src1280": "https://cdn.pixabay.com/photo/2021/02/19/09/06/spices-6029614_1280.jpg"
    },
    {
        "id": "87017",
        "src640": "https://cdn.pixabay.com/photo/2013/03/01/04/07/jello-87017_640.jpg",
        "src1280": "https://cdn.pixabay.com/photo/2013/03/01/04/07/jello-87017_1280.jpg"
    },
    {
        "id": "4333032",
        "src640": "https://cdn.pixabay.com/photo/2019/07/12/14/49/strawberries-4333032_640.jpg",
        "src1280": "https://cdn.pixabay.com/photo/2019/07/12/14/49/strawberries-4333032_1280.jpg"
    },
    {
        "id": "2472024",
        "src640": "https://cdn.pixabay.com/photo/2017/07/04/18/07/baked-2472024_640.jpg",
        "src1280": "https://cdn.pixabay.com/photo/2017/07/04/18/07/baked-2472024_1280.jpg"
    },
    {
        "id": "5339920",
        "src640": "https://cdn.pixabay.com/photo/2020/06/25/14/52/light-painting-5339920_640.jpg",
        "src1280": "https://cdn.pixabay.com/photo/2020/06/25/14/52/light-painting-5339920_1280.jpg"
    },
    {
        "id": "4851675",
        "src640": "https://cdn.pixabay.com/photo/2020/02/15/18/28/wine-4851675_640.jpg",
        "src1280": "https://cdn.pixabay.com/photo/2020/02/15/18/28/wine-4851675_1280.jpg"
    },
    {
        "id": "3983456",
        "src640": "https://cdn.pixabay.com/photo/2019/02/08/16/07/potato-curry-3983456_640.jpg",
        "src1280": "https://cdn.pixabay.com/photo/2019/02/08/16/07/potato-curry-3983456_1280.jpg"
    },
    {
        "id": "4851698",
        "src640": "https://cdn.pixabay.com/photo/2020/02/15/18/30/wine-4851698_640.jpg",
        "src1280": "https://cdn.pixabay.com/photo/2020/02/15/18/30/wine-4851698_1280.jpg"
    },
    {
        "id": "827029",
        "src640": "https://cdn.pixabay.com/photo/2015/06/30/23/42/strawberry-827029_640.jpg",
        "src1280": "https://cdn.pixabay.com/photo/2015/06/30/23/42/strawberry-827029_1280.jpg"
    },
    {
        "id": "3409613",
        "src640": "https://cdn.pixabay.com/photo/2018/05/17/20/24/onion-3409613_640.jpg",
        "src1280": "https://cdn.pixabay.com/photo/2018/05/17/20/24/onion-3409613_1280.jpg"
    },
    {
        "id": "5203555",
        "src640": "https://cdn.pixabay.com/photo/2020/05/22/03/10/vegetables-5203555_640.jpg",
        "src1280": "https://cdn.pixabay.com/photo/2020/05/22/03/10/vegetables-5203555_1280.jpg"
    },
    {
        "id": "4894270",
        "src640": "https://cdn.pixabay.com/photo/2020/03/01/22/04/ice-cream-4894270_640.jpg",
        "src1280": "https://cdn.pixabay.com/photo/2020/03/01/22/04/ice-cream-4894270_1280.jpg"
    },
    {
        "id": "5979254",
        "src640": "https://cdn.pixabay.com/photo/2021/02/03/20/19/chayote-5979254_640.jpg",
        "src1280": "https://cdn.pixabay.com/photo/2021/02/03/20/19/chayote-5979254_1280.jpg"
    },
    {
        "id": "2684630",
        "src640": "https://cdn.pixabay.com/photo/2017/08/26/22/58/meat-2684630_640.jpg",
        "src1280": "https://cdn.pixabay.com/photo/2017/08/26/22/58/meat-2684630_1280.jpg"
    },
    {
        "id": "4126107",
        "src640": "https://cdn.pixabay.com/photo/2019/04/14/03/08/burrito-4126107_640.jpg",
        "src1280": "https://cdn.pixabay.com/photo/2019/04/14/03/08/burrito-4126107_1280.jpg"
    },
    {
        "id": "4180597",
        "src640": "https://cdn.pixabay.com/photo/2019/05/05/14/02/the-squirrel-4180597_640.jpg",
        "src1280": "https://cdn.pixabay.com/photo/2019/05/05/14/02/the-squirrel-4180597_1280.jpg"
    },
    {
        "id": "4208150",
        "src640": "https://cdn.pixabay.com/photo/2019/05/16/20/29/garlic-4208150_640.jpg",
        "src1280": "https://cdn.pixabay.com/photo/2019/05/16/20/29/garlic-4208150_1280.jpg"
    },
    {
        "id": "3855391",
        "src640": "https://cdn.pixabay.com/photo/2018/12/04/11/56/coffee-3855391_640.jpg",
        "src1280": "https://cdn.pixabay.com/photo/2018/12/04/11/56/coffee-3855391_1280.jpg"
    },
    {
        "id": "7996217",
        "src640": "https://cdn.pixabay.com/photo/2023/05/15/23/31/wok-7996217_640.jpg",
        "src1280": "https://cdn.pixabay.com/photo/2023/05/15/23/31/wok-7996217_1280.jpg"
    },
    {
        "id": "4248881",
        "src640": "https://cdn.pixabay.com/photo/2019/06/03/12/30/seafood-4248881_640.jpg",
        "src1280": "https://cdn.pixabay.com/photo/2019/06/03/12/30/seafood-4248881_1280.jpg"
    },
    {
        "id": "4852416",
        "src640": "https://cdn.pixabay.com/photo/2020/02/16/02/06/cupcake-4852416_640.jpg",
        "src1280": "https://cdn.pixabay.com/photo/2020/02/16/02/06/cupcake-4852416_1280.jpg"
    },
    {
        "id": "4021352",
        "src640": "https://cdn.pixabay.com/photo/2019/02/26/07/54/mediterranean-diet-4021352_640.jpg",
        "src1280": "https://cdn.pixabay.com/photo/2019/02/26/07/54/mediterranean-diet-4021352_1280.jpg"
    },
    {
        "id": "5651582",
        "src640": "https://cdn.pixabay.com/photo/2020/10/13/11/18/picnic-5651582_640.jpg",
        "src1280": "https://cdn.pixabay.com/photo/2020/10/13/11/18/picnic-5651582_1280.jpg"
    },
    {
        "id": "4508382",
        "src640": "https://cdn.pixabay.com/photo/2019/09/27/12/15/vintage-4508382_640.jpg",
        "src1280": "https://cdn.pixabay.com/photo/2019/09/27/12/15/vintage-4508382_1280.jpg"
    },
    {
        "id": "4603899",
        "src640": "https://cdn.pixabay.com/photo/2019/11/05/16/18/dublin-4603899_640.jpg",
        "src1280": "https://cdn.pixabay.com/photo/2019/11/05/16/18/dublin-4603899_1280.jpg"
    },
    {
        "id": "3908004",
        "src640": "https://cdn.pixabay.com/photo/2019/01/02/04/23/chicken-3908004_640.jpg",
        "src1280": "https://cdn.pixabay.com/photo/2019/01/02/04/23/chicken-3908004_1280.jpg"
    },
    {
        "id": "4452652",
        "src640": "https://cdn.pixabay.com/photo/2019/09/04/22/24/damons-4452652_640.jpg",
        "src1280": "https://cdn.pixabay.com/photo/2019/09/04/22/24/damons-4452652_1280.jpg"
    },
    {
        "id": "5689805",
        "src640": "https://cdn.pixabay.com/photo/2020/10/27/07/14/picnic-5689805_640.jpg",
        "src1280": "https://cdn.pixabay.com/photo/2020/10/27/07/14/picnic-5689805_1280.jpg"
    },
    {
        "id": "6810175",
        "src640": "https://cdn.pixabay.com/photo/2021/11/19/19/31/bread-6810175_640.jpg",
        "src1280": "https://cdn.pixabay.com/photo/2021/11/19/19/31/bread-6810175_1280.jpg"
    },
    {
        "id": "2624941",
        "src640": "https://cdn.pixabay.com/photo/2017/08/10/17/02/food-2624941_640.jpg",
        "src1280": "https://cdn.pixabay.com/photo/2017/08/10/17/02/food-2624941_1280.jpg"
    },
    {
        "id": "6932943",
        "src640": "https://cdn.pixabay.com/photo/2022/01/12/14/17/mug-6932943_640.jpg",
        "src1280": "https://cdn.pixabay.com/photo/2022/01/12/14/17/mug-6932943_1280.jpg"
    },
    {
        "id": "4414769",
        "src640": "https://cdn.pixabay.com/photo/2019/08/18/18/42/oranges-4414769_640.jpg",
        "src1280": "https://cdn.pixabay.com/photo/2019/08/18/18/42/oranges-4414769_1280.jpg"
    },
    {
        "id": "2281658",
        "src640": "https://cdn.pixabay.com/photo/2017/05/03/17/52/food-2281658_640.jpg",
        "src1280": "https://cdn.pixabay.com/photo/2017/05/03/17/52/food-2281658_1280.jpg"
    },
    {
        "id": "5397340",
        "src640": "https://cdn.pixabay.com/photo/2020/07/12/14/03/drinks-5397340_640.jpg",
        "src1280": "https://cdn.pixabay.com/photo/2020/07/12/14/03/drinks-5397340_1280.jpg"
    },
    {
        "id": "5125060",
        "src640": "https://cdn.pixabay.com/photo/2020/05/03/13/33/granola-5125060_640.jpg",
        "src1280": "https://cdn.pixabay.com/photo/2020/05/03/13/33/granola-5125060_1280.jpg"
    },
    {
        "id": "7771615",
        "src640": "https://cdn.pixabay.com/photo/2023/02/06/10/14/beer-7771615_640.jpg",
        "src1280": "https://cdn.pixabay.com/photo/2023/02/06/10/14/beer-7771615_1280.jpg"
    },
    {
        "id": "2597039",
        "src640": "https://cdn.pixabay.com/photo/2017/08/06/22/28/frozen-2597039_640.jpg",
        "src1280": "https://cdn.pixabay.com/photo/2017/08/06/22/28/frozen-2597039_1280.jpg"
    },
    {
        "id": "5371009",
        "src640": "https://cdn.pixabay.com/photo/2020/07/04/21/35/tapioca-5371009_640.jpg",
        "src1280": "https://cdn.pixabay.com/photo/2020/07/04/21/35/tapioca-5371009_1280.jpg"
    },
    {
        "id": "3366579",
        "src640": "https://cdn.pixabay.com/photo/2018/05/01/18/58/food-3366579_640.jpg",
        "src1280": "https://cdn.pixabay.com/photo/2018/05/01/18/58/food-3366579_1280.jpg"
    },
    {
        "id": "3251014",
        "src640": "https://cdn.pixabay.com/photo/2018/03/22/16/37/fruit-3251014_640.jpg",
        "src1280": "https://cdn.pixabay.com/photo/2018/03/22/16/37/fruit-3251014_1280.jpg"
    },
    {
        "id": "3073388",
        "src640": "https://cdn.pixabay.com/photo/2018/01/10/09/06/grapes-3073388_640.jpg",
        "src1280": "https://cdn.pixabay.com/photo/2018/01/10/09/06/grapes-3073388_1280.jpg"
    },
    {
        "id": "4276688",
        "src640": "https://cdn.pixabay.com/photo/2019/06/15/23/51/alo-vera-flower-4276688_640.jpg",
        "src1280": "https://cdn.pixabay.com/photo/2019/06/15/23/51/alo-vera-flower-4276688_1280.jpg"
    },
    {
        "id": "3293329",
        "src640": "https://cdn.pixabay.com/photo/2018/04/05/16/39/nature-3293329_640.jpg",
        "src1280": "https://cdn.pixabay.com/photo/2018/04/05/16/39/nature-3293329_1280.jpg"
    },
    {
        "id": "3221723",
        "src640": "https://cdn.pixabay.com/photo/2018/03/13/05/27/leaf-3221723_640.jpg",
        "src1280": "https://cdn.pixabay.com/photo/2018/03/13/05/27/leaf-3221723_1280.jpg"
    },
    {
        "id": "2452668",
        "src640": "https://cdn.pixabay.com/photo/2017/06/29/00/15/food-2452668_640.jpg",
        "src1280": "https://cdn.pixabay.com/photo/2017/06/29/00/15/food-2452668_1280.jpg"
    },
    {
        "id": "4291605",
        "src640": "https://cdn.pixabay.com/photo/2019/06/22/13/55/thai-4291605_640.jpg",
        "src1280": "https://cdn.pixabay.com/photo/2019/06/22/13/55/thai-4291605_1280.jpg"
    },
    {
        "id": "7348059",
        "src640": "https://cdn.pixabay.com/photo/2022/07/27/14/39/biscuits-7348059_640.jpg",
        "src1280": "https://cdn.pixabay.com/photo/2022/07/27/14/39/biscuits-7348059_1280.jpg"
    },
    {
        "id": "8333458",
        "src640": "https://cdn.pixabay.com/photo/2023/10/22/08/30/ice-cream-8333458_640.jpg",
        "src1280": "https://cdn.pixabay.com/photo/2023/10/22/08/30/ice-cream-8333458_1280.jpg"
    },
    {
        "id": "4452655",
        "src640": "https://cdn.pixabay.com/photo/2019/09/04/22/24/milk-4452655_640.jpg",
        "src1280": "https://cdn.pixabay.com/photo/2019/09/04/22/24/milk-4452655_1280.jpg"
    },
    {
        "id": "7924839",
        "src640": "https://cdn.pixabay.com/photo/2023/04/14/11/20/fruit-7924839_640.jpg",
        "src1280": "https://cdn.pixabay.com/photo/2023/04/14/11/20/fruit-7924839_1280.jpg"
    },
    {
        "id": "7899468",
        "src640": "https://cdn.pixabay.com/photo/2023/04/04/14/36/toast-7899468_640.jpg",
        "src1280": "https://cdn.pixabay.com/photo/2023/04/04/14/36/toast-7899468_1280.jpg"
    }
]