[
    {
        "id": "4676511",
        "src640": "https://cdn.pixabay.com/photo/2019/12/06/03/27/rice-4676511_640.jpg",
        "src1280": "https://cdn.pixabay.com/photo/2019/12/06/03/27/rice-4676511_1280.jpg"
    },
    {
        "id": "2613154",
        "src640": "https://cdn.pixabay.com/photo/2017/08/09/00/48/cherry-tomatoes-2613154_640.jpg",
        "src1280": "https://cdn.pixabay.com/photo/2017/08/09/00/48/cherry-tomatoes-2613154_1280.jpg"
    },
    {
        "id": "4082409",
        "src640": "https://cdn.pixabay.com/photo/2019/03/26/11/36/food-4082409_640.jpg",
        "src1280": "https://cdn.pixabay.com/photo/2019/03/26/11/36/food-4082409_1280.jpg"
    },
    {
        "id": "655893",
        "src640": "https://cdn.pixabay.com/photo/2015/03/02/12/00/breakfast-655893_640.jpg",
        "src1280": "https://cdn.pixabay.com/photo/2015/03/02/12/00/breakfast-655893_1280.jpg"
    },
    {
        "id": "3687352",
        "src640": "https://cdn.pixabay.com/photo/2018/09/18/21/44/pumpkin-3687352_640.jpg",
        "src1280": "https://cdn.pixabay.com/photo/2018/09/18/21/44/pumpkin-3687352_1280.jpg"
    },
    {
        "id": "5700588",
        "src640": "https://cdn.pixabay.com/photo/2020/10/31/08/42/parsnip-5700588_640.jpg",
        "src1280": "https://cdn.pixabay.com/photo/2020/10/31/08/42/parsnip-5700588_1280.jpg"
    },
    {
        "id": "3462456",
        "src640": "https://cdn.pixabay.com/photo/2018/06/08/14/42/strawberries-3462456_640.jpg",
        "src1280": "https://cdn.pixabay.com/photo/2018/06/08/14/42/strawberries-3462456_1280.jpg"
    },
    {
        "id": "8153358",
        "src640": "https://cdn.pixabay.com/photo/2023/07/27/13/08/cocoa-8153358_640.jpg",
        "src1280": "https://cdn.pixabay.com/photo/2023/07/27/13/08/cocoa-8153358_1280.jpg"
    },
    {
        "id": "4367211",
        "src640": "https://cdn.pixabay.com/photo/2019/07/27/17/22/vegetables-4367211_640.jpg",
        "src1280": "https://cdn.pixabay.com/photo/2019/07/27/17/22/vegetables-4367211_1280.jpg"
    },
    {
        "id": "6002004",
        "src640": "https://cdn.pixabay.com/photo/2021/02/10/13/03/starfruit-6002004_640.jpg",
        "src1280": "https://cdn.pixabay.com/photo/2021/02/10/13/03/starfruit-6002004_1280.jpg"
    },
    {
        "id": "5129474",
        "src640": "https://cdn.pixabay.com/photo/2020/05/04/14/49/banquet-5129474_640.jpg",
        "src1280": "https://cdn.pixabay.com/photo/2020/05/04/14/49/banquet-5129474_1280.jpg"
    },
    {
        "id": "7572466",
        "src640": "https://cdn.pixabay.com/photo/2022/11/05/17/51/food-7572466_640.jpg",
        "src1280": "https://cdn.pixabay.com/photo/2022/11/05/17/51/food-7572466_1280.jpg"
    },
    {
        "id": "7600508",
        "src640": "https://cdn.pixabay.com/photo/2022/11/18/16/18/devil-eggs-7600508_640.jpg",
        "src1280": "https://cdn.pixabay.com/photo/2022/11/18/16/18/devil-eggs-7600508_1280.jpg"
    },
    {
        "id": "3702380",
        "src640": "https://cdn.pixabay.com/photo/2018/09/25/14/09/jam-3702380_640.jpg",
        "src1280": "https://cdn.pixabay.com/photo/2018/09/25/14/09/jam-3702380_1280.jpg"
    },
    {
        "id": "3163019",
        "src640": "https://cdn.pixabay.com/photo/2018/02/18/18/22/fruit-3163019_640.jpg",
        "src1280": "https://cdn.pixabay.com/photo/2018/02/18/18/22/fruit-3163019_1280.jpg"
    },
    {
        "id": "7864268",
        "src640": "https://cdn.pixabay.com/photo/2023/03/20/10/04/pork-7864268_640.jpg",
        "src1280": "https://cdn.pixabay.com/photo/2023/03/20/10/04/pork-7864268_1280.jpg"
    },
    {
        "id": "219695",
        "src640": "https://cdn.pixabay.com/photo/2013/11/28/09/51/red-219695_640.jpg",
        "src1280": "https://cdn.pixabay.com/photo/2013/11/28/09/51/red-219695_1280.jpg"
    },
    {
        "id": "2152103",
        "src640": "https://cdn.pixabay.com/photo/2017/03/17/16/47/bread-2152103_640.jpg",
        "src1280": "https://cdn.pixabay.com/photo/2017/03/17/16/47/bread-2152103_1280.jpg"
    },
    {
        "id": "6176261",
        "src640": "https://cdn.pixabay.com/photo/2021/04/13/17/28/rabbit-6176261_640.jpg",
        "src1280": "https://cdn.pixabay.com/photo/2021/04/13/17/28/rabbit-6176261_1280.jpg"
    },
    {
        "id": "2267995",
        "src640": "https://cdn.pixabay.com/photo/2017/04/28/10/02/rhubarb-2267995_640.jpg",
        "src1280": "https://cdn.pixabay.com/photo/2017/04/28/10/02/rhubarb-2267995_1280.jpg"
    },
    {
        "id": "5862474",
        "src640": "https://cdn.pixabay.com/photo/2020/12/26/21/45/pineapple-5862474_640.jpg",
        "src1280": "https://cdn.pixabay.com/photo/2020/12/26/21/45/pineapple-5862474_1280.jpg"
    },
    {
        "id": "5469009",
        "src640": "https://cdn.pixabay.com/photo/2020/08/06/19/39/cookies-5469009_640.jpg",
        "src1280": "https://cdn.pixabay.com/photo/2020/08/06/19/39/cookies-5469009_1280.jpg"
    },
    {
        "id": "3414241",
        "src640": "https://cdn.pixabay.com/photo/2018/05/19/20/00/birds-3414241_640.jpg",
        "src1280": "https://cdn.pixabay.com/photo/2018/05/19/20/00/birds-3414241_1280.jpg"
    },
    {
        "id": "1258624",
        "src640": "https://cdn.pixabay.com/photo/2016/03/15/16/14/cress-1258624_640.jpg",
        "src1280": "https://cdn.pixabay.com/photo/2016/03/15/16/14/cress-1258624_1280.jpg"
    },
    {
        "id": "896665",
        "src640": "https://cdn.pixabay.com/photo/2015/08/19/21/20/corn-896665_640.jpg",
        "src1280": "https://cdn.pixabay.com/photo/2015/08/19/21/20/corn-896665_1280.jpg"
    },
    {
        "id": "14170",
        "src640": "https://cdn.pixabay.com/photo/2012/02/17/14/53/animals-14170_640.jpg",
        "src1280": "https://cdn.pixabay.com/photo/2012/02/17/14/53/animals-14170_1280.jpg"
    },
    {
        "id": "7336506",
        "src640": "https://cdn.pixabay.com/photo/2022/07/21/15/55/dry-dog-food-7336506_640.jpg",
        "src1280": "https://cdn.pixabay.com/photo/2022/07/21/15/55/dry-dog-food-7336506_1280.jpg"
    },
    {
        "id": "838500",
        "src640": "https://cdn.pixabay.com/photo/2015/07/09/20/18/ham-838500_640.jpg",
        "src1280": "https://cdn.pixabay.com/photo/2015/07/09/20/18/ham-838500_1280.jpg"
    },
    {
        "id": "2428580",
        "src640": "https://cdn.pixabay.com/photo/2017/06/21/21/05/onion-2428580_640.jpg",
        "src1280": "https://cdn.pixabay.com/photo/2017/06/21/21/05/onion-2428580_1280.jpg"
    },
    {
        "id": "4263226",
        "src640": "https://cdn.pixabay.com/photo/2019/06/09/23/39/wedding-4263226_640.jpg",
        "src1280": "https://cdn.pixabay.com/photo/2019/06/09/23/39/wedding-4263226_1280.jpg"
    },
    {
        "id": "2448657",
        "src640": "https://cdn.pixabay.com/photo/2017/06/27/19/55/fruit-2448657_640.jpg",
        "src1280": "https://cdn.pixabay.com/photo/2017/06/27/19/55/fruit-2448657_1280.jpg"
    },
    {
        "id": "2877445",
        "src640": "https://cdn.pixabay.com/photo/2017/10/22/10/51/fire-2877445_640.jpg",
        "src1280": "https://cdn.pixabay.com/photo/2017/10/22/10/51/fire-2877445_1280.jpg"
    },
    {
        "id": "5817312",
        "src640": "https://cdn.pixabay.com/photo/2020/12/09/12/15/sweet-potato-5817312_640.jpg",
        "src1280": "https://cdn.pixabay.com/photo/2020/12/09/12/15/sweet-potato-5817312_1280.jpg"
    },
    {
        "id": "4376002",
        "src640": "https://cdn.pixabay.com/photo/2019/07/31/20/04/tomatoes-4376002_640.jpg",
        "src1280": "https://cdn.pixabay.com/photo/2019/07/31/20/04/tomatoes-4376002_1280.jpg"
    },
    {
        "id": "3687344",
        "src640": "https://cdn.pixabay.com/photo/2018/09/18/21/42/pumpkin-3687344_640.jpg",
        "src1280": "https://cdn.pixabay.com/photo/2018/09/18/21/42/pumpkin-3687344_1280.jpg"
    },
    {
        "id": "2563883",
        "src640": "https://cdn.pixabay.com/photo/2017/08/01/09/20/bag-2563883_640.jpg",
        "src1280": "https://cdn.pixabay.com/photo/2017/08/01/09/20/bag-2563883_1280.jpg"
    },
    {
        "id": "2728795",
        "src640": "https://cdn.pixabay.com/photo/2017/09/08/13/35/strawberries-2728795_640.jpg",
        "src1280": "https://cdn.pixabay.com/photo/2017/09/08/13/35/strawberries-2728795_1280.jpg"
    },
    {
        "id": "3316325",
        "src640": "https://cdn.pixabay.com/photo/2018/04/13/11/43/food-3316325_640.jpg",
        "src1280": "https://cdn.pixabay.com/photo/2018/04/13/11/43/food-3316325_1280.jpg"
    },
    {
        "id": "4229693",
        "src640": "https://cdn.pixabay.com/photo/2019/05/26/07/44/still-life-4229693_640.jpg",
        "src1280": "https://cdn.pixabay.com/photo/2019/05/26/07/44/still-life-4229693_1280.jpg"
    },
    {
        "id": "2617533",
        "src640": "https://cdn.pixabay.com/photo/2017/08/10/03/05/food-2617533_640.jpg",
        "src1280": "https://cdn.pixabay.com/photo/2017/08/10/03/05/food-2617533_1280.jpg"
    },
    {
        "id": "3306603",
        "src640": "https://cdn.pixabay.com/photo/2018/04/10/07/44/nature-3306603_640.jpg",
        "src1280": "https://cdn.pixabay.com/photo/2018/04/10/07/44/nature-3306603_1280.jpg"
    },
    {
        "id": "348844",
        "src640": "https://cdn.pixabay.com/photo/2014/05/20/15/04/food-348844_640.jpg",
        "src1280": "https://cdn.pixabay.com/photo/2014/05/20/15/04/food-348844_1280.jpg"
    },
    {
        "id": "5239713",
        "src640": "https://cdn.pixabay.com/photo/2020/05/30/17/32/egg-5239713_640.jpg",
        "src1280": "https://cdn.pixabay.com/photo/2020/05/30/17/32/egg-5239713_1280.jpg"
    },
    {
        "id": "986799",
        "src640": "https://cdn.pixabay.com/photo/2015/10/13/21/09/sandwich-986799_640.jpg",
        "src1280": "https://cdn.pixabay.com/photo/2015/10/13/21/09/sandwich-986799_1280.jpg"
    },
    {
        "id": "924741",
        "src640": "https://cdn.pixabay.com/photo/2015/09/05/19/36/muesli-924741_640.jpg",
        "src1280": "https://cdn.pixabay.com/photo/2015/09/05/19/36/muesli-924741_1280.jpg"
    },
    {
        "id": "7696824",
        "src640": "https://cdn.pixabay.com/photo/2023/01/04/14/17/burger-7696824_640.jpg",
        "src1280": "https://cdn.pixabay.com/photo/2023/01/04/14/17/burger-7696824_1280.jpg"
    },
    {
        "id": "3287800",
        "src640": "https://cdn.pixabay.com/photo/2018/04/03/19/44/fruit-3287800_640.jpg",
        "src1280": "https://cdn.pixabay.com/photo/2018/04/03/19/44/fruit-3287800_1280.jpg"
    },
    {
        "id": "3373527",
        "src640": "https://cdn.pixabay.com/photo/2018/05/04/09/17/food-3373527_640.jpg",
        "src1280": "https://cdn.pixabay.com/photo/2018/05/04/09/17/food-3373527_1280.jpg"
    },
    {
        "id": "2310269",
        "src640": "https://cdn.pixabay.com/photo/2017/05/13/17/52/hermetic-2310269_640.jpg",
        "src1280": "https://cdn.pixabay.com/photo/2017/05/13/17/52/hermetic-2310269_1280.jpg"
    },
    {
        "id": "4651320",
        "src640": "https://cdn.pixabay.com/photo/2019/11/25/08/51/butternut-4651320_640.jpg",
        "src1280": "https://cdn.pixabay.com/photo/2019/11/25/08/51/butternut-4651320_1280.jpg"
    },
    {
        "id": "4717795",
        "src640": "https://cdn.pixabay.com/photo/2019/12/25/04/05/fish-4717795_640.jpg",
        "src1280": "https://cdn.pixabay.com/photo/2019/12/25/04/05/fish-4717795_1280.jpg"
    },
    {
        "id": "3911747",
        "src640": "https://cdn.pixabay.com/photo/2019/01/03/19/29/coffee-3911747_640.jpg",
        "src1280": "https://cdn.pixabay.com/photo/2019/01/03/19/29/coffee-3911747_1280.jpg"
    },
    {
        "id": "314946",
        "src640": "https://cdn.pixabay.com/photo/2014/04/05/11/18/christmas-314946_640.jpg",
        "src1280": "https://cdn.pixabay.com/photo/2014/04/05/11/18/christmas-314946_1280.jpg"
    },
    {
        "id": "3366575",
        "src640": "https://cdn.pixabay.com/photo/2018/05/01/18/57/food-3366575_640.jpg",
        "src1280": "https://cdn.pixabay.com/photo/2018/05/01/18/57/food-3366575_1280.jpg"
    },
    {
        "id": "3356766",
        "src640": "https://cdn.pixabay.com/photo/2018/04/28/07/49/donut-3356766_640.jpg",
        "src1280": "https://cdn.pixabay.com/photo/2018/04/28/07/49/donut-3356766_1280.jpg"
    },
    {
        "id": "3894011",
        "src640": "https://cdn.pixabay.com/photo/2018/12/25/09/26/mushroom-3894011_640.jpg",
        "src1280": "https://cdn.pixabay.com/photo/2018/12/25/09/26/mushroom-3894011_1280.jpg"
    },
    {
        "id": "4528972",
        "src640": "https://cdn.pixabay.com/photo/2019/10/05/22/29/red-4528972_640.jpg",
        "src1280": "https://cdn.pixabay.com/photo/2019/10/05/22/29/red-4528972_1280.jpg"
    },
    {
        "id": "3057455",
        "src640": "https://cdn.pixabay.com/photo/2018/01/03/02/28/natural-3057455_640.jpg",
        "src1280": "https://cdn.pixabay.com/photo/2018/01/03/02/28/natural-3057455_1280.jpg"
    },
    {
        "id": "3468614",
        "src640": "https://cdn.pixabay.com/photo/2018/06/11/14/47/egg-3468614_640.jpg",
        "src1280": "https://cdn.pixabay.com/photo/2018/06/11/14/47/egg-3468614_1280.jpg"
    },
    {
        "id": "1991820",
        "src640": "https://cdn.pixabay.com/photo/2017/01/19/08/58/chocolate-1991820_640.jpg",
        "src1280": "https://cdn.pixabay.com/photo/2017/01/19/08/58/chocolate-1991820_1280.jpg"
    },
    {
        "id": "8002037",
        "src640": "https://cdn.pixabay.com/photo/2023/05/18/11/37/man-8002037_640.jpg",
        "src1280": "https://cdn.pixabay.com/photo/2023/05/18/11/37/man-8002037_1280.jpg"
    },
    {
        "id": "5963210",
        "src640": "https://cdn.pixabay.com/photo/2021/01/30/08/55/onions-5963210_640.jpg",
        "src1280": "https://cdn.pixabay.com/photo/2021/01/30/08/55/onions-5963210_1280.jpg"
    },
    {
        "id": "2567384",
        "src640": "https://cdn.pixabay.com/photo/2017/08/01/18/57/pancake-2567384_640.jpg",
        "src1280": "https://cdn.pixabay.com/photo/2017/08/01/18/57/pancake-2567384_1280.jpg"
    },
    {
        "id": "950708",
        "src640": "https://cdn.pixabay.com/photo/2015/09/21/20/56/cucumbers-950708_640.jpg",
        "src1280": "https://cdn.pixabay.com/photo/2015/09/21/20/56/cucumbers-950708_1280.jpg"
    },
    {
        "id": "921842",
        "src640": "https://cdn.pixabay.com/photo/2015/09/04/09/59/mug-921842_640.jpg",
        "src1280": "https://cdn.pixabay.com/photo/2015/09/04/09/59/mug-921842_1280.jpg"
    },
    {
        "id": "7348063",
        "src640": "https://cdn.pixabay.com/photo/2022/07/27/14/40/biscuits-7348063_640.jpg",
        "src1280": "https://cdn.pixabay.com/photo/2022/07/27/14/40/biscuits-7348063_1280.jpg"
    },
    {
        "id": "7213508",
        "src640": "https://cdn.pixabay.com/photo/2022/05/22/14/38/bread-7213508_640.jpg",
        "src1280": "https://cdn.pixabay.com/photo/2022/05/22/14/38/bread-7213508_1280.jpg"
    },
    {
        "id": "7574989",
        "src640": "https://cdn.pixabay.com/photo/2022/11/06/20/26/wine-7574989_640.jpg",
        "src1280": "https://cdn.pixabay.com/photo/2022/11/06/20/26/wine-7574989_1280.jpg"
    },
    {
        "id": "6359472",
        "src640": "https://cdn.pixabay.com/photo/2021/06/23/19/09/apple-6359472_640.jpg",
        "src1280": "https://cdn.pixabay.com/photo/2021/06/23/19/09/apple-6359472_1280.jpg"
    },
    {
        "id": "167926",
        "src640": "https://cdn.pixabay.com/photo/2013/07/26/17/46/red-currant-167926_640.jpg",
        "src1280": "https://cdn.pixabay.com/photo/2013/07/26/17/46/red-currant-167926_1280.jpg"
    },
    {
        "id": "2667252",
        "src640": "https://cdn.pixabay.com/photo/2017/08/21/23/05/paprika-2667252_640.jpg",
        "src1280": "https://cdn.pixabay.com/photo/2017/08/21/23/05/paprika-2667252_1280.jpg"
    },
    {
        "id": "4510605",
        "src640": "https://cdn.pixabay.com/photo/2019/09/28/12/21/apple-4510605_640.jpg",
        "src1280": "https://cdn.pixabay.com/photo/2019/09/28/12/21/apple-4510605_1280.jpg"
    },
    {
        "id": "4362613",
        "src640": "https://cdn.pixabay.com/photo/2019/07/25/13/25/the-squirrel-4362613_640.jpg",
        "src1280": "https://cdn.pixabay.com/photo/2019/07/25/13/25/the-squirrel-4362613_1280.jpg"
    },
    {
        "id": "4887226",
        "src640": "https://cdn.pixabay.com/photo/2020/02/28/11/37/cake-4887226_640.jpg",
        "src1280": "https://cdn.pixabay.com/photo/2020/02/28/11/37/cake-4887226_1280.jpg"
    },
    {
        "id": "823831",
        "src640": "https://cdn.pixabay.com/photo/2015/06/27/20/54/grapes-823831_640.jpg",
        "src1280": "https://cdn.pixabay.com/photo/2015/06/27/20/54/grapes-823831_1280.jpg"
    },
    {
        "id": "4782936",
        "src640": "https://cdn.pixabay.com/photo/2020/01/21/14/01/cherry-tomatoes-4782936_640.jpg",
        "src1280": "https://cdn.pixabay.com/photo/2020/01/21/14/01/cherry-tomatoes-4782936_1280.jpg"
    },
    {
        "id": "4722094",
        "src640": "https://cdn.pixabay.com/photo/2019/12/27/10/00/noodles-4722094_640.jpg",
        "src1280": "https://cdn.pixabay.com/photo/2019/12/27/10/00/noodles-4722094_1280.jpg"
    },
    {
        "id": "4172935",
        "src640": "https://cdn.pixabay.com/photo/2019/05/02/09/19/fillet-of-beef-4172935_640.jpg",
        "src1280": "https://cdn.pixabay.com/photo/2019/05/02/09/19/fillet-of-beef-4172935_1280.jpg"
    },
    {
        "id": "896068",
        "src640": "https://cdn.pixabay.com/photo/2015/08/19/14/26/grapes-896068_640.jpg",
        "src1280": "https://cdn.pixabay.com/photo/2015/08/19/14/26/grapes-896068_1280.jpg"
    },
    {
        "id": "2586691",
        "src640": "https://cdn.pixabay.com/photo/2017/08/05/23/35/chocolate-2586691_640.jpg",
        "src1280": "https://cdn.pixabay.com/photo/2017/08/05/23/35/chocolate-2586691_1280.jpg"
    },
    {
        "id": "1202978",
        "src640": "https://cdn.pixabay.com/photo/2016/02/16/09/38/cat-sanno-1202978_640.jpg",
        "src1280": "https://cdn.pixabay.com/photo/2016/02/16/09/38/cat-sanno-1202978_1280.jpg"
    },
    {
        "id": "1075838",
        "src640": "https://cdn.pixabay.com/photo/2015/12/03/22/24/omlett-1075838_640.jpg",
        "src1280": "https://cdn.pixabay.com/photo/2015/12/03/22/24/omlett-1075838_1280.jpg"
    },
    {
        "id": "9915",
        "src640": "https://cdn.pixabay.com/photo/2011/09/15/15/40/black-elderberry-9915_640.jpg",
        "src1280": "https://cdn.pixabay.com/photo/2011/09/15/15/40/black-elderberry-9915_1280.jpg"
    },
    {
        "id": "7790552",
        "src640": "https://cdn.pixabay.com/photo/2023/02/14/22/41/glass-7790552_640.jpg",
        "src1280": "https://cdn.pixabay.com/photo/2023/02/14/22/41/glass-7790552_1280.jpg"
    },
    {
        "id": "8072860",
        "src640": "https://cdn.pixabay.com/photo/2023/06/18/22/20/pizza-8072860_640.jpg",
        "src1280": "https://cdn.pixabay.com/photo/2023/06/18/22/20/pizza-8072860_1280.jpg"
    },
    {
        "id": "8267176",
        "src640": "https://cdn.pixabay.com/photo/2023/09/21/16/43/salmon-8267176_640.jpg",
        "src1280": "https://cdn.pixabay.com/photo/2023/09/21/16/43/salmon-8267176_1280.jpg"
    },
    {
        "id": "3465346",
        "src640": "https://cdn.pixabay.com/photo/2018/06/09/22/16/currants-3465346_640.jpg",
        "src1280": "https://cdn.pixabay.com/photo/2018/06/09/22/16/currants-3465346_1280.jpg"
    },
    {
        "id": "4565275",
        "src640": "https://cdn.pixabay.com/photo/2019/10/21/06/36/fish-4565275_640.jpg",
        "src1280": "https://cdn.pixabay.com/photo/2019/10/21/06/36/fish-4565275_1280.jpg"
    },
    {
        "id": "5032781",
        "src640": "https://cdn.pixabay.com/photo/2020/04/12/05/14/kitchen-5032781_640.jpg",
        "src1280": "https://cdn.pixabay.com/photo/2020/04/12/05/14/kitchen-5032781_1280.jpg"
    },
    {
        "id": "2633032",
        "src640": "https://cdn.pixabay.com/photo/2017/08/11/22/49/tomato-2633032_640.jpg",
        "src1280": "https://cdn.pixabay.com/photo/2017/08/11/22/49/tomato-2633032_1280.jpg"
    },
    {
        "id": "6002667",
        "src640": "https://cdn.pixabay.com/photo/2021/02/10/16/13/ice-cream-6002667_640.jpg",
        "src1280": "https://cdn.pixabay.com/photo/2021/02/10/16/13/ice-cream-6002667_1280.jpg"
    }
]