[
    {
        "id": "4652695",
        "src640": "https://cdn.pixabay.com/photo/2019/11/25/18/04/biscuit-4652695_640.jpg",
        "src1280": "https://cdn.pixabay.com/photo/2019/11/25/18/04/biscuit-4652695_1280.jpg"
    },
    {
        "id": "5926199",
        "src640": "https://cdn.pixabay.com/photo/2021/01/17/19/17/fruit-5926199_640.jpg",
        "src1280": "https://cdn.pixabay.com/photo/2021/01/17/19/17/fruit-5926199_1280.jpg"
    },
    {
        "id": "5683914",
        "src640": "https://cdn.pixabay.com/photo/2020/10/25/11/11/pizza-5683914_640.jpg",
        "src1280": "https://cdn.pixabay.com/photo/2020/10/25/11/11/pizza-5683914_1280.jpg"
    },
    {
        "id": "1301644",
        "src640": "https://cdn.pixabay.com/photo/2016/04/01/21/33/paprika-1301644_640.jpg",
        "src1280": "https://cdn.pixabay.com/photo/2016/04/01/21/33/paprika-1301644_1280.jpg"
    },
    {
        "id": "7249260",
        "src640": "https://cdn.pixabay.com/photo/2022/06/07/20/58/salad-7249260_640.jpg",
        "src1280": "https://cdn.pixabay.com/photo/2022/06/07/20/58/salad-7249260_1280.jpg"
    },
    {
        "id": "21881",
        "src640": "https://cdn.pixabay.com/photo/2012/03/04/00/20/bright-21881_640.jpg",
        "src1280": "https://cdn.pixabay.com/photo/2012/03/04/00/20/bright-21881_1280.jpg"
    },
    {
        "id": "178266",
        "src640": "https://cdn.pixabay.com/photo/2013/09/02/06/23/bloom-178266_640.jpg",
        "src1280": "https://cdn.pixabay.com/photo/2013/09/02/06/23/bloom-178266_1280.jpg"
    },
    {
        "id": "5012312",
        "src640": "https://cdn.pixabay.com/photo/2020/04/07/07/04/apples-5012312_640.jpg",
        "src1280": "https://cdn.pixabay.com/photo/2020/04/07/07/04/apples-5012312_1280.jpg"
    },
    {
        "id": "1724032",
        "src640": "https://cdn.pixabay.com/photo/2016/10/08/16/33/apple-1724032_640.jpg",
        "src1280": "https://cdn.pixabay.com/photo/2016/10/08/16/33/apple-1724032_1280.jpg"
    },
    {
        "id": "316241",
        "src640": "https://cdn.pixabay.com/photo/2014/04/05/11/32/tree-tomato-316241_640.jpg",
        "src1280": "https://cdn.pixabay.com/photo/2014/04/05/11/32/tree-tomato-316241_1280.jpg"
    },
    {
        "id": "6932940",
        "src640": "https://cdn.pixabay.com/photo/2022/01/12/14/17/mug-6932940_640.jpg",
        "src1280": "https://cdn.pixabay.com/photo/2022/01/12/14/17/mug-6932940_1280.jpg"
    },
    {
        "id": "5037802",
        "src640": "https://cdn.pixabay.com/photo/2020/04/13/10/48/vegetable-5037802_640.jpg",
        "src1280": "https://cdn.pixabay.com/photo/2020/04/13/10/48/vegetable-5037802_1280.jpg"
    },
    {
        "id": "3623398",
        "src640": "https://cdn.pixabay.com/photo/2018/08/22/10/57/eggs-3623398_640.jpg",
        "src1280": "https://cdn.pixabay.com/photo/2018/08/22/10/57/eggs-3623398_1280.jpg"
    },
    {
        "id": "1365862",
        "src640": "https://cdn.pixabay.com/photo/2016/05/01/20/44/stinging-nettle-1365862_640.jpg",
        "src1280": "https://cdn.pixabay.com/photo/2016/05/01/20/44/stinging-nettle-1365862_1280.jpg"
    },
    {
        "id": "1161150",
        "src640": "https://cdn.pixabay.com/photo/2016/01/25/17/49/wedding-1161150_640.jpg",
        "src1280": "https://cdn.pixabay.com/photo/2016/01/25/17/49/wedding-1161150_1280.jpg"
    },
    {
        "id": "5112105",
        "src640": "https://cdn.pixabay.com/photo/2020/04/30/09/43/vintage-5112105_640.jpg",
        "src1280": "https://cdn.pixabay.com/photo/2020/04/30/09/43/vintage-5112105_1280.jpg"
    },
    {
        "id": "6932936",
        "src640": "https://cdn.pixabay.com/photo/2022/01/12/14/16/mug-6932936_640.jpg",
        "src1280": "https://cdn.pixabay.com/photo/2022/01/12/14/16/mug-6932936_1280.jpg"
    },
    {
        "id": "839602",
        "src640": "https://cdn.pixabay.com/photo/2015/07/10/16/15/bag-839602_640.jpg",
        "src1280": "https://cdn.pixabay.com/photo/2015/07/10/16/15/bag-839602_1280.jpg"
    },
    {
        "id": "4876363",
        "src640": "https://cdn.pixabay.com/photo/2020/02/24/14/25/cafe-4876363_640.jpg",
        "src1280": "https://cdn.pixabay.com/photo/2020/02/24/14/25/cafe-4876363_1280.jpg"
    },
    {
        "id": "4517716",
        "src640": "https://cdn.pixabay.com/photo/2019/10/01/09/36/coffee-4517716_640.jpg",
        "src1280": "https://cdn.pixabay.com/photo/2019/10/01/09/36/coffee-4517716_1280.jpg"
    },
    {
        "id": "7364739",
        "src640": "https://cdn.pixabay.com/photo/2022/08/04/13/41/coffee-7364739_640.jpg",
        "src1280": "https://cdn.pixabay.com/photo/2022/08/04/13/41/coffee-7364739_1280.jpg"
    },
    {
        "id": "4877378",
        "src640": "https://cdn.pixabay.com/photo/2020/02/24/20/46/food-4877378_640.jpg",
        "src1280": "https://cdn.pixabay.com/photo/2020/02/24/20/46/food-4877378_1280.jpg"
    },
    {
        "id": "4270849",
        "src640": "https://cdn.pixabay.com/photo/2019/06/13/06/41/sunset-4270849_640.jpg",
        "src1280": "https://cdn.pixabay.com/photo/2019/06/13/06/41/sunset-4270849_1280.jpg"
    },
    {
        "id": "3102514",
        "src640": "https://cdn.pixabay.com/photo/2018/01/23/21/48/sweetness-3102514_640.jpg",
        "src1280": "https://cdn.pixabay.com/photo/2018/01/23/21/48/sweetness-3102514_1280.jpg"
    },
    {
        "id": "959123",
        "src640": "https://cdn.pixabay.com/photo/2015/09/26/14/07/large-pumpkin-959123_640.jpg",
        "src1280": "https://cdn.pixabay.com/photo/2015/09/26/14/07/large-pumpkin-959123_1280.jpg"
    },
    {
        "id": "4927100",
        "src640": "https://cdn.pixabay.com/photo/2020/03/13/06/31/restaurant-4927100_640.jpg",
        "src1280": "https://cdn.pixabay.com/photo/2020/03/13/06/31/restaurant-4927100_1280.jpg"
    },
    {
        "id": "5185403",
        "src640": "https://cdn.pixabay.com/photo/2020/05/18/09/30/picnic-5185403_640.jpg",
        "src1280": "https://cdn.pixabay.com/photo/2020/05/18/09/30/picnic-5185403_1280.jpg"
    },
    {
        "id": "5139057",
        "src640": "https://cdn.pixabay.com/photo/2020/05/06/20/19/smoothie-5139057_640.jpg",
        "src1280": "https://cdn.pixabay.com/photo/2020/05/06/20/19/smoothie-5139057_1280.jpg"
    },
    {
        "id": "3821488",
        "src640": "https://cdn.pixabay.com/photo/2018/11/17/17/10/dough-3821488_640.jpg",
        "src1280": "https://cdn.pixabay.com/photo/2018/11/17/17/10/dough-3821488_1280.jpg"
    },
    {
        "id": "5742426",
        "src640": "https://cdn.pixabay.com/photo/2020/11/14/17/54/tomato-5742426_640.jpg",
        "src1280": "https://cdn.pixabay.com/photo/2020/11/14/17/54/tomato-5742426_1280.jpg"
    },
    {
        "id": "5339722",
        "src640": "https://cdn.pixabay.com/photo/2020/06/25/13/48/sugar-5339722_640.jpg",
        "src1280": "https://cdn.pixabay.com/photo/2020/06/25/13/48/sugar-5339722_1280.jpg"
    },
    {
        "id": "2436926",
        "src640": "https://cdn.pixabay.com/photo/2017/06/24/07/57/sushi-2436926_640.jpg",
        "src1280": "https://cdn.pixabay.com/photo/2017/06/24/07/57/sushi-2436926_1280.jpg"
    },
    {
        "id": "4988041",
        "src640": "https://cdn.pixabay.com/photo/2020/03/31/15/01/scones-4988041_640.jpg",
        "src1280": "https://cdn.pixabay.com/photo/2020/03/31/15/01/scones-4988041_1280.jpg"
    },
    {
        "id": "6932912",
        "src640": "https://cdn.pixabay.com/photo/2022/01/12/14/15/mug-6932912_640.jpg",
        "src1280": "https://cdn.pixabay.com/photo/2022/01/12/14/15/mug-6932912_1280.jpg"
    },
    {
        "id": "1000426",
        "src640": "https://cdn.pixabay.com/photo/2015/10/21/22/07/larva-1000426_640.jpg",
        "src1280": "https://cdn.pixabay.com/photo/2015/10/21/22/07/larva-1000426_1280.jpg"
    },
    {
        "id": "6932915",
        "src640": "https://cdn.pixabay.com/photo/2022/01/12/14/15/mug-6932915_640.jpg",
        "src1280": "https://cdn.pixabay.com/photo/2022/01/12/14/15/mug-6932915_1280.jpg"
    },
    {
        "id": "5340343",
        "src640": "https://cdn.pixabay.com/photo/2020/06/25/17/57/scythe-5340343_640.jpg",
        "src1280": "https://cdn.pixabay.com/photo/2020/06/25/17/57/scythe-5340343_1280.jpg"
    },
    {
        "id": "5317550",
        "src640": "https://cdn.pixabay.com/photo/2020/06/19/13/58/farm-5317550_640.jpg",
        "src1280": "https://cdn.pixabay.com/photo/2020/06/19/13/58/farm-5317550_1280.jpg"
    },
    {
        "id": "4623257",
        "src640": "https://cdn.pixabay.com/photo/2019/11/13/10/49/coffee-4623257_640.jpg",
        "src1280": "https://cdn.pixabay.com/photo/2019/11/13/10/49/coffee-4623257_1280.jpg"
    },
    {
        "id": "2806907",
        "src640": "https://cdn.pixabay.com/photo/2017/10/01/20/30/tomato-2806907_640.jpg",
        "src1280": "https://cdn.pixabay.com/photo/2017/10/01/20/30/tomato-2806907_1280.jpg"
    },
    {
        "id": "5423738",
        "src640": "https://cdn.pixabay.com/photo/2020/07/20/17/27/coffee-5423738_640.jpg",
        "src1280": "https://cdn.pixabay.com/photo/2020/07/20/17/27/coffee-5423738_1280.jpg"
    },
    {
        "id": "5026619",
        "src640": "https://cdn.pixabay.com/photo/2020/04/10/16/33/flowering-kale-5026619_640.jpg",
        "src1280": "https://cdn.pixabay.com/photo/2020/04/10/16/33/flowering-kale-5026619_1280.jpg"
    },
    {
        "id": "2410435",
        "src640": "https://cdn.pixabay.com/photo/2017/06/16/21/36/currant-2410435_640.jpg",
        "src1280": "https://cdn.pixabay.com/photo/2017/06/16/21/36/currant-2410435_1280.jpg"
    },
    {
        "id": "4141673",
        "src640": "https://cdn.pixabay.com/photo/2019/04/20/12/08/chicken-liver-4141673_640.jpg",
        "src1280": "https://cdn.pixabay.com/photo/2019/04/20/12/08/chicken-liver-4141673_1280.jpg"
    },
    {
        "id": "7660908",
        "src640": "https://cdn.pixabay.com/photo/2022/12/17/04/04/ai-generated-7660908_640.jpg",
        "src1280": "https://cdn.pixabay.com/photo/2022/12/17/04/04/ai-generated-7660908_1280.jpg"
    },
    {
        "id": "1500483",
        "src640": "https://cdn.pixabay.com/photo/2016/07/06/13/25/spaghetti-1500483_640.jpg",
        "src1280": "https://cdn.pixabay.com/photo/2016/07/06/13/25/spaghetti-1500483_1280.jpg"
    },
    {
        "id": "1850222",
        "src640": "https://cdn.pixabay.com/photo/2016/11/22/19/32/agriculture-1850222_640.jpg",
        "src1280": "https://cdn.pixabay.com/photo/2016/11/22/19/32/agriculture-1850222_1280.jpg"
    },
    {
        "id": "4975739",
        "src640": "https://cdn.pixabay.com/photo/2020/03/28/05/18/food-4975739_640.jpg",
        "src1280": "https://cdn.pixabay.com/photo/2020/03/28/05/18/food-4975739_1280.jpg"
    },
    {
        "id": "5157330",
        "src640": "https://cdn.pixabay.com/photo/2020/05/11/09/57/french-toast-5157330_640.jpg",
        "src1280": "https://cdn.pixabay.com/photo/2020/05/11/09/57/french-toast-5157330_1280.jpg"
    },
    {
        "id": "5034987",
        "src640": "https://cdn.pixabay.com/photo/2020/04/12/16/57/nuts-5034987_640.jpg",
        "src1280": "https://cdn.pixabay.com/photo/2020/04/12/16/57/nuts-5034987_1280.jpg"
    },
    {
        "id": "985544",
        "src640": "https://cdn.pixabay.com/photo/2015/10/13/03/24/agriculture-985544_640.jpg",
        "src1280": "https://cdn.pixabay.com/photo/2015/10/13/03/24/agriculture-985544_1280.jpg"
    },
    {
        "id": "7473551",
        "src640": "https://cdn.pixabay.com/photo/2022/09/23/04/07/noodle-7473551_640.jpg",
        "src1280": "https://cdn.pixabay.com/photo/2022/09/23/04/07/noodle-7473551_1280.jpg"
    },
    {
        "id": "7631506",
        "src640": "https://cdn.pixabay.com/photo/2022/12/02/19/22/boys-7631506_640.jpg",
        "src1280": "https://cdn.pixabay.com/photo/2022/12/02/19/22/boys-7631506_1280.jpg"
    },
    {
        "id": "4938704",
        "src640": "https://cdn.pixabay.com/photo/2020/03/17/00/39/food-4938704_640.jpg",
        "src1280": "https://cdn.pixabay.com/photo/2020/03/17/00/39/food-4938704_1280.jpg"
    },
    {
        "id": "6003590",
        "src640": "https://cdn.pixabay.com/photo/2021/02/10/21/21/biscuits-6003590_640.jpg",
        "src1280": "https://cdn.pixabay.com/photo/2021/02/10/21/21/biscuits-6003590_1280.jpg"
    },
    {
        "id": "7277515",
        "src640": "https://cdn.pixabay.com/photo/2022/06/22/09/28/agricultural-7277515_640.jpg",
        "src1280": "https://cdn.pixabay.com/photo/2022/06/22/09/28/agricultural-7277515_1280.jpg"
    },
    {
        "id": "7698663",
        "src640": "https://cdn.pixabay.com/photo/2023/01/05/11/21/croissant-7698663_640.jpg",
        "src1280": "https://cdn.pixabay.com/photo/2023/01/05/11/21/croissant-7698663_1280.jpg"
    },
    {
        "id": "232230",
        "src640": "https://cdn.pixabay.com/photo/2013/12/22/07/13/layer-nougat-232230_640.jpg",
        "src1280": "https://cdn.pixabay.com/photo/2013/12/22/07/13/layer-nougat-232230_1280.jpg"
    },
    {
        "id": "5552299",
        "src640": "https://cdn.pixabay.com/photo/2020/09/07/16/30/orange-5552299_640.jpg",
        "src1280": "https://cdn.pixabay.com/photo/2020/09/07/16/30/orange-5552299_1280.jpg"
    },
    {
        "id": "5519810",
        "src640": "https://cdn.pixabay.com/photo/2020/08/26/15/42/cupcakes-5519810_640.jpg",
        "src1280": "https://cdn.pixabay.com/photo/2020/08/26/15/42/cupcakes-5519810_1280.jpg"
    },
    {
        "id": "4899461",
        "src640": "https://cdn.pixabay.com/photo/2020/03/03/18/13/mint-4899461_640.jpg",
        "src1280": "https://cdn.pixabay.com/photo/2020/03/03/18/13/mint-4899461_1280.jpg"
    },
    {
        "id": "4693480",
        "src640": "https://cdn.pixabay.com/photo/2019/12/13/17/22/dog-4693480_640.jpg",
        "src1280": "https://cdn.pixabay.com/photo/2019/12/13/17/22/dog-4693480_1280.jpg"
    },
    {
        "id": "4821748",
        "src640": "https://cdn.pixabay.com/photo/2020/02/05/16/55/noodle-4821748_640.jpg",
        "src1280": "https://cdn.pixabay.com/photo/2020/02/05/16/55/noodle-4821748_1280.jpg"
    },
    {
        "id": "4868199",
        "src640": "https://cdn.pixabay.com/photo/2020/02/21/17/19/silverware-4868199_640.jpg",
        "src1280": "https://cdn.pixabay.com/photo/2020/02/21/17/19/silverware-4868199_1280.jpg"
    },
    {
        "id": "182854",
        "src640": "https://cdn.pixabay.com/photo/2013/09/16/16/03/strawberry-182854_640.jpg",
        "src1280": "https://cdn.pixabay.com/photo/2013/09/16/16/03/strawberry-182854_1280.jpg"
    },
    {
        "id": "5442639",
        "src640": "https://cdn.pixabay.com/photo/2020/07/27/14/46/tomatoes-5442639_640.jpg",
        "src1280": "https://cdn.pixabay.com/photo/2020/07/27/14/46/tomatoes-5442639_1280.jpg"
    },
    {
        "id": "4428806",
        "src640": "https://cdn.pixabay.com/photo/2019/08/25/06/04/mercado-4428806_640.jpg",
        "src1280": "https://cdn.pixabay.com/photo/2019/08/25/06/04/mercado-4428806_1280.jpg"
    },
    {
        "id": "1509573",
        "src640": "https://cdn.pixabay.com/photo/2016/07/11/12/23/eggplant-1509573_640.jpg",
        "src1280": "https://cdn.pixabay.com/photo/2016/07/11/12/23/eggplant-1509573_1280.jpg"
    },
    {
        "id": "998570",
        "src640": "https://cdn.pixabay.com/photo/2015/10/20/22/16/larva-998570_640.jpg",
        "src1280": "https://cdn.pixabay.com/photo/2015/10/20/22/16/larva-998570_1280.jpg"
    },
    {
        "id": "182858",
        "src640": "https://cdn.pixabay.com/photo/2013/09/16/16/08/thin-mint-182858_640.jpg",
        "src1280": "https://cdn.pixabay.com/photo/2013/09/16/16/08/thin-mint-182858_1280.jpg"
    },
    {
        "id": "5831338",
        "src640": "https://cdn.pixabay.com/photo/2020/12/14/16/02/food-5831338_640.jpg",
        "src1280": "https://cdn.pixabay.com/photo/2020/12/14/16/02/food-5831338_1280.jpg"
    },
    {
        "id": "5928757",
        "src640": "https://cdn.pixabay.com/photo/2021/01/18/17/06/woodpecker-5928757_640.jpg",
        "src1280": "https://cdn.pixabay.com/photo/2021/01/18/17/06/woodpecker-5928757_1280.jpg"
    },
    {
        "id": "4280353",
        "src640": "https://cdn.pixabay.com/photo/2019/06/17/16/21/morning-light-4280353_640.jpg",
        "src1280": "https://cdn.pixabay.com/photo/2019/06/17/16/21/morning-light-4280353_1280.jpg"
    },
    {
        "id": "1000315",
        "src640": "https://cdn.pixabay.com/photo/2015/10/21/20/24/restaurant-1000315_640.jpg",
        "src1280": "https://cdn.pixabay.com/photo/2015/10/21/20/24/restaurant-1000315_1280.jpg"
    },
    {
        "id": "200624",
        "src640": "https://cdn.pixabay.com/photo/2013/10/25/00/58/wedding-200624_640.jpg",
        "src1280": "https://cdn.pixabay.com/photo/2013/10/25/00/58/wedding-200624_1280.jpg"
    },
    {
        "id": "3752701",
        "src640": "https://cdn.pixabay.com/photo/2018/10/16/22/29/parmigiano-3752701_640.jpg",
        "src1280": "https://cdn.pixabay.com/photo/2018/10/16/22/29/parmigiano-3752701_1280.jpg"
    },
    {
        "id": "2940279",
        "src640": "https://cdn.pixabay.com/photo/2017/11/11/20/07/food-2940279_640.jpg",
        "src1280": "https://cdn.pixabay.com/photo/2017/11/11/20/07/food-2940279_1280.jpg"
    },
    {
        "id": "2018964",
        "src640": "https://cdn.pixabay.com/photo/2017/01/29/18/34/glass-2018964_640.jpg",
        "src1280": "https://cdn.pixabay.com/photo/2017/01/29/18/34/glass-2018964_1280.jpg"
    },
    {
        "id": "2425680",
        "src640": "https://cdn.pixabay.com/photo/2017/06/21/01/27/beer-2425680_640.jpg",
        "src1280": "https://cdn.pixabay.com/photo/2017/06/21/01/27/beer-2425680_1280.jpg"
    },
    {
        "id": "5044809",
        "src640": "https://cdn.pixabay.com/photo/2020/04/15/01/25/variety-5044809_640.jpg",
        "src1280": "https://cdn.pixabay.com/photo/2020/04/15/01/25/variety-5044809_1280.jpg"
    },
    {
        "id": "6932911",
        "src640": "https://cdn.pixabay.com/photo/2022/01/12/14/15/mug-6932911_640.jpg",
        "src1280": "https://cdn.pixabay.com/photo/2022/01/12/14/15/mug-6932911_1280.jpg"
    },
    {
        "id": "5231141",
        "src640": "https://cdn.pixabay.com/photo/2020/05/28/13/06/farms-5231141_640.jpg",
        "src1280": "https://cdn.pixabay.com/photo/2020/05/28/13/06/farms-5231141_1280.jpg"
    },
    {
        "id": "4655868",
        "src640": "https://cdn.pixabay.com/photo/2019/11/27/01/30/cookie-4655868_640.jpg",
        "src1280": "https://cdn.pixabay.com/photo/2019/11/27/01/30/cookie-4655868_1280.jpg"
    },
    {
        "id": "7431091",
        "src640": "https://cdn.pixabay.com/photo/2022/09/04/08/27/corn-7431091_640.jpg",
        "src1280": "https://cdn.pixabay.com/photo/2022/09/04/08/27/corn-7431091_1280.jpg"
    },
    {
        "id": "1835022",
        "src640": "https://cdn.pixabay.com/photo/2016/11/18/14/44/cavoli-viola-1835022_640.jpg",
        "src1280": "https://cdn.pixabay.com/photo/2016/11/18/14/44/cavoli-viola-1835022_1280.jpg"
    },
    {
        "id": "5247709",
        "src640": "https://cdn.pixabay.com/photo/2020/06/01/17/48/strawberries-5247709_640.jpg",
        "src1280": "https://cdn.pixabay.com/photo/2020/06/01/17/48/strawberries-5247709_1280.jpg"
    }
]