[
    {
        "id": "2417182",
        "src640": "https://cdn.pixabay.com/photo/2017/06/18/20/59/fest-2417182_640.jpg",
        "src1280": "https://cdn.pixabay.com/photo/2017/06/18/20/59/fest-2417182_1280.jpg"
    },
    {
        "id": "5166801",
        "src640": "https://cdn.pixabay.com/photo/2020/05/13/09/49/cooking-5166801_640.jpg",
        "src1280": "https://cdn.pixabay.com/photo/2020/05/13/09/49/cooking-5166801_1280.jpg"
    },
    {
        "id": "3257083",
        "src640": "https://cdn.pixabay.com/photo/2018/03/24/16/36/child-3257083_640.jpg",
        "src1280": "https://cdn.pixabay.com/photo/2018/03/24/16/36/child-3257083_1280.jpg"
    },
    {
        "id": "3282472",
        "src640": "https://cdn.pixabay.com/photo/2018/04/01/23/04/food-3282472_640.jpg",
        "src1280": "https://cdn.pixabay.com/photo/2018/04/01/23/04/food-3282472_1280.jpg"
    },
    {
        "id": "4375691",
        "src640": "https://cdn.pixabay.com/photo/2019/07/31/17/29/tree-4375691_640.jpg",
        "src1280": "https://cdn.pixabay.com/photo/2019/07/31/17/29/tree-4375691_1280.jpg"
    },
    {
        "id": "5160572",
        "src640": "https://cdn.pixabay.com/photo/2020/05/11/23/01/broccoli-5160572_640.jpg",
        "src1280": "https://cdn.pixabay.com/photo/2020/05/11/23/01/broccoli-5160572_1280.jpg"
    },
    {
        "id": "4637613",
        "src640": "https://cdn.pixabay.com/photo/2019/11/19/14/46/pot-4637613_640.jpg",
        "src1280": "https://cdn.pixabay.com/photo/2019/11/19/14/46/pot-4637613_1280.jpg"
    },
    {
        "id": "5267563",
        "src640": "https://cdn.pixabay.com/photo/2020/06/06/17/46/food-5267563_640.jpg",
        "src1280": "https://cdn.pixabay.com/photo/2020/06/06/17/46/food-5267563_1280.jpg"
    },
    {
        "id": "1461291",
        "src640": "https://cdn.pixabay.com/photo/2016/06/16/13/02/pretzel-1461291_640.jpg",
        "src1280": "https://cdn.pixabay.com/photo/2016/06/16/13/02/pretzel-1461291_1280.jpg"
    },
    {
        "id": "2654875",
        "src640": "https://cdn.pixabay.com/photo/2017/08/18/13/00/food-2654875_640.jpg",
        "src1280": "https://cdn.pixabay.com/photo/2017/08/18/13/00/food-2654875_1280.jpg"
    },
    {
        "id": "5344228",
        "src640": "https://cdn.pixabay.com/photo/2020/06/27/00/14/vegetable-5344228_640.jpg",
        "src1280": "https://cdn.pixabay.com/photo/2020/06/27/00/14/vegetable-5344228_1280.jpg"
    },
    {
        "id": "4932641",
        "src640": "https://cdn.pixabay.com/photo/2020/03/15/07/15/plant-4932641_640.jpg",
        "src1280": "https://cdn.pixabay.com/photo/2020/03/15/07/15/plant-4932641_1280.jpg"
    },
    {
        "id": "4517710",
        "src640": "https://cdn.pixabay.com/photo/2019/10/01/09/33/coffee-4517710_640.jpg",
        "src1280": "https://cdn.pixabay.com/photo/2019/10/01/09/33/coffee-4517710_1280.jpg"
    },
    {
        "id": "7568467",
        "src640": "https://cdn.pixabay.com/photo/2022/11/03/21/15/sushi-7568467_640.jpg",
        "src1280": "https://cdn.pixabay.com/photo/2022/11/03/21/15/sushi-7568467_1280.jpg"
    },
    {
        "id": "5347207",
        "src640": "https://cdn.pixabay.com/photo/2020/06/27/20/55/cheese-balls-5347207_640.jpg",
        "src1280": "https://cdn.pixabay.com/photo/2020/06/27/20/55/cheese-balls-5347207_1280.jpg"
    },
    {
        "id": "5673781",
        "src640": "https://cdn.pixabay.com/photo/2020/10/21/17/03/onion-5673781_640.jpg",
        "src1280": "https://cdn.pixabay.com/photo/2020/10/21/17/03/onion-5673781_1280.jpg"
    },
    {
        "id": "190826",
        "src640": "https://cdn.pixabay.com/photo/2013/10/04/19/50/millet-190826_640.jpg",
        "src1280": "https://cdn.pixabay.com/photo/2013/10/04/19/50/millet-190826_1280.jpg"
    },
    {
        "id": "7268584",
        "src640": "https://cdn.pixabay.com/photo/2022/06/17/18/57/food-7268584_640.jpg",
        "src1280": "https://cdn.pixabay.com/photo/2022/06/17/18/57/food-7268584_1280.jpg"
    },
    {
        "id": "3528085",
        "src640": "https://cdn.pixabay.com/photo/2018/07/10/08/56/orange-3528085_640.jpg",
        "src1280": "https://cdn.pixabay.com/photo/2018/07/10/08/56/orange-3528085_1280.jpg"
    },
    {
        "id": "5143354",
        "src640": "https://cdn.pixabay.com/photo/2020/05/07/21/41/nerds-5143354_640.jpg",
        "src1280": "https://cdn.pixabay.com/photo/2020/05/07/21/41/nerds-5143354_1280.jpg"
    },
    {
        "id": "220056",
        "src640": "https://cdn.pixabay.com/photo/2013/11/28/10/36/ornamental-220056_640.jpg",
        "src1280": "https://cdn.pixabay.com/photo/2013/11/28/10/36/ornamental-220056_1280.jpg"
    },
    {
        "id": "7511329",
        "src640": "https://cdn.pixabay.com/photo/2022/10/10/09/08/maggi-7511329_640.jpg",
        "src1280": "https://cdn.pixabay.com/photo/2022/10/10/09/08/maggi-7511329_1280.jpg"
    },
    {
        "id": "3373528",
        "src640": "https://cdn.pixabay.com/photo/2018/05/04/09/17/organic-pear-3373528_640.jpg",
        "src1280": "https://cdn.pixabay.com/photo/2018/05/04/09/17/organic-pear-3373528_1280.jpg"
    },
    {
        "id": "7025970",
        "src640": "https://cdn.pixabay.com/photo/2022/02/21/07/21/popcorn-7025970_640.jpg",
        "src1280": "https://cdn.pixabay.com/photo/2022/02/21/07/21/popcorn-7025970_1280.jpg"
    },
    {
        "id": "4631043",
        "src640": "https://cdn.pixabay.com/photo/2019/11/16/20/24/food-4631043_640.jpg",
        "src1280": "https://cdn.pixabay.com/photo/2019/11/16/20/24/food-4631043_1280.jpg"
    },
    {
        "id": "6788242",
        "src640": "https://cdn.pixabay.com/photo/2021/11/12/07/43/loaf-6788242_640.jpg",
        "src1280": "https://cdn.pixabay.com/photo/2021/11/12/07/43/loaf-6788242_1280.jpg"
    },
    {
        "id": "5391368",
        "src640": "https://cdn.pixabay.com/photo/2020/07/10/17/16/fruit-5391368_640.jpg",
        "src1280": "https://cdn.pixabay.com/photo/2020/07/10/17/16/fruit-5391368_1280.jpg"
    },
    {
        "id": "3323983",
        "src640": "https://cdn.pixabay.com/photo/2018/04/16/09/13/vegetable-3323983_640.jpg",
        "src1280": "https://cdn.pixabay.com/photo/2018/04/16/09/13/vegetable-3323983_1280.jpg"
    },
    {
        "id": "6946793",
        "src640": "https://cdn.pixabay.com/photo/2022/01/18/11/15/tit-6946793_640.jpg",
        "src1280": "https://cdn.pixabay.com/photo/2022/01/18/11/15/tit-6946793_1280.jpg"
    },
    {
        "id": "1125664",
        "src640": "https://cdn.pixabay.com/photo/2016/01/07/12/49/bread-1125664_640.jpg",
        "src1280": "https://cdn.pixabay.com/photo/2016/01/07/12/49/bread-1125664_1280.jpg"
    },
    {
        "id": "5344227",
        "src640": "https://cdn.pixabay.com/photo/2020/06/27/00/14/fruit-5344227_640.jpg",
        "src1280": "https://cdn.pixabay.com/photo/2020/06/27/00/14/fruit-5344227_1280.jpg"
    },
    {
        "id": "5229392",
        "src640": "https://cdn.pixabay.com/photo/2020/05/28/00/44/fork-5229392_640.jpg",
        "src1280": "https://cdn.pixabay.com/photo/2020/05/28/00/44/fork-5229392_1280.jpg"
    },
    {
        "id": "5356291",
        "src640": "https://cdn.pixabay.com/photo/2020/06/30/12/54/chocolate-5356291_640.jpg",
        "src1280": "https://cdn.pixabay.com/photo/2020/06/30/12/54/chocolate-5356291_1280.jpg"
    },
    {
        "id": "2974953",
        "src640": "https://cdn.pixabay.com/photo/2017/11/24/14/33/bird-food-2974953_640.jpg",
        "src1280": "https://cdn.pixabay.com/photo/2017/11/24/14/33/bird-food-2974953_1280.jpg"
    },
    {
        "id": "2704357",
        "src640": "https://cdn.pixabay.com/photo/2017/09/01/14/18/sugar-apple-2704357_640.jpg",
        "src1280": "https://cdn.pixabay.com/photo/2017/09/01/14/18/sugar-apple-2704357_1280.jpg"
    },
    {
        "id": "4596089",
        "src640": "https://cdn.pixabay.com/photo/2019/11/02/10/54/chicken-4596089_640.jpg",
        "src1280": "https://cdn.pixabay.com/photo/2019/11/02/10/54/chicken-4596089_1280.jpg"
    },
    {
        "id": "5513190",
        "src640": "https://cdn.pixabay.com/photo/2020/08/24/08/47/pears-5513190_640.jpg",
        "src1280": "https://cdn.pixabay.com/photo/2020/08/24/08/47/pears-5513190_1280.jpg"
    },
    {
        "id": "7133636",
        "src640": "https://cdn.pixabay.com/photo/2022/04/15/05/29/apple-7133636_640.jpg",
        "src1280": "https://cdn.pixabay.com/photo/2022/04/15/05/29/apple-7133636_1280.jpg"
    },
    {
        "id": "2453350",
        "src640": "https://cdn.pixabay.com/photo/2017/06/29/07/41/pancake-2453350_640.jpg",
        "src1280": "https://cdn.pixabay.com/photo/2017/06/29/07/41/pancake-2453350_1280.jpg"
    },
    {
        "id": "1389443",
        "src640": "https://cdn.pixabay.com/photo/2016/05/13/07/48/tomatoes-1389443_640.jpg",
        "src1280": "https://cdn.pixabay.com/photo/2016/05/13/07/48/tomatoes-1389443_1280.jpg"
    },
    {
        "id": "1478452",
        "src640": "https://cdn.pixabay.com/photo/2016/06/25/07/52/cereals-1478452_640.jpg",
        "src1280": "https://cdn.pixabay.com/photo/2016/06/25/07/52/cereals-1478452_1280.jpg"
    },
    {
        "id": "7089484",
        "src640": "https://cdn.pixabay.com/photo/2022/03/24/16/58/bbq-7089484_640.jpg",
        "src1280": "https://cdn.pixabay.com/photo/2022/03/24/16/58/bbq-7089484_1280.jpg"
    },
    {
        "id": "458481",
        "src640": "https://cdn.pixabay.com/photo/2014/09/24/03/47/apples-458481_640.jpg",
        "src1280": "https://cdn.pixabay.com/photo/2014/09/24/03/47/apples-458481_1280.jpg"
    },
    {
        "id": "7657175",
        "src640": "https://cdn.pixabay.com/photo/2022/12/15/08/37/cabbage-rolls-7657175_640.jpg",
        "src1280": "https://cdn.pixabay.com/photo/2022/12/15/08/37/cabbage-rolls-7657175_1280.jpg"
    },
    {
        "id": "1590834",
        "src640": "https://cdn.pixabay.com/photo/2016/08/13/14/31/banana-1590834_640.jpg",
        "src1280": "https://cdn.pixabay.com/photo/2016/08/13/14/31/banana-1590834_1280.jpg"
    },
    {
        "id": "2819773",
        "src640": "https://cdn.pixabay.com/photo/2017/10/05/15/36/corn-2819773_640.jpg",
        "src1280": "https://cdn.pixabay.com/photo/2017/10/05/15/36/corn-2819773_1280.jpg"
    },
    {
        "id": "2204498",
        "src640": "https://cdn.pixabay.com/photo/2017/04/05/10/02/chocolate-2204498_640.jpg",
        "src1280": "https://cdn.pixabay.com/photo/2017/04/05/10/02/chocolate-2204498_1280.jpg"
    },
    {
        "id": "5062930",
        "src640": "https://cdn.pixabay.com/photo/2020/04/19/10/16/can-5062930_640.jpg",
        "src1280": "https://cdn.pixabay.com/photo/2020/04/19/10/16/can-5062930_1280.jpg"
    },
    {
        "id": "1117508",
        "src640": "https://cdn.pixabay.com/photo/2016/01/02/01/35/orange-1117508_640.jpg",
        "src1280": "https://cdn.pixabay.com/photo/2016/01/02/01/35/orange-1117508_1280.jpg"
    },
    {
        "id": "5543185",
        "src640": "https://cdn.pixabay.com/photo/2020/09/04/07/30/dessert-5543185_640.jpg",
        "src1280": "https://cdn.pixabay.com/photo/2020/09/04/07/30/dessert-5543185_1280.jpg"
    },
    {
        "id": "7069849",
        "src640": "https://cdn.pixabay.com/photo/2022/03/15/09/13/strawberry-7069849_640.jpg",
        "src1280": "https://cdn.pixabay.com/photo/2022/03/15/09/13/strawberry-7069849_1280.jpg"
    },
    {
        "id": "571540",
        "src640": "https://cdn.pixabay.com/photo/2014/12/17/14/35/bananas-571540_640.jpg",
        "src1280": "https://cdn.pixabay.com/photo/2014/12/17/14/35/bananas-571540_1280.jpg"
    },
    {
        "id": "4020717",
        "src640": "https://cdn.pixabay.com/photo/2019/02/25/21/59/buffet-4020717_640.jpg",
        "src1280": "https://cdn.pixabay.com/photo/2019/02/25/21/59/buffet-4020717_1280.jpg"
    },
    {
        "id": "232236",
        "src640": "https://cdn.pixabay.com/photo/2013/12/22/07/29/marzipan-potatoes-232236_640.jpg",
        "src1280": "https://cdn.pixabay.com/photo/2013/12/22/07/29/marzipan-potatoes-232236_1280.jpg"
    },
    {
        "id": "4034112",
        "src640": "https://cdn.pixabay.com/photo/2019/03/04/13/25/bowl-4034112_640.jpg",
        "src1280": "https://cdn.pixabay.com/photo/2019/03/04/13/25/bowl-4034112_1280.jpg"
    },
    {
        "id": "7158812",
        "src640": "https://cdn.pixabay.com/photo/2022/04/26/17/14/sandwich-7158812_640.jpg",
        "src1280": "https://cdn.pixabay.com/photo/2022/04/26/17/14/sandwich-7158812_1280.jpg"
    },
    {
        "id": "232237",
        "src640": "https://cdn.pixabay.com/photo/2013/12/22/07/33/marzipan-potatoes-232237_640.jpg",
        "src1280": "https://cdn.pixabay.com/photo/2013/12/22/07/33/marzipan-potatoes-232237_1280.jpg"
    },
    {
        "id": "942164",
        "src640": "https://cdn.pixabay.com/photo/2015/09/16/04/06/grass-942164_640.jpg",
        "src1280": "https://cdn.pixabay.com/photo/2015/09/16/04/06/grass-942164_1280.jpg"
    },
    {
        "id": "4805274",
        "src640": "https://cdn.pixabay.com/photo/2020/01/30/12/20/eggplant-4805274_640.jpg",
        "src1280": "https://cdn.pixabay.com/photo/2020/01/30/12/20/eggplant-4805274_1280.jpg"
    },
    {
        "id": "1355684",
        "src640": "https://cdn.pixabay.com/photo/2016/04/26/23/55/wheat-field-1355684_640.jpg",
        "src1280": "https://cdn.pixabay.com/photo/2016/04/26/23/55/wheat-field-1355684_1280.jpg"
    },
    {
        "id": "3097095",
        "src640": "https://cdn.pixabay.com/photo/2018/01/21/17/38/meat-3097095_640.jpg",
        "src1280": "https://cdn.pixabay.com/photo/2018/01/21/17/38/meat-3097095_1280.jpg"
    },
    {
        "id": "5329537",
        "src640": "https://cdn.pixabay.com/photo/2020/06/22/15/12/fruit-5329537_640.jpg",
        "src1280": "https://cdn.pixabay.com/photo/2020/06/22/15/12/fruit-5329537_1280.jpg"
    },
    {
        "id": "7621759",
        "src640": "https://cdn.pixabay.com/photo/2022/11/28/10/49/generated-7621759_640.jpg",
        "src1280": "https://cdn.pixabay.com/photo/2022/11/28/10/49/generated-7621759_1280.jpg"
    },
    {
        "id": "4397869",
        "src640": "https://cdn.pixabay.com/photo/2019/08/10/22/37/food-4397869_640.jpg",
        "src1280": "https://cdn.pixabay.com/photo/2019/08/10/22/37/food-4397869_1280.jpg"
    },
    {
        "id": "5367734",
        "src640": "https://cdn.pixabay.com/photo/2020/07/03/22/02/fruit-5367734_640.jpg",
        "src1280": "https://cdn.pixabay.com/photo/2020/07/03/22/02/fruit-5367734_1280.jpg"
    },
    {
        "id": "1549307",
        "src640": "https://cdn.pixabay.com/photo/2016/07/28/19/56/lime-1549307_640.jpg",
        "src1280": "https://cdn.pixabay.com/photo/2016/07/28/19/56/lime-1549307_1280.jpg"
    },
    {
        "id": "883410",
        "src640": "https://cdn.pixabay.com/photo/2015/08/11/00/55/grain-883410_640.jpg",
        "src1280": "https://cdn.pixabay.com/photo/2015/08/11/00/55/grain-883410_1280.jpg"
    },
    {
        "id": "6464653",
        "src640": "https://cdn.pixabay.com/photo/2021/07/13/23/25/mangoes-6464653_640.jpg",
        "src1280": "https://cdn.pixabay.com/photo/2021/07/13/23/25/mangoes-6464653_1280.jpg"
    },
    {
        "id": "6464652",
        "src640": "https://cdn.pixabay.com/photo/2021/07/13/23/25/mangoes-6464652_640.jpg",
        "src1280": "https://cdn.pixabay.com/photo/2021/07/13/23/25/mangoes-6464652_1280.jpg"
    },
    {
        "id": "6932913",
        "src640": "https://cdn.pixabay.com/photo/2022/01/12/14/15/mug-6932913_640.jpg",
        "src1280": "https://cdn.pixabay.com/photo/2022/01/12/14/15/mug-6932913_1280.jpg"
    },
    {
        "id": "6601760",
        "src640": "https://cdn.pixabay.com/photo/2021/09/06/13/53/pigeon-6601760_640.jpg",
        "src1280": "https://cdn.pixabay.com/photo/2021/09/06/13/53/pigeon-6601760_1280.jpg"
    },
    {
        "id": "5037847",
        "src640": "https://cdn.pixabay.com/photo/2020/04/13/10/58/cook-5037847_640.jpg",
        "src1280": "https://cdn.pixabay.com/photo/2020/04/13/10/58/cook-5037847_1280.jpg"
    },
    {
        "id": "6932944",
        "src640": "https://cdn.pixabay.com/photo/2022/01/12/14/17/mug-6932944_640.jpg",
        "src1280": "https://cdn.pixabay.com/photo/2022/01/12/14/17/mug-6932944_1280.jpg"
    },
    {
        "id": "271208",
        "src640": "https://cdn.pixabay.com/photo/2014/02/21/12/05/fire-271208_640.jpg",
        "src1280": "https://cdn.pixabay.com/photo/2014/02/21/12/05/fire-271208_1280.jpg"
    },
    {
        "id": "7278017",
        "src640": "https://cdn.pixabay.com/photo/2022/06/22/14/17/panipuri-7278017_640.jpg",
        "src1280": "https://cdn.pixabay.com/photo/2022/06/22/14/17/panipuri-7278017_1280.jpg"
    },
    {
        "id": "5035003",
        "src640": "https://cdn.pixabay.com/photo/2020/04/12/17/01/field-5035003_640.jpg",
        "src1280": "https://cdn.pixabay.com/photo/2020/04/12/17/01/field-5035003_1280.jpg"
    },
    {
        "id": "340161",
        "src640": "https://cdn.pixabay.com/photo/2014/05/08/07/58/vegetables-340161_640.jpg",
        "src1280": "https://cdn.pixabay.com/photo/2014/05/08/07/58/vegetables-340161_1280.jpg"
    },
    {
        "id": "7596177",
        "src640": "https://cdn.pixabay.com/photo/2022/11/16/14/50/mango-7596177_640.jpg",
        "src1280": "https://cdn.pixabay.com/photo/2022/11/16/14/50/mango-7596177_1280.jpg"
    },
    {
        "id": "7088636",
        "src640": "https://cdn.pixabay.com/photo/2022/03/24/08/36/antalya-7088636_640.jpg",
        "src1280": "https://cdn.pixabay.com/photo/2022/03/24/08/36/antalya-7088636_1280.jpg"
    },
    {
        "id": "4517762",
        "src640": "https://cdn.pixabay.com/photo/2019/10/01/10/06/cone-4517762_640.jpg",
        "src1280": "https://cdn.pixabay.com/photo/2019/10/01/10/06/cone-4517762_1280.jpg"
    },
    {
        "id": "4953604",
        "src640": "https://cdn.pixabay.com/photo/2020/03/21/11/56/breakfast-4953604_640.jpg",
        "src1280": "https://cdn.pixabay.com/photo/2020/03/21/11/56/breakfast-4953604_1280.jpg"
    },
    {
        "id": "2593572",
        "src640": "https://cdn.pixabay.com/photo/2017/08/06/15/44/cookie-2593572_640.jpg",
        "src1280": "https://cdn.pixabay.com/photo/2017/08/06/15/44/cookie-2593572_1280.jpg"
    },
    {
        "id": "2088900",
        "src640": "https://cdn.pixabay.com/photo/2017/02/22/09/19/squash-2088900_640.jpg",
        "src1280": "https://cdn.pixabay.com/photo/2017/02/22/09/19/squash-2088900_1280.jpg"
    },
    {
        "id": "4400221",
        "src640": "https://cdn.pixabay.com/photo/2019/08/12/02/31/thorns-4400221_640.jpg",
        "src1280": "https://cdn.pixabay.com/photo/2019/08/12/02/31/thorns-4400221_1280.jpg"
    },
    {
        "id": "6915316",
        "src640": "https://cdn.pixabay.com/photo/2022/01/04/15/37/marshmallow-6915316_640.jpg",
        "src1280": "https://cdn.pixabay.com/photo/2022/01/04/15/37/marshmallow-6915316_1280.jpg"
    },
    {
        "id": "7423045",
        "src640": "https://cdn.pixabay.com/photo/2022/08/31/11/07/tilapia-7423045_640.jpg",
        "src1280": "https://cdn.pixabay.com/photo/2022/08/31/11/07/tilapia-7423045_1280.jpg"
    },
    {
        "id": "5328822",
        "src640": "https://cdn.pixabay.com/photo/2020/06/22/11/11/salad-5328822_640.jpg",
        "src1280": "https://cdn.pixabay.com/photo/2020/06/22/11/11/salad-5328822_1280.jpg"
    },
    {
        "id": "7102062",
        "src640": "https://cdn.pixabay.com/photo/2022/03/31/02/04/bread-7102062_640.jpg",
        "src1280": "https://cdn.pixabay.com/photo/2022/03/31/02/04/bread-7102062_1280.jpg"
    },
    {
        "id": "5397687",
        "src640": "https://cdn.pixabay.com/photo/2020/07/12/15/39/cooking-5397687_640.jpg",
        "src1280": "https://cdn.pixabay.com/photo/2020/07/12/15/39/cooking-5397687_1280.jpg"
    },
    {
        "id": "5963821",
        "src640": "https://cdn.pixabay.com/photo/2021/01/30/13/22/beignet-5963821_640.jpg",
        "src1280": "https://cdn.pixabay.com/photo/2021/01/30/13/22/beignet-5963821_1280.jpg"
    },
    {
        "id": "7249295",
        "src640": "https://cdn.pixabay.com/photo/2022/06/07/21/09/tofu-7249295_640.jpg",
        "src1280": "https://cdn.pixabay.com/photo/2022/06/07/21/09/tofu-7249295_1280.jpg"
    },
    {
        "id": "5037849",
        "src640": "https://cdn.pixabay.com/photo/2020/04/13/10/58/cook-5037849_640.jpg",
        "src1280": "https://cdn.pixabay.com/photo/2020/04/13/10/58/cook-5037849_1280.jpg"
    },
    {
        "id": "281080",
        "src640": "https://cdn.pixabay.com/photo/2014/03/06/18/21/banana-tree-281080_640.jpg",
        "src1280": "https://cdn.pixabay.com/photo/2014/03/06/18/21/banana-tree-281080_1280.jpg"
    },
    {
        "id": "2800057",
        "src640": "https://cdn.pixabay.com/photo/2017/09/29/18/41/cornfield-2800057_640.jpg",
        "src1280": "https://cdn.pixabay.com/photo/2017/09/29/18/41/cornfield-2800057_1280.jpg"
    },
    {
        "id": "2832691",
        "src640": "https://cdn.pixabay.com/photo/2017/10/09/06/53/paddy-2832691_640.jpg",
        "src1280": "https://cdn.pixabay.com/photo/2017/10/09/06/53/paddy-2832691_1280.jpg"
    },
    {
        "id": "5012313",
        "src640": "https://cdn.pixabay.com/photo/2020/04/07/07/04/carrots-5012313_640.jpg",
        "src1280": "https://cdn.pixabay.com/photo/2020/04/07/07/04/carrots-5012313_1280.jpg"
    },
    {
        "id": "7258371",
        "src640": "https://cdn.pixabay.com/photo/2022/06/12/16/25/food-7258371_640.jpg",
        "src1280": "https://cdn.pixabay.com/photo/2022/06/12/16/25/food-7258371_1280.jpg"
    }
]