[
    {
        "id": "175049",
        "src640": "https://cdn.pixabay.com/photo/2013/08/23/16/21/cake-175049_640.jpg",
        "src1280": "https://cdn.pixabay.com/photo/2013/08/23/16/21/cake-175049_1280.jpg"
    },
    {
        "id": "74199",
        "src640": "https://cdn.pixabay.com/photo/2013/01/08/01/13/sharon-74199_640.jpg",
        "src1280": "https://cdn.pixabay.com/photo/2013/01/08/01/13/sharon-74199_1280.jpg"
    },
    {
        "id": "164454",
        "src640": "https://cdn.pixabay.com/photo/2013/07/18/15/04/child-164454_640.jpg",
        "src1280": "https://cdn.pixabay.com/photo/2013/07/18/15/04/child-164454_1280.jpg"
    },
    {
        "id": "316939",
        "src640": "https://cdn.pixabay.com/photo/2014/04/05/12/20/apples-316939_640.jpg",
        "src1280": "https://cdn.pixabay.com/photo/2014/04/05/12/20/apples-316939_1280.jpg"
    },
    {
        "id": "7396476",
        "src640": "https://cdn.pixabay.com/photo/2022/08/19/09/15/melons-7396476_640.jpg",
        "src1280": "https://cdn.pixabay.com/photo/2022/08/19/09/15/melons-7396476_1280.jpg"
    },
    {
        "id": "2171916",
        "src640": "https://cdn.pixabay.com/photo/2017/03/24/18/56/pizza-2171916_640.jpg",
        "src1280": "https://cdn.pixabay.com/photo/2017/03/24/18/56/pizza-2171916_1280.jpg"
    },
    {
        "id": "7979099",
        "src640": "https://cdn.pixabay.com/photo/2023/05/08/15/59/bar-food-7979099_640.jpg",
        "src1280": "https://cdn.pixabay.com/photo/2023/05/08/15/59/bar-food-7979099_1280.jpg"
    },
    {
        "id": "7556349",
        "src640": "https://cdn.pixabay.com/photo/2022/10/29/23/47/hamburger-7556349_640.jpg",
        "src1280": "https://cdn.pixabay.com/photo/2022/10/29/23/47/hamburger-7556349_1280.jpg"
    },
    {
        "id": "7585693",
        "src640": "https://cdn.pixabay.com/photo/2022/11/11/19/36/pumpkin-7585693_640.jpg",
        "src1280": "https://cdn.pixabay.com/photo/2022/11/11/19/36/pumpkin-7585693_1280.jpg"
    },
    {
        "id": "7298769",
        "src640": "https://cdn.pixabay.com/photo/2022/07/03/09/31/streusel-7298769_640.jpg",
        "src1280": "https://cdn.pixabay.com/photo/2022/07/03/09/31/streusel-7298769_1280.jpg"
    },
    {
        "id": "1417812",
        "src640": "https://cdn.pixabay.com/photo/2016/05/26/18/07/healthy-eating-1417812_640.jpg",
        "src1280": "https://cdn.pixabay.com/photo/2016/05/26/18/07/healthy-eating-1417812_1280.jpg"
    },
    {
        "id": "8121569",
        "src640": "https://cdn.pixabay.com/photo/2023/07/12/03/26/ai-generated-8121569_640.jpg",
        "src1280": "https://cdn.pixabay.com/photo/2023/07/12/03/26/ai-generated-8121569_1280.jpg"
    },
    {
        "id": "8314953",
        "src640": "https://cdn.pixabay.com/photo/2023/10/14/13/58/peanuts-8314953_640.jpg",
        "src1280": "https://cdn.pixabay.com/photo/2023/10/14/13/58/peanuts-8314953_1280.jpg"
    },
    {
        "id": "7781078",
        "src640": "https://cdn.pixabay.com/photo/2023/02/10/15/06/blueberries-7781078_640.jpg",
        "src1280": "https://cdn.pixabay.com/photo/2023/02/10/15/06/blueberries-7781078_1280.jpg"
    },
    {
        "id": "8075358",
        "src640": "https://cdn.pixabay.com/photo/2023/06/19/18/44/barley-8075358_640.jpg",
        "src1280": "https://cdn.pixabay.com/photo/2023/06/19/18/44/barley-8075358_1280.jpg"
    },
    {
        "id": "1399031",
        "src640": "https://cdn.pixabay.com/photo/2016/05/17/20/18/cake-1399031_640.jpg",
        "src1280": "https://cdn.pixabay.com/photo/2016/05/17/20/18/cake-1399031_1280.jpg"
    },
    {
        "id": "7501988",
        "src640": "https://cdn.pixabay.com/photo/2022/10/06/05/34/plums-7501988_640.jpg",
        "src1280": "https://cdn.pixabay.com/photo/2022/10/06/05/34/plums-7501988_1280.jpg"
    },
    {
        "id": "7392761",
        "src640": "https://cdn.pixabay.com/photo/2022/08/17/15/20/grapes-7392761_640.jpg",
        "src1280": "https://cdn.pixabay.com/photo/2022/08/17/15/20/grapes-7392761_1280.jpg"
    },
    {
        "id": "6062514",
        "src640": "https://cdn.pixabay.com/photo/2021/03/02/13/41/strawberries-6062514_640.jpg",
        "src1280": "https://cdn.pixabay.com/photo/2021/03/02/13/41/strawberries-6062514_1280.jpg"
    },
    {
        "id": "1809344",
        "src640": "https://cdn.pixabay.com/photo/2016/11/08/20/03/refrigerator-1809344_640.jpg",
        "src1280": "https://cdn.pixabay.com/photo/2016/11/08/20/03/refrigerator-1809344_1280.jpg"
    },
    {
        "id": "7551467",
        "src640": "https://cdn.pixabay.com/photo/2022/10/27/18/07/hamburger-7551467_640.jpg",
        "src1280": "https://cdn.pixabay.com/photo/2022/10/27/18/07/hamburger-7551467_1280.jpg"
    },
    {
        "id": "7952776",
        "src640": "https://cdn.pixabay.com/photo/2023/04/26/16/21/pomegranate-7952776_640.jpg",
        "src1280": "https://cdn.pixabay.com/photo/2023/04/26/16/21/pomegranate-7952776_1280.jpg"
    },
    {
        "id": "1065578",
        "src640": "https://cdn.pixabay.com/photo/2015/11/27/14/00/christmas-1065578_640.jpg",
        "src1280": "https://cdn.pixabay.com/photo/2015/11/27/14/00/christmas-1065578_1280.jpg"
    },
    {
        "id": "8234252",
        "src640": "https://cdn.pixabay.com/photo/2023/09/05/04/22/chocolate-8234252_640.jpg",
        "src1280": "https://cdn.pixabay.com/photo/2023/09/05/04/22/chocolate-8234252_1280.jpg"
    },
    {
        "id": "1581281",
        "src640": "https://cdn.pixabay.com/photo/2016/08/09/18/01/pineapple-1581281_640.jpg",
        "src1280": "https://cdn.pixabay.com/photo/2016/08/09/18/01/pineapple-1581281_1280.jpg"
    },
    {
        "id": "1321069",
        "src640": "https://cdn.pixabay.com/photo/2016/04/10/23/30/retro-1321069_640.jpg",
        "src1280": "https://cdn.pixabay.com/photo/2016/04/10/23/30/retro-1321069_1280.jpg"
    },
    {
        "id": "8079995",
        "src640": "https://cdn.pixabay.com/photo/2023/06/21/18/38/barley-8079995_640.jpg",
        "src1280": "https://cdn.pixabay.com/photo/2023/06/21/18/38/barley-8079995_1280.jpg"
    },
    {
        "id": "8134264",
        "src640": "https://cdn.pixabay.com/photo/2023/07/18/07/28/pineapple-8134264_640.jpg",
        "src1280": "https://cdn.pixabay.com/photo/2023/07/18/07/28/pineapple-8134264_1280.jpg"
    },
    {
        "id": "8075400",
        "src640": "https://cdn.pixabay.com/photo/2023/06/19/19/30/barley-8075400_640.jpg",
        "src1280": "https://cdn.pixabay.com/photo/2023/06/19/19/30/barley-8075400_1280.jpg"
    },
    {
        "id": "384760",
        "src640": "https://cdn.pixabay.com/photo/2014/07/05/11/19/cake-384760_640.jpg",
        "src1280": "https://cdn.pixabay.com/photo/2014/07/05/11/19/cake-384760_1280.jpg"
    },
    {
        "id": "1692147",
        "src640": "https://cdn.pixabay.com/photo/2016/09/24/17/37/apple-1692147_640.jpg",
        "src1280": "https://cdn.pixabay.com/photo/2016/09/24/17/37/apple-1692147_1280.jpg"
    },
    {
        "id": "622495",
        "src640": "https://cdn.pixabay.com/photo/2015/02/03/13/04/coffee-622495_640.jpg",
        "src1280": "https://cdn.pixabay.com/photo/2015/02/03/13/04/coffee-622495_1280.jpg"
    },
    {
        "id": "1649416",
        "src640": "https://cdn.pixabay.com/photo/2016/09/06/15/37/masala-1649416_640.jpg",
        "src1280": "https://cdn.pixabay.com/photo/2016/09/06/15/37/masala-1649416_1280.jpg"
    },
    {
        "id": "2227877",
        "src640": "https://cdn.pixabay.com/photo/2017/04/13/15/23/hot-dog-2227877_640.jpg",
        "src1280": "https://cdn.pixabay.com/photo/2017/04/13/15/23/hot-dog-2227877_1280.jpg"
    },
    {
        "id": "7979039",
        "src640": "https://cdn.pixabay.com/photo/2023/05/08/15/56/ai-generated-7979039_640.jpg",
        "src1280": "https://cdn.pixabay.com/photo/2023/05/08/15/56/ai-generated-7979039_1280.jpg"
    },
    {
        "id": "1946262",
        "src640": "https://cdn.pixabay.com/photo/2017/01/02/08/17/donuts-1946262_640.jpg",
        "src1280": "https://cdn.pixabay.com/photo/2017/01/02/08/17/donuts-1946262_1280.jpg"
    },
    {
        "id": "7671305",
        "src640": "https://cdn.pixabay.com/photo/2022/12/22/01/32/ai-generated-7671305_640.jpg",
        "src1280": "https://cdn.pixabay.com/photo/2022/12/22/01/32/ai-generated-7671305_1280.jpg"
    },
    {
        "id": "8251472",
        "src640": "https://cdn.pixabay.com/photo/2023/09/13/19/03/grapes-8251472_640.jpg",
        "src1280": "https://cdn.pixabay.com/photo/2023/09/13/19/03/grapes-8251472_1280.jpg"
    },
    {
        "id": "1301952",
        "src640": "https://cdn.pixabay.com/photo/2016/04/02/00/21/dinner-table-1301952_640.jpg",
        "src1280": "https://cdn.pixabay.com/photo/2016/04/02/00/21/dinner-table-1301952_1280.jpg"
    },
    {
        "id": "1417454",
        "src640": "https://cdn.pixabay.com/photo/2016/05/26/15/58/cake-1417454_640.jpg",
        "src1280": "https://cdn.pixabay.com/photo/2016/05/26/15/58/cake-1417454_1280.jpg"
    },
    {
        "id": "1485592",
        "src640": "https://cdn.pixabay.com/photo/2016/06/28/22/27/coffee-grains-1485592_640.jpg",
        "src1280": "https://cdn.pixabay.com/photo/2016/06/28/22/27/coffee-grains-1485592_1280.jpg"
    },
    {
        "id": "6206557",
        "src640": "https://cdn.pixabay.com/photo/2021/04/25/14/33/smoothie-6206557_640.jpg",
        "src1280": "https://cdn.pixabay.com/photo/2021/04/25/14/33/smoothie-6206557_1280.jpg"
    },
    {
        "id": "7375439",
        "src640": "https://cdn.pixabay.com/photo/2022/08/09/16/59/grapes-7375439_640.jpg",
        "src1280": "https://cdn.pixabay.com/photo/2022/08/09/16/59/grapes-7375439_1280.jpg"
    },
    {
        "id": "3414606",
        "src640": "https://cdn.pixabay.com/photo/2018/05/19/23/14/animal-3414606_640.jpg",
        "src1280": "https://cdn.pixabay.com/photo/2018/05/19/23/14/animal-3414606_1280.jpg"
    },
    {
        "id": "8113411",
        "src640": "https://cdn.pixabay.com/photo/2023/07/07/21/53/ai-generated-8113411_640.jpg",
        "src1280": "https://cdn.pixabay.com/photo/2023/07/07/21/53/ai-generated-8113411_1280.jpg"
    },
    {
        "id": "7392758",
        "src640": "https://cdn.pixabay.com/photo/2022/08/17/15/19/grapes-7392758_640.jpg",
        "src1280": "https://cdn.pixabay.com/photo/2022/08/17/15/19/grapes-7392758_1280.jpg"
    },
    {
        "id": "5259310",
        "src640": "https://cdn.pixabay.com/photo/2020/06/04/15/45/apricots-5259310_640.jpg",
        "src1280": "https://cdn.pixabay.com/photo/2020/06/04/15/45/apricots-5259310_1280.jpg"
    },
    {
        "id": "8188306",
        "src640": "https://cdn.pixabay.com/photo/2023/08/13/19/57/grain-8188306_640.jpg",
        "src1280": "https://cdn.pixabay.com/photo/2023/08/13/19/57/grain-8188306_1280.jpg"
    },
    {
        "id": "6066317",
        "src640": "https://cdn.pixabay.com/photo/2021/03/03/21/09/mushrooms-6066317_640.jpg",
        "src1280": "https://cdn.pixabay.com/photo/2021/03/03/21/09/mushrooms-6066317_1280.jpg"
    },
    {
        "id": "7952739",
        "src640": "https://cdn.pixabay.com/photo/2023/04/26/16/19/pomegranate-7952739_640.jpg",
        "src1280": "https://cdn.pixabay.com/photo/2023/04/26/16/19/pomegranate-7952739_1280.jpg"
    },
    {
        "id": "509108",
        "src640": "https://cdn.pixabay.com/photo/2014/10/30/10/07/cake-509108_640.jpg",
        "src1280": "https://cdn.pixabay.com/photo/2014/10/30/10/07/cake-509108_1280.jpg"
    },
    {
        "id": "7979046",
        "src640": "https://cdn.pixabay.com/photo/2023/05/08/15/57/ai-generated-7979046_640.jpg",
        "src1280": "https://cdn.pixabay.com/photo/2023/05/08/15/57/ai-generated-7979046_1280.jpg"
    },
    {
        "id": "7979107",
        "src640": "https://cdn.pixabay.com/photo/2023/05/08/15/59/egg-7979107_640.jpg",
        "src1280": "https://cdn.pixabay.com/photo/2023/05/08/15/59/egg-7979107_1280.jpg"
    },
    {
        "id": "2152370",
        "src640": "https://cdn.pixabay.com/photo/2017/03/17/18/40/potato-soup-2152370_640.jpg",
        "src1280": "https://cdn.pixabay.com/photo/2017/03/17/18/40/potato-soup-2152370_1280.jpg"
    },
    {
        "id": "8141439",
        "src640": "https://cdn.pixabay.com/photo/2023/07/21/11/16/vegetables-8141439_640.jpg",
        "src1280": "https://cdn.pixabay.com/photo/2023/07/21/11/16/vegetables-8141439_1280.jpg"
    }
]