[
    {
        "id": "978000",
        "src640": "https://cdn.pixabay.com/photo/2015/10/08/15/59/wallpaper-978000_640.jpg",
        "src1280": "https://cdn.pixabay.com/photo/2015/10/08/15/59/wallpaper-978000_1280.jpg"
    },
    {
        "id": "7251810",
        "src640": "https://cdn.pixabay.com/photo/2022/06/09/06/32/abstract-rainbow-7251810_640.jpg",
        "src1280": "https://cdn.pixabay.com/photo/2022/06/09/06/32/abstract-rainbow-7251810_1280.jpg"
    },
    {
        "id": "5985788",
        "src640": "https://cdn.pixabay.com/photo/2021/02/05/20/38/abstract-5985788_640.jpg",
        "src1280": "https://cdn.pixabay.com/photo/2021/02/05/20/38/abstract-5985788_1280.jpg"
    },
    {
        "id": "7676253",
        "src640": "https://cdn.pixabay.com/photo/2022/12/24/17/23/winter-7676253_640.jpg",
        "src1280": "https://cdn.pixabay.com/photo/2022/12/24/17/23/winter-7676253_1280.jpg"
    },
    {
        "id": "7327252",
        "src640": "https://cdn.pixabay.com/photo/2022/07/17/11/59/amber-7327252_640.jpg",
        "src1280": "https://cdn.pixabay.com/photo/2022/07/17/11/59/amber-7327252_1280.jpg"
    },
    {
        "id": "5807013",
        "src640": "https://cdn.pixabay.com/photo/2020/12/05/19/47/smoke-art-5807013_640.jpg",
        "src1280": "https://cdn.pixabay.com/photo/2020/12/05/19/47/smoke-art-5807013_1280.jpg"
    },
    {
        "id": "7345110",
        "src640": "https://cdn.pixabay.com/photo/2022/07/26/05/28/circles-7345110_640.jpg",
        "src1280": "https://cdn.pixabay.com/photo/2022/07/26/05/28/circles-7345110_1280.jpg"
    },
    {
        "id": "2242858",
        "src640": "https://cdn.pixabay.com/photo/2017/04/19/16/45/girl-2242858_640.jpg",
        "src1280": "https://cdn.pixabay.com/photo/2017/04/19/16/45/girl-2242858_1280.jpg"
    },
    {
        "id": "2068125",
        "src640": "https://cdn.pixabay.com/photo/2017/02/15/09/52/woman-2068125_640.jpg",
        "src1280": "https://cdn.pixabay.com/photo/2017/02/15/09/52/woman-2068125_1280.jpg"
    },
    {
        "id": "198887",
        "src640": "https://cdn.pixabay.com/photo/2013/10/21/00/54/liberty-statue-198887_640.jpg",
        "src1280": "https://cdn.pixabay.com/photo/2013/10/21/00/54/liberty-statue-198887_1280.jpg"
    },
    {
        "id": "1932992",
        "src640": "https://cdn.pixabay.com/photo/2016/12/27/00/25/abstract-1932992_640.jpg",
        "src1280": "https://cdn.pixabay.com/photo/2016/12/27/00/25/abstract-1932992_1280.jpg"
    },
    {
        "id": "758818",
        "src640": "https://cdn.pixabay.com/photo/2015/05/08/20/42/crystal-758818_640.jpg",
        "src1280": "https://cdn.pixabay.com/photo/2015/05/08/20/42/crystal-758818_1280.jpg"
    },
    {
        "id": "298243",
        "src640": "https://cdn.pixabay.com/photo/2014/03/25/22/53/smoke-298243_640.jpg",
        "src1280": "https://cdn.pixabay.com/photo/2014/03/25/22/53/smoke-298243_1280.jpg"
    },
    {
        "id": "1867395",
        "src640": "https://cdn.pixabay.com/photo/2016/11/29/04/49/abstract-1867395_640.jpg",
        "src1280": "https://cdn.pixabay.com/photo/2016/11/29/04/49/abstract-1867395_1280.jpg"
    },
    {
        "id": "7326601",
        "src640": "https://cdn.pixabay.com/photo/2022/07/17/06/30/sunrise-7326601_640.jpg",
        "src1280": "https://cdn.pixabay.com/photo/2022/07/17/06/30/sunrise-7326601_1280.jpg"
    },
    {
        "id": "2475718",
        "src640": "https://cdn.pixabay.com/photo/2017/07/05/19/21/art-2475718_640.jpg",
        "src1280": "https://cdn.pixabay.com/photo/2017/07/05/19/21/art-2475718_1280.jpg"
    },
    {
        "id": "5626853",
        "src640": "https://cdn.pixabay.com/photo/2020/10/04/16/10/space-art-5626853_640.jpg",
        "src1280": "https://cdn.pixabay.com/photo/2020/10/04/16/10/space-art-5626853_1280.jpg"
    },
    {
        "id": "5096532",
        "src640": "https://cdn.pixabay.com/photo/2020/04/26/18/16/floral-5096532_640.jpg",
        "src1280": "https://cdn.pixabay.com/photo/2020/04/26/18/16/floral-5096532_1280.jpg"
    },
    {
        "id": "1049401",
        "src640": "https://cdn.pixabay.com/photo/2015/11/18/16/09/water-1049401_640.jpg",
        "src1280": "https://cdn.pixabay.com/photo/2015/11/18/16/09/water-1049401_1280.jpg"
    },
    {
        "id": "5751722",
        "src640": "https://cdn.pixabay.com/photo/2020/11/17/08/05/creative-5751722_640.jpg",
        "src1280": "https://cdn.pixabay.com/photo/2020/11/17/08/05/creative-5751722_1280.jpg"
    },
    {
        "id": "2501117",
        "src640": "https://cdn.pixabay.com/photo/2017/07/13/17/07/abstract-2501117_640.jpg",
        "src1280": "https://cdn.pixabay.com/photo/2017/07/13/17/07/abstract-2501117_1280.jpg"
    },
    {
        "id": "2475685",
        "src640": "https://cdn.pixabay.com/photo/2017/07/05/19/12/abstract-2475685_640.jpg",
        "src1280": "https://cdn.pixabay.com/photo/2017/07/05/19/12/abstract-2475685_1280.jpg"
    },
    {
        "id": "3042277",
        "src640": "https://cdn.pixabay.com/photo/2017/12/27/09/38/abstract-3042277_640.jpg",
        "src1280": "https://cdn.pixabay.com/photo/2017/12/27/09/38/abstract-3042277_1280.jpg"
    },
    {
        "id": "1120459",
        "src640": "https://cdn.pixabay.com/photo/2016/01/04/08/39/smoke-1120459_640.jpg",
        "src1280": "https://cdn.pixabay.com/photo/2016/01/04/08/39/smoke-1120459_1280.jpg"
    },
    {
        "id": "1395534",
        "src640": "https://cdn.pixabay.com/photo/2016/05/16/12/19/ivy-1395534_640.jpg",
        "src1280": "https://cdn.pixabay.com/photo/2016/05/16/12/19/ivy-1395534_1280.jpg"
    },
    {
        "id": "1869996",
        "src640": "https://cdn.pixabay.com/photo/2016/11/29/13/51/abstract-1869996_640.jpg",
        "src1280": "https://cdn.pixabay.com/photo/2016/11/29/13/51/abstract-1869996_1280.jpg"
    },
    {
        "id": "163531",
        "src640": "https://cdn.pixabay.com/photo/2013/07/18/10/56/background-163531_640.jpg",
        "src1280": "https://cdn.pixabay.com/photo/2013/07/18/10/56/background-163531_1280.jpg"
    },
    {
        "id": "2369664",
        "src640": "https://cdn.pixabay.com/photo/2017/06/03/20/12/art-2369664_640.jpg",
        "src1280": "https://cdn.pixabay.com/photo/2017/06/03/20/12/art-2369664_1280.jpg"
    },
    {
        "id": "6296890",
        "src640": "https://cdn.pixabay.com/photo/2021/05/30/19/52/abstract-rainbow-6296890_640.jpg",
        "src1280": "https://cdn.pixabay.com/photo/2021/05/30/19/52/abstract-rainbow-6296890_1280.jpg"
    },
    {
        "id": "7289600",
        "src640": "https://cdn.pixabay.com/photo/2022/06/28/12/28/boho-art-7289600_640.jpg",
        "src1280": "https://cdn.pixabay.com/photo/2022/06/28/12/28/boho-art-7289600_1280.jpg"
    },
    {
        "id": "7093399",
        "src640": "https://cdn.pixabay.com/photo/2022/03/26/18/22/abstract-art-7093399_640.jpg",
        "src1280": "https://cdn.pixabay.com/photo/2022/03/26/18/22/abstract-art-7093399_1280.jpg"
    },
    {
        "id": "4568803",
        "src640": "https://cdn.pixabay.com/photo/2019/10/22/13/54/abstract-4568803_640.jpg",
        "src1280": "https://cdn.pixabay.com/photo/2019/10/22/13/54/abstract-4568803_1280.jpg"
    },
    {
        "id": "6556384",
        "src640": "https://cdn.pixabay.com/photo/2021/08/18/19/20/painting-6556384_640.jpg",
        "src1280": "https://cdn.pixabay.com/photo/2021/08/18/19/20/painting-6556384_1280.jpg"
    },
    {
        "id": "8332729",
        "src640": "https://cdn.pixabay.com/photo/2023/10/21/22/00/window-8332729_640.jpg",
        "src1280": "https://cdn.pixabay.com/photo/2023/10/21/22/00/window-8332729_1280.jpg"
    },
    {
        "id": "2681021",
        "src640": "https://cdn.pixabay.com/photo/2017/08/25/18/43/abstract-2681021_640.jpg",
        "src1280": "https://cdn.pixabay.com/photo/2017/08/25/18/43/abstract-2681021_1280.jpg"
    },
    {
        "id": "1995285",
        "src640": "https://cdn.pixabay.com/photo/2017/01/20/16/41/phoenix-1995285_640.jpg",
        "src1280": "https://cdn.pixabay.com/photo/2017/01/20/16/41/phoenix-1995285_1280.jpg"
    },
    {
        "id": "6815652",
        "src640": "https://cdn.pixabay.com/photo/2021/11/22/02/43/marble-6815652_640.jpg",
        "src1280": "https://cdn.pixabay.com/photo/2021/11/22/02/43/marble-6815652_1280.jpg"
    },
    {
        "id": "2934575",
        "src640": "https://cdn.pixabay.com/photo/2017/11/09/20/40/texture-2934575_640.jpg",
        "src1280": "https://cdn.pixabay.com/photo/2017/11/09/20/40/texture-2934575_1280.jpg"
    },
    {
        "id": "2607647",
        "src640": "https://cdn.pixabay.com/photo/2017/08/07/20/41/woman-2607647_640.jpg",
        "src1280": "https://cdn.pixabay.com/photo/2017/08/07/20/41/woman-2607647_1280.jpg"
    },
    {
        "id": "5816819",
        "src640": "https://cdn.pixabay.com/photo/2020/12/09/09/00/circle-5816819_640.jpg",
        "src1280": "https://cdn.pixabay.com/photo/2020/12/09/09/00/circle-5816819_1280.jpg"
    },
    {
        "id": "6032128",
        "src640": "https://cdn.pixabay.com/photo/2021/02/20/03/02/abstract-6032128_640.jpg",
        "src1280": "https://cdn.pixabay.com/photo/2021/02/20/03/02/abstract-6032128_1280.jpg"
    },
    {
        "id": "7704393",
        "src640": "https://cdn.pixabay.com/photo/2023/01/08/02/24/landscape-7704393_640.jpg",
        "src1280": "https://cdn.pixabay.com/photo/2023/01/08/02/24/landscape-7704393_1280.jpg"
    },
    {
        "id": "5074889",
        "src640": "https://cdn.pixabay.com/photo/2020/04/21/22/22/background-5074889_640.jpg",
        "src1280": "https://cdn.pixabay.com/photo/2020/04/21/22/22/background-5074889_1280.jpg"
    },
    {
        "id": "2432381",
        "src640": "https://cdn.pixabay.com/photo/2017/06/22/20/23/dandelion-2432381_640.jpg",
        "src1280": "https://cdn.pixabay.com/photo/2017/06/22/20/23/dandelion-2432381_1280.jpg"
    },
    {
        "id": "2965551",
        "src640": "https://cdn.pixabay.com/photo/2017/11/20/13/16/woman-2965551_640.jpg",
        "src1280": "https://cdn.pixabay.com/photo/2017/11/20/13/16/woman-2965551_1280.jpg"
    },
    {
        "id": "1784292",
        "src640": "https://cdn.pixabay.com/photo/2016/10/30/20/46/universe-1784292_640.jpg",
        "src1280": "https://cdn.pixabay.com/photo/2016/10/30/20/46/universe-1784292_1280.jpg"
    },
    {
        "id": "2501105",
        "src640": "https://cdn.pixabay.com/photo/2017/07/13/17/03/abstract-2501105_640.jpg",
        "src1280": "https://cdn.pixabay.com/photo/2017/07/13/17/03/abstract-2501105_1280.jpg"
    },
    {
        "id": "1963820",
        "src640": "https://cdn.pixabay.com/photo/2017/01/08/20/00/abstract-1963820_640.jpg",
        "src1280": "https://cdn.pixabay.com/photo/2017/01/08/20/00/abstract-1963820_1280.jpg"
    },
    {
        "id": "667207",
        "src640": "https://cdn.pixabay.com/photo/2015/03/10/14/56/stationery-667207_640.jpg",
        "src1280": "https://cdn.pixabay.com/photo/2015/03/10/14/56/stationery-667207_1280.jpg"
    },
    {
        "id": "2721425",
        "src640": "https://cdn.pixabay.com/photo/2017/09/06/13/18/mosaic-2721425_640.jpg",
        "src1280": "https://cdn.pixabay.com/photo/2017/09/06/13/18/mosaic-2721425_1280.jpg"
    },
    {
        "id": "2475722",
        "src640": "https://cdn.pixabay.com/photo/2017/07/05/19/23/art-2475722_640.jpg",
        "src1280": "https://cdn.pixabay.com/photo/2017/07/05/19/23/art-2475722_1280.jpg"
    },
    {
        "id": "2265043",
        "src640": "https://cdn.pixabay.com/photo/2017/04/27/10/31/dog-2265043_640.jpg",
        "src1280": "https://cdn.pixabay.com/photo/2017/04/27/10/31/dog-2265043_1280.jpg"
    }
]