[
    {
        "id": "8478828",
        "src640": "https://cdn.pixabay.com/photo/2023/12/30/19/41/fantasy-8478828_640.jpg",
        "src1280": "https://cdn.pixabay.com/photo/2023/12/30/19/41/fantasy-8478828_1280.jpg"
    },
    {
        "id": "2018966",
        "src640": "https://cdn.pixabay.com/photo/2017/01/29/18/34/glass-2018966_640.jpg",
        "src1280": "https://cdn.pixabay.com/photo/2017/01/29/18/34/glass-2018966_1280.jpg"
    },
    {
        "id": "8422491",
        "src640": "https://cdn.pixabay.com/photo/2023/11/30/20/48/fantasy-8422491_640.jpg",
        "src1280": "https://cdn.pixabay.com/photo/2023/11/30/20/48/fantasy-8422491_1280.jpg"
    },
    {
        "id": "89339",
        "src640": "https://cdn.pixabay.com/photo/2013/03/02/16/21/flowers-89339_640.jpg",
        "src1280": "https://cdn.pixabay.com/photo/2013/03/02/16/21/flowers-89339_1280.jpg"
    },
    {
        "id": "8172933",
        "src640": "https://cdn.pixabay.com/photo/2023/08/06/13/18/geometric-8172933_640.jpg",
        "src1280": "https://cdn.pixabay.com/photo/2023/08/06/13/18/geometric-8172933_1280.jpg"
    },
    {
        "id": "4513602",
        "src640": "https://cdn.pixabay.com/photo/2019/09/29/15/30/drip-4513602_640.jpg",
        "src1280": "https://cdn.pixabay.com/photo/2019/09/29/15/30/drip-4513602_1280.jpg"
    },
    {
        "id": "672455",
        "src640": "https://cdn.pixabay.com/photo/2015/03/13/23/48/background-image-672455_640.jpg",
        "src1280": "https://cdn.pixabay.com/photo/2015/03/13/23/48/background-image-672455_1280.jpg"
    },
    {
        "id": "126159",
        "src640": "https://cdn.pixabay.com/photo/2013/06/10/16/35/candles-126159_640.jpg",
        "src1280": "https://cdn.pixabay.com/photo/2013/06/10/16/35/candles-126159_1280.jpg"
    },
    {
        "id": "1824186",
        "src640": "https://cdn.pixabay.com/photo/2016/11/14/18/02/macro-1824186_640.jpg",
        "src1280": "https://cdn.pixabay.com/photo/2016/11/14/18/02/macro-1824186_1280.jpg"
    },
    {
        "id": "6556398",
        "src640": "https://cdn.pixabay.com/photo/2021/08/18/19/23/background-6556398_640.jpg",
        "src1280": "https://cdn.pixabay.com/photo/2021/08/18/19/23/background-6556398_1280.jpg"
    },
    {
        "id": "77170",
        "src640": "https://cdn.pixabay.com/photo/2013/02/01/19/00/woman-77170_640.jpg",
        "src1280": "https://cdn.pixabay.com/photo/2013/02/01/19/00/woman-77170_1280.jpg"
    },
    {
        "id": "8436687",
        "src640": "https://cdn.pixabay.com/photo/2023/12/08/02/33/backgrounds-8436687_640.jpg",
        "src1280": "https://cdn.pixabay.com/photo/2023/12/08/02/33/backgrounds-8436687_1280.jpg"
    },
    {
        "id": "5816818",
        "src640": "https://cdn.pixabay.com/photo/2020/12/09/09/00/circle-5816818_640.jpg",
        "src1280": "https://cdn.pixabay.com/photo/2020/12/09/09/00/circle-5816818_1280.jpg"
    },
    {
        "id": "2409504",
        "src640": "https://cdn.pixabay.com/photo/2017/06/16/15/51/girl-2409504_640.jpg",
        "src1280": "https://cdn.pixabay.com/photo/2017/06/16/15/51/girl-2409504_1280.jpg"
    },
    {
        "id": "1252276",
        "src640": "https://cdn.pixabay.com/photo/2016/03/12/15/42/plants-1252276_640.jpg",
        "src1280": "https://cdn.pixabay.com/photo/2016/03/12/15/42/plants-1252276_1280.jpg"
    },
    {
        "id": "4748969",
        "src640": "https://cdn.pixabay.com/photo/2020/01/08/00/43/sketch-4748969_640.jpg",
        "src1280": "https://cdn.pixabay.com/photo/2020/01/08/00/43/sketch-4748969_1280.jpg"
    },
    {
        "id": "5335268",
        "src640": "https://cdn.pixabay.com/photo/2020/06/24/08/26/oil-painting-5335268_640.jpg",
        "src1280": "https://cdn.pixabay.com/photo/2020/06/24/08/26/oil-painting-5335268_1280.jpg"
    },
    {
        "id": "997787",
        "src640": "https://cdn.pixabay.com/photo/2015/10/20/14/17/crash-land-997787_640.jpg",
        "src1280": "https://cdn.pixabay.com/photo/2015/10/20/14/17/crash-land-997787_1280.jpg"
    },
    {
        "id": "8379222",
        "src640": "https://cdn.pixabay.com/photo/2023/11/10/11/51/ai-generated-8379222_640.jpg",
        "src1280": "https://cdn.pixabay.com/photo/2023/11/10/11/51/ai-generated-8379222_1280.jpg"
    },
    {
        "id": "2313241",
        "src640": "https://cdn.pixabay.com/photo/2017/05/14/22/19/mask-2313241_640.jpg",
        "src1280": "https://cdn.pixabay.com/photo/2017/05/14/22/19/mask-2313241_1280.jpg"
    },
    {
        "id": "4515712",
        "src640": "https://cdn.pixabay.com/photo/2019/09/30/13/06/abstract-4515712_640.jpg",
        "src1280": "https://cdn.pixabay.com/photo/2019/09/30/13/06/abstract-4515712_1280.jpg"
    },
    {
        "id": "3052939",
        "src640": "https://cdn.pixabay.com/photo/2017/12/31/18/20/pattern-3052939_640.jpg",
        "src1280": "https://cdn.pixabay.com/photo/2017/12/31/18/20/pattern-3052939_1280.jpg"
    },
    {
        "id": "17832",
        "src640": "https://cdn.pixabay.com/photo/2012/02/28/00/48/circles-17832_640.jpg",
        "src1280": "https://cdn.pixabay.com/photo/2012/02/28/00/48/circles-17832_1280.jpg"
    },
    {
        "id": "4779540",
        "src640": "https://cdn.pixabay.com/photo/2020/01/20/05/30/black-4779540_640.jpg",
        "src1280": "https://cdn.pixabay.com/photo/2020/01/20/05/30/black-4779540_1280.jpg"
    },
    {
        "id": "2548775",
        "src640": "https://cdn.pixabay.com/photo/2017/07/28/14/12/background-2548775_640.jpg",
        "src1280": "https://cdn.pixabay.com/photo/2017/07/28/14/12/background-2548775_1280.jpg"
    },
    {
        "id": "21334",
        "src640": "https://cdn.pixabay.com/photo/2012/03/02/14/51/painting-21334_640.jpg",
        "src1280": "https://cdn.pixabay.com/photo/2012/03/02/14/51/painting-21334_1280.jpg"
    },
    {
        "id": "89165",
        "src640": "https://cdn.pixabay.com/photo/2013/03/02/02/40/abstract-89165_640.jpg",
        "src1280": "https://cdn.pixabay.com/photo/2013/03/02/02/40/abstract-89165_1280.jpg"
    },
    {
        "id": "8364771",
        "src640": "https://cdn.pixabay.com/photo/2023/11/04/12/08/ai-generated-8364771_640.jpg",
        "src1280": "https://cdn.pixabay.com/photo/2023/11/04/12/08/ai-generated-8364771_1280.jpg"
    },
    {
        "id": "2448432",
        "src640": "https://cdn.pixabay.com/photo/2017/06/27/18/56/macro-2448432_640.jpg",
        "src1280": "https://cdn.pixabay.com/photo/2017/06/27/18/56/macro-2448432_1280.jpg"
    },
    {
        "id": "8448503",
        "src640": "https://cdn.pixabay.com/photo/2023/12/14/09/31/fantasy-8448503_640.jpg",
        "src1280": "https://cdn.pixabay.com/photo/2023/12/14/09/31/fantasy-8448503_1280.jpg"
    },
    {
        "id": "8449589",
        "src640": "https://cdn.pixabay.com/photo/2023/12/14/20/02/forms-8449589_640.jpg",
        "src1280": "https://cdn.pixabay.com/photo/2023/12/14/20/02/forms-8449589_1280.jpg"
    },
    {
        "id": "8466284",
        "src640": "https://cdn.pixabay.com/photo/2023/12/23/20/25/ai-generated-8466284_640.jpg",
        "src1280": "https://cdn.pixabay.com/photo/2023/12/23/20/25/ai-generated-8466284_1280.jpg"
    },
    {
        "id": "8005043",
        "src640": "https://cdn.pixabay.com/photo/2023/05/19/17/41/lines-8005043_640.jpg",
        "src1280": "https://cdn.pixabay.com/photo/2023/05/19/17/41/lines-8005043_1280.jpg"
    },
    {
        "id": "76093",
        "src640": "https://cdn.pixabay.com/photo/2013/01/25/10/07/heart-76093_640.jpg",
        "src1280": "https://cdn.pixabay.com/photo/2013/01/25/10/07/heart-76093_1280.jpg"
    },
    {
        "id": "7781375",
        "src640": "https://cdn.pixabay.com/photo/2023/02/10/17/33/portrait-7781375_640.jpg",
        "src1280": "https://cdn.pixabay.com/photo/2023/02/10/17/33/portrait-7781375_1280.jpg"
    },
    {
        "id": "5974339",
        "src640": "https://cdn.pixabay.com/photo/2021/02/02/15/15/abstract-5974339_640.jpg",
        "src1280": "https://cdn.pixabay.com/photo/2021/02/02/15/15/abstract-5974339_1280.jpg"
    },
    {
        "id": "855760",
        "src640": "https://cdn.pixabay.com/photo/2015/07/22/16/19/texture-855760_640.jpg",
        "src1280": "https://cdn.pixabay.com/photo/2015/07/22/16/19/texture-855760_1280.jpg"
    },
    {
        "id": "4676901",
        "src640": "https://cdn.pixabay.com/photo/2019/12/06/08/23/love-4676901_640.jpg",
        "src1280": "https://cdn.pixabay.com/photo/2019/12/06/08/23/love-4676901_1280.jpg"
    },
    {
        "id": "4568791",
        "src640": "https://cdn.pixabay.com/photo/2019/10/22/13/52/abstract-4568791_640.jpg",
        "src1280": "https://cdn.pixabay.com/photo/2019/10/22/13/52/abstract-4568791_1280.jpg"
    },
    {
        "id": "1884757",
        "src640": "https://cdn.pixabay.com/photo/2016/12/05/19/39/seamless-1884757_640.jpg",
        "src1280": "https://cdn.pixabay.com/photo/2016/12/05/19/39/seamless-1884757_1280.jpg"
    },
    {
        "id": "6771896",
        "src640": "https://cdn.pixabay.com/photo/2021/11/05/19/22/astronaut-6771896_640.jpg",
        "src1280": "https://cdn.pixabay.com/photo/2021/11/05/19/22/astronaut-6771896_1280.jpg"
    },
    {
        "id": "4542679",
        "src640": "https://cdn.pixabay.com/photo/2019/10/11/20/16/peach-4542679_640.jpg",
        "src1280": "https://cdn.pixabay.com/photo/2019/10/11/20/16/peach-4542679_1280.jpg"
    },
    {
        "id": "4643978",
        "src640": "https://cdn.pixabay.com/photo/2019/11/22/03/06/abstract-4643978_640.jpg",
        "src1280": "https://cdn.pixabay.com/photo/2019/11/22/03/06/abstract-4643978_1280.jpg"
    },
    {
        "id": "89347",
        "src640": "https://cdn.pixabay.com/photo/2013/03/02/16/40/abstract-89347_640.jpg",
        "src1280": "https://cdn.pixabay.com/photo/2013/03/02/16/40/abstract-89347_1280.jpg"
    },
    {
        "id": "8449590",
        "src640": "https://cdn.pixabay.com/photo/2023/12/14/20/02/forms-8449590_640.jpg",
        "src1280": "https://cdn.pixabay.com/photo/2023/12/14/20/02/forms-8449590_1280.jpg"
    },
    {
        "id": "1768965",
        "src640": "https://cdn.pixabay.com/photo/2016/10/25/14/03/watercolour-1768965_640.jpg",
        "src1280": "https://cdn.pixabay.com/photo/2016/10/25/14/03/watercolour-1768965_1280.jpg"
    },
    {
        "id": "2308838",
        "src640": "https://cdn.pixabay.com/photo/2017/05/13/07/12/fabric-2308838_640.jpg",
        "src1280": "https://cdn.pixabay.com/photo/2017/05/13/07/12/fabric-2308838_1280.jpg"
    },
    {
        "id": "2142197",
        "src640": "https://cdn.pixabay.com/photo/2017/03/14/07/37/girl-2142197_640.jpg",
        "src1280": "https://cdn.pixabay.com/photo/2017/03/14/07/37/girl-2142197_1280.jpg"
    }
]