[
    {
        "id": "7442273",
        "src640": "https://cdn.pixabay.com/photo/2022/09/09/03/38/window-7442273_640.jpg",
        "src1280": "https://cdn.pixabay.com/photo/2022/09/09/03/38/window-7442273_1280.jpg"
    },
    {
        "id": "1420074",
        "src640": "https://cdn.pixabay.com/photo/2016/05/27/16/09/abstract-1420074_640.jpg",
        "src1280": "https://cdn.pixabay.com/photo/2016/05/27/16/09/abstract-1420074_1280.jpg"
    },
    {
        "id": "7442270",
        "src640": "https://cdn.pixabay.com/photo/2022/09/09/03/38/abstract-7442270_640.jpg",
        "src1280": "https://cdn.pixabay.com/photo/2022/09/09/03/38/abstract-7442270_1280.jpg"
    },
    {
        "id": "1245312",
        "src640": "https://cdn.pixabay.com/photo/2016/03/09/04/30/nature-1245312_640.jpg",
        "src1280": "https://cdn.pixabay.com/photo/2016/03/09/04/30/nature-1245312_1280.jpg"
    },
    {
        "id": "8292047",
        "src640": "https://cdn.pixabay.com/photo/2023/10/03/16/55/fantasy-8292047_640.jpg",
        "src1280": "https://cdn.pixabay.com/photo/2023/10/03/16/55/fantasy-8292047_1280.jpg"
    },
    {
        "id": "8227732",
        "src640": "https://cdn.pixabay.com/photo/2023/09/01/21/28/fantasy-8227732_640.jpg",
        "src1280": "https://cdn.pixabay.com/photo/2023/09/01/21/28/fantasy-8227732_1280.jpg"
    },
    {
        "id": "8031743",
        "src640": "https://cdn.pixabay.com/photo/2023/05/31/15/54/ai-generated-8031743_640.jpg",
        "src1280": "https://cdn.pixabay.com/photo/2023/05/31/15/54/ai-generated-8031743_1280.jpg"
    },
    {
        "id": "7877260",
        "src640": "https://cdn.pixabay.com/photo/2023/03/26/01/16/watercolor-7877260_640.jpg",
        "src1280": "https://cdn.pixabay.com/photo/2023/03/26/01/16/watercolor-7877260_1280.jpg"
    },
    {
        "id": "8279289",
        "src640": "https://cdn.pixabay.com/photo/2023/09/27/10/19/fantasy-8279289_640.jpg",
        "src1280": "https://cdn.pixabay.com/photo/2023/09/27/10/19/fantasy-8279289_1280.jpg"
    },
    {
        "id": "8391637",
        "src640": "https://cdn.pixabay.com/photo/2023/11/16/07/52/fantasy-8391637_640.jpg",
        "src1280": "https://cdn.pixabay.com/photo/2023/11/16/07/52/fantasy-8391637_1280.jpg"
    },
    {
        "id": "8358989",
        "src640": "https://cdn.pixabay.com/photo/2023/11/01/19/36/fantasy-8358989_640.jpg",
        "src1280": "https://cdn.pixabay.com/photo/2023/11/01/19/36/fantasy-8358989_1280.jpg"
    },
    {
        "id": "8323201",
        "src640": "https://cdn.pixabay.com/photo/2023/10/18/08/02/fantasy-8323201_640.jpg",
        "src1280": "https://cdn.pixabay.com/photo/2023/10/18/08/02/fantasy-8323201_1280.jpg"
    },
    {
        "id": "4682287",
        "src640": "https://cdn.pixabay.com/photo/2019/12/08/21/32/poinsettia-4682287_640.jpg",
        "src1280": "https://cdn.pixabay.com/photo/2019/12/08/21/32/poinsettia-4682287_1280.jpg"
    },
    {
        "id": "8271431",
        "src640": "https://cdn.pixabay.com/photo/2023/09/23/16/34/fantasy-8271431_640.jpg",
        "src1280": "https://cdn.pixabay.com/photo/2023/09/23/16/34/fantasy-8271431_1280.jpg"
    },
    {
        "id": "8358975",
        "src640": "https://cdn.pixabay.com/photo/2023/11/01/19/36/fantasy-8358975_640.jpg",
        "src1280": "https://cdn.pixabay.com/photo/2023/11/01/19/36/fantasy-8358975_1280.jpg"
    },
    {
        "id": "3411120",
        "src640": "https://cdn.pixabay.com/photo/2018/05/18/12/50/kite-3411120_640.jpg",
        "src1280": "https://cdn.pixabay.com/photo/2018/05/18/12/50/kite-3411120_1280.jpg"
    },
    {
        "id": "8317766",
        "src640": "https://cdn.pixabay.com/photo/2023/10/15/19/22/fantasy-8317766_640.jpg",
        "src1280": "https://cdn.pixabay.com/photo/2023/10/15/19/22/fantasy-8317766_1280.jpg"
    },
    {
        "id": "8307138",
        "src640": "https://cdn.pixabay.com/photo/2023/10/10/18/58/fantasy-8307138_640.jpg",
        "src1280": "https://cdn.pixabay.com/photo/2023/10/10/18/58/fantasy-8307138_1280.jpg"
    },
    {
        "id": "7703553",
        "src640": "https://cdn.pixabay.com/photo/2023/01/07/15/53/abstract-7703553_640.jpg",
        "src1280": "https://cdn.pixabay.com/photo/2023/01/07/15/53/abstract-7703553_1280.jpg"
    },
    {
        "id": "7665686",
        "src640": "https://cdn.pixabay.com/photo/2022/12/19/13/36/background-7665686_640.jpg",
        "src1280": "https://cdn.pixabay.com/photo/2022/12/19/13/36/background-7665686_1280.jpg"
    },
    {
        "id": "8452925",
        "src640": "https://cdn.pixabay.com/photo/2023/12/16/18/07/fantasy-8452925_640.jpg",
        "src1280": "https://cdn.pixabay.com/photo/2023/12/16/18/07/fantasy-8452925_1280.jpg"
    },
    {
        "id": "8256897",
        "src640": "https://cdn.pixabay.com/photo/2023/09/16/14/49/fantasy-8256897_640.jpg",
        "src1280": "https://cdn.pixabay.com/photo/2023/09/16/14/49/fantasy-8256897_1280.jpg"
    },
    {
        "id": "8337741",
        "src640": "https://cdn.pixabay.com/photo/2023/10/24/08/27/fantasy-8337741_640.jpg",
        "src1280": "https://cdn.pixabay.com/photo/2023/10/24/08/27/fantasy-8337741_1280.jpg"
    },
    {
        "id": "8340677",
        "src640": "https://cdn.pixabay.com/photo/2023/10/25/15/35/fantasy-8340677_640.jpg",
        "src1280": "https://cdn.pixabay.com/photo/2023/10/25/15/35/fantasy-8340677_1280.jpg"
    },
    {
        "id": "8232844",
        "src640": "https://cdn.pixabay.com/photo/2023/09/04/14/44/fantasy-8232844_640.jpg",
        "src1280": "https://cdn.pixabay.com/photo/2023/09/04/14/44/fantasy-8232844_1280.jpg"
    },
    {
        "id": "8156856",
        "src640": "https://cdn.pixabay.com/photo/2023/07/29/13/04/mosaic-8156856_640.jpg",
        "src1280": "https://cdn.pixabay.com/photo/2023/07/29/13/04/mosaic-8156856_1280.jpg"
    },
    {
        "id": "2113100",
        "src640": "https://cdn.pixabay.com/photo/2017/03/03/02/14/blue-2113100_640.jpg",
        "src1280": "https://cdn.pixabay.com/photo/2017/03/03/02/14/blue-2113100_1280.jpg"
    },
    {
        "id": "8376215",
        "src640": "https://cdn.pixabay.com/photo/2023/11/09/04/19/fantasy-8376215_640.jpg",
        "src1280": "https://cdn.pixabay.com/photo/2023/11/09/04/19/fantasy-8376215_1280.jpg"
    },
    {
        "id": "7143651",
        "src640": "https://cdn.pixabay.com/photo/2022/04/19/19/28/wave-7143651_640.jpg",
        "src1280": "https://cdn.pixabay.com/photo/2022/04/19/19/28/wave-7143651_1280.jpg"
    },
    {
        "id": "4291079",
        "src640": "https://cdn.pixabay.com/photo/2019/06/22/08/09/state-of-the-union-4291079_640.jpg",
        "src1280": "https://cdn.pixabay.com/photo/2019/06/22/08/09/state-of-the-union-4291079_1280.jpg"
    },
    {
        "id": "8201971",
        "src640": "https://cdn.pixabay.com/photo/2023/08/20/08/37/fantasy-8201971_640.jpg",
        "src1280": "https://cdn.pixabay.com/photo/2023/08/20/08/37/fantasy-8201971_1280.jpg"
    },
    {
        "id": "8277475",
        "src640": "https://cdn.pixabay.com/photo/2023/09/26/13/29/fantasy-8277475_640.jpg",
        "src1280": "https://cdn.pixabay.com/photo/2023/09/26/13/29/fantasy-8277475_1280.jpg"
    },
    {
        "id": "8201978",
        "src640": "https://cdn.pixabay.com/photo/2023/08/20/08/37/fantasy-8201978_640.jpg",
        "src1280": "https://cdn.pixabay.com/photo/2023/08/20/08/37/fantasy-8201978_1280.jpg"
    },
    {
        "id": "5261402",
        "src640": "https://cdn.pixabay.com/photo/2020/06/05/04/21/oil-painting-5261402_640.jpg",
        "src1280": "https://cdn.pixabay.com/photo/2020/06/05/04/21/oil-painting-5261402_1280.jpg"
    },
    {
        "id": "8452911",
        "src640": "https://cdn.pixabay.com/photo/2023/12/16/18/07/fantasy-8452911_640.jpg",
        "src1280": "https://cdn.pixabay.com/photo/2023/12/16/18/07/fantasy-8452911_1280.jpg"
    },
    {
        "id": "1889470",
        "src640": "https://cdn.pixabay.com/photo/2016/12/07/13/32/seamless-1889470_640.jpg",
        "src1280": "https://cdn.pixabay.com/photo/2016/12/07/13/32/seamless-1889470_1280.jpg"
    },
    {
        "id": "8388630",
        "src640": "https://cdn.pixabay.com/photo/2023/11/14/22/24/fantasy-8388630_640.jpg",
        "src1280": "https://cdn.pixabay.com/photo/2023/11/14/22/24/fantasy-8388630_1280.jpg"
    },
    {
        "id": "2092069",
        "src640": "https://cdn.pixabay.com/photo/2017/02/23/12/43/faces-2092069_640.jpg",
        "src1280": "https://cdn.pixabay.com/photo/2017/02/23/12/43/faces-2092069_1280.jpg"
    },
    {
        "id": "368144",
        "src640": "https://cdn.pixabay.com/photo/2014/06/13/09/57/fractal-368144_640.jpg",
        "src1280": "https://cdn.pixabay.com/photo/2014/06/13/09/57/fractal-368144_1280.jpg"
    },
    {
        "id": "1277990",
        "src640": "https://cdn.pixabay.com/photo/2016/03/25/01/11/abstract-1277990_640.jpg",
        "src1280": "https://cdn.pixabay.com/photo/2016/03/25/01/11/abstract-1277990_1280.jpg"
    },
    {
        "id": "736312",
        "src640": "https://cdn.pixabay.com/photo/2015/04/23/16/40/tower-736312_640.jpg",
        "src1280": "https://cdn.pixabay.com/photo/2015/04/23/16/40/tower-736312_1280.jpg"
    },
    {
        "id": "8337719",
        "src640": "https://cdn.pixabay.com/photo/2023/10/24/08/27/fantasy-8337719_640.jpg",
        "src1280": "https://cdn.pixabay.com/photo/2023/10/24/08/27/fantasy-8337719_1280.jpg"
    },
    {
        "id": "7988101",
        "src640": "https://cdn.pixabay.com/photo/2023/05/12/09/31/skull-7988101_640.jpg",
        "src1280": "https://cdn.pixabay.com/photo/2023/05/12/09/31/skull-7988101_1280.jpg"
    },
    {
        "id": "2508885",
        "src640": "https://cdn.pixabay.com/photo/2017/07/16/11/00/nature-2508885_640.jpg",
        "src1280": "https://cdn.pixabay.com/photo/2017/07/16/11/00/nature-2508885_1280.jpg"
    },
    {
        "id": "5162557",
        "src640": "https://cdn.pixabay.com/photo/2020/05/12/11/45/wildflower-5162557_640.jpg",
        "src1280": "https://cdn.pixabay.com/photo/2020/05/12/11/45/wildflower-5162557_1280.jpg"
    },
    {
        "id": "7686514",
        "src640": "https://cdn.pixabay.com/photo/2022/12/30/09/27/background-7686514_640.jpg",
        "src1280": "https://cdn.pixabay.com/photo/2022/12/30/09/27/background-7686514_1280.jpg"
    },
    {
        "id": "8358959",
        "src640": "https://cdn.pixabay.com/photo/2023/11/01/19/36/fantasy-8358959_640.jpg",
        "src1280": "https://cdn.pixabay.com/photo/2023/11/01/19/36/fantasy-8358959_1280.jpg"
    },
    {
        "id": "4848828",
        "src640": "https://cdn.pixabay.com/photo/2020/02/14/16/37/evening-4848828_640.jpg",
        "src1280": "https://cdn.pixabay.com/photo/2020/02/14/16/37/evening-4848828_1280.jpg"
    },
    {
        "id": "8391615",
        "src640": "https://cdn.pixabay.com/photo/2023/11/16/07/51/fantasy-8391615_640.jpg",
        "src1280": "https://cdn.pixabay.com/photo/2023/11/16/07/51/fantasy-8391615_1280.jpg"
    },
    {
        "id": "8247258",
        "src640": "https://cdn.pixabay.com/photo/2023/09/11/16/25/fantasy-8247258_640.jpg",
        "src1280": "https://cdn.pixabay.com/photo/2023/09/11/16/25/fantasy-8247258_1280.jpg"
    },
    {
        "id": "5264944",
        "src640": "https://cdn.pixabay.com/photo/2020/06/06/01/42/oil-painting-5264944_640.jpg",
        "src1280": "https://cdn.pixabay.com/photo/2020/06/06/01/42/oil-painting-5264944_1280.jpg"
    },
    {
        "id": "6797100",
        "src640": "https://cdn.pixabay.com/photo/2021/11/15/07/34/flowers-6797100_640.jpg",
        "src1280": "https://cdn.pixabay.com/photo/2021/11/15/07/34/flowers-6797100_1280.jpg"
    },
    {
        "id": "5162541",
        "src640": "https://cdn.pixabay.com/photo/2020/05/12/11/39/lily-of-the-valley-5162541_640.jpg",
        "src1280": "https://cdn.pixabay.com/photo/2020/05/12/11/39/lily-of-the-valley-5162541_1280.jpg"
    },
    {
        "id": "8385430",
        "src640": "https://cdn.pixabay.com/photo/2023/11/13/12/46/ai-generated-8385430_640.jpg",
        "src1280": "https://cdn.pixabay.com/photo/2023/11/13/12/46/ai-generated-8385430_1280.jpg"
    },
    {
        "id": "8388664",
        "src640": "https://cdn.pixabay.com/photo/2023/11/14/22/24/fantasy-8388664_640.jpg",
        "src1280": "https://cdn.pixabay.com/photo/2023/11/14/22/24/fantasy-8388664_1280.jpg"
    },
    {
        "id": "869307",
        "src640": "https://cdn.pixabay.com/photo/2015/07/31/16/06/light-869307_640.jpg",
        "src1280": "https://cdn.pixabay.com/photo/2015/07/31/16/06/light-869307_1280.jpg"
    },
    {
        "id": "2590016",
        "src640": "https://cdn.pixabay.com/photo/2017/08/06/07/48/water-2590016_640.jpg",
        "src1280": "https://cdn.pixabay.com/photo/2017/08/06/07/48/water-2590016_1280.jpg"
    },
    {
        "id": "8337731",
        "src640": "https://cdn.pixabay.com/photo/2023/10/24/08/27/fantasy-8337731_640.jpg",
        "src1280": "https://cdn.pixabay.com/photo/2023/10/24/08/27/fantasy-8337731_1280.jpg"
    },
    {
        "id": "991160",
        "src640": "https://cdn.pixabay.com/photo/2015/10/16/13/26/heart-991160_640.jpg",
        "src1280": "https://cdn.pixabay.com/photo/2015/10/16/13/26/heart-991160_1280.jpg"
    },
    {
        "id": "8227748",
        "src640": "https://cdn.pixabay.com/photo/2023/09/01/21/28/fantasy-8227748_640.jpg",
        "src1280": "https://cdn.pixabay.com/photo/2023/09/01/21/28/fantasy-8227748_1280.jpg"
    },
    {
        "id": "7194592",
        "src640": "https://cdn.pixabay.com/photo/2022/05/13/21/26/area-7194592_640.jpg",
        "src1280": "https://cdn.pixabay.com/photo/2022/05/13/21/26/area-7194592_1280.jpg"
    },
    {
        "id": "7826348",
        "src640": "https://cdn.pixabay.com/photo/2023/03/02/20/04/ai-generated-7826348_640.jpg",
        "src1280": "https://cdn.pixabay.com/photo/2023/03/02/20/04/ai-generated-7826348_1280.jpg"
    },
    {
        "id": "8286230",
        "src640": "https://cdn.pixabay.com/photo/2023/09/30/18/15/fantasy-8286230_640.jpg",
        "src1280": "https://cdn.pixabay.com/photo/2023/09/30/18/15/fantasy-8286230_1280.jpg"
    },
    {
        "id": "8328878",
        "src640": "https://cdn.pixabay.com/photo/2023/10/20/08/23/fantasy-8328878_640.jpg",
        "src1280": "https://cdn.pixabay.com/photo/2023/10/20/08/23/fantasy-8328878_1280.jpg"
    },
    {
        "id": "1400247",
        "src640": "https://cdn.pixabay.com/photo/2016/05/18/11/03/design-1400247_640.jpg",
        "src1280": "https://cdn.pixabay.com/photo/2016/05/18/11/03/design-1400247_1280.jpg"
    },
    {
        "id": "8213543",
        "src640": "https://cdn.pixabay.com/photo/2023/08/25/19/25/fantasy-8213543_640.jpg",
        "src1280": "https://cdn.pixabay.com/photo/2023/08/25/19/25/fantasy-8213543_1280.jpg"
    },
    {
        "id": "3706979",
        "src640": "https://cdn.pixabay.com/photo/2018/09/27/12/33/shadow-3706979_640.jpg",
        "src1280": "https://cdn.pixabay.com/photo/2018/09/27/12/33/shadow-3706979_1280.jpg"
    },
    {
        "id": "4751388",
        "src640": "https://cdn.pixabay.com/photo/2020/01/08/22/05/glass-4751388_640.jpg",
        "src1280": "https://cdn.pixabay.com/photo/2020/01/08/22/05/glass-4751388_1280.jpg"
    },
    {
        "id": "4491470",
        "src640": "https://cdn.pixabay.com/photo/2019/09/20/10/47/woman-4491470_640.jpg",
        "src1280": "https://cdn.pixabay.com/photo/2019/09/20/10/47/woman-4491470_1280.jpg"
    },
    {
        "id": "8271428",
        "src640": "https://cdn.pixabay.com/photo/2023/09/23/16/34/fantasy-8271428_640.jpg",
        "src1280": "https://cdn.pixabay.com/photo/2023/09/23/16/34/fantasy-8271428_1280.jpg"
    },
    {
        "id": "723086",
        "src640": "https://cdn.pixabay.com/photo/2015/04/15/01/39/bricks-723086_640.jpg",
        "src1280": "https://cdn.pixabay.com/photo/2015/04/15/01/39/bricks-723086_1280.jpg"
    },
    {
        "id": "8452914",
        "src640": "https://cdn.pixabay.com/photo/2023/12/16/18/07/fantasy-8452914_640.jpg",
        "src1280": "https://cdn.pixabay.com/photo/2023/12/16/18/07/fantasy-8452914_1280.jpg"
    },
    {
        "id": "8256899",
        "src640": "https://cdn.pixabay.com/photo/2023/09/16/14/49/fantasy-8256899_640.jpg",
        "src1280": "https://cdn.pixabay.com/photo/2023/09/16/14/49/fantasy-8256899_1280.jpg"
    },
    {
        "id": "8158179",
        "src640": "https://cdn.pixabay.com/photo/2023/07/30/06/20/fantasy-8158179_640.jpg",
        "src1280": "https://cdn.pixabay.com/photo/2023/07/30/06/20/fantasy-8158179_1280.jpg"
    },
    {
        "id": "2411987",
        "src640": "https://cdn.pixabay.com/photo/2017/06/17/12/00/thruster-2411987_640.jpg",
        "src1280": "https://cdn.pixabay.com/photo/2017/06/17/12/00/thruster-2411987_1280.jpg"
    }
]