[
    {
        "id": "3622352",
        "src640": "https://cdn.pixabay.com/photo/2018/08/21/22/39/cloud-3622352_640.jpg",
        "src1280": "https://cdn.pixabay.com/photo/2018/08/21/22/39/cloud-3622352_1280.jpg"
    },
    {
        "id": "8232875",
        "src640": "https://cdn.pixabay.com/photo/2023/09/04/14/44/fantasy-8232875_640.jpg",
        "src1280": "https://cdn.pixabay.com/photo/2023/09/04/14/44/fantasy-8232875_1280.jpg"
    },
    {
        "id": "8388658",
        "src640": "https://cdn.pixabay.com/photo/2023/11/14/22/24/fantasy-8388658_640.jpg",
        "src1280": "https://cdn.pixabay.com/photo/2023/11/14/22/24/fantasy-8388658_1280.jpg"
    },
    {
        "id": "8201972",
        "src640": "https://cdn.pixabay.com/photo/2023/08/20/08/37/fantasy-8201972_640.jpg",
        "src1280": "https://cdn.pixabay.com/photo/2023/08/20/08/37/fantasy-8201972_1280.jpg"
    },
    {
        "id": "431614",
        "src640": "https://cdn.pixabay.com/photo/2014/08/30/14/12/face-431614_640.jpg",
        "src1280": "https://cdn.pixabay.com/photo/2014/08/30/14/12/face-431614_1280.jpg"
    },
    {
        "id": "1028915",
        "src640": "https://cdn.pixabay.com/photo/2015/11/06/15/27/art-1028915_640.jpg",
        "src1280": "https://cdn.pixabay.com/photo/2015/11/06/15/27/art-1028915_1280.jpg"
    },
    {
        "id": "1202504",
        "src640": "https://cdn.pixabay.com/photo/2016/02/16/02/36/abstract-1202504_640.jpg",
        "src1280": "https://cdn.pixabay.com/photo/2016/02/16/02/36/abstract-1202504_1280.jpg"
    },
    {
        "id": "8213560",
        "src640": "https://cdn.pixabay.com/photo/2023/08/25/19/25/fantasy-8213560_640.jpg",
        "src1280": "https://cdn.pixabay.com/photo/2023/08/25/19/25/fantasy-8213560_1280.jpg"
    },
    {
        "id": "8493928",
        "src640": "https://cdn.pixabay.com/photo/2024/01/07/18/19/fantasy-8493928_640.jpg",
        "src1280": "https://cdn.pixabay.com/photo/2024/01/07/18/19/fantasy-8493928_1280.jpg"
    },
    {
        "id": "7088495",
        "src640": "https://cdn.pixabay.com/photo/2022/03/24/08/00/art-7088495_640.jpg",
        "src1280": "https://cdn.pixabay.com/photo/2022/03/24/08/00/art-7088495_1280.jpg"
    },
    {
        "id": "8373413",
        "src640": "https://cdn.pixabay.com/photo/2023/11/07/20/38/fantasy-8373413_640.jpg",
        "src1280": "https://cdn.pixabay.com/photo/2023/11/07/20/38/fantasy-8373413_1280.jpg"
    },
    {
        "id": "8185494",
        "src640": "https://cdn.pixabay.com/photo/2023/08/12/12/23/fantasy-8185494_640.jpg",
        "src1280": "https://cdn.pixabay.com/photo/2023/08/12/12/23/fantasy-8185494_1280.jpg"
    },
    {
        "id": "7723942",
        "src640": "https://cdn.pixabay.com/photo/2023/01/17/07/24/background-7723942_640.jpg",
        "src1280": "https://cdn.pixabay.com/photo/2023/01/17/07/24/background-7723942_1280.jpg"
    },
    {
        "id": "7029381",
        "src640": "https://cdn.pixabay.com/photo/2022/02/22/18/35/gnome-7029381_640.jpg",
        "src1280": "https://cdn.pixabay.com/photo/2022/02/22/18/35/gnome-7029381_1280.jpg"
    },
    {
        "id": "7505638",
        "src640": "https://cdn.pixabay.com/photo/2022/10/07/18/35/autumn-7505638_640.jpg",
        "src1280": "https://cdn.pixabay.com/photo/2022/10/07/18/35/autumn-7505638_1280.jpg"
    },
    {
        "id": "5046283",
        "src640": "https://cdn.pixabay.com/photo/2020/04/15/11/35/abandoned-5046283_640.jpg",
        "src1280": "https://cdn.pixabay.com/photo/2020/04/15/11/35/abandoned-5046283_1280.jpg"
    },
    {
        "id": "7402738",
        "src640": "https://cdn.pixabay.com/photo/2022/08/22/04/38/background-7402738_640.jpg",
        "src1280": "https://cdn.pixabay.com/photo/2022/08/22/04/38/background-7402738_1280.jpg"
    },
    {
        "id": "7082716",
        "src640": "https://cdn.pixabay.com/photo/2022/03/21/09/22/background-7082716_640.jpg",
        "src1280": "https://cdn.pixabay.com/photo/2022/03/21/09/22/background-7082716_1280.jpg"
    },
    {
        "id": "7467959",
        "src640": "https://cdn.pixabay.com/photo/2022/09/20/13/52/abstract-7467959_640.jpg",
        "src1280": "https://cdn.pixabay.com/photo/2022/09/20/13/52/abstract-7467959_1280.jpg"
    },
    {
        "id": "7214456",
        "src640": "https://cdn.pixabay.com/photo/2022/05/22/19/27/background-7214456_640.jpg",
        "src1280": "https://cdn.pixabay.com/photo/2022/05/22/19/27/background-7214456_1280.jpg"
    },
    {
        "id": "2692756",
        "src640": "https://cdn.pixabay.com/photo/2017/08/29/10/06/abstract-2692756_640.jpg",
        "src1280": "https://cdn.pixabay.com/photo/2017/08/29/10/06/abstract-2692756_1280.jpg"
    },
    {
        "id": "1532254",
        "src640": "https://cdn.pixabay.com/photo/2016/07/21/10/58/abstract-1532254_640.jpg",
        "src1280": "https://cdn.pixabay.com/photo/2016/07/21/10/58/abstract-1532254_1280.jpg"
    },
    {
        "id": "8340675",
        "src640": "https://cdn.pixabay.com/photo/2023/10/25/15/35/fantasy-8340675_640.jpg",
        "src1280": "https://cdn.pixabay.com/photo/2023/10/25/15/35/fantasy-8340675_1280.jpg"
    },
    {
        "id": "3162333",
        "src640": "https://cdn.pixabay.com/photo/2018/02/18/14/00/color-3162333_640.jpg",
        "src1280": "https://cdn.pixabay.com/photo/2018/02/18/14/00/color-3162333_1280.jpg"
    },
    {
        "id": "999359",
        "src640": "https://cdn.pixabay.com/photo/2015/10/21/11/13/sculpture-999359_640.jpg",
        "src1280": "https://cdn.pixabay.com/photo/2015/10/21/11/13/sculpture-999359_1280.jpg"
    },
    {
        "id": "1028923",
        "src640": "https://cdn.pixabay.com/photo/2015/11/06/15/28/art-1028923_640.jpg",
        "src1280": "https://cdn.pixabay.com/photo/2015/11/06/15/28/art-1028923_1280.jpg"
    },
    {
        "id": "8232872",
        "src640": "https://cdn.pixabay.com/photo/2023/09/04/14/44/fantasy-8232872_640.jpg",
        "src1280": "https://cdn.pixabay.com/photo/2023/09/04/14/44/fantasy-8232872_1280.jpg"
    },
    {
        "id": "5280698",
        "src640": "https://cdn.pixabay.com/photo/2020/06/10/02/02/oil-painting-5280698_640.jpg",
        "src1280": "https://cdn.pixabay.com/photo/2020/06/10/02/02/oil-painting-5280698_1280.jpg"
    },
    {
        "id": "8422450",
        "src640": "https://cdn.pixabay.com/photo/2023/11/30/20/48/fantasy-8422450_640.jpg",
        "src1280": "https://cdn.pixabay.com/photo/2023/11/30/20/48/fantasy-8422450_1280.jpg"
    },
    {
        "id": "1233735",
        "src640": "https://cdn.pixabay.com/photo/2016/03/03/09/09/elbe-philharmonic-hall-1233735_640.jpg",
        "src1280": "https://cdn.pixabay.com/photo/2016/03/03/09/09/elbe-philharmonic-hall-1233735_1280.jpg"
    },
    {
        "id": "7251558",
        "src640": "https://cdn.pixabay.com/photo/2022/06/09/01/43/abstract-7251558_640.jpg",
        "src1280": "https://cdn.pixabay.com/photo/2022/06/09/01/43/abstract-7251558_1280.jpg"
    },
    {
        "id": "7679888",
        "src640": "https://cdn.pixabay.com/photo/2022/12/26/21/58/abstract-phone-wallpaper-7679888_640.jpg",
        "src1280": "https://cdn.pixabay.com/photo/2022/12/26/21/58/abstract-phone-wallpaper-7679888_1280.jpg"
    },
    {
        "id": "8155839",
        "src640": "https://cdn.pixabay.com/photo/2023/07/28/19/39/fantasy-8155839_640.jpg",
        "src1280": "https://cdn.pixabay.com/photo/2023/07/28/19/39/fantasy-8155839_1280.jpg"
    },
    {
        "id": "3270518",
        "src640": "https://cdn.pixabay.com/photo/2018/03/28/20/49/color-3270518_640.jpg",
        "src1280": "https://cdn.pixabay.com/photo/2018/03/28/20/49/color-3270518_1280.jpg"
    },
    {
        "id": "8376222",
        "src640": "https://cdn.pixabay.com/photo/2023/11/09/04/19/fantasy-8376222_640.jpg",
        "src1280": "https://cdn.pixabay.com/photo/2023/11/09/04/19/fantasy-8376222_1280.jpg"
    },
    {
        "id": "4963684",
        "src640": "https://cdn.pixabay.com/photo/2020/03/24/11/15/abstract-4963684_640.jpg",
        "src1280": "https://cdn.pixabay.com/photo/2020/03/24/11/15/abstract-4963684_1280.jpg"
    },
    {
        "id": "7751760",
        "src640": "https://cdn.pixabay.com/photo/2023/01/28/21/27/background-7751760_640.jpg",
        "src1280": "https://cdn.pixabay.com/photo/2023/01/28/21/27/background-7751760_1280.jpg"
    },
    {
        "id": "6007587",
        "src640": "https://cdn.pixabay.com/photo/2021/02/12/07/49/lights-6007587_640.jpg",
        "src1280": "https://cdn.pixabay.com/photo/2021/02/12/07/49/lights-6007587_1280.jpg"
    },
    {
        "id": "8452908",
        "src640": "https://cdn.pixabay.com/photo/2023/12/16/18/07/fantasy-8452908_640.jpg",
        "src1280": "https://cdn.pixabay.com/photo/2023/12/16/18/07/fantasy-8452908_1280.jpg"
    },
    {
        "id": "6245989",
        "src640": "https://cdn.pixabay.com/photo/2021/05/11/14/00/smoke-6245989_640.jpg",
        "src1280": "https://cdn.pixabay.com/photo/2021/05/11/14/00/smoke-6245989_1280.jpg"
    },
    {
        "id": "8355808",
        "src640": "https://cdn.pixabay.com/photo/2023/10/31/18/40/fantasy-8355808_640.jpg",
        "src1280": "https://cdn.pixabay.com/photo/2023/10/31/18/40/fantasy-8355808_1280.jpg"
    },
    {
        "id": "7082701",
        "src640": "https://cdn.pixabay.com/photo/2022/03/21/09/18/background-7082701_640.jpg",
        "src1280": "https://cdn.pixabay.com/photo/2022/03/21/09/18/background-7082701_1280.jpg"
    },
    {
        "id": "7082690",
        "src640": "https://cdn.pixabay.com/photo/2022/03/21/09/17/background-7082690_640.jpg",
        "src1280": "https://cdn.pixabay.com/photo/2022/03/21/09/17/background-7082690_1280.jpg"
    },
    {
        "id": "7053705",
        "src640": "https://cdn.pixabay.com/photo/2022/03/07/13/46/background-7053705_640.jpg",
        "src1280": "https://cdn.pixabay.com/photo/2022/03/07/13/46/background-7053705_1280.jpg"
    },
    {
        "id": "7518259",
        "src640": "https://cdn.pixabay.com/photo/2022/10/13/05/48/clouds-7518259_640.jpg",
        "src1280": "https://cdn.pixabay.com/photo/2022/10/13/05/48/clouds-7518259_1280.jpg"
    },
    {
        "id": "7221386",
        "src640": "https://cdn.pixabay.com/photo/2022/05/25/20/34/background-7221386_640.jpg",
        "src1280": "https://cdn.pixabay.com/photo/2022/05/25/20/34/background-7221386_1280.jpg"
    },
    {
        "id": "7082524",
        "src640": "https://cdn.pixabay.com/photo/2022/03/21/07/49/background-7082524_640.jpg",
        "src1280": "https://cdn.pixabay.com/photo/2022/03/21/07/49/background-7082524_1280.jpg"
    },
    {
        "id": "8292036",
        "src640": "https://cdn.pixabay.com/photo/2023/10/03/16/55/fantasy-8292036_640.jpg",
        "src1280": "https://cdn.pixabay.com/photo/2023/10/03/16/55/fantasy-8292036_1280.jpg"
    },
    {
        "id": "8232887",
        "src640": "https://cdn.pixabay.com/photo/2023/09/04/14/44/fantasy-8232887_640.jpg",
        "src1280": "https://cdn.pixabay.com/photo/2023/09/04/14/44/fantasy-8232887_1280.jpg"
    },
    {
        "id": "8179697",
        "src640": "https://cdn.pixabay.com/photo/2023/08/09/15/18/fantasy-8179697_640.jpg",
        "src1280": "https://cdn.pixabay.com/photo/2023/08/09/15/18/fantasy-8179697_1280.jpg"
    },
    {
        "id": "3344709",
        "src640": "https://cdn.pixabay.com/photo/2018/04/23/16/03/quarry-3344709_640.jpg",
        "src1280": "https://cdn.pixabay.com/photo/2018/04/23/16/03/quarry-3344709_1280.jpg"
    },
    {
        "id": "7351221",
        "src640": "https://cdn.pixabay.com/photo/2022/07/29/06/46/digital-art-7351221_640.jpg",
        "src1280": "https://cdn.pixabay.com/photo/2022/07/29/06/46/digital-art-7351221_1280.jpg"
    },
    {
        "id": "8179739",
        "src640": "https://cdn.pixabay.com/photo/2023/08/09/15/19/fantasy-8179739_640.jpg",
        "src1280": "https://cdn.pixabay.com/photo/2023/08/09/15/19/fantasy-8179739_1280.jpg"
    },
    {
        "id": "845249",
        "src640": "https://cdn.pixabay.com/photo/2015/07/14/19/18/abstract-845249_640.jpg",
        "src1280": "https://cdn.pixabay.com/photo/2015/07/14/19/18/abstract-845249_1280.jpg"
    },
    {
        "id": "8201970",
        "src640": "https://cdn.pixabay.com/photo/2023/08/20/08/37/fantasy-8201970_640.jpg",
        "src1280": "https://cdn.pixabay.com/photo/2023/08/20/08/37/fantasy-8201970_1280.jpg"
    },
    {
        "id": "8161297",
        "src640": "https://cdn.pixabay.com/photo/2023/07/31/16/00/fantasy-8161297_640.jpg",
        "src1280": "https://cdn.pixabay.com/photo/2023/07/31/16/00/fantasy-8161297_1280.jpg"
    },
    {
        "id": "2582604",
        "src640": "https://cdn.pixabay.com/photo/2017/08/05/09/52/mask-2582604_640.jpg",
        "src1280": "https://cdn.pixabay.com/photo/2017/08/05/09/52/mask-2582604_1280.jpg"
    },
    {
        "id": "8452930",
        "src640": "https://cdn.pixabay.com/photo/2023/12/16/18/07/fantasy-8452930_640.jpg",
        "src1280": "https://cdn.pixabay.com/photo/2023/12/16/18/07/fantasy-8452930_1280.jpg"
    },
    {
        "id": "2863785",
        "src640": "https://cdn.pixabay.com/photo/2017/10/18/11/35/bicycle-2863785_640.jpg",
        "src1280": "https://cdn.pixabay.com/photo/2017/10/18/11/35/bicycle-2863785_1280.jpg"
    },
    {
        "id": "7679886",
        "src640": "https://cdn.pixabay.com/photo/2022/12/26/21/58/abstract-phone-wallpaper-7679886_640.jpg",
        "src1280": "https://cdn.pixabay.com/photo/2022/12/26/21/58/abstract-phone-wallpaper-7679886_1280.jpg"
    },
    {
        "id": "7685638",
        "src640": "https://cdn.pixabay.com/photo/2022/12/29/19/30/woman-7685638_640.jpg",
        "src1280": "https://cdn.pixabay.com/photo/2022/12/29/19/30/woman-7685638_1280.jpg"
    },
    {
        "id": "2540124",
        "src640": "https://cdn.pixabay.com/photo/2017/07/26/00/59/oslo-2540124_640.jpg",
        "src1280": "https://cdn.pixabay.com/photo/2017/07/26/00/59/oslo-2540124_1280.jpg"
    },
    {
        "id": "6245987",
        "src640": "https://cdn.pixabay.com/photo/2021/05/11/13/59/smoke-6245987_640.jpg",
        "src1280": "https://cdn.pixabay.com/photo/2021/05/11/13/59/smoke-6245987_1280.jpg"
    },
    {
        "id": "7728728",
        "src640": "https://cdn.pixabay.com/photo/2023/01/19/10/06/pattern-7728728_640.jpg",
        "src1280": "https://cdn.pixabay.com/photo/2023/01/19/10/06/pattern-7728728_1280.jpg"
    },
    {
        "id": "4946528",
        "src640": "https://cdn.pixabay.com/photo/2020/03/19/06/43/increased-4946528_640.jpg",
        "src1280": "https://cdn.pixabay.com/photo/2020/03/19/06/43/increased-4946528_1280.jpg"
    },
    {
        "id": "8323210",
        "src640": "https://cdn.pixabay.com/photo/2023/10/18/08/02/fantasy-8323210_640.jpg",
        "src1280": "https://cdn.pixabay.com/photo/2023/10/18/08/02/fantasy-8323210_1280.jpg"
    },
    {
        "id": "7082249",
        "src640": "https://cdn.pixabay.com/photo/2022/03/21/04/28/background-7082249_640.jpg",
        "src1280": "https://cdn.pixabay.com/photo/2022/03/21/04/28/background-7082249_1280.jpg"
    },
    {
        "id": "8337715",
        "src640": "https://cdn.pixabay.com/photo/2023/10/24/08/27/fantasy-8337715_640.jpg",
        "src1280": "https://cdn.pixabay.com/photo/2023/10/24/08/27/fantasy-8337715_1280.jpg"
    },
    {
        "id": "54656",
        "src640": "https://cdn.pixabay.com/photo/2012/08/22/00/15/abstract-54656_640.jpg",
        "src1280": "https://cdn.pixabay.com/photo/2012/08/22/00/15/abstract-54656_1280.jpg"
    },
    {
        "id": "5165075",
        "src640": "https://cdn.pixabay.com/photo/2020/05/12/21/58/miami-5165075_640.jpg",
        "src1280": "https://cdn.pixabay.com/photo/2020/05/12/21/58/miami-5165075_1280.jpg"
    },
    {
        "id": "4705203",
        "src640": "https://cdn.pixabay.com/photo/2019/12/19/01/50/sculpture-4705203_640.jpg",
        "src1280": "https://cdn.pixabay.com/photo/2019/12/19/01/50/sculpture-4705203_1280.jpg"
    },
    {
        "id": "8232837",
        "src640": "https://cdn.pixabay.com/photo/2023/09/04/14/44/fantasy-8232837_640.jpg",
        "src1280": "https://cdn.pixabay.com/photo/2023/09/04/14/44/fantasy-8232837_1280.jpg"
    },
    {
        "id": "5328776",
        "src640": "https://cdn.pixabay.com/photo/2020/06/22/10/53/synthetic-5328776_640.jpg",
        "src1280": "https://cdn.pixabay.com/photo/2020/06/22/10/53/synthetic-5328776_1280.jpg"
    },
    {
        "id": "8261900",
        "src640": "https://cdn.pixabay.com/photo/2023/09/19/06/35/fantasy-8261900_640.jpg",
        "src1280": "https://cdn.pixabay.com/photo/2023/09/19/06/35/fantasy-8261900_1280.jpg"
    },
    {
        "id": "8232881",
        "src640": "https://cdn.pixabay.com/photo/2023/09/04/14/44/fantasy-8232881_640.jpg",
        "src1280": "https://cdn.pixabay.com/photo/2023/09/04/14/44/fantasy-8232881_1280.jpg"
    },
    {
        "id": "8388649",
        "src640": "https://cdn.pixabay.com/photo/2023/11/14/22/24/fantasy-8388649_640.jpg",
        "src1280": "https://cdn.pixabay.com/photo/2023/11/14/22/24/fantasy-8388649_1280.jpg"
    },
    {
        "id": "433485",
        "src640": "https://cdn.pixabay.com/photo/2014/09/02/08/39/wood-433485_640.jpg",
        "src1280": "https://cdn.pixabay.com/photo/2014/09/02/08/39/wood-433485_1280.jpg"
    },
    {
        "id": "8159040",
        "src640": "https://cdn.pixabay.com/photo/2023/07/30/14/41/fantasy-8159040_640.jpg",
        "src1280": "https://cdn.pixabay.com/photo/2023/07/30/14/41/fantasy-8159040_1280.jpg"
    },
    {
        "id": "8155846",
        "src640": "https://cdn.pixabay.com/photo/2023/07/28/19/40/fantasy-8155846_640.jpg",
        "src1280": "https://cdn.pixabay.com/photo/2023/07/28/19/40/fantasy-8155846_1280.jpg"
    },
    {
        "id": "8373421",
        "src640": "https://cdn.pixabay.com/photo/2023/11/07/20/38/fantasy-8373421_640.jpg",
        "src1280": "https://cdn.pixabay.com/photo/2023/11/07/20/38/fantasy-8373421_1280.jpg"
    },
    {
        "id": "4963688",
        "src640": "https://cdn.pixabay.com/photo/2020/03/24/11/15/abstract-4963688_640.jpg",
        "src1280": "https://cdn.pixabay.com/photo/2020/03/24/11/15/abstract-4963688_1280.jpg"
    },
    {
        "id": "4963685",
        "src640": "https://cdn.pixabay.com/photo/2020/03/24/11/15/abstract-4963685_640.jpg",
        "src1280": "https://cdn.pixabay.com/photo/2020/03/24/11/15/abstract-4963685_1280.jpg"
    },
    {
        "id": "7723946",
        "src640": "https://cdn.pixabay.com/photo/2023/01/17/07/25/background-7723946_640.jpg",
        "src1280": "https://cdn.pixabay.com/photo/2023/01/17/07/25/background-7723946_1280.jpg"
    },
    {
        "id": "7728726",
        "src640": "https://cdn.pixabay.com/photo/2023/01/19/10/06/abstract-7728726_640.jpg",
        "src1280": "https://cdn.pixabay.com/photo/2023/01/19/10/06/abstract-7728726_1280.jpg"
    },
    {
        "id": "7215971",
        "src640": "https://cdn.pixabay.com/photo/2022/05/23/11/46/bonfire-7215971_640.jpg",
        "src1280": "https://cdn.pixabay.com/photo/2022/05/23/11/46/bonfire-7215971_1280.jpg"
    },
    {
        "id": "7157518",
        "src640": "https://cdn.pixabay.com/photo/2022/04/26/06/41/background-7157518_640.jpg",
        "src1280": "https://cdn.pixabay.com/photo/2022/04/26/06/41/background-7157518_1280.jpg"
    },
    {
        "id": "7686517",
        "src640": "https://cdn.pixabay.com/photo/2022/12/30/09/28/background-7686517_640.jpg",
        "src1280": "https://cdn.pixabay.com/photo/2022/12/30/09/28/background-7686517_1280.jpg"
    },
    {
        "id": "4966508",
        "src640": "https://cdn.pixabay.com/photo/2020/03/25/08/32/riga-4966508_640.jpg",
        "src1280": "https://cdn.pixabay.com/photo/2020/03/25/08/32/riga-4966508_1280.jpg"
    },
    {
        "id": "7082532",
        "src640": "https://cdn.pixabay.com/photo/2022/03/21/07/52/background-7082532_640.jpg",
        "src1280": "https://cdn.pixabay.com/photo/2022/03/21/07/52/background-7082532_1280.jpg"
    },
    {
        "id": "7518260",
        "src640": "https://cdn.pixabay.com/photo/2022/10/13/05/49/cube-7518260_640.jpg",
        "src1280": "https://cdn.pixabay.com/photo/2022/10/13/05/49/cube-7518260_1280.jpg"
    },
    {
        "id": "7090585",
        "src640": "https://cdn.pixabay.com/photo/2022/03/25/09/22/paisley-7090585_640.jpg",
        "src1280": "https://cdn.pixabay.com/photo/2022/03/25/09/22/paisley-7090585_1280.jpg"
    },
    {
        "id": "7088494",
        "src640": "https://cdn.pixabay.com/photo/2022/03/24/08/00/art-7088494_640.jpg",
        "src1280": "https://cdn.pixabay.com/photo/2022/03/24/08/00/art-7088494_1280.jpg"
    },
    {
        "id": "7157517",
        "src640": "https://cdn.pixabay.com/photo/2022/04/26/06/41/background-7157517_640.jpg",
        "src1280": "https://cdn.pixabay.com/photo/2022/04/26/06/41/background-7157517_1280.jpg"
    }
]