[
    {
        "id": "1028916",
        "src640": "https://cdn.pixabay.com/photo/2015/11/06/15/27/art-1028916_640.jpg",
        "src1280": "https://cdn.pixabay.com/photo/2015/11/06/15/27/art-1028916_1280.jpg"
    },
    {
        "id": "7053704",
        "src640": "https://cdn.pixabay.com/photo/2022/03/07/13/46/background-7053704_640.jpg",
        "src1280": "https://cdn.pixabay.com/photo/2022/03/07/13/46/background-7053704_1280.jpg"
    },
    {
        "id": "8388635",
        "src640": "https://cdn.pixabay.com/photo/2023/11/14/22/24/fantasy-8388635_640.jpg",
        "src1280": "https://cdn.pixabay.com/photo/2023/11/14/22/24/fantasy-8388635_1280.jpg"
    },
    {
        "id": "7839294",
        "src640": "https://cdn.pixabay.com/photo/2023/03/09/05/59/fantasy-7839294_640.jpg",
        "src1280": "https://cdn.pixabay.com/photo/2023/03/09/05/59/fantasy-7839294_1280.jpg"
    },
    {
        "id": "6797111",
        "src640": "https://cdn.pixabay.com/photo/2021/11/15/07/35/flowers-6797111_640.jpg",
        "src1280": "https://cdn.pixabay.com/photo/2021/11/15/07/35/flowers-6797111_1280.jpg"
    },
    {
        "id": "4963687",
        "src640": "https://cdn.pixabay.com/photo/2020/03/24/11/15/abstract-4963687_640.jpg",
        "src1280": "https://cdn.pixabay.com/photo/2020/03/24/11/15/abstract-4963687_1280.jpg"
    },
    {
        "id": "205724",
        "src640": "https://cdn.pixabay.com/photo/2013/11/05/13/03/abstract-205724_640.jpg",
        "src1280": "https://cdn.pixabay.com/photo/2013/11/05/13/03/abstract-205724_1280.jpg"
    },
    {
        "id": "7082886",
        "src640": "https://cdn.pixabay.com/photo/2022/03/21/10/53/art-7082886_640.jpg",
        "src1280": "https://cdn.pixabay.com/photo/2022/03/21/10/53/art-7082886_1280.jpg"
    },
    {
        "id": "8323219",
        "src640": "https://cdn.pixabay.com/photo/2023/10/18/08/02/fantasy-8323219_640.jpg",
        "src1280": "https://cdn.pixabay.com/photo/2023/10/18/08/02/fantasy-8323219_1280.jpg"
    },
    {
        "id": "8201979",
        "src640": "https://cdn.pixabay.com/photo/2023/08/20/08/37/fantasy-8201979_640.jpg",
        "src1280": "https://cdn.pixabay.com/photo/2023/08/20/08/37/fantasy-8201979_1280.jpg"
    },
    {
        "id": "8323230",
        "src640": "https://cdn.pixabay.com/photo/2023/10/18/08/02/fantasy-8323230_640.jpg",
        "src1280": "https://cdn.pixabay.com/photo/2023/10/18/08/02/fantasy-8323230_1280.jpg"
    },
    {
        "id": "8185471",
        "src640": "https://cdn.pixabay.com/photo/2023/08/12/12/22/fantasy-8185471_640.jpg",
        "src1280": "https://cdn.pixabay.com/photo/2023/08/12/12/22/fantasy-8185471_1280.jpg"
    },
    {
        "id": "7090591",
        "src640": "https://cdn.pixabay.com/photo/2022/03/25/09/24/leaves-7090591_640.jpg",
        "src1280": "https://cdn.pixabay.com/photo/2022/03/25/09/24/leaves-7090591_1280.jpg"
    },
    {
        "id": "2387929",
        "src640": "https://cdn.pixabay.com/photo/2017/06/09/18/44/insects-2387929_640.jpg",
        "src1280": "https://cdn.pixabay.com/photo/2017/06/09/18/44/insects-2387929_1280.jpg"
    },
    {
        "id": "7446359",
        "src640": "https://cdn.pixabay.com/photo/2022/09/11/08/03/abstract-7446359_640.jpg",
        "src1280": "https://cdn.pixabay.com/photo/2022/09/11/08/03/abstract-7446359_1280.jpg"
    },
    {
        "id": "7870435",
        "src640": "https://cdn.pixabay.com/photo/2023/03/22/19/52/fantasy-7870435_640.jpg",
        "src1280": "https://cdn.pixabay.com/photo/2023/03/22/19/52/fantasy-7870435_1280.jpg"
    },
    {
        "id": "5274178",
        "src640": "https://cdn.pixabay.com/photo/2020/06/08/12/22/tree-5274178_640.jpg",
        "src1280": "https://cdn.pixabay.com/photo/2020/06/08/12/22/tree-5274178_1280.jpg"
    },
    {
        "id": "7703508",
        "src640": "https://cdn.pixabay.com/photo/2023/01/07/15/42/abstract-7703508_640.jpg",
        "src1280": "https://cdn.pixabay.com/photo/2023/01/07/15/42/abstract-7703508_1280.jpg"
    },
    {
        "id": "7467963",
        "src640": "https://cdn.pixabay.com/photo/2022/09/20/13/52/abstract-7467963_640.jpg",
        "src1280": "https://cdn.pixabay.com/photo/2022/09/20/13/52/abstract-7467963_1280.jpg"
    },
    {
        "id": "6541919",
        "src640": "https://cdn.pixabay.com/photo/2021/08/13/00/31/lily-6541919_640.jpg",
        "src1280": "https://cdn.pixabay.com/photo/2021/08/13/00/31/lily-6541919_1280.jpg"
    },
    {
        "id": "7414698",
        "src640": "https://cdn.pixabay.com/photo/2022/08/27/15/35/woman-7414698_640.jpg",
        "src1280": "https://cdn.pixabay.com/photo/2022/08/27/15/35/woman-7414698_1280.jpg"
    },
    {
        "id": "3234055",
        "src640": "https://cdn.pixabay.com/photo/2018/03/17/13/44/wood-3234055_640.jpg",
        "src1280": "https://cdn.pixabay.com/photo/2018/03/17/13/44/wood-3234055_1280.jpg"
    },
    {
        "id": "2565036",
        "src640": "https://cdn.pixabay.com/photo/2017/08/01/12/36/abstract-2565036_640.jpg",
        "src1280": "https://cdn.pixabay.com/photo/2017/08/01/12/36/abstract-2565036_1280.jpg"
    },
    {
        "id": "8346084",
        "src640": "https://cdn.pixabay.com/photo/2023/10/27/19/47/fantasy-8346084_640.jpg",
        "src1280": "https://cdn.pixabay.com/photo/2023/10/27/19/47/fantasy-8346084_1280.jpg"
    },
    {
        "id": "8337734",
        "src640": "https://cdn.pixabay.com/photo/2023/10/24/08/27/fantasy-8337734_640.jpg",
        "src1280": "https://cdn.pixabay.com/photo/2023/10/24/08/27/fantasy-8337734_1280.jpg"
    },
    {
        "id": "4759317",
        "src640": "https://cdn.pixabay.com/photo/2020/01/12/05/48/indonesian-4759317_640.jpg",
        "src1280": "https://cdn.pixabay.com/photo/2020/01/12/05/48/indonesian-4759317_1280.jpg"
    },
    {
        "id": "8302387",
        "src640": "https://cdn.pixabay.com/photo/2023/10/08/15/38/fantasy-8302387_640.jpg",
        "src1280": "https://cdn.pixabay.com/photo/2023/10/08/15/38/fantasy-8302387_1280.jpg"
    },
    {
        "id": "7679881",
        "src640": "https://cdn.pixabay.com/photo/2022/12/26/21/58/abstract-phone-wallpaper-7679881_640.jpg",
        "src1280": "https://cdn.pixabay.com/photo/2022/12/26/21/58/abstract-phone-wallpaper-7679881_1280.jpg"
    },
    {
        "id": "3304292",
        "src640": "https://cdn.pixabay.com/photo/2018/04/09/15/03/ivy-3304292_640.jpg",
        "src1280": "https://cdn.pixabay.com/photo/2018/04/09/15/03/ivy-3304292_1280.jpg"
    },
    {
        "id": "8311481",
        "src640": "https://cdn.pixabay.com/photo/2023/10/12/18/14/ai-generated-8311481_640.jpg",
        "src1280": "https://cdn.pixabay.com/photo/2023/10/12/18/14/ai-generated-8311481_1280.jpg"
    },
    {
        "id": "60351",
        "src640": "https://cdn.pixabay.com/photo/2012/10/09/04/06/rods-60351_640.jpg",
        "src1280": "https://cdn.pixabay.com/photo/2012/10/09/04/06/rods-60351_1280.jpg"
    },
    {
        "id": "8292040",
        "src640": "https://cdn.pixabay.com/photo/2023/10/03/16/55/fantasy-8292040_640.jpg",
        "src1280": "https://cdn.pixabay.com/photo/2023/10/03/16/55/fantasy-8292040_1280.jpg"
    },
    {
        "id": "656300",
        "src640": "https://cdn.pixabay.com/photo/2015/03/02/17/30/abstrak-656300_640.jpg",
        "src1280": "https://cdn.pixabay.com/photo/2015/03/02/17/30/abstrak-656300_1280.jpg"
    },
    {
        "id": "318467",
        "src640": "https://cdn.pixabay.com/photo/2014/04/07/07/30/males-318467_640.jpg",
        "src1280": "https://cdn.pixabay.com/photo/2014/04/07/07/30/males-318467_1280.jpg"
    },
    {
        "id": "2370547",
        "src640": "https://cdn.pixabay.com/photo/2017/06/04/08/59/three-dimensional-2370547_640.jpg",
        "src1280": "https://cdn.pixabay.com/photo/2017/06/04/08/59/three-dimensional-2370547_1280.jpg"
    },
    {
        "id": "8053500",
        "src640": "https://cdn.pixabay.com/photo/2023/06/10/08/31/fantasy-8053500_640.jpg",
        "src1280": "https://cdn.pixabay.com/photo/2023/06/10/08/31/fantasy-8053500_1280.jpg"
    },
    {
        "id": "4666679",
        "src640": "https://cdn.pixabay.com/photo/2019/12/01/23/55/flower-4666679_640.jpg",
        "src1280": "https://cdn.pixabay.com/photo/2019/12/01/23/55/flower-4666679_1280.jpg"
    },
    {
        "id": "5274184",
        "src640": "https://cdn.pixabay.com/photo/2020/06/08/12/23/tree-5274184_640.jpg",
        "src1280": "https://cdn.pixabay.com/photo/2020/06/08/12/23/tree-5274184_1280.jpg"
    },
    {
        "id": "7425806",
        "src640": "https://cdn.pixabay.com/photo/2022/09/01/16/12/geometric-art-7425806_640.jpg",
        "src1280": "https://cdn.pixabay.com/photo/2022/09/01/16/12/geometric-art-7425806_1280.jpg"
    },
    {
        "id": "4951318",
        "src640": "https://cdn.pixabay.com/photo/2020/03/20/17/13/the-dark-4951318_640.jpg",
        "src1280": "https://cdn.pixabay.com/photo/2020/03/20/17/13/the-dark-4951318_1280.jpg"
    },
    {
        "id": "6995870",
        "src640": "https://cdn.pixabay.com/photo/2022/02/05/22/59/bicycles-6995870_640.jpg",
        "src1280": "https://cdn.pixabay.com/photo/2022/02/05/22/59/bicycles-6995870_1280.jpg"
    },
    {
        "id": "7221378",
        "src640": "https://cdn.pixabay.com/photo/2022/05/25/20/26/background-7221378_640.jpg",
        "src1280": "https://cdn.pixabay.com/photo/2022/05/25/20/26/background-7221378_1280.jpg"
    },
    {
        "id": "1453320",
        "src640": "https://cdn.pixabay.com/photo/2016/06/12/23/26/architecture-1453320_640.jpg",
        "src1280": "https://cdn.pixabay.com/photo/2016/06/12/23/26/architecture-1453320_1280.jpg"
    },
    {
        "id": "3501028",
        "src640": "https://cdn.pixabay.com/photo/2018/06/27/08/20/wood-3501028_640.jpg",
        "src1280": "https://cdn.pixabay.com/photo/2018/06/27/08/20/wood-3501028_1280.jpg"
    },
    {
        "id": "7243571",
        "src640": "https://cdn.pixabay.com/photo/2022/06/05/08/37/design-7243571_640.jpg",
        "src1280": "https://cdn.pixabay.com/photo/2022/06/05/08/37/design-7243571_1280.jpg"
    },
    {
        "id": "8337733",
        "src640": "https://cdn.pixabay.com/photo/2023/10/24/08/27/fantasy-8337733_640.jpg",
        "src1280": "https://cdn.pixabay.com/photo/2023/10/24/08/27/fantasy-8337733_1280.jpg"
    },
    {
        "id": "7082694",
        "src640": "https://cdn.pixabay.com/photo/2022/03/21/09/17/background-7082694_640.jpg",
        "src1280": "https://cdn.pixabay.com/photo/2022/03/21/09/17/background-7082694_1280.jpg"
    },
    {
        "id": "7085313",
        "src640": "https://cdn.pixabay.com/photo/2022/03/22/15/24/decor-backdrop-7085313_640.jpg",
        "src1280": "https://cdn.pixabay.com/photo/2022/03/22/15/24/decor-backdrop-7085313_1280.jpg"
    },
    {
        "id": "7017091",
        "src640": "https://cdn.pixabay.com/photo/2022/02/16/16/10/men-7017091_640.jpg",
        "src1280": "https://cdn.pixabay.com/photo/2022/02/16/16/10/men-7017091_1280.jpg"
    },
    {
        "id": "8337740",
        "src640": "https://cdn.pixabay.com/photo/2023/10/24/08/27/fantasy-8337740_640.jpg",
        "src1280": "https://cdn.pixabay.com/photo/2023/10/24/08/27/fantasy-8337740_1280.jpg"
    },
    {
        "id": "7842898",
        "src640": "https://cdn.pixabay.com/photo/2023/03/10/18/22/fantasy-7842898_640.jpg",
        "src1280": "https://cdn.pixabay.com/photo/2023/03/10/18/22/fantasy-7842898_1280.jpg"
    },
    {
        "id": "7089925",
        "src640": "https://cdn.pixabay.com/photo/2022/03/24/21/51/art-7089925_640.jpg",
        "src1280": "https://cdn.pixabay.com/photo/2022/03/24/21/51/art-7089925_1280.jpg"
    },
    {
        "id": "7089947",
        "src640": "https://cdn.pixabay.com/photo/2022/03/24/21/55/art-7089947_640.jpg",
        "src1280": "https://cdn.pixabay.com/photo/2022/03/24/21/55/art-7089947_1280.jpg"
    },
    {
        "id": "7171358",
        "src640": "https://cdn.pixabay.com/photo/2022/05/03/09/46/background-7171358_640.jpg",
        "src1280": "https://cdn.pixabay.com/photo/2022/05/03/09/46/background-7171358_1280.jpg"
    },
    {
        "id": "7722431",
        "src640": "https://cdn.pixabay.com/photo/2023/01/16/13/55/fantasy-7722431_640.jpg",
        "src1280": "https://cdn.pixabay.com/photo/2023/01/16/13/55/fantasy-7722431_1280.jpg"
    },
    {
        "id": "115206",
        "src640": "https://cdn.pixabay.com/photo/2013/06/01/00/07/art-115206_640.jpg",
        "src1280": "https://cdn.pixabay.com/photo/2013/06/01/00/07/art-115206_1280.jpg"
    },
    {
        "id": "7620561",
        "src640": "https://cdn.pixabay.com/photo/2022/11/27/19/48/art-7620561_640.jpg",
        "src1280": "https://cdn.pixabay.com/photo/2022/11/27/19/48/art-7620561_1280.jpg"
    },
    {
        "id": "7703507",
        "src640": "https://cdn.pixabay.com/photo/2023/01/07/15/42/abstract-7703507_640.jpg",
        "src1280": "https://cdn.pixabay.com/photo/2023/01/07/15/42/abstract-7703507_1280.jpg"
    },
    {
        "id": "7703506",
        "src640": "https://cdn.pixabay.com/photo/2023/01/07/15/42/abstract-7703506_640.jpg",
        "src1280": "https://cdn.pixabay.com/photo/2023/01/07/15/42/abstract-7703506_1280.jpg"
    },
    {
        "id": "7446349",
        "src640": "https://cdn.pixabay.com/photo/2022/09/11/07/55/abstract-7446349_640.jpg",
        "src1280": "https://cdn.pixabay.com/photo/2022/09/11/07/55/abstract-7446349_1280.jpg"
    },
    {
        "id": "7703536",
        "src640": "https://cdn.pixabay.com/photo/2023/01/07/15/50/abstract-7703536_640.jpg",
        "src1280": "https://cdn.pixabay.com/photo/2023/01/07/15/50/abstract-7703536_1280.jpg"
    },
    {
        "id": "7203554",
        "src640": "https://cdn.pixabay.com/photo/2022/05/17/19/07/background-7203554_640.jpg",
        "src1280": "https://cdn.pixabay.com/photo/2022/05/17/19/07/background-7203554_1280.jpg"
    },
    {
        "id": "5274180",
        "src640": "https://cdn.pixabay.com/photo/2020/06/08/12/23/tree-5274180_640.jpg",
        "src1280": "https://cdn.pixabay.com/photo/2020/06/08/12/23/tree-5274180_1280.jpg"
    },
    {
        "id": "7364098",
        "src640": "https://cdn.pixabay.com/photo/2022/08/04/08/14/almondbulber-7364098_640.jpg",
        "src1280": "https://cdn.pixabay.com/photo/2022/08/04/08/14/almondbulber-7364098_1280.jpg"
    },
    {
        "id": "5208458",
        "src640": "https://cdn.pixabay.com/photo/2020/05/23/07/51/wood-5208458_640.jpg",
        "src1280": "https://cdn.pixabay.com/photo/2020/05/23/07/51/wood-5208458_1280.jpg"
    },
    {
        "id": "8413287",
        "src640": "https://cdn.pixabay.com/photo/2023/11/26/10/27/fantasy-8413287_640.jpg",
        "src1280": "https://cdn.pixabay.com/photo/2023/11/26/10/27/fantasy-8413287_1280.jpg"
    },
    {
        "id": "7406095",
        "src640": "https://cdn.pixabay.com/photo/2022/08/23/17/00/angel-7406095_640.jpg",
        "src1280": "https://cdn.pixabay.com/photo/2022/08/23/17/00/angel-7406095_1280.jpg"
    },
    {
        "id": "1549072",
        "src640": "https://cdn.pixabay.com/photo/2016/07/28/19/36/architecture-1549072_640.jpg",
        "src1280": "https://cdn.pixabay.com/photo/2016/07/28/19/36/architecture-1549072_1280.jpg"
    },
    {
        "id": "7082529",
        "src640": "https://cdn.pixabay.com/photo/2022/03/21/07/51/background-7082529_640.jpg",
        "src1280": "https://cdn.pixabay.com/photo/2022/03/21/07/51/background-7082529_1280.jpg"
    },
    {
        "id": "7082531",
        "src640": "https://cdn.pixabay.com/photo/2022/03/21/07/52/background-7082531_640.jpg",
        "src1280": "https://cdn.pixabay.com/photo/2022/03/21/07/52/background-7082531_1280.jpg"
    },
    {
        "id": "987542",
        "src640": "https://cdn.pixabay.com/photo/2015/10/14/11/41/nature-987542_640.jpg",
        "src1280": "https://cdn.pixabay.com/photo/2015/10/14/11/41/nature-987542_1280.jpg"
    },
    {
        "id": "8340703",
        "src640": "https://cdn.pixabay.com/photo/2023/10/25/15/36/fantasy-8340703_640.jpg",
        "src1280": "https://cdn.pixabay.com/photo/2023/10/25/15/36/fantasy-8340703_1280.jpg"
    },
    {
        "id": "8328883",
        "src640": "https://cdn.pixabay.com/photo/2023/10/20/08/23/fantasy-8328883_640.jpg",
        "src1280": "https://cdn.pixabay.com/photo/2023/10/20/08/23/fantasy-8328883_1280.jpg"
    },
    {
        "id": "3297424",
        "src640": "https://cdn.pixabay.com/photo/2018/04/07/00/06/nature-3297424_640.jpg",
        "src1280": "https://cdn.pixabay.com/photo/2018/04/07/00/06/nature-3297424_1280.jpg"
    },
    {
        "id": "854503",
        "src640": "https://cdn.pixabay.com/photo/2015/07/21/22/08/abstract-854503_640.jpg",
        "src1280": "https://cdn.pixabay.com/photo/2015/07/21/22/08/abstract-854503_1280.jpg"
    },
    {
        "id": "7203560",
        "src640": "https://cdn.pixabay.com/photo/2022/05/17/19/08/background-7203560_640.jpg",
        "src1280": "https://cdn.pixabay.com/photo/2022/05/17/19/08/background-7203560_1280.jpg"
    },
    {
        "id": "3327730",
        "src640": "https://cdn.pixabay.com/photo/2018/04/17/15/14/nature-3327730_640.jpg",
        "src1280": "https://cdn.pixabay.com/photo/2018/04/17/15/14/nature-3327730_1280.jpg"
    },
    {
        "id": "5166327",
        "src640": "https://cdn.pixabay.com/photo/2020/05/13/07/47/sky-5166327_640.jpg",
        "src1280": "https://cdn.pixabay.com/photo/2020/05/13/07/47/sky-5166327_1280.jpg"
    },
    {
        "id": "54658",
        "src640": "https://cdn.pixabay.com/photo/2012/08/22/00/16/abstract-54658_640.jpg",
        "src1280": "https://cdn.pixabay.com/photo/2012/08/22/00/16/abstract-54658_1280.jpg"
    },
    {
        "id": "4901629",
        "src640": "https://cdn.pixabay.com/photo/2020/03/04/13/16/kennedy-4901629_640.jpg",
        "src1280": "https://cdn.pixabay.com/photo/2020/03/04/13/16/kennedy-4901629_1280.jpg"
    },
    {
        "id": "2729108",
        "src640": "https://cdn.pixabay.com/photo/2017/09/08/15/25/ivy-2729108_640.jpg",
        "src1280": "https://cdn.pixabay.com/photo/2017/09/08/15/25/ivy-2729108_1280.jpg"
    },
    {
        "id": "7069786",
        "src640": "https://cdn.pixabay.com/photo/2022/03/15/08/41/flowers-7069786_640.jpg",
        "src1280": "https://cdn.pixabay.com/photo/2022/03/15/08/41/flowers-7069786_1280.jpg"
    },
    {
        "id": "7072124",
        "src640": "https://cdn.pixabay.com/photo/2022/03/16/09/58/multicoloured-7072124_640.jpg",
        "src1280": "https://cdn.pixabay.com/photo/2022/03/16/09/58/multicoloured-7072124_1280.jpg"
    },
    {
        "id": "4963689",
        "src640": "https://cdn.pixabay.com/photo/2020/03/24/11/15/abstract-4963689_640.jpg",
        "src1280": "https://cdn.pixabay.com/photo/2020/03/24/11/15/abstract-4963689_1280.jpg"
    },
    {
        "id": "7186617",
        "src640": "https://cdn.pixabay.com/photo/2022/05/10/10/00/abstract-artistic-mosaic-7186617_640.jpg",
        "src1280": "https://cdn.pixabay.com/photo/2022/05/10/10/00/abstract-artistic-mosaic-7186617_1280.jpg"
    },
    {
        "id": "7355904",
        "src640": "https://cdn.pixabay.com/photo/2022/07/31/14/04/background-7355904_640.jpg",
        "src1280": "https://cdn.pixabay.com/photo/2022/07/31/14/04/background-7355904_1280.jpg"
    },
    {
        "id": "5438119",
        "src640": "https://cdn.pixabay.com/photo/2020/07/25/22/51/chair-5438119_640.jpg",
        "src1280": "https://cdn.pixabay.com/photo/2020/07/25/22/51/chair-5438119_1280.jpg"
    }
]