[
    {
        "id": "2292539",
        "src640": "https://cdn.pixabay.com/photo/2017/05/07/14/06/cat-2292539_640.jpg",
        "src1280": "https://cdn.pixabay.com/photo/2017/05/07/14/06/cat-2292539_1280.jpg"
    },
    {
        "id": "7031874",
        "src640": "https://cdn.pixabay.com/photo/2022/02/24/06/51/animal-7031874_640.jpg",
        "src1280": "https://cdn.pixabay.com/photo/2022/02/24/06/51/animal-7031874_1280.jpg"
    },
    {
        "id": "2599462",
        "src640": "https://cdn.pixabay.com/photo/2017/08/07/03/49/cat-2599462_640.jpg",
        "src1280": "https://cdn.pixabay.com/photo/2017/08/07/03/49/cat-2599462_1280.jpg"
    },
    {
        "id": "979798",
        "src640": "https://cdn.pixabay.com/photo/2015/10/09/19/12/cats-979798_640.jpg",
        "src1280": "https://cdn.pixabay.com/photo/2015/10/09/19/12/cats-979798_1280.jpg"
    },
    {
        "id": "3922468",
        "src640": "https://cdn.pixabay.com/photo/2019/01/09/02/50/pet-3922468_640.jpg",
        "src1280": "https://cdn.pixabay.com/photo/2019/01/09/02/50/pet-3922468_1280.jpg"
    },
    {
        "id": "990269",
        "src640": "https://cdn.pixabay.com/photo/2015/10/16/00/56/animal-990269_640.jpg",
        "src1280": "https://cdn.pixabay.com/photo/2015/10/16/00/56/animal-990269_1280.jpg"
    },
    {
        "id": "2436158",
        "src640": "https://cdn.pixabay.com/photo/2017/06/23/22/28/cat-2436158_640.jpg",
        "src1280": "https://cdn.pixabay.com/photo/2017/06/23/22/28/cat-2436158_1280.jpg"
    },
    {
        "id": "3134400",
        "src640": "https://cdn.pixabay.com/photo/2018/02/06/10/27/fantasy-3134400_640.jpg",
        "src1280": "https://cdn.pixabay.com/photo/2018/02/06/10/27/fantasy-3134400_1280.jpg"
    },
    {
        "id": "6404085",
        "src640": "https://cdn.pixabay.com/photo/2021/07/11/15/27/cat-6404085_640.jpg",
        "src1280": "https://cdn.pixabay.com/photo/2021/07/11/15/27/cat-6404085_1280.jpg"
    },
    {
        "id": "7402924",
        "src640": "https://cdn.pixabay.com/photo/2022/08/22/06/34/cat-7402924_640.jpg",
        "src1280": "https://cdn.pixabay.com/photo/2022/08/22/06/34/cat-7402924_1280.jpg"
    },
    {
        "id": "7832053",
        "src640": "https://cdn.pixabay.com/photo/2023/03/05/18/50/lion-7832053_640.jpg",
        "src1280": "https://cdn.pixabay.com/photo/2023/03/05/18/50/lion-7832053_1280.jpg"
    },
    {
        "id": "8169427",
        "src640": "https://cdn.pixabay.com/photo/2023/08/04/14/37/ai-generated-8169427_640.jpg",
        "src1280": "https://cdn.pixabay.com/photo/2023/08/04/14/37/ai-generated-8169427_1280.jpg"
    },
    {
        "id": "5238172",
        "src640": "https://cdn.pixabay.com/photo/2020/05/30/08/59/tiger-5238172_640.jpg",
        "src1280": "https://cdn.pixabay.com/photo/2020/05/30/08/59/tiger-5238172_1280.jpg"
    },
    {
        "id": "5707460",
        "src640": "https://cdn.pixabay.com/photo/2020/11/02/18/05/cat-5707460_640.jpg",
        "src1280": "https://cdn.pixabay.com/photo/2020/11/02/18/05/cat-5707460_1280.jpg"
    },
    {
        "id": "4504156",
        "src640": "https://cdn.pixabay.com/photo/2019/09/25/17/14/cat-4504156_640.jpg",
        "src1280": "https://cdn.pixabay.com/photo/2019/09/25/17/14/cat-4504156_1280.jpg"
    },
    {
        "id": "3094971",
        "src640": "https://cdn.pixabay.com/photo/2018/01/20/17/05/cat-3094971_640.jpg",
        "src1280": "https://cdn.pixabay.com/photo/2018/01/20/17/05/cat-3094971_1280.jpg"
    },
    {
        "id": "16756",
        "src640": "https://cdn.pixabay.com/photo/2012/02/24/17/00/adorable-16756_640.jpg",
        "src1280": "https://cdn.pixabay.com/photo/2012/02/24/17/00/adorable-16756_1280.jpg"
    },
    {
        "id": "7093638",
        "src640": "https://cdn.pixabay.com/photo/2022/03/26/20/23/cat-7093638_640.jpg",
        "src1280": "https://cdn.pixabay.com/photo/2022/03/26/20/23/cat-7093638_1280.jpg"
    },
    {
        "id": "8047625",
        "src640": "https://cdn.pixabay.com/photo/2023/06/07/16/51/cat-8047625_640.jpg",
        "src1280": "https://cdn.pixabay.com/photo/2023/06/07/16/51/cat-8047625_1280.jpg"
    },
    {
        "id": "1584966",
        "src640": "https://cdn.pixabay.com/photo/2016/08/11/07/41/cat-1584966_640.jpg",
        "src1280": "https://cdn.pixabay.com/photo/2016/08/11/07/41/cat-1584966_1280.jpg"
    },
    {
        "id": "7106756",
        "src640": "https://cdn.pixabay.com/photo/2022/04/02/11/15/cat-7106756_640.jpg",
        "src1280": "https://cdn.pixabay.com/photo/2022/04/02/11/15/cat-7106756_1280.jpg"
    },
    {
        "id": "3308000",
        "src640": "https://cdn.pixabay.com/photo/2018/04/10/16/22/cat-3308000_640.jpg",
        "src1280": "https://cdn.pixabay.com/photo/2018/04/10/16/22/cat-3308000_1280.jpg"
    },
    {
        "id": "3980205",
        "src640": "https://cdn.pixabay.com/photo/2019/02/06/22/52/lion-3980205_640.jpg",
        "src1280": "https://cdn.pixabay.com/photo/2019/02/06/22/52/lion-3980205_1280.jpg"
    },
    {
        "id": "1195711",
        "src640": "https://cdn.pixabay.com/photo/2016/02/12/09/29/cat-1195711_640.jpg",
        "src1280": "https://cdn.pixabay.com/photo/2016/02/12/09/29/cat-1195711_1280.jpg"
    },
    {
        "id": "3269364",
        "src640": "https://cdn.pixabay.com/photo/2018/03/28/14/08/cat-3269364_640.jpg",
        "src1280": "https://cdn.pixabay.com/photo/2018/03/28/14/08/cat-3269364_1280.jpg"
    },
    {
        "id": "5733026",
        "src640": "https://cdn.pixabay.com/photo/2020/11/11/16/31/cat-5733026_640.jpg",
        "src1280": "https://cdn.pixabay.com/photo/2020/11/11/16/31/cat-5733026_1280.jpg"
    },
    {
        "id": "650481",
        "src640": "https://cdn.pixabay.com/photo/2015/02/26/15/33/cat-650481_640.jpg",
        "src1280": "https://cdn.pixabay.com/photo/2015/02/26/15/33/cat-650481_1280.jpg"
    },
    {
        "id": "356057",
        "src640": "https://cdn.pixabay.com/photo/2014/05/28/00/02/cat-356057_640.jpg",
        "src1280": "https://cdn.pixabay.com/photo/2014/05/28/00/02/cat-356057_1280.jpg"
    },
    {
        "id": "7186853",
        "src640": "https://cdn.pixabay.com/photo/2022/05/10/11/18/cat-7186853_640.jpg",
        "src1280": "https://cdn.pixabay.com/photo/2022/05/10/11/18/cat-7186853_1280.jpg"
    },
    {
        "id": "5356978",
        "src640": "https://cdn.pixabay.com/photo/2020/06/30/16/52/painting-5356978_640.jpg",
        "src1280": "https://cdn.pixabay.com/photo/2020/06/30/16/52/painting-5356978_1280.jpg"
    },
    {
        "id": "3649476",
        "src640": "https://cdn.pixabay.com/photo/2018/09/02/18/34/cat-3649476_640.jpg",
        "src1280": "https://cdn.pixabay.com/photo/2018/09/02/18/34/cat-3649476_1280.jpg"
    },
    {
        "id": "1156193",
        "src640": "https://cdn.pixabay.com/photo/2016/01/22/16/57/tiger-1156193_640.jpg",
        "src1280": "https://cdn.pixabay.com/photo/2016/01/22/16/57/tiger-1156193_1280.jpg"
    },
    {
        "id": "2913316",
        "src640": "https://cdn.pixabay.com/photo/2017/11/03/04/01/pets-2913316_640.jpg",
        "src1280": "https://cdn.pixabay.com/photo/2017/11/03/04/01/pets-2913316_1280.jpg"
    },
    {
        "id": "3253204",
        "src640": "https://cdn.pixabay.com/photo/2018/03/23/09/29/mammal-3253204_640.jpg",
        "src1280": "https://cdn.pixabay.com/photo/2018/03/23/09/29/mammal-3253204_1280.jpg"
    },
    {
        "id": "8012974",
        "src640": "https://cdn.pixabay.com/photo/2023/05/23/15/26/bengal-cat-8012974_640.jpg",
        "src1280": "https://cdn.pixabay.com/photo/2023/05/23/15/26/bengal-cat-8012974_1280.jpg"
    },
    {
        "id": "2835803",
        "src640": "https://cdn.pixabay.com/photo/2017/10/10/03/39/mieze-2835803_640.jpg",
        "src1280": "https://cdn.pixabay.com/photo/2017/10/10/03/39/mieze-2835803_1280.jpg"
    },
    {
        "id": "3265628",
        "src640": "https://cdn.pixabay.com/photo/2018/03/27/10/49/portrait-3265628_640.jpg",
        "src1280": "https://cdn.pixabay.com/photo/2018/03/27/10/49/portrait-3265628_1280.jpg"
    },
    {
        "id": "2381436",
        "src640": "https://cdn.pixabay.com/photo/2017/06/07/20/18/cat-2381436_640.jpg",
        "src1280": "https://cdn.pixabay.com/photo/2017/06/07/20/18/cat-2381436_1280.jpg"
    },
    {
        "id": "6875941",
        "src640": "https://cdn.pixabay.com/photo/2021/12/17/08/19/cat-6875941_640.jpg",
        "src1280": "https://cdn.pixabay.com/photo/2021/12/17/08/19/cat-6875941_1280.jpg"
    },
    {
        "id": "665134",
        "src640": "https://cdn.pixabay.com/photo/2015/03/09/07/23/cat-665134_640.jpg",
        "src1280": "https://cdn.pixabay.com/photo/2015/03/09/07/23/cat-665134_1280.jpg"
    },
    {
        "id": "7734270",
        "src640": "https://cdn.pixabay.com/photo/2023/01/21/15/11/ai-generated-7734270_640.jpg",
        "src1280": "https://cdn.pixabay.com/photo/2023/01/21/15/11/ai-generated-7734270_1280.jpg"
    },
    {
        "id": "6771019",
        "src640": "https://cdn.pixabay.com/photo/2021/11/05/11/02/bengal-6771019_640.jpg",
        "src1280": "https://cdn.pixabay.com/photo/2021/11/05/11/02/bengal-6771019_1280.jpg"
    },
    {
        "id": "6487138",
        "src640": "https://cdn.pixabay.com/photo/2021/07/23/11/14/cat-6487138_640.jpg",
        "src1280": "https://cdn.pixabay.com/photo/2021/07/23/11/14/cat-6487138_1280.jpg"
    },
    {
        "id": "79254",
        "src640": "https://cdn.pixabay.com/photo/2013/02/08/00/36/cheetah-79254_640.jpg",
        "src1280": "https://cdn.pixabay.com/photo/2013/02/08/00/36/cheetah-79254_1280.jpg"
    },
    {
        "id": "1897230",
        "src640": "https://cdn.pixabay.com/photo/2016/12/10/13/02/cat-1897230_640.jpg",
        "src1280": "https://cdn.pixabay.com/photo/2016/12/10/13/02/cat-1897230_1280.jpg"
    },
    {
        "id": "2662560",
        "src640": "https://cdn.pixabay.com/photo/2017/08/20/17/44/cat-2662560_640.jpg",
        "src1280": "https://cdn.pixabay.com/photo/2017/08/20/17/44/cat-2662560_1280.jpg"
    },
    {
        "id": "4939930",
        "src640": "https://cdn.pixabay.com/photo/2020/03/17/11/46/romance-4939930_640.jpg",
        "src1280": "https://cdn.pixabay.com/photo/2020/03/17/11/46/romance-4939930_1280.jpg"
    },
    {
        "id": "4666040",
        "src640": "https://cdn.pixabay.com/photo/2019/12/01/17/55/cat-4666040_640.jpg",
        "src1280": "https://cdn.pixabay.com/photo/2019/12/01/17/55/cat-4666040_1280.jpg"
    },
    {
        "id": "166465",
        "src640": "https://cdn.pixabay.com/photo/2013/07/23/23/24/cat-166465_640.jpg",
        "src1280": "https://cdn.pixabay.com/photo/2013/07/23/23/24/cat-166465_1280.jpg"
    },
    {
        "id": "3830367",
        "src640": "https://cdn.pixabay.com/photo/2018/11/21/19/28/cat-3830367_640.jpg",
        "src1280": "https://cdn.pixabay.com/photo/2018/11/21/19/28/cat-3830367_1280.jpg"
    },
    {
        "id": "8068026",
        "src640": "https://cdn.pixabay.com/photo/2023/06/16/13/27/animal-8068026_640.jpg",
        "src1280": "https://cdn.pixabay.com/photo/2023/06/16/13/27/animal-8068026_1280.jpg"
    },
    {
        "id": "19744",
        "src640": "https://cdn.pixabay.com/photo/2012/03/01/00/36/animal-19744_640.jpg",
        "src1280": "https://cdn.pixabay.com/photo/2012/03/01/00/36/animal-19744_1280.jpg"
    },
    {
        "id": "5785154",
        "src640": "https://cdn.pixabay.com/photo/2020/11/28/16/14/girl-5785154_640.jpg",
        "src1280": "https://cdn.pixabay.com/photo/2020/11/28/16/14/girl-5785154_1280.jpg"
    },
    {
        "id": "2869753",
        "src640": "https://cdn.pixabay.com/photo/2017/10/20/00/31/lion-2869753_640.jpg",
        "src1280": "https://cdn.pixabay.com/photo/2017/10/20/00/31/lion-2869753_1280.jpg"
    },
    {
        "id": "6399208",
        "src640": "https://cdn.pixabay.com/photo/2021/07/09/14/24/cat-6399208_640.jpg",
        "src1280": "https://cdn.pixabay.com/photo/2021/07/09/14/24/cat-6399208_1280.jpg"
    },
    {
        "id": "1789959",
        "src640": "https://cdn.pixabay.com/photo/2016/11/01/22/54/cat-1789959_640.jpg",
        "src1280": "https://cdn.pixabay.com/photo/2016/11/01/22/54/cat-1789959_1280.jpg"
    },
    {
        "id": "3204721",
        "src640": "https://cdn.pixabay.com/photo/2018/03/06/22/05/animal-3204721_640.jpg",
        "src1280": "https://cdn.pixabay.com/photo/2018/03/06/22/05/animal-3204721_1280.jpg"
    },
    {
        "id": "8482837",
        "src640": "https://cdn.pixabay.com/photo/2024/01/02/09/11/ai-generated-8482837_640.jpg",
        "src1280": "https://cdn.pixabay.com/photo/2024/01/02/09/11/ai-generated-8482837_1280.jpg"
    },
    {
        "id": "2528933",
        "src640": "https://cdn.pixabay.com/photo/2017/07/22/15/20/cat-2528933_640.jpg",
        "src1280": "https://cdn.pixabay.com/photo/2017/07/22/15/20/cat-2528933_1280.jpg"
    },
    {
        "id": "4665180",
        "src640": "https://cdn.pixabay.com/photo/2019/12/01/10/54/cat-4665180_640.jpg",
        "src1280": "https://cdn.pixabay.com/photo/2019/12/01/10/54/cat-4665180_1280.jpg"
    },
    {
        "id": "1419965",
        "src640": "https://cdn.pixabay.com/photo/2016/05/27/14/53/cat-1419965_640.jpg",
        "src1280": "https://cdn.pixabay.com/photo/2016/05/27/14/53/cat-1419965_1280.jpg"
    },
    {
        "id": "8096305",
        "src640": "https://cdn.pixabay.com/photo/2023/06/29/12/28/cats-8096305_640.jpg",
        "src1280": "https://cdn.pixabay.com/photo/2023/06/29/12/28/cats-8096305_1280.jpg"
    },
    {
        "id": "3225276",
        "src640": "https://cdn.pixabay.com/photo/2018/03/14/14/05/nature-3225276_640.jpg",
        "src1280": "https://cdn.pixabay.com/photo/2018/03/14/14/05/nature-3225276_1280.jpg"
    },
    {
        "id": "783920",
        "src640": "https://cdn.pixabay.com/photo/2015/05/25/20/45/cat-783920_640.jpg",
        "src1280": "https://cdn.pixabay.com/photo/2015/05/25/20/45/cat-783920_1280.jpg"
    },
    {
        "id": "2378311",
        "src640": "https://cdn.pixabay.com/photo/2017/06/06/20/14/cat-2378311_640.jpg",
        "src1280": "https://cdn.pixabay.com/photo/2017/06/06/20/14/cat-2378311_1280.jpg"
    },
    {
        "id": "4601334",
        "src640": "https://cdn.pixabay.com/photo/2019/11/04/14/48/cat-4601334_640.jpg",
        "src1280": "https://cdn.pixabay.com/photo/2019/11/04/14/48/cat-4601334_1280.jpg"
    },
    {
        "id": "958265",
        "src640": "https://cdn.pixabay.com/photo/2015/09/25/21/37/tiger-958265_640.jpg",
        "src1280": "https://cdn.pixabay.com/photo/2015/09/25/21/37/tiger-958265_1280.jpg"
    },
    {
        "id": "3065280",
        "src640": "https://cdn.pixabay.com/photo/2018/01/06/16/06/cat-3065280_640.jpg",
        "src1280": "https://cdn.pixabay.com/photo/2018/01/06/16/06/cat-3065280_1280.jpg"
    },
    {
        "id": "1628424",
        "src640": "https://cdn.pixabay.com/photo/2016/08/29/14/43/cat-1628424_640.jpg",
        "src1280": "https://cdn.pixabay.com/photo/2016/08/29/14/43/cat-1628424_1280.jpg"
    },
    {
        "id": "8490542",
        "src640": "https://cdn.pixabay.com/photo/2024/01/06/03/01/cat-8490542_640.jpg",
        "src1280": "https://cdn.pixabay.com/photo/2024/01/06/03/01/cat-8490542_1280.jpg"
    },
    {
        "id": "8412178",
        "src640": "https://cdn.pixabay.com/photo/2023/11/25/17/28/ai-generated-8412178_640.jpg",
        "src1280": "https://cdn.pixabay.com/photo/2023/11/25/17/28/ai-generated-8412178_1280.jpg"
    },
    {
        "id": "8416518",
        "src640": "https://cdn.pixabay.com/photo/2023/11/28/01/57/cat-8416518_640.jpg",
        "src1280": "https://cdn.pixabay.com/photo/2023/11/28/01/57/cat-8416518_1280.jpg"
    },
    {
        "id": "882448",
        "src640": "https://cdn.pixabay.com/photo/2015/08/10/04/58/pet-882448_640.jpg",
        "src1280": "https://cdn.pixabay.com/photo/2015/08/10/04/58/pet-882448_1280.jpg"
    },
    {
        "id": "1887415",
        "src640": "https://cdn.pixabay.com/photo/2016/12/06/19/30/cat-1887415_640.jpg",
        "src1280": "https://cdn.pixabay.com/photo/2016/12/06/19/30/cat-1887415_1280.jpg"
    },
    {
        "id": "1474092",
        "src640": "https://cdn.pixabay.com/photo/2016/06/22/21/18/cat-1474092_640.jpg",
        "src1280": "https://cdn.pixabay.com/photo/2016/06/22/21/18/cat-1474092_1280.jpg"
    },
    {
        "id": "4868318",
        "src640": "https://cdn.pixabay.com/photo/2020/02/21/18/17/cat-4868318_640.jpg",
        "src1280": "https://cdn.pixabay.com/photo/2020/02/21/18/17/cat-4868318_1280.jpg"
    },
    {
        "id": "3541427",
        "src640": "https://cdn.pixabay.com/photo/2018/07/16/08/52/cat-3541427_640.jpg",
        "src1280": "https://cdn.pixabay.com/photo/2018/07/16/08/52/cat-3541427_1280.jpg"
    },
    {
        "id": "1617155",
        "src640": "https://cdn.pixabay.com/photo/2016/08/24/14/55/cat-1617155_640.jpg",
        "src1280": "https://cdn.pixabay.com/photo/2016/08/24/14/55/cat-1617155_1280.jpg"
    },
    {
        "id": "3832374",
        "src640": "https://cdn.pixabay.com/photo/2018/11/22/17/15/cat-3832374_640.jpg",
        "src1280": "https://cdn.pixabay.com/photo/2018/11/22/17/15/cat-3832374_1280.jpg"
    },
    {
        "id": "8357697",
        "src640": "https://cdn.pixabay.com/photo/2023/11/01/13/56/ai-generated-8357697_640.jpg",
        "src1280": "https://cdn.pixabay.com/photo/2023/11/01/13/56/ai-generated-8357697_1280.jpg"
    },
    {
        "id": "4640643",
        "src640": "https://cdn.pixabay.com/photo/2019/11/20/17/23/cat-4640643_640.jpg",
        "src1280": "https://cdn.pixabay.com/photo/2019/11/20/17/23/cat-4640643_1280.jpg"
    },
    {
        "id": "4321171",
        "src640": "https://cdn.pixabay.com/photo/2019/07/06/20/10/cat-4321171_640.jpg",
        "src1280": "https://cdn.pixabay.com/photo/2019/07/06/20/10/cat-4321171_1280.jpg"
    },
    {
        "id": "3520036",
        "src640": "https://cdn.pixabay.com/photo/2018/07/06/09/14/cat-3520036_640.jpg",
        "src1280": "https://cdn.pixabay.com/photo/2018/07/06/09/14/cat-3520036_1280.jpg"
    },
    {
        "id": "1879230",
        "src640": "https://cdn.pixabay.com/photo/2016/12/03/07/18/cat-1879230_640.jpg",
        "src1280": "https://cdn.pixabay.com/photo/2016/12/03/07/18/cat-1879230_1280.jpg"
    },
    {
        "id": "8216895",
        "src640": "https://cdn.pixabay.com/photo/2023/08/27/12/43/ai-generated-8216895_640.jpg",
        "src1280": "https://cdn.pixabay.com/photo/2023/08/27/12/43/ai-generated-8216895_1280.jpg"
    }
]