[
    {
        "id": "1529217",
        "src640": "https://cdn.pixabay.com/photo/2016/07/19/23/10/dog-1529217_640.jpg",
        "src1280": "https://cdn.pixabay.com/photo/2016/07/19/23/10/dog-1529217_1280.jpg"
    },
    {
        "id": "4615051",
        "src640": "https://cdn.pixabay.com/photo/2019/11/10/06/50/cat-4615051_640.jpg",
        "src1280": "https://cdn.pixabay.com/photo/2019/11/10/06/50/cat-4615051_1280.jpg"
    },
    {
        "id": "2346304",
        "src640": "https://cdn.pixabay.com/photo/2017/05/26/15/27/cat-2346304_640.jpg",
        "src1280": "https://cdn.pixabay.com/photo/2017/05/26/15/27/cat-2346304_1280.jpg"
    },
    {
        "id": "1617551",
        "src640": "https://cdn.pixabay.com/photo/2016/08/24/17/37/cat-1617551_640.jpg",
        "src1280": "https://cdn.pixabay.com/photo/2016/08/24/17/37/cat-1617551_1280.jpg"
    },
    {
        "id": "5336942",
        "src640": "https://cdn.pixabay.com/photo/2020/06/24/17/01/kitten-5336942_640.jpg",
        "src1280": "https://cdn.pixabay.com/photo/2020/06/24/17/01/kitten-5336942_1280.jpg"
    },
    {
        "id": "5622841",
        "src640": "https://cdn.pixabay.com/photo/2020/10/03/08/01/cat-5622841_640.jpg",
        "src1280": "https://cdn.pixabay.com/photo/2020/10/03/08/01/cat-5622841_1280.jpg"
    },
    {
        "id": "7100607",
        "src640": "https://cdn.pixabay.com/photo/2022/03/30/06/48/cat-7100607_640.jpg",
        "src1280": "https://cdn.pixabay.com/photo/2022/03/30/06/48/cat-7100607_1280.jpg"
    },
    {
        "id": "1094712",
        "src640": "https://cdn.pixabay.com/photo/2015/12/15/18/36/cat-1094712_640.jpg",
        "src1280": "https://cdn.pixabay.com/photo/2015/12/15/18/36/cat-1094712_1280.jpg"
    },
    {
        "id": "3212353",
        "src640": "https://cdn.pixabay.com/photo/2018/03/09/18/58/british-shorthair-3212353_640.jpg",
        "src1280": "https://cdn.pixabay.com/photo/2018/03/09/18/58/british-shorthair-3212353_1280.jpg"
    },
    {
        "id": "3531238",
        "src640": "https://cdn.pixabay.com/photo/2018/07/11/15/38/cat-3531238_640.jpg",
        "src1280": "https://cdn.pixabay.com/photo/2018/07/11/15/38/cat-3531238_1280.jpg"
    },
    {
        "id": "1263650",
        "src640": "https://cdn.pixabay.com/photo/2016/03/17/19/15/cat-1263650_640.jpg",
        "src1280": "https://cdn.pixabay.com/photo/2016/03/17/19/15/cat-1263650_1280.jpg"
    },
    {
        "id": "709013",
        "src640": "https://cdn.pixabay.com/photo/2015/04/06/10/21/cat-709013_640.jpg",
        "src1280": "https://cdn.pixabay.com/photo/2015/04/06/10/21/cat-709013_1280.jpg"
    },
    {
        "id": "3096139",
        "src640": "https://cdn.pixabay.com/photo/2018/01/21/09/36/tiger-3096139_640.jpg",
        "src1280": "https://cdn.pixabay.com/photo/2018/01/21/09/36/tiger-3096139_1280.jpg"
    },
    {
        "id": "1979216",
        "src640": "https://cdn.pixabay.com/photo/2017/01/14/10/44/cat-1979216_640.jpg",
        "src1280": "https://cdn.pixabay.com/photo/2017/01/14/10/44/cat-1979216_1280.jpg"
    },
    {
        "id": "5701605",
        "src640": "https://cdn.pixabay.com/photo/2020/10/31/16/16/boot-5701605_640.jpg",
        "src1280": "https://cdn.pixabay.com/photo/2020/10/31/16/16/boot-5701605_1280.jpg"
    },
    {
        "id": "7984008",
        "src640": "https://cdn.pixabay.com/photo/2023/05/10/13/19/cat-7984008_640.jpg",
        "src1280": "https://cdn.pixabay.com/photo/2023/05/10/13/19/cat-7984008_1280.jpg"
    },
    {
        "id": "7431260",
        "src640": "https://cdn.pixabay.com/photo/2022/09/04/09/44/cat-7431260_640.jpg",
        "src1280": "https://cdn.pixabay.com/photo/2022/09/04/09/44/cat-7431260_1280.jpg"
    },
    {
        "id": "3252459",
        "src640": "https://cdn.pixabay.com/photo/2018/03/23/02/06/cute-3252459_640.jpg",
        "src1280": "https://cdn.pixabay.com/photo/2018/03/23/02/06/cute-3252459_1280.jpg"
    },
    {
        "id": "3957861",
        "src640": "https://cdn.pixabay.com/photo/2019/01/27/11/29/cat-3957861_640.jpg",
        "src1280": "https://cdn.pixabay.com/photo/2019/01/27/11/29/cat-3957861_1280.jpg"
    },
    {
        "id": "4630610",
        "src640": "https://cdn.pixabay.com/photo/2019/11/16/16/57/cat-4630610_640.jpg",
        "src1280": "https://cdn.pixabay.com/photo/2019/11/16/16/57/cat-4630610_1280.jpg"
    },
    {
        "id": "4023936",
        "src640": "https://cdn.pixabay.com/photo/2019/02/27/12/11/british-shorthair-4023936_640.jpg",
        "src1280": "https://cdn.pixabay.com/photo/2019/02/27/12/11/british-shorthair-4023936_1280.jpg"
    },
    {
        "id": "4753",
        "src640": "https://cdn.pixabay.com/photo/2011/02/06/20/07/cat-4753_640.jpg",
        "src1280": "https://cdn.pixabay.com/photo/2011/02/06/20/07/cat-4753_1280.jpg"
    },
    {
        "id": "8415327",
        "src640": "https://cdn.pixabay.com/photo/2023/11/27/13/03/cat-8415327_640.jpg",
        "src1280": "https://cdn.pixabay.com/photo/2023/11/27/13/03/cat-8415327_1280.jpg"
    },
    {
        "id": "877120",
        "src640": "https://cdn.pixabay.com/photo/2015/08/05/21/21/cat-877120_640.jpg",
        "src1280": "https://cdn.pixabay.com/photo/2015/08/05/21/21/cat-877120_1280.jpg"
    },
    {
        "id": "2622268",
        "src640": "https://cdn.pixabay.com/photo/2017/08/10/12/41/cat-2622268_640.jpg",
        "src1280": "https://cdn.pixabay.com/photo/2017/08/10/12/41/cat-2622268_1280.jpg"
    },
    {
        "id": "1669839",
        "src640": "https://cdn.pixabay.com/photo/2016/09/14/17/09/lion-1669839_640.jpg",
        "src1280": "https://cdn.pixabay.com/photo/2016/09/14/17/09/lion-1669839_1280.jpg"
    },
    {
        "id": "1341301",
        "src640": "https://cdn.pixabay.com/photo/2016/04/20/15/03/tiger-1341301_640.jpg",
        "src1280": "https://cdn.pixabay.com/photo/2016/04/20/15/03/tiger-1341301_1280.jpg"
    },
    {
        "id": "2064689",
        "src640": "https://cdn.pixabay.com/photo/2017/02/14/05/09/ginger-cat-2064689_640.jpg",
        "src1280": "https://cdn.pixabay.com/photo/2017/02/14/05/09/ginger-cat-2064689_1280.jpg"
    },
    {
        "id": "419444",
        "src640": "https://cdn.pixabay.com/photo/2014/08/16/16/06/girl-419444_640.jpg",
        "src1280": "https://cdn.pixabay.com/photo/2014/08/16/16/06/girl-419444_1280.jpg"
    },
    {
        "id": "3043319",
        "src640": "https://cdn.pixabay.com/photo/2017/12/27/18/27/cat-3043319_640.jpg",
        "src1280": "https://cdn.pixabay.com/photo/2017/12/27/18/27/cat-3043319_1280.jpg"
    },
    {
        "id": "4019743",
        "src640": "https://cdn.pixabay.com/photo/2019/02/25/14/02/cat-4019743_640.jpg",
        "src1280": "https://cdn.pixabay.com/photo/2019/02/25/14/02/cat-4019743_1280.jpg"
    },
    {
        "id": "5375580",
        "src640": "https://cdn.pixabay.com/photo/2020/07/06/05/52/lion-5375580_640.jpg",
        "src1280": "https://cdn.pixabay.com/photo/2020/07/06/05/52/lion-5375580_1280.jpg"
    },
    {
        "id": "4738444",
        "src640": "https://cdn.pixabay.com/photo/2020/01/03/15/41/cat-4738444_640.jpg",
        "src1280": "https://cdn.pixabay.com/photo/2020/01/03/15/41/cat-4738444_1280.jpg"
    },
    {
        "id": "4538889",
        "src640": "https://cdn.pixabay.com/photo/2019/10/10/07/00/cat-4538889_640.jpg",
        "src1280": "https://cdn.pixabay.com/photo/2019/10/10/07/00/cat-4538889_1280.jpg"
    },
    {
        "id": "2489979",
        "src640": "https://cdn.pixabay.com/photo/2017/07/10/12/35/kitten-2489979_640.jpg",
        "src1280": "https://cdn.pixabay.com/photo/2017/07/10/12/35/kitten-2489979_1280.jpg"
    },
    {
        "id": "1041223",
        "src640": "https://cdn.pixabay.com/photo/2015/11/12/23/45/cat-1041223_640.jpg",
        "src1280": "https://cdn.pixabay.com/photo/2015/11/12/23/45/cat-1041223_1280.jpg"
    },
    {
        "id": "1819447",
        "src640": "https://cdn.pixabay.com/photo/2016/11/12/18/44/cat-1819447_640.jpg",
        "src1280": "https://cdn.pixabay.com/photo/2016/11/12/18/44/cat-1819447_1280.jpg"
    },
    {
        "id": "1796958",
        "src640": "https://cdn.pixabay.com/photo/2016/11/04/06/41/illustration-1796958_640.jpg",
        "src1280": "https://cdn.pixabay.com/photo/2016/11/04/06/41/illustration-1796958_1280.jpg"
    },
    {
        "id": "818139",
        "src640": "https://cdn.pixabay.com/photo/2015/06/22/22/48/cat-818139_640.jpg",
        "src1280": "https://cdn.pixabay.com/photo/2015/06/22/22/48/cat-818139_1280.jpg"
    },
    {
        "id": "4773511",
        "src640": "https://cdn.pixabay.com/photo/2020/01/17/17/28/cat-4773511_640.jpg",
        "src1280": "https://cdn.pixabay.com/photo/2020/01/17/17/28/cat-4773511_1280.jpg"
    },
    {
        "id": "4178329",
        "src640": "https://cdn.pixabay.com/photo/2019/05/04/15/38/cat-4178329_640.jpg",
        "src1280": "https://cdn.pixabay.com/photo/2019/05/04/15/38/cat-4178329_1280.jpg"
    },
    {
        "id": "6421461",
        "src640": "https://cdn.pixabay.com/photo/2021/07/12/19/44/kitten-6421461_640.jpg",
        "src1280": "https://cdn.pixabay.com/photo/2021/07/12/19/44/kitten-6421461_1280.jpg"
    },
    {
        "id": "4403500",
        "src640": "https://cdn.pixabay.com/photo/2019/08/13/13/57/cat-4403500_640.jpg",
        "src1280": "https://cdn.pixabay.com/photo/2019/08/13/13/57/cat-4403500_1280.jpg"
    },
    {
        "id": "7403375",
        "src640": "https://cdn.pixabay.com/photo/2022/08/22/10/35/cat-7403375_640.jpg",
        "src1280": "https://cdn.pixabay.com/photo/2022/08/22/10/35/cat-7403375_1280.jpg"
    },
    {
        "id": "17543",
        "src640": "https://cdn.pixabay.com/photo/2012/02/27/17/06/cats-17543_640.jpg",
        "src1280": "https://cdn.pixabay.com/photo/2012/02/27/17/06/cats-17543_1280.jpg"
    },
    {
        "id": "7361958",
        "src640": "https://cdn.pixabay.com/photo/2022/08/03/06/36/animal-photography-7361958_640.jpg",
        "src1280": "https://cdn.pixabay.com/photo/2022/08/03/06/36/animal-photography-7361958_1280.jpg"
    },
    {
        "id": "408326",
        "src640": "https://cdn.pixabay.com/photo/2014/08/02/14/36/cat-408326_640.jpg",
        "src1280": "https://cdn.pixabay.com/photo/2014/08/02/14/36/cat-408326_1280.jpg"
    },
    {
        "id": "2469285",
        "src640": "https://cdn.pixabay.com/photo/2017/07/03/22/47/cat-2469285_640.jpg",
        "src1280": "https://cdn.pixabay.com/photo/2017/07/03/22/47/cat-2469285_1280.jpg"
    },
    {
        "id": "2560714",
        "src640": "https://cdn.pixabay.com/photo/2017/07/31/20/21/gray-2560714_640.jpg",
        "src1280": "https://cdn.pixabay.com/photo/2017/07/31/20/21/gray-2560714_1280.jpg"
    },
    {
        "id": "2256029",
        "src640": "https://cdn.pixabay.com/photo/2017/04/24/10/21/cat-2256029_640.jpg",
        "src1280": "https://cdn.pixabay.com/photo/2017/04/24/10/21/cat-2256029_1280.jpg"
    },
    {
        "id": "1517535",
        "src640": "https://cdn.pixabay.com/photo/2016/07/14/20/21/kitten-1517535_640.jpg",
        "src1280": "https://cdn.pixabay.com/photo/2016/07/14/20/21/kitten-1517535_1280.jpg"
    },
    {
        "id": "8216873",
        "src640": "https://cdn.pixabay.com/photo/2023/08/27/12/33/ai-generated-8216873_640.jpg",
        "src1280": "https://cdn.pixabay.com/photo/2023/08/27/12/33/ai-generated-8216873_1280.jpg"
    },
    {
        "id": "3294599",
        "src640": "https://cdn.pixabay.com/photo/2018/04/05/23/49/cat-3294599_640.jpg",
        "src1280": "https://cdn.pixabay.com/photo/2018/04/05/23/49/cat-3294599_1280.jpg"
    },
    {
        "id": "3880505",
        "src640": "https://cdn.pixabay.com/photo/2018/12/17/14/34/kitten-3880505_640.jpg",
        "src1280": "https://cdn.pixabay.com/photo/2018/12/17/14/34/kitten-3880505_1280.jpg"
    },
    {
        "id": "2119881",
        "src640": "https://cdn.pixabay.com/photo/2017/03/05/21/08/leopard-2119881_640.jpg",
        "src1280": "https://cdn.pixabay.com/photo/2017/03/05/21/08/leopard-2119881_1280.jpg"
    },
    {
        "id": "5714791",
        "src640": "https://cdn.pixabay.com/photo/2020/11/05/10/53/cat-5714791_640.jpg",
        "src1280": "https://cdn.pixabay.com/photo/2020/11/05/10/53/cat-5714791_1280.jpg"
    },
    {
        "id": "3782233",
        "src640": "https://cdn.pixabay.com/photo/2018/10/29/22/02/lion-3782233_640.jpg",
        "src1280": "https://cdn.pixabay.com/photo/2018/10/29/22/02/lion-3782233_1280.jpg"
    },
    {
        "id": "8068025",
        "src640": "https://cdn.pixabay.com/photo/2023/06/16/13/27/animal-8068025_640.jpg",
        "src1280": "https://cdn.pixabay.com/photo/2023/06/16/13/27/animal-8068025_1280.jpg"
    },
    {
        "id": "7571131",
        "src640": "https://cdn.pixabay.com/photo/2022/11/05/04/53/cat-7571131_640.jpg",
        "src1280": "https://cdn.pixabay.com/photo/2022/11/05/04/53/cat-7571131_1280.jpg"
    },
    {
        "id": "3442342",
        "src640": "https://cdn.pixabay.com/photo/2018/05/30/20/09/cat-3442342_640.jpg",
        "src1280": "https://cdn.pixabay.com/photo/2018/05/30/20/09/cat-3442342_1280.jpg"
    },
    {
        "id": "7765746",
        "src640": "https://cdn.pixabay.com/photo/2023/02/03/18/28/cat-7765746_640.jpg",
        "src1280": "https://cdn.pixabay.com/photo/2023/02/03/18/28/cat-7765746_1280.jpg"
    },
    {
        "id": "1071855",
        "src640": "https://cdn.pixabay.com/photo/2015/12/01/09/28/scottish-fold-cats-1071855_640.jpg",
        "src1280": "https://cdn.pixabay.com/photo/2015/12/01/09/28/scottish-fold-cats-1071855_1280.jpg"
    },
    {
        "id": "4673540",
        "src640": "https://cdn.pixabay.com/photo/2019/12/04/19/54/cat-4673540_640.jpg",
        "src1280": "https://cdn.pixabay.com/photo/2019/12/04/19/54/cat-4673540_1280.jpg"
    },
    {
        "id": "2041264",
        "src640": "https://cdn.pixabay.com/photo/2017/02/05/21/24/cat-2041264_640.jpg",
        "src1280": "https://cdn.pixabay.com/photo/2017/02/05/21/24/cat-2041264_1280.jpg"
    },
    {
        "id": "281502",
        "src640": "https://cdn.pixabay.com/photo/2014/03/07/06/42/house-cat-281502_640.jpg",
        "src1280": "https://cdn.pixabay.com/photo/2014/03/07/06/42/house-cat-281502_1280.jpg"
    },
    {
        "id": "4464309",
        "src640": "https://cdn.pixabay.com/photo/2019/09/09/18/19/witch-4464309_640.jpg",
        "src1280": "https://cdn.pixabay.com/photo/2019/09/09/18/19/witch-4464309_1280.jpg"
    },
    {
        "id": "817681",
        "src640": "https://cdn.pixabay.com/photo/2015/06/22/15/16/child-817681_640.jpg",
        "src1280": "https://cdn.pixabay.com/photo/2015/06/22/15/16/child-817681_1280.jpg"
    },
    {
        "id": "1341034",
        "src640": "https://cdn.pixabay.com/photo/2016/04/20/11/42/tiger-1341034_640.jpg",
        "src1280": "https://cdn.pixabay.com/photo/2016/04/20/11/42/tiger-1341034_1280.jpg"
    },
    {
        "id": "8010084",
        "src640": "https://cdn.pixabay.com/photo/2023/05/22/07/42/cat-8010084_640.jpg",
        "src1280": "https://cdn.pixabay.com/photo/2023/05/22/07/42/cat-8010084_1280.jpg"
    },
    {
        "id": "7512162",
        "src640": "https://cdn.pixabay.com/photo/2022/10/10/16/47/cat-7512162_640.jpg",
        "src1280": "https://cdn.pixabay.com/photo/2022/10/10/16/47/cat-7512162_1280.jpg"
    },
    {
        "id": "8403952",
        "src640": "https://cdn.pixabay.com/photo/2023/11/21/18/33/ai-generated-8403952_640.jpg",
        "src1280": "https://cdn.pixabay.com/photo/2023/11/21/18/33/ai-generated-8403952_1280.jpg"
    },
    {
        "id": "7537602",
        "src640": "https://cdn.pixabay.com/photo/2022/10/21/16/51/cat-7537602_640.jpg",
        "src1280": "https://cdn.pixabay.com/photo/2022/10/21/16/51/cat-7537602_1280.jpg"
    },
    {
        "id": "2059812",
        "src640": "https://cdn.pixabay.com/photo/2017/02/12/11/52/cat-house-physician-2059812_640.jpg",
        "src1280": "https://cdn.pixabay.com/photo/2017/02/12/11/52/cat-house-physician-2059812_1280.jpg"
    },
    {
        "id": "2148970",
        "src640": "https://cdn.pixabay.com/photo/2017/03/16/12/27/cat-2148970_640.jpg",
        "src1280": "https://cdn.pixabay.com/photo/2017/03/16/12/27/cat-2148970_1280.jpg"
    }
]