[
    {
        "id": "5968226",
        "src640": "https://cdn.pixabay.com/photo/2021/01/31/19/00/cat-5968226_640.jpg",
        "src1280": "https://cdn.pixabay.com/photo/2021/01/31/19/00/cat-5968226_1280.jpg"
    },
    {
        "id": "4875761",
        "src640": "https://cdn.pixabay.com/photo/2020/02/24/09/54/leopard-4875761_640.jpg",
        "src1280": "https://cdn.pixabay.com/photo/2020/02/24/09/54/leopard-4875761_1280.jpg"
    },
    {
        "id": "6981972",
        "src640": "https://cdn.pixabay.com/photo/2022/01/30/19/00/model-6981972_640.jpg",
        "src1280": "https://cdn.pixabay.com/photo/2022/01/30/19/00/model-6981972_1280.jpg"
    },
    {
        "id": "2739834",
        "src640": "https://cdn.pixabay.com/photo/2017/09/11/17/58/cat-2739834_640.jpg",
        "src1280": "https://cdn.pixabay.com/photo/2017/09/11/17/58/cat-2739834_1280.jpg"
    },
    {
        "id": "7741798",
        "src640": "https://cdn.pixabay.com/photo/2023/01/24/18/20/cat-7741798_640.jpg",
        "src1280": "https://cdn.pixabay.com/photo/2023/01/24/18/20/cat-7741798_1280.jpg"
    },
    {
        "id": "8141973",
        "src640": "https://cdn.pixabay.com/photo/2023/07/21/16/28/cat-8141973_640.jpg",
        "src1280": "https://cdn.pixabay.com/photo/2023/07/21/16/28/cat-8141973_1280.jpg"
    },
    {
        "id": "3577451",
        "src640": "https://cdn.pixabay.com/photo/2018/08/01/15/54/cat-3577451_640.jpg",
        "src1280": "https://cdn.pixabay.com/photo/2018/08/01/15/54/cat-3577451_1280.jpg"
    },
    {
        "id": "5300415",
        "src640": "https://cdn.pixabay.com/photo/2020/06/15/05/32/blue-cat-5300415_640.jpg",
        "src1280": "https://cdn.pixabay.com/photo/2020/06/15/05/32/blue-cat-5300415_1280.jpg"
    },
    {
        "id": "7283246",
        "src640": "https://cdn.pixabay.com/photo/2022/06/25/10/19/cat-7283246_640.jpg",
        "src1280": "https://cdn.pixabay.com/photo/2022/06/25/10/19/cat-7283246_1280.jpg"
    },
    {
        "id": "1238505",
        "src640": "https://cdn.pixabay.com/photo/2016/03/05/19/46/wool-1238505_640.jpg",
        "src1280": "https://cdn.pixabay.com/photo/2016/03/05/19/46/wool-1238505_1280.jpg"
    },
    {
        "id": "3360305",
        "src640": "https://cdn.pixabay.com/photo/2018/04/29/16/07/cute-3360305_640.jpg",
        "src1280": "https://cdn.pixabay.com/photo/2018/04/29/16/07/cute-3360305_1280.jpg"
    },
    {
        "id": "8379254",
        "src640": "https://cdn.pixabay.com/photo/2023/11/10/12/20/cat-8379254_640.jpg",
        "src1280": "https://cdn.pixabay.com/photo/2023/11/10/12/20/cat-8379254_1280.jpg"
    },
    {
        "id": "7956137",
        "src640": "https://cdn.pixabay.com/photo/2023/04/28/08/39/cat-7956137_640.jpg",
        "src1280": "https://cdn.pixabay.com/photo/2023/04/28/08/39/cat-7956137_1280.jpg"
    },
    {
        "id": "4635634",
        "src640": "https://cdn.pixabay.com/photo/2019/11/18/19/42/cat-4635634_640.jpg",
        "src1280": "https://cdn.pixabay.com/photo/2019/11/18/19/42/cat-4635634_1280.jpg"
    },
    {
        "id": "3067648",
        "src640": "https://cdn.pixabay.com/photo/2018/01/07/16/15/cat-3067648_640.jpg",
        "src1280": "https://cdn.pixabay.com/photo/2018/01/07/16/15/cat-3067648_1280.jpg"
    },
    {
        "id": "3872802",
        "src640": "https://cdn.pixabay.com/photo/2018/12/13/13/08/cat-3872802_640.jpg",
        "src1280": "https://cdn.pixabay.com/photo/2018/12/13/13/08/cat-3872802_1280.jpg"
    },
    {
        "id": "753439",
        "src640": "https://cdn.pixabay.com/photo/2015/05/05/07/57/lion-753439_640.jpg",
        "src1280": "https://cdn.pixabay.com/photo/2015/05/05/07/57/lion-753439_1280.jpg"
    },
    {
        "id": "3981028",
        "src640": "https://cdn.pixabay.com/photo/2019/02/07/12/08/cat-3981028_640.jpg",
        "src1280": "https://cdn.pixabay.com/photo/2019/02/07/12/08/cat-3981028_1280.jpg"
    },
    {
        "id": "6953712",
        "src640": "https://cdn.pixabay.com/photo/2022/01/21/01/57/cat-6953712_640.jpg",
        "src1280": "https://cdn.pixabay.com/photo/2022/01/21/01/57/cat-6953712_1280.jpg"
    },
    {
        "id": "6956317",
        "src640": "https://cdn.pixabay.com/photo/2022/01/22/05/45/calico-cat-6956317_640.jpg",
        "src1280": "https://cdn.pixabay.com/photo/2022/01/22/05/45/calico-cat-6956317_1280.jpg"
    },
    {
        "id": "6956300",
        "src640": "https://cdn.pixabay.com/photo/2022/01/22/05/43/calico-cat-6956300_640.jpg",
        "src1280": "https://cdn.pixabay.com/photo/2022/01/22/05/43/calico-cat-6956300_1280.jpg"
    },
    {
        "id": "3624815",
        "src640": "https://cdn.pixabay.com/photo/2018/08/22/22/28/cat-3624815_640.jpg",
        "src1280": "https://cdn.pixabay.com/photo/2018/08/22/22/28/cat-3624815_1280.jpg"
    },
    {
        "id": "2413382",
        "src640": "https://cdn.pixabay.com/photo/2017/06/17/20/09/young-cat-2413382_640.jpg",
        "src1280": "https://cdn.pixabay.com/photo/2017/06/17/20/09/young-cat-2413382_1280.jpg"
    },
    {
        "id": "7396963",
        "src640": "https://cdn.pixabay.com/photo/2022/08/19/13/38/cat-7396963_640.jpg",
        "src1280": "https://cdn.pixabay.com/photo/2022/08/19/13/38/cat-7396963_1280.jpg"
    },
    {
        "id": "3185659",
        "src640": "https://cdn.pixabay.com/photo/2018/02/27/14/53/lynx-3185659_640.jpg",
        "src1280": "https://cdn.pixabay.com/photo/2018/02/27/14/53/lynx-3185659_1280.jpg"
    },
    {
        "id": "653803",
        "src640": "https://cdn.pixabay.com/photo/2015/02/28/17/11/cat-653803_640.jpg",
        "src1280": "https://cdn.pixabay.com/photo/2015/02/28/17/11/cat-653803_1280.jpg"
    },
    {
        "id": "4704539",
        "src640": "https://cdn.pixabay.com/photo/2019/12/18/18/07/cat-4704539_640.jpg",
        "src1280": "https://cdn.pixabay.com/photo/2019/12/18/18/07/cat-4704539_1280.jpg"
    },
    {
        "id": "2904381",
        "src640": "https://cdn.pixabay.com/photo/2017/10/31/06/34/dog-2904381_640.jpg",
        "src1280": "https://cdn.pixabay.com/photo/2017/10/31/06/34/dog-2904381_1280.jpg"
    },
    {
        "id": "3980822",
        "src640": "https://cdn.pixabay.com/photo/2019/02/07/09/54/white-lion-3980822_640.jpg",
        "src1280": "https://cdn.pixabay.com/photo/2019/02/07/09/54/white-lion-3980822_1280.jpg"
    },
    {
        "id": "8064925",
        "src640": "https://cdn.pixabay.com/photo/2023/06/15/08/59/ai-generated-8064925_640.jpg",
        "src1280": "https://cdn.pixabay.com/photo/2023/06/15/08/59/ai-generated-8064925_1280.jpg"
    },
    {
        "id": "8141938",
        "src640": "https://cdn.pixabay.com/photo/2023/07/21/16/25/cat-8141938_640.jpg",
        "src1280": "https://cdn.pixabay.com/photo/2023/07/21/16/25/cat-8141938_1280.jpg"
    },
    {
        "id": "5624235",
        "src640": "https://cdn.pixabay.com/photo/2020/10/03/18/12/cat-5624235_640.jpg",
        "src1280": "https://cdn.pixabay.com/photo/2020/10/03/18/12/cat-5624235_1280.jpg"
    },
    {
        "id": "3839544",
        "src640": "https://cdn.pixabay.com/photo/2018/11/26/14/35/cat-3839544_640.jpg",
        "src1280": "https://cdn.pixabay.com/photo/2018/11/26/14/35/cat-3839544_1280.jpg"
    },
    {
        "id": "7779948",
        "src640": "https://cdn.pixabay.com/photo/2023/02/10/02/47/cat-7779948_640.jpg",
        "src1280": "https://cdn.pixabay.com/photo/2023/02/10/02/47/cat-7779948_1280.jpg"
    },
    {
        "id": "8198717",
        "src640": "https://cdn.pixabay.com/photo/2023/08/18/15/01/cat-8198717_640.jpg",
        "src1280": "https://cdn.pixabay.com/photo/2023/08/18/15/01/cat-8198717_1280.jpg"
    },
    {
        "id": "66988",
        "src640": "https://cdn.pixabay.com/photo/2012/11/22/09/58/cat-66988_640.jpg",
        "src1280": "https://cdn.pixabay.com/photo/2012/11/22/09/58/cat-66988_1280.jpg"
    },
    {
        "id": "5689878",
        "src640": "https://cdn.pixabay.com/photo/2020/10/27/07/40/cheetah-5689878_640.jpg",
        "src1280": "https://cdn.pixabay.com/photo/2020/10/27/07/40/cheetah-5689878_1280.jpg"
    },
    {
        "id": "4027438",
        "src640": "https://cdn.pixabay.com/photo/2019/03/01/07/17/kitty-4027438_640.jpg",
        "src1280": "https://cdn.pixabay.com/photo/2019/03/01/07/17/kitty-4027438_1280.jpg"
    },
    {
        "id": "8141979",
        "src640": "https://cdn.pixabay.com/photo/2023/07/21/16/28/cat-8141979_640.jpg",
        "src1280": "https://cdn.pixabay.com/photo/2023/07/21/16/28/cat-8141979_1280.jpg"
    },
    {
        "id": "5624196",
        "src640": "https://cdn.pixabay.com/photo/2020/10/03/17/57/cat-5624196_640.jpg",
        "src1280": "https://cdn.pixabay.com/photo/2020/10/03/17/57/cat-5624196_1280.jpg"
    },
    {
        "id": "3655640",
        "src640": "https://cdn.pixabay.com/photo/2018/09/05/07/03/lion-3655640_640.jpg",
        "src1280": "https://cdn.pixabay.com/photo/2018/09/05/07/03/lion-3655640_1280.jpg"
    },
    {
        "id": "6767624",
        "src640": "https://cdn.pixabay.com/photo/2021/11/04/08/06/cat-6767624_640.jpg",
        "src1280": "https://cdn.pixabay.com/photo/2021/11/04/08/06/cat-6767624_1280.jpg"
    },
    {
        "id": "7293781",
        "src640": "https://cdn.pixabay.com/photo/2022/06/30/14/36/tiger-7293781_640.jpg",
        "src1280": "https://cdn.pixabay.com/photo/2022/06/30/14/36/tiger-7293781_1280.jpg"
    },
    {
        "id": "2477930",
        "src640": "https://cdn.pixabay.com/photo/2017/07/06/12/52/cat-2477930_640.jpg",
        "src1280": "https://cdn.pixabay.com/photo/2017/07/06/12/52/cat-2477930_1280.jpg"
    },
    {
        "id": "7529467",
        "src640": "https://cdn.pixabay.com/photo/2022/10/18/07/06/cat-7529467_640.jpg",
        "src1280": "https://cdn.pixabay.com/photo/2022/10/18/07/06/cat-7529467_1280.jpg"
    },
    {
        "id": "8200081",
        "src640": "https://cdn.pixabay.com/photo/2023/08/19/08/46/ai-generated-8200081_640.jpg",
        "src1280": "https://cdn.pixabay.com/photo/2023/08/19/08/46/ai-generated-8200081_1280.jpg"
    },
    {
        "id": "1517488",
        "src640": "https://cdn.pixabay.com/photo/2016/07/14/20/06/cat-1517488_640.jpg",
        "src1280": "https://cdn.pixabay.com/photo/2016/07/14/20/06/cat-1517488_1280.jpg"
    },
    {
        "id": "5259336",
        "src640": "https://cdn.pixabay.com/photo/2020/06/04/15/54/kitten-5259336_640.jpg",
        "src1280": "https://cdn.pixabay.com/photo/2020/06/04/15/54/kitten-5259336_1280.jpg"
    },
    {
        "id": "7389085",
        "src640": "https://cdn.pixabay.com/photo/2022/08/16/01/01/animal-7389085_640.jpg",
        "src1280": "https://cdn.pixabay.com/photo/2022/08/16/01/01/animal-7389085_1280.jpg"
    },
    {
        "id": "6042567",
        "src640": "https://cdn.pixabay.com/photo/2021/02/23/07/46/cat-6042567_640.jpg",
        "src1280": "https://cdn.pixabay.com/photo/2021/02/23/07/46/cat-6042567_1280.jpg"
    },
    {
        "id": "783881",
        "src640": "https://cdn.pixabay.com/photo/2015/05/25/20/14/cat-783881_640.jpg",
        "src1280": "https://cdn.pixabay.com/photo/2015/05/25/20/14/cat-783881_1280.jpg"
    },
    {
        "id": "2823472",
        "src640": "https://cdn.pixabay.com/photo/2017/10/06/15/10/cat-2823472_640.jpg",
        "src1280": "https://cdn.pixabay.com/photo/2017/10/06/15/10/cat-2823472_1280.jpg"
    },
    {
        "id": "5628421",
        "src640": "https://cdn.pixabay.com/photo/2020/10/05/07/28/cat-5628421_640.jpg",
        "src1280": "https://cdn.pixabay.com/photo/2020/10/05/07/28/cat-5628421_1280.jpg"
    },
    {
        "id": "6557035",
        "src640": "https://cdn.pixabay.com/photo/2021/08/19/04/43/paw-6557035_640.jpg",
        "src1280": "https://cdn.pixabay.com/photo/2021/08/19/04/43/paw-6557035_1280.jpg"
    },
    {
        "id": "2428609",
        "src640": "https://cdn.pixabay.com/photo/2017/06/21/21/16/cat-2428609_640.jpg",
        "src1280": "https://cdn.pixabay.com/photo/2017/06/21/21/16/cat-2428609_1280.jpg"
    },
    {
        "id": "5173504",
        "src640": "https://cdn.pixabay.com/photo/2020/05/15/13/21/illumination-5173504_640.jpg",
        "src1280": "https://cdn.pixabay.com/photo/2020/05/15/13/21/illumination-5173504_1280.jpg"
    },
    {
        "id": "3543105",
        "src640": "https://cdn.pixabay.com/photo/2018/07/16/22/23/tiger-3543105_640.jpg",
        "src1280": "https://cdn.pixabay.com/photo/2018/07/16/22/23/tiger-3543105_1280.jpg"
    },
    {
        "id": "7948628",
        "src640": "https://cdn.pixabay.com/photo/2023/04/24/17/09/cat-7948628_640.jpg",
        "src1280": "https://cdn.pixabay.com/photo/2023/04/24/17/09/cat-7948628_1280.jpg"
    },
    {
        "id": "4214140",
        "src640": "https://cdn.pixabay.com/photo/2019/05/19/13/52/cat-4214140_640.jpg",
        "src1280": "https://cdn.pixabay.com/photo/2019/05/19/13/52/cat-4214140_1280.jpg"
    },
    {
        "id": "165069",
        "src640": "https://cdn.pixabay.com/photo/2013/07/18/20/27/cat-165069_640.jpg",
        "src1280": "https://cdn.pixabay.com/photo/2013/07/18/20/27/cat-165069_1280.jpg"
    },
    {
        "id": "975593",
        "src640": "https://cdn.pixabay.com/photo/2015/10/07/02/28/cat-975593_640.jpg",
        "src1280": "https://cdn.pixabay.com/photo/2015/10/07/02/28/cat-975593_1280.jpg"
    },
    {
        "id": "7235853",
        "src640": "https://cdn.pixabay.com/photo/2022/06/01/14/03/cat-7235853_640.jpg",
        "src1280": "https://cdn.pixabay.com/photo/2022/06/01/14/03/cat-7235853_1280.jpg"
    },
    {
        "id": "73954",
        "src640": "https://cdn.pixabay.com/photo/2013/01/05/14/34/cat-73954_640.jpg",
        "src1280": "https://cdn.pixabay.com/photo/2013/01/05/14/34/cat-73954_1280.jpg"
    },
    {
        "id": "5128053",
        "src640": "https://cdn.pixabay.com/photo/2020/05/04/06/45/kathy-5128053_640.jpg",
        "src1280": "https://cdn.pixabay.com/photo/2020/05/04/06/45/kathy-5128053_1280.jpg"
    },
    {
        "id": "4282692",
        "src640": "https://cdn.pixabay.com/photo/2019/06/18/16/23/cat-4282692_640.jpg",
        "src1280": "https://cdn.pixabay.com/photo/2019/06/18/16/23/cat-4282692_1280.jpg"
    },
    {
        "id": "7567078",
        "src640": "https://cdn.pixabay.com/photo/2022/11/03/09/57/animal-7567078_640.jpg",
        "src1280": "https://cdn.pixabay.com/photo/2022/11/03/09/57/animal-7567078_1280.jpg"
    },
    {
        "id": "5825",
        "src640": "https://cdn.pixabay.com/photo/2011/03/24/11/32/cat-5825_640.jpg",
        "src1280": "https://cdn.pixabay.com/photo/2011/03/24/11/32/cat-5825_1280.jpg"
    },
    {
        "id": "7754676",
        "src640": "https://cdn.pixabay.com/photo/2023/01/30/05/17/paint-7754676_640.jpg",
        "src1280": "https://cdn.pixabay.com/photo/2023/01/30/05/17/paint-7754676_1280.jpg"
    },
    {
        "id": "3226952",
        "src640": "https://cdn.pixabay.com/photo/2018/03/15/02/21/nice-3226952_640.jpg",
        "src1280": "https://cdn.pixabay.com/photo/2018/03/15/02/21/nice-3226952_1280.jpg"
    },
    {
        "id": "1879274",
        "src640": "https://cdn.pixabay.com/photo/2016/12/03/08/12/cat-1879274_640.jpg",
        "src1280": "https://cdn.pixabay.com/photo/2016/12/03/08/12/cat-1879274_1280.jpg"
    },
    {
        "id": "4996782",
        "src640": "https://cdn.pixabay.com/photo/2020/04/02/21/48/ragdoll-4996782_640.jpg",
        "src1280": "https://cdn.pixabay.com/photo/2020/04/02/21/48/ragdoll-4996782_1280.jpg"
    },
    {
        "id": "3748589",
        "src640": "https://cdn.pixabay.com/photo/2018/10/15/10/31/cat-3748589_640.jpg",
        "src1280": "https://cdn.pixabay.com/photo/2018/10/15/10/31/cat-3748589_1280.jpg"
    },
    {
        "id": "3342982",
        "src640": "https://cdn.pixabay.com/photo/2018/04/23/01/42/animal-3342982_640.jpg",
        "src1280": "https://cdn.pixabay.com/photo/2018/04/23/01/42/animal-3342982_1280.jpg"
    },
    {
        "id": "5027705",
        "src640": "https://cdn.pixabay.com/photo/2020/04/10/20/25/cat-5027705_640.jpg",
        "src1280": "https://cdn.pixabay.com/photo/2020/04/10/20/25/cat-5027705_1280.jpg"
    },
    {
        "id": "324090",
        "src640": "https://cdn.pixabay.com/photo/2014/04/14/18/37/cat-324090_640.jpg",
        "src1280": "https://cdn.pixabay.com/photo/2014/04/14/18/37/cat-324090_1280.jpg"
    },
    {
        "id": "8213336",
        "src640": "https://cdn.pixabay.com/photo/2023/08/25/16/14/dog-8213336_640.jpg",
        "src1280": "https://cdn.pixabay.com/photo/2023/08/25/16/14/dog-8213336_1280.jpg"
    },
    {
        "id": "6084114",
        "src640": "https://cdn.pixabay.com/photo/2021/03/10/09/53/cat-6084114_640.jpg",
        "src1280": "https://cdn.pixabay.com/photo/2021/03/10/09/53/cat-6084114_1280.jpg"
    },
    {
        "id": "7517175",
        "src640": "https://cdn.pixabay.com/photo/2022/10/12/17/56/kawaii-7517175_640.jpg",
        "src1280": "https://cdn.pixabay.com/photo/2022/10/12/17/56/kawaii-7517175_1280.jpg"
    },
    {
        "id": "3994788",
        "src640": "https://cdn.pixabay.com/photo/2019/02/13/17/22/lion-3994788_640.jpg",
        "src1280": "https://cdn.pixabay.com/photo/2019/02/13/17/22/lion-3994788_1280.jpg"
    },
    {
        "id": "6922977",
        "src640": "https://cdn.pixabay.com/photo/2022/01/08/00/15/girl-6922977_640.jpg",
        "src1280": "https://cdn.pixabay.com/photo/2022/01/08/00/15/girl-6922977_1280.jpg"
    },
    {
        "id": "7415122",
        "src640": "https://cdn.pixabay.com/photo/2022/08/27/18/37/lion-7415122_640.jpg",
        "src1280": "https://cdn.pixabay.com/photo/2022/08/27/18/37/lion-7415122_1280.jpg"
    },
    {
        "id": "339139",
        "src640": "https://cdn.pixabay.com/photo/2014/05/06/19/11/cat-339139_640.jpg",
        "src1280": "https://cdn.pixabay.com/photo/2014/05/06/19/11/cat-339139_1280.jpg"
    },
    {
        "id": "1542857",
        "src640": "https://cdn.pixabay.com/photo/2016/07/26/13/53/cat-1542857_640.jpg",
        "src1280": "https://cdn.pixabay.com/photo/2016/07/26/13/53/cat-1542857_1280.jpg"
    },
    {
        "id": "2157493",
        "src640": "https://cdn.pixabay.com/photo/2017/03/19/20/28/cat-2157493_640.jpg",
        "src1280": "https://cdn.pixabay.com/photo/2017/03/19/20/28/cat-2157493_1280.jpg"
    },
    {
        "id": "1001951",
        "src640": "https://cdn.pixabay.com/photo/2015/10/22/21/26/cat-1001951_640.jpg",
        "src1280": "https://cdn.pixabay.com/photo/2015/10/22/21/26/cat-1001951_1280.jpg"
    }
]