[
    {
        "id": "4887422",
        "src640": "https://cdn.pixabay.com/photo/2020/02/28/12/45/portrait-4887422_640.jpg",
        "src1280": "https://cdn.pixabay.com/photo/2020/02/28/12/45/portrait-4887422_1280.jpg"
    },
    {
        "id": "4070953",
        "src640": "https://cdn.pixabay.com/photo/2019/03/21/12/51/window-4070953_640.jpg",
        "src1280": "https://cdn.pixabay.com/photo/2019/03/21/12/51/window-4070953_1280.jpg"
    },
    {
        "id": "4400578",
        "src640": "https://cdn.pixabay.com/photo/2019/08/12/07/19/cat-4400578_640.jpg",
        "src1280": "https://cdn.pixabay.com/photo/2019/08/12/07/19/cat-4400578_1280.jpg"
    },
    {
        "id": "7358296",
        "src640": "https://cdn.pixabay.com/photo/2022/08/01/14/57/leopard-7358296_640.jpg",
        "src1280": "https://cdn.pixabay.com/photo/2022/08/01/14/57/leopard-7358296_1280.jpg"
    },
    {
        "id": "6945145",
        "src640": "https://cdn.pixabay.com/photo/2022/01/17/16/05/cat-6945145_640.jpg",
        "src1280": "https://cdn.pixabay.com/photo/2022/01/17/16/05/cat-6945145_1280.jpg"
    },
    {
        "id": "6997452",
        "src640": "https://cdn.pixabay.com/photo/2022/02/06/15/28/pet-6997452_640.jpg",
        "src1280": "https://cdn.pixabay.com/photo/2022/02/06/15/28/pet-6997452_1280.jpg"
    },
    {
        "id": "74473",
        "src640": "https://cdn.pixabay.com/photo/2013/01/09/17/56/doraemon-74473_640.jpg",
        "src1280": "https://cdn.pixabay.com/photo/2013/01/09/17/56/doraemon-74473_1280.jpg"
    },
    {
        "id": "7866282",
        "src640": "https://cdn.pixabay.com/photo/2023/03/21/02/52/animal-silhouette-7866282_640.jpg",
        "src1280": "https://cdn.pixabay.com/photo/2023/03/21/02/52/animal-silhouette-7866282_1280.jpg"
    },
    {
        "id": "2835970",
        "src640": "https://cdn.pixabay.com/photo/2017/10/10/04/45/cat-2835970_640.jpg",
        "src1280": "https://cdn.pixabay.com/photo/2017/10/10/04/45/cat-2835970_1280.jpg"
    },
    {
        "id": "2878060",
        "src640": "https://cdn.pixabay.com/photo/2017/10/22/15/20/cat-2878060_640.jpg",
        "src1280": "https://cdn.pixabay.com/photo/2017/10/22/15/20/cat-2878060_1280.jpg"
    },
    {
        "id": "2477890",
        "src640": "https://cdn.pixabay.com/photo/2017/07/06/12/35/cat-2477890_640.jpg",
        "src1280": "https://cdn.pixabay.com/photo/2017/07/06/12/35/cat-2477890_1280.jpg"
    },
    {
        "id": "4496414",
        "src640": "https://cdn.pixabay.com/photo/2019/09/22/16/06/cat-4496414_640.jpg",
        "src1280": "https://cdn.pixabay.com/photo/2019/09/22/16/06/cat-4496414_1280.jpg"
    },
    {
        "id": "7889794",
        "src640": "https://cdn.pixabay.com/photo/2023/03/31/11/38/cat-7889794_640.jpg",
        "src1280": "https://cdn.pixabay.com/photo/2023/03/31/11/38/cat-7889794_1280.jpg"
    },
    {
        "id": "8141931",
        "src640": "https://cdn.pixabay.com/photo/2023/07/21/16/24/cat-8141931_640.jpg",
        "src1280": "https://cdn.pixabay.com/photo/2023/07/21/16/24/cat-8141931_1280.jpg"
    },
    {
        "id": "3317968",
        "src640": "https://cdn.pixabay.com/photo/2018/04/13/23/49/horsetail-3317968_640.jpg",
        "src1280": "https://cdn.pixabay.com/photo/2018/04/13/23/49/horsetail-3317968_1280.jpg"
    },
    {
        "id": "2119445",
        "src640": "https://cdn.pixabay.com/photo/2017/03/05/19/09/lion-2119445_640.jpg",
        "src1280": "https://cdn.pixabay.com/photo/2017/03/05/19/09/lion-2119445_1280.jpg"
    },
    {
        "id": "4832384",
        "src640": "https://cdn.pixabay.com/photo/2020/02/09/08/52/cat-4832384_640.jpg",
        "src1280": "https://cdn.pixabay.com/photo/2020/02/09/08/52/cat-4832384_1280.jpg"
    },
    {
        "id": "7607307",
        "src640": "https://cdn.pixabay.com/photo/2022/11/21/15/21/festive-season-7607307_640.jpg",
        "src1280": "https://cdn.pixabay.com/photo/2022/11/21/15/21/festive-season-7607307_1280.jpg"
    },
    {
        "id": "1186526",
        "src640": "https://cdn.pixabay.com/photo/2016/02/08/13/16/animals-1186526_640.jpg",
        "src1280": "https://cdn.pixabay.com/photo/2016/02/08/13/16/animals-1186526_1280.jpg"
    },
    {
        "id": "2772427",
        "src640": "https://cdn.pixabay.com/photo/2017/09/21/16/41/cat-2772427_640.jpg",
        "src1280": "https://cdn.pixabay.com/photo/2017/09/21/16/41/cat-2772427_1280.jpg"
    },
    {
        "id": "4567652",
        "src640": "https://cdn.pixabay.com/photo/2019/10/22/05/14/cat-4567652_640.jpg",
        "src1280": "https://cdn.pixabay.com/photo/2019/10/22/05/14/cat-4567652_1280.jpg"
    },
    {
        "id": "7284861",
        "src640": "https://cdn.pixabay.com/photo/2022/06/26/08/40/cat-7284861_640.jpg",
        "src1280": "https://cdn.pixabay.com/photo/2022/06/26/08/40/cat-7284861_1280.jpg"
    },
    {
        "id": "3808212",
        "src640": "https://cdn.pixabay.com/photo/2018/11/11/07/54/cat-3808212_640.jpg",
        "src1280": "https://cdn.pixabay.com/photo/2018/11/11/07/54/cat-3808212_1280.jpg"
    },
    {
        "id": "7802550",
        "src640": "https://cdn.pixabay.com/photo/2023/02/20/15/51/cat-7802550_640.jpg",
        "src1280": "https://cdn.pixabay.com/photo/2023/02/20/15/51/cat-7802550_1280.jpg"
    },
    {
        "id": "7217484",
        "src640": "https://cdn.pixabay.com/photo/2022/05/24/02/23/cat-7217484_640.jpg",
        "src1280": "https://cdn.pixabay.com/photo/2022/05/24/02/23/cat-7217484_1280.jpg"
    },
    {
        "id": "7754917",
        "src640": "https://cdn.pixabay.com/photo/2023/01/30/07/07/animal-7754917_640.jpg",
        "src1280": "https://cdn.pixabay.com/photo/2023/01/30/07/07/animal-7754917_1280.jpg"
    },
    {
        "id": "7264677",
        "src640": "https://cdn.pixabay.com/photo/2022/06/15/22/26/cat-7264677_640.jpg",
        "src1280": "https://cdn.pixabay.com/photo/2022/06/15/22/26/cat-7264677_1280.jpg"
    },
    {
        "id": "5253315",
        "src640": "https://cdn.pixabay.com/photo/2020/06/03/03/36/cat-5253315_640.jpg",
        "src1280": "https://cdn.pixabay.com/photo/2020/06/03/03/36/cat-5253315_1280.jpg"
    },
    {
        "id": "3997594",
        "src640": "https://cdn.pixabay.com/photo/2019/02/14/22/58/cat-3997594_640.jpg",
        "src1280": "https://cdn.pixabay.com/photo/2019/02/14/22/58/cat-3997594_1280.jpg"
    },
    {
        "id": "3162481",
        "src640": "https://cdn.pixabay.com/photo/2018/02/18/14/59/animal-3162481_640.jpg",
        "src1280": "https://cdn.pixabay.com/photo/2018/02/18/14/59/animal-3162481_1280.jpg"
    },
    {
        "id": "8042351",
        "src640": "https://cdn.pixabay.com/photo/2023/06/05/13/57/cat-8042351_640.jpg",
        "src1280": "https://cdn.pixabay.com/photo/2023/06/05/13/57/cat-8042351_1280.jpg"
    },
    {
        "id": "5898522",
        "src640": "https://cdn.pixabay.com/photo/2021/01/07/21/42/cat-5898522_640.jpg",
        "src1280": "https://cdn.pixabay.com/photo/2021/01/07/21/42/cat-5898522_1280.jpg"
    },
    {
        "id": "8188035",
        "src640": "https://cdn.pixabay.com/photo/2023/08/13/16/53/cat-8188035_640.jpg",
        "src1280": "https://cdn.pixabay.com/photo/2023/08/13/16/53/cat-8188035_1280.jpg"
    },
    {
        "id": "4247353",
        "src640": "https://cdn.pixabay.com/photo/2019/06/02/20/09/cat-4247353_640.jpg",
        "src1280": "https://cdn.pixabay.com/photo/2019/06/02/20/09/cat-4247353_1280.jpg"
    },
    {
        "id": "7201641",
        "src640": "https://cdn.pixabay.com/photo/2022/05/17/04/40/cat-7201641_640.jpg",
        "src1280": "https://cdn.pixabay.com/photo/2022/05/17/04/40/cat-7201641_1280.jpg"
    },
    {
        "id": "22344",
        "src640": "https://cdn.pixabay.com/photo/2012/03/05/17/17/mask-22344_640.jpg",
        "src1280": "https://cdn.pixabay.com/photo/2012/03/05/17/17/mask-22344_1280.jpg"
    },
    {
        "id": "22145",
        "src640": "https://cdn.pixabay.com/photo/2012/03/04/00/56/cat-22145_640.jpg",
        "src1280": "https://cdn.pixabay.com/photo/2012/03/04/00/56/cat-22145_1280.jpg"
    },
    {
        "id": "4574842",
        "src640": "https://cdn.pixabay.com/photo/2019/10/24/18/03/cat-4574842_640.jpg",
        "src1280": "https://cdn.pixabay.com/photo/2019/10/24/18/03/cat-4574842_1280.jpg"
    },
    {
        "id": "7614521",
        "src640": "https://cdn.pixabay.com/photo/2022/11/24/15/25/cat-7614521_640.jpg",
        "src1280": "https://cdn.pixabay.com/photo/2022/11/24/15/25/cat-7614521_1280.jpg"
    },
    {
        "id": "7422783",
        "src640": "https://cdn.pixabay.com/photo/2022/08/31/08/54/cat-7422783_640.jpg",
        "src1280": "https://cdn.pixabay.com/photo/2022/08/31/08/54/cat-7422783_1280.jpg"
    },
    {
        "id": "4820524",
        "src640": "https://cdn.pixabay.com/photo/2020/02/05/09/09/she-cat-pose-4820524_640.jpg",
        "src1280": "https://cdn.pixabay.com/photo/2020/02/05/09/09/she-cat-pose-4820524_1280.jpg"
    },
    {
        "id": "4210007",
        "src640": "https://cdn.pixabay.com/photo/2019/05/17/16/22/cat-4210007_640.jpg",
        "src1280": "https://cdn.pixabay.com/photo/2019/05/17/16/22/cat-4210007_1280.jpg"
    },
    {
        "id": "2409607",
        "src640": "https://cdn.pixabay.com/photo/2017/06/16/16/46/cat-2409607_640.jpg",
        "src1280": "https://cdn.pixabay.com/photo/2017/06/16/16/46/cat-2409607_1280.jpg"
    },
    {
        "id": "7420245",
        "src640": "https://cdn.pixabay.com/photo/2022/08/30/04/39/cat-7420245_640.jpg",
        "src1280": "https://cdn.pixabay.com/photo/2022/08/30/04/39/cat-7420245_1280.jpg"
    },
    {
        "id": "7137214",
        "src640": "https://cdn.pixabay.com/photo/2022/04/17/01/49/cat-7137214_640.jpg",
        "src1280": "https://cdn.pixabay.com/photo/2022/04/17/01/49/cat-7137214_1280.jpg"
    },
    {
        "id": "3898369",
        "src640": "https://cdn.pixabay.com/photo/2018/12/27/20/59/cat-3898369_640.jpg",
        "src1280": "https://cdn.pixabay.com/photo/2018/12/27/20/59/cat-3898369_1280.jpg"
    },
    {
        "id": "7061252",
        "src640": "https://cdn.pixabay.com/photo/2022/03/11/06/10/cat-7061252_640.jpg",
        "src1280": "https://cdn.pixabay.com/photo/2022/03/11/06/10/cat-7061252_1280.jpg"
    },
    {
        "id": "7758937",
        "src640": "https://cdn.pixabay.com/photo/2023/01/31/20/07/cat-7758937_640.jpg",
        "src1280": "https://cdn.pixabay.com/photo/2023/01/31/20/07/cat-7758937_1280.jpg"
    },
    {
        "id": "4509928",
        "src640": "https://cdn.pixabay.com/photo/2019/09/28/05/49/cat-4509928_640.jpg",
        "src1280": "https://cdn.pixabay.com/photo/2019/09/28/05/49/cat-4509928_1280.jpg"
    },
    {
        "id": "3981395",
        "src640": "https://cdn.pixabay.com/photo/2019/02/07/14/48/animals-3981395_640.jpg",
        "src1280": "https://cdn.pixabay.com/photo/2019/02/07/14/48/animals-3981395_1280.jpg"
    },
    {
        "id": "7559861",
        "src640": "https://cdn.pixabay.com/photo/2022/10/31/13/37/cat-7559861_640.jpg",
        "src1280": "https://cdn.pixabay.com/photo/2022/10/31/13/37/cat-7559861_1280.jpg"
    },
    {
        "id": "641549",
        "src640": "https://cdn.pixabay.com/photo/2015/02/18/22/36/cat-641549_640.jpg",
        "src1280": "https://cdn.pixabay.com/photo/2015/02/18/22/36/cat-641549_1280.jpg"
    },
    {
        "id": "8336788",
        "src640": "https://cdn.pixabay.com/photo/2023/10/23/19/30/town-8336788_640.jpg",
        "src1280": "https://cdn.pixabay.com/photo/2023/10/23/19/30/town-8336788_1280.jpg"
    },
    {
        "id": "3792822",
        "src640": "https://cdn.pixabay.com/photo/2018/11/03/21/02/manipulation-3792822_640.jpg",
        "src1280": "https://cdn.pixabay.com/photo/2018/11/03/21/02/manipulation-3792822_1280.jpg"
    },
    {
        "id": "7765746",
        "src640": "https://cdn.pixabay.com/photo/2023/02/03/18/28/cat-7765746_640.jpg",
        "src1280": "https://cdn.pixabay.com/photo/2023/02/03/18/28/cat-7765746_1280.jpg"
    },
    {
        "id": "3516389",
        "src640": "https://cdn.pixabay.com/photo/2018/07/04/16/09/kitten-3516389_640.jpg",
        "src1280": "https://cdn.pixabay.com/photo/2018/07/04/16/09/kitten-3516389_1280.jpg"
    },
    {
        "id": "7994162",
        "src640": "https://cdn.pixabay.com/photo/2023/05/15/05/20/cat-7994162_640.jpg",
        "src1280": "https://cdn.pixabay.com/photo/2023/05/15/05/20/cat-7994162_1280.jpg"
    },
    {
        "id": "7242209",
        "src640": "https://cdn.pixabay.com/photo/2022/06/04/15/18/animal-7242209_640.jpg",
        "src1280": "https://cdn.pixabay.com/photo/2022/06/04/15/18/animal-7242209_1280.jpg"
    },
    {
        "id": "6671075",
        "src640": "https://cdn.pixabay.com/photo/2021/10/01/01/30/cat-6671075_640.jpg",
        "src1280": "https://cdn.pixabay.com/photo/2021/10/01/01/30/cat-6671075_1280.jpg"
    },
    {
        "id": "2345391",
        "src640": "https://cdn.pixabay.com/photo/2017/05/26/07/17/jaguar-2345391_640.jpg",
        "src1280": "https://cdn.pixabay.com/photo/2017/05/26/07/17/jaguar-2345391_1280.jpg"
    },
    {
        "id": "7637429",
        "src640": "https://cdn.pixabay.com/photo/2022/12/05/18/38/cat-7637429_640.jpg",
        "src1280": "https://cdn.pixabay.com/photo/2022/12/05/18/38/cat-7637429_1280.jpg"
    },
    {
        "id": "4540075",
        "src640": "https://cdn.pixabay.com/photo/2019/10/10/17/08/cat-4540075_640.jpg",
        "src1280": "https://cdn.pixabay.com/photo/2019/10/10/17/08/cat-4540075_1280.jpg"
    },
    {
        "id": "2477888",
        "src640": "https://cdn.pixabay.com/photo/2017/07/06/12/33/cat-2477888_640.jpg",
        "src1280": "https://cdn.pixabay.com/photo/2017/07/06/12/33/cat-2477888_1280.jpg"
    },
    {
        "id": "8406315",
        "src640": "https://cdn.pixabay.com/photo/2023/11/22/20/07/cat-8406315_640.jpg",
        "src1280": "https://cdn.pixabay.com/photo/2023/11/22/20/07/cat-8406315_1280.jpg"
    },
    {
        "id": "2477932",
        "src640": "https://cdn.pixabay.com/photo/2017/07/06/12/53/cat-2477932_640.jpg",
        "src1280": "https://cdn.pixabay.com/photo/2017/07/06/12/53/cat-2477932_1280.jpg"
    },
    {
        "id": "90909",
        "src640": "https://cdn.pixabay.com/photo/2013/03/06/14/29/provence-90909_640.jpg",
        "src1280": "https://cdn.pixabay.com/photo/2013/03/06/14/29/provence-90909_1280.jpg"
    },
    {
        "id": "5109393",
        "src640": "https://cdn.pixabay.com/photo/2020/04/29/15/49/lions-5109393_640.jpg",
        "src1280": "https://cdn.pixabay.com/photo/2020/04/29/15/49/lions-5109393_1280.jpg"
    },
    {
        "id": "7856171",
        "src640": "https://cdn.pixabay.com/photo/2023/03/16/08/30/snow-7856171_640.jpg",
        "src1280": "https://cdn.pixabay.com/photo/2023/03/16/08/30/snow-7856171_1280.jpg"
    },
    {
        "id": "7280876",
        "src640": "https://cdn.pixabay.com/photo/2022/06/24/01/25/cat-7280876_640.jpg",
        "src1280": "https://cdn.pixabay.com/photo/2022/06/24/01/25/cat-7280876_1280.jpg"
    },
    {
        "id": "768882",
        "src640": "https://cdn.pixabay.com/photo/2015/05/15/16/09/cat-768882_640.jpg",
        "src1280": "https://cdn.pixabay.com/photo/2015/05/15/16/09/cat-768882_1280.jpg"
    },
    {
        "id": "964470",
        "src640": "https://cdn.pixabay.com/photo/2015/09/29/20/18/cat-964470_640.jpg",
        "src1280": "https://cdn.pixabay.com/photo/2015/09/29/20/18/cat-964470_1280.jpg"
    },
    {
        "id": "441733",
        "src640": "https://cdn.pixabay.com/photo/2014/09/11/13/25/kitten-441733_640.jpg",
        "src1280": "https://cdn.pixabay.com/photo/2014/09/11/13/25/kitten-441733_1280.jpg"
    },
    {
        "id": "7246136",
        "src640": "https://cdn.pixabay.com/photo/2022/06/06/14/17/british-shorthair-7246136_640.jpg",
        "src1280": "https://cdn.pixabay.com/photo/2022/06/06/14/17/british-shorthair-7246136_1280.jpg"
    },
    {
        "id": "7593351",
        "src640": "https://cdn.pixabay.com/photo/2022/11/15/07/11/lynx-7593351_640.jpg",
        "src1280": "https://cdn.pixabay.com/photo/2022/11/15/07/11/lynx-7593351_1280.jpg"
    },
    {
        "id": "7383368",
        "src640": "https://cdn.pixabay.com/photo/2022/08/13/10/35/kitten-7383368_640.jpg",
        "src1280": "https://cdn.pixabay.com/photo/2022/08/13/10/35/kitten-7383368_1280.jpg"
    },
    {
        "id": "6935091",
        "src640": "https://cdn.pixabay.com/photo/2022/01/13/12/31/animal-6935091_640.jpg",
        "src1280": "https://cdn.pixabay.com/photo/2022/01/13/12/31/animal-6935091_1280.jpg"
    },
    {
        "id": "7224632",
        "src640": "https://cdn.pixabay.com/photo/2022/05/27/08/14/bengal-cat-7224632_640.jpg",
        "src1280": "https://cdn.pixabay.com/photo/2022/05/27/08/14/bengal-cat-7224632_1280.jpg"
    },
    {
        "id": "7595566",
        "src640": "https://cdn.pixabay.com/photo/2022/11/16/09/32/cat-7595566_640.jpg",
        "src1280": "https://cdn.pixabay.com/photo/2022/11/16/09/32/cat-7595566_1280.jpg"
    },
    {
        "id": "881454",
        "src640": "https://cdn.pixabay.com/photo/2015/08/09/11/48/cat-881454_640.jpg",
        "src1280": "https://cdn.pixabay.com/photo/2015/08/09/11/48/cat-881454_1280.jpg"
    },
    {
        "id": "4610313",
        "src640": "https://cdn.pixabay.com/photo/2019/11/08/02/40/cat-4610313_640.jpg",
        "src1280": "https://cdn.pixabay.com/photo/2019/11/08/02/40/cat-4610313_1280.jpg"
    },
    {
        "id": "7308329",
        "src640": "https://cdn.pixabay.com/photo/2022/07/08/02/44/cat-7308329_640.jpg",
        "src1280": "https://cdn.pixabay.com/photo/2022/07/08/02/44/cat-7308329_1280.jpg"
    },
    {
        "id": "7305013",
        "src640": "https://cdn.pixabay.com/photo/2022/07/06/12/26/cat-7305013_640.jpg",
        "src1280": "https://cdn.pixabay.com/photo/2022/07/06/12/26/cat-7305013_1280.jpg"
    },
    {
        "id": "4993632",
        "src640": "https://cdn.pixabay.com/photo/2020/04/02/06/13/cat-4993632_640.jpg",
        "src1280": "https://cdn.pixabay.com/photo/2020/04/02/06/13/cat-4993632_1280.jpg"
    },
    {
        "id": "5466575",
        "src640": "https://cdn.pixabay.com/photo/2020/08/05/22/21/cat-5466575_640.jpg",
        "src1280": "https://cdn.pixabay.com/photo/2020/08/05/22/21/cat-5466575_1280.jpg"
    },
    {
        "id": "4479958",
        "src640": "https://cdn.pixabay.com/photo/2019/09/16/06/39/cat-4479958_640.jpg",
        "src1280": "https://cdn.pixabay.com/photo/2019/09/16/06/39/cat-4479958_1280.jpg"
    },
    {
        "id": "8325729",
        "src640": "https://cdn.pixabay.com/photo/2023/10/19/06/43/cat-8325729_640.jpg",
        "src1280": "https://cdn.pixabay.com/photo/2023/10/19/06/43/cat-8325729_1280.jpg"
    },
    {
        "id": "4603254",
        "src640": "https://cdn.pixabay.com/photo/2019/11/05/10/47/cat-4603254_640.jpg",
        "src1280": "https://cdn.pixabay.com/photo/2019/11/05/10/47/cat-4603254_1280.jpg"
    },
    {
        "id": "6740755",
        "src640": "https://cdn.pixabay.com/photo/2021/10/25/12/36/cat-6740755_640.jpg",
        "src1280": "https://cdn.pixabay.com/photo/2021/10/25/12/36/cat-6740755_1280.jpg"
    },
    {
        "id": "5336942",
        "src640": "https://cdn.pixabay.com/photo/2020/06/24/17/01/kitten-5336942_640.jpg",
        "src1280": "https://cdn.pixabay.com/photo/2020/06/24/17/01/kitten-5336942_1280.jpg"
    },
    {
        "id": "7734200",
        "src640": "https://cdn.pixabay.com/photo/2023/01/21/15/07/ai-generated-7734200_640.jpg",
        "src1280": "https://cdn.pixabay.com/photo/2023/01/21/15/07/ai-generated-7734200_1280.jpg"
    }
]