[
    {
        "id": "6890358",
        "src640": "https://cdn.pixabay.com/photo/2021/12/24/02/58/animal-6890358_640.jpg",
        "src1280": "https://cdn.pixabay.com/photo/2021/12/24/02/58/animal-6890358_1280.jpg"
    },
    {
        "id": "6621598",
        "src640": "https://cdn.pixabay.com/photo/2021/09/13/14/47/cat-6621598_640.jpg",
        "src1280": "https://cdn.pixabay.com/photo/2021/09/13/14/47/cat-6621598_1280.jpg"
    },
    {
        "id": "7003862",
        "src640": "https://cdn.pixabay.com/photo/2022/02/09/17/26/cat-7003862_640.jpg",
        "src1280": "https://cdn.pixabay.com/photo/2022/02/09/17/26/cat-7003862_1280.jpg"
    },
    {
        "id": "2111875",
        "src640": "https://cdn.pixabay.com/photo/2017/03/02/17/09/cat-2111875_640.jpg",
        "src1280": "https://cdn.pixabay.com/photo/2017/03/02/17/09/cat-2111875_1280.jpg"
    },
    {
        "id": "7531099",
        "src640": "https://cdn.pixabay.com/photo/2022/10/18/20/32/cat-7531099_640.jpg",
        "src1280": "https://cdn.pixabay.com/photo/2022/10/18/20/32/cat-7531099_1280.jpg"
    },
    {
        "id": "2815755",
        "src640": "https://cdn.pixabay.com/photo/2017/10/04/10/38/cat-2815755_640.jpg",
        "src1280": "https://cdn.pixabay.com/photo/2017/10/04/10/38/cat-2815755_1280.jpg"
    },
    {
        "id": "4828516",
        "src640": "https://cdn.pixabay.com/photo/2020/02/07/22/05/cat-4828516_640.jpg",
        "src1280": "https://cdn.pixabay.com/photo/2020/02/07/22/05/cat-4828516_1280.jpg"
    },
    {
        "id": "7762813",
        "src640": "https://cdn.pixabay.com/photo/2023/02/02/12/53/cat-7762813_640.jpg",
        "src1280": "https://cdn.pixabay.com/photo/2023/02/02/12/53/cat-7762813_1280.jpg"
    },
    {
        "id": "5689858",
        "src640": "https://cdn.pixabay.com/photo/2020/10/27/07/38/lion-5689858_640.jpg",
        "src1280": "https://cdn.pixabay.com/photo/2020/10/27/07/38/lion-5689858_1280.jpg"
    },
    {
        "id": "4897832",
        "src640": "https://cdn.pixabay.com/photo/2020/03/03/08/07/cat-4897832_640.jpg",
        "src1280": "https://cdn.pixabay.com/photo/2020/03/03/08/07/cat-4897832_1280.jpg"
    },
    {
        "id": "7005515",
        "src640": "https://cdn.pixabay.com/photo/2022/02/10/15/21/cat-7005515_640.jpg",
        "src1280": "https://cdn.pixabay.com/photo/2022/02/10/15/21/cat-7005515_1280.jpg"
    },
    {
        "id": "5909056",
        "src640": "https://cdn.pixabay.com/photo/2021/01/11/17/34/woman-5909056_640.jpg",
        "src1280": "https://cdn.pixabay.com/photo/2021/01/11/17/34/woman-5909056_1280.jpg"
    },
    {
        "id": "4616689",
        "src640": "https://cdn.pixabay.com/photo/2019/11/10/20/30/portrait-4616689_640.jpg",
        "src1280": "https://cdn.pixabay.com/photo/2019/11/10/20/30/portrait-4616689_1280.jpg"
    },
    {
        "id": "4418385",
        "src640": "https://cdn.pixabay.com/photo/2019/08/20/10/32/lion-4418385_640.jpg",
        "src1280": "https://cdn.pixabay.com/photo/2019/08/20/10/32/lion-4418385_1280.jpg"
    },
    {
        "id": "8177768",
        "src640": "https://cdn.pixabay.com/photo/2023/08/08/16/46/cat-8177768_640.jpg",
        "src1280": "https://cdn.pixabay.com/photo/2023/08/08/16/46/cat-8177768_1280.jpg"
    },
    {
        "id": "216897",
        "src640": "https://cdn.pixabay.com/photo/2013/11/24/10/41/lioness-216897_640.jpg",
        "src1280": "https://cdn.pixabay.com/photo/2013/11/24/10/41/lioness-216897_1280.jpg"
    },
    {
        "id": "3774311",
        "src640": "https://cdn.pixabay.com/photo/2018/10/26/10/28/cat-3774311_640.jpg",
        "src1280": "https://cdn.pixabay.com/photo/2018/10/26/10/28/cat-3774311_1280.jpg"
    },
    {
        "id": "4631016",
        "src640": "https://cdn.pixabay.com/photo/2019/11/16/20/03/portrait-4631016_640.jpg",
        "src1280": "https://cdn.pixabay.com/photo/2019/11/16/20/03/portrait-4631016_1280.jpg"
    },
    {
        "id": "166167",
        "src640": "https://cdn.pixabay.com/photo/2013/07/22/23/44/cat-166167_640.jpg",
        "src1280": "https://cdn.pixabay.com/photo/2013/07/22/23/44/cat-166167_1280.jpg"
    },
    {
        "id": "2621415",
        "src640": "https://cdn.pixabay.com/photo/2017/08/10/11/04/cat-2621415_640.jpg",
        "src1280": "https://cdn.pixabay.com/photo/2017/08/10/11/04/cat-2621415_1280.jpg"
    },
    {
        "id": "5689859",
        "src640": "https://cdn.pixabay.com/photo/2020/10/27/07/38/lion-5689859_640.jpg",
        "src1280": "https://cdn.pixabay.com/photo/2020/10/27/07/38/lion-5689859_1280.jpg"
    },
    {
        "id": "7802549",
        "src640": "https://cdn.pixabay.com/photo/2023/02/20/15/51/cat-7802549_640.jpg",
        "src1280": "https://cdn.pixabay.com/photo/2023/02/20/15/51/cat-7802549_1280.jpg"
    },
    {
        "id": "7730472",
        "src640": "https://cdn.pixabay.com/photo/2023/01/20/00/52/winter-7730472_640.jpg",
        "src1280": "https://cdn.pixabay.com/photo/2023/01/20/00/52/winter-7730472_1280.jpg"
    },
    {
        "id": "6944994",
        "src640": "https://cdn.pixabay.com/photo/2022/01/17/15/06/cat-6944994_640.jpg",
        "src1280": "https://cdn.pixabay.com/photo/2022/01/17/15/06/cat-6944994_1280.jpg"
    },
    {
        "id": "7162605",
        "src640": "https://cdn.pixabay.com/photo/2022/04/29/06/16/cat-7162605_640.jpg",
        "src1280": "https://cdn.pixabay.com/photo/2022/04/29/06/16/cat-7162605_1280.jpg"
    },
    {
        "id": "7691559",
        "src640": "https://cdn.pixabay.com/photo/2023/01/02/08/31/cat-7691559_640.jpg",
        "src1280": "https://cdn.pixabay.com/photo/2023/01/02/08/31/cat-7691559_1280.jpg"
    },
    {
        "id": "6754634",
        "src640": "https://cdn.pixabay.com/photo/2021/10/30/15/08/cat-6754634_640.jpg",
        "src1280": "https://cdn.pixabay.com/photo/2021/10/30/15/08/cat-6754634_1280.jpg"
    },
    {
        "id": "6919330",
        "src640": "https://cdn.pixabay.com/photo/2022/01/06/11/53/cat-6919330_640.jpg",
        "src1280": "https://cdn.pixabay.com/photo/2022/01/06/11/53/cat-6919330_1280.jpg"
    },
    {
        "id": "6324296",
        "src640": "https://cdn.pixabay.com/photo/2021/06/09/19/20/cat-6324296_640.jpg",
        "src1280": "https://cdn.pixabay.com/photo/2021/06/09/19/20/cat-6324296_1280.jpg"
    },
    {
        "id": "796935",
        "src640": "https://cdn.pixabay.com/photo/2015/06/03/21/02/cat-796935_640.jpg",
        "src1280": "https://cdn.pixabay.com/photo/2015/06/03/21/02/cat-796935_1280.jpg"
    },
    {
        "id": "6931503",
        "src640": "https://cdn.pixabay.com/photo/2022/01/11/21/17/cat-6931503_640.jpg",
        "src1280": "https://cdn.pixabay.com/photo/2022/01/11/21/17/cat-6931503_1280.jpg"
    },
    {
        "id": "5476271",
        "src640": "https://cdn.pixabay.com/photo/2020/08/09/18/42/cat-5476271_640.jpg",
        "src1280": "https://cdn.pixabay.com/photo/2020/08/09/18/42/cat-5476271_1280.jpg"
    },
    {
        "id": "7290447",
        "src640": "https://cdn.pixabay.com/photo/2022/06/28/19/52/cat-7290447_640.jpg",
        "src1280": "https://cdn.pixabay.com/photo/2022/06/28/19/52/cat-7290447_1280.jpg"
    },
    {
        "id": "6956267",
        "src640": "https://cdn.pixabay.com/photo/2022/01/22/05/36/cat-6956267_640.jpg",
        "src1280": "https://cdn.pixabay.com/photo/2022/01/22/05/36/cat-6956267_1280.jpg"
    },
    {
        "id": "6872872",
        "src640": "https://cdn.pixabay.com/photo/2021/12/15/15/37/animal-6872872_640.jpg",
        "src1280": "https://cdn.pixabay.com/photo/2021/12/15/15/37/animal-6872872_1280.jpg"
    },
    {
        "id": "7105489",
        "src640": "https://cdn.pixabay.com/photo/2022/04/01/19/16/animal-7105489_640.jpg",
        "src1280": "https://cdn.pixabay.com/photo/2022/04/01/19/16/animal-7105489_1280.jpg"
    },
    {
        "id": "5114723",
        "src640": "https://cdn.pixabay.com/photo/2020/04/30/21/51/cat-5114723_640.jpg",
        "src1280": "https://cdn.pixabay.com/photo/2020/04/30/21/51/cat-5114723_1280.jpg"
    },
    {
        "id": "5383398",
        "src640": "https://cdn.pixabay.com/photo/2020/07/08/10/33/play-5383398_640.jpg",
        "src1280": "https://cdn.pixabay.com/photo/2020/07/08/10/33/play-5383398_1280.jpg"
    },
    {
        "id": "5163484",
        "src640": "https://cdn.pixabay.com/photo/2020/05/12/15/06/cat-5163484_640.jpg",
        "src1280": "https://cdn.pixabay.com/photo/2020/05/12/15/06/cat-5163484_1280.jpg"
    },
    {
        "id": "4946204",
        "src640": "https://cdn.pixabay.com/photo/2020/03/19/03/57/cat-4946204_640.jpg",
        "src1280": "https://cdn.pixabay.com/photo/2020/03/19/03/57/cat-4946204_1280.jpg"
    },
    {
        "id": "2476275",
        "src640": "https://cdn.pixabay.com/photo/2017/07/05/22/43/cat-2476275_640.jpg",
        "src1280": "https://cdn.pixabay.com/photo/2017/07/05/22/43/cat-2476275_1280.jpg"
    },
    {
        "id": "97340",
        "src640": "https://cdn.pixabay.com/photo/2013/03/28/17/19/cat-97340_640.jpg",
        "src1280": "https://cdn.pixabay.com/photo/2013/03/28/17/19/cat-97340_1280.jpg"
    },
    {
        "id": "7970309",
        "src640": "https://cdn.pixabay.com/photo/2023/05/04/14/57/cat-7970309_640.jpg",
        "src1280": "https://cdn.pixabay.com/photo/2023/05/04/14/57/cat-7970309_1280.jpg"
    },
    {
        "id": "4919611",
        "src640": "https://cdn.pixabay.com/photo/2020/03/10/17/23/cat-4919611_640.jpg",
        "src1280": "https://cdn.pixabay.com/photo/2020/03/10/17/23/cat-4919611_1280.jpg"
    },
    {
        "id": "2477966",
        "src640": "https://cdn.pixabay.com/photo/2017/07/06/12/59/cat-2477966_640.jpg",
        "src1280": "https://cdn.pixabay.com/photo/2017/07/06/12/59/cat-2477966_1280.jpg"
    },
    {
        "id": "4735795",
        "src640": "https://cdn.pixabay.com/photo/2020/01/02/13/15/cat-4735795_640.jpg",
        "src1280": "https://cdn.pixabay.com/photo/2020/01/02/13/15/cat-4735795_1280.jpg"
    },
    {
        "id": "4702220",
        "src640": "https://cdn.pixabay.com/photo/2019/12/17/18/34/cat-4702220_640.jpg",
        "src1280": "https://cdn.pixabay.com/photo/2019/12/17/18/34/cat-4702220_1280.jpg"
    },
    {
        "id": "981365",
        "src640": "https://cdn.pixabay.com/photo/2015/10/10/19/25/girl-981365_640.jpg",
        "src1280": "https://cdn.pixabay.com/photo/2015/10/10/19/25/girl-981365_1280.jpg"
    },
    {
        "id": "7821971",
        "src640": "https://cdn.pixabay.com/photo/2023/03/01/00/08/cat-7821971_640.jpg",
        "src1280": "https://cdn.pixabay.com/photo/2023/03/01/00/08/cat-7821971_1280.jpg"
    },
    {
        "id": "6654015",
        "src640": "https://cdn.pixabay.com/photo/2021/09/25/05/14/couch-6654015_640.jpg",
        "src1280": "https://cdn.pixabay.com/photo/2021/09/25/05/14/couch-6654015_1280.jpg"
    },
    {
        "id": "4746046",
        "src640": "https://cdn.pixabay.com/photo/2020/01/06/19/29/cat-4746046_640.jpg",
        "src1280": "https://cdn.pixabay.com/photo/2020/01/06/19/29/cat-4746046_1280.jpg"
    },
    {
        "id": "4051817",
        "src640": "https://cdn.pixabay.com/photo/2019/03/12/20/43/cat-4051817_640.jpg",
        "src1280": "https://cdn.pixabay.com/photo/2019/03/12/20/43/cat-4051817_1280.jpg"
    },
    {
        "id": "6983116",
        "src640": "https://cdn.pixabay.com/photo/2022/01/31/09/50/cat-6983116_640.jpg",
        "src1280": "https://cdn.pixabay.com/photo/2022/01/31/09/50/cat-6983116_1280.jpg"
    },
    {
        "id": "5176310",
        "src640": "https://cdn.pixabay.com/photo/2020/05/16/07/24/cat-5176310_640.jpg",
        "src1280": "https://cdn.pixabay.com/photo/2020/05/16/07/24/cat-5176310_1280.jpg"
    },
    {
        "id": "7804657",
        "src640": "https://cdn.pixabay.com/photo/2023/02/21/16/46/cougar-7804657_640.jpg",
        "src1280": "https://cdn.pixabay.com/photo/2023/02/21/16/46/cougar-7804657_1280.jpg"
    },
    {
        "id": "4654285",
        "src640": "https://cdn.pixabay.com/photo/2019/11/26/10/47/cats-4654285_640.jpg",
        "src1280": "https://cdn.pixabay.com/photo/2019/11/26/10/47/cats-4654285_1280.jpg"
    },
    {
        "id": "4392563",
        "src640": "https://cdn.pixabay.com/photo/2019/08/08/10/20/cute-4392563_640.jpg",
        "src1280": "https://cdn.pixabay.com/photo/2019/08/08/10/20/cute-4392563_1280.jpg"
    },
    {
        "id": "6795325",
        "src640": "https://cdn.pixabay.com/photo/2021/11/14/17/48/cat-6795325_640.jpg",
        "src1280": "https://cdn.pixabay.com/photo/2021/11/14/17/48/cat-6795325_1280.jpg"
    },
    {
        "id": "3810839",
        "src640": "https://cdn.pixabay.com/photo/2018/11/12/13/24/cat-3810839_640.jpg",
        "src1280": "https://cdn.pixabay.com/photo/2018/11/12/13/24/cat-3810839_1280.jpg"
    },
    {
        "id": "6960625",
        "src640": "https://cdn.pixabay.com/photo/2022/01/23/11/57/animal-6960625_640.jpg",
        "src1280": "https://cdn.pixabay.com/photo/2022/01/23/11/57/animal-6960625_1280.jpg"
    },
    {
        "id": "6539681",
        "src640": "https://cdn.pixabay.com/photo/2021/08/12/01/19/cougar-6539681_640.jpg",
        "src1280": "https://cdn.pixabay.com/photo/2021/08/12/01/19/cougar-6539681_1280.jpg"
    },
    {
        "id": "6527352",
        "src640": "https://cdn.pixabay.com/photo/2021/08/06/22/51/cat-6527352_640.jpg",
        "src1280": "https://cdn.pixabay.com/photo/2021/08/06/22/51/cat-6527352_1280.jpg"
    },
    {
        "id": "5149708",
        "src640": "https://cdn.pixabay.com/photo/2020/05/09/13/37/cat-5149708_640.jpg",
        "src1280": "https://cdn.pixabay.com/photo/2020/05/09/13/37/cat-5149708_1280.jpg"
    },
    {
        "id": "820964",
        "src640": "https://cdn.pixabay.com/photo/2015/06/25/07/06/wall-820964_640.jpg",
        "src1280": "https://cdn.pixabay.com/photo/2015/06/25/07/06/wall-820964_1280.jpg"
    },
    {
        "id": "183287",
        "src640": "https://cdn.pixabay.com/photo/2013/09/18/01/23/cat-183287_640.jpg",
        "src1280": "https://cdn.pixabay.com/photo/2013/09/18/01/23/cat-183287_1280.jpg"
    },
    {
        "id": "1036193",
        "src640": "https://cdn.pixabay.com/photo/2015/11/10/01/38/cat-1036193_640.jpg",
        "src1280": "https://cdn.pixabay.com/photo/2015/11/10/01/38/cat-1036193_1280.jpg"
    },
    {
        "id": "2477896",
        "src640": "https://cdn.pixabay.com/photo/2017/07/06/12/39/cat-2477896_640.jpg",
        "src1280": "https://cdn.pixabay.com/photo/2017/07/06/12/39/cat-2477896_1280.jpg"
    },
    {
        "id": "5461285",
        "src640": "https://cdn.pixabay.com/photo/2020/08/03/23/31/cat-5461285_640.jpg",
        "src1280": "https://cdn.pixabay.com/photo/2020/08/03/23/31/cat-5461285_1280.jpg"
    },
    {
        "id": "1089425",
        "src640": "https://cdn.pixabay.com/photo/2015/12/12/12/25/cat-1089425_640.jpg",
        "src1280": "https://cdn.pixabay.com/photo/2015/12/12/12/25/cat-1089425_1280.jpg"
    },
    {
        "id": "4646160",
        "src640": "https://cdn.pixabay.com/photo/2019/11/23/03/49/cute-4646160_640.jpg",
        "src1280": "https://cdn.pixabay.com/photo/2019/11/23/03/49/cute-4646160_1280.jpg"
    },
    {
        "id": "436366",
        "src640": "https://cdn.pixabay.com/photo/2014/09/05/13/29/cats-eye-436366_640.jpg",
        "src1280": "https://cdn.pixabay.com/photo/2014/09/05/13/29/cats-eye-436366_1280.jpg"
    },
    {
        "id": "5253304",
        "src640": "https://cdn.pixabay.com/photo/2020/06/03/03/31/cat-5253304_640.jpg",
        "src1280": "https://cdn.pixabay.com/photo/2020/06/03/03/31/cat-5253304_1280.jpg"
    },
    {
        "id": "7619243",
        "src640": "https://cdn.pixabay.com/photo/2022/11/27/09/42/cat-7619243_640.jpg",
        "src1280": "https://cdn.pixabay.com/photo/2022/11/27/09/42/cat-7619243_1280.jpg"
    },
    {
        "id": "7407293",
        "src640": "https://cdn.pixabay.com/photo/2022/08/24/09/27/cat-7407293_640.jpg",
        "src1280": "https://cdn.pixabay.com/photo/2022/08/24/09/27/cat-7407293_1280.jpg"
    },
    {
        "id": "6020639",
        "src640": "https://cdn.pixabay.com/photo/2021/02/16/10/45/cat-6020639_640.jpg",
        "src1280": "https://cdn.pixabay.com/photo/2021/02/16/10/45/cat-6020639_1280.jpg"
    },
    {
        "id": "7375630",
        "src640": "https://cdn.pixabay.com/photo/2022/08/09/18/47/cat-7375630_640.jpg",
        "src1280": "https://cdn.pixabay.com/photo/2022/08/09/18/47/cat-7375630_1280.jpg"
    },
    {
        "id": "7431439",
        "src640": "https://cdn.pixabay.com/photo/2022/09/04/11/20/cat-7431439_640.jpg",
        "src1280": "https://cdn.pixabay.com/photo/2022/09/04/11/20/cat-7431439_1280.jpg"
    },
    {
        "id": "2926068",
        "src640": "https://cdn.pixabay.com/photo/2017/11/07/08/54/cat-2926068_640.jpg",
        "src1280": "https://cdn.pixabay.com/photo/2017/11/07/08/54/cat-2926068_1280.jpg"
    },
    {
        "id": "7438093",
        "src640": "https://cdn.pixabay.com/photo/2022/09/07/07/07/cat-7438093_640.jpg",
        "src1280": "https://cdn.pixabay.com/photo/2022/09/07/07/07/cat-7438093_1280.jpg"
    },
    {
        "id": "7509046",
        "src640": "https://cdn.pixabay.com/photo/2022/10/09/12/38/cat-7509046_640.jpg",
        "src1280": "https://cdn.pixabay.com/photo/2022/10/09/12/38/cat-7509046_1280.jpg"
    },
    {
        "id": "6996104",
        "src640": "https://cdn.pixabay.com/photo/2022/02/06/02/58/cat-6996104_640.jpg",
        "src1280": "https://cdn.pixabay.com/photo/2022/02/06/02/58/cat-6996104_1280.jpg"
    },
    {
        "id": "4616044",
        "src640": "https://cdn.pixabay.com/photo/2019/11/10/15/18/cat-4616044_640.jpg",
        "src1280": "https://cdn.pixabay.com/photo/2019/11/10/15/18/cat-4616044_1280.jpg"
    },
    {
        "id": "3681706",
        "src640": "https://cdn.pixabay.com/photo/2018/09/16/15/42/coffee-3681706_640.jpg",
        "src1280": "https://cdn.pixabay.com/photo/2018/09/16/15/42/coffee-3681706_1280.jpg"
    },
    {
        "id": "5281688",
        "src640": "https://cdn.pixabay.com/photo/2020/06/10/08/01/cat-5281688_640.jpg",
        "src1280": "https://cdn.pixabay.com/photo/2020/06/10/08/01/cat-5281688_1280.jpg"
    },
    {
        "id": "3737450",
        "src640": "https://cdn.pixabay.com/photo/2018/10/10/14/48/cat-3737450_640.jpg",
        "src1280": "https://cdn.pixabay.com/photo/2018/10/10/14/48/cat-3737450_1280.jpg"
    },
    {
        "id": "5047351",
        "src640": "https://cdn.pixabay.com/photo/2020/04/15/16/17/cat-5047351_640.jpg",
        "src1280": "https://cdn.pixabay.com/photo/2020/04/15/16/17/cat-5047351_1280.jpg"
    },
    {
        "id": "3276100",
        "src640": "https://cdn.pixabay.com/photo/2018/03/30/18/25/nature-3276100_640.jpg",
        "src1280": "https://cdn.pixabay.com/photo/2018/03/30/18/25/nature-3276100_1280.jpg"
    },
    {
        "id": "5244390",
        "src640": "https://cdn.pixabay.com/photo/2020/05/31/21/40/cat-5244390_640.jpg",
        "src1280": "https://cdn.pixabay.com/photo/2020/05/31/21/40/cat-5244390_1280.jpg"
    },
    {
        "id": "841426",
        "src640": "https://cdn.pixabay.com/photo/2015/07/11/23/00/graffiti-841426_640.jpg",
        "src1280": "https://cdn.pixabay.com/photo/2015/07/11/23/00/graffiti-841426_1280.jpg"
    },
    {
        "id": "909038",
        "src640": "https://cdn.pixabay.com/photo/2015/08/26/20/21/cat-909038_640.jpg",
        "src1280": "https://cdn.pixabay.com/photo/2015/08/26/20/21/cat-909038_1280.jpg"
    },
    {
        "id": "7711451",
        "src640": "https://cdn.pixabay.com/photo/2023/01/11/11/27/cat-7711451_640.jpg",
        "src1280": "https://cdn.pixabay.com/photo/2023/01/11/11/27/cat-7711451_1280.jpg"
    },
    {
        "id": "5151411",
        "src640": "https://cdn.pixabay.com/photo/2020/05/09/20/44/cat-5151411_640.jpg",
        "src1280": "https://cdn.pixabay.com/photo/2020/05/09/20/44/cat-5151411_1280.jpg"
    },
    {
        "id": "5914850",
        "src640": "https://cdn.pixabay.com/photo/2021/01/13/18/07/cat-5914850_640.jpg",
        "src1280": "https://cdn.pixabay.com/photo/2021/01/13/18/07/cat-5914850_1280.jpg"
    },
    {
        "id": "7512259",
        "src640": "https://cdn.pixabay.com/photo/2022/10/10/17/24/cat-7512259_640.jpg",
        "src1280": "https://cdn.pixabay.com/photo/2022/10/10/17/24/cat-7512259_1280.jpg"
    }
]