[
    {
        "id": "1775521",
        "src640": "https://cdn.pixabay.com/photo/2016/10/27/15/54/cat-1775521_640.jpg",
        "src1280": "https://cdn.pixabay.com/photo/2016/10/27/15/54/cat-1775521_1280.jpg"
    },
    {
        "id": "3281874",
        "src640": "https://cdn.pixabay.com/photo/2018/04/01/19/25/fractalius-3281874_640.jpg",
        "src1280": "https://cdn.pixabay.com/photo/2018/04/01/19/25/fractalius-3281874_1280.jpg"
    },
    {
        "id": "4259026",
        "src640": "https://cdn.pixabay.com/photo/2019/06/07/20/46/cat-4259026_640.jpg",
        "src1280": "https://cdn.pixabay.com/photo/2019/06/07/20/46/cat-4259026_1280.jpg"
    },
    {
        "id": "3992691",
        "src640": "https://cdn.pixabay.com/photo/2019/02/12/17/02/valentines-3992691_640.jpg",
        "src1280": "https://cdn.pixabay.com/photo/2019/02/12/17/02/valentines-3992691_1280.jpg"
    },
    {
        "id": "7343374",
        "src640": "https://cdn.pixabay.com/photo/2022/07/25/10/18/cat-7343374_640.jpg",
        "src1280": "https://cdn.pixabay.com/photo/2022/07/25/10/18/cat-7343374_1280.jpg"
    },
    {
        "id": "5632698",
        "src640": "https://cdn.pixabay.com/photo/2020/10/06/16/17/butterfly-5632698_640.jpg",
        "src1280": "https://cdn.pixabay.com/photo/2020/10/06/16/17/butterfly-5632698_1280.jpg"
    },
    {
        "id": "504765",
        "src640": "https://cdn.pixabay.com/photo/2014/10/27/07/11/cat-504765_640.jpg",
        "src1280": "https://cdn.pixabay.com/photo/2014/10/27/07/11/cat-504765_1280.jpg"
    },
    {
        "id": "2124521",
        "src640": "https://cdn.pixabay.com/photo/2017/03/07/16/23/cat-2124521_640.jpg",
        "src1280": "https://cdn.pixabay.com/photo/2017/03/07/16/23/cat-2124521_1280.jpg"
    },
    {
        "id": "1858536",
        "src640": "https://cdn.pixabay.com/photo/2016/11/25/14/30/cat-siberian-1858536_640.jpg",
        "src1280": "https://cdn.pixabay.com/photo/2016/11/25/14/30/cat-siberian-1858536_1280.jpg"
    },
    {
        "id": "755994",
        "src640": "https://cdn.pixabay.com/photo/2015/05/07/02/57/window-755994_640.jpg",
        "src1280": "https://cdn.pixabay.com/photo/2015/05/07/02/57/window-755994_1280.jpg"
    },
    {
        "id": "2066817",
        "src640": "https://cdn.pixabay.com/photo/2017/02/14/20/06/ice-cream-2066817_640.jpg",
        "src1280": "https://cdn.pixabay.com/photo/2017/02/14/20/06/ice-cream-2066817_1280.jpg"
    },
    {
        "id": "4655517",
        "src640": "https://cdn.pixabay.com/photo/2019/11/26/20/59/cat-4655517_640.jpg",
        "src1280": "https://cdn.pixabay.com/photo/2019/11/26/20/59/cat-4655517_1280.jpg"
    },
    {
        "id": "8380432",
        "src640": "https://cdn.pixabay.com/photo/2023/11/11/05/37/cat-8380432_640.jpg",
        "src1280": "https://cdn.pixabay.com/photo/2023/11/11/05/37/cat-8380432_1280.jpg"
    },
    {
        "id": "2678666",
        "src640": "https://cdn.pixabay.com/photo/2017/08/24/22/27/cat-baby-2678666_640.jpg",
        "src1280": "https://cdn.pixabay.com/photo/2017/08/24/22/27/cat-baby-2678666_1280.jpg"
    },
    {
        "id": "1480497",
        "src640": "https://cdn.pixabay.com/photo/2016/06/26/14/31/cat-1480497_640.jpg",
        "src1280": "https://cdn.pixabay.com/photo/2016/06/26/14/31/cat-1480497_1280.jpg"
    },
    {
        "id": "7928147",
        "src640": "https://cdn.pixabay.com/photo/2023/04/15/17/07/cat-7928147_640.jpg",
        "src1280": "https://cdn.pixabay.com/photo/2023/04/15/17/07/cat-7928147_1280.jpg"
    },
    {
        "id": "6400066",
        "src640": "https://cdn.pixabay.com/photo/2021/07/09/21/29/kitten-6400066_640.jpg",
        "src1280": "https://cdn.pixabay.com/photo/2021/07/09/21/29/kitten-6400066_1280.jpg"
    },
    {
        "id": "3031428",
        "src640": "https://cdn.pixabay.com/photo/2017/12/21/09/37/cat-3031428_640.jpg",
        "src1280": "https://cdn.pixabay.com/photo/2017/12/21/09/37/cat-3031428_1280.jpg"
    },
    {
        "id": "3443691",
        "src640": "https://cdn.pixabay.com/photo/2018/05/31/11/22/morning-3443691_640.jpg",
        "src1280": "https://cdn.pixabay.com/photo/2018/05/31/11/22/morning-3443691_1280.jpg"
    },
    {
        "id": "1417449",
        "src640": "https://cdn.pixabay.com/photo/2016/05/26/15/57/cat-1417449_640.jpg",
        "src1280": "https://cdn.pixabay.com/photo/2016/05/26/15/57/cat-1417449_1280.jpg"
    },
    {
        "id": "1670443",
        "src640": "https://cdn.pixabay.com/photo/2016/09/14/20/51/cat-mother-1670443_640.jpg",
        "src1280": "https://cdn.pixabay.com/photo/2016/09/14/20/51/cat-mother-1670443_1280.jpg"
    },
    {
        "id": "4483131",
        "src640": "https://cdn.pixabay.com/photo/2019/09/17/10/26/alice-in-wonderland-4483131_640.jpg",
        "src1280": "https://cdn.pixabay.com/photo/2019/09/17/10/26/alice-in-wonderland-4483131_1280.jpg"
    },
    {
        "id": "3201562",
        "src640": "https://cdn.pixabay.com/photo/2018/03/05/19/35/bastet-cat-3201562_640.jpg",
        "src1280": "https://cdn.pixabay.com/photo/2018/03/05/19/35/bastet-cat-3201562_1280.jpg"
    },
    {
        "id": "8423160",
        "src640": "https://cdn.pixabay.com/photo/2023/12/01/08/19/ai-generated-8423160_640.jpg",
        "src1280": "https://cdn.pixabay.com/photo/2023/12/01/08/19/ai-generated-8423160_1280.jpg"
    },
    {
        "id": "1735024",
        "src640": "https://cdn.pixabay.com/photo/2016/10/12/16/26/black-cat-1735024_640.jpg",
        "src1280": "https://cdn.pixabay.com/photo/2016/10/12/16/26/black-cat-1735024_1280.jpg"
    },
    {
        "id": "314893",
        "src640": "https://cdn.pixabay.com/photo/2014/04/05/11/10/cat-314893_640.jpg",
        "src1280": "https://cdn.pixabay.com/photo/2014/04/05/11/10/cat-314893_1280.jpg"
    },
    {
        "id": "8315430",
        "src640": "https://cdn.pixabay.com/photo/2023/10/14/17/47/cat-8315430_640.jpg",
        "src1280": "https://cdn.pixabay.com/photo/2023/10/14/17/47/cat-8315430_1280.jpg"
    },
    {
        "id": "8420098",
        "src640": "https://cdn.pixabay.com/photo/2023/11/29/18/02/ai-generated-8420098_640.jpg",
        "src1280": "https://cdn.pixabay.com/photo/2023/11/29/18/02/ai-generated-8420098_1280.jpg"
    },
    {
        "id": "7924725",
        "src640": "https://cdn.pixabay.com/photo/2023/04/14/10/26/cat-7924725_640.jpg",
        "src1280": "https://cdn.pixabay.com/photo/2023/04/14/10/26/cat-7924725_1280.jpg"
    },
    {
        "id": "3702808",
        "src640": "https://cdn.pixabay.com/photo/2018/09/25/18/40/cat-3702808_640.jpg",
        "src1280": "https://cdn.pixabay.com/photo/2018/09/25/18/40/cat-3702808_1280.jpg"
    },
    {
        "id": "2042655",
        "src640": "https://cdn.pixabay.com/photo/2017/02/06/11/51/bengal-cat-2042655_640.jpg",
        "src1280": "https://cdn.pixabay.com/photo/2017/02/06/11/51/bengal-cat-2042655_1280.jpg"
    },
    {
        "id": "1763069",
        "src640": "https://cdn.pixabay.com/photo/2016/10/23/15/03/cat-1763069_640.jpg",
        "src1280": "https://cdn.pixabay.com/photo/2016/10/23/15/03/cat-1763069_1280.jpg"
    },
    {
        "id": "2235842",
        "src640": "https://cdn.pixabay.com/photo/2017/04/16/21/16/cat-2235842_640.jpg",
        "src1280": "https://cdn.pixabay.com/photo/2017/04/16/21/16/cat-2235842_1280.jpg"
    },
    {
        "id": "5960351",
        "src640": "https://cdn.pixabay.com/photo/2021/01/29/09/22/fantasy-5960351_640.jpg",
        "src1280": "https://cdn.pixabay.com/photo/2021/01/29/09/22/fantasy-5960351_1280.jpg"
    },
    {
        "id": "3702840",
        "src640": "https://cdn.pixabay.com/photo/2018/09/25/18/57/vase-3702840_640.jpg",
        "src1280": "https://cdn.pixabay.com/photo/2018/09/25/18/57/vase-3702840_1280.jpg"
    },
    {
        "id": "7184386",
        "src640": "https://cdn.pixabay.com/photo/2022/05/09/11/44/sphynx-cat-7184386_640.jpg",
        "src1280": "https://cdn.pixabay.com/photo/2022/05/09/11/44/sphynx-cat-7184386_1280.jpg"
    },
    {
        "id": "5715010",
        "src640": "https://cdn.pixabay.com/photo/2020/11/05/12/30/witch-5715010_640.jpg",
        "src1280": "https://cdn.pixabay.com/photo/2020/11/05/12/30/witch-5715010_1280.jpg"
    },
    {
        "id": "8382171",
        "src640": "https://cdn.pixabay.com/photo/2023/11/12/03/19/cat-8382171_640.jpg",
        "src1280": "https://cdn.pixabay.com/photo/2023/11/12/03/19/cat-8382171_1280.jpg"
    },
    {
        "id": "3055306",
        "src640": "https://cdn.pixabay.com/photo/2018/01/02/01/21/mati-3055306_640.jpg",
        "src1280": "https://cdn.pixabay.com/photo/2018/01/02/01/21/mati-3055306_1280.jpg"
    },
    {
        "id": "7567714",
        "src640": "https://cdn.pixabay.com/photo/2022/11/03/15/10/king-cat-7567714_640.jpg",
        "src1280": "https://cdn.pixabay.com/photo/2022/11/03/15/10/king-cat-7567714_1280.jpg"
    },
    {
        "id": "8347817",
        "src640": "https://cdn.pixabay.com/photo/2023/10/28/15/41/cat-8347817_640.jpg",
        "src1280": "https://cdn.pixabay.com/photo/2023/10/28/15/41/cat-8347817_1280.jpg"
    },
    {
        "id": "8247358",
        "src640": "https://cdn.pixabay.com/photo/2023/09/11/17/51/cat-8247358_640.jpg",
        "src1280": "https://cdn.pixabay.com/photo/2023/09/11/17/51/cat-8247358_1280.jpg"
    },
    {
        "id": "3499972",
        "src640": "https://cdn.pixabay.com/photo/2018/06/26/18/34/alice-3499972_640.jpg",
        "src1280": "https://cdn.pixabay.com/photo/2018/06/26/18/34/alice-3499972_1280.jpg"
    },
    {
        "id": "551556",
        "src640": "https://cdn.pixabay.com/photo/2014/11/30/14/11/kitty-551556_640.jpg",
        "src1280": "https://cdn.pixabay.com/photo/2014/11/30/14/11/kitty-551556_1280.jpg"
    },
    {
        "id": "295904",
        "src640": "https://cdn.pixabay.com/photo/2014/03/25/00/54/cat-295904_640.jpg",
        "src1280": "https://cdn.pixabay.com/photo/2014/03/25/00/54/cat-295904_1280.jpg"
    },
    {
        "id": "5902084",
        "src640": "https://cdn.pixabay.com/photo/2021/01/09/11/38/cat-5902084_640.jpg",
        "src1280": "https://cdn.pixabay.com/photo/2021/01/09/11/38/cat-5902084_1280.jpg"
    }
]