[
    {
        "id": "102513",
        "src640": "https://cdn.pixabay.com/photo/2013/04/10/12/28/cheetah-102513_640.jpg",
        "src1280": "https://cdn.pixabay.com/photo/2013/04/10/12/28/cheetah-102513_1280.jpg"
    },
    {
        "id": "8417264",
        "src640": "https://cdn.pixabay.com/photo/2023/11/28/11/34/ai-generated-8417264_640.jpg",
        "src1280": "https://cdn.pixabay.com/photo/2023/11/28/11/34/ai-generated-8417264_1280.jpg"
    },
    {
        "id": "8209797",
        "src640": "https://cdn.pixabay.com/photo/2023/08/24/04/51/ai-generated-8209797_640.jpg",
        "src1280": "https://cdn.pixabay.com/photo/2023/08/24/04/51/ai-generated-8209797_1280.jpg"
    },
    {
        "id": "5863445",
        "src640": "https://cdn.pixabay.com/photo/2020/12/27/09/35/lion-5863445_640.jpg",
        "src1280": "https://cdn.pixabay.com/photo/2020/12/27/09/35/lion-5863445_1280.jpg"
    },
    {
        "id": "6937367",
        "src640": "https://cdn.pixabay.com/photo/2022/01/14/14/07/cat-6937367_640.jpg",
        "src1280": "https://cdn.pixabay.com/photo/2022/01/14/14/07/cat-6937367_1280.jpg"
    },
    {
        "id": "1548583",
        "src640": "https://cdn.pixabay.com/photo/2016/07/28/17/26/cat-1548583_640.jpg",
        "src1280": "https://cdn.pixabay.com/photo/2016/07/28/17/26/cat-1548583_1280.jpg"
    },
    {
        "id": "8057150",
        "src640": "https://cdn.pixabay.com/photo/2023/06/11/22/53/cat-8057150_640.jpg",
        "src1280": "https://cdn.pixabay.com/photo/2023/06/11/22/53/cat-8057150_1280.jpg"
    },
    {
        "id": "6291458",
        "src640": "https://cdn.pixabay.com/photo/2021/05/28/17/06/british-shorthair-6291458_640.jpg",
        "src1280": "https://cdn.pixabay.com/photo/2021/05/28/17/06/british-shorthair-6291458_1280.jpg"
    },
    {
        "id": "794342",
        "src640": "https://cdn.pixabay.com/photo/2015/06/01/21/33/british-shorthair-794342_640.jpg",
        "src1280": "https://cdn.pixabay.com/photo/2015/06/01/21/33/british-shorthair-794342_1280.jpg"
    },
    {
        "id": "8053677",
        "src640": "https://cdn.pixabay.com/photo/2023/06/10/10/06/cat-8053677_640.jpg",
        "src1280": "https://cdn.pixabay.com/photo/2023/06/10/10/06/cat-8053677_1280.jpg"
    },
    {
        "id": "2856375",
        "src640": "https://cdn.pixabay.com/photo/2017/10/16/07/08/cat-2856375_640.jpg",
        "src1280": "https://cdn.pixabay.com/photo/2017/10/16/07/08/cat-2856375_1280.jpg"
    },
    {
        "id": "5631928",
        "src640": "https://cdn.pixabay.com/photo/2020/10/06/11/17/cat-5631928_640.jpg",
        "src1280": "https://cdn.pixabay.com/photo/2020/10/06/11/17/cat-5631928_1280.jpg"
    },
    {
        "id": "3590303",
        "src640": "https://cdn.pixabay.com/photo/2018/08/07/17/38/tower-3590303_640.jpg",
        "src1280": "https://cdn.pixabay.com/photo/2018/08/07/17/38/tower-3590303_1280.jpg"
    },
    {
        "id": "7688881",
        "src640": "https://cdn.pixabay.com/photo/2022/12/31/15/40/cat-7688881_640.jpg",
        "src1280": "https://cdn.pixabay.com/photo/2022/12/31/15/40/cat-7688881_1280.jpg"
    },
    {
        "id": "3778010",
        "src640": "https://cdn.pixabay.com/photo/2018/10/28/06/56/cat-3778010_640.jpg",
        "src1280": "https://cdn.pixabay.com/photo/2018/10/28/06/56/cat-3778010_1280.jpg"
    },
    {
        "id": "1620963",
        "src640": "https://cdn.pixabay.com/photo/2016/08/25/23/52/cat-1620963_640.jpg",
        "src1280": "https://cdn.pixabay.com/photo/2016/08/25/23/52/cat-1620963_1280.jpg"
    },
    {
        "id": "3777956",
        "src640": "https://cdn.pixabay.com/photo/2018/10/28/05/46/cat-3777956_640.jpg",
        "src1280": "https://cdn.pixabay.com/photo/2018/10/28/05/46/cat-3777956_1280.jpg"
    },
    {
        "id": "198343",
        "src640": "https://cdn.pixabay.com/photo/2013/10/20/10/39/cat-198343_640.jpg",
        "src1280": "https://cdn.pixabay.com/photo/2013/10/20/10/39/cat-198343_1280.jpg"
    },
    {
        "id": "3466580",
        "src640": "https://cdn.pixabay.com/photo/2018/06/10/14/05/kitty-3466580_640.jpg",
        "src1280": "https://cdn.pixabay.com/photo/2018/06/10/14/05/kitty-3466580_1280.jpg"
    },
    {
        "id": "4919903",
        "src640": "https://cdn.pixabay.com/photo/2020/03/10/18/55/cat-4919903_640.jpg",
        "src1280": "https://cdn.pixabay.com/photo/2020/03/10/18/55/cat-4919903_1280.jpg"
    },
    {
        "id": "355212",
        "src640": "https://cdn.pixabay.com/photo/2014/05/27/08/35/cat-355212_640.jpg",
        "src1280": "https://cdn.pixabay.com/photo/2014/05/27/08/35/cat-355212_1280.jpg"
    },
    {
        "id": "8406904",
        "src640": "https://cdn.pixabay.com/photo/2023/11/23/03/06/ai-generated-8406904_640.jpg",
        "src1280": "https://cdn.pixabay.com/photo/2023/11/23/03/06/ai-generated-8406904_1280.jpg"
    },
    {
        "id": "6463871",
        "src640": "https://cdn.pixabay.com/photo/2021/07/13/15/40/kitten-6463871_640.jpg",
        "src1280": "https://cdn.pixabay.com/photo/2021/07/13/15/40/kitten-6463871_1280.jpg"
    },
    {
        "id": "1500191",
        "src640": "https://cdn.pixabay.com/photo/2016/07/06/09/04/cat-1500191_640.jpg",
        "src1280": "https://cdn.pixabay.com/photo/2016/07/06/09/04/cat-1500191_1280.jpg"
    },
    {
        "id": "3883269",
        "src640": "https://cdn.pixabay.com/photo/2018/12/18/23/22/kitty-3883269_640.jpg",
        "src1280": "https://cdn.pixabay.com/photo/2018/12/18/23/22/kitty-3883269_1280.jpg"
    },
    {
        "id": "3782436",
        "src640": "https://cdn.pixabay.com/photo/2018/10/29/23/37/cat-3782436_640.jpg",
        "src1280": "https://cdn.pixabay.com/photo/2018/10/29/23/37/cat-3782436_1280.jpg"
    },
    {
        "id": "1196155",
        "src640": "https://cdn.pixabay.com/photo/2016/02/12/14/10/cat-1196155_640.jpg",
        "src1280": "https://cdn.pixabay.com/photo/2016/02/12/14/10/cat-1196155_1280.jpg"
    },
    {
        "id": "7728914",
        "src640": "https://cdn.pixabay.com/photo/2023/01/19/11/41/cat-7728914_640.jpg",
        "src1280": "https://cdn.pixabay.com/photo/2023/01/19/11/41/cat-7728914_1280.jpg"
    },
    {
        "id": "8313912",
        "src640": "https://cdn.pixabay.com/photo/2023/10/14/04/19/cat-8313912_640.jpg",
        "src1280": "https://cdn.pixabay.com/photo/2023/10/14/04/19/cat-8313912_1280.jpg"
    },
    {
        "id": "1099715",
        "src640": "https://cdn.pixabay.com/photo/2015/12/19/12/43/cat-1099715_640.jpg",
        "src1280": "https://cdn.pixabay.com/photo/2015/12/19/12/43/cat-1099715_1280.jpg"
    },
    {
        "id": "6718397",
        "src640": "https://cdn.pixabay.com/photo/2021/10/17/13/53/animal-6718397_640.jpg",
        "src1280": "https://cdn.pixabay.com/photo/2021/10/17/13/53/animal-6718397_1280.jpg"
    },
    {
        "id": "3624066",
        "src640": "https://cdn.pixabay.com/photo/2018/08/22/16/44/woman-walking-cat-3624066_640.jpg",
        "src1280": "https://cdn.pixabay.com/photo/2018/08/22/16/44/woman-walking-cat-3624066_1280.jpg"
    },
    {
        "id": "3423366",
        "src640": "https://cdn.pixabay.com/photo/2018/05/23/06/43/tiger-3423366_640.jpg",
        "src1280": "https://cdn.pixabay.com/photo/2018/05/23/06/43/tiger-3423366_1280.jpg"
    },
    {
        "id": "8123962",
        "src640": "https://cdn.pixabay.com/photo/2023/07/13/06/02/ai-generated-8123962_640.jpg",
        "src1280": "https://cdn.pixabay.com/photo/2023/07/13/06/02/ai-generated-8123962_1280.jpg"
    },
    {
        "id": "3481227",
        "src640": "https://cdn.pixabay.com/photo/2018/06/17/19/30/cat-3481227_640.jpg",
        "src1280": "https://cdn.pixabay.com/photo/2018/06/17/19/30/cat-3481227_1280.jpg"
    },
    {
        "id": "3431481",
        "src640": "https://cdn.pixabay.com/photo/2018/05/26/14/54/cats-3431481_640.jpg",
        "src1280": "https://cdn.pixabay.com/photo/2018/05/26/14/54/cats-3431481_1280.jpg"
    },
    {
        "id": "7283261",
        "src640": "https://cdn.pixabay.com/photo/2022/06/25/10/29/cat-7283261_640.jpg",
        "src1280": "https://cdn.pixabay.com/photo/2022/06/25/10/29/cat-7283261_1280.jpg"
    },
    {
        "id": "7644751",
        "src640": "https://cdn.pixabay.com/photo/2022/12/09/06/54/cat-7644751_640.jpg",
        "src1280": "https://cdn.pixabay.com/photo/2022/12/09/06/54/cat-7644751_1280.jpg"
    },
    {
        "id": "1443062",
        "src640": "https://cdn.pixabay.com/photo/2016/06/08/01/45/cat-1443062_640.jpg",
        "src1280": "https://cdn.pixabay.com/photo/2016/06/08/01/45/cat-1443062_1280.jpg"
    },
    {
        "id": "6321756",
        "src640": "https://cdn.pixabay.com/photo/2021/06/08/21/18/bkh-6321756_640.jpg",
        "src1280": "https://cdn.pixabay.com/photo/2021/06/08/21/18/bkh-6321756_1280.jpg"
    },
    {
        "id": "515298",
        "src640": "https://cdn.pixabay.com/photo/2014/11/03/14/44/cat-515298_640.jpg",
        "src1280": "https://cdn.pixabay.com/photo/2014/11/03/14/44/cat-515298_1280.jpg"
    },
    {
        "id": "487104",
        "src640": "https://cdn.pixabay.com/photo/2014/10/13/18/11/woman-487104_640.jpg",
        "src1280": "https://cdn.pixabay.com/photo/2014/10/13/18/11/woman-487104_1280.jpg"
    },
    {
        "id": "3433562",
        "src640": "https://cdn.pixabay.com/photo/2018/05/27/14/00/pet-3433562_640.jpg",
        "src1280": "https://cdn.pixabay.com/photo/2018/05/27/14/00/pet-3433562_1280.jpg"
    },
    {
        "id": "7835108",
        "src640": "https://cdn.pixabay.com/photo/2023/03/07/06/57/ai-generated-7835108_640.jpg",
        "src1280": "https://cdn.pixabay.com/photo/2023/03/07/06/57/ai-generated-7835108_1280.jpg"
    },
    {
        "id": "8202021",
        "src640": "https://cdn.pixabay.com/photo/2023/08/20/09/12/ai-generated-8202021_640.jpg",
        "src1280": "https://cdn.pixabay.com/photo/2023/08/20/09/12/ai-generated-8202021_1280.jpg"
    },
    {
        "id": "8187753",
        "src640": "https://cdn.pixabay.com/photo/2023/08/13/14/53/ai-generated-8187753_640.jpg",
        "src1280": "https://cdn.pixabay.com/photo/2023/08/13/14/53/ai-generated-8187753_1280.jpg"
    },
    {
        "id": "7152704",
        "src640": "https://cdn.pixabay.com/photo/2022/04/24/01/27/cat-7152704_640.jpg",
        "src1280": "https://cdn.pixabay.com/photo/2022/04/24/01/27/cat-7152704_1280.jpg"
    },
    {
        "id": "3276268",
        "src640": "https://cdn.pixabay.com/photo/2018/03/30/19/17/cat-3276268_640.jpg",
        "src1280": "https://cdn.pixabay.com/photo/2018/03/30/19/17/cat-3276268_1280.jpg"
    },
    {
        "id": "8056214",
        "src640": "https://cdn.pixabay.com/photo/2023/06/11/14/48/ai-generated-8056214_640.jpg",
        "src1280": "https://cdn.pixabay.com/photo/2023/06/11/14/48/ai-generated-8056214_1280.jpg"
    },
    {
        "id": "5734742",
        "src640": "https://cdn.pixabay.com/photo/2020/11/12/08/16/cat-5734742_640.jpg",
        "src1280": "https://cdn.pixabay.com/photo/2020/11/12/08/16/cat-5734742_1280.jpg"
    },
    {
        "id": "8251445",
        "src640": "https://cdn.pixabay.com/photo/2023/09/13/18/42/animal-8251445_640.jpg",
        "src1280": "https://cdn.pixabay.com/photo/2023/09/13/18/42/animal-8251445_1280.jpg"
    },
    {
        "id": "636601",
        "src640": "https://cdn.pixabay.com/photo/2015/02/14/19/07/animal-636601_640.jpg",
        "src1280": "https://cdn.pixabay.com/photo/2015/02/14/19/07/animal-636601_1280.jpg"
    },
    {
        "id": "8413505",
        "src640": "https://cdn.pixabay.com/photo/2023/11/26/12/46/ai-generated-8413505_640.jpg",
        "src1280": "https://cdn.pixabay.com/photo/2023/11/26/12/46/ai-generated-8413505_1280.jpg"
    },
    {
        "id": "2376803",
        "src640": "https://cdn.pixabay.com/photo/2017/06/06/09/52/cat-2376803_640.jpg",
        "src1280": "https://cdn.pixabay.com/photo/2017/06/06/09/52/cat-2376803_1280.jpg"
    },
    {
        "id": "2538551",
        "src640": "https://cdn.pixabay.com/photo/2017/07/25/15/31/greece-2538551_640.jpg",
        "src1280": "https://cdn.pixabay.com/photo/2017/07/25/15/31/greece-2538551_1280.jpg"
    },
    {
        "id": "1454222",
        "src640": "https://cdn.pixabay.com/photo/2016/06/13/13/31/cat-1454222_640.jpg",
        "src1280": "https://cdn.pixabay.com/photo/2016/06/13/13/31/cat-1454222_1280.jpg"
    },
    {
        "id": "8197714",
        "src640": "https://cdn.pixabay.com/photo/2023/08/18/04/04/cat-8197714_640.jpg",
        "src1280": "https://cdn.pixabay.com/photo/2023/08/18/04/04/cat-8197714_1280.jpg"
    },
    {
        "id": "1484822",
        "src640": "https://cdn.pixabay.com/photo/2016/06/28/15/08/cat-1484822_640.jpg",
        "src1280": "https://cdn.pixabay.com/photo/2016/06/28/15/08/cat-1484822_1280.jpg"
    },
    {
        "id": "6788987",
        "src640": "https://cdn.pixabay.com/photo/2021/11/12/13/09/cat-6788987_640.jpg",
        "src1280": "https://cdn.pixabay.com/photo/2021/11/12/13/09/cat-6788987_1280.jpg"
    },
    {
        "id": "4630605",
        "src640": "https://cdn.pixabay.com/photo/2019/11/16/16/56/cat-4630605_640.jpg",
        "src1280": "https://cdn.pixabay.com/photo/2019/11/16/16/56/cat-4630605_1280.jpg"
    },
    {
        "id": "258937",
        "src640": "https://cdn.pixabay.com/photo/2014/02/05/12/23/cat-258937_640.jpg",
        "src1280": "https://cdn.pixabay.com/photo/2014/02/05/12/23/cat-258937_1280.jpg"
    },
    {
        "id": "1549640",
        "src640": "https://cdn.pixabay.com/photo/2016/07/28/20/47/cat-1549640_640.jpg",
        "src1280": "https://cdn.pixabay.com/photo/2016/07/28/20/47/cat-1549640_1280.jpg"
    },
    {
        "id": "1386791",
        "src640": "https://cdn.pixabay.com/photo/2016/05/12/00/51/gata-1386791_640.jpg",
        "src1280": "https://cdn.pixabay.com/photo/2016/05/12/00/51/gata-1386791_1280.jpg"
    },
    {
        "id": "6251364",
        "src640": "https://cdn.pixabay.com/photo/2021/05/13/17/08/cat-6251364_640.jpg",
        "src1280": "https://cdn.pixabay.com/photo/2021/05/13/17/08/cat-6251364_1280.jpg"
    },
    {
        "id": "7942533",
        "src640": "https://cdn.pixabay.com/photo/2023/04/21/20/01/ai-generated-7942533_640.jpg",
        "src1280": "https://cdn.pixabay.com/photo/2023/04/21/20/01/ai-generated-7942533_1280.jpg"
    },
    {
        "id": "1502665",
        "src640": "https://cdn.pixabay.com/photo/2016/07/07/16/22/domestic-cat-1502665_640.jpg",
        "src1280": "https://cdn.pixabay.com/photo/2016/07/07/16/22/domestic-cat-1502665_1280.jpg"
    },
    {
        "id": "3292966",
        "src640": "https://cdn.pixabay.com/photo/2018/04/05/14/27/cat-3292966_640.jpg",
        "src1280": "https://cdn.pixabay.com/photo/2018/04/05/14/27/cat-3292966_1280.jpg"
    },
    {
        "id": "4434876",
        "src640": "https://cdn.pixabay.com/photo/2019/08/27/18/24/catzilla-4434876_640.jpg",
        "src1280": "https://cdn.pixabay.com/photo/2019/08/27/18/24/catzilla-4434876_1280.jpg"
    },
    {
        "id": "1219320",
        "src640": "https://cdn.pixabay.com/photo/2016/02/24/08/05/cats-1219320_640.jpg",
        "src1280": "https://cdn.pixabay.com/photo/2016/02/24/08/05/cats-1219320_1280.jpg"
    },
    {
        "id": "3637030",
        "src640": "https://cdn.pixabay.com/photo/2018/08/28/09/41/cat-3637030_640.jpg",
        "src1280": "https://cdn.pixabay.com/photo/2018/08/28/09/41/cat-3637030_1280.jpg"
    },
    {
        "id": "7852998",
        "src640": "https://cdn.pixabay.com/photo/2023/03/14/19/08/ai-generated-7852998_640.jpg",
        "src1280": "https://cdn.pixabay.com/photo/2023/03/14/19/08/ai-generated-7852998_1280.jpg"
    },
    {
        "id": "625364",
        "src640": "https://cdn.pixabay.com/photo/2015/02/05/20/01/cat-625364_640.jpg",
        "src1280": "https://cdn.pixabay.com/photo/2015/02/05/20/01/cat-625364_1280.jpg"
    },
    {
        "id": "8053672",
        "src640": "https://cdn.pixabay.com/photo/2023/06/10/10/04/kitten-8053672_640.jpg",
        "src1280": "https://cdn.pixabay.com/photo/2023/06/10/10/04/kitten-8053672_1280.jpg"
    },
    {
        "id": "959541",
        "src640": "https://cdn.pixabay.com/photo/2015/09/26/19/00/cat-959541_640.jpg",
        "src1280": "https://cdn.pixabay.com/photo/2015/09/26/19/00/cat-959541_1280.jpg"
    },
    {
        "id": "629821",
        "src640": "https://cdn.pixabay.com/photo/2015/02/09/15/55/cat-629821_640.jpg",
        "src1280": "https://cdn.pixabay.com/photo/2015/02/09/15/55/cat-629821_1280.jpg"
    },
    {
        "id": "3408613",
        "src640": "https://cdn.pixabay.com/photo/2018/05/17/14/03/cartoon-3408613_640.jpg",
        "src1280": "https://cdn.pixabay.com/photo/2018/05/17/14/03/cartoon-3408613_1280.jpg"
    },
    {
        "id": "6005134",
        "src640": "https://cdn.pixabay.com/photo/2021/02/11/12/36/cat-6005134_640.jpg",
        "src1280": "https://cdn.pixabay.com/photo/2021/02/11/12/36/cat-6005134_1280.jpg"
    },
    {
        "id": "8211322",
        "src640": "https://cdn.pixabay.com/photo/2023/08/24/18/13/cartoon-8211322_640.jpg",
        "src1280": "https://cdn.pixabay.com/photo/2023/08/24/18/13/cartoon-8211322_1280.jpg"
    },
    {
        "id": "3278583",
        "src640": "https://cdn.pixabay.com/photo/2018/03/31/16/52/cat-3278583_640.jpg",
        "src1280": "https://cdn.pixabay.com/photo/2018/03/31/16/52/cat-3278583_1280.jpg"
    },
    {
        "id": "957802",
        "src640": "https://cdn.pixabay.com/photo/2015/09/25/17/05/cat-957802_640.jpg",
        "src1280": "https://cdn.pixabay.com/photo/2015/09/25/17/05/cat-957802_1280.jpg"
    },
    {
        "id": "7816042",
        "src640": "https://cdn.pixabay.com/photo/2023/02/26/14/55/ai-generated-7816042_640.jpg",
        "src1280": "https://cdn.pixabay.com/photo/2023/02/26/14/55/ai-generated-7816042_1280.jpg"
    },
    {
        "id": "3763793",
        "src640": "https://cdn.pixabay.com/photo/2018/10/21/20/43/cat-3763793_640.jpg",
        "src1280": "https://cdn.pixabay.com/photo/2018/10/21/20/43/cat-3763793_1280.jpg"
    },
    {
        "id": "7816105",
        "src640": "https://cdn.pixabay.com/photo/2023/02/26/15/19/ai-generated-7816105_640.jpg",
        "src1280": "https://cdn.pixabay.com/photo/2023/02/26/15/19/ai-generated-7816105_1280.jpg"
    },
    {
        "id": "628286",
        "src640": "https://cdn.pixabay.com/photo/2015/02/08/10/28/cat-628286_640.jpg",
        "src1280": "https://cdn.pixabay.com/photo/2015/02/08/10/28/cat-628286_1280.jpg"
    },
    {
        "id": "406338",
        "src640": "https://cdn.pixabay.com/photo/2014/07/31/14/35/cat-406338_640.jpg",
        "src1280": "https://cdn.pixabay.com/photo/2014/07/31/14/35/cat-406338_1280.jpg"
    },
    {
        "id": "8056209",
        "src640": "https://cdn.pixabay.com/photo/2023/06/11/14/47/ai-generated-8056209_640.jpg",
        "src1280": "https://cdn.pixabay.com/photo/2023/06/11/14/47/ai-generated-8056209_1280.jpg"
    }
]