[
    {
        "id": "3598526",
        "src640": "https://cdn.pixabay.com/photo/2018/08/11/12/04/cat-3598526_640.jpg",
        "src1280": "https://cdn.pixabay.com/photo/2018/08/11/12/04/cat-3598526_1280.jpg"
    },
    {
        "id": "5505927",
        "src640": "https://cdn.pixabay.com/photo/2020/08/21/11/59/cat-5505927_640.jpg",
        "src1280": "https://cdn.pixabay.com/photo/2020/08/21/11/59/cat-5505927_1280.jpg"
    },
    {
        "id": "4966692",
        "src640": "https://cdn.pixabay.com/photo/2020/03/25/09/47/cat-4966692_640.jpg",
        "src1280": "https://cdn.pixabay.com/photo/2020/03/25/09/47/cat-4966692_1280.jpg"
    },
    {
        "id": "6718199",
        "src640": "https://cdn.pixabay.com/photo/2021/10/17/12/49/cat-6718199_640.jpg",
        "src1280": "https://cdn.pixabay.com/photo/2021/10/17/12/49/cat-6718199_1280.jpg"
    },
    {
        "id": "6066692",
        "src640": "https://cdn.pixabay.com/photo/2021/03/04/02/26/cat-6066692_640.jpg",
        "src1280": "https://cdn.pixabay.com/photo/2021/03/04/02/26/cat-6066692_1280.jpg"
    },
    {
        "id": "6948743",
        "src640": "https://cdn.pixabay.com/photo/2022/01/19/04/43/animal-6948743_640.jpg",
        "src1280": "https://cdn.pixabay.com/photo/2022/01/19/04/43/animal-6948743_1280.jpg"
    },
    {
        "id": "5883232",
        "src640": "https://cdn.pixabay.com/photo/2021/01/02/23/19/cat-5883232_640.jpg",
        "src1280": "https://cdn.pixabay.com/photo/2021/01/02/23/19/cat-5883232_1280.jpg"
    },
    {
        "id": "439105",
        "src640": "https://cdn.pixabay.com/photo/2014/09/08/12/09/cat-439105_640.jpg",
        "src1280": "https://cdn.pixabay.com/photo/2014/09/08/12/09/cat-439105_1280.jpg"
    },
    {
        "id": "6662506",
        "src640": "https://cdn.pixabay.com/photo/2021/09/27/23/41/animal-6662506_640.jpg",
        "src1280": "https://cdn.pixabay.com/photo/2021/09/27/23/41/animal-6662506_1280.jpg"
    },
    {
        "id": "5946443",
        "src640": "https://cdn.pixabay.com/photo/2021/01/24/20/37/cat-5946443_640.jpg",
        "src1280": "https://cdn.pixabay.com/photo/2021/01/24/20/37/cat-5946443_1280.jpg"
    },
    {
        "id": "6817225",
        "src640": "https://cdn.pixabay.com/photo/2021/11/22/19/12/cat-6817225_640.jpg",
        "src1280": "https://cdn.pixabay.com/photo/2021/11/22/19/12/cat-6817225_1280.jpg"
    },
    {
        "id": "6247187",
        "src640": "https://cdn.pixabay.com/photo/2021/05/12/02/00/cat-6247187_640.jpg",
        "src1280": "https://cdn.pixabay.com/photo/2021/05/12/02/00/cat-6247187_1280.jpg"
    },
    {
        "id": "4133447",
        "src640": "https://cdn.pixabay.com/photo/2019/04/17/06/14/cat-4133447_640.jpg",
        "src1280": "https://cdn.pixabay.com/photo/2019/04/17/06/14/cat-4133447_1280.jpg"
    },
    {
        "id": "735468",
        "src640": "https://cdn.pixabay.com/photo/2015/04/22/22/54/cat-735468_640.jpg",
        "src1280": "https://cdn.pixabay.com/photo/2015/04/22/22/54/cat-735468_1280.jpg"
    },
    {
        "id": "8200336",
        "src640": "https://cdn.pixabay.com/photo/2023/08/19/11/28/ai-generated-8200336_640.jpg",
        "src1280": "https://cdn.pixabay.com/photo/2023/08/19/11/28/ai-generated-8200336_1280.jpg"
    },
    {
        "id": "8314591",
        "src640": "https://cdn.pixabay.com/photo/2023/10/14/11/13/ai-generated-8314591_640.jpg",
        "src1280": "https://cdn.pixabay.com/photo/2023/10/14/11/13/ai-generated-8314591_1280.jpg"
    },
    {
        "id": "7755472",
        "src640": "https://cdn.pixabay.com/photo/2023/01/30/11/54/cat-7755472_640.jpg",
        "src1280": "https://cdn.pixabay.com/photo/2023/01/30/11/54/cat-7755472_1280.jpg"
    },
    {
        "id": "408717",
        "src640": "https://cdn.pixabay.com/photo/2014/08/02/23/23/dwarf-408717_640.jpg",
        "src1280": "https://cdn.pixabay.com/photo/2014/08/02/23/23/dwarf-408717_1280.jpg"
    },
    {
        "id": "3310310",
        "src640": "https://cdn.pixabay.com/photo/2018/04/11/11/42/cat-3310310_640.jpg",
        "src1280": "https://cdn.pixabay.com/photo/2018/04/11/11/42/cat-3310310_1280.jpg"
    }
]