[
    {
        "id": "2566305",
        "src640": "https://cdn.pixabay.com/photo/2017/08/01/15/35/grass-2566305_640.jpg",
        "src1280": "https://cdn.pixabay.com/photo/2017/08/01/15/35/grass-2566305_1280.jpg"
    },
    {
        "id": "5222988",
        "src640": "https://cdn.pixabay.com/photo/2020/05/26/13/09/animal-5222988_640.jpg",
        "src1280": "https://cdn.pixabay.com/photo/2020/05/26/13/09/animal-5222988_1280.jpg"
    },
    {
        "id": "8188114",
        "src640": "https://cdn.pixabay.com/photo/2023/08/13/17/40/ai-generated-8188114_640.jpg",
        "src1280": "https://cdn.pixabay.com/photo/2023/08/13/17/40/ai-generated-8188114_1280.jpg"
    },
    {
        "id": "6356422",
        "src640": "https://cdn.pixabay.com/photo/2021/06/22/15/09/cat-grass-6356422_640.jpg",
        "src1280": "https://cdn.pixabay.com/photo/2021/06/22/15/09/cat-grass-6356422_1280.jpg"
    },
    {
        "id": "4081843",
        "src640": "https://cdn.pixabay.com/photo/2019/03/26/04/35/cat-4081843_640.jpg",
        "src1280": "https://cdn.pixabay.com/photo/2019/03/26/04/35/cat-4081843_1280.jpg"
    },
    {
        "id": "4902080",
        "src640": "https://cdn.pixabay.com/photo/2020/03/04/16/36/cat-4902080_640.jpg",
        "src1280": "https://cdn.pixabay.com/photo/2020/03/04/16/36/cat-4902080_1280.jpg"
    },
    {
        "id": "761675",
        "src640": "https://cdn.pixabay.com/photo/2015/05/10/22/50/pet-761675_640.jpg",
        "src1280": "https://cdn.pixabay.com/photo/2015/05/10/22/50/pet-761675_1280.jpg"
    },
    {
        "id": "5360026",
        "src640": "https://cdn.pixabay.com/photo/2020/07/01/15/39/cat-5360026_640.jpg",
        "src1280": "https://cdn.pixabay.com/photo/2020/07/01/15/39/cat-5360026_1280.jpg"
    },
    {
        "id": "6685785",
        "src640": "https://cdn.pixabay.com/photo/2021/10/06/13/03/tiger-6685785_640.jpg",
        "src1280": "https://cdn.pixabay.com/photo/2021/10/06/13/03/tiger-6685785_1280.jpg"
    },
    {
        "id": "7912459",
        "src640": "https://cdn.pixabay.com/photo/2023/04/09/22/46/calico-cat-7912459_640.jpg",
        "src1280": "https://cdn.pixabay.com/photo/2023/04/09/22/46/calico-cat-7912459_1280.jpg"
    },
    {
        "id": "7017085",
        "src640": "https://cdn.pixabay.com/photo/2022/02/16/16/09/british-shorthair-7017085_640.jpg",
        "src1280": "https://cdn.pixabay.com/photo/2022/02/16/16/09/british-shorthair-7017085_1280.jpg"
    },
    {
        "id": "4939305",
        "src640": "https://cdn.pixabay.com/photo/2020/03/17/08/06/tree-4939305_640.jpg",
        "src1280": "https://cdn.pixabay.com/photo/2020/03/17/08/06/tree-4939305_1280.jpg"
    },
    {
        "id": "5727497",
        "src640": "https://cdn.pixabay.com/photo/2020/11/09/18/28/black-5727497_640.jpg",
        "src1280": "https://cdn.pixabay.com/photo/2020/11/09/18/28/black-5727497_1280.jpg"
    },
    {
        "id": "6324293",
        "src640": "https://cdn.pixabay.com/photo/2021/06/09/19/20/cat-6324293_640.jpg",
        "src1280": "https://cdn.pixabay.com/photo/2021/06/09/19/20/cat-6324293_1280.jpg"
    },
    {
        "id": "6890353",
        "src640": "https://cdn.pixabay.com/photo/2021/12/24/02/57/cat-6890353_640.jpg",
        "src1280": "https://cdn.pixabay.com/photo/2021/12/24/02/57/cat-6890353_1280.jpg"
    },
    {
        "id": "3415509",
        "src640": "https://cdn.pixabay.com/photo/2018/05/20/11/04/cat-3415509_640.jpg",
        "src1280": "https://cdn.pixabay.com/photo/2018/05/20/11/04/cat-3415509_1280.jpg"
    },
    {
        "id": "5580750",
        "src640": "https://cdn.pixabay.com/photo/2020/09/18/03/27/cat-5580750_640.jpg",
        "src1280": "https://cdn.pixabay.com/photo/2020/09/18/03/27/cat-5580750_1280.jpg"
    }
]