[
    {
        "id": "6190568",
        "src640": "https://cdn.pixabay.com/photo/2021/04/19/06/41/cat-6190568_640.jpg",
        "src1280": "https://cdn.pixabay.com/photo/2021/04/19/06/41/cat-6190568_1280.jpg"
    },
    {
        "id": "1029378",
        "src640": "https://cdn.pixabay.com/photo/2015/11/06/16/02/hello-1029378_640.jpg",
        "src1280": "https://cdn.pixabay.com/photo/2015/11/06/16/02/hello-1029378_1280.jpg"
    },
    {
        "id": "2369731",
        "src640": "https://cdn.pixabay.com/photo/2017/06/03/20/38/cat-2369731_640.jpg",
        "src1280": "https://cdn.pixabay.com/photo/2017/06/03/20/38/cat-2369731_1280.jpg"
    },
    {
        "id": "1286753",
        "src640": "https://cdn.pixabay.com/photo/2016/03/28/19/39/easter-1286753_640.jpg",
        "src1280": "https://cdn.pixabay.com/photo/2016/03/28/19/39/easter-1286753_1280.jpg"
    },
    {
        "id": "2180976",
        "src640": "https://cdn.pixabay.com/photo/2017/03/28/04/13/cat-2180976_640.jpg",
        "src1280": "https://cdn.pixabay.com/photo/2017/03/28/04/13/cat-2180976_1280.jpg"
    },
    {
        "id": "5412541",
        "src640": "https://cdn.pixabay.com/photo/2020/07/16/23/30/cat-5412541_640.jpg",
        "src1280": "https://cdn.pixabay.com/photo/2020/07/16/23/30/cat-5412541_1280.jpg"
    },
    {
        "id": "6196238",
        "src640": "https://cdn.pixabay.com/photo/2021/04/21/12/20/eyes-6196238_640.jpg",
        "src1280": "https://cdn.pixabay.com/photo/2021/04/21/12/20/eyes-6196238_1280.jpg"
    },
    {
        "id": "1241837",
        "src640": "https://cdn.pixabay.com/photo/2016/03/07/09/47/cat-1241837_640.jpg",
        "src1280": "https://cdn.pixabay.com/photo/2016/03/07/09/47/cat-1241837_1280.jpg"
    },
    {
        "id": "3671378",
        "src640": "https://cdn.pixabay.com/photo/2018/09/12/07/15/cat-3671378_640.jpg",
        "src1280": "https://cdn.pixabay.com/photo/2018/09/12/07/15/cat-3671378_1280.jpg"
    },
    {
        "id": "7446922",
        "src640": "https://cdn.pixabay.com/photo/2022/09/11/14/49/cat-7446922_640.jpg",
        "src1280": "https://cdn.pixabay.com/photo/2022/09/11/14/49/cat-7446922_1280.jpg"
    },
    {
        "id": "260991",
        "src640": "https://cdn.pixabay.com/photo/2014/02/07/14/22/lioness-260991_640.jpg",
        "src1280": "https://cdn.pixabay.com/photo/2014/02/07/14/22/lioness-260991_1280.jpg"
    },
    {
        "id": "6187742",
        "src640": "https://cdn.pixabay.com/photo/2021/04/18/08/56/cat-6187742_640.jpg",
        "src1280": "https://cdn.pixabay.com/photo/2021/04/18/08/56/cat-6187742_1280.jpg"
    },
    {
        "id": "8035532",
        "src640": "https://cdn.pixabay.com/photo/2023/06/02/12/57/cat-8035532_640.jpg",
        "src1280": "https://cdn.pixabay.com/photo/2023/06/02/12/57/cat-8035532_1280.jpg"
    },
    {
        "id": "3663381",
        "src640": "https://cdn.pixabay.com/photo/2018/09/08/21/24/cats-3663381_640.jpg",
        "src1280": "https://cdn.pixabay.com/photo/2018/09/08/21/24/cats-3663381_1280.jpg"
    },
    {
        "id": "5948630",
        "src640": "https://cdn.pixabay.com/photo/2021/01/25/15/25/cat-5948630_640.jpg",
        "src1280": "https://cdn.pixabay.com/photo/2021/01/25/15/25/cat-5948630_1280.jpg"
    },
    {
        "id": "7897323",
        "src640": "https://cdn.pixabay.com/photo/2023/04/03/17/20/ai-generated-7897323_640.jpg",
        "src1280": "https://cdn.pixabay.com/photo/2023/04/03/17/20/ai-generated-7897323_1280.jpg"
    },
    {
        "id": "6212085",
        "src640": "https://cdn.pixabay.com/photo/2021/04/27/17/56/cat-6212085_640.jpg",
        "src1280": "https://cdn.pixabay.com/photo/2021/04/27/17/56/cat-6212085_1280.jpg"
    },
    {
        "id": "3562372",
        "src640": "https://cdn.pixabay.com/photo/2018/07/25/22/05/cat-3562372_640.jpg",
        "src1280": "https://cdn.pixabay.com/photo/2018/07/25/22/05/cat-3562372_1280.jpg"
    },
    {
        "id": "6121015",
        "src640": "https://cdn.pixabay.com/photo/2021/03/24/18/49/cat-6121015_640.jpg",
        "src1280": "https://cdn.pixabay.com/photo/2021/03/24/18/49/cat-6121015_1280.jpg"
    },
    {
        "id": "6806523",
        "src640": "https://cdn.pixabay.com/photo/2021/11/18/14/27/cat-6806523_640.jpg",
        "src1280": "https://cdn.pixabay.com/photo/2021/11/18/14/27/cat-6806523_1280.jpg"
    },
    {
        "id": "7052649",
        "src640": "https://cdn.pixabay.com/photo/2022/03/06/22/38/animal-7052649_640.jpg",
        "src1280": "https://cdn.pixabay.com/photo/2022/03/06/22/38/animal-7052649_1280.jpg"
    },
    {
        "id": "8307977",
        "src640": "https://cdn.pixabay.com/photo/2023/10/11/07/58/ai-generated-8307977_640.jpg",
        "src1280": "https://cdn.pixabay.com/photo/2023/10/11/07/58/ai-generated-8307977_1280.jpg"
    },
    {
        "id": "6339804",
        "src640": "https://cdn.pixabay.com/photo/2021/06/16/00/01/cat-6339804_640.jpg",
        "src1280": "https://cdn.pixabay.com/photo/2021/06/16/00/01/cat-6339804_1280.jpg"
    },
    {
        "id": "8369642",
        "src640": "https://cdn.pixabay.com/photo/2023/11/06/13/40/cat-8369642_640.jpg",
        "src1280": "https://cdn.pixabay.com/photo/2023/11/06/13/40/cat-8369642_1280.jpg"
    },
    {
        "id": "4906124",
        "src640": "https://cdn.pixabay.com/photo/2020/03/06/06/13/cat-4906124_640.jpg",
        "src1280": "https://cdn.pixabay.com/photo/2020/03/06/06/13/cat-4906124_1280.jpg"
    },
    {
        "id": "4879503",
        "src640": "https://cdn.pixabay.com/photo/2020/02/25/17/19/lynx-4879503_640.jpg",
        "src1280": "https://cdn.pixabay.com/photo/2020/02/25/17/19/lynx-4879503_1280.jpg"
    },
    {
        "id": "6080714",
        "src640": "https://cdn.pixabay.com/photo/2021/03/09/02/02/reflexion-6080714_640.jpg",
        "src1280": "https://cdn.pixabay.com/photo/2021/03/09/02/02/reflexion-6080714_1280.jpg"
    },
    {
        "id": "1060984",
        "src640": "https://cdn.pixabay.com/photo/2015/11/24/23/04/fails-1060984_640.jpg",
        "src1280": "https://cdn.pixabay.com/photo/2015/11/24/23/04/fails-1060984_1280.jpg"
    },
    {
        "id": "7636014",
        "src640": "https://cdn.pixabay.com/photo/2022/12/05/05/33/wildlife-7636014_640.jpg",
        "src1280": "https://cdn.pixabay.com/photo/2022/12/05/05/33/wildlife-7636014_1280.jpg"
    },
    {
        "id": "3313349",
        "src640": "https://cdn.pixabay.com/photo/2018/04/12/12/46/animal-3313349_640.jpg",
        "src1280": "https://cdn.pixabay.com/photo/2018/04/12/12/46/animal-3313349_1280.jpg"
    },
    {
        "id": "7133175",
        "src640": "https://cdn.pixabay.com/photo/2022/04/14/19/59/cats-7133175_640.jpg",
        "src1280": "https://cdn.pixabay.com/photo/2022/04/14/19/59/cats-7133175_1280.jpg"
    },
    {
        "id": "5980094",
        "src640": "https://cdn.pixabay.com/photo/2021/02/04/03/00/cat-5980094_640.jpg",
        "src1280": "https://cdn.pixabay.com/photo/2021/02/04/03/00/cat-5980094_1280.jpg"
    },
    {
        "id": "1629088",
        "src640": "https://cdn.pixabay.com/photo/2016/08/29/20/20/kitten-1629088_640.jpg",
        "src1280": "https://cdn.pixabay.com/photo/2016/08/29/20/20/kitten-1629088_1280.jpg"
    },
    {
        "id": "6022162",
        "src640": "https://cdn.pixabay.com/photo/2021/02/16/19/45/gata-6022162_640.jpg",
        "src1280": "https://cdn.pixabay.com/photo/2021/02/16/19/45/gata-6022162_1280.jpg"
    },
    {
        "id": "1567457",
        "src640": "https://cdn.pixabay.com/photo/2016/08/03/18/43/lynx-1567457_640.jpg",
        "src1280": "https://cdn.pixabay.com/photo/2016/08/03/18/43/lynx-1567457_1280.jpg"
    },
    {
        "id": "4949722",
        "src640": "https://cdn.pixabay.com/photo/2020/03/20/06/29/cat-4949722_640.jpg",
        "src1280": "https://cdn.pixabay.com/photo/2020/03/20/06/29/cat-4949722_1280.jpg"
    },
    {
        "id": "3844298",
        "src640": "https://cdn.pixabay.com/photo/2018/11/28/19/02/cats-3844298_640.jpg",
        "src1280": "https://cdn.pixabay.com/photo/2018/11/28/19/02/cats-3844298_1280.jpg"
    },
    {
        "id": "6632037",
        "src640": "https://cdn.pixabay.com/photo/2021/09/17/08/54/animal-6632037_640.jpg",
        "src1280": "https://cdn.pixabay.com/photo/2021/09/17/08/54/animal-6632037_1280.jpg"
    },
    {
        "id": "1592733",
        "src640": "https://cdn.pixabay.com/photo/2016/08/14/12/29/cat-1592733_640.jpg",
        "src1280": "https://cdn.pixabay.com/photo/2016/08/14/12/29/cat-1592733_1280.jpg"
    },
    {
        "id": "2111218",
        "src640": "https://cdn.pixabay.com/photo/2017/03/02/12/51/cat-2111218_640.jpg",
        "src1280": "https://cdn.pixabay.com/photo/2017/03/02/12/51/cat-2111218_1280.jpg"
    },
    {
        "id": "5474315",
        "src640": "https://cdn.pixabay.com/photo/2020/08/09/00/43/cat-5474315_640.jpg",
        "src1280": "https://cdn.pixabay.com/photo/2020/08/09/00/43/cat-5474315_1280.jpg"
    },
    {
        "id": "1233974",
        "src640": "https://cdn.pixabay.com/photo/2016/03/03/11/24/safranbolu-1233974_640.jpg",
        "src1280": "https://cdn.pixabay.com/photo/2016/03/03/11/24/safranbolu-1233974_1280.jpg"
    },
    {
        "id": "7169760",
        "src640": "https://cdn.pixabay.com/photo/2022/05/02/14/48/cat-7169760_640.jpg",
        "src1280": "https://cdn.pixabay.com/photo/2022/05/02/14/48/cat-7169760_1280.jpg"
    },
    {
        "id": "4403583",
        "src640": "https://cdn.pixabay.com/photo/2019/08/13/14/46/tortoiseshell-cat-4403583_640.jpg",
        "src1280": "https://cdn.pixabay.com/photo/2019/08/13/14/46/tortoiseshell-cat-4403583_1280.jpg"
    },
    {
        "id": "7738492",
        "src640": "https://cdn.pixabay.com/photo/2023/01/23/11/43/cat-7738492_640.jpg",
        "src1280": "https://cdn.pixabay.com/photo/2023/01/23/11/43/cat-7738492_1280.jpg"
    },
    {
        "id": "7013866",
        "src640": "https://cdn.pixabay.com/photo/2022/02/14/21/02/animal-7013866_640.jpg",
        "src1280": "https://cdn.pixabay.com/photo/2022/02/14/21/02/animal-7013866_1280.jpg"
    },
    {
        "id": "7066229",
        "src640": "https://cdn.pixabay.com/photo/2022/03/13/15/03/cat-7066229_640.jpg",
        "src1280": "https://cdn.pixabay.com/photo/2022/03/13/15/03/cat-7066229_1280.jpg"
    },
    {
        "id": "6819898",
        "src640": "https://cdn.pixabay.com/photo/2021/11/23/23/55/animal-6819898_640.jpg",
        "src1280": "https://cdn.pixabay.com/photo/2021/11/23/23/55/animal-6819898_1280.jpg"
    },
    {
        "id": "6171308",
        "src640": "https://cdn.pixabay.com/photo/2021/04/12/04/37/cat-6171308_640.jpg",
        "src1280": "https://cdn.pixabay.com/photo/2021/04/12/04/37/cat-6171308_1280.jpg"
    },
    {
        "id": "2162531",
        "src640": "https://cdn.pixabay.com/photo/2017/03/21/15/54/cat-2162531_640.jpg",
        "src1280": "https://cdn.pixabay.com/photo/2017/03/21/15/54/cat-2162531_1280.jpg"
    },
    {
        "id": "88074",
        "src640": "https://cdn.pixabay.com/photo/2013/03/01/18/51/big-88074_640.jpg",
        "src1280": "https://cdn.pixabay.com/photo/2013/03/01/18/51/big-88074_1280.jpg"
    },
    {
        "id": "8371525",
        "src640": "https://cdn.pixabay.com/photo/2023/11/07/09/18/ai-generated-8371525_640.jpg",
        "src1280": "https://cdn.pixabay.com/photo/2023/11/07/09/18/ai-generated-8371525_1280.jpg"
    },
    {
        "id": "2436528",
        "src640": "https://cdn.pixabay.com/photo/2017/06/24/02/26/cat-2436528_640.jpg",
        "src1280": "https://cdn.pixabay.com/photo/2017/06/24/02/26/cat-2436528_1280.jpg"
    },
    {
        "id": "7273738",
        "src640": "https://cdn.pixabay.com/photo/2022/06/20/13/09/cat-7273738_640.jpg",
        "src1280": "https://cdn.pixabay.com/photo/2022/06/20/13/09/cat-7273738_1280.jpg"
    },
    {
        "id": "1171704",
        "src640": "https://cdn.pixabay.com/photo/2016/01/31/16/25/grasshopper-1171704_640.jpg",
        "src1280": "https://cdn.pixabay.com/photo/2016/01/31/16/25/grasshopper-1171704_1280.jpg"
    },
    {
        "id": "8319282",
        "src640": "https://cdn.pixabay.com/photo/2023/10/16/14/08/design-8319282_640.jpg",
        "src1280": "https://cdn.pixabay.com/photo/2023/10/16/14/08/design-8319282_1280.jpg"
    },
    {
        "id": "106435",
        "src640": "https://cdn.pixabay.com/photo/2013/04/22/09/25/animal-106435_640.jpg",
        "src1280": "https://cdn.pixabay.com/photo/2013/04/22/09/25/animal-106435_1280.jpg"
    },
    {
        "id": "8268619",
        "src640": "https://cdn.pixabay.com/photo/2023/09/22/09/36/ai-generated-8268619_640.jpg",
        "src1280": "https://cdn.pixabay.com/photo/2023/09/22/09/36/ai-generated-8268619_1280.jpg"
    },
    {
        "id": "5055257",
        "src640": "https://cdn.pixabay.com/photo/2020/04/17/13/31/boy-5055257_640.jpg",
        "src1280": "https://cdn.pixabay.com/photo/2020/04/17/13/31/boy-5055257_1280.jpg"
    },
    {
        "id": "5892226",
        "src640": "https://cdn.pixabay.com/photo/2021/01/05/19/02/cat-5892226_640.jpg",
        "src1280": "https://cdn.pixabay.com/photo/2021/01/05/19/02/cat-5892226_1280.jpg"
    },
    {
        "id": "4748810",
        "src640": "https://cdn.pixabay.com/photo/2020/01/07/22/18/cat-4748810_640.jpg",
        "src1280": "https://cdn.pixabay.com/photo/2020/01/07/22/18/cat-4748810_1280.jpg"
    },
    {
        "id": "7895553",
        "src640": "https://cdn.pixabay.com/photo/2023/04/02/22/35/animal-7895553_640.jpg",
        "src1280": "https://cdn.pixabay.com/photo/2023/04/02/22/35/animal-7895553_1280.jpg"
    },
    {
        "id": "7780851",
        "src640": "https://cdn.pixabay.com/photo/2023/02/10/12/56/cat-7780851_640.jpg",
        "src1280": "https://cdn.pixabay.com/photo/2023/02/10/12/56/cat-7780851_1280.jpg"
    },
    {
        "id": "7235854",
        "src640": "https://cdn.pixabay.com/photo/2022/06/01/14/03/asian-woman-7235854_640.jpg",
        "src1280": "https://cdn.pixabay.com/photo/2022/06/01/14/03/asian-woman-7235854_1280.jpg"
    },
    {
        "id": "7078920",
        "src640": "https://cdn.pixabay.com/photo/2022/03/19/16/32/cat-7078920_640.jpg",
        "src1280": "https://cdn.pixabay.com/photo/2022/03/19/16/32/cat-7078920_1280.jpg"
    },
    {
        "id": "8143950",
        "src640": "https://cdn.pixabay.com/photo/2023/07/22/18/30/ai-generated-8143950_640.jpg",
        "src1280": "https://cdn.pixabay.com/photo/2023/07/22/18/30/ai-generated-8143950_1280.jpg"
    },
    {
        "id": "7824010",
        "src640": "https://cdn.pixabay.com/photo/2023/03/01/20/59/animal-7824010_640.jpg",
        "src1280": "https://cdn.pixabay.com/photo/2023/03/01/20/59/animal-7824010_1280.jpg"
    },
    {
        "id": "7443866",
        "src640": "https://cdn.pixabay.com/photo/2022/09/09/20/43/cat-7443866_640.jpg",
        "src1280": "https://cdn.pixabay.com/photo/2022/09/09/20/43/cat-7443866_1280.jpg"
    },
    {
        "id": "7581500",
        "src640": "https://cdn.pixabay.com/photo/2022/11/09/21/20/giraffe-7581500_640.jpg",
        "src1280": "https://cdn.pixabay.com/photo/2022/11/09/21/20/giraffe-7581500_1280.jpg"
    },
    {
        "id": "4130650",
        "src640": "https://cdn.pixabay.com/photo/2019/04/15/23/50/lion-4130650_640.jpg",
        "src1280": "https://cdn.pixabay.com/photo/2019/04/15/23/50/lion-4130650_1280.jpg"
    },
    {
        "id": "6784122",
        "src640": "https://cdn.pixabay.com/photo/2021/11/10/14/42/animal-6784122_640.jpg",
        "src1280": "https://cdn.pixabay.com/photo/2021/11/10/14/42/animal-6784122_1280.jpg"
    },
    {
        "id": "5168905",
        "src640": "https://cdn.pixabay.com/photo/2020/05/13/20/54/letters-5168905_640.jpg",
        "src1280": "https://cdn.pixabay.com/photo/2020/05/13/20/54/letters-5168905_1280.jpg"
    },
    {
        "id": "7840676",
        "src640": "https://cdn.pixabay.com/photo/2023/03/09/19/25/animal-7840676_640.jpg",
        "src1280": "https://cdn.pixabay.com/photo/2023/03/09/19/25/animal-7840676_1280.jpg"
    },
    {
        "id": "5131996",
        "src640": "https://cdn.pixabay.com/photo/2020/05/05/08/21/cat-5131996_640.jpg",
        "src1280": "https://cdn.pixabay.com/photo/2020/05/05/08/21/cat-5131996_1280.jpg"
    },
    {
        "id": "8222588",
        "src640": "https://cdn.pixabay.com/photo/2023/08/30/05/30/tabby-8222588_640.jpg",
        "src1280": "https://cdn.pixabay.com/photo/2023/08/30/05/30/tabby-8222588_1280.jpg"
    },
    {
        "id": "8288131",
        "src640": "https://cdn.pixabay.com/photo/2023/10/01/20/31/animal-8288131_640.jpg",
        "src1280": "https://cdn.pixabay.com/photo/2023/10/01/20/31/animal-8288131_1280.jpg"
    },
    {
        "id": "1417662",
        "src640": "https://cdn.pixabay.com/photo/2016/05/26/17/33/cat-1417662_640.jpg",
        "src1280": "https://cdn.pixabay.com/photo/2016/05/26/17/33/cat-1417662_1280.jpg"
    },
    {
        "id": "7214751",
        "src640": "https://cdn.pixabay.com/photo/2022/05/22/21/25/siamese-7214751_640.jpg",
        "src1280": "https://cdn.pixabay.com/photo/2022/05/22/21/25/siamese-7214751_1280.jpg"
    },
    {
        "id": "7077782",
        "src640": "https://cdn.pixabay.com/photo/2022/03/19/02/51/cat-7077782_640.jpg",
        "src1280": "https://cdn.pixabay.com/photo/2022/03/19/02/51/cat-7077782_1280.jpg"
    },
    {
        "id": "7591548",
        "src640": "https://cdn.pixabay.com/photo/2022/11/14/12/46/cat-7591548_640.jpg",
        "src1280": "https://cdn.pixabay.com/photo/2022/11/14/12/46/cat-7591548_1280.jpg"
    },
    {
        "id": "6722273",
        "src640": "https://cdn.pixabay.com/photo/2021/10/18/22/31/cat-6722273_640.jpg",
        "src1280": "https://cdn.pixabay.com/photo/2021/10/18/22/31/cat-6722273_1280.jpg"
    },
    {
        "id": "993660",
        "src640": "https://cdn.pixabay.com/photo/2015/10/17/23/46/ornament-993660_640.jpg",
        "src1280": "https://cdn.pixabay.com/photo/2015/10/17/23/46/ornament-993660_1280.jpg"
    },
    {
        "id": "663414",
        "src640": "https://cdn.pixabay.com/photo/2015/03/07/19/47/cat-663414_640.jpg",
        "src1280": "https://cdn.pixabay.com/photo/2015/03/07/19/47/cat-663414_1280.jpg"
    },
    {
        "id": "8273576",
        "src640": "https://cdn.pixabay.com/photo/2023/09/24/18/31/ai-generated-8273576_640.jpg",
        "src1280": "https://cdn.pixabay.com/photo/2023/09/24/18/31/ai-generated-8273576_1280.jpg"
    },
    {
        "id": "7386086",
        "src640": "https://cdn.pixabay.com/photo/2022/08/14/15/15/cat-7386086_640.jpg",
        "src1280": "https://cdn.pixabay.com/photo/2022/08/14/15/15/cat-7386086_1280.jpg"
    },
    {
        "id": "2447801",
        "src640": "https://cdn.pixabay.com/photo/2017/06/27/15/46/cats-2447801_640.jpg",
        "src1280": "https://cdn.pixabay.com/photo/2017/06/27/15/46/cats-2447801_1280.jpg"
    },
    {
        "id": "5935286",
        "src640": "https://cdn.pixabay.com/photo/2021/01/20/18/54/cats-5935286_640.jpg",
        "src1280": "https://cdn.pixabay.com/photo/2021/01/20/18/54/cats-5935286_1280.jpg"
    },
    {
        "id": "7573394",
        "src640": "https://cdn.pixabay.com/photo/2022/11/06/07/29/cat-7573394_640.jpg",
        "src1280": "https://cdn.pixabay.com/photo/2022/11/06/07/29/cat-7573394_1280.jpg"
    },
    {
        "id": "6603250",
        "src640": "https://cdn.pixabay.com/photo/2021/09/07/08/29/cat-6603250_640.jpg",
        "src1280": "https://cdn.pixabay.com/photo/2021/09/07/08/29/cat-6603250_1280.jpg"
    },
    {
        "id": "6662513",
        "src640": "https://cdn.pixabay.com/photo/2021/09/27/23/52/cat-6662513_640.jpg",
        "src1280": "https://cdn.pixabay.com/photo/2021/09/27/23/52/cat-6662513_1280.jpg"
    },
    {
        "id": "5937510",
        "src640": "https://cdn.pixabay.com/photo/2021/01/21/14/11/stroke-5937510_640.jpg",
        "src1280": "https://cdn.pixabay.com/photo/2021/01/21/14/11/stroke-5937510_1280.jpg"
    },
    {
        "id": "5370683",
        "src640": "https://cdn.pixabay.com/photo/2020/07/04/19/13/cat-5370683_640.jpg",
        "src1280": "https://cdn.pixabay.com/photo/2020/07/04/19/13/cat-5370683_1280.jpg"
    },
    {
        "id": "7640993",
        "src640": "https://cdn.pixabay.com/photo/2022/12/07/11/59/animal-7640993_640.jpg",
        "src1280": "https://cdn.pixabay.com/photo/2022/12/07/11/59/animal-7640993_1280.jpg"
    },
    {
        "id": "7182450",
        "src640": "https://cdn.pixabay.com/photo/2022/05/08/16/21/cat-7182450_640.jpg",
        "src1280": "https://cdn.pixabay.com/photo/2022/05/08/16/21/cat-7182450_1280.jpg"
    },
    {
        "id": "6296949",
        "src640": "https://cdn.pixabay.com/photo/2021/05/30/20/19/cat-6296949_640.jpg",
        "src1280": "https://cdn.pixabay.com/photo/2021/05/30/20/19/cat-6296949_1280.jpg"
    }
]