[
    {
        "id": "7117742",
        "src640": "https://cdn.pixabay.com/photo/2022/04/07/15/38/cat-7117742_640.jpg",
        "src1280": "https://cdn.pixabay.com/photo/2022/04/07/15/38/cat-7117742_1280.jpg"
    },
    {
        "id": "6850996",
        "src640": "https://cdn.pixabay.com/photo/2021/12/06/16/51/animal-6850996_640.jpg",
        "src1280": "https://cdn.pixabay.com/photo/2021/12/06/16/51/animal-6850996_1280.jpg"
    },
    {
        "id": "5062715",
        "src640": "https://cdn.pixabay.com/photo/2020/04/19/09/44/cat-5062715_640.jpg",
        "src1280": "https://cdn.pixabay.com/photo/2020/04/19/09/44/cat-5062715_1280.jpg"
    },
    {
        "id": "5328418",
        "src640": "https://cdn.pixabay.com/photo/2020/06/22/08/56/ring-tailed-lemur-5328418_640.jpg",
        "src1280": "https://cdn.pixabay.com/photo/2020/06/22/08/56/ring-tailed-lemur-5328418_1280.jpg"
    },
    {
        "id": "3911063",
        "src640": "https://cdn.pixabay.com/photo/2019/01/03/14/37/lion-3911063_640.jpg",
        "src1280": "https://cdn.pixabay.com/photo/2019/01/03/14/37/lion-3911063_1280.jpg"
    },
    {
        "id": "202621",
        "src640": "https://cdn.pixabay.com/photo/2013/10/29/20/52/deco-202621_640.jpg",
        "src1280": "https://cdn.pixabay.com/photo/2013/10/29/20/52/deco-202621_1280.jpg"
    },
    {
        "id": "7012584",
        "src640": "https://cdn.pixabay.com/photo/2022/02/14/06/51/cat-7012584_640.jpg",
        "src1280": "https://cdn.pixabay.com/photo/2022/02/14/06/51/cat-7012584_1280.jpg"
    },
    {
        "id": "6243684",
        "src640": "https://cdn.pixabay.com/photo/2021/05/10/15/46/cat-6243684_640.jpg",
        "src1280": "https://cdn.pixabay.com/photo/2021/05/10/15/46/cat-6243684_1280.jpg"
    },
    {
        "id": "2398007",
        "src640": "https://cdn.pixabay.com/photo/2017/06/13/08/28/cat-2398007_640.jpg",
        "src1280": "https://cdn.pixabay.com/photo/2017/06/13/08/28/cat-2398007_1280.jpg"
    },
    {
        "id": "7162648",
        "src640": "https://cdn.pixabay.com/photo/2022/04/29/06/42/cat-7162648_640.jpg",
        "src1280": "https://cdn.pixabay.com/photo/2022/04/29/06/42/cat-7162648_1280.jpg"
    },
    {
        "id": "8149302",
        "src640": "https://cdn.pixabay.com/photo/2023/07/25/15/28/cats-8149302_640.jpg",
        "src1280": "https://cdn.pixabay.com/photo/2023/07/25/15/28/cats-8149302_1280.jpg"
    },
    {
        "id": "5902556",
        "src640": "https://cdn.pixabay.com/photo/2021/01/09/15/06/countryside-5902556_640.jpg",
        "src1280": "https://cdn.pixabay.com/photo/2021/01/09/15/06/countryside-5902556_1280.jpg"
    },
    {
        "id": "6246331",
        "src640": "https://cdn.pixabay.com/photo/2021/05/11/16/02/cat-6246331_640.jpg",
        "src1280": "https://cdn.pixabay.com/photo/2021/05/11/16/02/cat-6246331_1280.jpg"
    },
    {
        "id": "7883605",
        "src640": "https://cdn.pixabay.com/photo/2023/03/28/15/56/ai-generated-7883605_640.jpg",
        "src1280": "https://cdn.pixabay.com/photo/2023/03/28/15/56/ai-generated-7883605_1280.jpg"
    },
    {
        "id": "2338835",
        "src640": "https://cdn.pixabay.com/photo/2017/05/23/22/48/torino-2338835_640.jpg",
        "src1280": "https://cdn.pixabay.com/photo/2017/05/23/22/48/torino-2338835_1280.jpg"
    },
    {
        "id": "7758735",
        "src640": "https://cdn.pixabay.com/photo/2023/01/31/18/47/girl-7758735_640.jpg",
        "src1280": "https://cdn.pixabay.com/photo/2023/01/31/18/47/girl-7758735_1280.jpg"
    },
    {
        "id": "6940861",
        "src640": "https://cdn.pixabay.com/photo/2022/01/15/22/20/cat-6940861_640.jpg",
        "src1280": "https://cdn.pixabay.com/photo/2022/01/15/22/20/cat-6940861_1280.jpg"
    },
    {
        "id": "6566470",
        "src640": "https://cdn.pixabay.com/photo/2021/08/23/01/54/kitten-6566470_640.jpg",
        "src1280": "https://cdn.pixabay.com/photo/2021/08/23/01/54/kitten-6566470_1280.jpg"
    },
    {
        "id": "5639467",
        "src640": "https://cdn.pixabay.com/photo/2020/10/09/04/05/cat-5639467_640.jpg",
        "src1280": "https://cdn.pixabay.com/photo/2020/10/09/04/05/cat-5639467_1280.jpg"
    },
    {
        "id": "6754569",
        "src640": "https://cdn.pixabay.com/photo/2021/10/30/14/56/kitten-6754569_640.jpg",
        "src1280": "https://cdn.pixabay.com/photo/2021/10/30/14/56/kitten-6754569_1280.jpg"
    },
    {
        "id": "7512092",
        "src640": "https://cdn.pixabay.com/photo/2022/10/10/16/03/cat-7512092_640.jpg",
        "src1280": "https://cdn.pixabay.com/photo/2022/10/10/16/03/cat-7512092_1280.jpg"
    },
    {
        "id": "6684936",
        "src640": "https://cdn.pixabay.com/photo/2021/10/06/08/14/cat-6684936_640.jpg",
        "src1280": "https://cdn.pixabay.com/photo/2021/10/06/08/14/cat-6684936_1280.jpg"
    },
    {
        "id": "6155915",
        "src640": "https://cdn.pixabay.com/photo/2021/04/06/09/51/india-6155915_640.jpg",
        "src1280": "https://cdn.pixabay.com/photo/2021/04/06/09/51/india-6155915_1280.jpg"
    },
    {
        "id": "6085034",
        "src640": "https://cdn.pixabay.com/photo/2021/03/10/17/06/cat-6085034_640.jpg",
        "src1280": "https://cdn.pixabay.com/photo/2021/03/10/17/06/cat-6085034_1280.jpg"
    },
    {
        "id": "8149306",
        "src640": "https://cdn.pixabay.com/photo/2023/07/25/15/29/cats-8149306_640.jpg",
        "src1280": "https://cdn.pixabay.com/photo/2023/07/25/15/29/cats-8149306_1280.jpg"
    },
    {
        "id": "4966194",
        "src640": "https://cdn.pixabay.com/photo/2020/03/25/06/15/cat-4966194_640.jpg",
        "src1280": "https://cdn.pixabay.com/photo/2020/03/25/06/15/cat-4966194_1280.jpg"
    },
    {
        "id": "6149386",
        "src640": "https://cdn.pixabay.com/photo/2021/04/04/08/06/cat-6149386_640.jpg",
        "src1280": "https://cdn.pixabay.com/photo/2021/04/04/08/06/cat-6149386_1280.jpg"
    },
    {
        "id": "6297368",
        "src640": "https://cdn.pixabay.com/photo/2021/05/31/00/55/cute-cats-6297368_640.jpg",
        "src1280": "https://cdn.pixabay.com/photo/2021/05/31/00/55/cute-cats-6297368_1280.jpg"
    },
    {
        "id": "6620247",
        "src640": "https://cdn.pixabay.com/photo/2021/09/13/05/04/animal-6620247_640.jpg",
        "src1280": "https://cdn.pixabay.com/photo/2021/09/13/05/04/animal-6620247_1280.jpg"
    },
    {
        "id": "6586190",
        "src640": "https://cdn.pixabay.com/photo/2021/08/30/15/36/sphynx-6586190_640.jpg",
        "src1280": "https://cdn.pixabay.com/photo/2021/08/30/15/36/sphynx-6586190_1280.jpg"
    },
    {
        "id": "6911435",
        "src640": "https://cdn.pixabay.com/photo/2022/01/03/00/01/cat-6911435_640.jpg",
        "src1280": "https://cdn.pixabay.com/photo/2022/01/03/00/01/cat-6911435_1280.jpg"
    },
    {
        "id": "7276897",
        "src640": "https://cdn.pixabay.com/photo/2022/06/22/04/15/cat-figurine-7276897_640.jpg",
        "src1280": "https://cdn.pixabay.com/photo/2022/06/22/04/15/cat-figurine-7276897_1280.jpg"
    },
    {
        "id": "6212076",
        "src640": "https://cdn.pixabay.com/photo/2021/04/27/17/50/cat-6212076_640.jpg",
        "src1280": "https://cdn.pixabay.com/photo/2021/04/27/17/50/cat-6212076_1280.jpg"
    },
    {
        "id": "8217493",
        "src640": "https://cdn.pixabay.com/photo/2023/08/27/16/26/cat-8217493_640.jpg",
        "src1280": "https://cdn.pixabay.com/photo/2023/08/27/16/26/cat-8217493_1280.jpg"
    },
    {
        "id": "7059052",
        "src640": "https://cdn.pixabay.com/photo/2022/03/10/04/25/cat-7059052_640.jpg",
        "src1280": "https://cdn.pixabay.com/photo/2022/03/10/04/25/cat-7059052_1280.jpg"
    },
    {
        "id": "4906329",
        "src640": "https://cdn.pixabay.com/photo/2020/03/06/08/07/model-4906329_640.jpg",
        "src1280": "https://cdn.pixabay.com/photo/2020/03/06/08/07/model-4906329_1280.jpg"
    },
    {
        "id": "8309081",
        "src640": "https://cdn.pixabay.com/photo/2023/10/11/16/59/cat-8309081_640.jpg",
        "src1280": "https://cdn.pixabay.com/photo/2023/10/11/16/59/cat-8309081_1280.jpg"
    },
    {
        "id": "7884837",
        "src640": "https://cdn.pixabay.com/photo/2023/03/29/07/48/cat-7884837_640.jpg",
        "src1280": "https://cdn.pixabay.com/photo/2023/03/29/07/48/cat-7884837_1280.jpg"
    },
    {
        "id": "6183142",
        "src640": "https://cdn.pixabay.com/photo/2021/04/16/09/59/cat-6183142_640.jpg",
        "src1280": "https://cdn.pixabay.com/photo/2021/04/16/09/59/cat-6183142_1280.jpg"
    },
    {
        "id": "8127168",
        "src640": "https://cdn.pixabay.com/photo/2023/07/14/14/17/calico-8127168_640.jpg",
        "src1280": "https://cdn.pixabay.com/photo/2023/07/14/14/17/calico-8127168_1280.jpg"
    },
    {
        "id": "3787402",
        "src640": "https://cdn.pixabay.com/photo/2018/11/01/07/12/cat-3787402_640.jpg",
        "src1280": "https://cdn.pixabay.com/photo/2018/11/01/07/12/cat-3787402_1280.jpg"
    },
    {
        "id": "6225332",
        "src640": "https://cdn.pixabay.com/photo/2021/05/03/05/43/cat-6225332_640.jpg",
        "src1280": "https://cdn.pixabay.com/photo/2021/05/03/05/43/cat-6225332_1280.jpg"
    },
    {
        "id": "5799635",
        "src640": "https://cdn.pixabay.com/photo/2020/12/03/06/47/cat-5799635_640.jpg",
        "src1280": "https://cdn.pixabay.com/photo/2020/12/03/06/47/cat-5799635_1280.jpg"
    },
    {
        "id": "7066428",
        "src640": "https://cdn.pixabay.com/photo/2022/03/13/17/07/cat-7066428_640.jpg",
        "src1280": "https://cdn.pixabay.com/photo/2022/03/13/17/07/cat-7066428_1280.jpg"
    },
    {
        "id": "5980317",
        "src640": "https://cdn.pixabay.com/photo/2021/02/04/05/26/cat-5980317_640.jpg",
        "src1280": "https://cdn.pixabay.com/photo/2021/02/04/05/26/cat-5980317_1280.jpg"
    },
    {
        "id": "5985082",
        "src640": "https://cdn.pixabay.com/photo/2021/02/05/16/43/cat-5985082_640.jpg",
        "src1280": "https://cdn.pixabay.com/photo/2021/02/05/16/43/cat-5985082_1280.jpg"
    },
    {
        "id": "5396598",
        "src640": "https://cdn.pixabay.com/photo/2020/07/12/09/08/cats-5396598_640.jpg",
        "src1280": "https://cdn.pixabay.com/photo/2020/07/12/09/08/cats-5396598_1280.jpg"
    },
    {
        "id": "6158810",
        "src640": "https://cdn.pixabay.com/photo/2021/04/07/11/12/cat-6158810_640.jpg",
        "src1280": "https://cdn.pixabay.com/photo/2021/04/07/11/12/cat-6158810_1280.jpg"
    },
    {
        "id": "6756292",
        "src640": "https://cdn.pixabay.com/photo/2021/10/31/06/49/cat-6756292_640.jpg",
        "src1280": "https://cdn.pixabay.com/photo/2021/10/31/06/49/cat-6756292_1280.jpg"
    },
    {
        "id": "6095560",
        "src640": "https://cdn.pixabay.com/photo/2021/03/14/22/41/cat-6095560_640.jpg",
        "src1280": "https://cdn.pixabay.com/photo/2021/03/14/22/41/cat-6095560_1280.jpg"
    },
    {
        "id": "289069",
        "src640": "https://cdn.pixabay.com/photo/2014/03/17/12/00/cat-289069_640.jpg",
        "src1280": "https://cdn.pixabay.com/photo/2014/03/17/12/00/cat-289069_1280.jpg"
    },
    {
        "id": "5984810",
        "src640": "https://cdn.pixabay.com/photo/2021/02/05/14/48/cat-5984810_640.jpg",
        "src1280": "https://cdn.pixabay.com/photo/2021/02/05/14/48/cat-5984810_1280.jpg"
    },
    {
        "id": "6940866",
        "src640": "https://cdn.pixabay.com/photo/2022/01/15/22/27/boy-6940866_640.jpg",
        "src1280": "https://cdn.pixabay.com/photo/2022/01/15/22/27/boy-6940866_1280.jpg"
    },
    {
        "id": "7041830",
        "src640": "https://cdn.pixabay.com/photo/2022/03/01/18/28/animal-7041830_640.jpg",
        "src1280": "https://cdn.pixabay.com/photo/2022/03/01/18/28/animal-7041830_1280.jpg"
    },
    {
        "id": "4763116",
        "src640": "https://cdn.pixabay.com/photo/2020/01/13/17/57/people-4763116_640.jpg",
        "src1280": "https://cdn.pixabay.com/photo/2020/01/13/17/57/people-4763116_1280.jpg"
    },
    {
        "id": "3617902",
        "src640": "https://cdn.pixabay.com/photo/2018/08/20/00/24/cat-3617902_640.jpg",
        "src1280": "https://cdn.pixabay.com/photo/2018/08/20/00/24/cat-3617902_1280.jpg"
    },
    {
        "id": "5996114",
        "src640": "https://cdn.pixabay.com/photo/2021/02/08/19/05/cat-5996114_640.jpg",
        "src1280": "https://cdn.pixabay.com/photo/2021/02/08/19/05/cat-5996114_1280.jpg"
    },
    {
        "id": "5299377",
        "src640": "https://cdn.pixabay.com/photo/2020/06/14/20/30/cat-5299377_640.jpg",
        "src1280": "https://cdn.pixabay.com/photo/2020/06/14/20/30/cat-5299377_1280.jpg"
    },
    {
        "id": "7610784",
        "src640": "https://cdn.pixabay.com/photo/2022/11/22/22/56/cat-7610784_640.jpg",
        "src1280": "https://cdn.pixabay.com/photo/2022/11/22/22/56/cat-7610784_1280.jpg"
    },
    {
        "id": "6258435",
        "src640": "https://cdn.pixabay.com/photo/2021/05/16/15/26/kitten-6258435_640.jpg",
        "src1280": "https://cdn.pixabay.com/photo/2021/05/16/15/26/kitten-6258435_1280.jpg"
    },
    {
        "id": "6155471",
        "src640": "https://cdn.pixabay.com/photo/2021/04/06/07/09/nap-6155471_640.jpg",
        "src1280": "https://cdn.pixabay.com/photo/2021/04/06/07/09/nap-6155471_1280.jpg"
    },
    {
        "id": "7486190",
        "src640": "https://cdn.pixabay.com/photo/2022/09/28/23/30/cat-7486190_640.jpg",
        "src1280": "https://cdn.pixabay.com/photo/2022/09/28/23/30/cat-7486190_1280.jpg"
    },
    {
        "id": "4034111",
        "src640": "https://cdn.pixabay.com/photo/2019/03/04/13/25/bowl-4034111_640.jpg",
        "src1280": "https://cdn.pixabay.com/photo/2019/03/04/13/25/bowl-4034111_1280.jpg"
    },
    {
        "id": "7391867",
        "src640": "https://cdn.pixabay.com/photo/2022/08/17/08/16/animal-7391867_640.jpg",
        "src1280": "https://cdn.pixabay.com/photo/2022/08/17/08/16/animal-7391867_1280.jpg"
    },
    {
        "id": "7073640",
        "src640": "https://cdn.pixabay.com/photo/2022/03/17/02/00/cat-7073640_640.jpg",
        "src1280": "https://cdn.pixabay.com/photo/2022/03/17/02/00/cat-7073640_1280.jpg"
    },
    {
        "id": "6121267",
        "src640": "https://cdn.pixabay.com/photo/2021/03/24/20/08/tiger-6121267_640.jpg",
        "src1280": "https://cdn.pixabay.com/photo/2021/03/24/20/08/tiger-6121267_1280.jpg"
    },
    {
        "id": "6299393",
        "src640": "https://cdn.pixabay.com/photo/2021/05/31/16/58/cat-6299393_640.jpg",
        "src1280": "https://cdn.pixabay.com/photo/2021/05/31/16/58/cat-6299393_1280.jpg"
    },
    {
        "id": "5108466",
        "src640": "https://cdn.pixabay.com/photo/2020/04/29/11/27/animals-5108466_640.jpg",
        "src1280": "https://cdn.pixabay.com/photo/2020/04/29/11/27/animals-5108466_1280.jpg"
    },
    {
        "id": "5619929",
        "src640": "https://cdn.pixabay.com/photo/2020/10/01/23/33/cat-5619929_640.jpg",
        "src1280": "https://cdn.pixabay.com/photo/2020/10/01/23/33/cat-5619929_1280.jpg"
    },
    {
        "id": "6586187",
        "src640": "https://cdn.pixabay.com/photo/2021/08/30/15/36/animal-6586187_640.jpg",
        "src1280": "https://cdn.pixabay.com/photo/2021/08/30/15/36/animal-6586187_1280.jpg"
    },
    {
        "id": "7001938",
        "src640": "https://cdn.pixabay.com/photo/2022/02/08/18/35/cat-7001938_640.jpg",
        "src1280": "https://cdn.pixabay.com/photo/2022/02/08/18/35/cat-7001938_1280.jpg"
    },
    {
        "id": "4923018",
        "src640": "https://cdn.pixabay.com/photo/2020/03/11/19/02/cat-4923018_640.jpg",
        "src1280": "https://cdn.pixabay.com/photo/2020/03/11/19/02/cat-4923018_1280.jpg"
    },
    {
        "id": "5978925",
        "src640": "https://cdn.pixabay.com/photo/2021/02/03/18/58/cute-5978925_640.jpg",
        "src1280": "https://cdn.pixabay.com/photo/2021/02/03/18/58/cute-5978925_1280.jpg"
    },
    {
        "id": "4244975",
        "src640": "https://cdn.pixabay.com/photo/2019/06/01/20/45/predator-4244975_640.jpg",
        "src1280": "https://cdn.pixabay.com/photo/2019/06/01/20/45/predator-4244975_1280.jpg"
    },
    {
        "id": "6748259",
        "src640": "https://cdn.pixabay.com/photo/2021/10/27/20/14/animal-6748259_640.jpg",
        "src1280": "https://cdn.pixabay.com/photo/2021/10/27/20/14/animal-6748259_1280.jpg"
    },
    {
        "id": "7026401",
        "src640": "https://cdn.pixabay.com/photo/2022/02/21/10/52/cat-7026401_640.jpg",
        "src1280": "https://cdn.pixabay.com/photo/2022/02/21/10/52/cat-7026401_1280.jpg"
    },
    {
        "id": "7857983",
        "src640": "https://cdn.pixabay.com/photo/2023/03/17/06/46/cat-7857983_640.jpg",
        "src1280": "https://cdn.pixabay.com/photo/2023/03/17/06/46/cat-7857983_1280.jpg"
    },
    {
        "id": "2404723",
        "src640": "https://cdn.pixabay.com/photo/2017/06/15/10/16/lussekatter-2404723_640.jpg",
        "src1280": "https://cdn.pixabay.com/photo/2017/06/15/10/16/lussekatter-2404723_1280.jpg"
    },
    {
        "id": "7539482",
        "src640": "https://cdn.pixabay.com/photo/2022/10/22/15/49/cat-7539482_640.jpg",
        "src1280": "https://cdn.pixabay.com/photo/2022/10/22/15/49/cat-7539482_1280.jpg"
    },
    {
        "id": "6955090",
        "src640": "https://cdn.pixabay.com/photo/2022/01/21/15/48/cat-6955090_640.jpg",
        "src1280": "https://cdn.pixabay.com/photo/2022/01/21/15/48/cat-6955090_1280.jpg"
    },
    {
        "id": "6231881",
        "src640": "https://cdn.pixabay.com/photo/2021/05/05/20/19/cat-6231881_640.jpg",
        "src1280": "https://cdn.pixabay.com/photo/2021/05/05/20/19/cat-6231881_1280.jpg"
    },
    {
        "id": "6579020",
        "src640": "https://cdn.pixabay.com/photo/2021/08/27/16/01/roof-6579020_640.jpg",
        "src1280": "https://cdn.pixabay.com/photo/2021/08/27/16/01/roof-6579020_1280.jpg"
    },
    {
        "id": "6176265",
        "src640": "https://cdn.pixabay.com/photo/2021/04/13/17/29/cats-6176265_640.jpg",
        "src1280": "https://cdn.pixabay.com/photo/2021/04/13/17/29/cats-6176265_1280.jpg"
    },
    {
        "id": "1093870",
        "src640": "https://cdn.pixabay.com/photo/2015/12/15/08/56/ahrenshoop-1093870_640.jpg",
        "src1280": "https://cdn.pixabay.com/photo/2015/12/15/08/56/ahrenshoop-1093870_1280.jpg"
    },
    {
        "id": "7971634",
        "src640": "https://cdn.pixabay.com/photo/2023/05/05/05/44/cheetah-7971634_640.jpg",
        "src1280": "https://cdn.pixabay.com/photo/2023/05/05/05/44/cheetah-7971634_1280.jpg"
    },
    {
        "id": "7079980",
        "src640": "https://cdn.pixabay.com/photo/2022/03/20/05/05/animal-7079980_640.jpg",
        "src1280": "https://cdn.pixabay.com/photo/2022/03/20/05/05/animal-7079980_1280.jpg"
    },
    {
        "id": "6930904",
        "src640": "https://cdn.pixabay.com/photo/2022/01/11/15/42/cat-6930904_640.jpg",
        "src1280": "https://cdn.pixabay.com/photo/2022/01/11/15/42/cat-6930904_1280.jpg"
    },
    {
        "id": "8019856",
        "src640": "https://cdn.pixabay.com/photo/2023/05/26/17/13/ai-generated-8019856_640.jpg",
        "src1280": "https://cdn.pixabay.com/photo/2023/05/26/17/13/ai-generated-8019856_1280.jpg"
    },
    {
        "id": "7984703",
        "src640": "https://cdn.pixabay.com/photo/2023/05/10/18/39/cat-7984703_640.jpg",
        "src1280": "https://cdn.pixabay.com/photo/2023/05/10/18/39/cat-7984703_1280.jpg"
    },
    {
        "id": "8085958",
        "src640": "https://cdn.pixabay.com/photo/2023/06/24/20/08/persian-8085958_640.jpg",
        "src1280": "https://cdn.pixabay.com/photo/2023/06/24/20/08/persian-8085958_1280.jpg"
    },
    {
        "id": "2785896",
        "src640": "https://cdn.pixabay.com/photo/2017/09/25/17/19/fuck-you-plant-2785896_640.jpg",
        "src1280": "https://cdn.pixabay.com/photo/2017/09/25/17/19/fuck-you-plant-2785896_1280.jpg"
    },
    {
        "id": "7105863",
        "src640": "https://cdn.pixabay.com/photo/2022/04/01/22/49/cat-7105863_640.jpg",
        "src1280": "https://cdn.pixabay.com/photo/2022/04/01/22/49/cat-7105863_1280.jpg"
    },
    {
        "id": "7574046",
        "src640": "https://cdn.pixabay.com/photo/2022/11/06/13/44/cat-7574046_640.jpg",
        "src1280": "https://cdn.pixabay.com/photo/2022/11/06/13/44/cat-7574046_1280.jpg"
    }
]