[
    {
        "id": "4375076",
        "src640": "https://cdn.pixabay.com/photo/2019/07/31/12/19/cat-4375076_640.jpg",
        "src1280": "https://cdn.pixabay.com/photo/2019/07/31/12/19/cat-4375076_1280.jpg"
    },
    {
        "id": "7989300",
        "src640": "https://cdn.pixabay.com/photo/2023/05/12/20/33/ice-cream-cones-7989300_640.jpg",
        "src1280": "https://cdn.pixabay.com/photo/2023/05/12/20/33/ice-cream-cones-7989300_1280.jpg"
    },
    {
        "id": "7014071",
        "src640": "https://cdn.pixabay.com/photo/2022/02/14/23/31/cat-7014071_640.jpg",
        "src1280": "https://cdn.pixabay.com/photo/2022/02/14/23/31/cat-7014071_1280.jpg"
    },
    {
        "id": "7439932",
        "src640": "https://cdn.pixabay.com/photo/2022/09/08/03/00/cat-7439932_640.jpg",
        "src1280": "https://cdn.pixabay.com/photo/2022/09/08/03/00/cat-7439932_1280.jpg"
    },
    {
        "id": "4987584",
        "src640": "https://cdn.pixabay.com/photo/2020/03/31/13/19/sun-4987584_640.jpg",
        "src1280": "https://cdn.pixabay.com/photo/2020/03/31/13/19/sun-4987584_1280.jpg"
    },
    {
        "id": "6747729",
        "src640": "https://cdn.pixabay.com/photo/2021/10/27/16/11/cat-6747729_640.jpg",
        "src1280": "https://cdn.pixabay.com/photo/2021/10/27/16/11/cat-6747729_1280.jpg"
    },
    {
        "id": "5903885",
        "src640": "https://cdn.pixabay.com/photo/2021/01/10/01/21/alaska-5903885_640.jpg",
        "src1280": "https://cdn.pixabay.com/photo/2021/01/10/01/21/alaska-5903885_1280.jpg"
    },
    {
        "id": "5997999",
        "src640": "https://cdn.pixabay.com/photo/2021/02/09/09/46/cat-5997999_640.jpg",
        "src1280": "https://cdn.pixabay.com/photo/2021/02/09/09/46/cat-5997999_1280.jpg"
    },
    {
        "id": "6930905",
        "src640": "https://cdn.pixabay.com/photo/2022/01/11/15/42/cat-6930905_640.jpg",
        "src1280": "https://cdn.pixabay.com/photo/2022/01/11/15/42/cat-6930905_1280.jpg"
    },
    {
        "id": "7104024",
        "src640": "https://cdn.pixabay.com/photo/2022/04/01/04/29/cat-7104024_640.jpg",
        "src1280": "https://cdn.pixabay.com/photo/2022/04/01/04/29/cat-7104024_1280.jpg"
    },
    {
        "id": "2392711",
        "src640": "https://cdn.pixabay.com/photo/2017/06/11/16/01/cattail-2392711_640.jpg",
        "src1280": "https://cdn.pixabay.com/photo/2017/06/11/16/01/cattail-2392711_1280.jpg"
    },
    {
        "id": "6498801",
        "src640": "https://cdn.pixabay.com/photo/2021/07/28/10/17/cat-6498801_640.jpg",
        "src1280": "https://cdn.pixabay.com/photo/2021/07/28/10/17/cat-6498801_1280.jpg"
    },
    {
        "id": "7105852",
        "src640": "https://cdn.pixabay.com/photo/2022/04/01/22/48/cat-7105852_640.jpg",
        "src1280": "https://cdn.pixabay.com/photo/2022/04/01/22/48/cat-7105852_1280.jpg"
    },
    {
        "id": "6052463",
        "src640": "https://cdn.pixabay.com/photo/2021/02/26/16/22/cat-6052463_640.jpg",
        "src1280": "https://cdn.pixabay.com/photo/2021/02/26/16/22/cat-6052463_1280.jpg"
    },
    {
        "id": "4589021",
        "src640": "https://cdn.pixabay.com/photo/2019/10/30/09/10/cat-4589021_640.jpg",
        "src1280": "https://cdn.pixabay.com/photo/2019/10/30/09/10/cat-4589021_1280.jpg"
    },
    {
        "id": "6756293",
        "src640": "https://cdn.pixabay.com/photo/2021/10/31/06/49/cat-6756293_640.jpg",
        "src1280": "https://cdn.pixabay.com/photo/2021/10/31/06/49/cat-6756293_1280.jpg"
    },
    {
        "id": "6665500",
        "src640": "https://cdn.pixabay.com/photo/2021/09/28/20/06/cat-6665500_640.jpg",
        "src1280": "https://cdn.pixabay.com/photo/2021/09/28/20/06/cat-6665500_1280.jpg"
    },
    {
        "id": "7409423",
        "src640": "https://cdn.pixabay.com/photo/2022/08/25/06/27/animal-7409423_640.jpg",
        "src1280": "https://cdn.pixabay.com/photo/2022/08/25/06/27/animal-7409423_1280.jpg"
    },
    {
        "id": "6886788",
        "src640": "https://cdn.pixabay.com/photo/2021/12/22/06/23/cat-6886788_640.jpg",
        "src1280": "https://cdn.pixabay.com/photo/2021/12/22/06/23/cat-6886788_1280.jpg"
    },
    {
        "id": "6916748",
        "src640": "https://cdn.pixabay.com/photo/2022/01/05/09/54/water-6916748_640.jpg",
        "src1280": "https://cdn.pixabay.com/photo/2022/01/05/09/54/water-6916748_1280.jpg"
    },
    {
        "id": "4466746",
        "src640": "https://cdn.pixabay.com/photo/2019/09/10/17/13/dog-4466746_640.jpg",
        "src1280": "https://cdn.pixabay.com/photo/2019/09/10/17/13/dog-4466746_1280.jpg"
    },
    {
        "id": "2770027",
        "src640": "https://cdn.pixabay.com/photo/2017/09/20/21/45/cat-2770027_640.jpg",
        "src1280": "https://cdn.pixabay.com/photo/2017/09/20/21/45/cat-2770027_1280.jpg"
    },
    {
        "id": "7746611",
        "src640": "https://cdn.pixabay.com/photo/2023/01/26/17/20/cats-7746611_640.jpg",
        "src1280": "https://cdn.pixabay.com/photo/2023/01/26/17/20/cats-7746611_1280.jpg"
    },
    {
        "id": "5903883",
        "src640": "https://cdn.pixabay.com/photo/2021/01/10/01/21/alaska-5903883_640.jpg",
        "src1280": "https://cdn.pixabay.com/photo/2021/01/10/01/21/alaska-5903883_1280.jpg"
    },
    {
        "id": "6092734",
        "src640": "https://cdn.pixabay.com/photo/2021/03/13/20/26/cat-6092734_640.jpg",
        "src1280": "https://cdn.pixabay.com/photo/2021/03/13/20/26/cat-6092734_1280.jpg"
    },
    {
        "id": "5090098",
        "src640": "https://cdn.pixabay.com/photo/2020/04/25/09/44/cat-5090098_640.jpg",
        "src1280": "https://cdn.pixabay.com/photo/2020/04/25/09/44/cat-5090098_1280.jpg"
    },
    {
        "id": "6902530",
        "src640": "https://cdn.pixabay.com/photo/2021/12/29/18/55/cat-6902530_640.jpg",
        "src1280": "https://cdn.pixabay.com/photo/2021/12/29/18/55/cat-6902530_1280.jpg"
    },
    {
        "id": "6730243",
        "src640": "https://cdn.pixabay.com/photo/2021/10/21/19/50/kittens-6730243_640.jpg",
        "src1280": "https://cdn.pixabay.com/photo/2021/10/21/19/50/kittens-6730243_1280.jpg"
    },
    {
        "id": "7439935",
        "src640": "https://cdn.pixabay.com/photo/2022/09/08/03/01/cat-7439935_640.jpg",
        "src1280": "https://cdn.pixabay.com/photo/2022/09/08/03/01/cat-7439935_1280.jpg"
    },
    {
        "id": "1609395",
        "src640": "https://cdn.pixabay.com/photo/2016/08/21/11/35/strength-1609395_640.jpg",
        "src1280": "https://cdn.pixabay.com/photo/2016/08/21/11/35/strength-1609395_1280.jpg"
    },
    {
        "id": "5072516",
        "src640": "https://cdn.pixabay.com/photo/2020/04/21/10/24/kitten-5072516_640.jpg",
        "src1280": "https://cdn.pixabay.com/photo/2020/04/21/10/24/kitten-5072516_1280.jpg"
    },
    {
        "id": "1238039",
        "src640": "https://cdn.pixabay.com/photo/2016/03/05/16/41/cats-1238039_640.jpg",
        "src1280": "https://cdn.pixabay.com/photo/2016/03/05/16/41/cats-1238039_1280.jpg"
    },
    {
        "id": "3898516",
        "src640": "https://cdn.pixabay.com/photo/2018/12/27/22/15/cat-3898516_640.jpg",
        "src1280": "https://cdn.pixabay.com/photo/2018/12/27/22/15/cat-3898516_1280.jpg"
    },
    {
        "id": "8239241",
        "src640": "https://cdn.pixabay.com/photo/2023/09/07/14/36/cat-8239241_640.jpg",
        "src1280": "https://cdn.pixabay.com/photo/2023/09/07/14/36/cat-8239241_1280.jpg"
    },
    {
        "id": "6005188",
        "src640": "https://cdn.pixabay.com/photo/2021/02/11/12/56/cat-6005188_640.jpg",
        "src1280": "https://cdn.pixabay.com/photo/2021/02/11/12/56/cat-6005188_1280.jpg"
    },
    {
        "id": "7034604",
        "src640": "https://cdn.pixabay.com/photo/2022/02/25/18/14/cat-7034604_640.jpg",
        "src1280": "https://cdn.pixabay.com/photo/2022/02/25/18/14/cat-7034604_1280.jpg"
    },
    {
        "id": "6510960",
        "src640": "https://cdn.pixabay.com/photo/2021/07/31/01/15/cat-6510960_640.jpg",
        "src1280": "https://cdn.pixabay.com/photo/2021/07/31/01/15/cat-6510960_1280.jpg"
    },
    {
        "id": "6908983",
        "src640": "https://cdn.pixabay.com/photo/2022/01/01/20/46/cat-6908983_640.jpg",
        "src1280": "https://cdn.pixabay.com/photo/2022/01/01/20/46/cat-6908983_1280.jpg"
    },
    {
        "id": "6333667",
        "src640": "https://cdn.pixabay.com/photo/2021/06/13/15/41/house-6333667_640.jpg",
        "src1280": "https://cdn.pixabay.com/photo/2021/06/13/15/41/house-6333667_1280.jpg"
    },
    {
        "id": "8268828",
        "src640": "https://cdn.pixabay.com/photo/2023/09/22/11/04/ai-generated-8268828_640.jpg",
        "src1280": "https://cdn.pixabay.com/photo/2023/09/22/11/04/ai-generated-8268828_1280.jpg"
    },
    {
        "id": "6109597",
        "src640": "https://cdn.pixabay.com/photo/2021/03/20/11/21/tiger-6109597_640.jpg",
        "src1280": "https://cdn.pixabay.com/photo/2021/03/20/11/21/tiger-6109597_1280.jpg"
    },
    {
        "id": "4983124",
        "src640": "https://cdn.pixabay.com/photo/2020/03/30/05/39/cat-4983124_640.jpg",
        "src1280": "https://cdn.pixabay.com/photo/2020/03/30/05/39/cat-4983124_1280.jpg"
    },
    {
        "id": "7400171",
        "src640": "https://cdn.pixabay.com/photo/2022/08/20/23/23/cat-7400171_640.jpg",
        "src1280": "https://cdn.pixabay.com/photo/2022/08/20/23/23/cat-7400171_1280.jpg"
    },
    {
        "id": "7600756",
        "src640": "https://cdn.pixabay.com/photo/2022/11/18/18/54/cat-7600756_640.jpg",
        "src1280": "https://cdn.pixabay.com/photo/2022/11/18/18/54/cat-7600756_1280.jpg"
    },
    {
        "id": "6104374",
        "src640": "https://cdn.pixabay.com/photo/2021/03/18/09/30/cat-6104374_640.jpg",
        "src1280": "https://cdn.pixabay.com/photo/2021/03/18/09/30/cat-6104374_1280.jpg"
    },
    {
        "id": "8268829",
        "src640": "https://cdn.pixabay.com/photo/2023/09/22/11/04/ai-generated-8268829_640.jpg",
        "src1280": "https://cdn.pixabay.com/photo/2023/09/22/11/04/ai-generated-8268829_1280.jpg"
    },
    {
        "id": "6246334",
        "src640": "https://cdn.pixabay.com/photo/2021/05/11/16/02/cat-6246334_640.jpg",
        "src1280": "https://cdn.pixabay.com/photo/2021/05/11/16/02/cat-6246334_1280.jpg"
    },
    {
        "id": "7079979",
        "src640": "https://cdn.pixabay.com/photo/2022/03/20/05/05/animal-7079979_640.jpg",
        "src1280": "https://cdn.pixabay.com/photo/2022/03/20/05/05/animal-7079979_1280.jpg"
    },
    {
        "id": "6147541",
        "src640": "https://cdn.pixabay.com/photo/2021/04/03/13/15/cat-6147541_640.jpg",
        "src1280": "https://cdn.pixabay.com/photo/2021/04/03/13/15/cat-6147541_1280.jpg"
    },
    {
        "id": "6299881",
        "src640": "https://cdn.pixabay.com/photo/2021/05/31/20/50/puma-6299881_640.jpg",
        "src1280": "https://cdn.pixabay.com/photo/2021/05/31/20/50/puma-6299881_1280.jpg"
    },
    {
        "id": "7401830",
        "src640": "https://cdn.pixabay.com/photo/2022/08/21/18/49/cat-7401830_640.jpg",
        "src1280": "https://cdn.pixabay.com/photo/2022/08/21/18/49/cat-7401830_1280.jpg"
    },
    {
        "id": "7536506",
        "src640": "https://cdn.pixabay.com/photo/2022/10/21/08/39/cat-7536506_640.jpg",
        "src1280": "https://cdn.pixabay.com/photo/2022/10/21/08/39/cat-7536506_1280.jpg"
    },
    {
        "id": "1754884",
        "src640": "https://cdn.pixabay.com/photo/2016/10/20/08/08/cat-1754884_640.jpg",
        "src1280": "https://cdn.pixabay.com/photo/2016/10/20/08/08/cat-1754884_1280.jpg"
    },
    {
        "id": "7670790",
        "src640": "https://cdn.pixabay.com/photo/2022/12/21/19/49/animal-7670790_640.jpg",
        "src1280": "https://cdn.pixabay.com/photo/2022/12/21/19/49/animal-7670790_1280.jpg"
    },
    {
        "id": "8219126",
        "src640": "https://cdn.pixabay.com/photo/2023/08/28/12/31/lion-8219126_640.jpg",
        "src1280": "https://cdn.pixabay.com/photo/2023/08/28/12/31/lion-8219126_1280.jpg"
    },
    {
        "id": "5903901",
        "src640": "https://cdn.pixabay.com/photo/2021/01/10/01/23/alaska-5903901_640.jpg",
        "src1280": "https://cdn.pixabay.com/photo/2021/01/10/01/23/alaska-5903901_1280.jpg"
    },
    {
        "id": "6131363",
        "src640": "https://cdn.pixabay.com/photo/2021/03/28/13/44/cat-6131363_640.jpg",
        "src1280": "https://cdn.pixabay.com/photo/2021/03/28/13/44/cat-6131363_1280.jpg"
    },
    {
        "id": "1784084",
        "src640": "https://cdn.pixabay.com/photo/2016/10/30/19/31/cat-1784084_640.jpg",
        "src1280": "https://cdn.pixabay.com/photo/2016/10/30/19/31/cat-1784084_1280.jpg"
    },
    {
        "id": "1608916",
        "src640": "https://cdn.pixabay.com/photo/2016/08/21/01/55/cat-1608916_640.jpg",
        "src1280": "https://cdn.pixabay.com/photo/2016/08/21/01/55/cat-1608916_1280.jpg"
    },
    {
        "id": "7549237",
        "src640": "https://cdn.pixabay.com/photo/2022/10/26/19/01/cats-7549237_640.jpg",
        "src1280": "https://cdn.pixabay.com/photo/2022/10/26/19/01/cats-7549237_1280.jpg"
    },
    {
        "id": "8254528",
        "src640": "https://cdn.pixabay.com/photo/2023/09/15/10/27/background-8254528_640.jpg",
        "src1280": "https://cdn.pixabay.com/photo/2023/09/15/10/27/background-8254528_1280.jpg"
    },
    {
        "id": "5982550",
        "src640": "https://cdn.pixabay.com/photo/2021/02/04/20/24/cat-5982550_640.jpg",
        "src1280": "https://cdn.pixabay.com/photo/2021/02/04/20/24/cat-5982550_1280.jpg"
    },
    {
        "id": "5441483",
        "src640": "https://cdn.pixabay.com/photo/2020/07/27/06/31/cat-5441483_640.jpg",
        "src1280": "https://cdn.pixabay.com/photo/2020/07/27/06/31/cat-5441483_1280.jpg"
    },
    {
        "id": "7752949",
        "src640": "https://cdn.pixabay.com/photo/2023/01/29/10/20/animal-7752949_640.jpg",
        "src1280": "https://cdn.pixabay.com/photo/2023/01/29/10/20/animal-7752949_1280.jpg"
    },
    {
        "id": "8346662",
        "src640": "https://cdn.pixabay.com/photo/2023/10/28/06/41/cat-8346662_640.jpg",
        "src1280": "https://cdn.pixabay.com/photo/2023/10/28/06/41/cat-8346662_1280.jpg"
    },
    {
        "id": "6873555",
        "src640": "https://cdn.pixabay.com/photo/2021/12/15/23/59/cat-6873555_640.jpg",
        "src1280": "https://cdn.pixabay.com/photo/2021/12/15/23/59/cat-6873555_1280.jpg"
    },
    {
        "id": "7512094",
        "src640": "https://cdn.pixabay.com/photo/2022/10/10/16/03/cat-7512094_640.jpg",
        "src1280": "https://cdn.pixabay.com/photo/2022/10/10/16/03/cat-7512094_1280.jpg"
    },
    {
        "id": "6100860",
        "src640": "https://cdn.pixabay.com/photo/2021/03/16/20/09/cat-6100860_640.jpg",
        "src1280": "https://cdn.pixabay.com/photo/2021/03/16/20/09/cat-6100860_1280.jpg"
    },
    {
        "id": "8268827",
        "src640": "https://cdn.pixabay.com/photo/2023/09/22/11/04/ai-generated-8268827_640.jpg",
        "src1280": "https://cdn.pixabay.com/photo/2023/09/22/11/04/ai-generated-8268827_1280.jpg"
    },
    {
        "id": "6482025",
        "src640": "https://cdn.pixabay.com/photo/2021/07/21/01/36/cat-6482025_640.jpg",
        "src1280": "https://cdn.pixabay.com/photo/2021/07/21/01/36/cat-6482025_1280.jpg"
    },
    {
        "id": "5090236",
        "src640": "https://cdn.pixabay.com/photo/2020/04/25/10/34/medicinal-plant-5090236_640.jpg",
        "src1280": "https://cdn.pixabay.com/photo/2020/04/25/10/34/medicinal-plant-5090236_1280.jpg"
    },
    {
        "id": "7563353",
        "src640": "https://cdn.pixabay.com/photo/2022/11/01/20/49/cat-7563353_640.jpg",
        "src1280": "https://cdn.pixabay.com/photo/2022/11/01/20/49/cat-7563353_1280.jpg"
    },
    {
        "id": "6514280",
        "src640": "https://cdn.pixabay.com/photo/2021/08/01/12/06/cat-6514280_640.jpg",
        "src1280": "https://cdn.pixabay.com/photo/2021/08/01/12/06/cat-6514280_1280.jpg"
    },
    {
        "id": "3640337",
        "src640": "https://cdn.pixabay.com/photo/2018/08/29/17/13/cats-3640337_640.jpg",
        "src1280": "https://cdn.pixabay.com/photo/2018/08/29/17/13/cats-3640337_1280.jpg"
    },
    {
        "id": "7456835",
        "src640": "https://cdn.pixabay.com/photo/2022/09/15/16/46/cat-7456835_640.jpg",
        "src1280": "https://cdn.pixabay.com/photo/2022/09/15/16/46/cat-7456835_1280.jpg"
    },
    {
        "id": "7034603",
        "src640": "https://cdn.pixabay.com/photo/2022/02/25/18/14/cat-7034603_640.jpg",
        "src1280": "https://cdn.pixabay.com/photo/2022/02/25/18/14/cat-7034603_1280.jpg"
    },
    {
        "id": "7661354",
        "src640": "https://cdn.pixabay.com/photo/2022/12/17/09/24/animal-7661354_640.jpg",
        "src1280": "https://cdn.pixabay.com/photo/2022/12/17/09/24/animal-7661354_1280.jpg"
    },
    {
        "id": "6283471",
        "src640": "https://cdn.pixabay.com/photo/2021/05/25/20/14/cat-6283471_640.jpg",
        "src1280": "https://cdn.pixabay.com/photo/2021/05/25/20/14/cat-6283471_1280.jpg"
    },
    {
        "id": "5090615",
        "src640": "https://cdn.pixabay.com/photo/2020/04/25/12/37/ragdoll-cat-5090615_640.jpg",
        "src1280": "https://cdn.pixabay.com/photo/2020/04/25/12/37/ragdoll-cat-5090615_1280.jpg"
    },
    {
        "id": "6141907",
        "src640": "https://cdn.pixabay.com/photo/2021/04/01/11/06/cat-6141907_640.jpg",
        "src1280": "https://cdn.pixabay.com/photo/2021/04/01/11/06/cat-6141907_1280.jpg"
    },
    {
        "id": "8286045",
        "src640": "https://cdn.pixabay.com/photo/2023/09/30/16/30/ai-generated-8286045_640.jpg",
        "src1280": "https://cdn.pixabay.com/photo/2023/09/30/16/30/ai-generated-8286045_1280.jpg"
    },
    {
        "id": "2337418",
        "src640": "https://cdn.pixabay.com/photo/2017/05/23/14/31/arch-bridge-2337418_640.jpg",
        "src1280": "https://cdn.pixabay.com/photo/2017/05/23/14/31/arch-bridge-2337418_1280.jpg"
    },
    {
        "id": "6918277",
        "src640": "https://cdn.pixabay.com/photo/2022/01/05/23/38/cat-6918277_640.jpg",
        "src1280": "https://cdn.pixabay.com/photo/2022/01/05/23/38/cat-6918277_1280.jpg"
    },
    {
        "id": "6671153",
        "src640": "https://cdn.pixabay.com/photo/2021/10/01/02/44/kitten-6671153_640.jpg",
        "src1280": "https://cdn.pixabay.com/photo/2021/10/01/02/44/kitten-6671153_1280.jpg"
    },
    {
        "id": "6930899",
        "src640": "https://cdn.pixabay.com/photo/2022/01/11/15/41/cat-6930899_640.jpg",
        "src1280": "https://cdn.pixabay.com/photo/2022/01/11/15/41/cat-6930899_1280.jpg"
    },
    {
        "id": "7156586",
        "src640": "https://cdn.pixabay.com/photo/2022/04/25/17/32/cat-7156586_640.jpg",
        "src1280": "https://cdn.pixabay.com/photo/2022/04/25/17/32/cat-7156586_1280.jpg"
    },
    {
        "id": "7988540",
        "src640": "https://cdn.pixabay.com/photo/2023/05/12/13/18/cheetah-7988540_640.jpg",
        "src1280": "https://cdn.pixabay.com/photo/2023/05/12/13/18/cheetah-7988540_1280.jpg"
    },
    {
        "id": "8289302",
        "src640": "https://cdn.pixabay.com/photo/2023/10/02/14/33/cat-8289302_640.jpg",
        "src1280": "https://cdn.pixabay.com/photo/2023/10/02/14/33/cat-8289302_1280.jpg"
    },
    {
        "id": "6908979",
        "src640": "https://cdn.pixabay.com/photo/2022/01/01/20/46/cat-6908979_640.jpg",
        "src1280": "https://cdn.pixabay.com/photo/2022/01/01/20/46/cat-6908979_1280.jpg"
    },
    {
        "id": "6335590",
        "src640": "https://cdn.pixabay.com/photo/2021/06/14/11/15/cat-6335590_640.jpg",
        "src1280": "https://cdn.pixabay.com/photo/2021/06/14/11/15/cat-6335590_1280.jpg"
    },
    {
        "id": "8312033",
        "src640": "https://cdn.pixabay.com/photo/2023/10/13/03/55/woman-8312033_640.jpg",
        "src1280": "https://cdn.pixabay.com/photo/2023/10/13/03/55/woman-8312033_1280.jpg"
    },
    {
        "id": "6684951",
        "src640": "https://cdn.pixabay.com/photo/2021/10/06/08/15/cat-6684951_640.jpg",
        "src1280": "https://cdn.pixabay.com/photo/2021/10/06/08/15/cat-6684951_1280.jpg"
    },
    {
        "id": "6930900",
        "src640": "https://cdn.pixabay.com/photo/2022/01/11/15/41/animal-6930900_640.jpg",
        "src1280": "https://cdn.pixabay.com/photo/2022/01/11/15/41/animal-6930900_1280.jpg"
    },
    {
        "id": "8050598",
        "src640": "https://cdn.pixabay.com/photo/2023/06/08/23/54/cat-8050598_640.jpg",
        "src1280": "https://cdn.pixabay.com/photo/2023/06/08/23/54/cat-8050598_1280.jpg"
    },
    {
        "id": "5986058",
        "src640": "https://cdn.pixabay.com/photo/2021/02/05/21/40/cat-5986058_640.jpg",
        "src1280": "https://cdn.pixabay.com/photo/2021/02/05/21/40/cat-5986058_1280.jpg"
    },
    {
        "id": "7661353",
        "src640": "https://cdn.pixabay.com/photo/2022/12/17/09/23/animal-7661353_640.jpg",
        "src1280": "https://cdn.pixabay.com/photo/2022/12/17/09/23/animal-7661353_1280.jpg"
    }
]