[
    {
        "id": "2643889",
        "src640": "https://cdn.pixabay.com/photo/2017/08/15/13/26/mountains-2643889_640.jpg",
        "src1280": "https://cdn.pixabay.com/photo/2017/08/15/13/26/mountains-2643889_1280.jpg"
    },
    {
        "id": "7656177",
        "src640": "https://cdn.pixabay.com/photo/2022/12/14/20/23/sheep-7656177_640.jpg",
        "src1280": "https://cdn.pixabay.com/photo/2022/12/14/20/23/sheep-7656177_1280.jpg"
    },
    {
        "id": "6974971",
        "src640": "https://cdn.pixabay.com/photo/2022/01/28/15/45/winter-6974971_640.jpg",
        "src1280": "https://cdn.pixabay.com/photo/2022/01/28/15/45/winter-6974971_1280.jpg"
    },
    {
        "id": "6867160",
        "src640": "https://cdn.pixabay.com/photo/2021/12/12/22/52/lake-6867160_640.jpg",
        "src1280": "https://cdn.pixabay.com/photo/2021/12/12/22/52/lake-6867160_1280.jpg"
    },
    {
        "id": "4038814",
        "src640": "https://cdn.pixabay.com/photo/2019/03/06/18/58/dog-4038814_640.jpg",
        "src1280": "https://cdn.pixabay.com/photo/2019/03/06/18/58/dog-4038814_1280.jpg"
    },
    {
        "id": "4778481",
        "src640": "https://cdn.pixabay.com/photo/2020/01/19/17/22/snow-4778481_640.jpg",
        "src1280": "https://cdn.pixabay.com/photo/2020/01/19/17/22/snow-4778481_1280.jpg"
    },
    {
        "id": "6928179",
        "src640": "https://cdn.pixabay.com/photo/2022/01/10/12/16/winter-6928179_640.jpg",
        "src1280": "https://cdn.pixabay.com/photo/2022/01/10/12/16/winter-6928179_1280.jpg"
    },
    {
        "id": "3284451",
        "src640": "https://cdn.pixabay.com/photo/2018/04/02/17/18/snow-3284451_640.jpg",
        "src1280": "https://cdn.pixabay.com/photo/2018/04/02/17/18/snow-3284451_1280.jpg"
    },
    {
        "id": "7239668",
        "src640": "https://cdn.pixabay.com/photo/2022/06/03/08/46/dog-7239668_640.jpg",
        "src1280": "https://cdn.pixabay.com/photo/2022/06/03/08/46/dog-7239668_1280.jpg"
    },
    {
        "id": "5904559",
        "src640": "https://cdn.pixabay.com/photo/2021/01/10/09/50/trees-5904559_640.jpg",
        "src1280": "https://cdn.pixabay.com/photo/2021/01/10/09/50/trees-5904559_1280.jpg"
    },
    {
        "id": "7777862",
        "src640": "https://cdn.pixabay.com/photo/2023/02/09/02/20/mountain-7777862_640.jpg",
        "src1280": "https://cdn.pixabay.com/photo/2023/02/09/02/20/mountain-7777862_1280.jpg"
    },
    {
        "id": "6835833",
        "src640": "https://cdn.pixabay.com/photo/2021/11/30/17/07/christmas-6835833_640.jpg",
        "src1280": "https://cdn.pixabay.com/photo/2021/11/30/17/07/christmas-6835833_1280.jpg"
    },
    {
        "id": "8431456",
        "src640": "https://cdn.pixabay.com/photo/2023/12/05/11/47/ai-generated-8431456_640.jpg",
        "src1280": "https://cdn.pixabay.com/photo/2023/12/05/11/47/ai-generated-8431456_1280.jpg"
    },
    {
        "id": "1575361",
        "src640": "https://cdn.pixabay.com/photo/2016/08/06/23/48/french-speaking-switzerland-1575361_640.jpg",
        "src1280": "https://cdn.pixabay.com/photo/2016/08/06/23/48/french-speaking-switzerland-1575361_1280.jpg"
    },
    {
        "id": "1845610",
        "src640": "https://cdn.pixabay.com/photo/2016/11/21/14/11/cold-1845610_640.jpg",
        "src1280": "https://cdn.pixabay.com/photo/2016/11/21/14/11/cold-1845610_1280.jpg"
    },
    {
        "id": "3872521",
        "src640": "https://cdn.pixabay.com/photo/2018/12/13/09/59/winter-3872521_640.jpg",
        "src1280": "https://cdn.pixabay.com/photo/2018/12/13/09/59/winter-3872521_1280.jpg"
    },
    {
        "id": "91929",
        "src640": "https://cdn.pixabay.com/photo/2013/03/09/15/47/tree-91929_640.jpg",
        "src1280": "https://cdn.pixabay.com/photo/2013/03/09/15/47/tree-91929_1280.jpg"
    },
    {
        "id": "7663303",
        "src640": "https://cdn.pixabay.com/photo/2022/12/18/12/18/ornament-7663303_640.jpg",
        "src1280": "https://cdn.pixabay.com/photo/2022/12/18/12/18/ornament-7663303_1280.jpg"
    },
    {
        "id": "934476",
        "src640": "https://cdn.pixabay.com/photo/2015/09/10/14/08/new-years-eve-934476_640.jpg",
        "src1280": "https://cdn.pixabay.com/photo/2015/09/10/14/08/new-years-eve-934476_1280.jpg"
    },
    {
        "id": "992542",
        "src640": "https://cdn.pixabay.com/photo/2015/10/17/13/46/ice-992542_640.jpg",
        "src1280": "https://cdn.pixabay.com/photo/2015/10/17/13/46/ice-992542_1280.jpg"
    },
    {
        "id": "4754799",
        "src640": "https://cdn.pixabay.com/photo/2020/01/10/08/55/winter-4754799_640.jpg",
        "src1280": "https://cdn.pixabay.com/photo/2020/01/10/08/55/winter-4754799_1280.jpg"
    },
    {
        "id": "7570731",
        "src640": "https://cdn.pixabay.com/photo/2022/11/04/21/35/hut-7570731_640.jpg",
        "src1280": "https://cdn.pixabay.com/photo/2022/11/04/21/35/hut-7570731_1280.jpg"
    },
    {
        "id": "6927082",
        "src640": "https://cdn.pixabay.com/photo/2022/01/09/22/14/winter-6927082_640.jpg",
        "src1280": "https://cdn.pixabay.com/photo/2022/01/09/22/14/winter-6927082_1280.jpg"
    },
    {
        "id": "587909",
        "src640": "https://cdn.pixabay.com/photo/2015/01/03/23/14/snowman-587909_640.jpg",
        "src1280": "https://cdn.pixabay.com/photo/2015/01/03/23/14/snowman-587909_1280.jpg"
    },
    {
        "id": "4901909",
        "src640": "https://cdn.pixabay.com/photo/2020/03/04/15/45/red-4901909_640.jpg",
        "src1280": "https://cdn.pixabay.com/photo/2020/03/04/15/45/red-4901909_1280.jpg"
    },
    {
        "id": "7104573",
        "src640": "https://cdn.pixabay.com/photo/2022/04/01/11/18/winter-7104573_640.jpg",
        "src1280": "https://cdn.pixabay.com/photo/2022/04/01/11/18/winter-7104573_1280.jpg"
    },
    {
        "id": "5510",
        "src640": "https://cdn.pixabay.com/photo/2011/03/18/19/14/log-5510_640.jpg",
        "src1280": "https://cdn.pixabay.com/photo/2011/03/18/19/14/log-5510_1280.jpg"
    },
    {
        "id": "7654416",
        "src640": "https://cdn.pixabay.com/photo/2022/12/14/02/09/tail-light-7654416_640.jpg",
        "src1280": "https://cdn.pixabay.com/photo/2022/12/14/02/09/tail-light-7654416_1280.jpg"
    },
    {
        "id": "8462030",
        "src640": "https://cdn.pixabay.com/photo/2023/12/21/15/30/christmas-tree-8462030_640.jpg",
        "src1280": "https://cdn.pixabay.com/photo/2023/12/21/15/30/christmas-tree-8462030_1280.jpg"
    },
    {
        "id": "2707459",
        "src640": "https://cdn.pixabay.com/photo/2017/09/02/14/46/zion-national-park-2707459_640.jpg",
        "src1280": "https://cdn.pixabay.com/photo/2017/09/02/14/46/zion-national-park-2707459_1280.jpg"
    },
    {
        "id": "5838764",
        "src640": "https://cdn.pixabay.com/photo/2020/12/17/09/39/dog-5838764_640.jpg",
        "src1280": "https://cdn.pixabay.com/photo/2020/12/17/09/39/dog-5838764_1280.jpg"
    },
    {
        "id": "5902401",
        "src640": "https://cdn.pixabay.com/photo/2021/01/09/14/02/boxer-5902401_640.jpg",
        "src1280": "https://cdn.pixabay.com/photo/2021/01/09/14/02/boxer-5902401_1280.jpg"
    },
    {
        "id": "7121278",
        "src640": "https://cdn.pixabay.com/photo/2022/04/09/11/38/chinese-lantern-7121278_640.jpg",
        "src1280": "https://cdn.pixabay.com/photo/2022/04/09/11/38/chinese-lantern-7121278_1280.jpg"
    },
    {
        "id": "94635",
        "src640": "https://cdn.pixabay.com/photo/2013/03/17/16/56/winter-94635_640.jpg",
        "src1280": "https://cdn.pixabay.com/photo/2013/03/17/16/56/winter-94635_1280.jpg"
    },
    {
        "id": "6769946",
        "src640": "https://cdn.pixabay.com/photo/2021/11/05/01/30/snow-6769946_640.jpg",
        "src1280": "https://cdn.pixabay.com/photo/2021/11/05/01/30/snow-6769946_1280.jpg"
    },
    {
        "id": "4771771",
        "src640": "https://cdn.pixabay.com/photo/2020/01/16/20/47/snowman-4771771_640.jpg",
        "src1280": "https://cdn.pixabay.com/photo/2020/01/16/20/47/snowman-4771771_1280.jpg"
    },
    {
        "id": "3169214",
        "src640": "https://cdn.pixabay.com/photo/2018/02/21/00/12/winter-3169214_640.jpg",
        "src1280": "https://cdn.pixabay.com/photo/2018/02/21/00/12/winter-3169214_1280.jpg"
    },
    {
        "id": "93786",
        "src640": "https://cdn.pixabay.com/photo/2013/03/14/22/02/fir-tree-93786_640.jpg",
        "src1280": "https://cdn.pixabay.com/photo/2013/03/14/22/02/fir-tree-93786_1280.jpg"
    },
    {
        "id": "3285675",
        "src640": "https://cdn.pixabay.com/photo/2018/04/03/01/19/winter-3285675_640.jpg",
        "src1280": "https://cdn.pixabay.com/photo/2018/04/03/01/19/winter-3285675_1280.jpg"
    },
    {
        "id": "6273226",
        "src640": "https://cdn.pixabay.com/photo/2021/05/22/10/46/sea-6273226_640.jpg",
        "src1280": "https://cdn.pixabay.com/photo/2021/05/22/10/46/sea-6273226_1280.jpg"
    },
    {
        "id": "95204",
        "src640": "https://cdn.pixabay.com/photo/2013/03/20/13/41/wintry-95204_640.jpg",
        "src1280": "https://cdn.pixabay.com/photo/2013/03/20/13/41/wintry-95204_1280.jpg"
    },
    {
        "id": "6709664",
        "src640": "https://cdn.pixabay.com/photo/2021/10/14/16/39/christmas-6709664_640.jpg",
        "src1280": "https://cdn.pixabay.com/photo/2021/10/14/16/39/christmas-6709664_1280.jpg"
    },
    {
        "id": "97099",
        "src640": "https://cdn.pixabay.com/photo/2013/03/27/14/09/angel-97099_640.jpg",
        "src1280": "https://cdn.pixabay.com/photo/2013/03/27/14/09/angel-97099_1280.jpg"
    },
    {
        "id": "7529821",
        "src640": "https://cdn.pixabay.com/photo/2022/10/18/10/28/landscape-7529821_640.jpg",
        "src1280": "https://cdn.pixabay.com/photo/2022/10/18/10/28/landscape-7529821_1280.jpg"
    },
    {
        "id": "4747574",
        "src640": "https://cdn.pixabay.com/photo/2020/01/07/13/21/north-4747574_640.jpg",
        "src1280": "https://cdn.pixabay.com/photo/2020/01/07/13/21/north-4747574_1280.jpg"
    },
    {
        "id": "7664930",
        "src640": "https://cdn.pixabay.com/photo/2022/12/19/08/15/winter-7664930_640.jpg",
        "src1280": "https://cdn.pixabay.com/photo/2022/12/19/08/15/winter-7664930_1280.jpg"
    },
    {
        "id": "6925780",
        "src640": "https://cdn.pixabay.com/photo/2022/01/09/11/26/nature-6925780_640.jpg",
        "src1280": "https://cdn.pixabay.com/photo/2022/01/09/11/26/nature-6925780_1280.jpg"
    },
    {
        "id": "6858675",
        "src640": "https://cdn.pixabay.com/photo/2021/12/09/17/05/mountains-6858675_640.jpg",
        "src1280": "https://cdn.pixabay.com/photo/2021/12/09/17/05/mountains-6858675_1280.jpg"
    },
    {
        "id": "3763079",
        "src640": "https://cdn.pixabay.com/photo/2018/10/21/15/50/nature-3763079_640.jpg",
        "src1280": "https://cdn.pixabay.com/photo/2018/10/21/15/50/nature-3763079_1280.jpg"
    },
    {
        "id": "6770004",
        "src640": "https://cdn.pixabay.com/photo/2021/11/05/01/51/snow-6770004_640.jpg",
        "src1280": "https://cdn.pixabay.com/photo/2021/11/05/01/51/snow-6770004_1280.jpg"
    },
    {
        "id": "3947924",
        "src640": "https://cdn.pixabay.com/photo/2019/01/22/11/03/winter-3947924_640.jpg",
        "src1280": "https://cdn.pixabay.com/photo/2019/01/22/11/03/winter-3947924_1280.jpg"
    },
    {
        "id": "2356872",
        "src640": "https://cdn.pixabay.com/photo/2017/05/30/13/03/chair-2356872_640.jpg",
        "src1280": "https://cdn.pixabay.com/photo/2017/05/30/13/03/chair-2356872_1280.jpg"
    },
    {
        "id": "6865258",
        "src640": "https://cdn.pixabay.com/photo/2021/12/12/14/16/trees-6865258_640.jpg",
        "src1280": "https://cdn.pixabay.com/photo/2021/12/12/14/16/trees-6865258_1280.jpg"
    },
    {
        "id": "7175785",
        "src640": "https://cdn.pixabay.com/photo/2022/05/05/10/26/hoher-dachstein-7175785_640.jpg",
        "src1280": "https://cdn.pixabay.com/photo/2022/05/05/10/26/hoher-dachstein-7175785_1280.jpg"
    },
    {
        "id": "7656184",
        "src640": "https://cdn.pixabay.com/photo/2022/12/14/20/23/sheep-7656184_640.jpg",
        "src1280": "https://cdn.pixabay.com/photo/2022/12/14/20/23/sheep-7656184_1280.jpg"
    },
    {
        "id": "2368745",
        "src640": "https://cdn.pixabay.com/photo/2017/06/03/14/07/lighthouse-2368745_640.jpg",
        "src1280": "https://cdn.pixabay.com/photo/2017/06/03/14/07/lighthouse-2368745_1280.jpg"
    },
    {
        "id": "70146",
        "src640": "https://cdn.pixabay.com/photo/2012/12/15/20/27/kermit-70146_640.jpg",
        "src1280": "https://cdn.pixabay.com/photo/2012/12/15/20/27/kermit-70146_1280.jpg"
    },
    {
        "id": "4000957",
        "src640": "https://cdn.pixabay.com/photo/2019/02/16/20/28/dog-4000957_640.jpg",
        "src1280": "https://cdn.pixabay.com/photo/2019/02/16/20/28/dog-4000957_1280.jpg"
    },
    {
        "id": "4183799",
        "src640": "https://cdn.pixabay.com/photo/2019/05/06/18/16/girl-4183799_640.jpg",
        "src1280": "https://cdn.pixabay.com/photo/2019/05/06/18/16/girl-4183799_1280.jpg"
    },
    {
        "id": "3902389",
        "src640": "https://cdn.pixabay.com/photo/2018/12/30/00/19/geese-3902389_640.jpg",
        "src1280": "https://cdn.pixabay.com/photo/2018/12/30/00/19/geese-3902389_1280.jpg"
    },
    {
        "id": "2162408",
        "src640": "https://cdn.pixabay.com/photo/2017/03/21/15/07/child-2162408_640.jpg",
        "src1280": "https://cdn.pixabay.com/photo/2017/03/21/15/07/child-2162408_1280.jpg"
    },
    {
        "id": "5112603",
        "src640": "https://cdn.pixabay.com/photo/2020/04/30/12/01/landscape-5112603_640.jpg",
        "src1280": "https://cdn.pixabay.com/photo/2020/04/30/12/01/landscape-5112603_1280.jpg"
    },
    {
        "id": "8405259",
        "src640": "https://cdn.pixabay.com/photo/2023/11/22/10/58/ai-generated-8405259_640.jpg",
        "src1280": "https://cdn.pixabay.com/photo/2023/11/22/10/58/ai-generated-8405259_1280.jpg"
    },
    {
        "id": "6862821",
        "src640": "https://cdn.pixabay.com/photo/2021/12/11/14/05/path-6862821_640.jpg",
        "src1280": "https://cdn.pixabay.com/photo/2021/12/11/14/05/path-6862821_1280.jpg"
    },
    {
        "id": "2402295",
        "src640": "https://cdn.pixabay.com/photo/2017/06/14/14/31/winter-2402295_640.jpg",
        "src1280": "https://cdn.pixabay.com/photo/2017/06/14/14/31/winter-2402295_1280.jpg"
    },
    {
        "id": "81157",
        "src640": "https://cdn.pixabay.com/photo/2013/02/12/23/47/traces-81157_640.jpg",
        "src1280": "https://cdn.pixabay.com/photo/2013/02/12/23/47/traces-81157_1280.jpg"
    },
    {
        "id": "5235776",
        "src640": "https://cdn.pixabay.com/photo/2020/05/29/16/39/sun-5235776_640.jpg",
        "src1280": "https://cdn.pixabay.com/photo/2020/05/29/16/39/sun-5235776_1280.jpg"
    },
    {
        "id": "7705015",
        "src640": "https://cdn.pixabay.com/photo/2023/01/08/11/48/goat-7705015_640.jpg",
        "src1280": "https://cdn.pixabay.com/photo/2023/01/08/11/48/goat-7705015_1280.jpg"
    },
    {
        "id": "7746796",
        "src640": "https://cdn.pixabay.com/photo/2023/01/26/18/41/pines-7746796_640.jpg",
        "src1280": "https://cdn.pixabay.com/photo/2023/01/26/18/41/pines-7746796_1280.jpg"
    },
    {
        "id": "8433863",
        "src640": "https://cdn.pixabay.com/photo/2023/12/06/15/04/berries-8433863_640.jpg",
        "src1280": "https://cdn.pixabay.com/photo/2023/12/06/15/04/berries-8433863_1280.jpg"
    },
    {
        "id": "5902402",
        "src640": "https://cdn.pixabay.com/photo/2021/01/09/14/02/boxer-5902402_640.jpg",
        "src1280": "https://cdn.pixabay.com/photo/2021/01/09/14/02/boxer-5902402_1280.jpg"
    },
    {
        "id": "5430747",
        "src640": "https://cdn.pixabay.com/photo/2020/07/23/08/34/berries-5430747_640.jpg",
        "src1280": "https://cdn.pixabay.com/photo/2020/07/23/08/34/berries-5430747_1280.jpg"
    },
    {
        "id": "8450942",
        "src640": "https://cdn.pixabay.com/photo/2023/12/15/15/52/winter-8450942_640.jpg",
        "src1280": "https://cdn.pixabay.com/photo/2023/12/15/15/52/winter-8450942_1280.jpg"
    },
    {
        "id": "7693676",
        "src640": "https://cdn.pixabay.com/photo/2023/01/03/06/01/snow-7693676_640.jpg",
        "src1280": "https://cdn.pixabay.com/photo/2023/01/03/06/01/snow-7693676_1280.jpg"
    },
    {
        "id": "8462027",
        "src640": "https://cdn.pixabay.com/photo/2023/12/21/15/30/house-8462027_640.jpg",
        "src1280": "https://cdn.pixabay.com/photo/2023/12/21/15/30/house-8462027_1280.jpg"
    },
    {
        "id": "573928",
        "src640": "https://cdn.pixabay.com/photo/2014/12/20/13/04/skiing-573928_640.jpg",
        "src1280": "https://cdn.pixabay.com/photo/2014/12/20/13/04/skiing-573928_1280.jpg"
    },
    {
        "id": "1039288",
        "src640": "https://cdn.pixabay.com/photo/2015/11/11/21/32/norway-1039288_640.jpg",
        "src1280": "https://cdn.pixabay.com/photo/2015/11/11/21/32/norway-1039288_1280.jpg"
    },
    {
        "id": "16186",
        "src640": "https://cdn.pixabay.com/photo/2012/02/23/13/39/traces-16186_640.jpg",
        "src1280": "https://cdn.pixabay.com/photo/2012/02/23/13/39/traces-16186_1280.jpg"
    },
    {
        "id": "2079783",
        "src640": "https://cdn.pixabay.com/photo/2017/02/19/13/29/winter-2079783_640.jpg",
        "src1280": "https://cdn.pixabay.com/photo/2017/02/19/13/29/winter-2079783_1280.jpg"
    },
    {
        "id": "594390",
        "src640": "https://cdn.pixabay.com/photo/2015/01/09/14/34/girl-594390_640.jpg",
        "src1280": "https://cdn.pixabay.com/photo/2015/01/09/14/34/girl-594390_1280.jpg"
    },
    {
        "id": "107517",
        "src640": "https://cdn.pixabay.com/photo/2013/04/27/21/52/chicago-107517_640.jpg",
        "src1280": "https://cdn.pixabay.com/photo/2013/04/27/21/52/chicago-107517_1280.jpg"
    },
    {
        "id": "81339",
        "src640": "https://cdn.pixabay.com/photo/2013/02/13/17/12/snow-81339_640.jpg",
        "src1280": "https://cdn.pixabay.com/photo/2013/02/13/17/12/snow-81339_1280.jpg"
    },
    {
        "id": "5943771",
        "src640": "https://cdn.pixabay.com/photo/2021/01/23/21/46/woman-5943771_640.jpg",
        "src1280": "https://cdn.pixabay.com/photo/2021/01/23/21/46/woman-5943771_1280.jpg"
    },
    {
        "id": "5100798",
        "src640": "https://cdn.pixabay.com/photo/2020/04/27/17/20/winter-5100798_640.jpg",
        "src1280": "https://cdn.pixabay.com/photo/2020/04/27/17/20/winter-5100798_1280.jpg"
    },
    {
        "id": "8465524",
        "src640": "https://cdn.pixabay.com/photo/2023/12/23/12/55/ai-generated-8465524_640.jpg",
        "src1280": "https://cdn.pixabay.com/photo/2023/12/23/12/55/ai-generated-8465524_1280.jpg"
    },
    {
        "id": "16596",
        "src640": "https://cdn.pixabay.com/photo/2012/02/24/14/58/trail-16596_640.jpg",
        "src1280": "https://cdn.pixabay.com/photo/2012/02/24/14/58/trail-16596_1280.jpg"
    },
    {
        "id": "6562443",
        "src640": "https://cdn.pixabay.com/photo/2021/08/21/10/37/mountains-6562443_640.jpg",
        "src1280": "https://cdn.pixabay.com/photo/2021/08/21/10/37/mountains-6562443_1280.jpg"
    },
    {
        "id": "7817017",
        "src640": "https://cdn.pixabay.com/photo/2023/02/26/20/58/mountains-7817017_640.jpg",
        "src1280": "https://cdn.pixabay.com/photo/2023/02/26/20/58/mountains-7817017_1280.jpg"
    }
]