[
    {
        "id": "778496",
        "src640": "https://cdn.pixabay.com/photo/2015/05/22/09/18/crocus-778496_640.jpg",
        "src1280": "https://cdn.pixabay.com/photo/2015/05/22/09/18/crocus-778496_1280.jpg"
    },
    {
        "id": "6897903",
        "src640": "https://cdn.pixabay.com/photo/2021/12/27/18/00/winter-6897903_640.jpg",
        "src1280": "https://cdn.pixabay.com/photo/2021/12/27/18/00/winter-6897903_1280.jpg"
    },
    {
        "id": "8447124",
        "src640": "https://cdn.pixabay.com/photo/2023/12/13/15/37/ai-generated-8447124_640.jpg",
        "src1280": "https://cdn.pixabay.com/photo/2023/12/13/15/37/ai-generated-8447124_1280.jpg"
    },
    {
        "id": "4801252",
        "src640": "https://cdn.pixabay.com/photo/2020/01/28/23/07/mountains-4801252_640.jpg",
        "src1280": "https://cdn.pixabay.com/photo/2020/01/28/23/07/mountains-4801252_1280.jpg"
    },
    {
        "id": "8406517",
        "src640": "https://cdn.pixabay.com/photo/2023/11/22/21/27/ai-generated-8406517_640.jpg",
        "src1280": "https://cdn.pixabay.com/photo/2023/11/22/21/27/ai-generated-8406517_1280.jpg"
    },
    {
        "id": "91899",
        "src640": "https://cdn.pixabay.com/photo/2013/03/09/15/24/blizzard-91899_640.jpg",
        "src1280": "https://cdn.pixabay.com/photo/2013/03/09/15/24/blizzard-91899_1280.jpg"
    },
    {
        "id": "6895921",
        "src640": "https://cdn.pixabay.com/photo/2021/12/26/21/28/winter-6895921_640.jpg",
        "src1280": "https://cdn.pixabay.com/photo/2021/12/26/21/28/winter-6895921_1280.jpg"
    },
    {
        "id": "6769842",
        "src640": "https://cdn.pixabay.com/photo/2021/11/05/01/13/christmas-6769842_640.jpg",
        "src1280": "https://cdn.pixabay.com/photo/2021/11/05/01/13/christmas-6769842_1280.jpg"
    },
    {
        "id": "7723081",
        "src640": "https://cdn.pixabay.com/photo/2023/01/16/18/52/tea-7723081_640.jpg",
        "src1280": "https://cdn.pixabay.com/photo/2023/01/16/18/52/tea-7723081_1280.jpg"
    },
    {
        "id": "3925237",
        "src640": "https://cdn.pixabay.com/photo/2019/01/10/11/59/santa-claus-3925237_640.jpg",
        "src1280": "https://cdn.pixabay.com/photo/2019/01/10/11/59/santa-claus-3925237_1280.jpg"
    },
    {
        "id": "2564104",
        "src640": "https://cdn.pixabay.com/photo/2017/08/01/09/52/house-2564104_640.jpg",
        "src1280": "https://cdn.pixabay.com/photo/2017/08/01/09/52/house-2564104_1280.jpg"
    },
    {
        "id": "8395023",
        "src640": "https://cdn.pixabay.com/photo/2023/11/17/20/29/ai-generated-8395023_640.jpg",
        "src1280": "https://cdn.pixabay.com/photo/2023/11/17/20/29/ai-generated-8395023_1280.jpg"
    },
    {
        "id": "6876284",
        "src640": "https://cdn.pixabay.com/photo/2021/12/17/11/39/christmas-6876284_640.jpg",
        "src1280": "https://cdn.pixabay.com/photo/2021/12/17/11/39/christmas-6876284_1280.jpg"
    },
    {
        "id": "3198896",
        "src640": "https://cdn.pixabay.com/photo/2018/03/04/18/58/shadow-3198896_640.jpg",
        "src1280": "https://cdn.pixabay.com/photo/2018/03/04/18/58/shadow-3198896_1280.jpg"
    },
    {
        "id": "7623458",
        "src640": "https://cdn.pixabay.com/photo/2022/11/29/00/51/llama-7623458_640.jpg",
        "src1280": "https://cdn.pixabay.com/photo/2022/11/29/00/51/llama-7623458_1280.jpg"
    },
    {
        "id": "7755268",
        "src640": "https://cdn.pixabay.com/photo/2023/01/30/10/06/bulldog-7755268_640.jpg",
        "src1280": "https://cdn.pixabay.com/photo/2023/01/30/10/06/bulldog-7755268_1280.jpg"
    },
    {
        "id": "2297746",
        "src640": "https://cdn.pixabay.com/photo/2017/05/09/10/00/sun-2297746_640.jpg",
        "src1280": "https://cdn.pixabay.com/photo/2017/05/09/10/00/sun-2297746_1280.jpg"
    },
    {
        "id": "1959277",
        "src640": "https://cdn.pixabay.com/photo/2017/01/06/23/11/tree-1959277_640.jpg",
        "src1280": "https://cdn.pixabay.com/photo/2017/01/06/23/11/tree-1959277_1280.jpg"
    },
    {
        "id": "116229",
        "src640": "https://cdn.pixabay.com/photo/2013/06/04/17/33/munich-116229_640.jpg",
        "src1280": "https://cdn.pixabay.com/photo/2013/06/04/17/33/munich-116229_1280.jpg"
    },
    {
        "id": "6934169",
        "src640": "https://cdn.pixabay.com/photo/2022/01/13/00/06/tree-6934169_640.jpg",
        "src1280": "https://cdn.pixabay.com/photo/2022/01/13/00/06/tree-6934169_1280.jpg"
    },
    {
        "id": "5953713",
        "src640": "https://cdn.pixabay.com/photo/2021/01/27/05/45/girl-5953713_640.jpg",
        "src1280": "https://cdn.pixabay.com/photo/2021/01/27/05/45/girl-5953713_1280.jpg"
    },
    {
        "id": "4881904",
        "src640": "https://cdn.pixabay.com/photo/2020/02/26/14/44/sun-4881904_640.jpg",
        "src1280": "https://cdn.pixabay.com/photo/2020/02/26/14/44/sun-4881904_1280.jpg"
    },
    {
        "id": "2661476",
        "src640": "https://cdn.pixabay.com/photo/2017/08/20/11/53/snow-2661476_640.jpg",
        "src1280": "https://cdn.pixabay.com/photo/2017/08/20/11/53/snow-2661476_1280.jpg"
    },
    {
        "id": "2191502",
        "src640": "https://cdn.pixabay.com/photo/2017/03/31/14/44/woman-2191502_640.jpg",
        "src1280": "https://cdn.pixabay.com/photo/2017/03/31/14/44/woman-2191502_1280.jpg"
    },
    {
        "id": "2609851",
        "src640": "https://cdn.pixabay.com/photo/2017/08/08/00/58/guy-2609851_640.jpg",
        "src1280": "https://cdn.pixabay.com/photo/2017/08/08/00/58/guy-2609851_1280.jpg"
    },
    {
        "id": "5962515",
        "src640": "https://cdn.pixabay.com/photo/2021/01/29/23/34/ice-5962515_640.jpg",
        "src1280": "https://cdn.pixabay.com/photo/2021/01/29/23/34/ice-5962515_1280.jpg"
    },
    {
        "id": "450344",
        "src640": "https://cdn.pixabay.com/photo/2014/09/18/02/59/playground-450344_640.jpg",
        "src1280": "https://cdn.pixabay.com/photo/2014/09/18/02/59/playground-450344_1280.jpg"
    },
    {
        "id": "8367633",
        "src640": "https://cdn.pixabay.com/photo/2023/11/05/15/25/christmas-8367633_640.jpg",
        "src1280": "https://cdn.pixabay.com/photo/2023/11/05/15/25/christmas-8367633_1280.jpg"
    },
    {
        "id": "6885772",
        "src640": "https://cdn.pixabay.com/photo/2021/12/21/18/08/mountain-6885772_640.jpg",
        "src1280": "https://cdn.pixabay.com/photo/2021/12/21/18/08/mountain-6885772_1280.jpg"
    },
    {
        "id": "4890285",
        "src640": "https://cdn.pixabay.com/photo/2020/02/29/14/39/snow-4890285_640.jpg",
        "src1280": "https://cdn.pixabay.com/photo/2020/02/29/14/39/snow-4890285_1280.jpg"
    },
    {
        "id": "4671767",
        "src640": "https://cdn.pixabay.com/photo/2019/12/04/05/21/zion-4671767_640.jpg",
        "src1280": "https://cdn.pixabay.com/photo/2019/12/04/05/21/zion-4671767_1280.jpg"
    },
    {
        "id": "200905",
        "src640": "https://cdn.pixabay.com/photo/2013/10/25/23/39/away-200905_640.jpg",
        "src1280": "https://cdn.pixabay.com/photo/2013/10/25/23/39/away-200905_1280.jpg"
    },
    {
        "id": "4026674",
        "src640": "https://cdn.pixabay.com/photo/2019/02/28/19/41/winter-4026674_640.jpg",
        "src1280": "https://cdn.pixabay.com/photo/2019/02/28/19/41/winter-4026674_1280.jpg"
    },
    {
        "id": "6898365",
        "src640": "https://cdn.pixabay.com/photo/2021/12/28/00/11/snow-6898365_640.jpg",
        "src1280": "https://cdn.pixabay.com/photo/2021/12/28/00/11/snow-6898365_1280.jpg"
    },
    {
        "id": "2459851",
        "src640": "https://cdn.pixabay.com/photo/2017/06/30/21/28/italy-2459851_640.jpg",
        "src1280": "https://cdn.pixabay.com/photo/2017/06/30/21/28/italy-2459851_1280.jpg"
    },
    {
        "id": "6891179",
        "src640": "https://cdn.pixabay.com/photo/2021/12/24/14/36/snow-6891179_640.jpg",
        "src1280": "https://cdn.pixabay.com/photo/2021/12/24/14/36/snow-6891179_1280.jpg"
    },
    {
        "id": "588853",
        "src640": "https://cdn.pixabay.com/photo/2015/01/04/23/37/snowshoe-588853_640.jpg",
        "src1280": "https://cdn.pixabay.com/photo/2015/01/04/23/37/snowshoe-588853_1280.jpg"
    },
    {
        "id": "5271293",
        "src640": "https://cdn.pixabay.com/photo/2020/06/07/17/20/garden-5271293_640.jpg",
        "src1280": "https://cdn.pixabay.com/photo/2020/06/07/17/20/garden-5271293_1280.jpg"
    },
    {
        "id": "4799516",
        "src640": "https://cdn.pixabay.com/photo/2020/01/28/11/40/snow-4799516_640.jpg",
        "src1280": "https://cdn.pixabay.com/photo/2020/01/28/11/40/snow-4799516_1280.jpg"
    },
    {
        "id": "573889",
        "src640": "https://cdn.pixabay.com/photo/2014/12/20/12/47/forest-573889_640.jpg",
        "src1280": "https://cdn.pixabay.com/photo/2014/12/20/12/47/forest-573889_1280.jpg"
    },
    {
        "id": "8404309",
        "src640": "https://cdn.pixabay.com/photo/2023/11/21/21/40/ai-generated-8404309_640.jpg",
        "src1280": "https://cdn.pixabay.com/photo/2023/11/21/21/40/ai-generated-8404309_1280.jpg"
    },
    {
        "id": "1142840",
        "src640": "https://cdn.pixabay.com/photo/2016/01/16/04/23/flowers-1142840_640.jpg",
        "src1280": "https://cdn.pixabay.com/photo/2016/01/16/04/23/flowers-1142840_1280.jpg"
    },
    {
        "id": "8435952",
        "src640": "https://cdn.pixabay.com/photo/2023/12/07/17/03/ai-generated-8435952_640.jpg",
        "src1280": "https://cdn.pixabay.com/photo/2023/12/07/17/03/ai-generated-8435952_1280.jpg"
    },
    {
        "id": "3892691",
        "src640": "https://cdn.pixabay.com/photo/2018/12/24/11/07/leaves-3892691_640.jpg",
        "src1280": "https://cdn.pixabay.com/photo/2018/12/24/11/07/leaves-3892691_1280.jpg"
    },
    {
        "id": "5977835",
        "src640": "https://cdn.pixabay.com/photo/2021/02/03/12/42/winter-5977835_640.jpg",
        "src1280": "https://cdn.pixabay.com/photo/2021/02/03/12/42/winter-5977835_1280.jpg"
    },
    {
        "id": "5939962",
        "src640": "https://cdn.pixabay.com/photo/2021/01/22/12/44/tree-5939962_640.jpg",
        "src1280": "https://cdn.pixabay.com/photo/2021/01/22/12/44/tree-5939962_1280.jpg"
    },
    {
        "id": "8383398",
        "src640": "https://cdn.pixabay.com/photo/2023/11/12/16/26/car-8383398_640.jpg",
        "src1280": "https://cdn.pixabay.com/photo/2023/11/12/16/26/car-8383398_1280.jpg"
    },
    {
        "id": "6489016",
        "src640": "https://cdn.pixabay.com/photo/2021/07/24/09/00/mountains-6489016_640.jpg",
        "src1280": "https://cdn.pixabay.com/photo/2021/07/24/09/00/mountains-6489016_1280.jpg"
    },
    {
        "id": "2459844",
        "src640": "https://cdn.pixabay.com/photo/2017/06/30/21/24/california-2459844_640.jpg",
        "src1280": "https://cdn.pixabay.com/photo/2017/06/30/21/24/california-2459844_1280.jpg"
    },
    {
        "id": "6944005",
        "src640": "https://cdn.pixabay.com/photo/2022/01/17/06/52/pine-tree-6944005_640.jpg",
        "src1280": "https://cdn.pixabay.com/photo/2022/01/17/06/52/pine-tree-6944005_1280.jpg"
    },
    {
        "id": "574361",
        "src640": "https://cdn.pixabay.com/photo/2014/12/20/19/54/wintry-574361_640.jpg",
        "src1280": "https://cdn.pixabay.com/photo/2014/12/20/19/54/wintry-574361_1280.jpg"
    },
    {
        "id": "4723700",
        "src640": "https://cdn.pixabay.com/photo/2019/12/28/01/09/dog-4723700_640.jpg",
        "src1280": "https://cdn.pixabay.com/photo/2019/12/28/01/09/dog-4723700_1280.jpg"
    },
    {
        "id": "7736758",
        "src640": "https://cdn.pixabay.com/photo/2023/01/22/16/03/dog-7736758_640.jpg",
        "src1280": "https://cdn.pixabay.com/photo/2023/01/22/16/03/dog-7736758_1280.jpg"
    },
    {
        "id": "16843",
        "src640": "https://cdn.pixabay.com/photo/2012/02/25/18/45/snow-16843_640.jpg",
        "src1280": "https://cdn.pixabay.com/photo/2012/02/25/18/45/snow-16843_1280.jpg"
    },
    {
        "id": "80675",
        "src640": "https://cdn.pixabay.com/photo/2013/02/12/09/42/oulu-80675_640.jpg",
        "src1280": "https://cdn.pixabay.com/photo/2013/02/12/09/42/oulu-80675_1280.jpg"
    },
    {
        "id": "7770090",
        "src640": "https://cdn.pixabay.com/photo/2023/02/05/17/45/ai-generated-7770090_640.jpg",
        "src1280": "https://cdn.pixabay.com/photo/2023/02/05/17/45/ai-generated-7770090_1280.jpg"
    },
    {
        "id": "2583138",
        "src640": "https://cdn.pixabay.com/photo/2017/08/05/12/23/nature-2583138_640.jpg",
        "src1280": "https://cdn.pixabay.com/photo/2017/08/05/12/23/nature-2583138_1280.jpg"
    },
    {
        "id": "6942009",
        "src640": "https://cdn.pixabay.com/photo/2022/01/16/13/24/train-6942009_640.jpg",
        "src1280": "https://cdn.pixabay.com/photo/2022/01/16/13/24/train-6942009_1280.jpg"
    },
    {
        "id": "4932289",
        "src640": "https://cdn.pixabay.com/photo/2020/03/15/02/48/fox-4932289_640.jpg",
        "src1280": "https://cdn.pixabay.com/photo/2020/03/15/02/48/fox-4932289_1280.jpg"
    },
    {
        "id": "4743616",
        "src640": "https://cdn.pixabay.com/photo/2020/01/05/17/09/winter-4743616_640.jpg",
        "src1280": "https://cdn.pixabay.com/photo/2020/01/05/17/09/winter-4743616_1280.jpg"
    },
    {
        "id": "4707168",
        "src640": "https://cdn.pixabay.com/photo/2019/12/19/21/31/fairy-tale-4707168_640.jpg",
        "src1280": "https://cdn.pixabay.com/photo/2019/12/19/21/31/fairy-tale-4707168_1280.jpg"
    },
    {
        "id": "3991150",
        "src640": "https://cdn.pixabay.com/photo/2019/02/12/01/16/mountain-3991150_640.jpg",
        "src1280": "https://cdn.pixabay.com/photo/2019/02/12/01/16/mountain-3991150_1280.jpg"
    },
    {
        "id": "2472085",
        "src640": "https://cdn.pixabay.com/photo/2017/07/04/18/23/leann-2472085_640.jpg",
        "src1280": "https://cdn.pixabay.com/photo/2017/07/04/18/23/leann-2472085_1280.jpg"
    },
    {
        "id": "6769942",
        "src640": "https://cdn.pixabay.com/photo/2021/11/05/01/30/snow-6769942_640.jpg",
        "src1280": "https://cdn.pixabay.com/photo/2021/11/05/01/30/snow-6769942_1280.jpg"
    },
    {
        "id": "6769796",
        "src640": "https://cdn.pixabay.com/photo/2021/11/05/01/04/winter-6769796_640.jpg",
        "src1280": "https://cdn.pixabay.com/photo/2021/11/05/01/04/winter-6769796_1280.jpg"
    },
    {
        "id": "6928174",
        "src640": "https://cdn.pixabay.com/photo/2022/01/10/12/13/winter-6928174_640.jpg",
        "src1280": "https://cdn.pixabay.com/photo/2022/01/10/12/13/winter-6928174_1280.jpg"
    },
    {
        "id": "7177604",
        "src640": "https://cdn.pixabay.com/photo/2022/05/06/06/13/river-7177604_640.jpg",
        "src1280": "https://cdn.pixabay.com/photo/2022/05/06/06/13/river-7177604_1280.jpg"
    },
    {
        "id": "8406190",
        "src640": "https://cdn.pixabay.com/photo/2023/11/22/18/44/ai-generated-8406190_640.jpg",
        "src1280": "https://cdn.pixabay.com/photo/2023/11/22/18/44/ai-generated-8406190_1280.jpg"
    },
    {
        "id": "5173533",
        "src640": "https://cdn.pixabay.com/photo/2020/05/15/13/30/illumination-5173533_640.jpg",
        "src1280": "https://cdn.pixabay.com/photo/2020/05/15/13/30/illumination-5173533_1280.jpg"
    },
    {
        "id": "6945890",
        "src640": "https://cdn.pixabay.com/photo/2022/01/17/22/14/ladder-6945890_640.jpg",
        "src1280": "https://cdn.pixabay.com/photo/2022/01/17/22/14/ladder-6945890_1280.jpg"
    },
    {
        "id": "4718652",
        "src640": "https://cdn.pixabay.com/photo/2019/12/25/13/54/church-4718652_640.jpg",
        "src1280": "https://cdn.pixabay.com/photo/2019/12/25/13/54/church-4718652_1280.jpg"
    },
    {
        "id": "7760532",
        "src640": "https://cdn.pixabay.com/photo/2023/02/01/14/13/snow-7760532_640.jpg",
        "src1280": "https://cdn.pixabay.com/photo/2023/02/01/14/13/snow-7760532_1280.jpg"
    },
    {
        "id": "1959298",
        "src640": "https://cdn.pixabay.com/photo/2017/01/06/23/14/winter-forest-1959298_640.jpg",
        "src1280": "https://cdn.pixabay.com/photo/2017/01/06/23/14/winter-forest-1959298_1280.jpg"
    },
    {
        "id": "4823258",
        "src640": "https://cdn.pixabay.com/photo/2020/02/06/07/46/forest-4823258_640.jpg",
        "src1280": "https://cdn.pixabay.com/photo/2020/02/06/07/46/forest-4823258_1280.jpg"
    },
    {
        "id": "260836",
        "src640": "https://cdn.pixabay.com/photo/2014/02/07/10/31/winter-260836_640.jpg",
        "src1280": "https://cdn.pixabay.com/photo/2014/02/07/10/31/winter-260836_1280.jpg"
    },
    {
        "id": "3981541",
        "src640": "https://cdn.pixabay.com/photo/2019/02/07/16/13/dog-3981541_640.jpg",
        "src1280": "https://cdn.pixabay.com/photo/2019/02/07/16/13/dog-3981541_1280.jpg"
    },
    {
        "id": "1634096",
        "src640": "https://cdn.pixabay.com/photo/2016/08/31/16/53/winter-1634096_640.jpg",
        "src1280": "https://cdn.pixabay.com/photo/2016/08/31/16/53/winter-1634096_1280.jpg"
    },
    {
        "id": "542457",
        "src640": "https://cdn.pixabay.com/photo/2014/11/23/09/33/mill-542457_640.jpg",
        "src1280": "https://cdn.pixabay.com/photo/2014/11/23/09/33/mill-542457_1280.jpg"
    },
    {
        "id": "3194551",
        "src640": "https://cdn.pixabay.com/photo/2018/03/02/23/34/snow-3194551_640.jpg",
        "src1280": "https://cdn.pixabay.com/photo/2018/03/02/23/34/snow-3194551_1280.jpg"
    },
    {
        "id": "2082701",
        "src640": "https://cdn.pixabay.com/photo/2017/02/20/14/30/snowman-2082701_640.jpg",
        "src1280": "https://cdn.pixabay.com/photo/2017/02/20/14/30/snowman-2082701_1280.jpg"
    },
    {
        "id": "6893678",
        "src640": "https://cdn.pixabay.com/photo/2021/12/25/18/44/ornament-6893678_640.jpg",
        "src1280": "https://cdn.pixabay.com/photo/2021/12/25/18/44/ornament-6893678_1280.jpg"
    },
    {
        "id": "8310922",
        "src640": "https://cdn.pixabay.com/photo/2023/10/12/14/10/ai-generated-8310922_640.jpg",
        "src1280": "https://cdn.pixabay.com/photo/2023/10/12/14/10/ai-generated-8310922_1280.jpg"
    },
    {
        "id": "4540129",
        "src640": "https://cdn.pixabay.com/photo/2019/10/10/17/29/berry-4540129_640.jpg",
        "src1280": "https://cdn.pixabay.com/photo/2019/10/10/17/29/berry-4540129_1280.jpg"
    },
    {
        "id": "4763620",
        "src640": "https://cdn.pixabay.com/photo/2020/01/13/22/00/winter-4763620_640.jpg",
        "src1280": "https://cdn.pixabay.com/photo/2020/01/13/22/00/winter-4763620_1280.jpg"
    },
    {
        "id": "2584122",
        "src640": "https://cdn.pixabay.com/photo/2017/08/05/14/40/trees-2584122_640.jpg",
        "src1280": "https://cdn.pixabay.com/photo/2017/08/05/14/40/trees-2584122_1280.jpg"
    },
    {
        "id": "4948963",
        "src640": "https://cdn.pixabay.com/photo/2020/03/19/22/29/daffodil-4948963_640.jpg",
        "src1280": "https://cdn.pixabay.com/photo/2020/03/19/22/29/daffodil-4948963_1280.jpg"
    },
    {
        "id": "4514772",
        "src640": "https://cdn.pixabay.com/photo/2019/09/30/03/56/snow-mountain-4514772_640.jpg",
        "src1280": "https://cdn.pixabay.com/photo/2019/09/30/03/56/snow-mountain-4514772_1280.jpg"
    },
    {
        "id": "3990686",
        "src640": "https://cdn.pixabay.com/photo/2019/02/11/20/24/yorkshire-terrier-3990686_640.jpg",
        "src1280": "https://cdn.pixabay.com/photo/2019/02/11/20/24/yorkshire-terrier-3990686_1280.jpg"
    },
    {
        "id": "4971367",
        "src640": "https://cdn.pixabay.com/photo/2020/03/26/18/34/switzerland-4971367_640.jpg",
        "src1280": "https://cdn.pixabay.com/photo/2020/03/26/18/34/switzerland-4971367_1280.jpg"
    },
    {
        "id": "3293651",
        "src640": "https://cdn.pixabay.com/photo/2018/04/05/17/59/nature-3293651_640.jpg",
        "src1280": "https://cdn.pixabay.com/photo/2018/04/05/17/59/nature-3293651_1280.jpg"
    },
    {
        "id": "4754797",
        "src640": "https://cdn.pixabay.com/photo/2020/01/10/08/53/winter-4754797_640.jpg",
        "src1280": "https://cdn.pixabay.com/photo/2020/01/10/08/53/winter-4754797_1280.jpg"
    }
]