[
    {
        "id": "5278672",
        "src640": "https://cdn.pixabay.com/photo/2020/06/09/14/49/forest-5278672_640.jpg",
        "src1280": "https://cdn.pixabay.com/photo/2020/06/09/14/49/forest-5278672_1280.jpg"
    },
    {
        "id": "5833959",
        "src640": "https://cdn.pixabay.com/photo/2020/12/15/15/10/forest-5833959_640.jpg",
        "src1280": "https://cdn.pixabay.com/photo/2020/12/15/15/10/forest-5833959_1280.jpg"
    },
    {
        "id": "2599072",
        "src640": "https://cdn.pixabay.com/photo/2017/08/07/03/00/mountain-2599072_640.jpg",
        "src1280": "https://cdn.pixabay.com/photo/2017/08/07/03/00/mountain-2599072_1280.jpg"
    },
    {
        "id": "4745394",
        "src640": "https://cdn.pixabay.com/photo/2020/01/06/13/44/dark-4745394_640.jpg",
        "src1280": "https://cdn.pixabay.com/photo/2020/01/06/13/44/dark-4745394_1280.jpg"
    },
    {
        "id": "5969504",
        "src640": "https://cdn.pixabay.com/photo/2021/02/01/06/42/lake-5969504_640.jpg",
        "src1280": "https://cdn.pixabay.com/photo/2021/02/01/06/42/lake-5969504_1280.jpg"
    },
    {
        "id": "3869075",
        "src640": "https://cdn.pixabay.com/photo/2018/12/11/14/52/fashion-3869075_640.jpg",
        "src1280": "https://cdn.pixabay.com/photo/2018/12/11/14/52/fashion-3869075_1280.jpg"
    },
    {
        "id": "946636",
        "src640": "https://cdn.pixabay.com/photo/2015/09/19/00/08/lariat-rope-946636_640.jpg",
        "src1280": "https://cdn.pixabay.com/photo/2015/09/19/00/08/lariat-rope-946636_1280.jpg"
    },
    {
        "id": "5711037",
        "src640": "https://cdn.pixabay.com/photo/2020/11/03/22/05/snowman-5711037_640.jpg",
        "src1280": "https://cdn.pixabay.com/photo/2020/11/03/22/05/snowman-5711037_1280.jpg"
    },
    {
        "id": "971958",
        "src640": "https://cdn.pixabay.com/photo/2015/10/04/21/49/glacier-971958_640.jpg",
        "src1280": "https://cdn.pixabay.com/photo/2015/10/04/21/49/glacier-971958_1280.jpg"
    },
    {
        "id": "2553451",
        "src640": "https://cdn.pixabay.com/photo/2017/07/30/04/15/washington-2553451_640.jpg",
        "src1280": "https://cdn.pixabay.com/photo/2017/07/30/04/15/washington-2553451_1280.jpg"
    },
    {
        "id": "6002858",
        "src640": "https://cdn.pixabay.com/photo/2021/02/10/17/20/motorcycle-6002858_640.jpg",
        "src1280": "https://cdn.pixabay.com/photo/2021/02/10/17/20/motorcycle-6002858_1280.jpg"
    },
    {
        "id": "4528789",
        "src640": "https://cdn.pixabay.com/photo/2019/10/05/21/00/schrankogel-4528789_640.jpg",
        "src1280": "https://cdn.pixabay.com/photo/2019/10/05/21/00/schrankogel-4528789_1280.jpg"
    },
    {
        "id": "4742288",
        "src640": "https://cdn.pixabay.com/photo/2020/01/05/04/56/starry-sky-4742288_640.jpg",
        "src1280": "https://cdn.pixabay.com/photo/2020/01/05/04/56/starry-sky-4742288_1280.jpg"
    },
    {
        "id": "3877287",
        "src640": "https://cdn.pixabay.com/photo/2018/12/15/17/34/fashion-3877287_640.jpg",
        "src1280": "https://cdn.pixabay.com/photo/2018/12/15/17/34/fashion-3877287_1280.jpg"
    },
    {
        "id": "1959302",
        "src640": "https://cdn.pixabay.com/photo/2017/01/06/23/15/aesthetic-1959302_640.jpg",
        "src1280": "https://cdn.pixabay.com/photo/2017/01/06/23/15/aesthetic-1959302_1280.jpg"
    },
    {
        "id": "6885319",
        "src640": "https://cdn.pixabay.com/photo/2021/12/21/13/56/tree-6885319_640.jpg",
        "src1280": "https://cdn.pixabay.com/photo/2021/12/21/13/56/tree-6885319_1280.jpg"
    },
    {
        "id": "4031028",
        "src640": "https://cdn.pixabay.com/photo/2019/03/03/02/39/forest-4031028_640.jpg",
        "src1280": "https://cdn.pixabay.com/photo/2019/03/03/02/39/forest-4031028_1280.jpg"
    },
    {
        "id": "4593839",
        "src640": "https://cdn.pixabay.com/photo/2019/11/01/10/42/tajikistan-4593839_640.jpg",
        "src1280": "https://cdn.pixabay.com/photo/2019/11/01/10/42/tajikistan-4593839_1280.jpg"
    },
    {
        "id": "6956601",
        "src640": "https://cdn.pixabay.com/photo/2022/01/22/09/09/sunset-6956601_640.jpg",
        "src1280": "https://cdn.pixabay.com/photo/2022/01/22/09/09/sunset-6956601_1280.jpg"
    },
    {
        "id": "7519178",
        "src640": "https://cdn.pixabay.com/photo/2022/10/13/13/56/winter-7519178_640.jpg",
        "src1280": "https://cdn.pixabay.com/photo/2022/10/13/13/56/winter-7519178_1280.jpg"
    },
    {
        "id": "4857329",
        "src640": "https://cdn.pixabay.com/photo/2020/02/17/18/36/dombay-4857329_640.jpg",
        "src1280": "https://cdn.pixabay.com/photo/2020/02/17/18/36/dombay-4857329_1280.jpg"
    },
    {
        "id": "3343663",
        "src640": "https://cdn.pixabay.com/photo/2018/04/23/09/34/nature-3343663_640.jpg",
        "src1280": "https://cdn.pixabay.com/photo/2018/04/23/09/34/nature-3343663_1280.jpg"
    },
    {
        "id": "6012021",
        "src640": "https://cdn.pixabay.com/photo/2021/02/13/16/28/trees-6012021_640.jpg",
        "src1280": "https://cdn.pixabay.com/photo/2021/02/13/16/28/trees-6012021_1280.jpg"
    },
    {
        "id": "109906",
        "src640": "https://cdn.pixabay.com/photo/2013/05/08/18/41/oulu-109906_640.jpg",
        "src1280": "https://cdn.pixabay.com/photo/2013/05/08/18/41/oulu-109906_1280.jpg"
    },
    {
        "id": "5962068",
        "src640": "https://cdn.pixabay.com/photo/2021/01/29/20/24/snow-5962068_640.jpg",
        "src1280": "https://cdn.pixabay.com/photo/2021/01/29/20/24/snow-5962068_1280.jpg"
    },
    {
        "id": "5784466",
        "src640": "https://cdn.pixabay.com/photo/2020/11/28/11/48/mountains-5784466_640.jpg",
        "src1280": "https://cdn.pixabay.com/photo/2020/11/28/11/48/mountains-5784466_1280.jpg"
    },
    {
        "id": "7685874",
        "src640": "https://cdn.pixabay.com/photo/2022/12/29/21/31/ai-7685874_640.jpg",
        "src1280": "https://cdn.pixabay.com/photo/2022/12/29/21/31/ai-7685874_1280.jpg"
    },
    {
        "id": "2978996",
        "src640": "https://cdn.pixabay.com/photo/2017/11/26/14/40/winter-2978996_640.jpg",
        "src1280": "https://cdn.pixabay.com/photo/2017/11/26/14/40/winter-2978996_1280.jpg"
    },
    {
        "id": "4046442",
        "src640": "https://cdn.pixabay.com/photo/2019/03/10/15/56/winter-4046442_640.jpg",
        "src1280": "https://cdn.pixabay.com/photo/2019/03/10/15/56/winter-4046442_1280.jpg"
    },
    {
        "id": "250672",
        "src640": "https://cdn.pixabay.com/photo/2014/01/23/19/43/fire-hydrant-250672_640.jpg",
        "src1280": "https://cdn.pixabay.com/photo/2014/01/23/19/43/fire-hydrant-250672_1280.jpg"
    },
    {
        "id": "6886029",
        "src640": "https://cdn.pixabay.com/photo/2021/12/21/21/22/winter-6886029_640.jpg",
        "src1280": "https://cdn.pixabay.com/photo/2021/12/21/21/22/winter-6886029_1280.jpg"
    },
    {
        "id": "17301",
        "src640": "https://cdn.pixabay.com/photo/2012/02/27/15/31/tatra-17301_640.jpg",
        "src1280": "https://cdn.pixabay.com/photo/2012/02/27/15/31/tatra-17301_1280.jpg"
    },
    {
        "id": "976013",
        "src640": "https://cdn.pixabay.com/photo/2015/10/07/11/14/ski-976013_640.jpg",
        "src1280": "https://cdn.pixabay.com/photo/2015/10/07/11/14/ski-976013_1280.jpg"
    },
    {
        "id": "4434869",
        "src640": "https://cdn.pixabay.com/photo/2019/08/27/18/21/mountain-4434869_640.jpg",
        "src1280": "https://cdn.pixabay.com/photo/2019/08/27/18/21/mountain-4434869_1280.jpg"
    },
    {
        "id": "15830",
        "src640": "https://cdn.pixabay.com/photo/2012/02/23/08/54/christmas-15830_640.jpg",
        "src1280": "https://cdn.pixabay.com/photo/2012/02/23/08/54/christmas-15830_1280.jpg"
    },
    {
        "id": "92129",
        "src640": "https://cdn.pixabay.com/photo/2013/03/10/06/39/auto-92129_640.jpg",
        "src1280": "https://cdn.pixabay.com/photo/2013/03/10/06/39/auto-92129_1280.jpg"
    },
    {
        "id": "5803525",
        "src640": "https://cdn.pixabay.com/photo/2020/12/04/15/26/snow-5803525_640.jpg",
        "src1280": "https://cdn.pixabay.com/photo/2020/12/04/15/26/snow-5803525_1280.jpg"
    },
    {
        "id": "7605152",
        "src640": "https://cdn.pixabay.com/photo/2022/11/20/20/19/evening-light-7605152_640.jpg",
        "src1280": "https://cdn.pixabay.com/photo/2022/11/20/20/19/evening-light-7605152_1280.jpg"
    },
    {
        "id": "6715150",
        "src640": "https://cdn.pixabay.com/photo/2021/10/16/14/05/lake-6715150_640.jpg",
        "src1280": "https://cdn.pixabay.com/photo/2021/10/16/14/05/lake-6715150_1280.jpg"
    },
    {
        "id": "16440",
        "src640": "https://cdn.pixabay.com/photo/2012/02/24/11/15/pine-needles-16440_640.jpg",
        "src1280": "https://cdn.pixabay.com/photo/2012/02/24/11/15/pine-needles-16440_1280.jpg"
    },
    {
        "id": "4499447",
        "src640": "https://cdn.pixabay.com/photo/2019/09/23/18/52/chapel-4499447_640.jpg",
        "src1280": "https://cdn.pixabay.com/photo/2019/09/23/18/52/chapel-4499447_1280.jpg"
    },
    {
        "id": "4894390",
        "src640": "https://cdn.pixabay.com/photo/2020/03/01/23/04/snow-4894390_640.jpg",
        "src1280": "https://cdn.pixabay.com/photo/2020/03/01/23/04/snow-4894390_1280.jpg"
    },
    {
        "id": "4016203",
        "src640": "https://cdn.pixabay.com/photo/2019/02/23/18/14/tibetan-terrier-4016203_640.jpg",
        "src1280": "https://cdn.pixabay.com/photo/2019/02/23/18/14/tibetan-terrier-4016203_1280.jpg"
    },
    {
        "id": "214304",
        "src640": "https://cdn.pixabay.com/photo/2013/11/20/23/30/winter-214304_640.jpg",
        "src1280": "https://cdn.pixabay.com/photo/2013/11/20/23/30/winter-214304_1280.jpg"
    },
    {
        "id": "7775242",
        "src640": "https://cdn.pixabay.com/photo/2023/02/07/21/59/pine-needles-7775242_640.jpg",
        "src1280": "https://cdn.pixabay.com/photo/2023/02/07/21/59/pine-needles-7775242_1280.jpg"
    },
    {
        "id": "5829544",
        "src640": "https://cdn.pixabay.com/photo/2020/12/13/22/29/lake-5829544_640.jpg",
        "src1280": "https://cdn.pixabay.com/photo/2020/12/13/22/29/lake-5829544_1280.jpg"
    },
    {
        "id": "4538033",
        "src640": "https://cdn.pixabay.com/photo/2019/10/09/19/04/osterreich-4538033_640.jpg",
        "src1280": "https://cdn.pixabay.com/photo/2019/10/09/19/04/osterreich-4538033_1280.jpg"
    },
    {
        "id": "996301",
        "src640": "https://cdn.pixabay.com/photo/2015/10/19/16/24/hare-996301_640.jpg",
        "src1280": "https://cdn.pixabay.com/photo/2015/10/19/16/24/hare-996301_1280.jpg"
    },
    {
        "id": "3823548",
        "src640": "https://cdn.pixabay.com/photo/2018/11/18/16/59/forest-3823548_640.jpg",
        "src1280": "https://cdn.pixabay.com/photo/2018/11/18/16/59/forest-3823548_1280.jpg"
    },
    {
        "id": "2479482",
        "src640": "https://cdn.pixabay.com/photo/2017/07/06/21/11/lilac-2479482_640.jpg",
        "src1280": "https://cdn.pixabay.com/photo/2017/07/06/21/11/lilac-2479482_1280.jpg"
    },
    {
        "id": "4898676",
        "src640": "https://cdn.pixabay.com/photo/2020/03/03/12/47/girl-4898676_640.jpg",
        "src1280": "https://cdn.pixabay.com/photo/2020/03/03/12/47/girl-4898676_1280.jpg"
    },
    {
        "id": "8437012",
        "src640": "https://cdn.pixabay.com/photo/2023/12/08/07/28/woman-8437012_640.jpg",
        "src1280": "https://cdn.pixabay.com/photo/2023/12/08/07/28/woman-8437012_1280.jpg"
    },
    {
        "id": "4758205",
        "src640": "https://cdn.pixabay.com/photo/2020/01/11/17/20/mountains-4758205_640.jpg",
        "src1280": "https://cdn.pixabay.com/photo/2020/01/11/17/20/mountains-4758205_1280.jpg"
    },
    {
        "id": "2992014",
        "src640": "https://cdn.pixabay.com/photo/2017/12/02/00/26/christmas-ornament-2992014_640.jpg",
        "src1280": "https://cdn.pixabay.com/photo/2017/12/02/00/26/christmas-ornament-2992014_1280.jpg"
    },
    {
        "id": "4645823",
        "src640": "https://cdn.pixabay.com/photo/2019/11/22/21/35/frost-4645823_640.jpg",
        "src1280": "https://cdn.pixabay.com/photo/2019/11/22/21/35/frost-4645823_1280.jpg"
    },
    {
        "id": "3877511",
        "src640": "https://cdn.pixabay.com/photo/2018/12/15/19/36/fashion-3877511_640.jpg",
        "src1280": "https://cdn.pixabay.com/photo/2018/12/15/19/36/fashion-3877511_1280.jpg"
    },
    {
        "id": "2158674",
        "src640": "https://cdn.pixabay.com/photo/2017/03/20/10/17/icicle-2158674_640.jpg",
        "src1280": "https://cdn.pixabay.com/photo/2017/03/20/10/17/icicle-2158674_1280.jpg"
    },
    {
        "id": "7731597",
        "src640": "https://cdn.pixabay.com/photo/2023/01/20/12/27/ai-generated-7731597_640.jpg",
        "src1280": "https://cdn.pixabay.com/photo/2023/01/20/12/27/ai-generated-7731597_1280.jpg"
    },
    {
        "id": "6776778",
        "src640": "https://cdn.pixabay.com/photo/2021/11/07/15/33/nature-6776778_640.jpg",
        "src1280": "https://cdn.pixabay.com/photo/2021/11/07/15/33/nature-6776778_1280.jpg"
    },
    {
        "id": "6017928",
        "src640": "https://cdn.pixabay.com/photo/2021/02/15/13/52/hydrangea-6017928_640.jpg",
        "src1280": "https://cdn.pixabay.com/photo/2021/02/15/13/52/hydrangea-6017928_1280.jpg"
    },
    {
        "id": "8491112",
        "src640": "https://cdn.pixabay.com/photo/2024/01/06/10/48/needles-8491112_640.jpg",
        "src1280": "https://cdn.pixabay.com/photo/2024/01/06/10/48/needles-8491112_1280.jpg"
    },
    {
        "id": "2469815",
        "src640": "https://cdn.pixabay.com/photo/2017/07/04/04/09/switzerland-2469815_640.jpg",
        "src1280": "https://cdn.pixabay.com/photo/2017/07/04/04/09/switzerland-2469815_1280.jpg"
    },
    {
        "id": "4886144",
        "src640": "https://cdn.pixabay.com/photo/2020/02/28/00/01/lake-moraine-4886144_640.jpg",
        "src1280": "https://cdn.pixabay.com/photo/2020/02/28/00/01/lake-moraine-4886144_1280.jpg"
    },
    {
        "id": "7336786",
        "src640": "https://cdn.pixabay.com/photo/2022/07/21/18/57/autumn-7336786_640.jpg",
        "src1280": "https://cdn.pixabay.com/photo/2022/07/21/18/57/autumn-7336786_1280.jpg"
    },
    {
        "id": "1842507",
        "src640": "https://cdn.pixabay.com/photo/2016/11/20/11/09/trillium-lake-1842507_640.jpg",
        "src1280": "https://cdn.pixabay.com/photo/2016/11/20/11/09/trillium-lake-1842507_1280.jpg"
    },
    {
        "id": "4080407",
        "src640": "https://cdn.pixabay.com/photo/2019/03/25/14/45/fashion-4080407_640.jpg",
        "src1280": "https://cdn.pixabay.com/photo/2019/03/25/14/45/fashion-4080407_1280.jpg"
    },
    {
        "id": "2189868",
        "src640": "https://cdn.pixabay.com/photo/2017/03/30/22/17/capricorn-2189868_640.jpg",
        "src1280": "https://cdn.pixabay.com/photo/2017/03/30/22/17/capricorn-2189868_1280.jpg"
    },
    {
        "id": "6891066",
        "src640": "https://cdn.pixabay.com/photo/2021/12/24/13/05/forest-6891066_640.jpg",
        "src1280": "https://cdn.pixabay.com/photo/2021/12/24/13/05/forest-6891066_1280.jpg"
    },
    {
        "id": "5767337",
        "src640": "https://cdn.pixabay.com/photo/2020/11/22/17/28/dog-5767337_640.jpg",
        "src1280": "https://cdn.pixabay.com/photo/2020/11/22/17/28/dog-5767337_1280.jpg"
    },
    {
        "id": "6886936",
        "src640": "https://cdn.pixabay.com/photo/2021/12/22/08/22/stroll-6886936_640.jpg",
        "src1280": "https://cdn.pixabay.com/photo/2021/12/22/08/22/stroll-6886936_1280.jpg"
    },
    {
        "id": "6949103",
        "src640": "https://cdn.pixabay.com/photo/2022/01/19/08/14/mountain-6949103_640.jpg",
        "src1280": "https://cdn.pixabay.com/photo/2022/01/19/08/14/mountain-6949103_1280.jpg"
    },
    {
        "id": "6956295",
        "src640": "https://cdn.pixabay.com/photo/2022/01/22/05/42/calico-cat-6956295_640.jpg",
        "src1280": "https://cdn.pixabay.com/photo/2022/01/22/05/42/calico-cat-6956295_1280.jpg"
    },
    {
        "id": "2575463",
        "src640": "https://cdn.pixabay.com/photo/2017/08/03/10/33/architecture-2575463_640.jpg",
        "src1280": "https://cdn.pixabay.com/photo/2017/08/03/10/33/architecture-2575463_1280.jpg"
    },
    {
        "id": "4758162",
        "src640": "https://cdn.pixabay.com/photo/2020/01/11/17/09/mountains-4758162_640.jpg",
        "src1280": "https://cdn.pixabay.com/photo/2020/01/11/17/09/mountains-4758162_1280.jpg"
    },
    {
        "id": "7664016",
        "src640": "https://cdn.pixabay.com/photo/2022/12/18/18/15/sunset-7664016_640.jpg",
        "src1280": "https://cdn.pixabay.com/photo/2022/12/18/18/15/sunset-7664016_1280.jpg"
    },
    {
        "id": "1695840",
        "src640": "https://cdn.pixabay.com/photo/2016/09/26/12/27/bench-1695840_640.jpg",
        "src1280": "https://cdn.pixabay.com/photo/2016/09/26/12/27/bench-1695840_1280.jpg"
    },
    {
        "id": "6935771",
        "src640": "https://cdn.pixabay.com/photo/2022/01/13/18/05/hut-6935771_640.jpg",
        "src1280": "https://cdn.pixabay.com/photo/2022/01/13/18/05/hut-6935771_1280.jpg"
    },
    {
        "id": "4159822",
        "src640": "https://cdn.pixabay.com/photo/2019/04/27/11/39/winter-4159822_640.jpg",
        "src1280": "https://cdn.pixabay.com/photo/2019/04/27/11/39/winter-4159822_1280.jpg"
    },
    {
        "id": "2245825",
        "src640": "https://cdn.pixabay.com/photo/2017/04/20/14/05/owl-2245825_640.jpg",
        "src1280": "https://cdn.pixabay.com/photo/2017/04/20/14/05/owl-2245825_1280.jpg"
    },
    {
        "id": "3877509",
        "src640": "https://cdn.pixabay.com/photo/2018/12/15/19/36/fashion-3877509_640.jpg",
        "src1280": "https://cdn.pixabay.com/photo/2018/12/15/19/36/fashion-3877509_1280.jpg"
    },
    {
        "id": "1206466",
        "src640": "https://cdn.pixabay.com/photo/2016/02/18/02/57/frost-1206466_640.jpg",
        "src1280": "https://cdn.pixabay.com/photo/2016/02/18/02/57/frost-1206466_1280.jpg"
    },
    {
        "id": "8437005",
        "src640": "https://cdn.pixabay.com/photo/2023/12/08/07/27/woman-8437005_640.jpg",
        "src1280": "https://cdn.pixabay.com/photo/2023/12/08/07/27/woman-8437005_1280.jpg"
    },
    {
        "id": "4976945",
        "src640": "https://cdn.pixabay.com/photo/2020/03/28/12/57/saxerlucke-4976945_640.jpg",
        "src1280": "https://cdn.pixabay.com/photo/2020/03/28/12/57/saxerlucke-4976945_1280.jpg"
    },
    {
        "id": "5715598",
        "src640": "https://cdn.pixabay.com/photo/2020/11/05/17/11/woman-5715598_640.jpg",
        "src1280": "https://cdn.pixabay.com/photo/2020/11/05/17/11/woman-5715598_1280.jpg"
    },
    {
        "id": "6856287",
        "src640": "https://cdn.pixabay.com/photo/2021/12/08/16/52/highland-cattle-6856287_640.jpg",
        "src1280": "https://cdn.pixabay.com/photo/2021/12/08/16/52/highland-cattle-6856287_1280.jpg"
    },
    {
        "id": "505925",
        "src640": "https://cdn.pixabay.com/photo/2014/10/27/22/37/lenses-ridge-505925_640.jpg",
        "src1280": "https://cdn.pixabay.com/photo/2014/10/27/22/37/lenses-ridge-505925_1280.jpg"
    },
    {
        "id": "4898674",
        "src640": "https://cdn.pixabay.com/photo/2020/03/03/12/45/girl-4898674_640.jpg",
        "src1280": "https://cdn.pixabay.com/photo/2020/03/03/12/45/girl-4898674_1280.jpg"
    },
    {
        "id": "3869074",
        "src640": "https://cdn.pixabay.com/photo/2018/12/11/14/52/fashion-3869074_640.jpg",
        "src1280": "https://cdn.pixabay.com/photo/2018/12/11/14/52/fashion-3869074_1280.jpg"
    },
    {
        "id": "4676991",
        "src640": "https://cdn.pixabay.com/photo/2019/12/06/09/13/dog-4676991_640.jpg",
        "src1280": "https://cdn.pixabay.com/photo/2019/12/06/09/13/dog-4676991_1280.jpg"
    },
    {
        "id": "4117085",
        "src640": "https://cdn.pixabay.com/photo/2019/04/10/13/28/snow-4117085_640.jpg",
        "src1280": "https://cdn.pixabay.com/photo/2019/04/10/13/28/snow-4117085_1280.jpg"
    },
    {
        "id": "8379466",
        "src640": "https://cdn.pixabay.com/photo/2023/11/10/14/40/mountain-8379466_640.jpg",
        "src1280": "https://cdn.pixabay.com/photo/2023/11/10/14/40/mountain-8379466_1280.jpg"
    },
    {
        "id": "5973300",
        "src640": "https://cdn.pixabay.com/photo/2021/02/02/09/49/snow-5973300_640.jpg",
        "src1280": "https://cdn.pixabay.com/photo/2021/02/02/09/49/snow-5973300_1280.jpg"
    },
    {
        "id": "6989432",
        "src640": "https://cdn.pixabay.com/photo/2022/02/02/21/37/tree-6989432_640.jpg",
        "src1280": "https://cdn.pixabay.com/photo/2022/02/02/21/37/tree-6989432_1280.jpg"
    },
    {
        "id": "6956600",
        "src640": "https://cdn.pixabay.com/photo/2022/01/22/09/09/sunset-6956600_640.jpg",
        "src1280": "https://cdn.pixabay.com/photo/2022/01/22/09/09/sunset-6956600_1280.jpg"
    }
]