[
    {
        "id": "2216872",
        "src640": "https://cdn.pixabay.com/photo/2017/04/09/20/58/horse-2216872_640.jpg",
        "src1280": "https://cdn.pixabay.com/photo/2017/04/09/20/58/horse-2216872_1280.jpg"
    },
    {
        "id": "3286871",
        "src640": "https://cdn.pixabay.com/photo/2018/04/03/13/44/winter-3286871_640.jpg",
        "src1280": "https://cdn.pixabay.com/photo/2018/04/03/13/44/winter-3286871_1280.jpg"
    },
    {
        "id": "1911576",
        "src640": "https://cdn.pixabay.com/photo/2016/12/16/15/06/christmas-1911576_640.jpg",
        "src1280": "https://cdn.pixabay.com/photo/2016/12/16/15/06/christmas-1911576_1280.jpg"
    },
    {
        "id": "7663283",
        "src640": "https://cdn.pixabay.com/photo/2022/12/18/12/14/fir-tree-7663283_640.jpg",
        "src1280": "https://cdn.pixabay.com/photo/2022/12/18/12/14/fir-tree-7663283_1280.jpg"
    },
    {
        "id": "1828454",
        "src640": "https://cdn.pixabay.com/photo/2016/11/16/09/24/christmas-1828454_640.jpg",
        "src1280": "https://cdn.pixabay.com/photo/2016/11/16/09/24/christmas-1828454_1280.jpg"
    },
    {
        "id": "2845560",
        "src640": "https://cdn.pixabay.com/photo/2017/10/12/19/22/postcard-2845560_640.jpg",
        "src1280": "https://cdn.pixabay.com/photo/2017/10/12/19/22/postcard-2845560_1280.jpg"
    },
    {
        "id": "1830947",
        "src640": "https://cdn.pixabay.com/photo/2016/11/17/08/43/template-1830947_640.jpg",
        "src1280": "https://cdn.pixabay.com/photo/2016/11/17/08/43/template-1830947_1280.jpg"
    },
    {
        "id": "7465671",
        "src640": "https://cdn.pixabay.com/photo/2022/09/19/14/16/grain-elevator-7465671_640.jpg",
        "src1280": "https://cdn.pixabay.com/photo/2022/09/19/14/16/grain-elevator-7465671_1280.jpg"
    },
    {
        "id": "7622992",
        "src640": "https://cdn.pixabay.com/photo/2022/11/28/19/31/ai-generated-7622992_640.jpg",
        "src1280": "https://cdn.pixabay.com/photo/2022/11/28/19/31/ai-generated-7622992_1280.jpg"
    },
    {
        "id": "1830948",
        "src640": "https://cdn.pixabay.com/photo/2016/11/17/08/43/template-1830948_640.jpg",
        "src1280": "https://cdn.pixabay.com/photo/2016/11/17/08/43/template-1830948_1280.jpg"
    },
    {
        "id": "4630212",
        "src640": "https://cdn.pixabay.com/photo/2019/11/16/12/57/fantasy-4630212_640.jpg",
        "src1280": "https://cdn.pixabay.com/photo/2019/11/16/12/57/fantasy-4630212_1280.jpg"
    },
    {
        "id": "8413975",
        "src640": "https://cdn.pixabay.com/photo/2023/11/26/17/14/gingerbread-8413975_640.jpg",
        "src1280": "https://cdn.pixabay.com/photo/2023/11/26/17/14/gingerbread-8413975_1280.jpg"
    },
    {
        "id": "7637634",
        "src640": "https://cdn.pixabay.com/photo/2022/12/05/20/13/girl-7637634_640.jpg",
        "src1280": "https://cdn.pixabay.com/photo/2022/12/05/20/13/girl-7637634_1280.jpg"
    },
    {
        "id": "7669479",
        "src640": "https://cdn.pixabay.com/photo/2022/12/21/08/41/rose-7669479_640.jpg",
        "src1280": "https://cdn.pixabay.com/photo/2022/12/21/08/41/rose-7669479_1280.jpg"
    },
    {
        "id": "1226013",
        "src640": "https://cdn.pixabay.com/photo/2016/02/27/18/27/east-1226013_640.jpg",
        "src1280": "https://cdn.pixabay.com/photo/2016/02/27/18/27/east-1226013_1280.jpg"
    },
    {
        "id": "8365883",
        "src640": "https://cdn.pixabay.com/photo/2023/11/04/21/33/ai-generated-8365883_640.jpg",
        "src1280": "https://cdn.pixabay.com/photo/2023/11/04/21/33/ai-generated-8365883_1280.jpg"
    },
    {
        "id": "3034623",
        "src640": "https://cdn.pixabay.com/photo/2017/12/23/02/56/snowman-3034623_640.jpg",
        "src1280": "https://cdn.pixabay.com/photo/2017/12/23/02/56/snowman-3034623_1280.jpg"
    },
    {
        "id": "1873221",
        "src640": "https://cdn.pixabay.com/photo/2016/11/30/16/23/cat-1873221_640.jpg",
        "src1280": "https://cdn.pixabay.com/photo/2016/11/30/16/23/cat-1873221_1280.jpg"
    },
    {
        "id": "1831033",
        "src640": "https://cdn.pixabay.com/photo/2016/11/17/09/07/template-1831033_640.jpg",
        "src1280": "https://cdn.pixabay.com/photo/2016/11/17/09/07/template-1831033_1280.jpg"
    },
    {
        "id": "6015427",
        "src640": "https://cdn.pixabay.com/photo/2021/02/14/18/38/flowers-6015427_640.jpg",
        "src1280": "https://cdn.pixabay.com/photo/2021/02/14/18/38/flowers-6015427_1280.jpg"
    },
    {
        "id": "8421552",
        "src640": "https://cdn.pixabay.com/photo/2023/11/30/12/25/christmas-star-8421552_640.jpg",
        "src1280": "https://cdn.pixabay.com/photo/2023/11/30/12/25/christmas-star-8421552_1280.jpg"
    },
    {
        "id": "8282261",
        "src640": "https://cdn.pixabay.com/photo/2023/09/28/18/20/ai-generated-8282261_640.jpg",
        "src1280": "https://cdn.pixabay.com/photo/2023/09/28/18/20/ai-generated-8282261_1280.jpg"
    },
    {
        "id": "1619043",
        "src640": "https://cdn.pixabay.com/photo/2016/08/25/08/59/fantasy-1619043_640.jpg",
        "src1280": "https://cdn.pixabay.com/photo/2016/08/25/08/59/fantasy-1619043_1280.jpg"
    },
    {
        "id": "1851691",
        "src640": "https://cdn.pixabay.com/photo/2016/11/23/01/38/fir-1851691_640.jpg",
        "src1280": "https://cdn.pixabay.com/photo/2016/11/23/01/38/fir-1851691_1280.jpg"
    },
    {
        "id": "3695182",
        "src640": "https://cdn.pixabay.com/photo/2018/09/22/12/12/christmas-3695182_640.jpg",
        "src1280": "https://cdn.pixabay.com/photo/2018/09/22/12/12/christmas-3695182_1280.jpg"
    },
    {
        "id": "530047",
        "src640": "https://cdn.pixabay.com/photo/2014/11/13/23/33/crevasse-530047_640.jpg",
        "src1280": "https://cdn.pixabay.com/photo/2014/11/13/23/33/crevasse-530047_1280.jpg"
    },
    {
        "id": "659939",
        "src640": "https://cdn.pixabay.com/photo/2015/03/05/05/59/house-659939_640.jpg",
        "src1280": "https://cdn.pixabay.com/photo/2015/03/05/05/59/house-659939_1280.jpg"
    },
    {
        "id": "3130211",
        "src640": "https://cdn.pixabay.com/photo/2018/02/04/16/28/winter-3130211_640.jpg",
        "src1280": "https://cdn.pixabay.com/photo/2018/02/04/16/28/winter-3130211_1280.jpg"
    },
    {
        "id": "8283199",
        "src640": "https://cdn.pixabay.com/photo/2023/09/29/07/53/ai-generated-8283199_640.jpg",
        "src1280": "https://cdn.pixabay.com/photo/2023/09/29/07/53/ai-generated-8283199_1280.jpg"
    },
    {
        "id": "8408611",
        "src640": "https://cdn.pixabay.com/photo/2023/11/23/19/43/ai-generated-8408611_640.jpg",
        "src1280": "https://cdn.pixabay.com/photo/2023/11/23/19/43/ai-generated-8408611_1280.jpg"
    },
    {
        "id": "1985231",
        "src640": "https://cdn.pixabay.com/photo/2017/01/16/20/52/coloring-book-1985231_640.jpg",
        "src1280": "https://cdn.pixabay.com/photo/2017/01/16/20/52/coloring-book-1985231_1280.jpg"
    },
    {
        "id": "7533402",
        "src640": "https://cdn.pixabay.com/photo/2022/10/19/19/53/woman-7533402_640.jpg",
        "src1280": "https://cdn.pixabay.com/photo/2022/10/19/19/53/woman-7533402_1280.jpg"
    },
    {
        "id": "4164103",
        "src640": "https://cdn.pixabay.com/photo/2019/04/28/19/29/woman-4164103_640.jpg",
        "src1280": "https://cdn.pixabay.com/photo/2019/04/28/19/29/woman-4164103_1280.jpg"
    },
    {
        "id": "6725635",
        "src640": "https://cdn.pixabay.com/photo/2021/10/20/10/14/christmas-6725635_640.jpg",
        "src1280": "https://cdn.pixabay.com/photo/2021/10/20/10/14/christmas-6725635_1280.jpg"
    },
    {
        "id": "1798833",
        "src640": "https://cdn.pixabay.com/photo/2016/11/04/20/00/christmas-1798833_640.jpg",
        "src1280": "https://cdn.pixabay.com/photo/2016/11/04/20/00/christmas-1798833_1280.jpg"
    },
    {
        "id": "8243332",
        "src640": "https://cdn.pixabay.com/photo/2023/09/09/15/24/ai-generated-8243332_640.jpg",
        "src1280": "https://cdn.pixabay.com/photo/2023/09/09/15/24/ai-generated-8243332_1280.jpg"
    },
    {
        "id": "6021655",
        "src640": "https://cdn.pixabay.com/photo/2021/02/16/16/55/oven-6021655_640.jpg",
        "src1280": "https://cdn.pixabay.com/photo/2021/02/16/16/55/oven-6021655_1280.jpg"
    },
    {
        "id": "8282128",
        "src640": "https://cdn.pixabay.com/photo/2023/09/28/17/20/ai-generated-8282128_640.jpg",
        "src1280": "https://cdn.pixabay.com/photo/2023/09/28/17/20/ai-generated-8282128_1280.jpg"
    },
    {
        "id": "2970682",
        "src640": "https://cdn.pixabay.com/photo/2017/11/22/14/56/christmas-2970682_640.jpg",
        "src1280": "https://cdn.pixabay.com/photo/2017/11/22/14/56/christmas-2970682_1280.jpg"
    },
    {
        "id": "3765138",
        "src640": "https://cdn.pixabay.com/photo/2018/10/22/11/48/birch-3765138_640.jpg",
        "src1280": "https://cdn.pixabay.com/photo/2018/10/22/11/48/birch-3765138_1280.jpg"
    },
    {
        "id": "192862",
        "src640": "https://cdn.pixabay.com/photo/2013/10/08/19/59/winter-192862_640.jpg",
        "src1280": "https://cdn.pixabay.com/photo/2013/10/08/19/59/winter-192862_1280.jpg"
    },
    {
        "id": "8247559",
        "src640": "https://cdn.pixabay.com/photo/2023/09/11/21/24/ai-generated-8247559_640.jpg",
        "src1280": "https://cdn.pixabay.com/photo/2023/09/11/21/24/ai-generated-8247559_1280.jpg"
    },
    {
        "id": "1858536",
        "src640": "https://cdn.pixabay.com/photo/2016/11/25/14/30/cat-siberian-1858536_640.jpg",
        "src1280": "https://cdn.pixabay.com/photo/2016/11/25/14/30/cat-siberian-1858536_1280.jpg"
    },
    {
        "id": "7556063",
        "src640": "https://cdn.pixabay.com/photo/2022/10/29/20/16/chicks-7556063_640.jpg",
        "src1280": "https://cdn.pixabay.com/photo/2022/10/29/20/16/chicks-7556063_1280.jpg"
    },
    {
        "id": "1985587",
        "src640": "https://cdn.pixabay.com/photo/2017/01/17/00/02/soap-bubble-1985587_640.jpg",
        "src1280": "https://cdn.pixabay.com/photo/2017/01/17/00/02/soap-bubble-1985587_1280.jpg"
    },
    {
        "id": "7654858",
        "src640": "https://cdn.pixabay.com/photo/2022/12/14/08/37/castle-7654858_640.jpg",
        "src1280": "https://cdn.pixabay.com/photo/2022/12/14/08/37/castle-7654858_1280.jpg"
    },
    {
        "id": "8368436",
        "src640": "https://cdn.pixabay.com/photo/2023/11/05/22/24/ai-generated-8368436_640.jpg",
        "src1280": "https://cdn.pixabay.com/photo/2023/11/05/22/24/ai-generated-8368436_1280.jpg"
    },
    {
        "id": "3695186",
        "src640": "https://cdn.pixabay.com/photo/2018/09/22/12/13/christmas-3695186_640.jpg",
        "src1280": "https://cdn.pixabay.com/photo/2018/09/22/12/13/christmas-3695186_1280.jpg"
    },
    {
        "id": "7762601",
        "src640": "https://cdn.pixabay.com/photo/2023/02/02/11/24/goldammer-7762601_640.jpg",
        "src1280": "https://cdn.pixabay.com/photo/2023/02/02/11/24/goldammer-7762601_1280.jpg"
    },
    {
        "id": "4668098",
        "src640": "https://cdn.pixabay.com/photo/2019/12/02/16/37/snow-4668098_640.jpg",
        "src1280": "https://cdn.pixabay.com/photo/2019/12/02/16/37/snow-4668098_1280.jpg"
    },
    {
        "id": "3017554",
        "src640": "https://cdn.pixabay.com/photo/2017/12/13/19/23/horses-3017554_640.jpg",
        "src1280": "https://cdn.pixabay.com/photo/2017/12/13/19/23/horses-3017554_1280.jpg"
    },
    {
        "id": "1831046",
        "src640": "https://cdn.pixabay.com/photo/2016/11/17/09/15/template-1831046_640.jpg",
        "src1280": "https://cdn.pixabay.com/photo/2016/11/17/09/15/template-1831046_1280.jpg"
    },
    {
        "id": "8287275",
        "src640": "https://cdn.pixabay.com/photo/2023/10/01/11/24/ai-generated-8287275_640.jpg",
        "src1280": "https://cdn.pixabay.com/photo/2023/10/01/11/24/ai-generated-8287275_1280.jpg"
    },
    {
        "id": "3048926",
        "src640": "https://cdn.pixabay.com/photo/2017/12/29/23/40/winter-3048926_640.jpg",
        "src1280": "https://cdn.pixabay.com/photo/2017/12/29/23/40/winter-3048926_1280.jpg"
    },
    {
        "id": "8337016",
        "src640": "https://cdn.pixabay.com/photo/2023/10/23/21/10/ai-generated-8337016_640.jpg",
        "src1280": "https://cdn.pixabay.com/photo/2023/10/23/21/10/ai-generated-8337016_1280.jpg"
    },
    {
        "id": "7653183",
        "src640": "https://cdn.pixabay.com/photo/2022/12/13/11/19/snow-7653183_640.jpg",
        "src1280": "https://cdn.pixabay.com/photo/2022/12/13/11/19/snow-7653183_1280.jpg"
    },
    {
        "id": "93788",
        "src640": "https://cdn.pixabay.com/photo/2013/03/14/22/04/fir-tree-93788_640.jpg",
        "src1280": "https://cdn.pixabay.com/photo/2013/03/14/22/04/fir-tree-93788_1280.jpg"
    },
    {
        "id": "6910910",
        "src640": "https://cdn.pixabay.com/photo/2022/01/02/18/55/trees-6910910_640.jpg",
        "src1280": "https://cdn.pixabay.com/photo/2022/01/02/18/55/trees-6910910_1280.jpg"
    },
    {
        "id": "7836106",
        "src640": "https://cdn.pixabay.com/photo/2023/03/07/16/54/ai-generated-7836106_640.jpg",
        "src1280": "https://cdn.pixabay.com/photo/2023/03/07/16/54/ai-generated-7836106_1280.jpg"
    },
    {
        "id": "8263383",
        "src640": "https://cdn.pixabay.com/photo/2023/09/19/19/38/ai-generated-8263383_640.jpg",
        "src1280": "https://cdn.pixabay.com/photo/2023/09/19/19/38/ai-generated-8263383_1280.jpg"
    },
    {
        "id": "5762274",
        "src640": "https://cdn.pixabay.com/photo/2020/11/20/17/21/houses-5762274_640.jpg",
        "src1280": "https://cdn.pixabay.com/photo/2020/11/20/17/21/houses-5762274_1280.jpg"
    },
    {
        "id": "8367654",
        "src640": "https://cdn.pixabay.com/photo/2023/11/05/15/37/ai-generated-8367654_640.jpg",
        "src1280": "https://cdn.pixabay.com/photo/2023/11/05/15/37/ai-generated-8367654_1280.jpg"
    },
    {
        "id": "7660356",
        "src640": "https://cdn.pixabay.com/photo/2022/12/16/18/40/winter-7660356_640.jpg",
        "src1280": "https://cdn.pixabay.com/photo/2022/12/16/18/40/winter-7660356_1280.jpg"
    },
    {
        "id": "4057412",
        "src640": "https://cdn.pixabay.com/photo/2019/03/15/16/05/house-4057412_640.jpg",
        "src1280": "https://cdn.pixabay.com/photo/2019/03/15/16/05/house-4057412_1280.jpg"
    },
    {
        "id": "7669546",
        "src640": "https://cdn.pixabay.com/photo/2022/12/21/08/45/winter-7669546_640.jpg",
        "src1280": "https://cdn.pixabay.com/photo/2022/12/21/08/45/winter-7669546_1280.jpg"
    },
    {
        "id": "8327475",
        "src640": "https://cdn.pixabay.com/photo/2023/10/19/18/55/landscape-8327475_640.jpg",
        "src1280": "https://cdn.pixabay.com/photo/2023/10/19/18/55/landscape-8327475_1280.jpg"
    },
    {
        "id": "3948207",
        "src640": "https://cdn.pixabay.com/photo/2019/01/22/14/31/winter-3948207_640.jpg",
        "src1280": "https://cdn.pixabay.com/photo/2019/01/22/14/31/winter-3948207_1280.jpg"
    },
    {
        "id": "8263388",
        "src640": "https://cdn.pixabay.com/photo/2023/09/19/19/40/ai-generated-8263388_640.jpg",
        "src1280": "https://cdn.pixabay.com/photo/2023/09/19/19/40/ai-generated-8263388_1280.jpg"
    },
    {
        "id": "5820925",
        "src640": "https://cdn.pixabay.com/photo/2020/12/10/18/02/thuja-5820925_640.jpg",
        "src1280": "https://cdn.pixabay.com/photo/2020/12/10/18/02/thuja-5820925_1280.jpg"
    },
    {
        "id": "8421983",
        "src640": "https://cdn.pixabay.com/photo/2023/11/30/16/00/rose-8421983_640.jpg",
        "src1280": "https://cdn.pixabay.com/photo/2023/11/30/16/00/rose-8421983_1280.jpg"
    },
    {
        "id": "8342628",
        "src640": "https://cdn.pixabay.com/photo/2023/10/26/13/14/ai-generated-8342628_640.jpg",
        "src1280": "https://cdn.pixabay.com/photo/2023/10/26/13/14/ai-generated-8342628_1280.jpg"
    },
    {
        "id": "3198909",
        "src640": "https://cdn.pixabay.com/photo/2018/03/04/19/02/brandy-3198909_640.jpg",
        "src1280": "https://cdn.pixabay.com/photo/2018/03/04/19/02/brandy-3198909_1280.jpg"
    }
]