[
    {
        "id": "6963106",
        "src640": "https://cdn.pixabay.com/photo/2022/01/24/10/18/fence-6963106_640.jpg",
        "src1280": "https://cdn.pixabay.com/photo/2022/01/24/10/18/fence-6963106_1280.jpg"
    },
    {
        "id": "2035102",
        "src640": "https://cdn.pixabay.com/photo/2017/02/03/13/13/winter-2035102_640.jpg",
        "src1280": "https://cdn.pixabay.com/photo/2017/02/03/13/13/winter-2035102_1280.jpg"
    },
    {
        "id": "6167774",
        "src640": "https://cdn.pixabay.com/photo/2021/04/10/17/57/tree-6167774_640.jpg",
        "src1280": "https://cdn.pixabay.com/photo/2021/04/10/17/57/tree-6167774_1280.jpg"
    },
    {
        "id": "6029254",
        "src640": "https://cdn.pixabay.com/photo/2021/02/19/05/45/winter-6029254_640.jpg",
        "src1280": "https://cdn.pixabay.com/photo/2021/02/19/05/45/winter-6029254_1280.jpg"
    },
    {
        "id": "3881759",
        "src640": "https://cdn.pixabay.com/photo/2018/12/18/05/17/glass-ball-3881759_640.jpg",
        "src1280": "https://cdn.pixabay.com/photo/2018/12/18/05/17/glass-ball-3881759_1280.jpg"
    },
    {
        "id": "5749867",
        "src640": "https://cdn.pixabay.com/photo/2020/11/16/18/06/postcard-5749867_640.jpg",
        "src1280": "https://cdn.pixabay.com/photo/2020/11/16/18/06/postcard-5749867_1280.jpg"
    },
    {
        "id": "3933518",
        "src640": "https://cdn.pixabay.com/photo/2019/01/15/05/56/snow-maiden-3933518_640.jpg",
        "src1280": "https://cdn.pixabay.com/photo/2019/01/15/05/56/snow-maiden-3933518_1280.jpg"
    },
    {
        "id": "6017915",
        "src640": "https://cdn.pixabay.com/photo/2021/02/15/13/51/flowers-6017915_640.jpg",
        "src1280": "https://cdn.pixabay.com/photo/2021/02/15/13/51/flowers-6017915_1280.jpg"
    },
    {
        "id": "4661097",
        "src640": "https://cdn.pixabay.com/photo/2019/11/29/11/21/new-year-4661097_640.jpg",
        "src1280": "https://cdn.pixabay.com/photo/2019/11/29/11/21/new-year-4661097_1280.jpg"
    },
    {
        "id": "8365882",
        "src640": "https://cdn.pixabay.com/photo/2023/11/04/21/31/ai-generated-8365882_640.jpg",
        "src1280": "https://cdn.pixabay.com/photo/2023/11/04/21/31/ai-generated-8365882_1280.jpg"
    },
    {
        "id": "8333595",
        "src640": "https://cdn.pixabay.com/photo/2023/10/22/09/00/ai-generated-8333595_640.jpg",
        "src1280": "https://cdn.pixabay.com/photo/2023/10/22/09/00/ai-generated-8333595_1280.jpg"
    },
    {
        "id": "6009897",
        "src640": "https://cdn.pixabay.com/photo/2021/02/12/23/16/winter-6009897_640.jpg",
        "src1280": "https://cdn.pixabay.com/photo/2021/02/12/23/16/winter-6009897_1280.jpg"
    },
    {
        "id": "7623040",
        "src640": "https://cdn.pixabay.com/photo/2022/11/28/19/45/ai-generated-7623040_640.jpg",
        "src1280": "https://cdn.pixabay.com/photo/2022/11/28/19/45/ai-generated-7623040_1280.jpg"
    },
    {
        "id": "1769049",
        "src640": "https://cdn.pixabay.com/photo/2016/10/25/14/34/winter-1769049_640.jpg",
        "src1280": "https://cdn.pixabay.com/photo/2016/10/25/14/34/winter-1769049_1280.jpg"
    },
    {
        "id": "7633759",
        "src640": "https://cdn.pixabay.com/photo/2022/12/04/05/51/tree-7633759_640.jpg",
        "src1280": "https://cdn.pixabay.com/photo/2022/12/04/05/51/tree-7633759_1280.jpg"
    },
    {
        "id": "7844909",
        "src640": "https://cdn.pixabay.com/photo/2023/03/11/17/14/ai-generated-7844909_640.jpg",
        "src1280": "https://cdn.pixabay.com/photo/2023/03/11/17/14/ai-generated-7844909_1280.jpg"
    },
    {
        "id": "7656001",
        "src640": "https://cdn.pixabay.com/photo/2022/12/14/18/19/christmas-7656001_640.jpg",
        "src1280": "https://cdn.pixabay.com/photo/2022/12/14/18/19/christmas-7656001_1280.jpg"
    },
    {
        "id": "7490876",
        "src640": "https://cdn.pixabay.com/photo/2022/10/01/07/18/woman-7490876_640.jpg",
        "src1280": "https://cdn.pixabay.com/photo/2022/10/01/07/18/woman-7490876_1280.jpg"
    },
    {
        "id": "8303986",
        "src640": "https://cdn.pixabay.com/photo/2023/10/09/12/09/ai-generated-8303986_640.jpg",
        "src1280": "https://cdn.pixabay.com/photo/2023/10/09/12/09/ai-generated-8303986_1280.jpg"
    },
    {
        "id": "4828376",
        "src640": "https://cdn.pixabay.com/photo/2020/02/07/20/55/wolf-4828376_640.jpg",
        "src1280": "https://cdn.pixabay.com/photo/2020/02/07/20/55/wolf-4828376_1280.jpg"
    },
    {
        "id": "1918486",
        "src640": "https://cdn.pixabay.com/photo/2016/12/19/15/11/winter-1918486_640.jpg",
        "src1280": "https://cdn.pixabay.com/photo/2016/12/19/15/11/winter-1918486_1280.jpg"
    },
    {
        "id": "7637636",
        "src640": "https://cdn.pixabay.com/photo/2022/12/05/20/14/girl-7637636_640.jpg",
        "src1280": "https://cdn.pixabay.com/photo/2022/12/05/20/14/girl-7637636_1280.jpg"
    },
    {
        "id": "8368211",
        "src640": "https://cdn.pixabay.com/photo/2023/11/05/19/35/ai-generated-8368211_640.jpg",
        "src1280": "https://cdn.pixabay.com/photo/2023/11/05/19/35/ai-generated-8368211_1280.jpg"
    },
    {
        "id": "3727336",
        "src640": "https://cdn.pixabay.com/photo/2018/10/06/05/36/winter-background-3727336_640.jpg",
        "src1280": "https://cdn.pixabay.com/photo/2018/10/06/05/36/winter-background-3727336_1280.jpg"
    },
    {
        "id": "7623037",
        "src640": "https://cdn.pixabay.com/photo/2022/11/28/19/44/ai-generated-7623037_640.jpg",
        "src1280": "https://cdn.pixabay.com/photo/2022/11/28/19/44/ai-generated-7623037_1280.jpg"
    },
    {
        "id": "7659195",
        "src640": "https://cdn.pixabay.com/photo/2022/12/16/09/04/icebear-7659195_640.jpg",
        "src1280": "https://cdn.pixabay.com/photo/2022/12/16/09/04/icebear-7659195_1280.jpg"
    },
    {
        "id": "6934849",
        "src640": "https://cdn.pixabay.com/photo/2022/01/13/10/04/postcard-6934849_640.jpg",
        "src1280": "https://cdn.pixabay.com/photo/2022/01/13/10/04/postcard-6934849_1280.jpg"
    },
    {
        "id": "7993281",
        "src640": "https://cdn.pixabay.com/photo/2023/05/14/16/16/ai-generated-7993281_640.jpg",
        "src1280": "https://cdn.pixabay.com/photo/2023/05/14/16/16/ai-generated-7993281_1280.jpg"
    },
    {
        "id": "7856516",
        "src640": "https://cdn.pixabay.com/photo/2023/03/16/11/19/forest-7856516_640.jpg",
        "src1280": "https://cdn.pixabay.com/photo/2023/03/16/11/19/forest-7856516_1280.jpg"
    },
    {
        "id": "3810892",
        "src640": "https://cdn.pixabay.com/photo/2018/11/12/14/03/christmas-3810892_640.jpg",
        "src1280": "https://cdn.pixabay.com/photo/2018/11/12/14/03/christmas-3810892_1280.jpg"
    },
    {
        "id": "2750906",
        "src640": "https://cdn.pixabay.com/photo/2017/09/15/01/28/sky-2750906_640.jpg",
        "src1280": "https://cdn.pixabay.com/photo/2017/09/15/01/28/sky-2750906_1280.jpg"
    },
    {
        "id": "1189031",
        "src640": "https://cdn.pixabay.com/photo/2016/02/09/12/20/snow-man-1189031_640.jpg",
        "src1280": "https://cdn.pixabay.com/photo/2016/02/09/12/20/snow-man-1189031_1280.jpg"
    },
    {
        "id": "554940",
        "src640": "https://cdn.pixabay.com/photo/2014/12/03/02/18/lighthouse-554940_640.jpg",
        "src1280": "https://cdn.pixabay.com/photo/2014/12/03/02/18/lighthouse-554940_1280.jpg"
    },
    {
        "id": "8307828",
        "src640": "https://cdn.pixabay.com/photo/2023/10/11/06/46/girl-8307828_640.jpg",
        "src1280": "https://cdn.pixabay.com/photo/2023/10/11/06/46/girl-8307828_1280.jpg"
    },
    {
        "id": "7660751",
        "src640": "https://cdn.pixabay.com/photo/2022/12/17/01/10/ai-generated-7660751_640.jpg",
        "src1280": "https://cdn.pixabay.com/photo/2022/12/17/01/10/ai-generated-7660751_1280.jpg"
    },
    {
        "id": "7726994",
        "src640": "https://cdn.pixabay.com/photo/2023/01/18/14/22/horse-7726994_640.jpg",
        "src1280": "https://cdn.pixabay.com/photo/2023/01/18/14/22/horse-7726994_1280.jpg"
    },
    {
        "id": "6102842",
        "src640": "https://cdn.pixabay.com/photo/2021/03/17/16/34/winter-6102842_640.jpg",
        "src1280": "https://cdn.pixabay.com/photo/2021/03/17/16/34/winter-6102842_1280.jpg"
    },
    {
        "id": "3762244",
        "src640": "https://cdn.pixabay.com/photo/2018/10/21/05/02/landscape-3762244_640.jpg",
        "src1280": "https://cdn.pixabay.com/photo/2018/10/21/05/02/landscape-3762244_1280.jpg"
    },
    {
        "id": "6002402",
        "src640": "https://cdn.pixabay.com/photo/2021/02/10/15/05/mill-6002402_640.jpg",
        "src1280": "https://cdn.pixabay.com/photo/2021/02/10/15/05/mill-6002402_1280.jpg"
    },
    {
        "id": "5811189",
        "src640": "https://cdn.pixabay.com/photo/2020/12/07/11/02/holly-5811189_640.jpg",
        "src1280": "https://cdn.pixabay.com/photo/2020/12/07/11/02/holly-5811189_1280.jpg"
    },
    {
        "id": "3067046",
        "src640": "https://cdn.pixabay.com/photo/2018/01/07/11/00/winter-3067046_640.jpg",
        "src1280": "https://cdn.pixabay.com/photo/2018/01/07/11/00/winter-3067046_1280.jpg"
    },
    {
        "id": "6250782",
        "src640": "https://cdn.pixabay.com/photo/2021/05/13/12/43/owl-6250782_640.jpg",
        "src1280": "https://cdn.pixabay.com/photo/2021/05/13/12/43/owl-6250782_1280.jpg"
    },
    {
        "id": "1908900",
        "src640": "https://cdn.pixabay.com/photo/2016/12/15/13/34/christmas-tree-1908900_640.jpg",
        "src1280": "https://cdn.pixabay.com/photo/2016/12/15/13/34/christmas-tree-1908900_1280.jpg"
    },
    {
        "id": "7659197",
        "src640": "https://cdn.pixabay.com/photo/2022/12/16/09/05/icebear-7659197_640.jpg",
        "src1280": "https://cdn.pixabay.com/photo/2022/12/16/09/05/icebear-7659197_1280.jpg"
    },
    {
        "id": "7982172",
        "src640": "https://cdn.pixabay.com/photo/2023/05/09/18/21/woman-7982172_640.jpg",
        "src1280": "https://cdn.pixabay.com/photo/2023/05/09/18/21/woman-7982172_1280.jpg"
    },
    {
        "id": "7703281",
        "src640": "https://cdn.pixabay.com/photo/2023/01/07/13/21/ivy-7703281_640.jpg",
        "src1280": "https://cdn.pixabay.com/photo/2023/01/07/13/21/ivy-7703281_1280.jpg"
    },
    {
        "id": "1206925",
        "src640": "https://cdn.pixabay.com/photo/2016/02/18/10/58/deer-1206925_640.jpg",
        "src1280": "https://cdn.pixabay.com/photo/2016/02/18/10/58/deer-1206925_1280.jpg"
    },
    {
        "id": "7633758",
        "src640": "https://cdn.pixabay.com/photo/2022/12/04/05/51/trees-7633758_640.jpg",
        "src1280": "https://cdn.pixabay.com/photo/2022/12/04/05/51/trees-7633758_1280.jpg"
    },
    {
        "id": "5519903",
        "src640": "https://cdn.pixabay.com/photo/2020/08/26/16/06/santa-5519903_640.jpg",
        "src1280": "https://cdn.pixabay.com/photo/2020/08/26/16/06/santa-5519903_1280.jpg"
    },
    {
        "id": "7552701",
        "src640": "https://cdn.pixabay.com/photo/2022/10/28/09/05/ai-generated-7552701_640.jpg",
        "src1280": "https://cdn.pixabay.com/photo/2022/10/28/09/05/ai-generated-7552701_1280.jpg"
    },
    {
        "id": "6078692",
        "src640": "https://cdn.pixabay.com/photo/2021/03/08/10/19/mountaineer-6078692_640.jpg",
        "src1280": "https://cdn.pixabay.com/photo/2021/03/08/10/19/mountaineer-6078692_1280.jpg"
    },
    {
        "id": "7898717",
        "src640": "https://cdn.pixabay.com/photo/2023/04/04/07/47/winter-7898717_640.jpg",
        "src1280": "https://cdn.pixabay.com/photo/2023/04/04/07/47/winter-7898717_1280.jpg"
    },
    {
        "id": "1913436",
        "src640": "https://cdn.pixabay.com/photo/2016/12/17/13/23/landscape-1913436_640.jpg",
        "src1280": "https://cdn.pixabay.com/photo/2016/12/17/13/23/landscape-1913436_1280.jpg"
    },
    {
        "id": "7663552",
        "src640": "https://cdn.pixabay.com/photo/2022/12/18/14/40/winter-motif-7663552_640.jpg",
        "src1280": "https://cdn.pixabay.com/photo/2022/12/18/14/40/winter-motif-7663552_1280.jpg"
    },
    {
        "id": "3695078",
        "src640": "https://cdn.pixabay.com/photo/2018/09/22/11/35/christmas-3695078_640.jpg",
        "src1280": "https://cdn.pixabay.com/photo/2018/09/22/11/35/christmas-3695078_1280.jpg"
    },
    {
        "id": "2637139",
        "src640": "https://cdn.pixabay.com/photo/2017/08/13/13/40/snow-2637139_640.jpg",
        "src1280": "https://cdn.pixabay.com/photo/2017/08/13/13/40/snow-2637139_1280.jpg"
    },
    {
        "id": "7732069",
        "src640": "https://cdn.pixabay.com/photo/2023/01/20/15/56/lake-7732069_640.jpg",
        "src1280": "https://cdn.pixabay.com/photo/2023/01/20/15/56/lake-7732069_1280.jpg"
    },
    {
        "id": "3904679",
        "src640": "https://cdn.pixabay.com/photo/2018/12/31/08/52/december-3904679_640.jpg",
        "src1280": "https://cdn.pixabay.com/photo/2018/12/31/08/52/december-3904679_1280.jpg"
    },
    {
        "id": "3046253",
        "src640": "https://cdn.pixabay.com/photo/2017/12/28/21/53/tree-3046253_640.jpg",
        "src1280": "https://cdn.pixabay.com/photo/2017/12/28/21/53/tree-3046253_1280.jpg"
    },
    {
        "id": "7637641",
        "src640": "https://cdn.pixabay.com/photo/2022/12/05/20/19/festive-season-7637641_640.jpg",
        "src1280": "https://cdn.pixabay.com/photo/2022/12/05/20/19/festive-season-7637641_1280.jpg"
    },
    {
        "id": "8098477",
        "src640": "https://cdn.pixabay.com/photo/2023/06/30/14/35/couple-8098477_640.jpg",
        "src1280": "https://cdn.pixabay.com/photo/2023/06/30/14/35/couple-8098477_1280.jpg"
    },
    {
        "id": "3200540",
        "src640": "https://cdn.pixabay.com/photo/2018/03/05/11/10/winter-3200540_640.jpg",
        "src1280": "https://cdn.pixabay.com/photo/2018/03/05/11/10/winter-3200540_1280.jpg"
    },
    {
        "id": "6885482",
        "src640": "https://cdn.pixabay.com/photo/2021/12/21/15/11/lumberjack-6885482_640.jpg",
        "src1280": "https://cdn.pixabay.com/photo/2021/12/21/15/11/lumberjack-6885482_1280.jpg"
    },
    {
        "id": "7616618",
        "src640": "https://cdn.pixabay.com/photo/2022/11/25/17/55/red-cardinals-7616618_640.jpg",
        "src1280": "https://cdn.pixabay.com/photo/2022/11/25/17/55/red-cardinals-7616618_1280.jpg"
    },
    {
        "id": "3021649",
        "src640": "https://cdn.pixabay.com/photo/2017/12/15/19/54/astronomy-3021649_640.jpg",
        "src1280": "https://cdn.pixabay.com/photo/2017/12/15/19/54/astronomy-3021649_1280.jpg"
    },
    {
        "id": "3933517",
        "src640": "https://cdn.pixabay.com/photo/2019/01/15/05/56/snow-maiden-3933517_640.jpg",
        "src1280": "https://cdn.pixabay.com/photo/2019/01/15/05/56/snow-maiden-3933517_1280.jpg"
    },
    {
        "id": "7490848",
        "src640": "https://cdn.pixabay.com/photo/2022/10/01/07/12/woman-7490848_640.jpg",
        "src1280": "https://cdn.pixabay.com/photo/2022/10/01/07/12/woman-7490848_1280.jpg"
    },
    {
        "id": "7744923",
        "src640": "https://cdn.pixabay.com/photo/2023/01/26/02/06/kinkaku-ji-7744923_640.jpg",
        "src1280": "https://cdn.pixabay.com/photo/2023/01/26/02/06/kinkaku-ji-7744923_1280.jpg"
    },
    {
        "id": "3958749",
        "src640": "https://cdn.pixabay.com/photo/2019/01/27/19/15/woman-3958749_640.jpg",
        "src1280": "https://cdn.pixabay.com/photo/2019/01/27/19/15/woman-3958749_1280.jpg"
    },
    {
        "id": "2850601",
        "src640": "https://cdn.pixabay.com/photo/2017/10/14/13/47/new-year-2850601_640.jpg",
        "src1280": "https://cdn.pixabay.com/photo/2017/10/14/13/47/new-year-2850601_1280.jpg"
    },
    {
        "id": "4663119",
        "src640": "https://cdn.pixabay.com/photo/2019/11/30/12/07/girl-4663119_640.jpg",
        "src1280": "https://cdn.pixabay.com/photo/2019/11/30/12/07/girl-4663119_1280.jpg"
    }
]