[
    {
        "id": "1831040",
        "src640": "https://cdn.pixabay.com/photo/2016/11/17/09/08/template-1831040_640.jpg",
        "src1280": "https://cdn.pixabay.com/photo/2016/11/17/09/08/template-1831040_1280.jpg"
    },
    {
        "id": "8357278",
        "src640": "https://cdn.pixabay.com/photo/2023/11/01/11/39/winter-8357278_640.jpg",
        "src1280": "https://cdn.pixabay.com/photo/2023/11/01/11/39/winter-8357278_1280.jpg"
    },
    {
        "id": "3005965",
        "src640": "https://cdn.pixabay.com/photo/2017/12/08/14/08/snow-maiden-3005965_640.jpg",
        "src1280": "https://cdn.pixabay.com/photo/2017/12/08/14/08/snow-maiden-3005965_1280.jpg"
    },
    {
        "id": "5964750",
        "src640": "https://cdn.pixabay.com/photo/2021/01/30/17/43/snow-5964750_640.jpg",
        "src1280": "https://cdn.pixabay.com/photo/2021/01/30/17/43/snow-5964750_1280.jpg"
    },
    {
        "id": "8356837",
        "src640": "https://cdn.pixabay.com/photo/2023/11/01/08/30/forest-8356837_640.jpg",
        "src1280": "https://cdn.pixabay.com/photo/2023/11/01/08/30/forest-8356837_1280.jpg"
    },
    {
        "id": "8415249",
        "src640": "https://cdn.pixabay.com/photo/2023/11/27/12/14/ai-generated-8415249_640.jpg",
        "src1280": "https://cdn.pixabay.com/photo/2023/11/27/12/14/ai-generated-8415249_1280.jpg"
    },
    {
        "id": "2237037",
        "src640": "https://cdn.pixabay.com/photo/2017/04/17/10/00/monkey-2237037_640.jpg",
        "src1280": "https://cdn.pixabay.com/photo/2017/04/17/10/00/monkey-2237037_1280.jpg"
    },
    {
        "id": "8420568",
        "src640": "https://cdn.pixabay.com/photo/2023/11/30/00/46/ai-generated-8420568_640.jpg",
        "src1280": "https://cdn.pixabay.com/photo/2023/11/30/00/46/ai-generated-8420568_1280.jpg"
    },
    {
        "id": "639997",
        "src640": "https://cdn.pixabay.com/photo/2015/02/17/21/19/log-639997_640.jpg",
        "src1280": "https://cdn.pixabay.com/photo/2015/02/17/21/19/log-639997_1280.jpg"
    },
    {
        "id": "5749860",
        "src640": "https://cdn.pixabay.com/photo/2020/11/16/18/05/snow-maiden-5749860_640.jpg",
        "src1280": "https://cdn.pixabay.com/photo/2020/11/16/18/05/snow-maiden-5749860_1280.jpg"
    },
    {
        "id": "5519901",
        "src640": "https://cdn.pixabay.com/photo/2020/08/26/16/06/santa-5519901_640.jpg",
        "src1280": "https://cdn.pixabay.com/photo/2020/08/26/16/06/santa-5519901_1280.jpg"
    },
    {
        "id": "3293566",
        "src640": "https://cdn.pixabay.com/photo/2018/04/05/17/41/nature-3293566_640.jpg",
        "src1280": "https://cdn.pixabay.com/photo/2018/04/05/17/41/nature-3293566_1280.jpg"
    },
    {
        "id": "7533399",
        "src640": "https://cdn.pixabay.com/photo/2022/10/19/19/53/woman-7533399_640.jpg",
        "src1280": "https://cdn.pixabay.com/photo/2022/10/19/19/53/woman-7533399_1280.jpg"
    },
    {
        "id": "8465509",
        "src640": "https://cdn.pixabay.com/photo/2023/12/23/12/52/ai-generated-8465509_640.jpg",
        "src1280": "https://cdn.pixabay.com/photo/2023/12/23/12/52/ai-generated-8465509_1280.jpg"
    },
    {
        "id": "3053859",
        "src640": "https://cdn.pixabay.com/photo/2018/01/01/10/38/nature-3053859_640.jpg",
        "src1280": "https://cdn.pixabay.com/photo/2018/01/01/10/38/nature-3053859_1280.jpg"
    },
    {
        "id": "1803827",
        "src640": "https://cdn.pixabay.com/photo/2016/11/06/19/11/winter-1803827_640.jpg",
        "src1280": "https://cdn.pixabay.com/photo/2016/11/06/19/11/winter-1803827_1280.jpg"
    },
    {
        "id": "8401809",
        "src640": "https://cdn.pixabay.com/photo/2023/11/20/19/57/ai-generated-8401809_640.jpg",
        "src1280": "https://cdn.pixabay.com/photo/2023/11/20/19/57/ai-generated-8401809_1280.jpg"
    },
    {
        "id": "1957390",
        "src640": "https://cdn.pixabay.com/photo/2017/01/06/10/18/winter-1957390_640.jpg",
        "src1280": "https://cdn.pixabay.com/photo/2017/01/06/10/18/winter-1957390_1280.jpg"
    },
    {
        "id": "8356558",
        "src640": "https://cdn.pixabay.com/photo/2023/11/01/05/20/pet-8356558_640.jpg",
        "src1280": "https://cdn.pixabay.com/photo/2023/11/01/05/20/pet-8356558_1280.jpg"
    },
    {
        "id": "3929125",
        "src640": "https://cdn.pixabay.com/photo/2019/01/12/19/26/snow-globe-3929125_640.jpg",
        "src1280": "https://cdn.pixabay.com/photo/2019/01/12/19/26/snow-globe-3929125_1280.jpg"
    },
    {
        "id": "8389269",
        "src640": "https://cdn.pixabay.com/photo/2023/11/15/04/32/ai-generated-8389269_640.jpg",
        "src1280": "https://cdn.pixabay.com/photo/2023/11/15/04/32/ai-generated-8389269_1280.jpg"
    },
    {
        "id": "970901",
        "src640": "https://cdn.pixabay.com/photo/2015/10/04/11/23/snow-970901_640.jpg",
        "src1280": "https://cdn.pixabay.com/photo/2015/10/04/11/23/snow-970901_1280.jpg"
    },
    {
        "id": "8312618",
        "src640": "https://cdn.pixabay.com/photo/2023/10/13/11/18/ai-generated-8312618_640.jpg",
        "src1280": "https://cdn.pixabay.com/photo/2023/10/13/11/18/ai-generated-8312618_1280.jpg"
    },
    {
        "id": "2250848",
        "src640": "https://cdn.pixabay.com/photo/2017/04/22/08/47/winter-2250848_640.jpg",
        "src1280": "https://cdn.pixabay.com/photo/2017/04/22/08/47/winter-2250848_1280.jpg"
    },
    {
        "id": "8386487",
        "src640": "https://cdn.pixabay.com/photo/2023/11/13/22/27/ai-generated-8386487_640.jpg",
        "src1280": "https://cdn.pixabay.com/photo/2023/11/13/22/27/ai-generated-8386487_1280.jpg"
    },
    {
        "id": "3002593",
        "src640": "https://cdn.pixabay.com/photo/2017/12/06/20/19/little-girl-3002593_640.jpg",
        "src1280": "https://cdn.pixabay.com/photo/2017/12/06/20/19/little-girl-3002593_1280.jpg"
    },
    {
        "id": "8169692",
        "src640": "https://cdn.pixabay.com/photo/2023/08/04/17/09/ai-generated-8169692_640.jpg",
        "src1280": "https://cdn.pixabay.com/photo/2023/08/04/17/09/ai-generated-8169692_1280.jpg"
    },
    {
        "id": "8329651",
        "src640": "https://cdn.pixabay.com/photo/2023/10/20/14/50/house-8329651_640.jpg",
        "src1280": "https://cdn.pixabay.com/photo/2023/10/20/14/50/house-8329651_1280.jpg"
    },
    {
        "id": "5793322",
        "src640": "https://cdn.pixabay.com/photo/2020/12/01/08/23/winter-queen-5793322_640.jpg",
        "src1280": "https://cdn.pixabay.com/photo/2020/12/01/08/23/winter-queen-5793322_1280.jpg"
    },
    {
        "id": "7616309",
        "src640": "https://cdn.pixabay.com/photo/2022/11/25/14/35/christmas-card-7616309_640.jpg",
        "src1280": "https://cdn.pixabay.com/photo/2022/11/25/14/35/christmas-card-7616309_1280.jpg"
    },
    {
        "id": "8421828",
        "src640": "https://cdn.pixabay.com/photo/2023/11/30/14/31/deer-8421828_640.jpg",
        "src1280": "https://cdn.pixabay.com/photo/2023/11/30/14/31/deer-8421828_1280.jpg"
    },
    {
        "id": "4665698",
        "src640": "https://cdn.pixabay.com/photo/2019/12/01/15/13/christmas-4665698_640.jpg",
        "src1280": "https://cdn.pixabay.com/photo/2019/12/01/15/13/christmas-4665698_1280.jpg"
    },
    {
        "id": "8449374",
        "src640": "https://cdn.pixabay.com/photo/2023/12/14/17/57/ai-generated-8449374_640.jpg",
        "src1280": "https://cdn.pixabay.com/photo/2023/12/14/17/57/ai-generated-8449374_1280.jpg"
    },
    {
        "id": "8398572",
        "src640": "https://cdn.pixabay.com/photo/2023/11/19/11/47/ai-generated-8398572_640.jpg",
        "src1280": "https://cdn.pixabay.com/photo/2023/11/19/11/47/ai-generated-8398572_1280.jpg"
    },
    {
        "id": "558830",
        "src640": "https://cdn.pixabay.com/photo/2014/12/06/09/08/snowman-558830_640.jpg",
        "src1280": "https://cdn.pixabay.com/photo/2014/12/06/09/08/snowman-558830_1280.jpg"
    },
    {
        "id": "8467383",
        "src640": "https://cdn.pixabay.com/photo/2023/12/24/15/21/dragon-8467383_640.jpg",
        "src1280": "https://cdn.pixabay.com/photo/2023/12/24/15/21/dragon-8467383_1280.jpg"
    },
    {
        "id": "8417203",
        "src640": "https://cdn.pixabay.com/photo/2023/11/28/11/03/ai-generated-8417203_640.jpg",
        "src1280": "https://cdn.pixabay.com/photo/2023/11/28/11/03/ai-generated-8417203_1280.jpg"
    },
    {
        "id": "8465443",
        "src640": "https://cdn.pixabay.com/photo/2023/12/23/12/23/christmas-8465443_640.jpg",
        "src1280": "https://cdn.pixabay.com/photo/2023/12/23/12/23/christmas-8465443_1280.jpg"
    },
    {
        "id": "8401802",
        "src640": "https://cdn.pixabay.com/photo/2023/11/20/19/51/ai-generated-8401802_640.jpg",
        "src1280": "https://cdn.pixabay.com/photo/2023/11/20/19/51/ai-generated-8401802_1280.jpg"
    },
    {
        "id": "2208921",
        "src640": "https://cdn.pixabay.com/photo/2017/04/06/17/43/water-2208921_640.jpg",
        "src1280": "https://cdn.pixabay.com/photo/2017/04/06/17/43/water-2208921_1280.jpg"
    },
    {
        "id": "8417204",
        "src640": "https://cdn.pixabay.com/photo/2023/11/28/11/03/ai-generated-8417204_640.jpg",
        "src1280": "https://cdn.pixabay.com/photo/2023/11/28/11/03/ai-generated-8417204_1280.jpg"
    },
    {
        "id": "8337017",
        "src640": "https://cdn.pixabay.com/photo/2023/10/23/21/10/ai-generated-8337017_640.jpg",
        "src1280": "https://cdn.pixabay.com/photo/2023/10/23/21/10/ai-generated-8337017_1280.jpg"
    },
    {
        "id": "8427232",
        "src640": "https://cdn.pixabay.com/photo/2023/12/03/10/34/ai-generated-8427232_640.jpg",
        "src1280": "https://cdn.pixabay.com/photo/2023/12/03/10/34/ai-generated-8427232_1280.jpg"
    },
    {
        "id": "8417366",
        "src640": "https://cdn.pixabay.com/photo/2023/11/28/12/38/ai-generated-8417366_640.jpg",
        "src1280": "https://cdn.pixabay.com/photo/2023/11/28/12/38/ai-generated-8417366_1280.jpg"
    },
    {
        "id": "624401",
        "src640": "https://cdn.pixabay.com/photo/2015/02/05/00/34/norway-624401_640.jpg",
        "src1280": "https://cdn.pixabay.com/photo/2015/02/05/00/34/norway-624401_1280.jpg"
    },
    {
        "id": "8475226",
        "src640": "https://cdn.pixabay.com/photo/2023/12/29/00/57/ai-generated-8475226_640.jpg",
        "src1280": "https://cdn.pixabay.com/photo/2023/12/29/00/57/ai-generated-8475226_1280.jpg"
    },
    {
        "id": "7175032",
        "src640": "https://cdn.pixabay.com/photo/2022/05/05/01/06/winter-7175032_640.jpg",
        "src1280": "https://cdn.pixabay.com/photo/2022/05/05/01/06/winter-7175032_1280.jpg"
    },
    {
        "id": "6125033",
        "src640": "https://cdn.pixabay.com/photo/2021/03/26/06/42/raven-6125033_640.jpg",
        "src1280": "https://cdn.pixabay.com/photo/2021/03/26/06/42/raven-6125033_1280.jpg"
    },
    {
        "id": "8471728",
        "src640": "https://cdn.pixabay.com/photo/2023/12/27/09/18/ai-generated-8471728_640.jpg",
        "src1280": "https://cdn.pixabay.com/photo/2023/12/27/09/18/ai-generated-8471728_1280.jpg"
    },
    {
        "id": "6096765",
        "src640": "https://cdn.pixabay.com/photo/2021/03/15/11/18/white-swiss-sheppard-6096765_640.jpg",
        "src1280": "https://cdn.pixabay.com/photo/2021/03/15/11/18/white-swiss-sheppard-6096765_1280.jpg"
    },
    {
        "id": "8389815",
        "src640": "https://cdn.pixabay.com/photo/2023/11/15/11/49/christmas-8389815_640.jpg",
        "src1280": "https://cdn.pixabay.com/photo/2023/11/15/11/49/christmas-8389815_1280.jpg"
    },
    {
        "id": "4117088",
        "src640": "https://cdn.pixabay.com/photo/2019/04/10/13/31/snow-4117088_640.jpg",
        "src1280": "https://cdn.pixabay.com/photo/2019/04/10/13/31/snow-4117088_1280.jpg"
    },
    {
        "id": "8389271",
        "src640": "https://cdn.pixabay.com/photo/2023/11/15/04/32/ai-generated-8389271_640.jpg",
        "src1280": "https://cdn.pixabay.com/photo/2023/11/15/04/32/ai-generated-8389271_1280.jpg"
    },
    {
        "id": "8433481",
        "src640": "https://cdn.pixabay.com/photo/2023/12/06/10/50/ai-generated-8433481_640.jpg",
        "src1280": "https://cdn.pixabay.com/photo/2023/12/06/10/50/ai-generated-8433481_1280.jpg"
    },
    {
        "id": "8312619",
        "src640": "https://cdn.pixabay.com/photo/2023/10/13/11/18/ai-generated-8312619_640.jpg",
        "src1280": "https://cdn.pixabay.com/photo/2023/10/13/11/18/ai-generated-8312619_1280.jpg"
    },
    {
        "id": "8449398",
        "src640": "https://cdn.pixabay.com/photo/2023/12/14/18/03/ai-generated-8449398_640.jpg",
        "src1280": "https://cdn.pixabay.com/photo/2023/12/14/18/03/ai-generated-8449398_1280.jpg"
    },
    {
        "id": "8392122",
        "src640": "https://cdn.pixabay.com/photo/2023/11/16/10/26/woman-8392122_640.jpg",
        "src1280": "https://cdn.pixabay.com/photo/2023/11/16/10/26/woman-8392122_1280.jpg"
    },
    {
        "id": "7533409",
        "src640": "https://cdn.pixabay.com/photo/2022/10/19/19/54/woman-7533409_640.jpg",
        "src1280": "https://cdn.pixabay.com/photo/2022/10/19/19/54/woman-7533409_1280.jpg"
    },
    {
        "id": "236198",
        "src640": "https://cdn.pixabay.com/photo/2013/12/31/03/06/winter-236198_640.jpg",
        "src1280": "https://cdn.pixabay.com/photo/2013/12/31/03/06/winter-236198_1280.jpg"
    },
    {
        "id": "8423054",
        "src640": "https://cdn.pixabay.com/photo/2023/12/01/07/33/couple-8423054_640.jpg",
        "src1280": "https://cdn.pixabay.com/photo/2023/12/01/07/33/couple-8423054_1280.jpg"
    },
    {
        "id": "8196421",
        "src640": "https://cdn.pixabay.com/photo/2023/08/17/11/45/city-8196421_640.jpg",
        "src1280": "https://cdn.pixabay.com/photo/2023/08/17/11/45/city-8196421_1280.jpg"
    },
    {
        "id": "4555118",
        "src640": "https://cdn.pixabay.com/photo/2019/10/16/18/24/horse-4555118_640.jpg",
        "src1280": "https://cdn.pixabay.com/photo/2019/10/16/18/24/horse-4555118_1280.jpg"
    },
    {
        "id": "8389810",
        "src640": "https://cdn.pixabay.com/photo/2023/11/15/11/49/christmas-8389810_640.jpg",
        "src1280": "https://cdn.pixabay.com/photo/2023/11/15/11/49/christmas-8389810_1280.jpg"
    },
    {
        "id": "5762285",
        "src640": "https://cdn.pixabay.com/photo/2020/11/20/17/27/snow-man-5762285_640.jpg",
        "src1280": "https://cdn.pixabay.com/photo/2020/11/20/17/27/snow-man-5762285_1280.jpg"
    },
    {
        "id": "8440598",
        "src640": "https://cdn.pixabay.com/photo/2023/12/10/04/41/bird-8440598_640.jpg",
        "src1280": "https://cdn.pixabay.com/photo/2023/12/10/04/41/bird-8440598_1280.jpg"
    },
    {
        "id": "1952446",
        "src640": "https://cdn.pixabay.com/photo/2017/01/04/16/44/twilight-1952446_640.jpg",
        "src1280": "https://cdn.pixabay.com/photo/2017/01/04/16/44/twilight-1952446_1280.jpg"
    },
    {
        "id": "8312622",
        "src640": "https://cdn.pixabay.com/photo/2023/10/13/11/18/ai-generated-8312622_640.jpg",
        "src1280": "https://cdn.pixabay.com/photo/2023/10/13/11/18/ai-generated-8312622_1280.jpg"
    },
    {
        "id": "4843992",
        "src640": "https://cdn.pixabay.com/photo/2020/02/12/21/47/snow-star-4843992_640.jpg",
        "src1280": "https://cdn.pixabay.com/photo/2020/02/12/21/47/snow-star-4843992_1280.jpg"
    },
    {
        "id": "3943699",
        "src640": "https://cdn.pixabay.com/photo/2019/01/20/12/41/dog-3943699_640.jpg",
        "src1280": "https://cdn.pixabay.com/photo/2019/01/20/12/41/dog-3943699_1280.jpg"
    },
    {
        "id": "6060482",
        "src640": "https://cdn.pixabay.com/photo/2021/03/01/18/20/snow-6060482_640.jpg",
        "src1280": "https://cdn.pixabay.com/photo/2021/03/01/18/20/snow-6060482_1280.jpg"
    },
    {
        "id": "3206949",
        "src640": "https://cdn.pixabay.com/photo/2018/03/07/19/53/winter-3206949_640.jpg",
        "src1280": "https://cdn.pixabay.com/photo/2018/03/07/19/53/winter-3206949_1280.jpg"
    },
    {
        "id": "8418275",
        "src640": "https://cdn.pixabay.com/photo/2023/11/28/22/02/boy-8418275_640.jpg",
        "src1280": "https://cdn.pixabay.com/photo/2023/11/28/22/02/boy-8418275_1280.jpg"
    },
    {
        "id": "564996",
        "src640": "https://cdn.pixabay.com/photo/2014/12/12/02/46/snowman-564996_640.jpg",
        "src1280": "https://cdn.pixabay.com/photo/2014/12/12/02/46/snowman-564996_1280.jpg"
    }
]