[
    {
        "id": "3935964",
        "src640": "https://cdn.pixabay.com/photo/2019/01/16/13/52/snow-maiden-3935964_640.jpg",
        "src1280": "https://cdn.pixabay.com/photo/2019/01/16/13/52/snow-maiden-3935964_1280.jpg"
    },
    {
        "id": "8465440",
        "src640": "https://cdn.pixabay.com/photo/2023/12/23/12/23/christmas-8465440_640.jpg",
        "src1280": "https://cdn.pixabay.com/photo/2023/12/23/12/23/christmas-8465440_1280.jpg"
    },
    {
        "id": "1122916",
        "src640": "https://cdn.pixabay.com/photo/2016/01/05/16/58/husky-1122916_640.jpg",
        "src1280": "https://cdn.pixabay.com/photo/2016/01/05/16/58/husky-1122916_1280.jpg"
    },
    {
        "id": "8352952",
        "src640": "https://cdn.pixabay.com/photo/2023/10/30/14/04/table-8352952_640.jpg",
        "src1280": "https://cdn.pixabay.com/photo/2023/10/30/14/04/table-8352952_1280.jpg"
    },
    {
        "id": "8329652",
        "src640": "https://cdn.pixabay.com/photo/2023/10/20/14/50/snow-8329652_640.jpg",
        "src1280": "https://cdn.pixabay.com/photo/2023/10/20/14/50/snow-8329652_1280.jpg"
    },
    {
        "id": "2869249",
        "src640": "https://cdn.pixabay.com/photo/2017/10/19/21/05/owl-2869249_640.jpg",
        "src1280": "https://cdn.pixabay.com/photo/2017/10/19/21/05/owl-2869249_1280.jpg"
    },
    {
        "id": "8348987",
        "src640": "https://cdn.pixabay.com/photo/2023/10/29/08/40/table-8348987_640.jpg",
        "src1280": "https://cdn.pixabay.com/photo/2023/10/29/08/40/table-8348987_1280.jpg"
    },
    {
        "id": "3927111",
        "src640": "https://cdn.pixabay.com/photo/2019/01/11/14/49/winter-3927111_640.jpg",
        "src1280": "https://cdn.pixabay.com/photo/2019/01/11/14/49/winter-3927111_1280.jpg"
    },
    {
        "id": "8331592",
        "src640": "https://cdn.pixabay.com/photo/2023/10/21/15/21/ai-generated-8331592_640.jpg",
        "src1280": "https://cdn.pixabay.com/photo/2023/10/21/15/21/ai-generated-8331592_1280.jpg"
    },
    {
        "id": "8397478",
        "src640": "https://cdn.pixabay.com/photo/2023/11/19/00/23/ai-generated-8397478_640.jpg",
        "src1280": "https://cdn.pixabay.com/photo/2023/11/19/00/23/ai-generated-8397478_1280.jpg"
    },
    {
        "id": "2037473",
        "src640": "https://cdn.pixabay.com/photo/2017/02/04/14/50/winter-2037473_640.jpg",
        "src1280": "https://cdn.pixabay.com/photo/2017/02/04/14/50/winter-2037473_1280.jpg"
    },
    {
        "id": "7676144",
        "src640": "https://cdn.pixabay.com/photo/2022/12/24/15/57/trees-7676144_640.jpg",
        "src1280": "https://cdn.pixabay.com/photo/2022/12/24/15/57/trees-7676144_1280.jpg"
    },
    {
        "id": "3835880",
        "src640": "https://cdn.pixabay.com/photo/2018/11/24/16/51/christmas-3835880_640.jpg",
        "src1280": "https://cdn.pixabay.com/photo/2018/11/24/16/51/christmas-3835880_1280.jpg"
    },
    {
        "id": "72182",
        "src640": "https://cdn.pixabay.com/photo/2012/12/24/08/39/christmas-72182_640.jpg",
        "src1280": "https://cdn.pixabay.com/photo/2012/12/24/08/39/christmas-72182_1280.jpg"
    },
    {
        "id": "4071794",
        "src640": "https://cdn.pixabay.com/photo/2019/03/21/19/58/ski-school-4071794_640.jpg",
        "src1280": "https://cdn.pixabay.com/photo/2019/03/21/19/58/ski-school-4071794_1280.jpg"
    },
    {
        "id": "8267156",
        "src640": "https://cdn.pixabay.com/photo/2023/09/21/16/41/ai-generated-8267156_640.jpg",
        "src1280": "https://cdn.pixabay.com/photo/2023/09/21/16/41/ai-generated-8267156_1280.jpg"
    },
    {
        "id": "3890774",
        "src640": "https://cdn.pixabay.com/photo/2018/12/23/09/25/winter-forest-3890774_640.jpg",
        "src1280": "https://cdn.pixabay.com/photo/2018/12/23/09/25/winter-forest-3890774_1280.jpg"
    },
    {
        "id": "4661776",
        "src640": "https://cdn.pixabay.com/photo/2019/11/29/17/21/mouse-4661776_640.jpg",
        "src1280": "https://cdn.pixabay.com/photo/2019/11/29/17/21/mouse-4661776_1280.jpg"
    },
    {
        "id": "8105015",
        "src640": "https://cdn.pixabay.com/photo/2023/07/03/21/17/ai-generated-8105015_640.jpg",
        "src1280": "https://cdn.pixabay.com/photo/2023/07/03/21/17/ai-generated-8105015_1280.jpg"
    },
    {
        "id": "8423056",
        "src640": "https://cdn.pixabay.com/photo/2023/12/01/07/33/couple-8423056_640.jpg",
        "src1280": "https://cdn.pixabay.com/photo/2023/12/01/07/33/couple-8423056_1280.jpg"
    },
    {
        "id": "2127899",
        "src640": "https://cdn.pixabay.com/photo/2017/03/08/21/44/lapland-2127899_640.jpg",
        "src1280": "https://cdn.pixabay.com/photo/2017/03/08/21/44/lapland-2127899_1280.jpg"
    },
    {
        "id": "4693017",
        "src640": "https://cdn.pixabay.com/photo/2019/12/13/13/53/santa-claus-4693017_640.jpg",
        "src1280": "https://cdn.pixabay.com/photo/2019/12/13/13/53/santa-claus-4693017_1280.jpg"
    },
    {
        "id": "3505753",
        "src640": "https://cdn.pixabay.com/photo/2018/06/29/10/40/samoyed-3505753_640.jpg",
        "src1280": "https://cdn.pixabay.com/photo/2018/06/29/10/40/samoyed-3505753_1280.jpg"
    },
    {
        "id": "3513685",
        "src640": "https://cdn.pixabay.com/photo/2018/07/03/11/51/new-zealand-3513685_640.jpg",
        "src1280": "https://cdn.pixabay.com/photo/2018/07/03/11/51/new-zealand-3513685_1280.jpg"
    },
    {
        "id": "8465442",
        "src640": "https://cdn.pixabay.com/photo/2023/12/23/12/23/christmas-8465442_640.jpg",
        "src1280": "https://cdn.pixabay.com/photo/2023/12/23/12/23/christmas-8465442_1280.jpg"
    },
    {
        "id": "8298307",
        "src640": "https://cdn.pixabay.com/photo/2023/10/06/13/29/ai-generated-8298307_640.jpg",
        "src1280": "https://cdn.pixabay.com/photo/2023/10/06/13/29/ai-generated-8298307_1280.jpg"
    },
    {
        "id": "8432376",
        "src640": "https://cdn.pixabay.com/photo/2023/12/05/19/52/woman-8432376_640.jpg",
        "src1280": "https://cdn.pixabay.com/photo/2023/12/05/19/52/woman-8432376_1280.jpg"
    },
    {
        "id": "260872",
        "src640": "https://cdn.pixabay.com/photo/2014/02/07/11/09/winter-260872_640.jpg",
        "src1280": "https://cdn.pixabay.com/photo/2014/02/07/11/09/winter-260872_1280.jpg"
    },
    {
        "id": "8426929",
        "src640": "https://cdn.pixabay.com/photo/2023/12/03/05/52/christmas-8426929_640.jpg",
        "src1280": "https://cdn.pixabay.com/photo/2023/12/03/05/52/christmas-8426929_1280.jpg"
    },
    {
        "id": "3075269",
        "src640": "https://cdn.pixabay.com/photo/2018/01/11/02/19/winter-3075269_640.jpg",
        "src1280": "https://cdn.pixabay.com/photo/2018/01/11/02/19/winter-3075269_1280.jpg"
    },
    {
        "id": "577263",
        "src640": "https://cdn.pixabay.com/photo/2014/12/22/13/27/christmas-tree-577263_640.jpg",
        "src1280": "https://cdn.pixabay.com/photo/2014/12/22/13/27/christmas-tree-577263_1280.jpg"
    },
    {
        "id": "1817926",
        "src640": "https://cdn.pixabay.com/photo/2016/11/11/23/07/checklist-1817926_640.jpg",
        "src1280": "https://cdn.pixabay.com/photo/2016/11/11/23/07/checklist-1817926_1280.jpg"
    },
    {
        "id": "8361940",
        "src640": "https://cdn.pixabay.com/photo/2023/11/03/02/50/ai-generated-8361940_640.jpg",
        "src1280": "https://cdn.pixabay.com/photo/2023/11/03/02/50/ai-generated-8361940_1280.jpg"
    },
    {
        "id": "8044781",
        "src640": "https://cdn.pixabay.com/photo/2023/06/06/14/15/marmots-8044781_640.jpg",
        "src1280": "https://cdn.pixabay.com/photo/2023/06/06/14/15/marmots-8044781_1280.jpg"
    },
    {
        "id": "1492028",
        "src640": "https://cdn.pixabay.com/photo/2016/07/01/22/02/trees-1492028_640.jpg",
        "src1280": "https://cdn.pixabay.com/photo/2016/07/01/22/02/trees-1492028_1280.jpg"
    },
    {
        "id": "2965966",
        "src640": "https://cdn.pixabay.com/photo/2017/11/20/16/16/tyrol-2965966_640.jpg",
        "src1280": "https://cdn.pixabay.com/photo/2017/11/20/16/16/tyrol-2965966_1280.jpg"
    },
    {
        "id": "6248795",
        "src640": "https://cdn.pixabay.com/photo/2021/05/12/17/23/church-6248795_640.jpg",
        "src1280": "https://cdn.pixabay.com/photo/2021/05/12/17/23/church-6248795_1280.jpg"
    },
    {
        "id": "3820890",
        "src640": "https://cdn.pixabay.com/photo/2018/11/17/11/04/fox-3820890_640.jpg",
        "src1280": "https://cdn.pixabay.com/photo/2018/11/17/11/04/fox-3820890_1280.jpg"
    },
    {
        "id": "8430060",
        "src640": "https://cdn.pixabay.com/photo/2023/12/04/18/12/flatlay-8430060_640.jpg",
        "src1280": "https://cdn.pixabay.com/photo/2023/12/04/18/12/flatlay-8430060_1280.jpg"
    },
    {
        "id": "3127095",
        "src640": "https://cdn.pixabay.com/photo/2018/02/03/07/59/girl-3127095_640.jpg",
        "src1280": "https://cdn.pixabay.com/photo/2018/02/03/07/59/girl-3127095_1280.jpg"
    },
    {
        "id": "3051768",
        "src640": "https://cdn.pixabay.com/photo/2017/12/31/08/23/winter-3051768_640.jpg",
        "src1280": "https://cdn.pixabay.com/photo/2017/12/31/08/23/winter-3051768_1280.jpg"
    },
    {
        "id": "8267153",
        "src640": "https://cdn.pixabay.com/photo/2023/09/21/16/41/ai-generated-8267153_640.jpg",
        "src1280": "https://cdn.pixabay.com/photo/2023/09/21/16/41/ai-generated-8267153_1280.jpg"
    },
    {
        "id": "957903",
        "src640": "https://cdn.pixabay.com/photo/2015/09/25/18/22/ski-957903_640.jpg",
        "src1280": "https://cdn.pixabay.com/photo/2015/09/25/18/22/ski-957903_1280.jpg"
    },
    {
        "id": "8423055",
        "src640": "https://cdn.pixabay.com/photo/2023/12/01/07/33/couple-8423055_640.jpg",
        "src1280": "https://cdn.pixabay.com/photo/2023/12/01/07/33/couple-8423055_1280.jpg"
    },
    {
        "id": "1148779",
        "src640": "https://cdn.pixabay.com/photo/2016/01/19/13/22/snow-man-1148779_640.jpg",
        "src1280": "https://cdn.pixabay.com/photo/2016/01/19/13/22/snow-man-1148779_1280.jpg"
    },
    {
        "id": "3959235",
        "src640": "https://cdn.pixabay.com/photo/2019/01/27/22/47/snow-3959235_640.jpg",
        "src1280": "https://cdn.pixabay.com/photo/2019/01/27/22/47/snow-3959235_1280.jpg"
    },
    {
        "id": "1463713",
        "src640": "https://cdn.pixabay.com/photo/2016/06/17/17/46/cabin-1463713_640.jpg",
        "src1280": "https://cdn.pixabay.com/photo/2016/06/17/17/46/cabin-1463713_1280.jpg"
    },
    {
        "id": "4039523",
        "src640": "https://cdn.pixabay.com/photo/2019/03/07/05/13/winter-4039523_640.jpg",
        "src1280": "https://cdn.pixabay.com/photo/2019/03/07/05/13/winter-4039523_1280.jpg"
    },
    {
        "id": "8329655",
        "src640": "https://cdn.pixabay.com/photo/2023/10/20/14/50/snow-8329655_640.jpg",
        "src1280": "https://cdn.pixabay.com/photo/2023/10/20/14/50/snow-8329655_1280.jpg"
    },
    {
        "id": "7599770",
        "src640": "https://cdn.pixabay.com/photo/2022/11/18/09/10/christmas-7599770_640.jpg",
        "src1280": "https://cdn.pixabay.com/photo/2022/11/18/09/10/christmas-7599770_1280.jpg"
    },
    {
        "id": "8413331",
        "src640": "https://cdn.pixabay.com/photo/2023/11/26/10/56/ai-generated-8413331_640.jpg",
        "src1280": "https://cdn.pixabay.com/photo/2023/11/26/10/56/ai-generated-8413331_1280.jpg"
    },
    {
        "id": "8390691",
        "src640": "https://cdn.pixabay.com/photo/2023/11/15/17/55/ai-generated-8390691_640.jpg",
        "src1280": "https://cdn.pixabay.com/photo/2023/11/15/17/55/ai-generated-8390691_1280.jpg"
    },
    {
        "id": "8365276",
        "src640": "https://cdn.pixabay.com/photo/2023/11/04/15/44/ai-generated-8365276_640.jpg",
        "src1280": "https://cdn.pixabay.com/photo/2023/11/04/15/44/ai-generated-8365276_1280.jpg"
    },
    {
        "id": "7758048",
        "src640": "https://cdn.pixabay.com/photo/2023/01/31/12/59/ai-generated-7758048_640.jpg",
        "src1280": "https://cdn.pixabay.com/photo/2023/01/31/12/59/ai-generated-7758048_1280.jpg"
    },
    {
        "id": "3881794",
        "src640": "https://cdn.pixabay.com/photo/2018/12/18/06/23/canada-3881794_640.jpg",
        "src1280": "https://cdn.pixabay.com/photo/2018/12/18/06/23/canada-3881794_1280.jpg"
    },
    {
        "id": "3093622",
        "src640": "https://cdn.pixabay.com/photo/2018/01/20/02/21/snow-3093622_640.jpg",
        "src1280": "https://cdn.pixabay.com/photo/2018/01/20/02/21/snow-3093622_1280.jpg"
    },
    {
        "id": "8368913",
        "src640": "https://cdn.pixabay.com/photo/2023/11/06/06/24/woman-8368913_640.jpg",
        "src1280": "https://cdn.pixabay.com/photo/2023/11/06/06/24/woman-8368913_1280.jpg"
    },
    {
        "id": "8449354",
        "src640": "https://cdn.pixabay.com/photo/2023/12/14/17/51/ai-generated-8449354_640.jpg",
        "src1280": "https://cdn.pixabay.com/photo/2023/12/14/17/51/ai-generated-8449354_1280.jpg"
    },
    {
        "id": "1333787",
        "src640": "https://cdn.pixabay.com/photo/2016/04/16/21/32/street-1333787_640.jpg",
        "src1280": "https://cdn.pixabay.com/photo/2016/04/16/21/32/street-1333787_1280.jpg"
    },
    {
        "id": "8481557",
        "src640": "https://cdn.pixabay.com/photo/2024/01/01/15/15/winter-8481557_640.jpg",
        "src1280": "https://cdn.pixabay.com/photo/2024/01/01/15/15/winter-8481557_1280.jpg"
    },
    {
        "id": "6934848",
        "src640": "https://cdn.pixabay.com/photo/2022/01/13/10/04/postcard-6934848_640.jpg",
        "src1280": "https://cdn.pixabay.com/photo/2022/01/13/10/04/postcard-6934848_1280.jpg"
    },
    {
        "id": "6141337",
        "src640": "https://cdn.pixabay.com/photo/2021/04/01/05/58/mountains-6141337_640.jpg",
        "src1280": "https://cdn.pixabay.com/photo/2021/04/01/05/58/mountains-6141337_1280.jpg"
    },
    {
        "id": "8420081",
        "src640": "https://cdn.pixabay.com/photo/2023/11/29/17/48/snow-8420081_640.jpg",
        "src1280": "https://cdn.pixabay.com/photo/2023/11/29/17/48/snow-8420081_1280.jpg"
    },
    {
        "id": "8462144",
        "src640": "https://cdn.pixabay.com/photo/2023/12/21/16/08/town-8462144_640.jpg",
        "src1280": "https://cdn.pixabay.com/photo/2023/12/21/16/08/town-8462144_1280.jpg"
    },
    {
        "id": "2310887",
        "src640": "https://cdn.pixabay.com/photo/2017/05/13/22/55/owl-2310887_640.jpg",
        "src1280": "https://cdn.pixabay.com/photo/2017/05/13/22/55/owl-2310887_1280.jpg"
    },
    {
        "id": "8367050",
        "src640": "https://cdn.pixabay.com/photo/2023/11/05/12/45/christmas-tree-8367050_640.jpg",
        "src1280": "https://cdn.pixabay.com/photo/2023/11/05/12/45/christmas-tree-8367050_1280.jpg"
    },
    {
        "id": "6206844",
        "src640": "https://cdn.pixabay.com/photo/2021/04/25/15/45/train-6206844_640.jpg",
        "src1280": "https://cdn.pixabay.com/photo/2021/04/25/15/45/train-6206844_1280.jpg"
    },
    {
        "id": "8356838",
        "src640": "https://cdn.pixabay.com/photo/2023/11/01/08/30/forest-8356838_640.jpg",
        "src1280": "https://cdn.pixabay.com/photo/2023/11/01/08/30/forest-8356838_1280.jpg"
    },
    {
        "id": "4896511",
        "src640": "https://cdn.pixabay.com/photo/2020/03/02/18/33/human-4896511_640.jpg",
        "src1280": "https://cdn.pixabay.com/photo/2020/03/02/18/33/human-4896511_1280.jpg"
    },
    {
        "id": "3025082",
        "src640": "https://cdn.pixabay.com/photo/2017/12/17/22/23/nature-3025082_640.jpg",
        "src1280": "https://cdn.pixabay.com/photo/2017/12/17/22/23/nature-3025082_1280.jpg"
    },
    {
        "id": "554900",
        "src640": "https://cdn.pixabay.com/photo/2014/12/03/02/03/lighthouse-554900_640.jpg",
        "src1280": "https://cdn.pixabay.com/photo/2014/12/03/02/03/lighthouse-554900_1280.jpg"
    },
    {
        "id": "1913440",
        "src640": "https://cdn.pixabay.com/photo/2016/12/17/13/25/snow-1913440_640.jpg",
        "src1280": "https://cdn.pixabay.com/photo/2016/12/17/13/25/snow-1913440_1280.jpg"
    },
    {
        "id": "6005134",
        "src640": "https://cdn.pixabay.com/photo/2021/02/11/12/36/cat-6005134_640.jpg",
        "src1280": "https://cdn.pixabay.com/photo/2021/02/11/12/36/cat-6005134_1280.jpg"
    },
    {
        "id": "4408762",
        "src640": "https://cdn.pixabay.com/photo/2019/08/15/19/32/horse-4408762_640.jpg",
        "src1280": "https://cdn.pixabay.com/photo/2019/08/15/19/32/horse-4408762_1280.jpg"
    },
    {
        "id": "4654101",
        "src640": "https://cdn.pixabay.com/photo/2019/11/26/09/16/christmas-4654101_640.jpg",
        "src1280": "https://cdn.pixabay.com/photo/2019/11/26/09/16/christmas-4654101_1280.jpg"
    },
    {
        "id": "273738",
        "src640": "https://cdn.pixabay.com/photo/2014/02/24/16/29/winter-273738_640.jpg",
        "src1280": "https://cdn.pixabay.com/photo/2014/02/24/16/29/winter-273738_1280.jpg"
    },
    {
        "id": "633661",
        "src640": "https://cdn.pixabay.com/photo/2015/02/12/12/38/tree-633661_640.jpg",
        "src1280": "https://cdn.pixabay.com/photo/2015/02/12/12/38/tree-633661_1280.jpg"
    },
    {
        "id": "89263",
        "src640": "https://cdn.pixabay.com/photo/2013/03/02/05/16/bend-over-89263_640.jpg",
        "src1280": "https://cdn.pixabay.com/photo/2013/03/02/05/16/bend-over-89263_1280.jpg"
    },
    {
        "id": "3806658",
        "src640": "https://cdn.pixabay.com/photo/2018/11/10/13/08/st-3806658_640.jpg",
        "src1280": "https://cdn.pixabay.com/photo/2018/11/10/13/08/st-3806658_1280.jpg"
    },
    {
        "id": "8465528",
        "src640": "https://cdn.pixabay.com/photo/2023/12/23/12/55/ai-generated-8465528_640.jpg",
        "src1280": "https://cdn.pixabay.com/photo/2023/12/23/12/55/ai-generated-8465528_1280.jpg"
    },
    {
        "id": "8493684",
        "src640": "https://cdn.pixabay.com/photo/2024/01/07/17/26/oak-leaf-8493684_640.jpg",
        "src1280": "https://cdn.pixabay.com/photo/2024/01/07/17/26/oak-leaf-8493684_1280.jpg"
    },
    {
        "id": "7962155",
        "src640": "https://cdn.pixabay.com/photo/2023/05/01/05/42/river-7962155_640.jpg",
        "src1280": "https://cdn.pixabay.com/photo/2023/05/01/05/42/river-7962155_1280.jpg"
    },
    {
        "id": "6078428",
        "src640": "https://cdn.pixabay.com/photo/2021/03/08/07/40/rose-6078428_640.jpg",
        "src1280": "https://cdn.pixabay.com/photo/2021/03/08/07/40/rose-6078428_1280.jpg"
    },
    {
        "id": "3942492",
        "src640": "https://cdn.pixabay.com/photo/2019/01/19/20/05/graphic-3942492_640.jpg",
        "src1280": "https://cdn.pixabay.com/photo/2019/01/19/20/05/graphic-3942492_1280.jpg"
    },
    {
        "id": "1169882",
        "src640": "https://cdn.pixabay.com/photo/2016/01/30/15/51/maple-syrup-1169882_640.jpg",
        "src1280": "https://cdn.pixabay.com/photo/2016/01/30/15/51/maple-syrup-1169882_1280.jpg"
    },
    {
        "id": "412515",
        "src640": "https://cdn.pixabay.com/photo/2014/08/07/16/30/winter-412515_640.jpg",
        "src1280": "https://cdn.pixabay.com/photo/2014/08/07/16/30/winter-412515_1280.jpg"
    },
    {
        "id": "6246449",
        "src640": "https://cdn.pixabay.com/photo/2021/05/11/17/21/sunset-6246449_640.jpg",
        "src1280": "https://cdn.pixabay.com/photo/2021/05/11/17/21/sunset-6246449_1280.jpg"
    }
]