[
    {
        "id": "6129067",
        "src640": "https://cdn.pixabay.com/photo/2021/03/27/17/15/mountains-6129067_640.jpg",
        "src1280": "https://cdn.pixabay.com/photo/2021/03/27/17/15/mountains-6129067_1280.jpg"
    },
    {
        "id": "540282",
        "src640": "https://cdn.pixabay.com/photo/2014/11/21/08/45/candle-540282_640.jpg",
        "src1280": "https://cdn.pixabay.com/photo/2014/11/21/08/45/candle-540282_1280.jpg"
    },
    {
        "id": "3919134",
        "src640": "https://cdn.pixabay.com/photo/2019/01/07/13/25/winter-3919134_640.jpg",
        "src1280": "https://cdn.pixabay.com/photo/2019/01/07/13/25/winter-3919134_1280.jpg"
    },
    {
        "id": "1159554",
        "src640": "https://cdn.pixabay.com/photo/2016/01/24/20/09/snow-1159554_640.jpg",
        "src1280": "https://cdn.pixabay.com/photo/2016/01/24/20/09/snow-1159554_1280.jpg"
    },
    {
        "id": "7644211",
        "src640": "https://cdn.pixabay.com/photo/2022/12/08/23/15/winter-7644211_640.jpg",
        "src1280": "https://cdn.pixabay.com/photo/2022/12/08/23/15/winter-7644211_1280.jpg"
    },
    {
        "id": "7936438",
        "src640": "https://cdn.pixabay.com/photo/2023/04/19/02/25/squirrel-7936438_640.jpg",
        "src1280": "https://cdn.pixabay.com/photo/2023/04/19/02/25/squirrel-7936438_1280.jpg"
    },
    {
        "id": "261411",
        "src640": "https://cdn.pixabay.com/photo/2014/02/07/22/05/ice-formation-261411_640.jpg",
        "src1280": "https://cdn.pixabay.com/photo/2014/02/07/22/05/ice-formation-261411_1280.jpg"
    },
    {
        "id": "8355164",
        "src640": "https://cdn.pixabay.com/photo/2023/10/31/13/49/mountain-8355164_640.jpg",
        "src1280": "https://cdn.pixabay.com/photo/2023/10/31/13/49/mountain-8355164_1280.jpg"
    },
    {
        "id": "5243804",
        "src640": "https://cdn.pixabay.com/photo/2020/05/31/19/03/winter-5243804_640.jpg",
        "src1280": "https://cdn.pixabay.com/photo/2020/05/31/19/03/winter-5243804_1280.jpg"
    },
    {
        "id": "683069",
        "src640": "https://cdn.pixabay.com/photo/2015/03/21/00/12/snow-683069_640.jpg",
        "src1280": "https://cdn.pixabay.com/photo/2015/03/21/00/12/snow-683069_1280.jpg"
    },
    {
        "id": "8421657",
        "src640": "https://cdn.pixabay.com/photo/2023/11/30/13/28/ai-generated-8421657_640.jpg",
        "src1280": "https://cdn.pixabay.com/photo/2023/11/30/13/28/ai-generated-8421657_1280.jpg"
    },
    {
        "id": "1348762",
        "src640": "https://cdn.pixabay.com/photo/2016/04/24/04/10/winter-1348762_640.jpg",
        "src1280": "https://cdn.pixabay.com/photo/2016/04/24/04/10/winter-1348762_1280.jpg"
    },
    {
        "id": "1979983",
        "src640": "https://cdn.pixabay.com/photo/2017/01/14/17/01/wintry-1979983_640.jpg",
        "src1280": "https://cdn.pixabay.com/photo/2017/01/14/17/01/wintry-1979983_1280.jpg"
    },
    {
        "id": "1361780",
        "src640": "https://cdn.pixabay.com/photo/2016/04/29/20/10/moorland-1361780_640.jpg",
        "src1280": "https://cdn.pixabay.com/photo/2016/04/29/20/10/moorland-1361780_1280.jpg"
    },
    {
        "id": "4271866",
        "src640": "https://cdn.pixabay.com/photo/2019/06/13/15/30/tree-4271866_640.jpg",
        "src1280": "https://cdn.pixabay.com/photo/2019/06/13/15/30/tree-4271866_1280.jpg"
    },
    {
        "id": "3167250",
        "src640": "https://cdn.pixabay.com/photo/2018/02/20/10/03/snow-3167250_640.jpg",
        "src1280": "https://cdn.pixabay.com/photo/2018/02/20/10/03/snow-3167250_1280.jpg"
    },
    {
        "id": "1189971",
        "src640": "https://cdn.pixabay.com/photo/2016/02/09/17/18/snowmobile-1189971_640.jpg",
        "src1280": "https://cdn.pixabay.com/photo/2016/02/09/17/18/snowmobile-1189971_1280.jpg"
    },
    {
        "id": "8077196",
        "src640": "https://cdn.pixabay.com/photo/2023/06/20/15/00/road-8077196_640.jpg",
        "src1280": "https://cdn.pixabay.com/photo/2023/06/20/15/00/road-8077196_1280.jpg"
    },
    {
        "id": "8393425",
        "src640": "https://cdn.pixabay.com/photo/2023/11/17/00/40/ai-generated-8393425_640.jpg",
        "src1280": "https://cdn.pixabay.com/photo/2023/11/17/00/40/ai-generated-8393425_1280.jpg"
    },
    {
        "id": "251462",
        "src640": "https://cdn.pixabay.com/photo/2014/01/25/13/49/winter-251462_640.jpg",
        "src1280": "https://cdn.pixabay.com/photo/2014/01/25/13/49/winter-251462_1280.jpg"
    },
    {
        "id": "1963011",
        "src640": "https://cdn.pixabay.com/photo/2017/01/08/13/53/tree-1963011_640.jpg",
        "src1280": "https://cdn.pixabay.com/photo/2017/01/08/13/53/tree-1963011_1280.jpg"
    },
    {
        "id": "5336568",
        "src640": "https://cdn.pixabay.com/photo/2020/06/24/15/24/winter-5336568_640.jpg",
        "src1280": "https://cdn.pixabay.com/photo/2020/06/24/15/24/winter-5336568_1280.jpg"
    },
    {
        "id": "8348984",
        "src640": "https://cdn.pixabay.com/photo/2023/10/29/08/40/table-8348984_640.jpg",
        "src1280": "https://cdn.pixabay.com/photo/2023/10/29/08/40/table-8348984_1280.jpg"
    },
    {
        "id": "7659186",
        "src640": "https://cdn.pixabay.com/photo/2022/12/16/08/58/mythical-creatures-7659186_640.jpg",
        "src1280": "https://cdn.pixabay.com/photo/2022/12/16/08/58/mythical-creatures-7659186_1280.jpg"
    },
    {
        "id": "552354",
        "src640": "https://cdn.pixabay.com/photo/2014/12/01/04/36/west-virginia-552354_640.jpg",
        "src1280": "https://cdn.pixabay.com/photo/2014/12/01/04/36/west-virginia-552354_1280.jpg"
    },
    {
        "id": "922396",
        "src640": "https://cdn.pixabay.com/photo/2015/09/04/17/17/new-zealand-922396_640.jpg",
        "src1280": "https://cdn.pixabay.com/photo/2015/09/04/17/17/new-zealand-922396_1280.jpg"
    },
    {
        "id": "4798464",
        "src640": "https://cdn.pixabay.com/photo/2020/01/27/21/56/nature-4798464_640.jpg",
        "src1280": "https://cdn.pixabay.com/photo/2020/01/27/21/56/nature-4798464_1280.jpg"
    },
    {
        "id": "8421653",
        "src640": "https://cdn.pixabay.com/photo/2023/11/30/13/28/ai-generated-8421653_640.jpg",
        "src1280": "https://cdn.pixabay.com/photo/2023/11/30/13/28/ai-generated-8421653_1280.jpg"
    },
    {
        "id": "3990688",
        "src640": "https://cdn.pixabay.com/photo/2019/02/11/20/25/black-german-shepherd-3990688_640.jpg",
        "src1280": "https://cdn.pixabay.com/photo/2019/02/11/20/25/black-german-shepherd-3990688_1280.jpg"
    },
    {
        "id": "727657",
        "src640": "https://cdn.pixabay.com/photo/2015/04/17/16/54/christmas-727657_640.jpg",
        "src1280": "https://cdn.pixabay.com/photo/2015/04/17/16/54/christmas-727657_1280.jpg"
    },
    {
        "id": "8289649",
        "src640": "https://cdn.pixabay.com/photo/2023/10/02/17/13/lynx-8289649_640.jpg",
        "src1280": "https://cdn.pixabay.com/photo/2023/10/02/17/13/lynx-8289649_1280.jpg"
    },
    {
        "id": "6917179",
        "src640": "https://cdn.pixabay.com/photo/2022/01/05/13/57/eagle-6917179_640.jpg",
        "src1280": "https://cdn.pixabay.com/photo/2022/01/05/13/57/eagle-6917179_1280.jpg"
    },
    {
        "id": "3464717",
        "src640": "https://cdn.pixabay.com/photo/2018/06/09/16/29/fresh-snow-3464717_640.jpg",
        "src1280": "https://cdn.pixabay.com/photo/2018/06/09/16/29/fresh-snow-3464717_1280.jpg"
    },
    {
        "id": "389246",
        "src640": "https://cdn.pixabay.com/photo/2014/07/10/17/03/woman-389246_640.jpg",
        "src1280": "https://cdn.pixabay.com/photo/2014/07/10/17/03/woman-389246_1280.jpg"
    },
    {
        "id": "3943435",
        "src640": "https://cdn.pixabay.com/photo/2019/01/20/09/35/barrage-3943435_640.jpg",
        "src1280": "https://cdn.pixabay.com/photo/2019/01/20/09/35/barrage-3943435_1280.jpg"
    },
    {
        "id": "4759688",
        "src640": "https://cdn.pixabay.com/photo/2020/01/12/10/28/kirchheim-4759688_640.jpg",
        "src1280": "https://cdn.pixabay.com/photo/2020/01/12/10/28/kirchheim-4759688_1280.jpg"
    },
    {
        "id": "2696023",
        "src640": "https://cdn.pixabay.com/photo/2017/08/30/06/14/motorcycle-2696023_640.jpg",
        "src1280": "https://cdn.pixabay.com/photo/2017/08/30/06/14/motorcycle-2696023_1280.jpg"
    },
    {
        "id": "1738876",
        "src640": "https://cdn.pixabay.com/photo/2016/10/13/21/46/winter-impressions-1738876_640.jpg",
        "src1280": "https://cdn.pixabay.com/photo/2016/10/13/21/46/winter-impressions-1738876_1280.jpg"
    },
    {
        "id": "7692802",
        "src640": "https://cdn.pixabay.com/photo/2023/01/02/19/23/winter-7692802_640.jpg",
        "src1280": "https://cdn.pixabay.com/photo/2023/01/02/19/23/winter-7692802_1280.jpg"
    },
    {
        "id": "6894526",
        "src640": "https://cdn.pixabay.com/photo/2021/12/26/08/42/winter-6894526_640.jpg",
        "src1280": "https://cdn.pixabay.com/photo/2021/12/26/08/42/winter-6894526_1280.jpg"
    },
    {
        "id": "5955863",
        "src640": "https://cdn.pixabay.com/photo/2021/01/27/18/55/snow-5955863_640.jpg",
        "src1280": "https://cdn.pixabay.com/photo/2021/01/27/18/55/snow-5955863_1280.jpg"
    },
    {
        "id": "8324322",
        "src640": "https://cdn.pixabay.com/photo/2023/10/18/13/42/quad-8324322_640.jpg",
        "src1280": "https://cdn.pixabay.com/photo/2023/10/18/13/42/quad-8324322_1280.jpg"
    },
    {
        "id": "2965967",
        "src640": "https://cdn.pixabay.com/photo/2017/11/20/16/16/tyrol-2965967_640.jpg",
        "src1280": "https://cdn.pixabay.com/photo/2017/11/20/16/16/tyrol-2965967_1280.jpg"
    },
    {
        "id": "662925",
        "src640": "https://cdn.pixabay.com/photo/2015/03/07/09/19/house-entrance-662925_640.jpg",
        "src1280": "https://cdn.pixabay.com/photo/2015/03/07/09/19/house-entrance-662925_1280.jpg"
    },
    {
        "id": "2992009",
        "src640": "https://cdn.pixabay.com/photo/2017/12/02/00/25/lantern-2992009_640.jpg",
        "src1280": "https://cdn.pixabay.com/photo/2017/12/02/00/25/lantern-2992009_1280.jpg"
    },
    {
        "id": "7472841",
        "src640": "https://cdn.pixabay.com/photo/2022/09/22/18/04/bull-terrier-7472841_640.jpg",
        "src1280": "https://cdn.pixabay.com/photo/2022/09/22/18/04/bull-terrier-7472841_1280.jpg"
    },
    {
        "id": "7758151",
        "src640": "https://cdn.pixabay.com/photo/2023/01/31/13/33/ai-generated-7758151_640.jpg",
        "src1280": "https://cdn.pixabay.com/photo/2023/01/31/13/33/ai-generated-7758151_1280.jpg"
    },
    {
        "id": "6130670",
        "src640": "https://cdn.pixabay.com/photo/2021/03/28/08/43/dog-6130670_640.jpg",
        "src1280": "https://cdn.pixabay.com/photo/2021/03/28/08/43/dog-6130670_1280.jpg"
    },
    {
        "id": "5650969",
        "src640": "https://cdn.pixabay.com/photo/2020/10/13/07/08/mountains-5650969_640.jpg",
        "src1280": "https://cdn.pixabay.com/photo/2020/10/13/07/08/mountains-5650969_1280.jpg"
    },
    {
        "id": "5865134",
        "src640": "https://cdn.pixabay.com/photo/2020/12/27/19/37/snow-queen-5865134_640.jpg",
        "src1280": "https://cdn.pixabay.com/photo/2020/12/27/19/37/snow-queen-5865134_1280.jpg"
    },
    {
        "id": "8049691",
        "src640": "https://cdn.pixabay.com/photo/2023/06/08/14/25/sunset-8049691_640.jpg",
        "src1280": "https://cdn.pixabay.com/photo/2023/06/08/14/25/sunset-8049691_1280.jpg"
    },
    {
        "id": "7336856",
        "src640": "https://cdn.pixabay.com/photo/2022/07/21/19/48/amazon-7336856_640.jpg",
        "src1280": "https://cdn.pixabay.com/photo/2022/07/21/19/48/amazon-7336856_1280.jpg"
    },
    {
        "id": "6034624",
        "src640": "https://cdn.pixabay.com/photo/2021/02/20/21/06/ice-6034624_640.jpg",
        "src1280": "https://cdn.pixabay.com/photo/2021/02/20/21/06/ice-6034624_1280.jpg"
    },
    {
        "id": "3172513",
        "src640": "https://cdn.pixabay.com/photo/2018/02/22/09/30/winter-3172513_640.jpg",
        "src1280": "https://cdn.pixabay.com/photo/2018/02/22/09/30/winter-3172513_1280.jpg"
    },
    {
        "id": "5919226",
        "src640": "https://cdn.pixabay.com/photo/2021/01/15/12/25/winter-5919226_640.jpg",
        "src1280": "https://cdn.pixabay.com/photo/2021/01/15/12/25/winter-5919226_1280.jpg"
    },
    {
        "id": "500507",
        "src640": "https://cdn.pixabay.com/photo/2014/10/23/22/51/aerial-500507_640.jpg",
        "src1280": "https://cdn.pixabay.com/photo/2014/10/23/22/51/aerial-500507_1280.jpg"
    },
    {
        "id": "2996503",
        "src640": "https://cdn.pixabay.com/photo/2017/12/04/08/00/fir-trees-2996503_640.jpg",
        "src1280": "https://cdn.pixabay.com/photo/2017/12/04/08/00/fir-trees-2996503_1280.jpg"
    },
    {
        "id": "511640",
        "src640": "https://cdn.pixabay.com/photo/2014/11/01/06/40/kids-511640_640.jpg",
        "src1280": "https://cdn.pixabay.com/photo/2014/11/01/06/40/kids-511640_1280.jpg"
    },
    {
        "id": "2304801",
        "src640": "https://cdn.pixabay.com/photo/2017/05/11/17/16/winter-2304801_640.jpg",
        "src1280": "https://cdn.pixabay.com/photo/2017/05/11/17/16/winter-2304801_1280.jpg"
    },
    {
        "id": "3082405",
        "src640": "https://cdn.pixabay.com/photo/2018/01/14/19/09/frost-3082405_640.jpg",
        "src1280": "https://cdn.pixabay.com/photo/2018/01/14/19/09/frost-3082405_1280.jpg"
    },
    {
        "id": "714549",
        "src640": "https://cdn.pixabay.com/photo/2015/04/09/14/25/football-714549_640.jpg",
        "src1280": "https://cdn.pixabay.com/photo/2015/04/09/14/25/football-714549_1280.jpg"
    },
    {
        "id": "8225900",
        "src640": "https://cdn.pixabay.com/photo/2023/08/31/20/23/heart-8225900_640.jpg",
        "src1280": "https://cdn.pixabay.com/photo/2023/08/31/20/23/heart-8225900_1280.jpg"
    },
    {
        "id": "6155708",
        "src640": "https://cdn.pixabay.com/photo/2021/04/06/08/47/snow-6155708_640.jpg",
        "src1280": "https://cdn.pixabay.com/photo/2021/04/06/08/47/snow-6155708_1280.jpg"
    },
    {
        "id": "2006663",
        "src640": "https://cdn.pixabay.com/photo/2017/01/24/23/06/skiing-2006663_640.jpg",
        "src1280": "https://cdn.pixabay.com/photo/2017/01/24/23/06/skiing-2006663_1280.jpg"
    },
    {
        "id": "772341",
        "src640": "https://cdn.pixabay.com/photo/2015/05/18/14/58/glacier-772341_640.jpg",
        "src1280": "https://cdn.pixabay.com/photo/2015/05/18/14/58/glacier-772341_1280.jpg"
    },
    {
        "id": "8267155",
        "src640": "https://cdn.pixabay.com/photo/2023/09/21/16/41/ai-generated-8267155_640.jpg",
        "src1280": "https://cdn.pixabay.com/photo/2023/09/21/16/41/ai-generated-8267155_1280.jpg"
    },
    {
        "id": "3944669",
        "src640": "https://cdn.pixabay.com/photo/2019/01/20/20/45/firs-3944669_640.jpg",
        "src1280": "https://cdn.pixabay.com/photo/2019/01/20/20/45/firs-3944669_1280.jpg"
    },
    {
        "id": "6092260",
        "src640": "https://cdn.pixabay.com/photo/2021/03/13/17/01/winter-6092260_640.jpg",
        "src1280": "https://cdn.pixabay.com/photo/2021/03/13/17/01/winter-6092260_1280.jpg"
    },
    {
        "id": "519662",
        "src640": "https://cdn.pixabay.com/photo/2014/11/06/18/45/christmas-motif-519662_640.jpg",
        "src1280": "https://cdn.pixabay.com/photo/2014/11/06/18/45/christmas-motif-519662_1280.jpg"
    },
    {
        "id": "8441708",
        "src640": "https://cdn.pixabay.com/photo/2023/12/10/15/53/cup-8441708_640.jpg",
        "src1280": "https://cdn.pixabay.com/photo/2023/12/10/15/53/cup-8441708_1280.jpg"
    },
    {
        "id": "8093028",
        "src640": "https://cdn.pixabay.com/photo/2023/06/27/21/22/ai-generated-8093028_640.jpg",
        "src1280": "https://cdn.pixabay.com/photo/2023/06/27/21/22/ai-generated-8093028_1280.jpg"
    },
    {
        "id": "4744047",
        "src640": "https://cdn.pixabay.com/photo/2020/01/05/20/34/winter-4744047_640.jpg",
        "src1280": "https://cdn.pixabay.com/photo/2020/01/05/20/34/winter-4744047_1280.jpg"
    },
    {
        "id": "3789452",
        "src640": "https://cdn.pixabay.com/photo/2018/11/02/01/46/snow-3789452_640.jpg",
        "src1280": "https://cdn.pixabay.com/photo/2018/11/02/01/46/snow-3789452_1280.jpg"
    },
    {
        "id": "2316855",
        "src640": "https://cdn.pixabay.com/photo/2017/05/16/04/46/snow-mountain-2316855_640.jpg",
        "src1280": "https://cdn.pixabay.com/photo/2017/05/16/04/46/snow-mountain-2316855_1280.jpg"
    },
    {
        "id": "7646498",
        "src640": "https://cdn.pixabay.com/photo/2022/12/10/03/11/snowman-7646498_640.jpg",
        "src1280": "https://cdn.pixabay.com/photo/2022/12/10/03/11/snowman-7646498_1280.jpg"
    },
    {
        "id": "7630848",
        "src640": "https://cdn.pixabay.com/photo/2022/12/02/13/13/white-7630848_640.jpg",
        "src1280": "https://cdn.pixabay.com/photo/2022/12/02/13/13/white-7630848_1280.jpg"
    },
    {
        "id": "574338",
        "src640": "https://cdn.pixabay.com/photo/2014/12/20/19/50/wintry-574338_640.jpg",
        "src1280": "https://cdn.pixabay.com/photo/2014/12/20/19/50/wintry-574338_1280.jpg"
    },
    {
        "id": "3936916",
        "src640": "https://cdn.pixabay.com/photo/2019/01/16/22/52/mountains-3936916_640.jpg",
        "src1280": "https://cdn.pixabay.com/photo/2019/01/16/22/52/mountains-3936916_1280.jpg"
    },
    {
        "id": "7887888",
        "src640": "https://cdn.pixabay.com/photo/2023/03/30/14/43/ai-generated-7887888_640.jpg",
        "src1280": "https://cdn.pixabay.com/photo/2023/03/30/14/43/ai-generated-7887888_1280.jpg"
    },
    {
        "id": "7756703",
        "src640": "https://cdn.pixabay.com/photo/2023/01/30/22/02/trees-7756703_640.jpg",
        "src1280": "https://cdn.pixabay.com/photo/2023/01/30/22/02/trees-7756703_1280.jpg"
    },
    {
        "id": "5634091",
        "src640": "https://cdn.pixabay.com/photo/2020/10/07/05/29/river-bank-5634091_640.jpg",
        "src1280": "https://cdn.pixabay.com/photo/2020/10/07/05/29/river-bank-5634091_1280.jpg"
    },
    {
        "id": "7655864",
        "src640": "https://cdn.pixabay.com/photo/2022/12/14/17/06/christmas-7655864_640.jpg",
        "src1280": "https://cdn.pixabay.com/photo/2022/12/14/17/06/christmas-7655864_1280.jpg"
    },
    {
        "id": "3130242",
        "src640": "https://cdn.pixabay.com/photo/2018/02/04/16/42/snow-3130242_640.jpg",
        "src1280": "https://cdn.pixabay.com/photo/2018/02/04/16/42/snow-3130242_1280.jpg"
    },
    {
        "id": "1493134",
        "src640": "https://cdn.pixabay.com/photo/2016/07/02/16/00/lugano-1493134_640.jpg",
        "src1280": "https://cdn.pixabay.com/photo/2016/07/02/16/00/lugano-1493134_1280.jpg"
    },
    {
        "id": "8313825",
        "src640": "https://cdn.pixabay.com/photo/2023/10/14/02/36/dog-8313825_640.jpg",
        "src1280": "https://cdn.pixabay.com/photo/2023/10/14/02/36/dog-8313825_1280.jpg"
    },
    {
        "id": "3896612",
        "src640": "https://cdn.pixabay.com/photo/2018/12/26/22/56/maranza-meransen-3896612_640.jpg",
        "src1280": "https://cdn.pixabay.com/photo/2018/12/26/22/56/maranza-meransen-3896612_1280.jpg"
    },
    {
        "id": "8244622",
        "src640": "https://cdn.pixabay.com/photo/2023/09/10/10/25/ai-generated-8244622_640.jpg",
        "src1280": "https://cdn.pixabay.com/photo/2023/09/10/10/25/ai-generated-8244622_1280.jpg"
    },
    {
        "id": "2739231",
        "src640": "https://cdn.pixabay.com/photo/2017/09/11/14/55/ski-2739231_640.jpg",
        "src1280": "https://cdn.pixabay.com/photo/2017/09/11/14/55/ski-2739231_1280.jpg"
    },
    {
        "id": "3407443",
        "src640": "https://cdn.pixabay.com/photo/2018/05/16/23/58/eiffel-tower-3407443_640.jpg",
        "src1280": "https://cdn.pixabay.com/photo/2018/05/16/23/58/eiffel-tower-3407443_1280.jpg"
    },
    {
        "id": "584138",
        "src640": "https://cdn.pixabay.com/photo/2014/12/30/17/17/child-584138_640.jpg",
        "src1280": "https://cdn.pixabay.com/photo/2014/12/30/17/17/child-584138_1280.jpg"
    },
    {
        "id": "7847873",
        "src640": "https://cdn.pixabay.com/photo/2023/03/12/21/04/ai-generated-7847873_640.jpg",
        "src1280": "https://cdn.pixabay.com/photo/2023/03/12/21/04/ai-generated-7847873_1280.jpg"
    },
    {
        "id": "6100589",
        "src640": "https://cdn.pixabay.com/photo/2021/03/16/18/02/bird-6100589_640.jpg",
        "src1280": "https://cdn.pixabay.com/photo/2021/03/16/18/02/bird-6100589_1280.jpg"
    }
]