[
    {
        "id": "7218284",
        "src640": "https://cdn.pixabay.com/photo/2022/05/24/11/27/tree-7218284_640.jpg",
        "src1280": "https://cdn.pixabay.com/photo/2022/05/24/11/27/tree-7218284_1280.jpg"
    },
    {
        "id": "1960168",
        "src640": "https://cdn.pixabay.com/photo/2017/01/07/11/46/winter-1960168_640.jpg",
        "src1280": "https://cdn.pixabay.com/photo/2017/01/07/11/46/winter-1960168_1280.jpg"
    },
    {
        "id": "5959731",
        "src640": "https://cdn.pixabay.com/photo/2021/01/29/05/19/animal-5959731_640.jpg",
        "src1280": "https://cdn.pixabay.com/photo/2021/01/29/05/19/animal-5959731_1280.jpg"
    },
    {
        "id": "8214315",
        "src640": "https://cdn.pixabay.com/photo/2023/08/26/07/32/glaciers-8214315_640.jpg",
        "src1280": "https://cdn.pixabay.com/photo/2023/08/26/07/32/glaciers-8214315_1280.jpg"
    },
    {
        "id": "2282765",
        "src640": "https://cdn.pixabay.com/photo/2017/05/04/03/46/winter-2282765_640.jpg",
        "src1280": "https://cdn.pixabay.com/photo/2017/05/04/03/46/winter-2282765_1280.jpg"
    },
    {
        "id": "5383299",
        "src640": "https://cdn.pixabay.com/photo/2020/07/08/09/26/spring-5383299_640.jpg",
        "src1280": "https://cdn.pixabay.com/photo/2020/07/08/09/26/spring-5383299_1280.jpg"
    },
    {
        "id": "5698544",
        "src640": "https://cdn.pixabay.com/photo/2020/10/30/13/13/mountain-5698544_640.jpg",
        "src1280": "https://cdn.pixabay.com/photo/2020/10/30/13/13/mountain-5698544_1280.jpg"
    },
    {
        "id": "4945528",
        "src640": "https://cdn.pixabay.com/photo/2020/03/18/21/25/winter-4945528_640.jpg",
        "src1280": "https://cdn.pixabay.com/photo/2020/03/18/21/25/winter-4945528_1280.jpg"
    },
    {
        "id": "3174277",
        "src640": "https://cdn.pixabay.com/photo/2018/02/22/23/34/snow-3174277_640.jpg",
        "src1280": "https://cdn.pixabay.com/photo/2018/02/22/23/34/snow-3174277_1280.jpg"
    },
    {
        "id": "5729532",
        "src640": "https://cdn.pixabay.com/photo/2020/11/10/11/48/saalbach-hinterglemm-5729532_640.jpg",
        "src1280": "https://cdn.pixabay.com/photo/2020/11/10/11/48/saalbach-hinterglemm-5729532_1280.jpg"
    },
    {
        "id": "4896631",
        "src640": "https://cdn.pixabay.com/photo/2020/03/02/19/16/snow-pattern-4896631_640.jpg",
        "src1280": "https://cdn.pixabay.com/photo/2020/03/02/19/16/snow-pattern-4896631_1280.jpg"
    },
    {
        "id": "1018229",
        "src640": "https://cdn.pixabay.com/photo/2015/11/02/10/47/christmas-1018229_640.jpg",
        "src1280": "https://cdn.pixabay.com/photo/2015/11/02/10/47/christmas-1018229_1280.jpg"
    },
    {
        "id": "2018654",
        "src640": "https://cdn.pixabay.com/photo/2017/01/29/16/30/allgau-2018654_640.jpg",
        "src1280": "https://cdn.pixabay.com/photo/2017/01/29/16/30/allgau-2018654_1280.jpg"
    },
    {
        "id": "5940779",
        "src640": "https://cdn.pixabay.com/photo/2021/01/22/18/16/trees-5940779_640.jpg",
        "src1280": "https://cdn.pixabay.com/photo/2021/01/22/18/16/trees-5940779_1280.jpg"
    },
    {
        "id": "4695531",
        "src640": "https://cdn.pixabay.com/photo/2019/12/14/19/01/winter-4695531_640.jpg",
        "src1280": "https://cdn.pixabay.com/photo/2019/12/14/19/01/winter-4695531_1280.jpg"
    },
    {
        "id": "6017429",
        "src640": "https://cdn.pixabay.com/photo/2021/02/15/10/55/river-6017429_640.jpg",
        "src1280": "https://cdn.pixabay.com/photo/2021/02/15/10/55/river-6017429_1280.jpg"
    },
    {
        "id": "7834162",
        "src640": "https://cdn.pixabay.com/photo/2023/03/06/19/55/animal-7834162_640.jpg",
        "src1280": "https://cdn.pixabay.com/photo/2023/03/06/19/55/animal-7834162_1280.jpg"
    },
    {
        "id": "1058310",
        "src640": "https://cdn.pixabay.com/photo/2015/11/23/12/54/snow-1058310_640.jpg",
        "src1280": "https://cdn.pixabay.com/photo/2015/11/23/12/54/snow-1058310_1280.jpg"
    },
    {
        "id": "677338",
        "src640": "https://cdn.pixabay.com/photo/2015/03/17/08/39/snow-677338_640.jpg",
        "src1280": "https://cdn.pixabay.com/photo/2015/03/17/08/39/snow-677338_1280.jpg"
    },
    {
        "id": "1207765",
        "src640": "https://cdn.pixabay.com/photo/2016/02/18/18/10/finnish-1207765_640.jpg",
        "src1280": "https://cdn.pixabay.com/photo/2016/02/18/18/10/finnish-1207765_1280.jpg"
    },
    {
        "id": "250965",
        "src640": "https://cdn.pixabay.com/photo/2014/01/24/12/56/hoarfrost-250965_640.jpg",
        "src1280": "https://cdn.pixabay.com/photo/2014/01/24/12/56/hoarfrost-250965_1280.jpg"
    },
    {
        "id": "3061632",
        "src640": "https://cdn.pixabay.com/photo/2018/01/04/21/01/sky-3061632_640.jpg",
        "src1280": "https://cdn.pixabay.com/photo/2018/01/04/21/01/sky-3061632_1280.jpg"
    },
    {
        "id": "2397248",
        "src640": "https://cdn.pixabay.com/photo/2017/06/13/00/00/winter-2397248_640.jpg",
        "src1280": "https://cdn.pixabay.com/photo/2017/06/13/00/00/winter-2397248_1280.jpg"
    },
    {
        "id": "7592039",
        "src640": "https://cdn.pixabay.com/photo/2022/11/14/16/19/girl-7592039_640.jpg",
        "src1280": "https://cdn.pixabay.com/photo/2022/11/14/16/19/girl-7592039_1280.jpg"
    },
    {
        "id": "4606852",
        "src640": "https://cdn.pixabay.com/photo/2019/11/06/18/22/trace-4606852_640.jpg",
        "src1280": "https://cdn.pixabay.com/photo/2019/11/06/18/22/trace-4606852_1280.jpg"
    },
    {
        "id": "3437397",
        "src640": "https://cdn.pixabay.com/photo/2018/05/28/22/43/snow-3437397_640.jpg",
        "src1280": "https://cdn.pixabay.com/photo/2018/05/28/22/43/snow-3437397_1280.jpg"
    },
    {
        "id": "3086846",
        "src640": "https://cdn.pixabay.com/photo/2018/01/16/20/55/nature-3086846_640.jpg",
        "src1280": "https://cdn.pixabay.com/photo/2018/01/16/20/55/nature-3086846_1280.jpg"
    },
    {
        "id": "347891",
        "src640": "https://cdn.pixabay.com/photo/2014/05/19/11/21/winter-347891_640.jpg",
        "src1280": "https://cdn.pixabay.com/photo/2014/05/19/11/21/winter-347891_1280.jpg"
    },
    {
        "id": "3560154",
        "src640": "https://cdn.pixabay.com/photo/2018/07/24/22/12/iceland-3560154_640.jpg",
        "src1280": "https://cdn.pixabay.com/photo/2018/07/24/22/12/iceland-3560154_1280.jpg"
    },
    {
        "id": "7923059",
        "src640": "https://cdn.pixabay.com/photo/2023/04/13/17/33/dog-7923059_640.jpg",
        "src1280": "https://cdn.pixabay.com/photo/2023/04/13/17/33/dog-7923059_1280.jpg"
    },
    {
        "id": "8421676",
        "src640": "https://cdn.pixabay.com/photo/2023/11/30/13/31/ai-generated-8421676_640.jpg",
        "src1280": "https://cdn.pixabay.com/photo/2023/11/30/13/31/ai-generated-8421676_1280.jpg"
    },
    {
        "id": "6094100",
        "src640": "https://cdn.pixabay.com/photo/2021/03/14/11/42/mountaineer-6094100_640.jpg",
        "src1280": "https://cdn.pixabay.com/photo/2021/03/14/11/42/mountaineer-6094100_1280.jpg"
    },
    {
        "id": "8421662",
        "src640": "https://cdn.pixabay.com/photo/2023/11/30/13/29/ai-generated-8421662_640.jpg",
        "src1280": "https://cdn.pixabay.com/photo/2023/11/30/13/29/ai-generated-8421662_1280.jpg"
    },
    {
        "id": "7638635",
        "src640": "https://cdn.pixabay.com/photo/2022/12/06/10/16/winter-forest-7638635_640.jpg",
        "src1280": "https://cdn.pixabay.com/photo/2022/12/06/10/16/winter-forest-7638635_1280.jpg"
    },
    {
        "id": "8313833",
        "src640": "https://cdn.pixabay.com/photo/2023/10/14/02/36/dog-8313833_640.jpg",
        "src1280": "https://cdn.pixabay.com/photo/2023/10/14/02/36/dog-8313833_1280.jpg"
    },
    {
        "id": "7758193",
        "src640": "https://cdn.pixabay.com/photo/2023/01/31/13/53/ice-7758193_640.jpg",
        "src1280": "https://cdn.pixabay.com/photo/2023/01/31/13/53/ice-7758193_1280.jpg"
    },
    {
        "id": "7869157",
        "src640": "https://cdn.pixabay.com/photo/2023/03/22/10/42/ai-generated-7869157_640.jpg",
        "src1280": "https://cdn.pixabay.com/photo/2023/03/22/10/42/ai-generated-7869157_1280.jpg"
    },
    {
        "id": "7936645",
        "src640": "https://cdn.pixabay.com/photo/2023/04/19/05/19/ai-generated-7936645_640.jpg",
        "src1280": "https://cdn.pixabay.com/photo/2023/04/19/05/19/ai-generated-7936645_1280.jpg"
    },
    {
        "id": "7960734",
        "src640": "https://cdn.pixabay.com/photo/2023/04/30/15/22/landscape-7960734_640.jpg",
        "src1280": "https://cdn.pixabay.com/photo/2023/04/30/15/22/landscape-7960734_1280.jpg"
    },
    {
        "id": "592682",
        "src640": "https://cdn.pixabay.com/photo/2015/01/08/10/29/winter-592682_640.jpg",
        "src1280": "https://cdn.pixabay.com/photo/2015/01/08/10/29/winter-592682_1280.jpg"
    },
    {
        "id": "1096493",
        "src640": "https://cdn.pixabay.com/photo/2015/12/16/20/09/forest-1096493_640.jpg",
        "src1280": "https://cdn.pixabay.com/photo/2015/12/16/20/09/forest-1096493_1280.jpg"
    },
    {
        "id": "3808662",
        "src640": "https://cdn.pixabay.com/photo/2018/11/11/12/19/tree-3808662_640.jpg",
        "src1280": "https://cdn.pixabay.com/photo/2018/11/11/12/19/tree-3808662_1280.jpg"
    },
    {
        "id": "377087",
        "src640": "https://cdn.pixabay.com/photo/2014/06/25/12/22/snow-lane-377087_640.jpg",
        "src1280": "https://cdn.pixabay.com/photo/2014/06/25/12/22/snow-lane-377087_1280.jpg"
    },
    {
        "id": "7887997",
        "src640": "https://cdn.pixabay.com/photo/2023/03/30/15/24/ai-generated-7887997_640.jpg",
        "src1280": "https://cdn.pixabay.com/photo/2023/03/30/15/24/ai-generated-7887997_1280.jpg"
    },
    {
        "id": "2943722",
        "src640": "https://cdn.pixabay.com/photo/2017/11/12/20/37/frost-2943722_640.jpg",
        "src1280": "https://cdn.pixabay.com/photo/2017/11/12/20/37/frost-2943722_1280.jpg"
    },
    {
        "id": "4744047",
        "src640": "https://cdn.pixabay.com/photo/2020/01/05/20/34/winter-4744047_640.jpg",
        "src1280": "https://cdn.pixabay.com/photo/2020/01/05/20/34/winter-4744047_1280.jpg"
    },
    {
        "id": "5812489",
        "src640": "https://cdn.pixabay.com/photo/2020/12/07/18/17/mountains-5812489_640.jpg",
        "src1280": "https://cdn.pixabay.com/photo/2020/12/07/18/17/mountains-5812489_1280.jpg"
    },
    {
        "id": "6871087",
        "src640": "https://cdn.pixabay.com/photo/2021/12/14/18/44/winter-6871087_640.jpg",
        "src1280": "https://cdn.pixabay.com/photo/2021/12/14/18/44/winter-6871087_1280.jpg"
    },
    {
        "id": "7836657",
        "src640": "https://cdn.pixabay.com/photo/2023/03/08/02/16/winter-7836657_640.jpg",
        "src1280": "https://cdn.pixabay.com/photo/2023/03/08/02/16/winter-7836657_1280.jpg"
    },
    {
        "id": "6805539",
        "src640": "https://cdn.pixabay.com/photo/2021/11/18/05/47/winter-6805539_640.jpg",
        "src1280": "https://cdn.pixabay.com/photo/2021/11/18/05/47/winter-6805539_1280.jpg"
    },
    {
        "id": "7976316",
        "src640": "https://cdn.pixabay.com/photo/2023/05/07/12/35/ai-generated-7976316_640.jpg",
        "src1280": "https://cdn.pixabay.com/photo/2023/05/07/12/35/ai-generated-7976316_1280.jpg"
    },
    {
        "id": "6364785",
        "src640": "https://cdn.pixabay.com/photo/2021/06/25/21/23/mountains-6364785_640.jpg",
        "src1280": "https://cdn.pixabay.com/photo/2021/06/25/21/23/mountains-6364785_1280.jpg"
    },
    {
        "id": "1178286",
        "src640": "https://cdn.pixabay.com/photo/2016/02/03/22/32/snow-1178286_640.jpg",
        "src1280": "https://cdn.pixabay.com/photo/2016/02/03/22/32/snow-1178286_1280.jpg"
    },
    {
        "id": "7924666",
        "src640": "https://cdn.pixabay.com/photo/2023/04/14/09/58/ai-generated-7924666_640.jpg",
        "src1280": "https://cdn.pixabay.com/photo/2023/04/14/09/58/ai-generated-7924666_1280.jpg"
    },
    {
        "id": "246119",
        "src640": "https://cdn.pixabay.com/photo/2014/01/15/22/30/snow-246119_640.jpg",
        "src1280": "https://cdn.pixabay.com/photo/2014/01/15/22/30/snow-246119_1280.jpg"
    },
    {
        "id": "2349535",
        "src640": "https://cdn.pixabay.com/photo/2017/05/27/21/52/moss-2349535_640.jpg",
        "src1280": "https://cdn.pixabay.com/photo/2017/05/27/21/52/moss-2349535_1280.jpg"
    },
    {
        "id": "6200365",
        "src640": "https://cdn.pixabay.com/photo/2021/04/22/23/34/sunset-6200365_640.jpg",
        "src1280": "https://cdn.pixabay.com/photo/2021/04/22/23/34/sunset-6200365_1280.jpg"
    },
    {
        "id": "3364477",
        "src640": "https://cdn.pixabay.com/photo/2018/05/01/00/20/winter-3364477_640.jpg",
        "src1280": "https://cdn.pixabay.com/photo/2018/05/01/00/20/winter-3364477_1280.jpg"
    },
    {
        "id": "1439167",
        "src640": "https://cdn.pixabay.com/photo/2016/06/06/10/24/mountains-1439167_640.jpg",
        "src1280": "https://cdn.pixabay.com/photo/2016/06/06/10/24/mountains-1439167_1280.jpg"
    },
    {
        "id": "8001713",
        "src640": "https://cdn.pixabay.com/photo/2023/05/18/08/58/ai-generated-8001713_640.jpg",
        "src1280": "https://cdn.pixabay.com/photo/2023/05/18/08/58/ai-generated-8001713_1280.jpg"
    },
    {
        "id": "7744847",
        "src640": "https://cdn.pixabay.com/photo/2023/01/26/00/17/winter-7744847_640.jpg",
        "src1280": "https://cdn.pixabay.com/photo/2023/01/26/00/17/winter-7744847_1280.jpg"
    },
    {
        "id": "8198485",
        "src640": "https://cdn.pixabay.com/photo/2023/08/18/13/04/snow-8198485_640.jpg",
        "src1280": "https://cdn.pixabay.com/photo/2023/08/18/13/04/snow-8198485_1280.jpg"
    },
    {
        "id": "8045896",
        "src640": "https://cdn.pixabay.com/photo/2023/06/07/00/18/kitten-8045896_640.jpg",
        "src1280": "https://cdn.pixabay.com/photo/2023/06/07/00/18/kitten-8045896_1280.jpg"
    },
    {
        "id": "3268741",
        "src640": "https://cdn.pixabay.com/photo/2018/03/28/09/42/tree-3268741_640.jpg",
        "src1280": "https://cdn.pixabay.com/photo/2018/03/28/09/42/tree-3268741_1280.jpg"
    },
    {
        "id": "8400638",
        "src640": "https://cdn.pixabay.com/photo/2023/11/20/08/49/ai-generated-8400638_640.jpg",
        "src1280": "https://cdn.pixabay.com/photo/2023/11/20/08/49/ai-generated-8400638_1280.jpg"
    },
    {
        "id": "1831576",
        "src640": "https://cdn.pixabay.com/photo/2016/11/17/13/36/angel-1831576_640.jpg",
        "src1280": "https://cdn.pixabay.com/photo/2016/11/17/13/36/angel-1831576_1280.jpg"
    },
    {
        "id": "3852106",
        "src640": "https://cdn.pixabay.com/photo/2018/12/02/20/30/winter-3852106_640.jpg",
        "src1280": "https://cdn.pixabay.com/photo/2018/12/02/20/30/winter-3852106_1280.jpg"
    },
    {
        "id": "1961443",
        "src640": "https://cdn.pixabay.com/photo/2017/01/07/19/45/cat-1961443_640.jpg",
        "src1280": "https://cdn.pixabay.com/photo/2017/01/07/19/45/cat-1961443_1280.jpg"
    },
    {
        "id": "8202393",
        "src640": "https://cdn.pixabay.com/photo/2023/08/20/13/47/ai-generated-8202393_640.jpg",
        "src1280": "https://cdn.pixabay.com/photo/2023/08/20/13/47/ai-generated-8202393_1280.jpg"
    },
    {
        "id": "7630428",
        "src640": "https://cdn.pixabay.com/photo/2022/12/02/07/25/alps-7630428_640.jpg",
        "src1280": "https://cdn.pixabay.com/photo/2022/12/02/07/25/alps-7630428_1280.jpg"
    },
    {
        "id": "4781153",
        "src640": "https://cdn.pixabay.com/photo/2020/01/20/19/16/snow-4781153_640.jpg",
        "src1280": "https://cdn.pixabay.com/photo/2020/01/20/19/16/snow-4781153_1280.jpg"
    },
    {
        "id": "5867969",
        "src640": "https://cdn.pixabay.com/photo/2020/12/28/17/33/houses-5867969_640.jpg",
        "src1280": "https://cdn.pixabay.com/photo/2020/12/28/17/33/houses-5867969_1280.jpg"
    },
    {
        "id": "5926640",
        "src640": "https://cdn.pixabay.com/photo/2021/01/17/21/49/drone-5926640_640.jpg",
        "src1280": "https://cdn.pixabay.com/photo/2021/01/17/21/49/drone-5926640_1280.jpg"
    },
    {
        "id": "6036397",
        "src640": "https://cdn.pixabay.com/photo/2021/02/21/13/43/model-6036397_640.jpg",
        "src1280": "https://cdn.pixabay.com/photo/2021/02/21/13/43/model-6036397_1280.jpg"
    },
    {
        "id": "6012588",
        "src640": "https://cdn.pixabay.com/photo/2021/02/13/19/25/animal-track-6012588_640.jpg",
        "src1280": "https://cdn.pixabay.com/photo/2021/02/13/19/25/animal-track-6012588_1280.jpg"
    },
    {
        "id": "382001",
        "src640": "https://cdn.pixabay.com/photo/2014/07/02/09/20/child-382001_640.jpg",
        "src1280": "https://cdn.pixabay.com/photo/2014/07/02/09/20/child-382001_1280.jpg"
    },
    {
        "id": "7974857",
        "src640": "https://cdn.pixabay.com/photo/2023/05/06/18/16/dog-7974857_640.jpg",
        "src1280": "https://cdn.pixabay.com/photo/2023/05/06/18/16/dog-7974857_1280.jpg"
    },
    {
        "id": "4766701",
        "src640": "https://cdn.pixabay.com/photo/2020/01/15/02/16/labrador-4766701_640.jpg",
        "src1280": "https://cdn.pixabay.com/photo/2020/01/15/02/16/labrador-4766701_1280.jpg"
    },
    {
        "id": "2242710",
        "src640": "https://cdn.pixabay.com/photo/2017/04/19/16/13/zil-castle-2242710_640.jpg",
        "src1280": "https://cdn.pixabay.com/photo/2017/04/19/16/13/zil-castle-2242710_1280.jpg"
    },
    {
        "id": "4675726",
        "src640": "https://cdn.pixabay.com/photo/2019/12/05/17/27/kyrgyzstan-4675726_640.jpg",
        "src1280": "https://cdn.pixabay.com/photo/2019/12/05/17/27/kyrgyzstan-4675726_1280.jpg"
    },
    {
        "id": "7805116",
        "src640": "https://cdn.pixabay.com/photo/2023/02/21/20/56/tree-7805116_640.jpg",
        "src1280": "https://cdn.pixabay.com/photo/2023/02/21/20/56/tree-7805116_1280.jpg"
    },
    {
        "id": "7750918",
        "src640": "https://cdn.pixabay.com/photo/2023/01/28/12/56/snowdrops-7750918_640.jpg",
        "src1280": "https://cdn.pixabay.com/photo/2023/01/28/12/56/snowdrops-7750918_1280.jpg"
    },
    {
        "id": "2875547",
        "src640": "https://cdn.pixabay.com/photo/2017/10/21/19/02/mountains-2875547_640.jpg",
        "src1280": "https://cdn.pixabay.com/photo/2017/10/21/19/02/mountains-2875547_1280.jpg"
    },
    {
        "id": "583964",
        "src640": "https://cdn.pixabay.com/photo/2014/12/30/14/41/christmas-583964_640.jpg",
        "src1280": "https://cdn.pixabay.com/photo/2014/12/30/14/41/christmas-583964_1280.jpg"
    },
    {
        "id": "8188394",
        "src640": "https://cdn.pixabay.com/photo/2023/08/13/20/31/lighthouse-8188394_640.jpg",
        "src1280": "https://cdn.pixabay.com/photo/2023/08/13/20/31/lighthouse-8188394_1280.jpg"
    },
    {
        "id": "1239968",
        "src640": "https://cdn.pixabay.com/photo/2016/03/06/09/53/snowy-owl-1239968_640.jpg",
        "src1280": "https://cdn.pixabay.com/photo/2016/03/06/09/53/snowy-owl-1239968_1280.jpg"
    },
    {
        "id": "3048381",
        "src640": "https://cdn.pixabay.com/photo/2017/12/29/19/16/snow-3048381_640.jpg",
        "src1280": "https://cdn.pixabay.com/photo/2017/12/29/19/16/snow-3048381_1280.jpg"
    },
    {
        "id": "7625763",
        "src640": "https://cdn.pixabay.com/photo/2022/11/30/03/11/forbidden-city-7625763_640.jpg",
        "src1280": "https://cdn.pixabay.com/photo/2022/11/30/03/11/forbidden-city-7625763_1280.jpg"
    },
    {
        "id": "5543796",
        "src640": "https://cdn.pixabay.com/photo/2020/09/04/11/33/skiing-5543796_640.jpg",
        "src1280": "https://cdn.pixabay.com/photo/2020/09/04/11/33/skiing-5543796_1280.jpg"
    },
    {
        "id": "2721707",
        "src640": "https://cdn.pixabay.com/photo/2017/09/06/14/35/weather-2721707_640.jpg",
        "src1280": "https://cdn.pixabay.com/photo/2017/09/06/14/35/weather-2721707_1280.jpg"
    },
    {
        "id": "7764702",
        "src640": "https://cdn.pixabay.com/photo/2023/02/03/09/57/polar-bear-7764702_640.jpg",
        "src1280": "https://cdn.pixabay.com/photo/2023/02/03/09/57/polar-bear-7764702_1280.jpg"
    },
    {
        "id": "7731928",
        "src640": "https://cdn.pixabay.com/photo/2023/01/20/15/03/heather-7731928_640.jpg",
        "src1280": "https://cdn.pixabay.com/photo/2023/01/20/15/03/heather-7731928_1280.jpg"
    }
]