[
    {
        "id": "7625762",
        "src640": "https://cdn.pixabay.com/photo/2022/11/30/03/11/forbidden-city-7625762_640.jpg",
        "src1280": "https://cdn.pixabay.com/photo/2022/11/30/03/11/forbidden-city-7625762_1280.jpg"
    },
    {
        "id": "6129065",
        "src640": "https://cdn.pixabay.com/photo/2021/03/27/17/15/mountains-6129065_640.jpg",
        "src1280": "https://cdn.pixabay.com/photo/2021/03/27/17/15/mountains-6129065_1280.jpg"
    },
    {
        "id": "6831951",
        "src640": "https://cdn.pixabay.com/photo/2021/11/29/08/21/trees-6831951_640.jpg",
        "src1280": "https://cdn.pixabay.com/photo/2021/11/29/08/21/trees-6831951_1280.jpg"
    },
    {
        "id": "5749905",
        "src640": "https://cdn.pixabay.com/photo/2020/11/16/18/18/santa-claus-5749905_640.jpg",
        "src1280": "https://cdn.pixabay.com/photo/2020/11/16/18/18/santa-claus-5749905_1280.jpg"
    },
    {
        "id": "6584751",
        "src640": "https://cdn.pixabay.com/photo/2021/08/30/03/59/horse-6584751_640.jpg",
        "src1280": "https://cdn.pixabay.com/photo/2021/08/30/03/59/horse-6584751_1280.jpg"
    },
    {
        "id": "7664931",
        "src640": "https://cdn.pixabay.com/photo/2022/12/19/08/15/hoarfrost-7664931_640.jpg",
        "src1280": "https://cdn.pixabay.com/photo/2022/12/19/08/15/hoarfrost-7664931_1280.jpg"
    },
    {
        "id": "5914168",
        "src640": "https://cdn.pixabay.com/photo/2021/01/13/13/45/icicle-5914168_640.jpg",
        "src1280": "https://cdn.pixabay.com/photo/2021/01/13/13/45/icicle-5914168_1280.jpg"
    },
    {
        "id": "770779",
        "src640": "https://cdn.pixabay.com/photo/2015/05/17/12/04/snow-white-770779_640.jpg",
        "src1280": "https://cdn.pixabay.com/photo/2015/05/17/12/04/snow-white-770779_1280.jpg"
    },
    {
        "id": "5909165",
        "src640": "https://cdn.pixabay.com/photo/2021/01/11/18/01/winter-5909165_640.jpg",
        "src1280": "https://cdn.pixabay.com/photo/2021/01/11/18/01/winter-5909165_1280.jpg"
    },
    {
        "id": "3912016",
        "src640": "https://cdn.pixabay.com/photo/2019/01/03/21/56/winter-3912016_640.jpg",
        "src1280": "https://cdn.pixabay.com/photo/2019/01/03/21/56/winter-3912016_1280.jpg"
    },
    {
        "id": "4753153",
        "src640": "https://cdn.pixabay.com/photo/2020/01/09/16/06/tree-4753153_640.jpg",
        "src1280": "https://cdn.pixabay.com/photo/2020/01/09/16/06/tree-4753153_1280.jpg"
    },
    {
        "id": "7768243",
        "src640": "https://cdn.pixabay.com/photo/2023/02/04/21/54/mountains-7768243_640.jpg",
        "src1280": "https://cdn.pixabay.com/photo/2023/02/04/21/54/mountains-7768243_1280.jpg"
    },
    {
        "id": "5999188",
        "src640": "https://cdn.pixabay.com/photo/2021/02/09/17/09/winter-5999188_640.jpg",
        "src1280": "https://cdn.pixabay.com/photo/2021/02/09/17/09/winter-5999188_1280.jpg"
    },
    {
        "id": "6028467",
        "src640": "https://cdn.pixabay.com/photo/2021/02/18/21/18/berries-6028467_640.jpg",
        "src1280": "https://cdn.pixabay.com/photo/2021/02/18/21/18/berries-6028467_1280.jpg"
    },
    {
        "id": "3907967",
        "src640": "https://cdn.pixabay.com/photo/2019/01/02/03/56/wood-3907967_640.jpg",
        "src1280": "https://cdn.pixabay.com/photo/2019/01/02/03/56/wood-3907967_1280.jpg"
    },
    {
        "id": "1697876",
        "src640": "https://cdn.pixabay.com/photo/2016/09/27/09/23/winter-1697876_640.jpg",
        "src1280": "https://cdn.pixabay.com/photo/2016/09/27/09/23/winter-1697876_1280.jpg"
    },
    {
        "id": "2018635",
        "src640": "https://cdn.pixabay.com/photo/2017/01/29/16/25/allgau-2018635_640.jpg",
        "src1280": "https://cdn.pixabay.com/photo/2017/01/29/16/25/allgau-2018635_1280.jpg"
    },
    {
        "id": "8421829",
        "src640": "https://cdn.pixabay.com/photo/2023/11/30/14/31/deer-8421829_640.jpg",
        "src1280": "https://cdn.pixabay.com/photo/2023/11/30/14/31/deer-8421829_1280.jpg"
    },
    {
        "id": "6052452",
        "src640": "https://cdn.pixabay.com/photo/2021/02/26/16/20/girl-6052452_640.jpg",
        "src1280": "https://cdn.pixabay.com/photo/2021/02/26/16/20/girl-6052452_1280.jpg"
    },
    {
        "id": "4678652",
        "src640": "https://cdn.pixabay.com/photo/2019/12/07/04/20/japanese-building-4678652_640.jpg",
        "src1280": "https://cdn.pixabay.com/photo/2019/12/07/04/20/japanese-building-4678652_1280.jpg"
    },
    {
        "id": "639954",
        "src640": "https://cdn.pixabay.com/photo/2015/02/17/20/51/winter-639954_640.jpg",
        "src1280": "https://cdn.pixabay.com/photo/2015/02/17/20/51/winter-639954_1280.jpg"
    },
    {
        "id": "3861264",
        "src640": "https://cdn.pixabay.com/photo/2018/12/07/07/56/fir-3861264_640.jpg",
        "src1280": "https://cdn.pixabay.com/photo/2018/12/07/07/56/fir-3861264_1280.jpg"
    },
    {
        "id": "2943722",
        "src640": "https://cdn.pixabay.com/photo/2017/11/12/20/37/frost-2943722_640.jpg",
        "src1280": "https://cdn.pixabay.com/photo/2017/11/12/20/37/frost-2943722_1280.jpg"
    },
    {
        "id": "6967200",
        "src640": "https://cdn.pixabay.com/photo/2022/01/25/20/03/winter-6967200_640.jpg",
        "src1280": "https://cdn.pixabay.com/photo/2022/01/25/20/03/winter-6967200_1280.jpg"
    },
    {
        "id": "1902073",
        "src640": "https://cdn.pixabay.com/photo/2016/12/12/16/53/alpine-1902073_640.jpg",
        "src1280": "https://cdn.pixabay.com/photo/2016/12/12/16/53/alpine-1902073_1280.jpg"
    },
    {
        "id": "8313829",
        "src640": "https://cdn.pixabay.com/photo/2023/10/14/02/36/dog-8313829_640.jpg",
        "src1280": "https://cdn.pixabay.com/photo/2023/10/14/02/36/dog-8313829_1280.jpg"
    },
    {
        "id": "6759591",
        "src640": "https://cdn.pixabay.com/photo/2021/11/01/07/13/trees-6759591_640.jpg",
        "src1280": "https://cdn.pixabay.com/photo/2021/11/01/07/13/trees-6759591_1280.jpg"
    },
    {
        "id": "5884036",
        "src640": "https://cdn.pixabay.com/photo/2021/01/03/10/12/winter-5884036_640.jpg",
        "src1280": "https://cdn.pixabay.com/photo/2021/01/03/10/12/winter-5884036_1280.jpg"
    },
    {
        "id": "6006237",
        "src640": "https://cdn.pixabay.com/photo/2021/02/11/19/23/dog-6006237_640.jpg",
        "src1280": "https://cdn.pixabay.com/photo/2021/02/11/19/23/dog-6006237_1280.jpg"
    },
    {
        "id": "6162381",
        "src640": "https://cdn.pixabay.com/photo/2021/04/08/17/08/sky-6162381_640.jpg",
        "src1280": "https://cdn.pixabay.com/photo/2021/04/08/17/08/sky-6162381_1280.jpg"
    },
    {
        "id": "6843190",
        "src640": "https://cdn.pixabay.com/photo/2021/12/03/17/17/forest-6843190_640.jpg",
        "src1280": "https://cdn.pixabay.com/photo/2021/12/03/17/17/forest-6843190_1280.jpg"
    },
    {
        "id": "3600908",
        "src640": "https://cdn.pixabay.com/photo/2018/08/12/14/40/snow-cannon-3600908_640.jpg",
        "src1280": "https://cdn.pixabay.com/photo/2018/08/12/14/40/snow-cannon-3600908_1280.jpg"
    },
    {
        "id": "6977893",
        "src640": "https://cdn.pixabay.com/photo/2022/01/29/16/13/pine-needles-6977893_640.jpg",
        "src1280": "https://cdn.pixabay.com/photo/2022/01/29/16/13/pine-needles-6977893_1280.jpg"
    },
    {
        "id": "163977",
        "src640": "https://cdn.pixabay.com/photo/2013/07/18/14/56/cold-163977_640.jpg",
        "src1280": "https://cdn.pixabay.com/photo/2013/07/18/14/56/cold-163977_1280.jpg"
    },
    {
        "id": "5775351",
        "src640": "https://cdn.pixabay.com/photo/2020/11/25/11/09/christmas-5775351_640.jpg",
        "src1280": "https://cdn.pixabay.com/photo/2020/11/25/11/09/christmas-5775351_1280.jpg"
    },
    {
        "id": "5717920",
        "src640": "https://cdn.pixabay.com/photo/2020/11/06/14/24/snow-5717920_640.jpg",
        "src1280": "https://cdn.pixabay.com/photo/2020/11/06/14/24/snow-5717920_1280.jpg"
    },
    {
        "id": "3048046",
        "src640": "https://cdn.pixabay.com/photo/2017/12/29/16/45/snow-3048046_640.jpg",
        "src1280": "https://cdn.pixabay.com/photo/2017/12/29/16/45/snow-3048046_1280.jpg"
    },
    {
        "id": "3925346",
        "src640": "https://cdn.pixabay.com/photo/2019/01/10/13/38/winter-3925346_640.jpg",
        "src1280": "https://cdn.pixabay.com/photo/2019/01/10/13/38/winter-3925346_1280.jpg"
    },
    {
        "id": "3957987",
        "src640": "https://cdn.pixabay.com/photo/2019/01/27/12/27/winter-3957987_640.jpg",
        "src1280": "https://cdn.pixabay.com/photo/2019/01/27/12/27/winter-3957987_1280.jpg"
    },
    {
        "id": "6052453",
        "src640": "https://cdn.pixabay.com/photo/2021/02/26/16/20/girl-6052453_640.jpg",
        "src1280": "https://cdn.pixabay.com/photo/2021/02/26/16/20/girl-6052453_1280.jpg"
    },
    {
        "id": "5846450",
        "src640": "https://cdn.pixabay.com/photo/2020/12/20/08/54/snow-5846450_640.jpg",
        "src1280": "https://cdn.pixabay.com/photo/2020/12/20/08/54/snow-5846450_1280.jpg"
    },
    {
        "id": "3477772",
        "src640": "https://cdn.pixabay.com/photo/2018/06/15/21/54/tree-3477772_640.jpg",
        "src1280": "https://cdn.pixabay.com/photo/2018/06/15/21/54/tree-3477772_1280.jpg"
    },
    {
        "id": "8260921",
        "src640": "https://cdn.pixabay.com/photo/2023/09/18/16/20/ai-generated-8260921_640.jpg",
        "src1280": "https://cdn.pixabay.com/photo/2023/09/18/16/20/ai-generated-8260921_1280.jpg"
    },
    {
        "id": "7790434",
        "src640": "https://cdn.pixabay.com/photo/2023/02/14/20/56/mountain-7790434_640.jpg",
        "src1280": "https://cdn.pixabay.com/photo/2023/02/14/20/56/mountain-7790434_1280.jpg"
    },
    {
        "id": "1205018",
        "src640": "https://cdn.pixabay.com/photo/2016/02/17/13/10/landscape-1205018_640.jpg",
        "src1280": "https://cdn.pixabay.com/photo/2016/02/17/13/10/landscape-1205018_1280.jpg"
    },
    {
        "id": "7947868",
        "src640": "https://cdn.pixabay.com/photo/2023/04/24/11/39/couple-7947868_640.jpg",
        "src1280": "https://cdn.pixabay.com/photo/2023/04/24/11/39/couple-7947868_1280.jpg"
    },
    {
        "id": "5926695",
        "src640": "https://cdn.pixabay.com/photo/2021/01/17/22/33/winter-5926695_640.jpg",
        "src1280": "https://cdn.pixabay.com/photo/2021/01/17/22/33/winter-5926695_1280.jpg"
    },
    {
        "id": "69854",
        "src640": "https://cdn.pixabay.com/photo/2012/12/13/21/19/winter-69854_640.jpg",
        "src1280": "https://cdn.pixabay.com/photo/2012/12/13/21/19/winter-69854_1280.jpg"
    },
    {
        "id": "1143802",
        "src640": "https://cdn.pixabay.com/photo/2016/01/16/19/34/snow-1143802_640.jpg",
        "src1280": "https://cdn.pixabay.com/photo/2016/01/16/19/34/snow-1143802_1280.jpg"
    },
    {
        "id": "7059376",
        "src640": "https://cdn.pixabay.com/photo/2022/03/10/08/48/icicles-7059376_640.jpg",
        "src1280": "https://cdn.pixabay.com/photo/2022/03/10/08/48/icicles-7059376_1280.jpg"
    },
    {
        "id": "8365279",
        "src640": "https://cdn.pixabay.com/photo/2023/11/04/15/45/ai-generated-8365279_640.jpg",
        "src1280": "https://cdn.pixabay.com/photo/2023/11/04/15/45/ai-generated-8365279_1280.jpg"
    },
    {
        "id": "1893341",
        "src640": "https://cdn.pixabay.com/photo/2016/12/08/22/58/winter-1893341_640.jpg",
        "src1280": "https://cdn.pixabay.com/photo/2016/12/08/22/58/winter-1893341_1280.jpg"
    },
    {
        "id": "6207420",
        "src640": "https://cdn.pixabay.com/photo/2021/04/25/20/03/train-6207420_640.jpg",
        "src1280": "https://cdn.pixabay.com/photo/2021/04/25/20/03/train-6207420_1280.jpg"
    },
    {
        "id": "6192986",
        "src640": "https://cdn.pixabay.com/photo/2021/04/20/05/36/mountain-6192986_640.jpg",
        "src1280": "https://cdn.pixabay.com/photo/2021/04/20/05/36/mountain-6192986_1280.jpg"
    },
    {
        "id": "7077418",
        "src640": "https://cdn.pixabay.com/photo/2022/03/18/20/50/winter-7077418_640.jpg",
        "src1280": "https://cdn.pixabay.com/photo/2022/03/18/20/50/winter-7077418_1280.jpg"
    },
    {
        "id": "1212999",
        "src640": "https://cdn.pixabay.com/photo/2016/02/20/23/42/path-1212999_640.jpg",
        "src1280": "https://cdn.pixabay.com/photo/2016/02/20/23/42/path-1212999_1280.jpg"
    },
    {
        "id": "6047140",
        "src640": "https://cdn.pixabay.com/photo/2021/02/24/17/57/owl-6047140_640.jpg",
        "src1280": "https://cdn.pixabay.com/photo/2021/02/24/17/57/owl-6047140_1280.jpg"
    },
    {
        "id": "6868737",
        "src640": "https://cdn.pixabay.com/photo/2021/12/13/17/04/tree-6868737_640.jpg",
        "src1280": "https://cdn.pixabay.com/photo/2021/12/13/17/04/tree-6868737_1280.jpg"
    },
    {
        "id": "7548741",
        "src640": "https://cdn.pixabay.com/photo/2022/10/26/15/06/snow-owl-7548741_640.jpg",
        "src1280": "https://cdn.pixabay.com/photo/2022/10/26/15/06/snow-owl-7548741_1280.jpg"
    },
    {
        "id": "8194942",
        "src640": "https://cdn.pixabay.com/photo/2023/08/16/19/38/spruce-8194942_640.jpg",
        "src1280": "https://cdn.pixabay.com/photo/2023/08/16/19/38/spruce-8194942_1280.jpg"
    },
    {
        "id": "6085022",
        "src640": "https://cdn.pixabay.com/photo/2021/03/10/16/54/woman-6085022_640.jpg",
        "src1280": "https://cdn.pixabay.com/photo/2021/03/10/16/54/woman-6085022_1280.jpg"
    },
    {
        "id": "6809379",
        "src640": "https://cdn.pixabay.com/photo/2021/11/19/13/06/wings-6809379_640.jpg",
        "src1280": "https://cdn.pixabay.com/photo/2021/11/19/13/06/wings-6809379_1280.jpg"
    },
    {
        "id": "1861650",
        "src640": "https://cdn.pixabay.com/photo/2016/11/26/20/56/nyc-winter-1861650_640.jpg",
        "src1280": "https://cdn.pixabay.com/photo/2016/11/26/20/56/nyc-winter-1861650_1280.jpg"
    },
    {
        "id": "7951853",
        "src640": "https://cdn.pixabay.com/photo/2023/04/26/08/14/flowers-7951853_640.jpg",
        "src1280": "https://cdn.pixabay.com/photo/2023/04/26/08/14/flowers-7951853_1280.jpg"
    },
    {
        "id": "8168059",
        "src640": "https://cdn.pixabay.com/photo/2023/08/03/22/25/ai-generated-8168059_640.jpg",
        "src1280": "https://cdn.pixabay.com/photo/2023/08/03/22/25/ai-generated-8168059_1280.jpg"
    },
    {
        "id": "780419",
        "src640": "https://cdn.pixabay.com/photo/2015/05/23/11/10/snow-780419_640.jpg",
        "src1280": "https://cdn.pixabay.com/photo/2015/05/23/11/10/snow-780419_1280.jpg"
    },
    {
        "id": "264712",
        "src640": "https://cdn.pixabay.com/photo/2014/02/12/14/49/winter-shore-264712_640.jpg",
        "src1280": "https://cdn.pixabay.com/photo/2014/02/12/14/49/winter-shore-264712_1280.jpg"
    },
    {
        "id": "4516670",
        "src640": "https://cdn.pixabay.com/photo/2019/09/30/20/00/forest-4516670_640.jpg",
        "src1280": "https://cdn.pixabay.com/photo/2019/09/30/20/00/forest-4516670_1280.jpg"
    },
    {
        "id": "8403327",
        "src640": "https://cdn.pixabay.com/photo/2023/11/21/12/46/ai-generated-8403327_640.jpg",
        "src1280": "https://cdn.pixabay.com/photo/2023/11/21/12/46/ai-generated-8403327_1280.jpg"
    },
    {
        "id": "6004853",
        "src640": "https://cdn.pixabay.com/photo/2021/02/11/10/17/hemlock-6004853_640.jpg",
        "src1280": "https://cdn.pixabay.com/photo/2021/02/11/10/17/hemlock-6004853_1280.jpg"
    },
    {
        "id": "4810799",
        "src640": "https://cdn.pixabay.com/photo/2020/02/01/17/08/snow-4810799_640.jpg",
        "src1280": "https://cdn.pixabay.com/photo/2020/02/01/17/08/snow-4810799_1280.jpg"
    },
    {
        "id": "7633971",
        "src640": "https://cdn.pixabay.com/photo/2022/12/04/08/47/park-7633971_640.jpg",
        "src1280": "https://cdn.pixabay.com/photo/2022/12/04/08/47/park-7633971_1280.jpg"
    },
    {
        "id": "2984562",
        "src640": "https://cdn.pixabay.com/photo/2017/11/28/20/20/snow-2984562_640.jpg",
        "src1280": "https://cdn.pixabay.com/photo/2017/11/28/20/20/snow-2984562_1280.jpg"
    },
    {
        "id": "8341842",
        "src640": "https://cdn.pixabay.com/photo/2023/10/26/06/37/snowman-8341842_640.jpg",
        "src1280": "https://cdn.pixabay.com/photo/2023/10/26/06/37/snowman-8341842_1280.jpg"
    },
    {
        "id": "8113970",
        "src640": "https://cdn.pixabay.com/photo/2023/07/08/08/38/animal-8113970_640.jpg",
        "src1280": "https://cdn.pixabay.com/photo/2023/07/08/08/38/animal-8113970_1280.jpg"
    },
    {
        "id": "8313816",
        "src640": "https://cdn.pixabay.com/photo/2023/10/14/02/36/dog-8313816_640.jpg",
        "src1280": "https://cdn.pixabay.com/photo/2023/10/14/02/36/dog-8313816_1280.jpg"
    },
    {
        "id": "7759237",
        "src640": "https://cdn.pixabay.com/photo/2023/01/31/23/43/trees-7759237_640.jpg",
        "src1280": "https://cdn.pixabay.com/photo/2023/01/31/23/43/trees-7759237_1280.jpg"
    },
    {
        "id": "7399691",
        "src640": "https://cdn.pixabay.com/photo/2022/08/20/17/26/park-7399691_640.jpg",
        "src1280": "https://cdn.pixabay.com/photo/2022/08/20/17/26/park-7399691_1280.jpg"
    },
    {
        "id": "8218093",
        "src640": "https://cdn.pixabay.com/photo/2023/08/28/01/08/snow-8218093_640.jpg",
        "src1280": "https://cdn.pixabay.com/photo/2023/08/28/01/08/snow-8218093_1280.jpg"
    },
    {
        "id": "6816543",
        "src640": "https://cdn.pixabay.com/photo/2021/11/22/13/39/christmas-6816543_640.jpg",
        "src1280": "https://cdn.pixabay.com/photo/2021/11/22/13/39/christmas-6816543_1280.jpg"
    },
    {
        "id": "8379468",
        "src640": "https://cdn.pixabay.com/photo/2023/11/10/14/41/mountain-8379468_640.jpg",
        "src1280": "https://cdn.pixabay.com/photo/2023/11/10/14/41/mountain-8379468_1280.jpg"
    },
    {
        "id": "4580293",
        "src640": "https://cdn.pixabay.com/photo/2019/10/26/20/26/landscape-4580293_640.jpg",
        "src1280": "https://cdn.pixabay.com/photo/2019/10/26/20/26/landscape-4580293_1280.jpg"
    },
    {
        "id": "6728929",
        "src640": "https://cdn.pixabay.com/photo/2021/10/21/12/10/mountain-6728929_640.jpg",
        "src1280": "https://cdn.pixabay.com/photo/2021/10/21/12/10/mountain-6728929_1280.jpg"
    },
    {
        "id": "5796322",
        "src640": "https://cdn.pixabay.com/photo/2020/12/02/05/27/christmas-5796322_640.jpg",
        "src1280": "https://cdn.pixabay.com/photo/2020/12/02/05/27/christmas-5796322_1280.jpg"
    },
    {
        "id": "3878468",
        "src640": "https://cdn.pixabay.com/photo/2018/12/16/13/04/winter-3878468_640.jpg",
        "src1280": "https://cdn.pixabay.com/photo/2018/12/16/13/04/winter-3878468_1280.jpg"
    },
    {
        "id": "1164234",
        "src640": "https://cdn.pixabay.com/photo/2016/01/27/12/09/winter-1164234_640.jpg",
        "src1280": "https://cdn.pixabay.com/photo/2016/01/27/12/09/winter-1164234_1280.jpg"
    },
    {
        "id": "166015",
        "src640": "https://cdn.pixabay.com/photo/2013/07/22/11/41/parliament-166015_640.jpg",
        "src1280": "https://cdn.pixabay.com/photo/2013/07/22/11/41/parliament-166015_1280.jpg"
    },
    {
        "id": "3087885",
        "src640": "https://cdn.pixabay.com/photo/2018/01/17/10/09/double-bass-3087885_640.jpg",
        "src1280": "https://cdn.pixabay.com/photo/2018/01/17/10/09/double-bass-3087885_1280.jpg"
    },
    {
        "id": "7648439",
        "src640": "https://cdn.pixabay.com/photo/2022/12/11/09/09/snowman-7648439_640.jpg",
        "src1280": "https://cdn.pixabay.com/photo/2022/12/11/09/09/snowman-7648439_1280.jpg"
    },
    {
        "id": "107929",
        "src640": "https://cdn.pixabay.com/photo/2013/04/29/14/34/bavaria-107929_640.jpg",
        "src1280": "https://cdn.pixabay.com/photo/2013/04/29/14/34/bavaria-107929_1280.jpg"
    },
    {
        "id": "7959646",
        "src640": "https://cdn.pixabay.com/photo/2023/04/30/04/00/winter-7959646_640.jpg",
        "src1280": "https://cdn.pixabay.com/photo/2023/04/30/04/00/winter-7959646_1280.jpg"
    },
    {
        "id": "4041948",
        "src640": "https://cdn.pixabay.com/photo/2019/03/08/08/57/apartments-on-star-4041948_640.jpg",
        "src1280": "https://cdn.pixabay.com/photo/2019/03/08/08/57/apartments-on-star-4041948_1280.jpg"
    }
]