[
    {
        "id": "1982239",
        "src640": "https://cdn.pixabay.com/photo/2017/01/15/17/46/buddha-1982239_640.jpg",
        "src1280": "https://cdn.pixabay.com/photo/2017/01/15/17/46/buddha-1982239_1280.jpg"
    },
    {
        "id": "1960133",
        "src640": "https://cdn.pixabay.com/photo/2017/01/07/11/25/winter-landscape-1960133_640.jpg",
        "src1280": "https://cdn.pixabay.com/photo/2017/01/07/11/25/winter-landscape-1960133_1280.jpg"
    },
    {
        "id": "655928",
        "src640": "https://cdn.pixabay.com/photo/2015/03/02/12/57/fuji-655928_640.jpg",
        "src1280": "https://cdn.pixabay.com/photo/2015/03/02/12/57/fuji-655928_1280.jpg"
    },
    {
        "id": "8289334",
        "src640": "https://cdn.pixabay.com/photo/2023/10/02/15/00/ai-generated-8289334_640.jpg",
        "src1280": "https://cdn.pixabay.com/photo/2023/10/02/15/00/ai-generated-8289334_1280.jpg"
    },
    {
        "id": "6875103",
        "src640": "https://cdn.pixabay.com/photo/2021/12/16/19/31/forest-6875103_640.jpg",
        "src1280": "https://cdn.pixabay.com/photo/2021/12/16/19/31/forest-6875103_1280.jpg"
    },
    {
        "id": "372581",
        "src640": "https://cdn.pixabay.com/photo/2014/06/19/16/07/notre-dame-you-skin-de-ronchamp-372581_640.jpg",
        "src1280": "https://cdn.pixabay.com/photo/2014/06/19/16/07/notre-dame-you-skin-de-ronchamp-372581_1280.jpg"
    },
    {
        "id": "1039097",
        "src640": "https://cdn.pixabay.com/photo/2015/11/11/18/52/landscape-1039097_640.jpg",
        "src1280": "https://cdn.pixabay.com/photo/2015/11/11/18/52/landscape-1039097_1280.jpg"
    },
    {
        "id": "960564",
        "src640": "https://cdn.pixabay.com/photo/2015/09/27/12/05/lanterns-in-deep-snow-960564_640.jpg",
        "src1280": "https://cdn.pixabay.com/photo/2015/09/27/12/05/lanterns-in-deep-snow-960564_1280.jpg"
    },
    {
        "id": "6897321",
        "src640": "https://cdn.pixabay.com/photo/2021/12/27/14/33/fir-tree-6897321_640.jpg",
        "src1280": "https://cdn.pixabay.com/photo/2021/12/27/14/33/fir-tree-6897321_1280.jpg"
    },
    {
        "id": "7831519",
        "src640": "https://cdn.pixabay.com/photo/2023/03/05/14/20/bird-7831519_640.jpg",
        "src1280": "https://cdn.pixabay.com/photo/2023/03/05/14/20/bird-7831519_1280.jpg"
    },
    {
        "id": "4086565",
        "src640": "https://cdn.pixabay.com/photo/2019/03/28/07/44/gravestone-4086565_640.jpg",
        "src1280": "https://cdn.pixabay.com/photo/2019/03/28/07/44/gravestone-4086565_1280.jpg"
    },
    {
        "id": "1316930",
        "src640": "https://cdn.pixabay.com/photo/2016/04/08/20/27/mountain-1316930_640.jpg",
        "src1280": "https://cdn.pixabay.com/photo/2016/04/08/20/27/mountain-1316930_1280.jpg"
    },
    {
        "id": "1319870",
        "src640": "https://cdn.pixabay.com/photo/2016/04/10/13/24/snow-1319870_640.jpg",
        "src1280": "https://cdn.pixabay.com/photo/2016/04/10/13/24/snow-1319870_1280.jpg"
    },
    {
        "id": "8211603",
        "src640": "https://cdn.pixabay.com/photo/2023/08/24/21/08/ai-generated-8211603_640.jpg",
        "src1280": "https://cdn.pixabay.com/photo/2023/08/24/21/08/ai-generated-8211603_1280.jpg"
    },
    {
        "id": "1165329",
        "src640": "https://cdn.pixabay.com/photo/2016/01/27/21/15/winter-1165329_640.jpg",
        "src1280": "https://cdn.pixabay.com/photo/2016/01/27/21/15/winter-1165329_1280.jpg"
    },
    {
        "id": "6936083",
        "src640": "https://cdn.pixabay.com/photo/2022/01/13/21/41/trees-6936083_640.jpg",
        "src1280": "https://cdn.pixabay.com/photo/2022/01/13/21/41/trees-6936083_1280.jpg"
    },
    {
        "id": "5906075",
        "src640": "https://cdn.pixabay.com/photo/2021/01/10/18/50/lighthouse-5906075_640.jpg",
        "src1280": "https://cdn.pixabay.com/photo/2021/01/10/18/50/lighthouse-5906075_1280.jpg"
    },
    {
        "id": "3953916",
        "src640": "https://cdn.pixabay.com/photo/2019/01/25/07/57/flood-3953916_640.jpg",
        "src1280": "https://cdn.pixabay.com/photo/2019/01/25/07/57/flood-3953916_1280.jpg"
    },
    {
        "id": "2044145",
        "src640": "https://cdn.pixabay.com/photo/2017/02/06/20/15/landscape-2044145_640.jpg",
        "src1280": "https://cdn.pixabay.com/photo/2017/02/06/20/15/landscape-2044145_1280.jpg"
    },
    {
        "id": "1738797",
        "src640": "https://cdn.pixabay.com/photo/2016/10/13/21/07/winter-1738797_640.jpg",
        "src1280": "https://cdn.pixabay.com/photo/2016/10/13/21/07/winter-1738797_1280.jpg"
    },
    {
        "id": "8422800",
        "src640": "https://cdn.pixabay.com/photo/2023/12/01/02/54/ai-generated-8422800_640.jpg",
        "src1280": "https://cdn.pixabay.com/photo/2023/12/01/02/54/ai-generated-8422800_1280.jpg"
    },
    {
        "id": "1148796",
        "src640": "https://cdn.pixabay.com/photo/2016/01/19/13/26/lake-1148796_640.jpg",
        "src1280": "https://cdn.pixabay.com/photo/2016/01/19/13/26/lake-1148796_1280.jpg"
    },
    {
        "id": "3196399",
        "src640": "https://cdn.pixabay.com/photo/2018/03/03/19/34/winter-3196399_640.jpg",
        "src1280": "https://cdn.pixabay.com/photo/2018/03/03/19/34/winter-3196399_1280.jpg"
    },
    {
        "id": "4797235",
        "src640": "https://cdn.pixabay.com/photo/2020/01/27/13/32/frost-4797235_640.jpg",
        "src1280": "https://cdn.pixabay.com/photo/2020/01/27/13/32/frost-4797235_1280.jpg"
    },
    {
        "id": "1259470",
        "src640": "https://cdn.pixabay.com/photo/2016/03/15/22/14/winter-1259470_640.jpg",
        "src1280": "https://cdn.pixabay.com/photo/2016/03/15/22/14/winter-1259470_1280.jpg"
    },
    {
        "id": "1263026",
        "src640": "https://cdn.pixabay.com/photo/2016/03/17/14/39/winter-1263026_640.jpg",
        "src1280": "https://cdn.pixabay.com/photo/2016/03/17/14/39/winter-1263026_1280.jpg"
    },
    {
        "id": "1786389",
        "src640": "https://cdn.pixabay.com/photo/2016/10/31/18/53/winter-1786389_640.jpg",
        "src1280": "https://cdn.pixabay.com/photo/2016/10/31/18/53/winter-1786389_1280.jpg"
    },
    {
        "id": "4265212",
        "src640": "https://cdn.pixabay.com/photo/2019/06/10/20/04/path-4265212_640.jpg",
        "src1280": "https://cdn.pixabay.com/photo/2019/06/10/20/04/path-4265212_1280.jpg"
    },
    {
        "id": "3968742",
        "src640": "https://cdn.pixabay.com/photo/2019/02/01/10/04/winter-3968742_640.jpg",
        "src1280": "https://cdn.pixabay.com/photo/2019/02/01/10/04/winter-3968742_1280.jpg"
    },
    {
        "id": "6885817",
        "src640": "https://cdn.pixabay.com/photo/2021/12/21/18/20/ski-6885817_640.jpg",
        "src1280": "https://cdn.pixabay.com/photo/2021/12/21/18/20/ski-6885817_1280.jpg"
    },
    {
        "id": "1101851",
        "src640": "https://cdn.pixabay.com/photo/2015/12/20/22/55/bird-1101851_640.jpg",
        "src1280": "https://cdn.pixabay.com/photo/2015/12/20/22/55/bird-1101851_1280.jpg"
    },
    {
        "id": "2279771",
        "src640": "https://cdn.pixabay.com/photo/2017/05/03/00/36/kitzbuhler-horn-2279771_640.jpg",
        "src1280": "https://cdn.pixabay.com/photo/2017/05/03/00/36/kitzbuhler-horn-2279771_1280.jpg"
    },
    {
        "id": "2225735",
        "src640": "https://cdn.pixabay.com/photo/2017/04/12/20/48/evening-2225735_640.jpg",
        "src1280": "https://cdn.pixabay.com/photo/2017/04/12/20/48/evening-2225735_1280.jpg"
    },
    {
        "id": "8421663",
        "src640": "https://cdn.pixabay.com/photo/2023/11/30/13/29/ai-generated-8421663_640.jpg",
        "src1280": "https://cdn.pixabay.com/photo/2023/11/30/13/29/ai-generated-8421663_1280.jpg"
    },
    {
        "id": "6006623",
        "src640": "https://cdn.pixabay.com/photo/2021/02/11/22/18/animal-track-6006623_640.jpg",
        "src1280": "https://cdn.pixabay.com/photo/2021/02/11/22/18/animal-track-6006623_1280.jpg"
    },
    {
        "id": "4777436",
        "src640": "https://cdn.pixabay.com/photo/2020/01/19/11/18/winter-4777436_640.jpg",
        "src1280": "https://cdn.pixabay.com/photo/2020/01/19/11/18/winter-4777436_1280.jpg"
    },
    {
        "id": "6618375",
        "src640": "https://cdn.pixabay.com/photo/2021/09/12/13/28/pine-cone-6618375_640.jpg",
        "src1280": "https://cdn.pixabay.com/photo/2021/09/12/13/28/pine-cone-6618375_1280.jpg"
    },
    {
        "id": "5859431",
        "src640": "https://cdn.pixabay.com/photo/2020/12/25/14/10/girl-5859431_640.jpg",
        "src1280": "https://cdn.pixabay.com/photo/2020/12/25/14/10/girl-5859431_1280.jpg"
    },
    {
        "id": "6982248",
        "src640": "https://cdn.pixabay.com/photo/2022/01/30/20/58/nature-6982248_640.jpg",
        "src1280": "https://cdn.pixabay.com/photo/2022/01/30/20/58/nature-6982248_1280.jpg"
    },
    {
        "id": "6842591",
        "src640": "https://cdn.pixabay.com/photo/2021/12/03/11/52/forest-6842591_640.jpg",
        "src1280": "https://cdn.pixabay.com/photo/2021/12/03/11/52/forest-6842591_1280.jpg"
    },
    {
        "id": "5050338",
        "src640": "https://cdn.pixabay.com/photo/2020/04/16/12/00/winter-5050338_640.jpg",
        "src1280": "https://cdn.pixabay.com/photo/2020/04/16/12/00/winter-5050338_1280.jpg"
    },
    {
        "id": "6841186",
        "src640": "https://cdn.pixabay.com/photo/2021/12/02/19/19/snow-6841186_640.jpg",
        "src1280": "https://cdn.pixabay.com/photo/2021/12/02/19/19/snow-6841186_1280.jpg"
    },
    {
        "id": "7733678",
        "src640": "https://cdn.pixabay.com/photo/2023/01/21/11/37/snow-7733678_640.jpg",
        "src1280": "https://cdn.pixabay.com/photo/2023/01/21/11/37/snow-7733678_1280.jpg"
    },
    {
        "id": "218416",
        "src640": "https://cdn.pixabay.com/photo/2013/11/25/22/24/winter-218416_640.jpg",
        "src1280": "https://cdn.pixabay.com/photo/2013/11/25/22/24/winter-218416_1280.jpg"
    },
    {
        "id": "6872039",
        "src640": "https://cdn.pixabay.com/photo/2021/12/15/08/00/seed-pods-6872039_640.jpg",
        "src1280": "https://cdn.pixabay.com/photo/2021/12/15/08/00/seed-pods-6872039_1280.jpg"
    },
    {
        "id": "1156592",
        "src640": "https://cdn.pixabay.com/photo/2016/01/22/20/35/street-sign-1156592_640.jpg",
        "src1280": "https://cdn.pixabay.com/photo/2016/01/22/20/35/street-sign-1156592_1280.jpg"
    },
    {
        "id": "5386710",
        "src640": "https://cdn.pixabay.com/photo/2020/07/09/09/59/pescocostanzo-5386710_640.jpg",
        "src1280": "https://cdn.pixabay.com/photo/2020/07/09/09/59/pescocostanzo-5386710_1280.jpg"
    },
    {
        "id": "8232025",
        "src640": "https://cdn.pixabay.com/photo/2023/09/04/05/21/mountains-8232025_640.jpg",
        "src1280": "https://cdn.pixabay.com/photo/2023/09/04/05/21/mountains-8232025_1280.jpg"
    },
    {
        "id": "6908920",
        "src640": "https://cdn.pixabay.com/photo/2022/01/01/20/16/snow-6908920_640.jpg",
        "src1280": "https://cdn.pixabay.com/photo/2022/01/01/20/16/snow-6908920_1280.jpg"
    },
    {
        "id": "3918275",
        "src640": "https://cdn.pixabay.com/photo/2019/01/07/00/01/snow-3918275_640.jpg",
        "src1280": "https://cdn.pixabay.com/photo/2019/01/07/00/01/snow-3918275_1280.jpg"
    },
    {
        "id": "3392636",
        "src640": "https://cdn.pixabay.com/photo/2018/05/12/07/57/nature-3392636_640.jpg",
        "src1280": "https://cdn.pixabay.com/photo/2018/05/12/07/57/nature-3392636_1280.jpg"
    },
    {
        "id": "4248992",
        "src640": "https://cdn.pixabay.com/photo/2019/06/03/14/13/scenery-4248992_640.jpg",
        "src1280": "https://cdn.pixabay.com/photo/2019/06/03/14/13/scenery-4248992_1280.jpg"
    },
    {
        "id": "1593788",
        "src640": "https://cdn.pixabay.com/photo/2016/08/14/19/17/mountain-1593788_640.jpg",
        "src1280": "https://cdn.pixabay.com/photo/2016/08/14/19/17/mountain-1593788_1280.jpg"
    },
    {
        "id": "3919792",
        "src640": "https://cdn.pixabay.com/photo/2019/01/07/19/40/cookie-3919792_640.jpg",
        "src1280": "https://cdn.pixabay.com/photo/2019/01/07/19/40/cookie-3919792_1280.jpg"
    },
    {
        "id": "6710370",
        "src640": "https://cdn.pixabay.com/photo/2021/10/14/21/13/sunset-6710370_640.jpg",
        "src1280": "https://cdn.pixabay.com/photo/2021/10/14/21/13/sunset-6710370_1280.jpg"
    },
    {
        "id": "3949347",
        "src640": "https://cdn.pixabay.com/photo/2019/01/23/00/45/wilsons-arch-3949347_640.jpg",
        "src1280": "https://cdn.pixabay.com/photo/2019/01/23/00/45/wilsons-arch-3949347_1280.jpg"
    },
    {
        "id": "114540",
        "src640": "https://cdn.pixabay.com/photo/2013/05/29/22/22/monkey-114540_640.jpg",
        "src1280": "https://cdn.pixabay.com/photo/2013/05/29/22/22/monkey-114540_1280.jpg"
    },
    {
        "id": "1912213",
        "src640": "https://cdn.pixabay.com/photo/2016/12/16/19/48/spokane-river-1912213_640.jpg",
        "src1280": "https://cdn.pixabay.com/photo/2016/12/16/19/48/spokane-river-1912213_1280.jpg"
    },
    {
        "id": "3261480",
        "src640": "https://cdn.pixabay.com/photo/2018/03/26/02/46/lake-3261480_640.jpg",
        "src1280": "https://cdn.pixabay.com/photo/2018/03/26/02/46/lake-3261480_1280.jpg"
    },
    {
        "id": "2763568",
        "src640": "https://cdn.pixabay.com/photo/2017/09/18/23/22/dandelion-2763568_640.jpg",
        "src1280": "https://cdn.pixabay.com/photo/2017/09/18/23/22/dandelion-2763568_1280.jpg"
    },
    {
        "id": "6842535",
        "src640": "https://cdn.pixabay.com/photo/2021/12/03/11/19/squirrel-6842535_640.jpg",
        "src1280": "https://cdn.pixabay.com/photo/2021/12/03/11/19/squirrel-6842535_1280.jpg"
    },
    {
        "id": "4650891",
        "src640": "https://cdn.pixabay.com/photo/2019/11/25/03/24/let-it-snow-4650891_640.jpg",
        "src1280": "https://cdn.pixabay.com/photo/2019/11/25/03/24/let-it-snow-4650891_1280.jpg"
    },
    {
        "id": "6861871",
        "src640": "https://cdn.pixabay.com/photo/2021/12/11/04/53/road-6861871_640.jpg",
        "src1280": "https://cdn.pixabay.com/photo/2021/12/11/04/53/road-6861871_1280.jpg"
    },
    {
        "id": "7107627",
        "src640": "https://cdn.pixabay.com/photo/2022/04/02/19/37/chinese-quince-7107627_640.jpg",
        "src1280": "https://cdn.pixabay.com/photo/2022/04/02/19/37/chinese-quince-7107627_1280.jpg"
    },
    {
        "id": "3917041",
        "src640": "https://cdn.pixabay.com/photo/2019/01/06/14/05/alpine-3917041_640.jpg",
        "src1280": "https://cdn.pixabay.com/photo/2019/01/06/14/05/alpine-3917041_1280.jpg"
    },
    {
        "id": "7644208",
        "src640": "https://cdn.pixabay.com/photo/2022/12/08/23/14/december-7644208_640.jpg",
        "src1280": "https://cdn.pixabay.com/photo/2022/12/08/23/14/december-7644208_1280.jpg"
    },
    {
        "id": "2064085",
        "src640": "https://cdn.pixabay.com/photo/2017/02/13/22/27/winter-2064085_640.jpg",
        "src1280": "https://cdn.pixabay.com/photo/2017/02/13/22/27/winter-2064085_1280.jpg"
    },
    {
        "id": "4041947",
        "src640": "https://cdn.pixabay.com/photo/2019/03/08/08/56/apartments-on-star-4041947_640.jpg",
        "src1280": "https://cdn.pixabay.com/photo/2019/03/08/08/56/apartments-on-star-4041947_1280.jpg"
    },
    {
        "id": "6933362",
        "src640": "https://cdn.pixabay.com/photo/2022/01/12/16/35/snow-6933362_640.jpg",
        "src1280": "https://cdn.pixabay.com/photo/2022/01/12/16/35/snow-6933362_1280.jpg"
    },
    {
        "id": "2774230",
        "src640": "https://cdn.pixabay.com/photo/2017/09/22/01/44/women-2774230_640.jpg",
        "src1280": "https://cdn.pixabay.com/photo/2017/09/22/01/44/women-2774230_1280.jpg"
    },
    {
        "id": "6037888",
        "src640": "https://cdn.pixabay.com/photo/2021/02/21/20/54/wrabness-6037888_640.jpg",
        "src1280": "https://cdn.pixabay.com/photo/2021/02/21/20/54/wrabness-6037888_1280.jpg"
    },
    {
        "id": "7168112",
        "src640": "https://cdn.pixabay.com/photo/2022/05/01/17/47/mountains-7168112_640.jpg",
        "src1280": "https://cdn.pixabay.com/photo/2022/05/01/17/47/mountains-7168112_1280.jpg"
    },
    {
        "id": "7574905",
        "src640": "https://cdn.pixabay.com/photo/2022/11/06/19/49/stream-7574905_640.jpg",
        "src1280": "https://cdn.pixabay.com/photo/2022/11/06/19/49/stream-7574905_1280.jpg"
    },
    {
        "id": "6132395",
        "src640": "https://cdn.pixabay.com/photo/2021/03/28/20/39/snow-6132395_640.jpg",
        "src1280": "https://cdn.pixabay.com/photo/2021/03/28/20/39/snow-6132395_1280.jpg"
    },
    {
        "id": "7023867",
        "src640": "https://cdn.pixabay.com/photo/2022/02/20/06/56/beach-7023867_640.jpg",
        "src1280": "https://cdn.pixabay.com/photo/2022/02/20/06/56/beach-7023867_1280.jpg"
    },
    {
        "id": "7772561",
        "src640": "https://cdn.pixabay.com/photo/2023/02/06/18/44/tallinn-7772561_640.jpg",
        "src1280": "https://cdn.pixabay.com/photo/2023/02/06/18/44/tallinn-7772561_1280.jpg"
    },
    {
        "id": "7238824",
        "src640": "https://cdn.pixabay.com/photo/2022/06/02/19/27/nature-7238824_640.jpg",
        "src1280": "https://cdn.pixabay.com/photo/2022/06/02/19/27/nature-7238824_1280.jpg"
    },
    {
        "id": "3294069",
        "src640": "https://cdn.pixabay.com/photo/2018/04/05/20/36/season-3294069_640.jpg",
        "src1280": "https://cdn.pixabay.com/photo/2018/04/05/20/36/season-3294069_1280.jpg"
    },
    {
        "id": "3858892",
        "src640": "https://cdn.pixabay.com/photo/2018/12/05/22/41/christmas-3858892_640.jpg",
        "src1280": "https://cdn.pixabay.com/photo/2018/12/05/22/41/christmas-3858892_1280.jpg"
    },
    {
        "id": "110117",
        "src640": "https://cdn.pixabay.com/photo/2013/05/09/19/01/finland-110117_640.jpg",
        "src1280": "https://cdn.pixabay.com/photo/2013/05/09/19/01/finland-110117_1280.jpg"
    },
    {
        "id": "6701081",
        "src640": "https://cdn.pixabay.com/photo/2021/10/11/15/38/igloo-6701081_640.jpg",
        "src1280": "https://cdn.pixabay.com/photo/2021/10/11/15/38/igloo-6701081_1280.jpg"
    },
    {
        "id": "8364064",
        "src640": "https://cdn.pixabay.com/photo/2023/11/04/00/04/woman-8364064_640.jpg",
        "src1280": "https://cdn.pixabay.com/photo/2023/11/04/00/04/woman-8364064_1280.jpg"
    },
    {
        "id": "7902792",
        "src640": "https://cdn.pixabay.com/photo/2023/04/06/04/08/snow-7902792_640.jpg",
        "src1280": "https://cdn.pixabay.com/photo/2023/04/06/04/08/snow-7902792_1280.jpg"
    },
    {
        "id": "2250853",
        "src640": "https://cdn.pixabay.com/photo/2017/04/22/08/49/winter-2250853_640.jpg",
        "src1280": "https://cdn.pixabay.com/photo/2017/04/22/08/49/winter-2250853_1280.jpg"
    },
    {
        "id": "249975",
        "src640": "https://cdn.pixabay.com/photo/2014/01/22/18/23/the-away-249975_640.jpg",
        "src1280": "https://cdn.pixabay.com/photo/2014/01/22/18/23/the-away-249975_1280.jpg"
    },
    {
        "id": "3056210",
        "src640": "https://cdn.pixabay.com/photo/2018/01/02/13/48/tree-3056210_640.jpg",
        "src1280": "https://cdn.pixabay.com/photo/2018/01/02/13/48/tree-3056210_1280.jpg"
    },
    {
        "id": "5129195",
        "src640": "https://cdn.pixabay.com/photo/2020/05/04/13/31/nature-5129195_640.jpg",
        "src1280": "https://cdn.pixabay.com/photo/2020/05/04/13/31/nature-5129195_1280.jpg"
    },
    {
        "id": "7675487",
        "src640": "https://cdn.pixabay.com/photo/2022/12/24/08/31/tree-7675487_640.jpg",
        "src1280": "https://cdn.pixabay.com/photo/2022/12/24/08/31/tree-7675487_1280.jpg"
    },
    {
        "id": "6035393",
        "src640": "https://cdn.pixabay.com/photo/2021/02/21/06/17/park-6035393_640.jpg",
        "src1280": "https://cdn.pixabay.com/photo/2021/02/21/06/17/park-6035393_1280.jpg"
    },
    {
        "id": "2894172",
        "src640": "https://cdn.pixabay.com/photo/2017/10/27/12/43/traces-2894172_640.jpg",
        "src1280": "https://cdn.pixabay.com/photo/2017/10/27/12/43/traces-2894172_1280.jpg"
    },
    {
        "id": "3902266",
        "src640": "https://cdn.pixabay.com/photo/2018/12/29/21/44/snow-3902266_640.jpg",
        "src1280": "https://cdn.pixabay.com/photo/2018/12/29/21/44/snow-3902266_1280.jpg"
    },
    {
        "id": "4879766",
        "src640": "https://cdn.pixabay.com/photo/2020/02/25/19/07/winter-4879766_640.jpg",
        "src1280": "https://cdn.pixabay.com/photo/2020/02/25/19/07/winter-4879766_1280.jpg"
    },
    {
        "id": "2010357",
        "src640": "https://cdn.pixabay.com/photo/2017/01/26/11/20/snow-2010357_640.jpg",
        "src1280": "https://cdn.pixabay.com/photo/2017/01/26/11/20/snow-2010357_1280.jpg"
    },
    {
        "id": "2535909",
        "src640": "https://cdn.pixabay.com/photo/2017/07/24/20/03/winter-2535909_640.jpg",
        "src1280": "https://cdn.pixabay.com/photo/2017/07/24/20/03/winter-2535909_1280.jpg"
    },
    {
        "id": "372479",
        "src640": "https://cdn.pixabay.com/photo/2014/06/19/14/53/the-palace-ensemble-tsarskoe-selo-372479_640.jpg",
        "src1280": "https://cdn.pixabay.com/photo/2014/06/19/14/53/the-palace-ensemble-tsarskoe-selo-372479_1280.jpg"
    }
]