[
    {
        "id": "6250753",
        "src640": "https://cdn.pixabay.com/photo/2021/05/13/12/25/winter-6250753_640.jpg",
        "src1280": "https://cdn.pixabay.com/photo/2021/05/13/12/25/winter-6250753_1280.jpg"
    },
    {
        "id": "2472079",
        "src640": "https://cdn.pixabay.com/photo/2017/07/04/18/20/winter-2472079_640.jpg",
        "src1280": "https://cdn.pixabay.com/photo/2017/07/04/18/20/winter-2472079_1280.jpg"
    },
    {
        "id": "6956268",
        "src640": "https://cdn.pixabay.com/photo/2022/01/22/05/36/cat-6956268_640.jpg",
        "src1280": "https://cdn.pixabay.com/photo/2022/01/22/05/36/cat-6956268_1280.jpg"
    },
    {
        "id": "5949473",
        "src640": "https://cdn.pixabay.com/photo/2021/01/25/19/59/snow-5949473_640.jpg",
        "src1280": "https://cdn.pixabay.com/photo/2021/01/25/19/59/snow-5949473_1280.jpg"
    },
    {
        "id": "4823450",
        "src640": "https://cdn.pixabay.com/photo/2020/02/06/08/53/kashmir-4823450_640.jpg",
        "src1280": "https://cdn.pixabay.com/photo/2020/02/06/08/53/kashmir-4823450_1280.jpg"
    },
    {
        "id": "1121157",
        "src640": "https://cdn.pixabay.com/photo/2016/01/04/16/18/snow-1121157_640.jpg",
        "src1280": "https://cdn.pixabay.com/photo/2016/01/04/16/18/snow-1121157_1280.jpg"
    },
    {
        "id": "5819743",
        "src640": "https://cdn.pixabay.com/photo/2020/12/10/09/29/winter-5819743_640.jpg",
        "src1280": "https://cdn.pixabay.com/photo/2020/12/10/09/29/winter-5819743_1280.jpg"
    },
    {
        "id": "2163154",
        "src640": "https://cdn.pixabay.com/photo/2017/03/21/19/48/snowman-2163154_640.jpg",
        "src1280": "https://cdn.pixabay.com/photo/2017/03/21/19/48/snowman-2163154_1280.jpg"
    },
    {
        "id": "6906273",
        "src640": "https://cdn.pixabay.com/photo/2021/12/31/17/28/winter-6906273_640.jpg",
        "src1280": "https://cdn.pixabay.com/photo/2021/12/31/17/28/winter-6906273_1280.jpg"
    },
    {
        "id": "1109499",
        "src640": "https://cdn.pixabay.com/photo/2015/12/27/04/04/snow-scene-1109499_640.jpg",
        "src1280": "https://cdn.pixabay.com/photo/2015/12/27/04/04/snow-scene-1109499_1280.jpg"
    },
    {
        "id": "3781931",
        "src640": "https://cdn.pixabay.com/photo/2018/10/29/20/26/lake-3781931_640.jpg",
        "src1280": "https://cdn.pixabay.com/photo/2018/10/29/20/26/lake-3781931_1280.jpg"
    },
    {
        "id": "5890137",
        "src640": "https://cdn.pixabay.com/photo/2021/01/05/07/30/stationary-5890137_640.jpg",
        "src1280": "https://cdn.pixabay.com/photo/2021/01/05/07/30/stationary-5890137_1280.jpg"
    },
    {
        "id": "3953575",
        "src640": "https://cdn.pixabay.com/photo/2019/01/24/23/33/texas-3953575_640.jpg",
        "src1280": "https://cdn.pixabay.com/photo/2019/01/24/23/33/texas-3953575_1280.jpg"
    },
    {
        "id": "1927784",
        "src640": "https://cdn.pixabay.com/photo/2016/12/23/19/21/cathedral-1927784_640.jpg",
        "src1280": "https://cdn.pixabay.com/photo/2016/12/23/19/21/cathedral-1927784_1280.jpg"
    },
    {
        "id": "8301867",
        "src640": "https://cdn.pixabay.com/photo/2023/10/08/10/00/ai-generated-8301867_640.jpg",
        "src1280": "https://cdn.pixabay.com/photo/2023/10/08/10/00/ai-generated-8301867_1280.jpg"
    },
    {
        "id": "56478",
        "src640": "https://cdn.pixabay.com/photo/2012/09/09/03/00/sky-56478_640.jpg",
        "src1280": "https://cdn.pixabay.com/photo/2012/09/09/03/00/sky-56478_1280.jpg"
    },
    {
        "id": "170280",
        "src640": "https://cdn.pixabay.com/photo/2013/08/06/19/24/snowboard-170280_640.jpg",
        "src1280": "https://cdn.pixabay.com/photo/2013/08/06/19/24/snowboard-170280_1280.jpg"
    },
    {
        "id": "4007397",
        "src640": "https://cdn.pixabay.com/photo/2019/02/19/18/22/woodworm-4007397_640.jpg",
        "src1280": "https://cdn.pixabay.com/photo/2019/02/19/18/22/woodworm-4007397_1280.jpg"
    },
    {
        "id": "4909167",
        "src640": "https://cdn.pixabay.com/photo/2020/03/07/09/00/bird-4909167_640.jpg",
        "src1280": "https://cdn.pixabay.com/photo/2020/03/07/09/00/bird-4909167_1280.jpg"
    },
    {
        "id": "1033914",
        "src640": "https://cdn.pixabay.com/photo/2015/11/08/17/00/sunshine-canyon-1033914_640.jpg",
        "src1280": "https://cdn.pixabay.com/photo/2015/11/08/17/00/sunshine-canyon-1033914_1280.jpg"
    },
    {
        "id": "6212221",
        "src640": "https://cdn.pixabay.com/photo/2021/04/27/18/57/winter-6212221_640.jpg",
        "src1280": "https://cdn.pixabay.com/photo/2021/04/27/18/57/winter-6212221_1280.jpg"
    },
    {
        "id": "7595642",
        "src640": "https://cdn.pixabay.com/photo/2022/11/16/10/12/mountains-7595642_640.jpg",
        "src1280": "https://cdn.pixabay.com/photo/2022/11/16/10/12/mountains-7595642_1280.jpg"
    },
    {
        "id": "5973452",
        "src640": "https://cdn.pixabay.com/photo/2021/02/02/10/46/winter-5973452_640.jpg",
        "src1280": "https://cdn.pixabay.com/photo/2021/02/02/10/46/winter-5973452_1280.jpg"
    },
    {
        "id": "1161291",
        "src640": "https://cdn.pixabay.com/photo/2016/01/25/19/32/girl-1161291_640.jpg",
        "src1280": "https://cdn.pixabay.com/photo/2016/01/25/19/32/girl-1161291_1280.jpg"
    },
    {
        "id": "55204",
        "src640": "https://cdn.pixabay.com/photo/2012/08/28/21/52/winter-forest-55204_640.jpg",
        "src1280": "https://cdn.pixabay.com/photo/2012/08/28/21/52/winter-forest-55204_1280.jpg"
    },
    {
        "id": "6888566",
        "src640": "https://cdn.pixabay.com/photo/2021/12/23/02/59/cross-country-skiing-6888566_640.jpg",
        "src1280": "https://cdn.pixabay.com/photo/2021/12/23/02/59/cross-country-skiing-6888566_1280.jpg"
    },
    {
        "id": "6733519",
        "src640": "https://cdn.pixabay.com/photo/2021/10/22/20/05/sunset-6733519_640.jpg",
        "src1280": "https://cdn.pixabay.com/photo/2021/10/22/20/05/sunset-6733519_1280.jpg"
    },
    {
        "id": "5909094",
        "src640": "https://cdn.pixabay.com/photo/2021/01/11/17/40/forest-5909094_640.jpg",
        "src1280": "https://cdn.pixabay.com/photo/2021/01/11/17/40/forest-5909094_1280.jpg"
    },
    {
        "id": "8160618",
        "src640": "https://cdn.pixabay.com/photo/2023/07/31/09/27/tiger-8160618_640.jpg",
        "src1280": "https://cdn.pixabay.com/photo/2023/07/31/09/27/tiger-8160618_1280.jpg"
    },
    {
        "id": "5969828",
        "src640": "https://cdn.pixabay.com/photo/2021/02/01/09/01/tires-covered-in-snow-5969828_640.jpg",
        "src1280": "https://cdn.pixabay.com/photo/2021/02/01/09/01/tires-covered-in-snow-5969828_1280.jpg"
    },
    {
        "id": "584192",
        "src640": "https://cdn.pixabay.com/photo/2014/12/30/17/40/assistant-584192_640.jpg",
        "src1280": "https://cdn.pixabay.com/photo/2014/12/30/17/40/assistant-584192_1280.jpg"
    },
    {
        "id": "6833355",
        "src640": "https://cdn.pixabay.com/photo/2021/11/29/18/36/winter-6833355_640.jpg",
        "src1280": "https://cdn.pixabay.com/photo/2021/11/29/18/36/winter-6833355_1280.jpg"
    },
    {
        "id": "5908552",
        "src640": "https://cdn.pixabay.com/photo/2021/01/11/14/26/winter-5908552_640.jpg",
        "src1280": "https://cdn.pixabay.com/photo/2021/01/11/14/26/winter-5908552_1280.jpg"
    },
    {
        "id": "3940486",
        "src640": "https://cdn.pixabay.com/photo/2019/01/18/19/29/winter-3940486_640.jpg",
        "src1280": "https://cdn.pixabay.com/photo/2019/01/18/19/29/winter-3940486_1280.jpg"
    },
    {
        "id": "5863948",
        "src640": "https://cdn.pixabay.com/photo/2020/12/27/13/33/snow-5863948_640.jpg",
        "src1280": "https://cdn.pixabay.com/photo/2020/12/27/13/33/snow-5863948_1280.jpg"
    },
    {
        "id": "3584426",
        "src640": "https://cdn.pixabay.com/photo/2018/08/04/20/42/woods-3584426_640.jpg",
        "src1280": "https://cdn.pixabay.com/photo/2018/08/04/20/42/woods-3584426_1280.jpg"
    },
    {
        "id": "1314800",
        "src640": "https://cdn.pixabay.com/photo/2016/04/07/21/39/winter-1314800_640.jpg",
        "src1280": "https://cdn.pixabay.com/photo/2016/04/07/21/39/winter-1314800_1280.jpg"
    },
    {
        "id": "3178642",
        "src640": "https://cdn.pixabay.com/photo/2018/02/24/17/09/waters-3178642_640.jpg",
        "src1280": "https://cdn.pixabay.com/photo/2018/02/24/17/09/waters-3178642_1280.jpg"
    },
    {
        "id": "3806401",
        "src640": "https://cdn.pixabay.com/photo/2018/11/10/11/04/santa-claus-3806401_640.jpg",
        "src1280": "https://cdn.pixabay.com/photo/2018/11/10/11/04/santa-claus-3806401_1280.jpg"
    },
    {
        "id": "4939690",
        "src640": "https://cdn.pixabay.com/photo/2020/03/17/10/33/beautiful-4939690_640.jpg",
        "src1280": "https://cdn.pixabay.com/photo/2020/03/17/10/33/beautiful-4939690_1280.jpg"
    },
    {
        "id": "7959644",
        "src640": "https://cdn.pixabay.com/photo/2023/04/30/04/00/winter-7959644_640.jpg",
        "src1280": "https://cdn.pixabay.com/photo/2023/04/30/04/00/winter-7959644_1280.jpg"
    },
    {
        "id": "5564549",
        "src640": "https://cdn.pixabay.com/photo/2020/09/12/01/19/snow-5564549_640.jpg",
        "src1280": "https://cdn.pixabay.com/photo/2020/09/12/01/19/snow-5564549_1280.jpg"
    },
    {
        "id": "68573",
        "src640": "https://cdn.pixabay.com/photo/2012/12/03/18/08/winter-sun-68573_640.jpg",
        "src1280": "https://cdn.pixabay.com/photo/2012/12/03/18/08/winter-sun-68573_1280.jpg"
    },
    {
        "id": "605880",
        "src640": "https://cdn.pixabay.com/photo/2015/01/20/19/33/alpine-605880_640.jpg",
        "src1280": "https://cdn.pixabay.com/photo/2015/01/20/19/33/alpine-605880_1280.jpg"
    },
    {
        "id": "7585782",
        "src640": "https://cdn.pixabay.com/photo/2022/11/11/20/34/christmas-7585782_640.jpg",
        "src1280": "https://cdn.pixabay.com/photo/2022/11/11/20/34/christmas-7585782_1280.jpg"
    },
    {
        "id": "673018",
        "src640": "https://cdn.pixabay.com/photo/2015/03/14/09/54/advent-calendar-673018_640.jpg",
        "src1280": "https://cdn.pixabay.com/photo/2015/03/14/09/54/advent-calendar-673018_1280.jpg"
    },
    {
        "id": "1808365",
        "src640": "https://cdn.pixabay.com/photo/2016/11/08/13/41/skiing-1808365_640.jpg",
        "src1280": "https://cdn.pixabay.com/photo/2016/11/08/13/41/skiing-1808365_1280.jpg"
    },
    {
        "id": "4771102",
        "src640": "https://cdn.pixabay.com/photo/2020/01/16/16/47/bessans-4771102_640.jpg",
        "src1280": "https://cdn.pixabay.com/photo/2020/01/16/16/47/bessans-4771102_1280.jpg"
    },
    {
        "id": "7200121",
        "src640": "https://cdn.pixabay.com/photo/2022/05/16/11/24/sky-7200121_640.jpg",
        "src1280": "https://cdn.pixabay.com/photo/2022/05/16/11/24/sky-7200121_1280.jpg"
    },
    {
        "id": "7109776",
        "src640": "https://cdn.pixabay.com/photo/2022/04/03/19/35/countryside-7109776_640.jpg",
        "src1280": "https://cdn.pixabay.com/photo/2022/04/03/19/35/countryside-7109776_1280.jpg"
    },
    {
        "id": "4962550",
        "src640": "https://cdn.pixabay.com/photo/2020/03/24/02/21/flower-4962550_640.jpg",
        "src1280": "https://cdn.pixabay.com/photo/2020/03/24/02/21/flower-4962550_1280.jpg"
    },
    {
        "id": "5884420",
        "src640": "https://cdn.pixabay.com/photo/2021/01/03/12/53/bokeh-5884420_640.jpg",
        "src1280": "https://cdn.pixabay.com/photo/2021/01/03/12/53/bokeh-5884420_1280.jpg"
    },
    {
        "id": "4654507",
        "src640": "https://cdn.pixabay.com/photo/2019/11/26/12/44/snow-4654507_640.jpg",
        "src1280": "https://cdn.pixabay.com/photo/2019/11/26/12/44/snow-4654507_1280.jpg"
    },
    {
        "id": "56476",
        "src640": "https://cdn.pixabay.com/photo/2012/09/09/02/59/sky-56476_640.jpg",
        "src1280": "https://cdn.pixabay.com/photo/2012/09/09/02/59/sky-56476_1280.jpg"
    },
    {
        "id": "6886634",
        "src640": "https://cdn.pixabay.com/photo/2021/12/22/04/12/landscape-6886634_640.jpg",
        "src1280": "https://cdn.pixabay.com/photo/2021/12/22/04/12/landscape-6886634_1280.jpg"
    },
    {
        "id": "2429653",
        "src640": "https://cdn.pixabay.com/photo/2017/06/22/05/30/ski-2429653_640.jpg",
        "src1280": "https://cdn.pixabay.com/photo/2017/06/22/05/30/ski-2429653_1280.jpg"
    },
    {
        "id": "4351894",
        "src640": "https://cdn.pixabay.com/photo/2019/07/21/03/29/skidoo-4351894_640.jpg",
        "src1280": "https://cdn.pixabay.com/photo/2019/07/21/03/29/skidoo-4351894_1280.jpg"
    },
    {
        "id": "5070832",
        "src640": "https://cdn.pixabay.com/photo/2020/04/21/04/47/winter-5070832_640.jpg",
        "src1280": "https://cdn.pixabay.com/photo/2020/04/21/04/47/winter-5070832_1280.jpg"
    },
    {
        "id": "4183798",
        "src640": "https://cdn.pixabay.com/photo/2019/05/06/18/15/girl-4183798_640.jpg",
        "src1280": "https://cdn.pixabay.com/photo/2019/05/06/18/15/girl-4183798_1280.jpg"
    },
    {
        "id": "4857332",
        "src640": "https://cdn.pixabay.com/photo/2020/02/17/18/36/dombay-4857332_640.jpg",
        "src1280": "https://cdn.pixabay.com/photo/2020/02/17/18/36/dombay-4857332_1280.jpg"
    },
    {
        "id": "873959",
        "src640": "https://cdn.pixabay.com/photo/2015/08/03/21/28/nature-873959_640.jpg",
        "src1280": "https://cdn.pixabay.com/photo/2015/08/03/21/28/nature-873959_1280.jpg"
    },
    {
        "id": "4507113",
        "src640": "https://cdn.pixabay.com/photo/2019/09/26/21/35/flowers-4507113_640.jpg",
        "src1280": "https://cdn.pixabay.com/photo/2019/09/26/21/35/flowers-4507113_1280.jpg"
    },
    {
        "id": "957896",
        "src640": "https://cdn.pixabay.com/photo/2015/09/25/18/19/ski-957896_640.jpg",
        "src1280": "https://cdn.pixabay.com/photo/2015/09/25/18/19/ski-957896_1280.jpg"
    },
    {
        "id": "5889353",
        "src640": "https://cdn.pixabay.com/photo/2021/01/05/01/06/winter-5889353_640.jpg",
        "src1280": "https://cdn.pixabay.com/photo/2021/01/05/01/06/winter-5889353_1280.jpg"
    },
    {
        "id": "1903852",
        "src640": "https://cdn.pixabay.com/photo/2016/12/13/11/14/girl-1903852_640.jpg",
        "src1280": "https://cdn.pixabay.com/photo/2016/12/13/11/14/girl-1903852_1280.jpg"
    },
    {
        "id": "4811865",
        "src640": "https://cdn.pixabay.com/photo/2020/02/02/02/04/winter-4811865_640.jpg",
        "src1280": "https://cdn.pixabay.com/photo/2020/02/02/02/04/winter-4811865_1280.jpg"
    },
    {
        "id": "1178288",
        "src640": "https://cdn.pixabay.com/photo/2016/02/03/22/32/snow-1178288_640.jpg",
        "src1280": "https://cdn.pixabay.com/photo/2016/02/03/22/32/snow-1178288_1280.jpg"
    },
    {
        "id": "590156",
        "src640": "https://cdn.pixabay.com/photo/2015/01/06/12/11/ski-lessons-590156_640.jpg",
        "src1280": "https://cdn.pixabay.com/photo/2015/01/06/12/11/ski-lessons-590156_1280.jpg"
    },
    {
        "id": "3181327",
        "src640": "https://cdn.pixabay.com/photo/2018/02/25/18/11/nature-3181327_640.jpg",
        "src1280": "https://cdn.pixabay.com/photo/2018/02/25/18/11/nature-3181327_1280.jpg"
    },
    {
        "id": "2222145",
        "src640": "https://cdn.pixabay.com/photo/2017/04/11/16/37/crater-2222145_640.jpg",
        "src1280": "https://cdn.pixabay.com/photo/2017/04/11/16/37/crater-2222145_1280.jpg"
    },
    {
        "id": "2007657",
        "src640": "https://cdn.pixabay.com/photo/2017/01/25/11/35/winter-2007657_640.jpg",
        "src1280": "https://cdn.pixabay.com/photo/2017/01/25/11/35/winter-2007657_1280.jpg"
    },
    {
        "id": "1933739",
        "src640": "https://cdn.pixabay.com/photo/2016/12/27/11/22/web-1933739_640.jpg",
        "src1280": "https://cdn.pixabay.com/photo/2016/12/27/11/22/web-1933739_1280.jpg"
    },
    {
        "id": "5046344",
        "src640": "https://cdn.pixabay.com/photo/2020/04/15/11/50/mountains-5046344_640.jpg",
        "src1280": "https://cdn.pixabay.com/photo/2020/04/15/11/50/mountains-5046344_1280.jpg"
    },
    {
        "id": "6755139",
        "src640": "https://cdn.pixabay.com/photo/2021/10/30/17/55/hot-air-balloons-6755139_640.jpg",
        "src1280": "https://cdn.pixabay.com/photo/2021/10/30/17/55/hot-air-balloons-6755139_1280.jpg"
    },
    {
        "id": "616069",
        "src640": "https://cdn.pixabay.com/photo/2015/01/29/12/12/winter-616069_640.jpg",
        "src1280": "https://cdn.pixabay.com/photo/2015/01/29/12/12/winter-616069_1280.jpg"
    },
    {
        "id": "5187891",
        "src640": "https://cdn.pixabay.com/photo/2020/05/18/18/29/alpine-5187891_640.jpg",
        "src1280": "https://cdn.pixabay.com/photo/2020/05/18/18/29/alpine-5187891_1280.jpg"
    },
    {
        "id": "1153233",
        "src640": "https://cdn.pixabay.com/photo/2016/01/21/09/17/winter-1153233_640.jpg",
        "src1280": "https://cdn.pixabay.com/photo/2016/01/21/09/17/winter-1153233_1280.jpg"
    },
    {
        "id": "4963713",
        "src640": "https://cdn.pixabay.com/photo/2020/03/24/11/21/tree-4963713_640.jpg",
        "src1280": "https://cdn.pixabay.com/photo/2020/03/24/11/21/tree-4963713_1280.jpg"
    },
    {
        "id": "5972014",
        "src640": "https://cdn.pixabay.com/photo/2021/02/01/21/20/ruins-5972014_640.jpg",
        "src1280": "https://cdn.pixabay.com/photo/2021/02/01/21/20/ruins-5972014_1280.jpg"
    },
    {
        "id": "7737991",
        "src640": "https://cdn.pixabay.com/photo/2023/01/23/07/04/winter-7737991_640.jpg",
        "src1280": "https://cdn.pixabay.com/photo/2023/01/23/07/04/winter-7737991_1280.jpg"
    },
    {
        "id": "2482417",
        "src640": "https://cdn.pixabay.com/photo/2017/07/07/19/34/winter-2482417_640.jpg",
        "src1280": "https://cdn.pixabay.com/photo/2017/07/07/19/34/winter-2482417_1280.jpg"
    },
    {
        "id": "645803",
        "src640": "https://cdn.pixabay.com/photo/2015/02/23/11/10/tree-645803_640.jpg",
        "src1280": "https://cdn.pixabay.com/photo/2015/02/23/11/10/tree-645803_1280.jpg"
    },
    {
        "id": "4766698",
        "src640": "https://cdn.pixabay.com/photo/2020/01/15/02/15/cattail-4766698_640.jpg",
        "src1280": "https://cdn.pixabay.com/photo/2020/01/15/02/15/cattail-4766698_1280.jpg"
    },
    {
        "id": "3560090",
        "src640": "https://cdn.pixabay.com/photo/2018/07/24/21/37/snow-3560090_640.jpg",
        "src1280": "https://cdn.pixabay.com/photo/2018/07/24/21/37/snow-3560090_1280.jpg"
    },
    {
        "id": "6035392",
        "src640": "https://cdn.pixabay.com/photo/2021/02/21/06/17/snow-6035392_640.jpg",
        "src1280": "https://cdn.pixabay.com/photo/2021/02/21/06/17/snow-6035392_1280.jpg"
    },
    {
        "id": "1441928",
        "src640": "https://cdn.pixabay.com/photo/2016/06/07/16/08/snow-1441928_640.jpg",
        "src1280": "https://cdn.pixabay.com/photo/2016/06/07/16/08/snow-1441928_1280.jpg"
    },
    {
        "id": "587348",
        "src640": "https://cdn.pixabay.com/photo/2015/01/03/11/48/antlers-587348_640.jpg",
        "src1280": "https://cdn.pixabay.com/photo/2015/01/03/11/48/antlers-587348_1280.jpg"
    },
    {
        "id": "612891",
        "src640": "https://cdn.pixabay.com/photo/2015/01/26/17/09/winter-612891_640.jpg",
        "src1280": "https://cdn.pixabay.com/photo/2015/01/26/17/09/winter-612891_1280.jpg"
    },
    {
        "id": "5776580",
        "src640": "https://cdn.pixabay.com/photo/2020/11/25/17/36/emerald-lake-5776580_640.jpg",
        "src1280": "https://cdn.pixabay.com/photo/2020/11/25/17/36/emerald-lake-5776580_1280.jpg"
    },
    {
        "id": "7859512",
        "src640": "https://cdn.pixabay.com/photo/2023/03/17/21/43/sea-7859512_640.jpg",
        "src1280": "https://cdn.pixabay.com/photo/2023/03/17/21/43/sea-7859512_1280.jpg"
    },
    {
        "id": "1337414",
        "src640": "https://cdn.pixabay.com/photo/2016/04/18/20/46/vail-1337414_640.jpg",
        "src1280": "https://cdn.pixabay.com/photo/2016/04/18/20/46/vail-1337414_1280.jpg"
    },
    {
        "id": "3870067",
        "src640": "https://cdn.pixabay.com/photo/2018/12/12/03/36/christmas-3870067_640.jpg",
        "src1280": "https://cdn.pixabay.com/photo/2018/12/12/03/36/christmas-3870067_1280.jpg"
    },
    {
        "id": "5001249",
        "src640": "https://cdn.pixabay.com/photo/2020/04/04/07/58/ski-5001249_640.jpg",
        "src1280": "https://cdn.pixabay.com/photo/2020/04/04/07/58/ski-5001249_1280.jpg"
    },
    {
        "id": "1433303",
        "src640": "https://cdn.pixabay.com/photo/2016/06/03/12/28/mountain-1433303_640.jpg",
        "src1280": "https://cdn.pixabay.com/photo/2016/06/03/12/28/mountain-1433303_1280.jpg"
    },
    {
        "id": "770773",
        "src640": "https://cdn.pixabay.com/photo/2015/05/17/12/03/snow-white-770773_640.jpg",
        "src1280": "https://cdn.pixabay.com/photo/2015/05/17/12/03/snow-white-770773_1280.jpg"
    },
    {
        "id": "7241561",
        "src640": "https://cdn.pixabay.com/photo/2022/06/04/09/08/woman-7241561_640.jpg",
        "src1280": "https://cdn.pixabay.com/photo/2022/06/04/09/08/woman-7241561_1280.jpg"
    },
    {
        "id": "7432093",
        "src640": "https://cdn.pixabay.com/photo/2022/09/04/16/15/penguin-7432093_640.jpg",
        "src1280": "https://cdn.pixabay.com/photo/2022/09/04/16/15/penguin-7432093_1280.jpg"
    }
]