[
    {
        "id": "1856362",
        "src640": "https://cdn.pixabay.com/photo/2016/11/24/14/12/glacier-1856362_640.jpg",
        "src1280": "https://cdn.pixabay.com/photo/2016/11/24/14/12/glacier-1856362_1280.jpg"
    },
    {
        "id": "1229120",
        "src640": "https://cdn.pixabay.com/photo/2016/02/29/20/08/winter-1229120_640.jpg",
        "src1280": "https://cdn.pixabay.com/photo/2016/02/29/20/08/winter-1229120_1280.jpg"
    },
    {
        "id": "6934055",
        "src640": "https://cdn.pixabay.com/photo/2022/01/12/23/03/nature-6934055_640.jpg",
        "src1280": "https://cdn.pixabay.com/photo/2022/01/12/23/03/nature-6934055_1280.jpg"
    },
    {
        "id": "699727",
        "src640": "https://cdn.pixabay.com/photo/2015/03/30/17/44/snow-mountain-699727_640.jpg",
        "src1280": "https://cdn.pixabay.com/photo/2015/03/30/17/44/snow-mountain-699727_1280.jpg"
    },
    {
        "id": "119463",
        "src640": "https://cdn.pixabay.com/photo/2013/06/07/10/58/foix-119463_640.jpg",
        "src1280": "https://cdn.pixabay.com/photo/2013/06/07/10/58/foix-119463_1280.jpg"
    },
    {
        "id": "4837921",
        "src640": "https://cdn.pixabay.com/photo/2020/02/10/23/25/lake-4837921_640.jpg",
        "src1280": "https://cdn.pixabay.com/photo/2020/02/10/23/25/lake-4837921_1280.jpg"
    },
    {
        "id": "674463",
        "src640": "https://cdn.pixabay.com/photo/2015/03/15/14/14/dog-674463_640.jpg",
        "src1280": "https://cdn.pixabay.com/photo/2015/03/15/14/14/dog-674463_1280.jpg"
    },
    {
        "id": "6043168",
        "src640": "https://cdn.pixabay.com/photo/2021/02/23/11/41/bicycle-6043168_640.jpg",
        "src1280": "https://cdn.pixabay.com/photo/2021/02/23/11/41/bicycle-6043168_1280.jpg"
    },
    {
        "id": "5995202",
        "src640": "https://cdn.pixabay.com/photo/2021/02/08/15/25/tree-5995202_640.jpg",
        "src1280": "https://cdn.pixabay.com/photo/2021/02/08/15/25/tree-5995202_1280.jpg"
    },
    {
        "id": "6126633",
        "src640": "https://cdn.pixabay.com/photo/2021/03/26/18/12/snow-6126633_640.jpg",
        "src1280": "https://cdn.pixabay.com/photo/2021/03/26/18/12/snow-6126633_1280.jpg"
    },
    {
        "id": "4750224",
        "src640": "https://cdn.pixabay.com/photo/2020/01/08/14/21/winter-4750224_640.jpg",
        "src1280": "https://cdn.pixabay.com/photo/2020/01/08/14/21/winter-4750224_1280.jpg"
    },
    {
        "id": "5924346",
        "src640": "https://cdn.pixabay.com/photo/2021/01/17/09/07/forest-5924346_640.jpg",
        "src1280": "https://cdn.pixabay.com/photo/2021/01/17/09/07/forest-5924346_1280.jpg"
    },
    {
        "id": "1936809",
        "src640": "https://cdn.pixabay.com/photo/2016/12/28/19/09/winter-1936809_640.jpg",
        "src1280": "https://cdn.pixabay.com/photo/2016/12/28/19/09/winter-1936809_1280.jpg"
    },
    {
        "id": "7625767",
        "src640": "https://cdn.pixabay.com/photo/2022/11/30/03/12/forbidden-city-7625767_640.jpg",
        "src1280": "https://cdn.pixabay.com/photo/2022/11/30/03/12/forbidden-city-7625767_1280.jpg"
    },
    {
        "id": "6033952",
        "src640": "https://cdn.pixabay.com/photo/2021/02/20/16/35/winter-6033952_640.jpg",
        "src1280": "https://cdn.pixabay.com/photo/2021/02/20/16/35/winter-6033952_1280.jpg"
    },
    {
        "id": "3784787",
        "src640": "https://cdn.pixabay.com/photo/2018/10/30/22/17/snow-3784787_640.jpg",
        "src1280": "https://cdn.pixabay.com/photo/2018/10/30/22/17/snow-3784787_1280.jpg"
    },
    {
        "id": "4540136",
        "src640": "https://cdn.pixabay.com/photo/2019/10/10/17/32/denmark-4540136_640.jpg",
        "src1280": "https://cdn.pixabay.com/photo/2019/10/10/17/32/denmark-4540136_1280.jpg"
    },
    {
        "id": "6057872",
        "src640": "https://cdn.pixabay.com/photo/2021/02/28/17/55/spike-6057872_640.jpg",
        "src1280": "https://cdn.pixabay.com/photo/2021/02/28/17/55/spike-6057872_1280.jpg"
    },
    {
        "id": "6858931",
        "src640": "https://cdn.pixabay.com/photo/2021/12/09/19/21/trees-6858931_640.jpg",
        "src1280": "https://cdn.pixabay.com/photo/2021/12/09/19/21/trees-6858931_1280.jpg"
    },
    {
        "id": "6017750",
        "src640": "https://cdn.pixabay.com/photo/2021/02/15/13/07/winter-6017750_640.jpg",
        "src1280": "https://cdn.pixabay.com/photo/2021/02/15/13/07/winter-6017750_1280.jpg"
    },
    {
        "id": "2064231",
        "src640": "https://cdn.pixabay.com/photo/2017/02/14/00/03/snow-2064231_640.jpg",
        "src1280": "https://cdn.pixabay.com/photo/2017/02/14/00/03/snow-2064231_1280.jpg"
    },
    {
        "id": "5085305",
        "src640": "https://cdn.pixabay.com/photo/2020/04/24/06/09/mountains-5085305_640.jpg",
        "src1280": "https://cdn.pixabay.com/photo/2020/04/24/06/09/mountains-5085305_1280.jpg"
    },
    {
        "id": "4702550",
        "src640": "https://cdn.pixabay.com/photo/2019/12/17/21/28/icicle-4702550_640.jpg",
        "src1280": "https://cdn.pixabay.com/photo/2019/12/17/21/28/icicle-4702550_1280.jpg"
    },
    {
        "id": "2069286",
        "src640": "https://cdn.pixabay.com/photo/2017/02/15/16/45/snow-2069286_640.jpg",
        "src1280": "https://cdn.pixabay.com/photo/2017/02/15/16/45/snow-2069286_1280.jpg"
    },
    {
        "id": "1130667",
        "src640": "https://cdn.pixabay.com/photo/2016/01/09/17/51/frozen-lake-1130667_640.jpg",
        "src1280": "https://cdn.pixabay.com/photo/2016/01/09/17/51/frozen-lake-1130667_1280.jpg"
    },
    {
        "id": "1274713",
        "src640": "https://cdn.pixabay.com/photo/2016/03/23/13/05/winter-1274713_640.jpg",
        "src1280": "https://cdn.pixabay.com/photo/2016/03/23/13/05/winter-1274713_1280.jpg"
    },
    {
        "id": "3320140",
        "src640": "https://cdn.pixabay.com/photo/2018/04/14/21/06/winter-3320140_640.jpg",
        "src1280": "https://cdn.pixabay.com/photo/2018/04/14/21/06/winter-3320140_1280.jpg"
    },
    {
        "id": "1867755",
        "src640": "https://cdn.pixabay.com/photo/2016/11/29/06/17/sun-1867755_640.jpg",
        "src1280": "https://cdn.pixabay.com/photo/2016/11/29/06/17/sun-1867755_1280.jpg"
    },
    {
        "id": "3112825",
        "src640": "https://cdn.pixabay.com/photo/2018/01/28/05/25/rails-3112825_640.jpg",
        "src1280": "https://cdn.pixabay.com/photo/2018/01/28/05/25/rails-3112825_1280.jpg"
    },
    {
        "id": "87726",
        "src640": "https://cdn.pixabay.com/photo/2013/03/01/18/32/cold-87726_640.jpg",
        "src1280": "https://cdn.pixabay.com/photo/2013/03/01/18/32/cold-87726_1280.jpg"
    },
    {
        "id": "7604681",
        "src640": "https://cdn.pixabay.com/photo/2022/11/20/16/22/mayrhofen-7604681_640.jpg",
        "src1280": "https://cdn.pixabay.com/photo/2022/11/20/16/22/mayrhofen-7604681_1280.jpg"
    },
    {
        "id": "6031289",
        "src640": "https://cdn.pixabay.com/photo/2021/02/19/19/28/clouds-6031289_640.jpg",
        "src1280": "https://cdn.pixabay.com/photo/2021/02/19/19/28/clouds-6031289_1280.jpg"
    },
    {
        "id": "1223730",
        "src640": "https://cdn.pixabay.com/photo/2016/02/26/09/06/rime-1223730_640.jpg",
        "src1280": "https://cdn.pixabay.com/photo/2016/02/26/09/06/rime-1223730_1280.jpg"
    },
    {
        "id": "4236138",
        "src640": "https://cdn.pixabay.com/photo/2019/05/28/21/02/pakistan-4236138_640.jpg",
        "src1280": "https://cdn.pixabay.com/photo/2019/05/28/21/02/pakistan-4236138_1280.jpg"
    },
    {
        "id": "5750211",
        "src640": "https://cdn.pixabay.com/photo/2020/11/16/19/39/card-5750211_640.jpg",
        "src1280": "https://cdn.pixabay.com/photo/2020/11/16/19/39/card-5750211_1280.jpg"
    },
    {
        "id": "6193729",
        "src640": "https://cdn.pixabay.com/photo/2021/04/20/12/10/horses-6193729_640.jpg",
        "src1280": "https://cdn.pixabay.com/photo/2021/04/20/12/10/horses-6193729_1280.jpg"
    },
    {
        "id": "6085628",
        "src640": "https://cdn.pixabay.com/photo/2021/03/10/21/20/snow-6085628_640.jpg",
        "src1280": "https://cdn.pixabay.com/photo/2021/03/10/21/20/snow-6085628_1280.jpg"
    },
    {
        "id": "7684558",
        "src640": "https://cdn.pixabay.com/photo/2022/12/29/10/08/blue-tit-7684558_640.jpg",
        "src1280": "https://cdn.pixabay.com/photo/2022/12/29/10/08/blue-tit-7684558_1280.jpg"
    },
    {
        "id": "5840397",
        "src640": "https://cdn.pixabay.com/photo/2020/12/17/19/42/elbrus-5840397_640.jpg",
        "src1280": "https://cdn.pixabay.com/photo/2020/12/17/19/42/elbrus-5840397_1280.jpg"
    },
    {
        "id": "7719834",
        "src640": "https://cdn.pixabay.com/photo/2023/01/15/10/08/montain-7719834_640.jpg",
        "src1280": "https://cdn.pixabay.com/photo/2023/01/15/10/08/montain-7719834_1280.jpg"
    },
    {
        "id": "5890138",
        "src640": "https://cdn.pixabay.com/photo/2021/01/05/07/30/stationary-5890138_640.jpg",
        "src1280": "https://cdn.pixabay.com/photo/2021/01/05/07/30/stationary-5890138_1280.jpg"
    },
    {
        "id": "795753",
        "src640": "https://cdn.pixabay.com/photo/2015/06/02/23/32/snow-795753_640.jpg",
        "src1280": "https://cdn.pixabay.com/photo/2015/06/02/23/32/snow-795753_1280.jpg"
    },
    {
        "id": "7010856",
        "src640": "https://cdn.pixabay.com/photo/2022/02/13/10/49/lake-7010856_640.jpg",
        "src1280": "https://cdn.pixabay.com/photo/2022/02/13/10/49/lake-7010856_1280.jpg"
    },
    {
        "id": "7773122",
        "src640": "https://cdn.pixabay.com/photo/2023/02/07/02/35/lake-7773122_640.jpg",
        "src1280": "https://cdn.pixabay.com/photo/2023/02/07/02/35/lake-7773122_1280.jpg"
    },
    {
        "id": "770783",
        "src640": "https://cdn.pixabay.com/photo/2015/05/17/12/04/snow-white-770783_640.jpg",
        "src1280": "https://cdn.pixabay.com/photo/2015/05/17/12/04/snow-white-770783_1280.jpg"
    },
    {
        "id": "3027627",
        "src640": "https://cdn.pixabay.com/photo/2017/12/19/09/11/winter-3027627_640.jpg",
        "src1280": "https://cdn.pixabay.com/photo/2017/12/19/09/11/winter-3027627_1280.jpg"
    },
    {
        "id": "1902511",
        "src640": "https://cdn.pixabay.com/photo/2016/12/12/19/54/winter-1902511_640.jpg",
        "src1280": "https://cdn.pixabay.com/photo/2016/12/12/19/54/winter-1902511_1280.jpg"
    },
    {
        "id": "3872519",
        "src640": "https://cdn.pixabay.com/photo/2018/12/13/09/59/snow-3872519_640.jpg",
        "src1280": "https://cdn.pixabay.com/photo/2018/12/13/09/59/snow-3872519_1280.jpg"
    },
    {
        "id": "7937977",
        "src640": "https://cdn.pixabay.com/photo/2023/04/19/15/04/winter-7937977_640.jpg",
        "src1280": "https://cdn.pixabay.com/photo/2023/04/19/15/04/winter-7937977_1280.jpg"
    },
    {
        "id": "3121135",
        "src640": "https://cdn.pixabay.com/photo/2018/01/31/13/14/sky-3121135_640.jpg",
        "src1280": "https://cdn.pixabay.com/photo/2018/01/31/13/14/sky-3121135_1280.jpg"
    },
    {
        "id": "626494",
        "src640": "https://cdn.pixabay.com/photo/2015/02/06/20/28/train-626494_640.jpg",
        "src1280": "https://cdn.pixabay.com/photo/2015/02/06/20/28/train-626494_1280.jpg"
    },
    {
        "id": "81675",
        "src640": "https://cdn.pixabay.com/photo/2013/02/14/15/15/winter-81675_640.jpg",
        "src1280": "https://cdn.pixabay.com/photo/2013/02/14/15/15/winter-81675_1280.jpg"
    },
    {
        "id": "1286438",
        "src640": "https://cdn.pixabay.com/photo/2016/03/28/17/54/chiemgau-1286438_640.jpg",
        "src1280": "https://cdn.pixabay.com/photo/2016/03/28/17/54/chiemgau-1286438_1280.jpg"
    },
    {
        "id": "6868901",
        "src640": "https://cdn.pixabay.com/photo/2021/12/13/18/56/winter-6868901_640.jpg",
        "src1280": "https://cdn.pixabay.com/photo/2021/12/13/18/56/winter-6868901_1280.jpg"
    },
    {
        "id": "869236",
        "src640": "https://cdn.pixabay.com/photo/2015/07/31/15/19/banff-869236_640.jpg",
        "src1280": "https://cdn.pixabay.com/photo/2015/07/31/15/19/banff-869236_1280.jpg"
    },
    {
        "id": "5205016",
        "src640": "https://cdn.pixabay.com/photo/2020/05/22/11/20/manali-5205016_640.jpg",
        "src1280": "https://cdn.pixabay.com/photo/2020/05/22/11/20/manali-5205016_1280.jpg"
    },
    {
        "id": "5984076",
        "src640": "https://cdn.pixabay.com/photo/2021/02/05/10/24/raven-5984076_640.jpg",
        "src1280": "https://cdn.pixabay.com/photo/2021/02/05/10/24/raven-5984076_1280.jpg"
    },
    {
        "id": "5940285",
        "src640": "https://cdn.pixabay.com/photo/2021/01/22/15/21/hay-5940285_640.jpg",
        "src1280": "https://cdn.pixabay.com/photo/2021/01/22/15/21/hay-5940285_1280.jpg"
    },
    {
        "id": "6873439",
        "src640": "https://cdn.pixabay.com/photo/2021/12/15/21/48/woman-6873439_640.jpg",
        "src1280": "https://cdn.pixabay.com/photo/2021/12/15/21/48/woman-6873439_1280.jpg"
    },
    {
        "id": "5964097",
        "src640": "https://cdn.pixabay.com/photo/2021/01/30/14/42/forest-5964097_640.jpg",
        "src1280": "https://cdn.pixabay.com/photo/2021/01/30/14/42/forest-5964097_1280.jpg"
    },
    {
        "id": "7831538",
        "src640": "https://cdn.pixabay.com/photo/2023/03/05/14/23/church-7831538_640.jpg",
        "src1280": "https://cdn.pixabay.com/photo/2023/03/05/14/23/church-7831538_1280.jpg"
    },
    {
        "id": "6015540",
        "src640": "https://cdn.pixabay.com/photo/2021/02/14/19/09/forest-6015540_640.jpg",
        "src1280": "https://cdn.pixabay.com/photo/2021/02/14/19/09/forest-6015540_1280.jpg"
    },
    {
        "id": "4428516",
        "src640": "https://cdn.pixabay.com/photo/2019/08/24/22/44/woman-4428516_640.jpg",
        "src1280": "https://cdn.pixabay.com/photo/2019/08/24/22/44/woman-4428516_1280.jpg"
    },
    {
        "id": "7980562",
        "src640": "https://cdn.pixabay.com/photo/2023/05/09/07/19/river-7980562_640.jpg",
        "src1280": "https://cdn.pixabay.com/photo/2023/05/09/07/19/river-7980562_1280.jpg"
    },
    {
        "id": "7829444",
        "src640": "https://cdn.pixabay.com/photo/2023/03/04/12/17/trees-7829444_640.jpg",
        "src1280": "https://cdn.pixabay.com/photo/2023/03/04/12/17/trees-7829444_1280.jpg"
    },
    {
        "id": "1279356",
        "src640": "https://cdn.pixabay.com/photo/2016/03/25/18/24/tree-1279356_640.jpg",
        "src1280": "https://cdn.pixabay.com/photo/2016/03/25/18/24/tree-1279356_1280.jpg"
    },
    {
        "id": "6014544",
        "src640": "https://cdn.pixabay.com/photo/2021/02/14/13/59/snow-6014544_640.jpg",
        "src1280": "https://cdn.pixabay.com/photo/2021/02/14/13/59/snow-6014544_1280.jpg"
    },
    {
        "id": "4016609",
        "src640": "https://cdn.pixabay.com/photo/2019/02/23/21/59/mountains-4016609_640.jpg",
        "src1280": "https://cdn.pixabay.com/photo/2019/02/23/21/59/mountains-4016609_1280.jpg"
    },
    {
        "id": "6118188",
        "src640": "https://cdn.pixabay.com/photo/2021/03/23/17/23/picture-6118188_640.jpg",
        "src1280": "https://cdn.pixabay.com/photo/2021/03/23/17/23/picture-6118188_1280.jpg"
    },
    {
        "id": "6009811",
        "src640": "https://cdn.pixabay.com/photo/2021/02/12/22/08/ice-6009811_640.jpg",
        "src1280": "https://cdn.pixabay.com/photo/2021/02/12/22/08/ice-6009811_1280.jpg"
    },
    {
        "id": "5806856",
        "src640": "https://cdn.pixabay.com/photo/2020/12/05/18/33/blackforest-5806856_640.jpg",
        "src1280": "https://cdn.pixabay.com/photo/2020/12/05/18/33/blackforest-5806856_1280.jpg"
    },
    {
        "id": "1800044",
        "src640": "https://cdn.pixabay.com/photo/2016/11/05/11/43/snow-1800044_640.jpg",
        "src1280": "https://cdn.pixabay.com/photo/2016/11/05/11/43/snow-1800044_1280.jpg"
    },
    {
        "id": "2819521",
        "src640": "https://cdn.pixabay.com/photo/2017/10/05/14/03/snow-2819521_640.jpg",
        "src1280": "https://cdn.pixabay.com/photo/2017/10/05/14/03/snow-2819521_1280.jpg"
    },
    {
        "id": "1123297",
        "src640": "https://cdn.pixabay.com/photo/2016/01/05/22/23/handprint-in-snow-1123297_640.jpg",
        "src1280": "https://cdn.pixabay.com/photo/2016/01/05/22/23/handprint-in-snow-1123297_1280.jpg"
    },
    {
        "id": "1142366",
        "src640": "https://cdn.pixabay.com/photo/2016/01/15/20/37/helsinki-cathedral-1142366_640.jpg",
        "src1280": "https://cdn.pixabay.com/photo/2016/01/15/20/37/helsinki-cathedral-1142366_1280.jpg"
    },
    {
        "id": "4973099",
        "src640": "https://cdn.pixabay.com/photo/2020/03/27/09/57/father-christmas-4973099_640.jpg",
        "src1280": "https://cdn.pixabay.com/photo/2020/03/27/09/57/father-christmas-4973099_1280.jpg"
    },
    {
        "id": "2127616",
        "src640": "https://cdn.pixabay.com/photo/2017/03/08/19/29/tree-2127616_640.jpg",
        "src1280": "https://cdn.pixabay.com/photo/2017/03/08/19/29/tree-2127616_1280.jpg"
    },
    {
        "id": "5996102",
        "src640": "https://cdn.pixabay.com/photo/2021/02/08/19/02/winter-5996102_640.jpg",
        "src1280": "https://cdn.pixabay.com/photo/2021/02/08/19/02/winter-5996102_1280.jpg"
    },
    {
        "id": "608019",
        "src640": "https://cdn.pixabay.com/photo/2015/01/22/17/28/birdhouse-608019_640.jpg",
        "src1280": "https://cdn.pixabay.com/photo/2015/01/22/17/28/birdhouse-608019_1280.jpg"
    },
    {
        "id": "1516571",
        "src640": "https://cdn.pixabay.com/photo/2016/07/14/11/07/horse-1516571_640.jpg",
        "src1280": "https://cdn.pixabay.com/photo/2016/07/14/11/07/horse-1516571_1280.jpg"
    },
    {
        "id": "1275120",
        "src640": "https://cdn.pixabay.com/photo/2016/03/23/17/06/winter-1275120_640.jpg",
        "src1280": "https://cdn.pixabay.com/photo/2016/03/23/17/06/winter-1275120_1280.jpg"
    },
    {
        "id": "3217468",
        "src640": "https://cdn.pixabay.com/photo/2018/03/11/17/36/winter-3217468_640.jpg",
        "src1280": "https://cdn.pixabay.com/photo/2018/03/11/17/36/winter-3217468_1280.jpg"
    },
    {
        "id": "7867125",
        "src640": "https://cdn.pixabay.com/photo/2023/03/21/12/16/ai-generated-7867125_640.jpg",
        "src1280": "https://cdn.pixabay.com/photo/2023/03/21/12/16/ai-generated-7867125_1280.jpg"
    },
    {
        "id": "6968317",
        "src640": "https://cdn.pixabay.com/photo/2022/01/26/09/09/winter-6968317_640.jpg",
        "src1280": "https://cdn.pixabay.com/photo/2022/01/26/09/09/winter-6968317_1280.jpg"
    },
    {
        "id": "5853250",
        "src640": "https://cdn.pixabay.com/photo/2020/12/22/20/34/frost-5853250_640.jpg",
        "src1280": "https://cdn.pixabay.com/photo/2020/12/22/20/34/frost-5853250_1280.jpg"
    },
    {
        "id": "5947928",
        "src640": "https://cdn.pixabay.com/photo/2021/01/25/10/42/grapes-5947928_640.jpg",
        "src1280": "https://cdn.pixabay.com/photo/2021/01/25/10/42/grapes-5947928_1280.jpg"
    },
    {
        "id": "6133041",
        "src640": "https://cdn.pixabay.com/photo/2021/03/29/05/39/road-6133041_640.jpg",
        "src1280": "https://cdn.pixabay.com/photo/2021/03/29/05/39/road-6133041_1280.jpg"
    },
    {
        "id": "5775636",
        "src640": "https://cdn.pixabay.com/photo/2020/11/25/12/51/street-5775636_640.jpg",
        "src1280": "https://cdn.pixabay.com/photo/2020/11/25/12/51/street-5775636_1280.jpg"
    },
    {
        "id": "5135926",
        "src640": "https://cdn.pixabay.com/photo/2020/05/06/03/03/rose-5135926_640.jpg",
        "src1280": "https://cdn.pixabay.com/photo/2020/05/06/03/03/rose-5135926_1280.jpg"
    },
    {
        "id": "3019819",
        "src640": "https://cdn.pixabay.com/photo/2017/12/14/21/28/snow-3019819_640.jpg",
        "src1280": "https://cdn.pixabay.com/photo/2017/12/14/21/28/snow-3019819_1280.jpg"
    },
    {
        "id": "468008",
        "src640": "https://cdn.pixabay.com/photo/2014/10/01/04/52/tung-trees-and-flowers-468008_640.jpg",
        "src1280": "https://cdn.pixabay.com/photo/2014/10/01/04/52/tung-trees-and-flowers-468008_1280.jpg"
    },
    {
        "id": "5224897",
        "src640": "https://cdn.pixabay.com/photo/2020/05/26/21/44/snow-5224897_640.jpg",
        "src1280": "https://cdn.pixabay.com/photo/2020/05/26/21/44/snow-5224897_1280.jpg"
    },
    {
        "id": "6115014",
        "src640": "https://cdn.pixabay.com/photo/2021/03/22/15/38/michigan-6115014_640.jpg",
        "src1280": "https://cdn.pixabay.com/photo/2021/03/22/15/38/michigan-6115014_1280.jpg"
    },
    {
        "id": "6891058",
        "src640": "https://cdn.pixabay.com/photo/2021/12/24/13/05/winter-6891058_640.jpg",
        "src1280": "https://cdn.pixabay.com/photo/2021/12/24/13/05/winter-6891058_1280.jpg"
    },
    {
        "id": "6813267",
        "src640": "https://cdn.pixabay.com/photo/2021/11/21/06/13/tree-6813267_640.jpg",
        "src1280": "https://cdn.pixabay.com/photo/2021/11/21/06/13/tree-6813267_1280.jpg"
    },
    {
        "id": "6332968",
        "src640": "https://cdn.pixabay.com/photo/2021/06/13/11/30/trees-6332968_640.jpg",
        "src1280": "https://cdn.pixabay.com/photo/2021/06/13/11/30/trees-6332968_1280.jpg"
    },
    {
        "id": "2429904",
        "src640": "https://cdn.pixabay.com/photo/2017/06/22/07/49/ginkgo-leaf-2429904_640.jpg",
        "src1280": "https://cdn.pixabay.com/photo/2017/06/22/07/49/ginkgo-leaf-2429904_1280.jpg"
    }
]