[
    {
        "id": "3262174",
        "src640": "https://cdn.pixabay.com/photo/2018/03/26/10/23/flower-3262174_640.jpg",
        "src1280": "https://cdn.pixabay.com/photo/2018/03/26/10/23/flower-3262174_1280.jpg"
    },
    {
        "id": "8373435",
        "src640": "https://cdn.pixabay.com/photo/2023/11/07/20/38/ai-generated-8373435_640.jpg",
        "src1280": "https://cdn.pixabay.com/photo/2023/11/07/20/38/ai-generated-8373435_1280.jpg"
    },
    {
        "id": "2763596",
        "src640": "https://cdn.pixabay.com/photo/2017/09/18/23/33/flowers-2763596_640.jpg",
        "src1280": "https://cdn.pixabay.com/photo/2017/09/18/23/33/flowers-2763596_1280.jpg"
    },
    {
        "id": "3677619",
        "src640": "https://cdn.pixabay.com/photo/2018/09/14/17/09/model-3677619_640.jpg",
        "src1280": "https://cdn.pixabay.com/photo/2018/09/14/17/09/model-3677619_1280.jpg"
    },
    {
        "id": "7563440",
        "src640": "https://cdn.pixabay.com/photo/2022/11/01/21/46/ai-generated-7563440_640.jpg",
        "src1280": "https://cdn.pixabay.com/photo/2022/11/01/21/46/ai-generated-7563440_1280.jpg"
    },
    {
        "id": "1542890",
        "src640": "https://cdn.pixabay.com/photo/2016/07/26/14/10/roses-1542890_640.jpg",
        "src1280": "https://cdn.pixabay.com/photo/2016/07/26/14/10/roses-1542890_1280.jpg"
    },
    {
        "id": "5042426",
        "src640": "https://cdn.pixabay.com/photo/2020/04/14/12/22/flower-5042426_640.jpg",
        "src1280": "https://cdn.pixabay.com/photo/2020/04/14/12/22/flower-5042426_1280.jpg"
    },
    {
        "id": "2472145",
        "src640": "https://cdn.pixabay.com/photo/2017/07/04/18/44/fantasy-2472145_640.jpg",
        "src1280": "https://cdn.pixabay.com/photo/2017/07/04/18/44/fantasy-2472145_1280.jpg"
    },
    {
        "id": "8038122",
        "src640": "https://cdn.pixabay.com/photo/2023/06/03/17/17/flower-8038122_640.jpg",
        "src1280": "https://cdn.pixabay.com/photo/2023/06/03/17/17/flower-8038122_1280.jpg"
    },
    {
        "id": "8072418",
        "src640": "https://cdn.pixabay.com/photo/2023/06/18/16/37/insect-8072418_640.jpg",
        "src1280": "https://cdn.pixabay.com/photo/2023/06/18/16/37/insect-8072418_1280.jpg"
    },
    {
        "id": "5794440",
        "src640": "https://cdn.pixabay.com/photo/2020/12/01/14/22/rose-5794440_640.jpg",
        "src1280": "https://cdn.pixabay.com/photo/2020/12/01/14/22/rose-5794440_1280.jpg"
    },
    {
        "id": "1334636",
        "src640": "https://cdn.pixabay.com/photo/2016/04/17/12/14/flower-1334636_640.jpg",
        "src1280": "https://cdn.pixabay.com/photo/2016/04/17/12/14/flower-1334636_1280.jpg"
    },
    {
        "id": "7441243",
        "src640": "https://cdn.pixabay.com/photo/2022/09/08/15/32/background-7441243_640.jpg",
        "src1280": "https://cdn.pixabay.com/photo/2022/09/08/15/32/background-7441243_1280.jpg"
    },
    {
        "id": "7320047",
        "src640": "https://cdn.pixabay.com/photo/2022/07/13/20/56/abstract-7320047_640.jpg",
        "src1280": "https://cdn.pixabay.com/photo/2022/07/13/20/56/abstract-7320047_1280.jpg"
    },
    {
        "id": "7002093",
        "src640": "https://cdn.pixabay.com/photo/2022/02/08/20/33/butterfly-7002093_640.jpg",
        "src1280": "https://cdn.pixabay.com/photo/2022/02/08/20/33/butterfly-7002093_1280.jpg"
    },
    {
        "id": "7941565",
        "src640": "https://cdn.pixabay.com/photo/2023/04/21/09/55/tulips-7941565_640.jpg",
        "src1280": "https://cdn.pixabay.com/photo/2023/04/21/09/55/tulips-7941565_1280.jpg"
    },
    {
        "id": "2333348",
        "src640": "https://cdn.pixabay.com/photo/2017/05/22/07/23/waterfall-2333348_640.jpg",
        "src1280": "https://cdn.pixabay.com/photo/2017/05/22/07/23/waterfall-2333348_1280.jpg"
    },
    {
        "id": "4438306",
        "src640": "https://cdn.pixabay.com/photo/2019/08/29/06/39/fashion-4438306_640.jpg",
        "src1280": "https://cdn.pixabay.com/photo/2019/08/29/06/39/fashion-4438306_1280.jpg"
    },
    {
        "id": "5839402",
        "src640": "https://cdn.pixabay.com/photo/2020/12/17/13/43/woman-5839402_640.jpg",
        "src1280": "https://cdn.pixabay.com/photo/2020/12/17/13/43/woman-5839402_1280.jpg"
    },
    {
        "id": "8116273",
        "src640": "https://cdn.pixabay.com/photo/2023/07/09/14/30/flower-8116273_640.jpg",
        "src1280": "https://cdn.pixabay.com/photo/2023/07/09/14/30/flower-8116273_1280.jpg"
    },
    {
        "id": "7826380",
        "src640": "https://cdn.pixabay.com/photo/2023/03/02/20/08/ai-generated-7826380_640.jpg",
        "src1280": "https://cdn.pixabay.com/photo/2023/03/02/20/08/ai-generated-7826380_1280.jpg"
    },
    {
        "id": "7048782",
        "src640": "https://cdn.pixabay.com/photo/2022/03/05/09/44/flowers-7048782_640.jpg",
        "src1280": "https://cdn.pixabay.com/photo/2022/03/05/09/44/flowers-7048782_1280.jpg"
    },
    {
        "id": "7139599",
        "src640": "https://cdn.pixabay.com/photo/2022/04/18/06/54/woman-7139599_640.jpg",
        "src1280": "https://cdn.pixabay.com/photo/2022/04/18/06/54/woman-7139599_1280.jpg"
    },
    {
        "id": "3999390",
        "src640": "https://cdn.pixabay.com/photo/2019/02/15/21/40/the-dandelion-3999390_640.jpg",
        "src1280": "https://cdn.pixabay.com/photo/2019/02/15/21/40/the-dandelion-3999390_1280.jpg"
    },
    {
        "id": "7948532",
        "src640": "https://cdn.pixabay.com/photo/2023/04/24/16/40/leaves-7948532_640.jpg",
        "src1280": "https://cdn.pixabay.com/photo/2023/04/24/16/40/leaves-7948532_1280.jpg"
    },
    {
        "id": "1807227",
        "src640": "https://cdn.pixabay.com/photo/2016/11/08/00/54/rose-1807227_640.jpg",
        "src1280": "https://cdn.pixabay.com/photo/2016/11/08/00/54/rose-1807227_1280.jpg"
    },
    {
        "id": "7998287",
        "src640": "https://cdn.pixabay.com/photo/2023/05/16/18/04/background-7998287_640.jpg",
        "src1280": "https://cdn.pixabay.com/photo/2023/05/16/18/04/background-7998287_1280.jpg"
    },
    {
        "id": "7198065",
        "src640": "https://cdn.pixabay.com/photo/2022/05/15/13/38/asian-7198065_640.jpg",
        "src1280": "https://cdn.pixabay.com/photo/2022/05/15/13/38/asian-7198065_1280.jpg"
    },
    {
        "id": "7986593",
        "src640": "https://cdn.pixabay.com/photo/2023/05/11/14/50/ai-generated-7986593_640.jpg",
        "src1280": "https://cdn.pixabay.com/photo/2023/05/11/14/50/ai-generated-7986593_1280.jpg"
    },
    {
        "id": "6603196",
        "src640": "https://cdn.pixabay.com/photo/2021/09/07/07/47/meadow-6603196_640.jpg",
        "src1280": "https://cdn.pixabay.com/photo/2021/09/07/07/47/meadow-6603196_1280.jpg"
    },
    {
        "id": "4314082",
        "src640": "https://cdn.pixabay.com/photo/2019/07/03/10/08/flower-4314082_640.jpg",
        "src1280": "https://cdn.pixabay.com/photo/2019/07/03/10/08/flower-4314082_1280.jpg"
    },
    {
        "id": "1496773",
        "src640": "https://cdn.pixabay.com/photo/2016/07/04/15/02/yellow-daisy-1496773_640.jpg",
        "src1280": "https://cdn.pixabay.com/photo/2016/07/04/15/02/yellow-daisy-1496773_1280.jpg"
    },
    {
        "id": "4047277",
        "src640": "https://cdn.pixabay.com/photo/2019/03/10/21/00/tulip-4047277_640.jpg",
        "src1280": "https://cdn.pixabay.com/photo/2019/03/10/21/00/tulip-4047277_1280.jpg"
    },
    {
        "id": "2413693",
        "src640": "https://cdn.pixabay.com/photo/2017/06/17/21/48/flowers-2413693_640.jpg",
        "src1280": "https://cdn.pixabay.com/photo/2017/06/17/21/48/flowers-2413693_1280.jpg"
    },
    {
        "id": "2597904",
        "src640": "https://cdn.pixabay.com/photo/2017/08/07/00/20/small-paint-2597904_640.jpg",
        "src1280": "https://cdn.pixabay.com/photo/2017/08/07/00/20/small-paint-2597904_1280.jpg"
    },
    {
        "id": "5914919",
        "src640": "https://cdn.pixabay.com/photo/2021/01/13/18/36/leaves-5914919_640.jpg",
        "src1280": "https://cdn.pixabay.com/photo/2021/01/13/18/36/leaves-5914919_1280.jpg"
    },
    {
        "id": "3421694",
        "src640": "https://cdn.pixabay.com/photo/2018/05/22/15/41/blue-pea-3421694_640.jpg",
        "src1280": "https://cdn.pixabay.com/photo/2018/05/22/15/41/blue-pea-3421694_1280.jpg"
    },
    {
        "id": "1379663",
        "src640": "https://cdn.pixabay.com/photo/2016/05/08/19/17/freesia-1379663_640.jpg",
        "src1280": "https://cdn.pixabay.com/photo/2016/05/08/19/17/freesia-1379663_1280.jpg"
    },
    {
        "id": "4011287",
        "src640": "https://cdn.pixabay.com/photo/2019/02/21/12/59/mauve-4011287_640.jpg",
        "src1280": "https://cdn.pixabay.com/photo/2019/02/21/12/59/mauve-4011287_1280.jpg"
    },
    {
        "id": "2549338",
        "src640": "https://cdn.pixabay.com/photo/2017/07/28/17/49/gladiolus-2549338_640.jpg",
        "src1280": "https://cdn.pixabay.com/photo/2017/07/28/17/49/gladiolus-2549338_1280.jpg"
    },
    {
        "id": "7517216",
        "src640": "https://cdn.pixabay.com/photo/2022/10/12/18/18/autumn-7517216_640.jpg",
        "src1280": "https://cdn.pixabay.com/photo/2022/10/12/18/18/autumn-7517216_1280.jpg"
    },
    {
        "id": "177113",
        "src640": "https://cdn.pixabay.com/photo/2013/08/29/20/48/flowers-177113_640.jpg",
        "src1280": "https://cdn.pixabay.com/photo/2013/08/29/20/48/flowers-177113_1280.jpg"
    },
    {
        "id": "4099085",
        "src640": "https://cdn.pixabay.com/photo/2019/04/02/22/27/flower-4099085_640.jpg",
        "src1280": "https://cdn.pixabay.com/photo/2019/04/02/22/27/flower-4099085_1280.jpg"
    },
    {
        "id": "5281677",
        "src640": "https://cdn.pixabay.com/photo/2020/06/10/07/58/people-5281677_640.jpg",
        "src1280": "https://cdn.pixabay.com/photo/2020/06/10/07/58/people-5281677_1280.jpg"
    },
    {
        "id": "2213768",
        "src640": "https://cdn.pixabay.com/photo/2017/04/08/17/06/orchid-2213768_640.jpg",
        "src1280": "https://cdn.pixabay.com/photo/2017/04/08/17/06/orchid-2213768_1280.jpg"
    },
    {
        "id": "115180",
        "src640": "https://cdn.pixabay.com/photo/2013/05/31/21/13/hyacinth-115180_640.jpg",
        "src1280": "https://cdn.pixabay.com/photo/2013/05/31/21/13/hyacinth-115180_1280.jpg"
    },
    {
        "id": "6699735",
        "src640": "https://cdn.pixabay.com/photo/2021/10/11/08/22/flower-6699735_640.jpg",
        "src1280": "https://cdn.pixabay.com/photo/2021/10/11/08/22/flower-6699735_1280.jpg"
    },
    {
        "id": "7893023",
        "src640": "https://cdn.pixabay.com/photo/2023/04/01/19/41/flower-7893023_640.jpg",
        "src1280": "https://cdn.pixabay.com/photo/2023/04/01/19/41/flower-7893023_1280.jpg"
    },
    {
        "id": "824167",
        "src640": "https://cdn.pixabay.com/photo/2015/06/28/05/40/miss-daisy-824167_640.jpg",
        "src1280": "https://cdn.pixabay.com/photo/2015/06/28/05/40/miss-daisy-824167_1280.jpg"
    },
    {
        "id": "7991288",
        "src640": "https://cdn.pixabay.com/photo/2023/05/13/19/53/beautiful-7991288_640.jpg",
        "src1280": "https://cdn.pixabay.com/photo/2023/05/13/19/53/beautiful-7991288_1280.jpg"
    },
    {
        "id": "7802069",
        "src640": "https://cdn.pixabay.com/photo/2023/02/20/11/53/flowers-7802069_640.jpg",
        "src1280": "https://cdn.pixabay.com/photo/2023/02/20/11/53/flowers-7802069_1280.jpg"
    },
    {
        "id": "4269732",
        "src640": "https://cdn.pixabay.com/photo/2019/06/12/16/36/bicycle-4269732_640.jpg",
        "src1280": "https://cdn.pixabay.com/photo/2019/06/12/16/36/bicycle-4269732_1280.jpg"
    },
    {
        "id": "2204510",
        "src640": "https://cdn.pixabay.com/photo/2017/04/05/10/08/tulips-2204510_640.jpg",
        "src1280": "https://cdn.pixabay.com/photo/2017/04/05/10/08/tulips-2204510_1280.jpg"
    },
    {
        "id": "199079",
        "src640": "https://cdn.pixabay.com/photo/2013/10/21/19/22/flower-199079_640.jpg",
        "src1280": "https://cdn.pixabay.com/photo/2013/10/21/19/22/flower-199079_1280.jpg"
    },
    {
        "id": "8270750",
        "src640": "https://cdn.pixabay.com/photo/2023/09/23/11/31/flower-8270750_640.jpg",
        "src1280": "https://cdn.pixabay.com/photo/2023/09/23/11/31/flower-8270750_1280.jpg"
    },
    {
        "id": "2992714",
        "src640": "https://cdn.pixabay.com/photo/2017/12/02/11/35/safranbolu-2992714_640.jpg",
        "src1280": "https://cdn.pixabay.com/photo/2017/12/02/11/35/safranbolu-2992714_1280.jpg"
    },
    {
        "id": "2578719",
        "src640": "https://cdn.pixabay.com/photo/2017/08/04/00/05/columbine-2578719_640.jpg",
        "src1280": "https://cdn.pixabay.com/photo/2017/08/04/00/05/columbine-2578719_1280.jpg"
    },
    {
        "id": "4037382",
        "src640": "https://cdn.pixabay.com/photo/2019/03/06/00/38/girl-4037382_640.jpg",
        "src1280": "https://cdn.pixabay.com/photo/2019/03/06/00/38/girl-4037382_1280.jpg"
    },
    {
        "id": "4974176",
        "src640": "https://cdn.pixabay.com/photo/2020/03/27/16/24/hoya-4974176_640.jpg",
        "src1280": "https://cdn.pixabay.com/photo/2020/03/27/16/24/hoya-4974176_1280.jpg"
    },
    {
        "id": "5018659",
        "src640": "https://cdn.pixabay.com/photo/2020/04/08/19/20/omelette-5018659_640.jpg",
        "src1280": "https://cdn.pixabay.com/photo/2020/04/08/19/20/omelette-5018659_1280.jpg"
    },
    {
        "id": "3419426",
        "src640": "https://cdn.pixabay.com/photo/2018/05/21/20/42/poppy-3419426_640.jpg",
        "src1280": "https://cdn.pixabay.com/photo/2018/05/21/20/42/poppy-3419426_1280.jpg"
    },
    {
        "id": "1838146",
        "src640": "https://cdn.pixabay.com/photo/2016/11/19/06/35/dress-up-1838146_640.jpg",
        "src1280": "https://cdn.pixabay.com/photo/2016/11/19/06/35/dress-up-1838146_1280.jpg"
    },
    {
        "id": "7784716",
        "src640": "https://cdn.pixabay.com/photo/2023/02/12/10/40/flowers-7784716_640.jpg",
        "src1280": "https://cdn.pixabay.com/photo/2023/02/12/10/40/flowers-7784716_1280.jpg"
    },
    {
        "id": "5223093",
        "src640": "https://cdn.pixabay.com/photo/2020/05/26/13/33/flowers-5223093_640.jpg",
        "src1280": "https://cdn.pixabay.com/photo/2020/05/26/13/33/flowers-5223093_1280.jpg"
    },
    {
        "id": "7848490",
        "src640": "https://cdn.pixabay.com/photo/2023/03/13/05/04/ai-generated-7848490_640.jpg",
        "src1280": "https://cdn.pixabay.com/photo/2023/03/13/05/04/ai-generated-7848490_1280.jpg"
    },
    {
        "id": "7298895",
        "src640": "https://cdn.pixabay.com/photo/2022/07/03/10/29/wild-plants-7298895_640.jpg",
        "src1280": "https://cdn.pixabay.com/photo/2022/07/03/10/29/wild-plants-7298895_1280.jpg"
    },
    {
        "id": "3294017",
        "src640": "https://cdn.pixabay.com/photo/2018/04/05/20/18/flower-3294017_640.jpg",
        "src1280": "https://cdn.pixabay.com/photo/2018/04/05/20/18/flower-3294017_1280.jpg"
    },
    {
        "id": "7242830",
        "src640": "https://cdn.pixabay.com/photo/2022/06/04/21/04/dandelions-7242830_640.jpg",
        "src1280": "https://cdn.pixabay.com/photo/2022/06/04/21/04/dandelions-7242830_1280.jpg"
    },
    {
        "id": "753689",
        "src640": "https://cdn.pixabay.com/photo/2015/05/05/11/56/cherry-blossom-753689_640.jpg",
        "src1280": "https://cdn.pixabay.com/photo/2015/05/05/11/56/cherry-blossom-753689_1280.jpg"
    },
    {
        "id": "6584038",
        "src640": "https://cdn.pixabay.com/photo/2021/08/29/18/56/flower-6584038_640.jpg",
        "src1280": "https://cdn.pixabay.com/photo/2021/08/29/18/56/flower-6584038_1280.jpg"
    },
    {
        "id": "1105101",
        "src640": "https://cdn.pixabay.com/photo/2015/12/23/03/32/orchid-1105101_640.jpg",
        "src1280": "https://cdn.pixabay.com/photo/2015/12/23/03/32/orchid-1105101_1280.jpg"
    },
    {
        "id": "3443961",
        "src640": "https://cdn.pixabay.com/photo/2018/05/31/13/05/kite-3443961_640.jpg",
        "src1280": "https://cdn.pixabay.com/photo/2018/05/31/13/05/kite-3443961_1280.jpg"
    },
    {
        "id": "670975",
        "src640": "https://cdn.pixabay.com/photo/2015/03/12/23/48/happy-easter-670975_640.jpg",
        "src1280": "https://cdn.pixabay.com/photo/2015/03/12/23/48/happy-easter-670975_1280.jpg"
    },
    {
        "id": "785313",
        "src640": "https://cdn.pixabay.com/photo/2015/05/26/20/37/girl-785313_640.jpg",
        "src1280": "https://cdn.pixabay.com/photo/2015/05/26/20/37/girl-785313_1280.jpg"
    },
    {
        "id": "613944",
        "src640": "https://cdn.pixabay.com/photo/2015/01/27/16/23/manga-613944_640.jpg",
        "src1280": "https://cdn.pixabay.com/photo/2015/01/27/16/23/manga-613944_1280.jpg"
    },
    {
        "id": "3383750",
        "src640": "https://cdn.pixabay.com/photo/2018/05/08/19/45/woman-3383750_640.jpg",
        "src1280": "https://cdn.pixabay.com/photo/2018/05/08/19/45/woman-3383750_1280.jpg"
    },
    {
        "id": "2636301",
        "src640": "https://cdn.pixabay.com/photo/2017/08/13/05/46/letter-2636301_640.jpg",
        "src1280": "https://cdn.pixabay.com/photo/2017/08/13/05/46/letter-2636301_1280.jpg"
    },
    {
        "id": "6374756",
        "src640": "https://cdn.pixabay.com/photo/2021/06/29/18/04/woman-6374756_640.jpg",
        "src1280": "https://cdn.pixabay.com/photo/2021/06/29/18/04/woman-6374756_1280.jpg"
    },
    {
        "id": "13568",
        "src640": "https://cdn.pixabay.com/photo/2012/02/16/12/29/rose-13568_640.jpg",
        "src1280": "https://cdn.pixabay.com/photo/2012/02/16/12/29/rose-13568_1280.jpg"
    },
    {
        "id": "5627121",
        "src640": "https://cdn.pixabay.com/photo/2020/10/04/18/03/nature-5627121_640.jpg",
        "src1280": "https://cdn.pixabay.com/photo/2020/10/04/18/03/nature-5627121_1280.jpg"
    },
    {
        "id": "69504",
        "src640": "https://cdn.pixabay.com/photo/2012/12/11/21/28/north-69504_640.jpg",
        "src1280": "https://cdn.pixabay.com/photo/2012/12/11/21/28/north-69504_1280.jpg"
    },
    {
        "id": "3257963",
        "src640": "https://cdn.pixabay.com/photo/2018/03/24/21/41/bouquet-3257963_640.jpg",
        "src1280": "https://cdn.pixabay.com/photo/2018/03/24/21/41/bouquet-3257963_1280.jpg"
    },
    {
        "id": "7958053",
        "src640": "https://cdn.pixabay.com/photo/2023/04/29/08/35/lotus-7958053_640.jpg",
        "src1280": "https://cdn.pixabay.com/photo/2023/04/29/08/35/lotus-7958053_1280.jpg"
    }
]