[
    {
        "id": "3083317",
        "src640": "https://cdn.pixabay.com/photo/2018/01/15/06/59/fly-3083317_640.jpg",
        "src1280": "https://cdn.pixabay.com/photo/2018/01/15/06/59/fly-3083317_1280.jpg"
    },
    {
        "id": "7262894",
        "src640": "https://cdn.pixabay.com/photo/2022/06/14/22/23/poppy-7262894_640.jpg",
        "src1280": "https://cdn.pixabay.com/photo/2022/06/14/22/23/poppy-7262894_1280.jpg"
    },
    {
        "id": "7288099",
        "src640": "https://cdn.pixabay.com/photo/2022/06/27/18/36/lavender-7288099_640.jpg",
        "src1280": "https://cdn.pixabay.com/photo/2022/06/27/18/36/lavender-7288099_1280.jpg"
    },
    {
        "id": "2127403",
        "src640": "https://cdn.pixabay.com/photo/2017/03/08/17/53/flower-2127403_640.jpg",
        "src1280": "https://cdn.pixabay.com/photo/2017/03/08/17/53/flower-2127403_1280.jpg"
    },
    {
        "id": "7078344",
        "src640": "https://cdn.pixabay.com/photo/2022/03/19/11/23/switzerland-7078344_640.jpg",
        "src1280": "https://cdn.pixabay.com/photo/2022/03/19/11/23/switzerland-7078344_1280.jpg"
    },
    {
        "id": "3868562",
        "src640": "https://cdn.pixabay.com/photo/2018/12/11/08/33/flower-3868562_640.jpg",
        "src1280": "https://cdn.pixabay.com/photo/2018/12/11/08/33/flower-3868562_1280.jpg"
    },
    {
        "id": "4028984",
        "src640": "https://cdn.pixabay.com/photo/2019/03/02/00/12/orchid-4028984_640.jpg",
        "src1280": "https://cdn.pixabay.com/photo/2019/03/02/00/12/orchid-4028984_1280.jpg"
    },
    {
        "id": "4771844",
        "src640": "https://cdn.pixabay.com/photo/2020/01/16/21/28/dandelion-4771844_640.jpg",
        "src1280": "https://cdn.pixabay.com/photo/2020/01/16/21/28/dandelion-4771844_1280.jpg"
    },
    {
        "id": "6806498",
        "src640": "https://cdn.pixabay.com/photo/2021/11/18/14/17/flower-6806498_640.jpg",
        "src1280": "https://cdn.pixabay.com/photo/2021/11/18/14/17/flower-6806498_1280.jpg"
    },
    {
        "id": "7134692",
        "src640": "https://cdn.pixabay.com/photo/2022/04/15/15/07/tulip-7134692_640.jpg",
        "src1280": "https://cdn.pixabay.com/photo/2022/04/15/15/07/tulip-7134692_1280.jpg"
    },
    {
        "id": "71283",
        "src640": "https://cdn.pixabay.com/photo/2012/12/20/10/12/abstract-71283_640.jpg",
        "src1280": "https://cdn.pixabay.com/photo/2012/12/20/10/12/abstract-71283_1280.jpg"
    },
    {
        "id": "3433992",
        "src640": "https://cdn.pixabay.com/photo/2018/05/27/17/44/wedding-3433992_640.jpg",
        "src1280": "https://cdn.pixabay.com/photo/2018/05/27/17/44/wedding-3433992_1280.jpg"
    },
    {
        "id": "174856",
        "src640": "https://cdn.pixabay.com/photo/2013/08/22/20/29/hand-174856_640.jpg",
        "src1280": "https://cdn.pixabay.com/photo/2013/08/22/20/29/hand-174856_1280.jpg"
    },
    {
        "id": "4633022",
        "src640": "https://cdn.pixabay.com/photo/2019/11/17/17/57/tulip-4633022_640.jpg",
        "src1280": "https://cdn.pixabay.com/photo/2019/11/17/17/57/tulip-4633022_1280.jpg"
    },
    {
        "id": "5232729",
        "src640": "https://cdn.pixabay.com/photo/2020/05/28/21/22/lilac-5232729_640.jpg",
        "src1280": "https://cdn.pixabay.com/photo/2020/05/28/21/22/lilac-5232729_1280.jpg"
    },
    {
        "id": "83001",
        "src640": "https://cdn.pixabay.com/photo/2013/02/18/18/34/butterfly-83001_640.jpg",
        "src1280": "https://cdn.pixabay.com/photo/2013/02/18/18/34/butterfly-83001_1280.jpg"
    },
    {
        "id": "1184210",
        "src640": "https://cdn.pixabay.com/photo/2016/02/07/09/02/rose-1184210_640.jpg",
        "src1280": "https://cdn.pixabay.com/photo/2016/02/07/09/02/rose-1184210_1280.jpg"
    },
    {
        "id": "6852275",
        "src640": "https://cdn.pixabay.com/photo/2021/12/07/05/19/portrait-6852275_640.jpg",
        "src1280": "https://cdn.pixabay.com/photo/2021/12/07/05/19/portrait-6852275_1280.jpg"
    },
    {
        "id": "3312444",
        "src640": "https://cdn.pixabay.com/photo/2018/04/12/03/38/flower-3312444_640.jpg",
        "src1280": "https://cdn.pixabay.com/photo/2018/04/12/03/38/flower-3312444_1280.jpg"
    },
    {
        "id": "7896391",
        "src640": "https://cdn.pixabay.com/photo/2023/04/03/09/27/flowers-7896391_640.jpg",
        "src1280": "https://cdn.pixabay.com/photo/2023/04/03/09/27/flowers-7896391_1280.jpg"
    },
    {
        "id": "2213768",
        "src640": "https://cdn.pixabay.com/photo/2017/04/08/17/06/orchid-2213768_640.jpg",
        "src1280": "https://cdn.pixabay.com/photo/2017/04/08/17/06/orchid-2213768_1280.jpg"
    },
    {
        "id": "3593187",
        "src640": "https://cdn.pixabay.com/photo/2018/08/08/20/59/garden-hibiscus-3593187_640.jpg",
        "src1280": "https://cdn.pixabay.com/photo/2018/08/08/20/59/garden-hibiscus-3593187_1280.jpg"
    },
    {
        "id": "367605",
        "src640": "https://cdn.pixabay.com/photo/2014/06/12/17/37/syringa-vulgaris-367605_640.jpg",
        "src1280": "https://cdn.pixabay.com/photo/2014/06/12/17/37/syringa-vulgaris-367605_1280.jpg"
    },
    {
        "id": "263389",
        "src640": "https://cdn.pixabay.com/photo/2014/02/10/12/35/thistle-263389_640.jpg",
        "src1280": "https://cdn.pixabay.com/photo/2014/02/10/12/35/thistle-263389_1280.jpg"
    },
    {
        "id": "4294528",
        "src640": "https://cdn.pixabay.com/photo/2019/06/23/19/36/poppy-4294528_640.jpg",
        "src1280": "https://cdn.pixabay.com/photo/2019/06/23/19/36/poppy-4294528_1280.jpg"
    },
    {
        "id": "567766",
        "src640": "https://cdn.pixabay.com/photo/2014/12/14/10/34/model-567766_640.jpg",
        "src1280": "https://cdn.pixabay.com/photo/2014/12/14/10/34/model-567766_1280.jpg"
    },
    {
        "id": "3483252",
        "src640": "https://cdn.pixabay.com/photo/2018/06/18/20/13/flower-3483252_640.jpg",
        "src1280": "https://cdn.pixabay.com/photo/2018/06/18/20/13/flower-3483252_1280.jpg"
    },
    {
        "id": "4975231",
        "src640": "https://cdn.pixabay.com/photo/2020/03/27/22/50/dandelion-4975231_640.jpg",
        "src1280": "https://cdn.pixabay.com/photo/2020/03/27/22/50/dandelion-4975231_1280.jpg"
    },
    {
        "id": "2399765",
        "src640": "https://cdn.pixabay.com/photo/2017/06/13/19/24/abstract-2399765_640.jpg",
        "src1280": "https://cdn.pixabay.com/photo/2017/06/13/19/24/abstract-2399765_1280.jpg"
    },
    {
        "id": "5371742",
        "src640": "https://cdn.pixabay.com/photo/2020/07/05/05/26/chrysanthemum-5371742_640.jpg",
        "src1280": "https://cdn.pixabay.com/photo/2020/07/05/05/26/chrysanthemum-5371742_1280.jpg"
    },
    {
        "id": "5234373",
        "src640": "https://cdn.pixabay.com/photo/2020/05/29/09/14/flowers-5234373_640.jpg",
        "src1280": "https://cdn.pixabay.com/photo/2020/05/29/09/14/flowers-5234373_1280.jpg"
    },
    {
        "id": "4898697",
        "src640": "https://cdn.pixabay.com/photo/2020/03/03/12/52/wave-plate-4898697_640.jpg",
        "src1280": "https://cdn.pixabay.com/photo/2020/03/03/12/52/wave-plate-4898697_1280.jpg"
    },
    {
        "id": "4882226",
        "src640": "https://cdn.pixabay.com/photo/2020/02/26/16/31/butterfly-4882226_640.jpg",
        "src1280": "https://cdn.pixabay.com/photo/2020/02/26/16/31/butterfly-4882226_1280.jpg"
    },
    {
        "id": "7848808",
        "src640": "https://cdn.pixabay.com/photo/2023/03/13/05/28/ai-generated-7848808_640.jpg",
        "src1280": "https://cdn.pixabay.com/photo/2023/03/13/05/28/ai-generated-7848808_1280.jpg"
    },
    {
        "id": "6663629",
        "src640": "https://cdn.pixabay.com/photo/2021/09/28/07/11/flowers-6663629_640.jpg",
        "src1280": "https://cdn.pixabay.com/photo/2021/09/28/07/11/flowers-6663629_1280.jpg"
    },
    {
        "id": "7850144",
        "src640": "https://cdn.pixabay.com/photo/2023/03/13/15/02/man-7850144_640.jpg",
        "src1280": "https://cdn.pixabay.com/photo/2023/03/13/15/02/man-7850144_1280.jpg"
    },
    {
        "id": "7509619",
        "src640": "https://cdn.pixabay.com/photo/2022/10/09/16/49/grass-7509619_640.jpg",
        "src1280": "https://cdn.pixabay.com/photo/2022/10/09/16/49/grass-7509619_1280.jpg"
    },
    {
        "id": "8267949",
        "src640": "https://cdn.pixabay.com/photo/2023/09/22/03/51/beautiful-8267949_640.jpg",
        "src1280": "https://cdn.pixabay.com/photo/2023/09/22/03/51/beautiful-8267949_1280.jpg"
    },
    {
        "id": "7987784",
        "src640": "https://cdn.pixabay.com/photo/2023/05/12/06/18/flower-7987784_640.jpg",
        "src1280": "https://cdn.pixabay.com/photo/2023/05/12/06/18/flower-7987784_1280.jpg"
    },
    {
        "id": "7914092",
        "src640": "https://cdn.pixabay.com/photo/2023/04/10/15/51/dog-7914092_640.jpg",
        "src1280": "https://cdn.pixabay.com/photo/2023/04/10/15/51/dog-7914092_1280.jpg"
    },
    {
        "id": "4651714",
        "src640": "https://cdn.pixabay.com/photo/2019/11/25/10/56/flower-4651714_640.jpg",
        "src1280": "https://cdn.pixabay.com/photo/2019/11/25/10/56/flower-4651714_1280.jpg"
    },
    {
        "id": "6630623",
        "src640": "https://cdn.pixabay.com/photo/2021/09/16/17/30/peony-6630623_640.jpg",
        "src1280": "https://cdn.pixabay.com/photo/2021/09/16/17/30/peony-6630623_1280.jpg"
    },
    {
        "id": "8076570",
        "src640": "https://cdn.pixabay.com/photo/2023/06/20/09/47/flower-8076570_640.jpg",
        "src1280": "https://cdn.pixabay.com/photo/2023/06/20/09/47/flower-8076570_1280.jpg"
    },
    {
        "id": "7101099",
        "src640": "https://cdn.pixabay.com/photo/2022/03/30/12/27/flower-7101099_640.jpg",
        "src1280": "https://cdn.pixabay.com/photo/2022/03/30/12/27/flower-7101099_1280.jpg"
    },
    {
        "id": "4943",
        "src640": "https://cdn.pixabay.com/photo/2011/02/21/20/19/sunflower-4943_640.jpg",
        "src1280": "https://cdn.pixabay.com/photo/2011/02/21/20/19/sunflower-4943_1280.jpg"
    },
    {
        "id": "7023296",
        "src640": "https://cdn.pixabay.com/photo/2022/02/19/19/26/dandelion-7023296_640.jpg",
        "src1280": "https://cdn.pixabay.com/photo/2022/02/19/19/26/dandelion-7023296_1280.jpg"
    },
    {
        "id": "7436284",
        "src640": "https://cdn.pixabay.com/photo/2022/09/06/09/52/flowers-7436284_640.jpg",
        "src1280": "https://cdn.pixabay.com/photo/2022/09/06/09/52/flowers-7436284_1280.jpg"
    },
    {
        "id": "5545042",
        "src640": "https://cdn.pixabay.com/photo/2020/09/04/21/54/ducks-5545042_640.jpg",
        "src1280": "https://cdn.pixabay.com/photo/2020/09/04/21/54/ducks-5545042_1280.jpg"
    },
    {
        "id": "6779120",
        "src640": "https://cdn.pixabay.com/photo/2021/11/08/13/33/flowers-6779120_640.jpg",
        "src1280": "https://cdn.pixabay.com/photo/2021/11/08/13/33/flowers-6779120_1280.jpg"
    },
    {
        "id": "422937",
        "src640": "https://cdn.pixabay.com/photo/2014/08/20/22/20/flower-422937_640.jpg",
        "src1280": "https://cdn.pixabay.com/photo/2014/08/20/22/20/flower-422937_1280.jpg"
    },
    {
        "id": "2640190",
        "src640": "https://cdn.pixabay.com/photo/2017/08/14/11/32/flower-2640190_640.jpg",
        "src1280": "https://cdn.pixabay.com/photo/2017/08/14/11/32/flower-2640190_1280.jpg"
    },
    {
        "id": "3871708",
        "src640": "https://cdn.pixabay.com/photo/2018/12/12/21/27/christmas-3871708_640.jpg",
        "src1280": "https://cdn.pixabay.com/photo/2018/12/12/21/27/christmas-3871708_1280.jpg"
    },
    {
        "id": "6779139",
        "src640": "https://cdn.pixabay.com/photo/2021/11/08/13/37/tulip-6779139_640.jpg",
        "src1280": "https://cdn.pixabay.com/photo/2021/11/08/13/37/tulip-6779139_1280.jpg"
    },
    {
        "id": "7735672",
        "src640": "https://cdn.pixabay.com/photo/2023/01/22/06/08/coffee-7735672_640.jpg",
        "src1280": "https://cdn.pixabay.com/photo/2023/01/22/06/08/coffee-7735672_1280.jpg"
    },
    {
        "id": "4314111",
        "src640": "https://cdn.pixabay.com/photo/2019/07/03/10/20/syringa-4314111_640.jpg",
        "src1280": "https://cdn.pixabay.com/photo/2019/07/03/10/20/syringa-4314111_1280.jpg"
    },
    {
        "id": "5105293",
        "src640": "https://cdn.pixabay.com/photo/2020/04/28/16/22/spring-5105293_640.jpg",
        "src1280": "https://cdn.pixabay.com/photo/2020/04/28/16/22/spring-5105293_1280.jpg"
    },
    {
        "id": "5188485",
        "src640": "https://cdn.pixabay.com/photo/2020/05/18/21/42/drone-orchis-5188485_640.jpg",
        "src1280": "https://cdn.pixabay.com/photo/2020/05/18/21/42/drone-orchis-5188485_1280.jpg"
    },
    {
        "id": "1334276",
        "src640": "https://cdn.pixabay.com/photo/2016/04/17/07/09/woman-1334276_640.jpg",
        "src1280": "https://cdn.pixabay.com/photo/2016/04/17/07/09/woman-1334276_1280.jpg"
    },
    {
        "id": "2592091",
        "src640": "https://cdn.pixabay.com/photo/2017/08/06/12/30/nature-2592091_640.jpg",
        "src1280": "https://cdn.pixabay.com/photo/2017/08/06/12/30/nature-2592091_1280.jpg"
    },
    {
        "id": "5236240",
        "src640": "https://cdn.pixabay.com/photo/2020/05/29/18/50/bud-5236240_640.jpg",
        "src1280": "https://cdn.pixabay.com/photo/2020/05/29/18/50/bud-5236240_1280.jpg"
    },
    {
        "id": "5404529",
        "src640": "https://cdn.pixabay.com/photo/2020/07/14/14/58/butterfly-5404529_640.jpg",
        "src1280": "https://cdn.pixabay.com/photo/2020/07/14/14/58/butterfly-5404529_1280.jpg"
    },
    {
        "id": "4921727",
        "src640": "https://cdn.pixabay.com/photo/2020/03/11/10/35/petals-4921727_640.jpg",
        "src1280": "https://cdn.pixabay.com/photo/2020/03/11/10/35/petals-4921727_1280.jpg"
    },
    {
        "id": "2675097",
        "src640": "https://cdn.pixabay.com/photo/2017/08/24/00/52/flowers-2675097_640.jpg",
        "src1280": "https://cdn.pixabay.com/photo/2017/08/24/00/52/flowers-2675097_1280.jpg"
    },
    {
        "id": "4579237",
        "src640": "https://cdn.pixabay.com/photo/2019/10/26/11/39/achene-4579237_640.jpg",
        "src1280": "https://cdn.pixabay.com/photo/2019/10/26/11/39/achene-4579237_1280.jpg"
    },
    {
        "id": "7144665",
        "src640": "https://cdn.pixabay.com/photo/2022/04/20/08/13/tattoo-7144665_640.jpg",
        "src1280": "https://cdn.pixabay.com/photo/2022/04/20/08/13/tattoo-7144665_1280.jpg"
    },
    {
        "id": "4887517",
        "src640": "https://cdn.pixabay.com/photo/2020/02/28/13/22/sky-4887517_640.jpg",
        "src1280": "https://cdn.pixabay.com/photo/2020/02/28/13/22/sky-4887517_1280.jpg"
    },
    {
        "id": "5195819",
        "src640": "https://cdn.pixabay.com/photo/2020/05/20/10/17/pokeball-5195819_640.jpg",
        "src1280": "https://cdn.pixabay.com/photo/2020/05/20/10/17/pokeball-5195819_1280.jpg"
    },
    {
        "id": "3399816",
        "src640": "https://cdn.pixabay.com/photo/2018/05/14/12/27/flowers-3399816_640.jpg",
        "src1280": "https://cdn.pixabay.com/photo/2018/05/14/12/27/flowers-3399816_1280.jpg"
    },
    {
        "id": "5027136",
        "src640": "https://cdn.pixabay.com/photo/2020/04/10/18/24/nature-5027136_640.jpg",
        "src1280": "https://cdn.pixabay.com/photo/2020/04/10/18/24/nature-5027136_1280.jpg"
    },
    {
        "id": "5084021",
        "src640": "https://cdn.pixabay.com/photo/2020/04/23/20/41/jabonka-5084021_640.jpg",
        "src1280": "https://cdn.pixabay.com/photo/2020/04/23/20/41/jabonka-5084021_1280.jpg"
    },
    {
        "id": "8163374",
        "src640": "https://cdn.pixabay.com/photo/2023/08/01/16/51/flowers-8163374_640.jpg",
        "src1280": "https://cdn.pixabay.com/photo/2023/08/01/16/51/flowers-8163374_1280.jpg"
    },
    {
        "id": "4275874",
        "src640": "https://cdn.pixabay.com/photo/2019/06/15/15/24/magnolia-4275874_640.jpg",
        "src1280": "https://cdn.pixabay.com/photo/2019/06/15/15/24/magnolia-4275874_1280.jpg"
    },
    {
        "id": "4080466",
        "src640": "https://cdn.pixabay.com/photo/2019/03/25/15/10/flower-4080466_640.jpg",
        "src1280": "https://cdn.pixabay.com/photo/2019/03/25/15/10/flower-4080466_1280.jpg"
    },
    {
        "id": "4644123",
        "src640": "https://cdn.pixabay.com/photo/2019/11/22/05/52/rose-4644123_640.jpg",
        "src1280": "https://cdn.pixabay.com/photo/2019/11/22/05/52/rose-4644123_1280.jpg"
    },
    {
        "id": "271784",
        "src640": "https://cdn.pixabay.com/photo/2014/02/22/00/35/historic-271784_640.jpg",
        "src1280": "https://cdn.pixabay.com/photo/2014/02/22/00/35/historic-271784_1280.jpg"
    },
    {
        "id": "5584781",
        "src640": "https://cdn.pixabay.com/photo/2020/09/19/15/25/grass-5584781_640.jpg",
        "src1280": "https://cdn.pixabay.com/photo/2020/09/19/15/25/grass-5584781_1280.jpg"
    },
    {
        "id": "6660093",
        "src640": "https://cdn.pixabay.com/photo/2021/09/27/09/33/flowers-6660093_640.jpg",
        "src1280": "https://cdn.pixabay.com/photo/2021/09/27/09/33/flowers-6660093_1280.jpg"
    },
    {
        "id": "4287338",
        "src640": "https://cdn.pixabay.com/photo/2019/06/20/15/09/pink-4287338_640.jpg",
        "src1280": "https://cdn.pixabay.com/photo/2019/06/20/15/09/pink-4287338_1280.jpg"
    },
    {
        "id": "4414108",
        "src640": "https://cdn.pixabay.com/photo/2019/08/18/12/53/pansy-4414108_640.jpg",
        "src1280": "https://cdn.pixabay.com/photo/2019/08/18/12/53/pansy-4414108_1280.jpg"
    },
    {
        "id": "3717186",
        "src640": "https://cdn.pixabay.com/photo/2018/10/01/20/26/silver-leaf-3717186_640.jpg",
        "src1280": "https://cdn.pixabay.com/photo/2018/10/01/20/26/silver-leaf-3717186_1280.jpg"
    },
    {
        "id": "7802226",
        "src640": "https://cdn.pixabay.com/photo/2023/02/20/13/28/plants-7802226_640.jpg",
        "src1280": "https://cdn.pixabay.com/photo/2023/02/20/13/28/plants-7802226_1280.jpg"
    },
    {
        "id": "7170122",
        "src640": "https://cdn.pixabay.com/photo/2022/05/02/17/32/flowers-7170122_640.jpg",
        "src1280": "https://cdn.pixabay.com/photo/2022/05/02/17/32/flowers-7170122_1280.jpg"
    },
    {
        "id": "3099805",
        "src640": "https://cdn.pixabay.com/photo/2018/01/22/19/42/flower-3099805_640.jpg",
        "src1280": "https://cdn.pixabay.com/photo/2018/01/22/19/42/flower-3099805_1280.jpg"
    },
    {
        "id": "3521836",
        "src640": "https://cdn.pixabay.com/photo/2018/07/07/09/27/nature-3521836_640.jpg",
        "src1280": "https://cdn.pixabay.com/photo/2018/07/07/09/27/nature-3521836_1280.jpg"
    },
    {
        "id": "3735823",
        "src640": "https://cdn.pixabay.com/photo/2018/10/09/19/54/blossom-3735823_640.jpg",
        "src1280": "https://cdn.pixabay.com/photo/2018/10/09/19/54/blossom-3735823_1280.jpg"
    },
    {
        "id": "5009800",
        "src640": "https://cdn.pixabay.com/photo/2020/04/06/13/58/orange-5009800_640.jpg",
        "src1280": "https://cdn.pixabay.com/photo/2020/04/06/13/58/orange-5009800_1280.jpg"
    }
]