[
    {
        "id": "3468660",
        "src640": "https://cdn.pixabay.com/photo/2018/06/11/15/20/flowers-3468660_640.jpg",
        "src1280": "https://cdn.pixabay.com/photo/2018/06/11/15/20/flowers-3468660_1280.jpg"
    },
    {
        "id": "4636475",
        "src640": "https://cdn.pixabay.com/photo/2019/11/19/05/15/pink-4636475_640.jpg",
        "src1280": "https://cdn.pixabay.com/photo/2019/11/19/05/15/pink-4636475_1280.jpg"
    },
    {
        "id": "3333956",
        "src640": "https://cdn.pixabay.com/photo/2018/04/19/18/55/butterfly-3333956_640.jpg",
        "src1280": "https://cdn.pixabay.com/photo/2018/04/19/18/55/butterfly-3333956_1280.jpg"
    },
    {
        "id": "3516318",
        "src640": "https://cdn.pixabay.com/photo/2018/07/04/15/36/coneflower-3516318_640.jpg",
        "src1280": "https://cdn.pixabay.com/photo/2018/07/04/15/36/coneflower-3516318_1280.jpg"
    },
    {
        "id": "5349561",
        "src640": "https://cdn.pixabay.com/photo/2020/06/28/14/45/butterfly-5349561_640.jpg",
        "src1280": "https://cdn.pixabay.com/photo/2020/06/28/14/45/butterfly-5349561_1280.jpg"
    },
    {
        "id": "7067857",
        "src640": "https://cdn.pixabay.com/photo/2022/03/14/10/23/sea-7067857_640.jpg",
        "src1280": "https://cdn.pixabay.com/photo/2022/03/14/10/23/sea-7067857_1280.jpg"
    },
    {
        "id": "2351909",
        "src640": "https://cdn.pixabay.com/photo/2017/05/28/19/00/flower-2351909_640.jpg",
        "src1280": "https://cdn.pixabay.com/photo/2017/05/28/19/00/flower-2351909_1280.jpg"
    },
    {
        "id": "7130346",
        "src640": "https://cdn.pixabay.com/photo/2022/04/13/13/37/eggs-7130346_640.jpg",
        "src1280": "https://cdn.pixabay.com/photo/2022/04/13/13/37/eggs-7130346_1280.jpg"
    },
    {
        "id": "4345571",
        "src640": "https://cdn.pixabay.com/photo/2019/07/18/05/49/picture-frame-4345571_640.jpg",
        "src1280": "https://cdn.pixabay.com/photo/2019/07/18/05/49/picture-frame-4345571_1280.jpg"
    },
    {
        "id": "2810074",
        "src640": "https://cdn.pixabay.com/photo/2017/10/02/20/28/rose-2810074_640.jpg",
        "src1280": "https://cdn.pixabay.com/photo/2017/10/02/20/28/rose-2810074_1280.jpg"
    },
    {
        "id": "8277136",
        "src640": "https://cdn.pixabay.com/photo/2023/09/26/10/56/apartment-8277136_640.jpg",
        "src1280": "https://cdn.pixabay.com/photo/2023/09/26/10/56/apartment-8277136_1280.jpg"
    },
    {
        "id": "2585580",
        "src640": "https://cdn.pixabay.com/photo/2017/08/05/21/03/colorful-2585580_640.jpg",
        "src1280": "https://cdn.pixabay.com/photo/2017/08/05/21/03/colorful-2585580_1280.jpg"
    },
    {
        "id": "7270812",
        "src640": "https://cdn.pixabay.com/photo/2022/06/18/22/47/cat-7270812_640.jpg",
        "src1280": "https://cdn.pixabay.com/photo/2022/06/18/22/47/cat-7270812_1280.jpg"
    },
    {
        "id": "4953038",
        "src640": "https://cdn.pixabay.com/photo/2020/03/21/08/57/butterfly-4953038_640.jpg",
        "src1280": "https://cdn.pixabay.com/photo/2020/03/21/08/57/butterfly-4953038_1280.jpg"
    },
    {
        "id": "7244608",
        "src640": "https://cdn.pixabay.com/photo/2022/06/05/18/19/poppy-7244608_640.jpg",
        "src1280": "https://cdn.pixabay.com/photo/2022/06/05/18/19/poppy-7244608_1280.jpg"
    },
    {
        "id": "3417785",
        "src640": "https://cdn.pixabay.com/photo/2018/05/21/09/53/tennis-3417785_640.jpg",
        "src1280": "https://cdn.pixabay.com/photo/2018/05/21/09/53/tennis-3417785_1280.jpg"
    },
    {
        "id": "3428995",
        "src640": "https://cdn.pixabay.com/photo/2018/05/25/12/05/flower-3428995_640.jpg",
        "src1280": "https://cdn.pixabay.com/photo/2018/05/25/12/05/flower-3428995_1280.jpg"
    },
    {
        "id": "1576388",
        "src640": "https://cdn.pixabay.com/photo/2016/08/07/14/50/pink-1576388_640.jpg",
        "src1280": "https://cdn.pixabay.com/photo/2016/08/07/14/50/pink-1576388_1280.jpg"
    },
    {
        "id": "6860427",
        "src640": "https://cdn.pixabay.com/photo/2021/12/10/12/30/bride-6860427_640.jpg",
        "src1280": "https://cdn.pixabay.com/photo/2021/12/10/12/30/bride-6860427_1280.jpg"
    },
    {
        "id": "3481726",
        "src640": "https://cdn.pixabay.com/photo/2018/06/18/00/54/iris-3481726_640.jpg",
        "src1280": "https://cdn.pixabay.com/photo/2018/06/18/00/54/iris-3481726_1280.jpg"
    },
    {
        "id": "8019444",
        "src640": "https://cdn.pixabay.com/photo/2023/05/26/13/11/flower-8019444_640.jpg",
        "src1280": "https://cdn.pixabay.com/photo/2023/05/26/13/11/flower-8019444_1280.jpg"
    },
    {
        "id": "1454645",
        "src640": "https://cdn.pixabay.com/photo/2016/06/13/16/53/white-shirt-1454645_640.jpg",
        "src1280": "https://cdn.pixabay.com/photo/2016/06/13/16/53/white-shirt-1454645_1280.jpg"
    },
    {
        "id": "645328",
        "src640": "https://cdn.pixabay.com/photo/2015/02/22/18/24/spring-645328_640.jpg",
        "src1280": "https://cdn.pixabay.com/photo/2015/02/22/18/24/spring-645328_1280.jpg"
    },
    {
        "id": "863482",
        "src640": "https://cdn.pixabay.com/photo/2015/07/27/20/29/bouquet-863482_640.jpg",
        "src1280": "https://cdn.pixabay.com/photo/2015/07/27/20/29/bouquet-863482_1280.jpg"
    },
    {
        "id": "47395",
        "src640": "https://cdn.pixabay.com/photo/2012/05/04/13/47/tulip-cultivation-47395_640.jpg",
        "src1280": "https://cdn.pixabay.com/photo/2012/05/04/13/47/tulip-cultivation-47395_1280.jpg"
    },
    {
        "id": "7862995",
        "src640": "https://cdn.pixabay.com/photo/2023/03/19/17/09/flower-7862995_640.jpg",
        "src1280": "https://cdn.pixabay.com/photo/2023/03/19/17/09/flower-7862995_1280.jpg"
    },
    {
        "id": "75454",
        "src640": "https://cdn.pixabay.com/photo/2013/01/19/15/11/colorful-75454_640.jpg",
        "src1280": "https://cdn.pixabay.com/photo/2013/01/19/15/11/colorful-75454_1280.jpg"
    },
    {
        "id": "8098350",
        "src640": "https://cdn.pixabay.com/photo/2023/06/30/13/28/fantasy-8098350_640.jpg",
        "src1280": "https://cdn.pixabay.com/photo/2023/06/30/13/28/fantasy-8098350_1280.jpg"
    },
    {
        "id": "7857239",
        "src640": "https://cdn.pixabay.com/photo/2023/03/16/17/52/daisy-7857239_640.jpg",
        "src1280": "https://cdn.pixabay.com/photo/2023/03/16/17/52/daisy-7857239_1280.jpg"
    },
    {
        "id": "574466",
        "src640": "https://cdn.pixabay.com/photo/2014/12/20/21/43/flowers-574466_640.jpg",
        "src1280": "https://cdn.pixabay.com/photo/2014/12/20/21/43/flowers-574466_1280.jpg"
    },
    {
        "id": "4346127",
        "src640": "https://cdn.pixabay.com/photo/2019/07/18/10/54/woman-4346127_640.jpg",
        "src1280": "https://cdn.pixabay.com/photo/2019/07/18/10/54/woman-4346127_1280.jpg"
    },
    {
        "id": "681851",
        "src640": "https://cdn.pixabay.com/photo/2015/03/20/06/48/bird-681851_640.jpg",
        "src1280": "https://cdn.pixabay.com/photo/2015/03/20/06/48/bird-681851_1280.jpg"
    },
    {
        "id": "3375293",
        "src640": "https://cdn.pixabay.com/photo/2018/05/04/23/14/flower-3375293_640.jpg",
        "src1280": "https://cdn.pixabay.com/photo/2018/05/04/23/14/flower-3375293_1280.jpg"
    },
    {
        "id": "7059881",
        "src640": "https://cdn.pixabay.com/photo/2022/03/10/13/39/wood-anemone-7059881_640.jpg",
        "src1280": "https://cdn.pixabay.com/photo/2022/03/10/13/39/wood-anemone-7059881_1280.jpg"
    },
    {
        "id": "738823",
        "src640": "https://cdn.pixabay.com/photo/2015/04/25/09/26/background-738823_640.jpg",
        "src1280": "https://cdn.pixabay.com/photo/2015/04/25/09/26/background-738823_1280.jpg"
    },
    {
        "id": "4500408",
        "src640": "https://cdn.pixabay.com/photo/2019/09/24/06/36/flowers-4500408_640.jpg",
        "src1280": "https://cdn.pixabay.com/photo/2019/09/24/06/36/flowers-4500408_1280.jpg"
    },
    {
        "id": "1731779",
        "src640": "https://cdn.pixabay.com/photo/2016/10/11/14/46/flowers-1731779_640.jpg",
        "src1280": "https://cdn.pixabay.com/photo/2016/10/11/14/46/flowers-1731779_1280.jpg"
    },
    {
        "id": "7433589",
        "src640": "https://cdn.pixabay.com/photo/2022/09/05/08/07/cosmos-7433589_640.jpg",
        "src1280": "https://cdn.pixabay.com/photo/2022/09/05/08/07/cosmos-7433589_1280.jpg"
    },
    {
        "id": "3285449",
        "src640": "https://cdn.pixabay.com/photo/2018/04/02/22/48/flower-3285449_640.jpg",
        "src1280": "https://cdn.pixabay.com/photo/2018/04/02/22/48/flower-3285449_1280.jpg"
    },
    {
        "id": "4971761",
        "src640": "https://cdn.pixabay.com/photo/2020/03/26/20/46/snowflake-4971761_640.jpg",
        "src1280": "https://cdn.pixabay.com/photo/2020/03/26/20/46/snowflake-4971761_1280.jpg"
    },
    {
        "id": "1232069",
        "src640": "https://cdn.pixabay.com/photo/2016/03/02/10/40/allrounder-1232069_640.jpg",
        "src1280": "https://cdn.pixabay.com/photo/2016/03/02/10/40/allrounder-1232069_1280.jpg"
    },
    {
        "id": "7948008",
        "src640": "https://cdn.pixabay.com/photo/2023/04/24/12/44/naked-7948008_640.jpg",
        "src1280": "https://cdn.pixabay.com/photo/2023/04/24/12/44/naked-7948008_1280.jpg"
    },
    {
        "id": "7390513",
        "src640": "https://cdn.pixabay.com/photo/2022/08/16/15/02/fennel-7390513_640.jpg",
        "src1280": "https://cdn.pixabay.com/photo/2022/08/16/15/02/fennel-7390513_1280.jpg"
    },
    {
        "id": "480021",
        "src640": "https://cdn.pixabay.com/photo/2014/10/08/12/21/rose-480021_640.jpg",
        "src1280": "https://cdn.pixabay.com/photo/2014/10/08/12/21/rose-480021_1280.jpg"
    },
    {
        "id": "7243923",
        "src640": "https://cdn.pixabay.com/photo/2022/06/05/12/30/flower-7243923_640.jpg",
        "src1280": "https://cdn.pixabay.com/photo/2022/06/05/12/30/flower-7243923_1280.jpg"
    },
    {
        "id": "4129238",
        "src640": "https://cdn.pixabay.com/photo/2019/04/15/12/26/tulip-4129238_640.jpg",
        "src1280": "https://cdn.pixabay.com/photo/2019/04/15/12/26/tulip-4129238_1280.jpg"
    },
    {
        "id": "69744",
        "src640": "https://cdn.pixabay.com/photo/2012/12/13/11/48/tropical-69744_640.jpg",
        "src1280": "https://cdn.pixabay.com/photo/2012/12/13/11/48/tropical-69744_1280.jpg"
    },
    {
        "id": "4509962",
        "src640": "https://cdn.pixabay.com/photo/2019/09/28/05/59/eating-4509962_640.jpg",
        "src1280": "https://cdn.pixabay.com/photo/2019/09/28/05/59/eating-4509962_1280.jpg"
    },
    {
        "id": "2256975",
        "src640": "https://cdn.pixabay.com/photo/2017/04/24/16/30/thrush-2256975_640.jpg",
        "src1280": "https://cdn.pixabay.com/photo/2017/04/24/16/30/thrush-2256975_1280.jpg"
    },
    {
        "id": "3870958",
        "src640": "https://cdn.pixabay.com/photo/2018/12/12/14/50/christmas-3870958_640.jpg",
        "src1280": "https://cdn.pixabay.com/photo/2018/12/12/14/50/christmas-3870958_1280.jpg"
    },
    {
        "id": "7850581",
        "src640": "https://cdn.pixabay.com/photo/2023/03/13/19/13/branch-7850581_640.jpg",
        "src1280": "https://cdn.pixabay.com/photo/2023/03/13/19/13/branch-7850581_1280.jpg"
    },
    {
        "id": "2263814",
        "src640": "https://cdn.pixabay.com/photo/2017/04/26/21/19/butterfly-2263814_640.jpg",
        "src1280": "https://cdn.pixabay.com/photo/2017/04/26/21/19/butterfly-2263814_1280.jpg"
    },
    {
        "id": "5169063",
        "src640": "https://cdn.pixabay.com/photo/2020/05/13/21/41/flower-5169063_640.jpg",
        "src1280": "https://cdn.pixabay.com/photo/2020/05/13/21/41/flower-5169063_1280.jpg"
    },
    {
        "id": "220897",
        "src640": "https://cdn.pixabay.com/photo/2013/11/29/04/14/dahlias-220897_640.jpg",
        "src1280": "https://cdn.pixabay.com/photo/2013/11/29/04/14/dahlias-220897_1280.jpg"
    },
    {
        "id": "4971055",
        "src640": "https://cdn.pixabay.com/photo/2020/03/26/17/09/flower-4971055_640.jpg",
        "src1280": "https://cdn.pixabay.com/photo/2020/03/26/17/09/flower-4971055_1280.jpg"
    },
    {
        "id": "2311589",
        "src640": "https://cdn.pixabay.com/photo/2017/05/14/09/22/flower-2311589_640.jpg",
        "src1280": "https://cdn.pixabay.com/photo/2017/05/14/09/22/flower-2311589_1280.jpg"
    },
    {
        "id": "5971180",
        "src640": "https://cdn.pixabay.com/photo/2021/02/01/16/20/ink-5971180_640.jpg",
        "src1280": "https://cdn.pixabay.com/photo/2021/02/01/16/20/ink-5971180_1280.jpg"
    },
    {
        "id": "6765586",
        "src640": "https://cdn.pixabay.com/photo/2021/11/03/12/13/chrysanthemum-6765586_640.jpg",
        "src1280": "https://cdn.pixabay.com/photo/2021/11/03/12/13/chrysanthemum-6765586_1280.jpg"
    },
    {
        "id": "7848963",
        "src640": "https://cdn.pixabay.com/photo/2023/03/13/05/41/ai-generated-7848963_640.jpg",
        "src1280": "https://cdn.pixabay.com/photo/2023/03/13/05/41/ai-generated-7848963_1280.jpg"
    },
    {
        "id": "7116983",
        "src640": "https://cdn.pixabay.com/photo/2022/04/07/07/12/snowy-7116983_640.jpg",
        "src1280": "https://cdn.pixabay.com/photo/2022/04/07/07/12/snowy-7116983_1280.jpg"
    },
    {
        "id": "7084636",
        "src640": "https://cdn.pixabay.com/photo/2022/03/22/09/29/crocuses-7084636_640.jpg",
        "src1280": "https://cdn.pixabay.com/photo/2022/03/22/09/29/crocuses-7084636_1280.jpg"
    },
    {
        "id": "3582723",
        "src640": "https://cdn.pixabay.com/photo/2018/08/03/20/42/insect-3582723_640.jpg",
        "src1280": "https://cdn.pixabay.com/photo/2018/08/03/20/42/insect-3582723_1280.jpg"
    },
    {
        "id": "995970",
        "src640": "https://cdn.pixabay.com/photo/2015/10/19/13/20/flower-995970_640.jpg",
        "src1280": "https://cdn.pixabay.com/photo/2015/10/19/13/20/flower-995970_1280.jpg"
    },
    {
        "id": "4598145",
        "src640": "https://cdn.pixabay.com/photo/2019/11/03/08/58/the-milky-way-4598145_640.jpg",
        "src1280": "https://cdn.pixabay.com/photo/2019/11/03/08/58/the-milky-way-4598145_1280.jpg"
    },
    {
        "id": "7963294",
        "src640": "https://cdn.pixabay.com/photo/2023/05/01/15/21/space-7963294_640.jpg",
        "src1280": "https://cdn.pixabay.com/photo/2023/05/01/15/21/space-7963294_1280.jpg"
    },
    {
        "id": "5298525",
        "src640": "https://cdn.pixabay.com/photo/2020/06/14/16/35/flyers-5298525_640.jpg",
        "src1280": "https://cdn.pixabay.com/photo/2020/06/14/16/35/flyers-5298525_1280.jpg"
    },
    {
        "id": "3039418",
        "src640": "https://cdn.pixabay.com/photo/2017/12/26/00/40/flower-3039418_640.jpg",
        "src1280": "https://cdn.pixabay.com/photo/2017/12/26/00/40/flower-3039418_1280.jpg"
    },
    {
        "id": "5276876",
        "src640": "https://cdn.pixabay.com/photo/2020/06/09/04/35/passion-flower-5276876_640.jpg",
        "src1280": "https://cdn.pixabay.com/photo/2020/06/09/04/35/passion-flower-5276876_1280.jpg"
    },
    {
        "id": "108149",
        "src640": "https://cdn.pixabay.com/photo/2013/04/30/14/41/flower-108149_640.jpg",
        "src1280": "https://cdn.pixabay.com/photo/2013/04/30/14/41/flower-108149_1280.jpg"
    },
    {
        "id": "6284725",
        "src640": "https://cdn.pixabay.com/photo/2021/05/26/10/02/sprig-6284725_640.jpg",
        "src1280": "https://cdn.pixabay.com/photo/2021/05/26/10/02/sprig-6284725_1280.jpg"
    },
    {
        "id": "3489077",
        "src640": "https://cdn.pixabay.com/photo/2018/06/21/18/30/machaon-3489077_640.jpg",
        "src1280": "https://cdn.pixabay.com/photo/2018/06/21/18/30/machaon-3489077_1280.jpg"
    },
    {
        "id": "5177809",
        "src640": "https://cdn.pixabay.com/photo/2020/05/16/14/38/flower-5177809_640.jpg",
        "src1280": "https://cdn.pixabay.com/photo/2020/05/16/14/38/flower-5177809_1280.jpg"
    },
    {
        "id": "845204",
        "src640": "https://cdn.pixabay.com/photo/2015/07/14/18/27/abstract-845204_640.jpg",
        "src1280": "https://cdn.pixabay.com/photo/2015/07/14/18/27/abstract-845204_1280.jpg"
    },
    {
        "id": "8433576",
        "src640": "https://cdn.pixabay.com/photo/2023/12/06/11/55/galaxy-8433576_640.jpg",
        "src1280": "https://cdn.pixabay.com/photo/2023/12/06/11/55/galaxy-8433576_1280.jpg"
    },
    {
        "id": "6050743",
        "src640": "https://cdn.pixabay.com/photo/2021/02/26/05/05/skull-6050743_640.jpg",
        "src1280": "https://cdn.pixabay.com/photo/2021/02/26/05/05/skull-6050743_1280.jpg"
    },
    {
        "id": "3101008",
        "src640": "https://cdn.pixabay.com/photo/2018/01/23/09/18/flower-3101008_640.jpg",
        "src1280": "https://cdn.pixabay.com/photo/2018/01/23/09/18/flower-3101008_1280.jpg"
    },
    {
        "id": "7844172",
        "src640": "https://cdn.pixabay.com/photo/2023/03/11/10/42/plants-7844172_640.jpg",
        "src1280": "https://cdn.pixabay.com/photo/2023/03/11/10/42/plants-7844172_1280.jpg"
    },
    {
        "id": "5310350",
        "src640": "https://cdn.pixabay.com/photo/2020/06/17/16/48/iris-5310350_640.jpg",
        "src1280": "https://cdn.pixabay.com/photo/2020/06/17/16/48/iris-5310350_1280.jpg"
    },
    {
        "id": "4842366",
        "src640": "https://cdn.pixabay.com/photo/2020/02/12/11/01/sea-4842366_640.jpg",
        "src1280": "https://cdn.pixabay.com/photo/2020/02/12/11/01/sea-4842366_1280.jpg"
    },
    {
        "id": "7965587",
        "src640": "https://cdn.pixabay.com/photo/2023/05/02/16/28/flower-7965587_640.jpg",
        "src1280": "https://cdn.pixabay.com/photo/2023/05/02/16/28/flower-7965587_1280.jpg"
    },
    {
        "id": "4078060",
        "src640": "https://cdn.pixabay.com/photo/2019/03/24/16/48/flower-4078060_640.jpg",
        "src1280": "https://cdn.pixabay.com/photo/2019/03/24/16/48/flower-4078060_1280.jpg"
    },
    {
        "id": "7187150",
        "src640": "https://cdn.pixabay.com/photo/2022/05/10/13/46/flowers-7187150_640.jpg",
        "src1280": "https://cdn.pixabay.com/photo/2022/05/10/13/46/flowers-7187150_1280.jpg"
    },
    {
        "id": "7078515",
        "src640": "https://cdn.pixabay.com/photo/2022/03/19/13/00/woman-7078515_640.jpg",
        "src1280": "https://cdn.pixabay.com/photo/2022/03/19/13/00/woman-7078515_1280.jpg"
    },
    {
        "id": "1298488",
        "src640": "https://cdn.pixabay.com/photo/2016/04/01/03/54/background-1298488_640.jpg",
        "src1280": "https://cdn.pixabay.com/photo/2016/04/01/03/54/background-1298488_1280.jpg"
    },
    {
        "id": "298138",
        "src640": "https://cdn.pixabay.com/photo/2014/03/25/21/54/tulip-298138_640.jpg",
        "src1280": "https://cdn.pixabay.com/photo/2014/03/25/21/54/tulip-298138_1280.jpg"
    },
    {
        "id": "7242104",
        "src640": "https://cdn.pixabay.com/photo/2022/06/04/14/26/abstract-7242104_640.jpg",
        "src1280": "https://cdn.pixabay.com/photo/2022/06/04/14/26/abstract-7242104_1280.jpg"
    }
]