[
    {
        "id": "3294229",
        "src640": "https://cdn.pixabay.com/photo/2018/04/05/21/03/nature-3294229_640.jpg",
        "src1280": "https://cdn.pixabay.com/photo/2018/04/05/21/03/nature-3294229_1280.jpg"
    },
    {
        "id": "3287740",
        "src640": "https://cdn.pixabay.com/photo/2018/04/03/19/18/nature-3287740_640.jpg",
        "src1280": "https://cdn.pixabay.com/photo/2018/04/03/19/18/nature-3287740_1280.jpg"
    },
    {
        "id": "5405269",
        "src640": "https://cdn.pixabay.com/photo/2020/07/14/18/44/butterfly-5405269_640.jpg",
        "src1280": "https://cdn.pixabay.com/photo/2020/07/14/18/44/butterfly-5405269_1280.jpg"
    },
    {
        "id": "2289026",
        "src640": "https://cdn.pixabay.com/photo/2017/05/06/06/10/flower-2289026_640.jpg",
        "src1280": "https://cdn.pixabay.com/photo/2017/05/06/06/10/flower-2289026_1280.jpg"
    },
    {
        "id": "7397249",
        "src640": "https://cdn.pixabay.com/photo/2022/08/19/16/33/warrior-7397249_640.jpg",
        "src1280": "https://cdn.pixabay.com/photo/2022/08/19/16/33/warrior-7397249_1280.jpg"
    },
    {
        "id": "2689743",
        "src640": "https://cdn.pixabay.com/photo/2017/08/28/14/37/bee-2689743_640.jpg",
        "src1280": "https://cdn.pixabay.com/photo/2017/08/28/14/37/bee-2689743_1280.jpg"
    },
    {
        "id": "817867",
        "src640": "https://cdn.pixabay.com/photo/2015/06/22/18/43/pansy-flowers-817867_640.jpg",
        "src1280": "https://cdn.pixabay.com/photo/2015/06/22/18/43/pansy-flowers-817867_1280.jpg"
    },
    {
        "id": "2565941",
        "src640": "https://cdn.pixabay.com/photo/2017/08/01/14/40/window-2565941_640.jpg",
        "src1280": "https://cdn.pixabay.com/photo/2017/08/01/14/40/window-2565941_1280.jpg"
    },
    {
        "id": "4187999",
        "src640": "https://cdn.pixabay.com/photo/2019/05/08/08/13/macaws-4187999_640.jpg",
        "src1280": "https://cdn.pixabay.com/photo/2019/05/08/08/13/macaws-4187999_1280.jpg"
    },
    {
        "id": "3262007",
        "src640": "https://cdn.pixabay.com/photo/2018/03/26/09/03/flower-3262007_640.jpg",
        "src1280": "https://cdn.pixabay.com/photo/2018/03/26/09/03/flower-3262007_1280.jpg"
    },
    {
        "id": "3790315",
        "src640": "https://cdn.pixabay.com/photo/2018/11/02/14/29/flower-3790315_640.jpg",
        "src1280": "https://cdn.pixabay.com/photo/2018/11/02/14/29/flower-3790315_1280.jpg"
    },
    {
        "id": "3354416",
        "src640": "https://cdn.pixabay.com/photo/2018/04/27/11/31/tulip-3354416_640.jpg",
        "src1280": "https://cdn.pixabay.com/photo/2018/04/27/11/31/tulip-3354416_1280.jpg"
    },
    {
        "id": "2763386",
        "src640": "https://cdn.pixabay.com/photo/2017/09/18/22/01/rose-bush-2763386_640.jpg",
        "src1280": "https://cdn.pixabay.com/photo/2017/09/18/22/01/rose-bush-2763386_1280.jpg"
    },
    {
        "id": "7526016",
        "src640": "https://cdn.pixabay.com/photo/2022/10/16/19/38/drinking-7526016_640.jpg",
        "src1280": "https://cdn.pixabay.com/photo/2022/10/16/19/38/drinking-7526016_1280.jpg"
    },
    {
        "id": "8466268",
        "src640": "https://cdn.pixabay.com/photo/2023/12/23/20/25/ai-generated-8466268_640.jpg",
        "src1280": "https://cdn.pixabay.com/photo/2023/12/23/20/25/ai-generated-8466268_1280.jpg"
    },
    {
        "id": "7347944",
        "src640": "https://cdn.pixabay.com/photo/2022/07/27/13/30/lavender-7347944_640.jpg",
        "src1280": "https://cdn.pixabay.com/photo/2022/07/27/13/30/lavender-7347944_1280.jpg"
    },
    {
        "id": "7836626",
        "src640": "https://cdn.pixabay.com/photo/2023/03/08/01/33/flowers-7836626_640.jpg",
        "src1280": "https://cdn.pixabay.com/photo/2023/03/08/01/33/flowers-7836626_1280.jpg"
    },
    {
        "id": "7848844",
        "src640": "https://cdn.pixabay.com/photo/2023/03/13/05/31/ai-generated-7848844_640.jpg",
        "src1280": "https://cdn.pixabay.com/photo/2023/03/13/05/31/ai-generated-7848844_1280.jpg"
    },
    {
        "id": "7828087",
        "src640": "https://cdn.pixabay.com/photo/2023/03/03/17/12/monstera-7828087_640.jpg",
        "src1280": "https://cdn.pixabay.com/photo/2023/03/03/17/12/monstera-7828087_1280.jpg"
    },
    {
        "id": "1572938",
        "src640": "https://cdn.pixabay.com/photo/2016/08/05/18/41/leaves-1572938_640.jpg",
        "src1280": "https://cdn.pixabay.com/photo/2016/08/05/18/41/leaves-1572938_1280.jpg"
    },
    {
        "id": "3354123",
        "src640": "https://cdn.pixabay.com/photo/2018/04/27/09/12/nature-3354123_640.jpg",
        "src1280": "https://cdn.pixabay.com/photo/2018/04/27/09/12/nature-3354123_1280.jpg"
    },
    {
        "id": "2563833",
        "src640": "https://cdn.pixabay.com/photo/2017/08/01/09/15/winter-2563833_640.jpg",
        "src1280": "https://cdn.pixabay.com/photo/2017/08/01/09/15/winter-2563833_1280.jpg"
    },
    {
        "id": "7187966",
        "src640": "https://cdn.pixabay.com/photo/2022/05/10/19/59/flowers-7187966_640.jpg",
        "src1280": "https://cdn.pixabay.com/photo/2022/05/10/19/59/flowers-7187966_1280.jpg"
    },
    {
        "id": "7096104",
        "src640": "https://cdn.pixabay.com/photo/2022/03/27/21/12/flowers-7096104_640.jpg",
        "src1280": "https://cdn.pixabay.com/photo/2022/03/27/21/12/flowers-7096104_1280.jpg"
    },
    {
        "id": "7292557",
        "src640": "https://cdn.pixabay.com/photo/2022/06/29/20/40/rosebud-7292557_640.jpg",
        "src1280": "https://cdn.pixabay.com/photo/2022/06/29/20/40/rosebud-7292557_1280.jpg"
    },
    {
        "id": "6900260",
        "src640": "https://cdn.pixabay.com/photo/2021/12/28/21/41/angel-6900260_640.jpg",
        "src1280": "https://cdn.pixabay.com/photo/2021/12/28/21/41/angel-6900260_1280.jpg"
    },
    {
        "id": "4928923",
        "src640": "https://cdn.pixabay.com/photo/2020/03/13/19/22/poppy-4928923_640.jpg",
        "src1280": "https://cdn.pixabay.com/photo/2020/03/13/19/22/poppy-4928923_1280.jpg"
    },
    {
        "id": "7390061",
        "src640": "https://cdn.pixabay.com/photo/2022/08/16/11/49/raindrop-7390061_640.jpg",
        "src1280": "https://cdn.pixabay.com/photo/2022/08/16/11/49/raindrop-7390061_1280.jpg"
    },
    {
        "id": "715060",
        "src640": "https://cdn.pixabay.com/photo/2015/04/09/20/14/flower-715060_640.jpg",
        "src1280": "https://cdn.pixabay.com/photo/2015/04/09/20/14/flower-715060_1280.jpg"
    },
    {
        "id": "3054828",
        "src640": "https://cdn.pixabay.com/photo/2018/01/01/19/36/flower-3054828_640.jpg",
        "src1280": "https://cdn.pixabay.com/photo/2018/01/01/19/36/flower-3054828_1280.jpg"
    },
    {
        "id": "2603928",
        "src640": "https://cdn.pixabay.com/photo/2017/08/07/13/40/people-2603928_640.jpg",
        "src1280": "https://cdn.pixabay.com/photo/2017/08/07/13/40/people-2603928_1280.jpg"
    },
    {
        "id": "2684654",
        "src640": "https://cdn.pixabay.com/photo/2017/08/26/23/06/waterfall-2684654_640.jpg",
        "src1280": "https://cdn.pixabay.com/photo/2017/08/26/23/06/waterfall-2684654_1280.jpg"
    },
    {
        "id": "467353",
        "src640": "https://cdn.pixabay.com/photo/2014/09/30/16/39/glitter-467353_640.jpg",
        "src1280": "https://cdn.pixabay.com/photo/2014/09/30/16/39/glitter-467353_1280.jpg"
    },
    {
        "id": "5474890",
        "src640": "https://cdn.pixabay.com/photo/2020/08/09/08/18/flowers-5474890_640.jpg",
        "src1280": "https://cdn.pixabay.com/photo/2020/08/09/08/18/flowers-5474890_1280.jpg"
    },
    {
        "id": "7080738",
        "src640": "https://cdn.pixabay.com/photo/2022/03/20/12/50/flowers-7080738_640.jpg",
        "src1280": "https://cdn.pixabay.com/photo/2022/03/20/12/50/flowers-7080738_1280.jpg"
    },
    {
        "id": "3811668",
        "src640": "https://cdn.pixabay.com/photo/2018/11/12/20/16/leaf-3811668_640.jpg",
        "src1280": "https://cdn.pixabay.com/photo/2018/11/12/20/16/leaf-3811668_1280.jpg"
    },
    {
        "id": "7848777",
        "src640": "https://cdn.pixabay.com/photo/2023/03/13/05/26/ai-generated-7848777_640.jpg",
        "src1280": "https://cdn.pixabay.com/photo/2023/03/13/05/26/ai-generated-7848777_1280.jpg"
    },
    {
        "id": "3502885",
        "src640": "https://cdn.pixabay.com/photo/2018/06/27/23/53/yarn-weight-or-3502885_640.jpg",
        "src1280": "https://cdn.pixabay.com/photo/2018/06/27/23/53/yarn-weight-or-3502885_1280.jpg"
    },
    {
        "id": "1394295",
        "src640": "https://cdn.pixabay.com/photo/2016/05/15/19/42/tree-nymph-butterfly-1394295_640.jpg",
        "src1280": "https://cdn.pixabay.com/photo/2016/05/15/19/42/tree-nymph-butterfly-1394295_1280.jpg"
    },
    {
        "id": "7071789",
        "src640": "https://cdn.pixabay.com/photo/2022/03/16/07/22/leaves-7071789_640.jpg",
        "src1280": "https://cdn.pixabay.com/photo/2022/03/16/07/22/leaves-7071789_1280.jpg"
    },
    {
        "id": "5588209",
        "src640": "https://cdn.pixabay.com/photo/2020/09/20/20/10/flowers-5588209_640.jpg",
        "src1280": "https://cdn.pixabay.com/photo/2020/09/20/20/10/flowers-5588209_1280.jpg"
    },
    {
        "id": "7161670",
        "src640": "https://cdn.pixabay.com/photo/2022/04/28/03/15/book-7161670_640.jpg",
        "src1280": "https://cdn.pixabay.com/photo/2022/04/28/03/15/book-7161670_1280.jpg"
    },
    {
        "id": "813104",
        "src640": "https://cdn.pixabay.com/photo/2015/06/17/21/48/iris-813104_640.jpg",
        "src1280": "https://cdn.pixabay.com/photo/2015/06/17/21/48/iris-813104_1280.jpg"
    },
    {
        "id": "480021",
        "src640": "https://cdn.pixabay.com/photo/2014/10/08/12/21/rose-480021_640.jpg",
        "src1280": "https://cdn.pixabay.com/photo/2014/10/08/12/21/rose-480021_1280.jpg"
    },
    {
        "id": "3344656",
        "src640": "https://cdn.pixabay.com/photo/2018/04/23/15/46/plant-3344656_640.jpg",
        "src1280": "https://cdn.pixabay.com/photo/2018/04/23/15/46/plant-3344656_1280.jpg"
    },
    {
        "id": "70884",
        "src640": "https://cdn.pixabay.com/photo/2012/12/19/14/16/bamboo-70884_640.jpg",
        "src1280": "https://cdn.pixabay.com/photo/2012/12/19/14/16/bamboo-70884_1280.jpg"
    },
    {
        "id": "2554258",
        "src640": "https://cdn.pixabay.com/photo/2017/07/30/12/44/hands-2554258_640.jpg",
        "src1280": "https://cdn.pixabay.com/photo/2017/07/30/12/44/hands-2554258_1280.jpg"
    },
    {
        "id": "4329325",
        "src640": "https://cdn.pixabay.com/photo/2019/07/10/19/16/summer-4329325_640.jpg",
        "src1280": "https://cdn.pixabay.com/photo/2019/07/10/19/16/summer-4329325_1280.jpg"
    },
    {
        "id": "5915723",
        "src640": "https://cdn.pixabay.com/photo/2021/01/14/04/01/flower-5915723_640.jpg",
        "src1280": "https://cdn.pixabay.com/photo/2021/01/14/04/01/flower-5915723_1280.jpg"
    },
    {
        "id": "2689041",
        "src640": "https://cdn.pixabay.com/photo/2017/08/28/10/17/flower-2689041_640.jpg",
        "src1280": "https://cdn.pixabay.com/photo/2017/08/28/10/17/flower-2689041_1280.jpg"
    },
    {
        "id": "5264943",
        "src640": "https://cdn.pixabay.com/photo/2020/06/06/01/42/tulips-5264943_640.jpg",
        "src1280": "https://cdn.pixabay.com/photo/2020/06/06/01/42/tulips-5264943_1280.jpg"
    },
    {
        "id": "7571077",
        "src640": "https://cdn.pixabay.com/photo/2022/11/05/04/01/woman-7571077_640.jpg",
        "src1280": "https://cdn.pixabay.com/photo/2022/11/05/04/01/woman-7571077_1280.jpg"
    },
    {
        "id": "4281807",
        "src640": "https://cdn.pixabay.com/photo/2019/06/18/09/20/golden-lotus-4281807_640.jpg",
        "src1280": "https://cdn.pixabay.com/photo/2019/06/18/09/20/golden-lotus-4281807_1280.jpg"
    },
    {
        "id": "3344671",
        "src640": "https://cdn.pixabay.com/photo/2018/04/23/15/51/nature-3344671_640.jpg",
        "src1280": "https://cdn.pixabay.com/photo/2018/04/23/15/51/nature-3344671_1280.jpg"
    },
    {
        "id": "4212188",
        "src640": "https://cdn.pixabay.com/photo/2019/05/18/18/10/columbine-4212188_640.jpg",
        "src1280": "https://cdn.pixabay.com/photo/2019/05/18/18/10/columbine-4212188_1280.jpg"
    },
    {
        "id": "1504105",
        "src640": "https://cdn.pixabay.com/photo/2016/07/08/11/35/sexy-1504105_640.jpg",
        "src1280": "https://cdn.pixabay.com/photo/2016/07/08/11/35/sexy-1504105_1280.jpg"
    },
    {
        "id": "925120",
        "src640": "https://cdn.pixabay.com/photo/2015/09/05/20/29/smartphone-925120_640.jpg",
        "src1280": "https://cdn.pixabay.com/photo/2015/09/05/20/29/smartphone-925120_1280.jpg"
    },
    {
        "id": "2944538",
        "src640": "https://cdn.pixabay.com/photo/2017/11/13/03/08/flowers-2944538_640.jpg",
        "src1280": "https://cdn.pixabay.com/photo/2017/11/13/03/08/flowers-2944538_1280.jpg"
    },
    {
        "id": "6765586",
        "src640": "https://cdn.pixabay.com/photo/2021/11/03/12/13/chrysanthemum-6765586_640.jpg",
        "src1280": "https://cdn.pixabay.com/photo/2021/11/03/12/13/chrysanthemum-6765586_1280.jpg"
    },
    {
        "id": "3587424",
        "src640": "https://cdn.pixabay.com/photo/2018/08/06/12/23/nature-3587424_640.jpg",
        "src1280": "https://cdn.pixabay.com/photo/2018/08/06/12/23/nature-3587424_1280.jpg"
    },
    {
        "id": "253402",
        "src640": "https://cdn.pixabay.com/photo/2014/01/27/19/43/flowers-253402_640.jpg",
        "src1280": "https://cdn.pixabay.com/photo/2014/01/27/19/43/flowers-253402_1280.jpg"
    },
    {
        "id": "69373",
        "src640": "https://cdn.pixabay.com/photo/2012/12/11/21/27/down-69373_640.jpg",
        "src1280": "https://cdn.pixabay.com/photo/2012/12/11/21/27/down-69373_1280.jpg"
    },
    {
        "id": "1028429",
        "src640": "https://cdn.pixabay.com/photo/2015/11/06/14/30/flowers-1028429_640.jpg",
        "src1280": "https://cdn.pixabay.com/photo/2015/11/06/14/30/flowers-1028429_1280.jpg"
    },
    {
        "id": "4955267",
        "src640": "https://cdn.pixabay.com/photo/2020/03/21/21/47/flower-4955267_640.jpg",
        "src1280": "https://cdn.pixabay.com/photo/2020/03/21/21/47/flower-4955267_1280.jpg"
    },
    {
        "id": "49028",
        "src640": "https://cdn.pixabay.com/photo/2012/05/09/15/11/bloom-49028_640.jpg",
        "src1280": "https://cdn.pixabay.com/photo/2012/05/09/15/11/bloom-49028_1280.jpg"
    },
    {
        "id": "2469115",
        "src640": "https://cdn.pixabay.com/photo/2017/07/03/21/47/lods-2469115_640.jpg",
        "src1280": "https://cdn.pixabay.com/photo/2017/07/03/21/47/lods-2469115_1280.jpg"
    },
    {
        "id": "1277025",
        "src640": "https://cdn.pixabay.com/photo/2016/03/24/16/03/liverwort-1277025_640.jpg",
        "src1280": "https://cdn.pixabay.com/photo/2016/03/24/16/03/liverwort-1277025_1280.jpg"
    },
    {
        "id": "6880942",
        "src640": "https://cdn.pixabay.com/photo/2021/12/19/12/02/flowers-6880942_640.jpg",
        "src1280": "https://cdn.pixabay.com/photo/2021/12/19/12/02/flowers-6880942_1280.jpg"
    },
    {
        "id": "7757165",
        "src640": "https://cdn.pixabay.com/photo/2023/01/31/05/29/flower-7757165_640.jpg",
        "src1280": "https://cdn.pixabay.com/photo/2023/01/31/05/29/flower-7757165_1280.jpg"
    },
    {
        "id": "6965705",
        "src640": "https://cdn.pixabay.com/photo/2022/01/25/09/15/buttercup-6965705_640.jpg",
        "src1280": "https://cdn.pixabay.com/photo/2022/01/25/09/15/buttercup-6965705_1280.jpg"
    },
    {
        "id": "8021261",
        "src640": "https://cdn.pixabay.com/photo/2023/05/27/10/42/poppy-8021261_640.jpg",
        "src1280": "https://cdn.pixabay.com/photo/2023/05/27/10/42/poppy-8021261_1280.jpg"
    },
    {
        "id": "313665",
        "src640": "https://cdn.pixabay.com/photo/2014/04/04/14/58/zebra-313665_640.jpg",
        "src1280": "https://cdn.pixabay.com/photo/2014/04/04/14/58/zebra-313665_1280.jpg"
    },
    {
        "id": "5220123",
        "src640": "https://cdn.pixabay.com/photo/2020/05/25/19/18/poppy-5220123_640.jpg",
        "src1280": "https://cdn.pixabay.com/photo/2020/05/25/19/18/poppy-5220123_1280.jpg"
    },
    {
        "id": "853649",
        "src640": "https://cdn.pixabay.com/photo/2015/07/21/07/10/yellow-853649_640.jpg",
        "src1280": "https://cdn.pixabay.com/photo/2015/07/21/07/10/yellow-853649_1280.jpg"
    },
    {
        "id": "1889462",
        "src640": "https://cdn.pixabay.com/photo/2016/12/07/13/27/seamless-1889462_640.jpg",
        "src1280": "https://cdn.pixabay.com/photo/2016/12/07/13/27/seamless-1889462_1280.jpg"
    },
    {
        "id": "3711071",
        "src640": "https://cdn.pixabay.com/photo/2018/09/29/09/40/macro-3711071_640.jpg",
        "src1280": "https://cdn.pixabay.com/photo/2018/09/29/09/40/macro-3711071_1280.jpg"
    },
    {
        "id": "7450476",
        "src640": "https://cdn.pixabay.com/photo/2022/09/12/20/52/model-7450476_640.jpg",
        "src1280": "https://cdn.pixabay.com/photo/2022/09/12/20/52/model-7450476_1280.jpg"
    },
    {
        "id": "3812048",
        "src640": "https://cdn.pixabay.com/photo/2018/11/12/23/38/flowers-3812048_640.jpg",
        "src1280": "https://cdn.pixabay.com/photo/2018/11/12/23/38/flowers-3812048_1280.jpg"
    },
    {
        "id": "7385453",
        "src640": "https://cdn.pixabay.com/photo/2022/08/14/09/53/flowers-7385453_640.jpg",
        "src1280": "https://cdn.pixabay.com/photo/2022/08/14/09/53/flowers-7385453_1280.jpg"
    },
    {
        "id": "643102",
        "src640": "https://cdn.pixabay.com/photo/2015/02/20/11/43/flower-643102_640.jpg",
        "src1280": "https://cdn.pixabay.com/photo/2015/02/20/11/43/flower-643102_1280.jpg"
    },
    {
        "id": "3110181",
        "src640": "https://cdn.pixabay.com/photo/2018/01/27/00/42/flower-3110181_640.jpg",
        "src1280": "https://cdn.pixabay.com/photo/2018/01/27/00/42/flower-3110181_1280.jpg"
    },
    {
        "id": "6087973",
        "src640": "https://cdn.pixabay.com/photo/2021/03/11/19/35/tulip-6087973_640.jpg",
        "src1280": "https://cdn.pixabay.com/photo/2021/03/11/19/35/tulip-6087973_1280.jpg"
    },
    {
        "id": "567771",
        "src640": "https://cdn.pixabay.com/photo/2014/12/14/10/36/model-567771_640.jpg",
        "src1280": "https://cdn.pixabay.com/photo/2014/12/14/10/36/model-567771_1280.jpg"
    },
    {
        "id": "415996",
        "src640": "https://cdn.pixabay.com/photo/2014/08/11/20/51/lavender-415996_640.jpg",
        "src1280": "https://cdn.pixabay.com/photo/2014/08/11/20/51/lavender-415996_1280.jpg"
    },
    {
        "id": "2367199",
        "src640": "https://cdn.pixabay.com/photo/2017/06/02/20/15/scarlet-rose-2367199_640.jpg",
        "src1280": "https://cdn.pixabay.com/photo/2017/06/02/20/15/scarlet-rose-2367199_1280.jpg"
    },
    {
        "id": "5079192",
        "src640": "https://cdn.pixabay.com/photo/2020/04/22/17/14/flowers-5079192_640.jpg",
        "src1280": "https://cdn.pixabay.com/photo/2020/04/22/17/14/flowers-5079192_1280.jpg"
    },
    {
        "id": "1935188",
        "src640": "https://cdn.pixabay.com/photo/2016/12/28/01/10/poinsettias-1935188_640.jpg",
        "src1280": "https://cdn.pixabay.com/photo/2016/12/28/01/10/poinsettias-1935188_1280.jpg"
    },
    {
        "id": "5130864",
        "src640": "https://cdn.pixabay.com/photo/2020/05/04/21/30/flower-5130864_640.jpg",
        "src1280": "https://cdn.pixabay.com/photo/2020/05/04/21/30/flower-5130864_1280.jpg"
    },
    {
        "id": "995970",
        "src640": "https://cdn.pixabay.com/photo/2015/10/19/13/20/flower-995970_640.jpg",
        "src1280": "https://cdn.pixabay.com/photo/2015/10/19/13/20/flower-995970_1280.jpg"
    },
    {
        "id": "49659",
        "src640": "https://cdn.pixabay.com/photo/2012/06/08/17/29/pansy-49659_640.jpg",
        "src1280": "https://cdn.pixabay.com/photo/2012/06/08/17/29/pansy-49659_1280.jpg"
    },
    {
        "id": "3418942",
        "src640": "https://cdn.pixabay.com/photo/2018/05/21/18/13/flower-3418942_640.jpg",
        "src1280": "https://cdn.pixabay.com/photo/2018/05/21/18/13/flower-3418942_1280.jpg"
    },
    {
        "id": "5323926",
        "src640": "https://cdn.pixabay.com/photo/2020/06/21/08/51/nature-5323926_640.jpg",
        "src1280": "https://cdn.pixabay.com/photo/2020/06/21/08/51/nature-5323926_1280.jpg"
    },
    {
        "id": "5138269",
        "src640": "https://cdn.pixabay.com/photo/2020/05/06/16/44/flower-5138269_640.jpg",
        "src1280": "https://cdn.pixabay.com/photo/2020/05/06/16/44/flower-5138269_1280.jpg"
    },
    {
        "id": "1360624",
        "src640": "https://cdn.pixabay.com/photo/2016/04/29/10/41/spanish-bluebells-1360624_640.jpg",
        "src1280": "https://cdn.pixabay.com/photo/2016/04/29/10/41/spanish-bluebells-1360624_1280.jpg"
    },
    {
        "id": "6663300",
        "src640": "https://cdn.pixabay.com/photo/2021/09/28/05/43/honey-bee-6663300_640.jpg",
        "src1280": "https://cdn.pixabay.com/photo/2021/09/28/05/43/honey-bee-6663300_1280.jpg"
    }
]