[
    {
        "id": "1581485",
        "src640": "https://cdn.pixabay.com/photo/2016/08/09/19/30/flower-1581485_640.jpg",
        "src1280": "https://cdn.pixabay.com/photo/2016/08/09/19/30/flower-1581485_1280.jpg"
    },
    {
        "id": "453390",
        "src640": "https://cdn.pixabay.com/photo/2014/09/20/05/16/oak-453390_640.jpg",
        "src1280": "https://cdn.pixabay.com/photo/2014/09/20/05/16/oak-453390_1280.jpg"
    },
    {
        "id": "6068643",
        "src640": "https://cdn.pixabay.com/photo/2021/03/04/16/25/woman-6068643_640.jpg",
        "src1280": "https://cdn.pixabay.com/photo/2021/03/04/16/25/woman-6068643_1280.jpg"
    },
    {
        "id": "20749",
        "src640": "https://cdn.pixabay.com/photo/2012/03/02/00/34/red-20749_640.jpg",
        "src1280": "https://cdn.pixabay.com/photo/2012/03/02/00/34/red-20749_1280.jpg"
    },
    {
        "id": "2561142",
        "src640": "https://cdn.pixabay.com/photo/2017/07/31/21/17/white-2561142_640.jpg",
        "src1280": "https://cdn.pixabay.com/photo/2017/07/31/21/17/white-2561142_1280.jpg"
    },
    {
        "id": "5086369",
        "src640": "https://cdn.pixabay.com/photo/2020/04/24/10/48/tulip-5086369_640.jpg",
        "src1280": "https://cdn.pixabay.com/photo/2020/04/24/10/48/tulip-5086369_1280.jpg"
    },
    {
        "id": "2412328",
        "src640": "https://cdn.pixabay.com/photo/2017/06/17/13/53/pansy-2412328_640.jpg",
        "src1280": "https://cdn.pixabay.com/photo/2017/06/17/13/53/pansy-2412328_1280.jpg"
    },
    {
        "id": "7434121",
        "src640": "https://cdn.pixabay.com/photo/2022/09/05/12/38/geometric-pattern-7434121_640.jpg",
        "src1280": "https://cdn.pixabay.com/photo/2022/09/05/12/38/geometric-pattern-7434121_1280.jpg"
    },
    {
        "id": "2114613",
        "src640": "https://cdn.pixabay.com/photo/2017/03/03/18/06/heart-2114613_640.jpg",
        "src1280": "https://cdn.pixabay.com/photo/2017/03/03/18/06/heart-2114613_1280.jpg"
    },
    {
        "id": "2654257",
        "src640": "https://cdn.pixabay.com/photo/2017/08/18/08/45/water-2654257_640.jpg",
        "src1280": "https://cdn.pixabay.com/photo/2017/08/18/08/45/water-2654257_1280.jpg"
    },
    {
        "id": "7915247",
        "src640": "https://cdn.pixabay.com/photo/2023/04/11/01/14/ai-generated-7915247_640.jpg",
        "src1280": "https://cdn.pixabay.com/photo/2023/04/11/01/14/ai-generated-7915247_1280.jpg"
    },
    {
        "id": "3191475",
        "src640": "https://cdn.pixabay.com/photo/2018/03/01/19/16/flower-3191475_640.jpg",
        "src1280": "https://cdn.pixabay.com/photo/2018/03/01/19/16/flower-3191475_1280.jpg"
    },
    {
        "id": "4375580",
        "src640": "https://cdn.pixabay.com/photo/2019/07/31/16/39/wildflower-4375580_640.jpg",
        "src1280": "https://cdn.pixabay.com/photo/2019/07/31/16/39/wildflower-4375580_1280.jpg"
    },
    {
        "id": "6793758",
        "src640": "https://cdn.pixabay.com/photo/2021/11/14/08/04/background-6793758_640.jpg",
        "src1280": "https://cdn.pixabay.com/photo/2021/11/14/08/04/background-6793758_1280.jpg"
    },
    {
        "id": "846149",
        "src640": "https://cdn.pixabay.com/photo/2015/07/15/12/34/pigface-846149_640.jpg",
        "src1280": "https://cdn.pixabay.com/photo/2015/07/15/12/34/pigface-846149_1280.jpg"
    },
    {
        "id": "6880326",
        "src640": "https://cdn.pixabay.com/photo/2021/12/19/08/29/flower-6880326_640.jpg",
        "src1280": "https://cdn.pixabay.com/photo/2021/12/19/08/29/flower-6880326_1280.jpg"
    },
    {
        "id": "4273843",
        "src640": "https://cdn.pixabay.com/photo/2019/06/14/15/22/roses-4273843_640.jpg",
        "src1280": "https://cdn.pixabay.com/photo/2019/06/14/15/22/roses-4273843_1280.jpg"
    },
    {
        "id": "7335620",
        "src640": "https://cdn.pixabay.com/photo/2022/07/21/08/01/flower-7335620_640.jpg",
        "src1280": "https://cdn.pixabay.com/photo/2022/07/21/08/01/flower-7335620_1280.jpg"
    },
    {
        "id": "2469420",
        "src640": "https://cdn.pixabay.com/photo/2017/07/03/23/45/pink-2469420_640.jpg",
        "src1280": "https://cdn.pixabay.com/photo/2017/07/03/23/45/pink-2469420_1280.jpg"
    },
    {
        "id": "5050989",
        "src640": "https://cdn.pixabay.com/photo/2020/04/16/14/45/flowers-5050989_640.jpg",
        "src1280": "https://cdn.pixabay.com/photo/2020/04/16/14/45/flowers-5050989_1280.jpg"
    },
    {
        "id": "4591832",
        "src640": "https://cdn.pixabay.com/photo/2019/10/31/12/38/rainy-4591832_640.jpg",
        "src1280": "https://cdn.pixabay.com/photo/2019/10/31/12/38/rainy-4591832_1280.jpg"
    },
    {
        "id": "8466265",
        "src640": "https://cdn.pixabay.com/photo/2023/12/23/20/25/ai-generated-8466265_640.jpg",
        "src1280": "https://cdn.pixabay.com/photo/2023/12/23/20/25/ai-generated-8466265_1280.jpg"
    },
    {
        "id": "7112059",
        "src640": "https://cdn.pixabay.com/photo/2022/04/04/18/25/sunset-7112059_640.jpg",
        "src1280": "https://cdn.pixabay.com/photo/2022/04/04/18/25/sunset-7112059_1280.jpg"
    },
    {
        "id": "5220600",
        "src640": "https://cdn.pixabay.com/photo/2020/05/25/21/52/lupin-5220600_640.jpg",
        "src1280": "https://cdn.pixabay.com/photo/2020/05/25/21/52/lupin-5220600_1280.jpg"
    },
    {
        "id": "5504994",
        "src640": "https://cdn.pixabay.com/photo/2020/08/21/02/23/flower-5504994_640.jpg",
        "src1280": "https://cdn.pixabay.com/photo/2020/08/21/02/23/flower-5504994_1280.jpg"
    },
    {
        "id": "3424680",
        "src640": "https://cdn.pixabay.com/photo/2018/05/23/18/11/dandelion-3424680_640.jpg",
        "src1280": "https://cdn.pixabay.com/photo/2018/05/23/18/11/dandelion-3424680_1280.jpg"
    },
    {
        "id": "3642149",
        "src640": "https://cdn.pixabay.com/photo/2018/08/30/13/11/cosmos-3642149_640.jpg",
        "src1280": "https://cdn.pixabay.com/photo/2018/08/30/13/11/cosmos-3642149_1280.jpg"
    },
    {
        "id": "8261622",
        "src640": "https://cdn.pixabay.com/photo/2023/09/19/00/15/orchid-8261622_640.jpg",
        "src1280": "https://cdn.pixabay.com/photo/2023/09/19/00/15/orchid-8261622_1280.jpg"
    },
    {
        "id": "3241730",
        "src640": "https://cdn.pixabay.com/photo/2018/03/20/00/00/flower-3241730_640.jpg",
        "src1280": "https://cdn.pixabay.com/photo/2018/03/20/00/00/flower-3241730_1280.jpg"
    },
    {
        "id": "3720670",
        "src640": "https://cdn.pixabay.com/photo/2018/10/03/08/04/nature-3720670_640.jpg",
        "src1280": "https://cdn.pixabay.com/photo/2018/10/03/08/04/nature-3720670_1280.jpg"
    },
    {
        "id": "4895195",
        "src640": "https://cdn.pixabay.com/photo/2020/03/02/09/42/flower-4895195_640.jpg",
        "src1280": "https://cdn.pixabay.com/photo/2020/03/02/09/42/flower-4895195_1280.jpg"
    },
    {
        "id": "3035932",
        "src640": "https://cdn.pixabay.com/photo/2017/12/23/20/27/the-mirror-3035932_640.jpg",
        "src1280": "https://cdn.pixabay.com/photo/2017/12/23/20/27/the-mirror-3035932_1280.jpg"
    },
    {
        "id": "8070531",
        "src640": "https://cdn.pixabay.com/photo/2023/06/17/18/03/glass-8070531_640.jpg",
        "src1280": "https://cdn.pixabay.com/photo/2023/06/17/18/03/glass-8070531_1280.jpg"
    },
    {
        "id": "2692165",
        "src640": "https://cdn.pixabay.com/photo/2017/08/29/05/11/green-2692165_640.jpg",
        "src1280": "https://cdn.pixabay.com/photo/2017/08/29/05/11/green-2692165_1280.jpg"
    },
    {
        "id": "5454806",
        "src640": "https://cdn.pixabay.com/photo/2020/08/01/07/09/flower-5454806_640.jpg",
        "src1280": "https://cdn.pixabay.com/photo/2020/08/01/07/09/flower-5454806_1280.jpg"
    },
    {
        "id": "8269152",
        "src640": "https://cdn.pixabay.com/photo/2023/09/22/14/08/ai-generated-8269152_640.jpg",
        "src1280": "https://cdn.pixabay.com/photo/2023/09/22/14/08/ai-generated-8269152_1280.jpg"
    },
    {
        "id": "3322817",
        "src640": "https://cdn.pixabay.com/photo/2018/04/15/20/39/flower-3322817_640.jpg",
        "src1280": "https://cdn.pixabay.com/photo/2018/04/15/20/39/flower-3322817_1280.jpg"
    },
    {
        "id": "3316760",
        "src640": "https://cdn.pixabay.com/photo/2018/04/13/15/21/nature-3316760_640.jpg",
        "src1280": "https://cdn.pixabay.com/photo/2018/04/13/15/21/nature-3316760_1280.jpg"
    },
    {
        "id": "1729397",
        "src640": "https://cdn.pixabay.com/photo/2016/10/10/17/43/flower-1729397_640.jpg",
        "src1280": "https://cdn.pixabay.com/photo/2016/10/10/17/43/flower-1729397_1280.jpg"
    },
    {
        "id": "5054036",
        "src640": "https://cdn.pixabay.com/photo/2020/04/17/09/36/butterfly-5054036_640.jpg",
        "src1280": "https://cdn.pixabay.com/photo/2020/04/17/09/36/butterfly-5054036_1280.jpg"
    },
    {
        "id": "8091490",
        "src640": "https://cdn.pixabay.com/photo/2023/06/27/06/11/woman-8091490_640.jpg",
        "src1280": "https://cdn.pixabay.com/photo/2023/06/27/06/11/woman-8091490_1280.jpg"
    },
    {
        "id": "7111358",
        "src640": "https://cdn.pixabay.com/photo/2022/04/04/13/53/plum-blossoms-7111358_640.jpg",
        "src1280": "https://cdn.pixabay.com/photo/2022/04/04/13/53/plum-blossoms-7111358_1280.jpg"
    },
    {
        "id": "5505964",
        "src640": "https://cdn.pixabay.com/photo/2020/08/21/12/12/butterfly-5505964_640.jpg",
        "src1280": "https://cdn.pixabay.com/photo/2020/08/21/12/12/butterfly-5505964_1280.jpg"
    },
    {
        "id": "4263688",
        "src640": "https://cdn.pixabay.com/photo/2019/06/10/07/58/lupine-4263688_640.jpg",
        "src1280": "https://cdn.pixabay.com/photo/2019/06/10/07/58/lupine-4263688_1280.jpg"
    },
    {
        "id": "8363120",
        "src640": "https://cdn.pixabay.com/photo/2023/11/03/14/29/mountains-8363120_640.jpg",
        "src1280": "https://cdn.pixabay.com/photo/2023/11/03/14/29/mountains-8363120_1280.jpg"
    },
    {
        "id": "7420883",
        "src640": "https://cdn.pixabay.com/photo/2022/08/30/11/11/vanessa-cardui-7420883_640.jpg",
        "src1280": "https://cdn.pixabay.com/photo/2022/08/30/11/11/vanessa-cardui-7420883_1280.jpg"
    },
    {
        "id": "3251654",
        "src640": "https://cdn.pixabay.com/photo/2018/03/22/19/45/tree-3251654_640.jpg",
        "src1280": "https://cdn.pixabay.com/photo/2018/03/22/19/45/tree-3251654_1280.jpg"
    },
    {
        "id": "938072",
        "src640": "https://cdn.pixabay.com/photo/2015/09/13/12/07/flowers-938072_640.jpg",
        "src1280": "https://cdn.pixabay.com/photo/2015/09/13/12/07/flowers-938072_1280.jpg"
    },
    {
        "id": "2120962",
        "src640": "https://cdn.pixabay.com/photo/2017/03/06/09/51/flowery-branch-2120962_640.jpg",
        "src1280": "https://cdn.pixabay.com/photo/2017/03/06/09/51/flowery-branch-2120962_1280.jpg"
    },
    {
        "id": "4644150",
        "src640": "https://cdn.pixabay.com/photo/2019/11/22/05/55/macro-4644150_640.jpg",
        "src1280": "https://cdn.pixabay.com/photo/2019/11/22/05/55/macro-4644150_1280.jpg"
    },
    {
        "id": "3575582",
        "src640": "https://cdn.pixabay.com/photo/2018/07/31/18/09/flower-3575582_640.jpg",
        "src1280": "https://cdn.pixabay.com/photo/2018/07/31/18/09/flower-3575582_1280.jpg"
    },
    {
        "id": "6399369",
        "src640": "https://cdn.pixabay.com/photo/2021/07/09/15/29/girl-6399369_640.jpg",
        "src1280": "https://cdn.pixabay.com/photo/2021/07/09/15/29/girl-6399369_1280.jpg"
    },
    {
        "id": "6480689",
        "src640": "https://cdn.pixabay.com/photo/2021/07/20/13/07/portrait-6480689_640.jpg",
        "src1280": "https://cdn.pixabay.com/photo/2021/07/20/13/07/portrait-6480689_1280.jpg"
    },
    {
        "id": "2795575",
        "src640": "https://cdn.pixabay.com/photo/2017/09/28/13/43/flowers-2795575_640.jpg",
        "src1280": "https://cdn.pixabay.com/photo/2017/09/28/13/43/flowers-2795575_1280.jpg"
    },
    {
        "id": "1397864",
        "src640": "https://cdn.pixabay.com/photo/2016/05/17/10/28/fire-bowl-1397864_640.jpg",
        "src1280": "https://cdn.pixabay.com/photo/2016/05/17/10/28/fire-bowl-1397864_1280.jpg"
    },
    {
        "id": "3541926",
        "src640": "https://cdn.pixabay.com/photo/2018/07/16/13/25/bee-3541926_640.jpg",
        "src1280": "https://cdn.pixabay.com/photo/2018/07/16/13/25/bee-3541926_1280.jpg"
    },
    {
        "id": "281742",
        "src640": "https://cdn.pixabay.com/photo/2014/03/07/08/27/orchid-281742_640.jpg",
        "src1280": "https://cdn.pixabay.com/photo/2014/03/07/08/27/orchid-281742_1280.jpg"
    },
    {
        "id": "401891",
        "src640": "https://cdn.pixabay.com/photo/2014/07/25/21/18/lily-401891_640.jpg",
        "src1280": "https://cdn.pixabay.com/photo/2014/07/25/21/18/lily-401891_1280.jpg"
    },
    {
        "id": "5308925",
        "src640": "https://cdn.pixabay.com/photo/2020/06/17/10/04/flower-5308925_640.jpg",
        "src1280": "https://cdn.pixabay.com/photo/2020/06/17/10/04/flower-5308925_1280.jpg"
    },
    {
        "id": "7061221",
        "src640": "https://cdn.pixabay.com/photo/2022/03/11/05/47/flower-7061221_640.jpg",
        "src1280": "https://cdn.pixabay.com/photo/2022/03/11/05/47/flower-7061221_1280.jpg"
    },
    {
        "id": "5483568",
        "src640": "https://cdn.pixabay.com/photo/2020/08/12/20/02/autumn-5483568_640.jpg",
        "src1280": "https://cdn.pixabay.com/photo/2020/08/12/20/02/autumn-5483568_1280.jpg"
    },
    {
        "id": "7744486",
        "src640": "https://cdn.pixabay.com/photo/2023/01/25/19/56/woman-7744486_640.jpg",
        "src1280": "https://cdn.pixabay.com/photo/2023/01/25/19/56/woman-7744486_1280.jpg"
    },
    {
        "id": "3842772",
        "src640": "https://cdn.pixabay.com/photo/2018/11/28/01/19/flowers-3842772_640.jpg",
        "src1280": "https://cdn.pixabay.com/photo/2018/11/28/01/19/flowers-3842772_1280.jpg"
    },
    {
        "id": "3317407",
        "src640": "https://cdn.pixabay.com/photo/2018/04/13/20/07/flower-3317407_640.jpg",
        "src1280": "https://cdn.pixabay.com/photo/2018/04/13/20/07/flower-3317407_1280.jpg"
    },
    {
        "id": "770950",
        "src640": "https://cdn.pixabay.com/photo/2015/05/17/13/01/rose-770950_640.jpg",
        "src1280": "https://cdn.pixabay.com/photo/2015/05/17/13/01/rose-770950_1280.jpg"
    },
    {
        "id": "3817380",
        "src640": "https://cdn.pixabay.com/photo/2018/11/15/14/50/plant-3817380_640.jpg",
        "src1280": "https://cdn.pixabay.com/photo/2018/11/15/14/50/plant-3817380_1280.jpg"
    },
    {
        "id": "5505949",
        "src640": "https://cdn.pixabay.com/photo/2020/08/21/12/11/butterfly-5505949_640.jpg",
        "src1280": "https://cdn.pixabay.com/photo/2020/08/21/12/11/butterfly-5505949_1280.jpg"
    },
    {
        "id": "1389583",
        "src640": "https://cdn.pixabay.com/photo/2016/05/13/09/59/iris-1389583_640.jpg",
        "src1280": "https://cdn.pixabay.com/photo/2016/05/13/09/59/iris-1389583_1280.jpg"
    },
    {
        "id": "7013281",
        "src640": "https://cdn.pixabay.com/photo/2022/02/14/15/01/woman-7013281_640.jpg",
        "src1280": "https://cdn.pixabay.com/photo/2022/02/14/15/01/woman-7013281_1280.jpg"
    },
    {
        "id": "3526667",
        "src640": "https://cdn.pixabay.com/photo/2018/07/09/17/41/flora-3526667_640.jpg",
        "src1280": "https://cdn.pixabay.com/photo/2018/07/09/17/41/flora-3526667_1280.jpg"
    },
    {
        "id": "8240050",
        "src640": "https://cdn.pixabay.com/photo/2023/09/07/23/16/red-flower-8240050_640.jpg",
        "src1280": "https://cdn.pixabay.com/photo/2023/09/07/23/16/red-flower-8240050_1280.jpg"
    },
    {
        "id": "8050109",
        "src640": "https://cdn.pixabay.com/photo/2023/06/08/18/12/woman-8050109_640.jpg",
        "src1280": "https://cdn.pixabay.com/photo/2023/06/08/18/12/woman-8050109_1280.jpg"
    },
    {
        "id": "3782",
        "src640": "https://cdn.pixabay.com/photo/2010/12/17/17/53/snowflake-3782_640.jpg",
        "src1280": "https://cdn.pixabay.com/photo/2010/12/17/17/53/snowflake-3782_1280.jpg"
    },
    {
        "id": "5056153",
        "src640": "https://cdn.pixabay.com/photo/2020/04/17/17/18/leaf-5056153_640.jpg",
        "src1280": "https://cdn.pixabay.com/photo/2020/04/17/17/18/leaf-5056153_1280.jpg"
    },
    {
        "id": "5148352",
        "src640": "https://cdn.pixabay.com/photo/2020/05/09/05/42/female-5148352_640.jpg",
        "src1280": "https://cdn.pixabay.com/photo/2020/05/09/05/42/female-5148352_1280.jpg"
    },
    {
        "id": "7179138",
        "src640": "https://cdn.pixabay.com/photo/2022/05/06/21/34/flowers-7179138_640.jpg",
        "src1280": "https://cdn.pixabay.com/photo/2022/05/06/21/34/flowers-7179138_1280.jpg"
    },
    {
        "id": "4717524",
        "src640": "https://cdn.pixabay.com/photo/2019/12/24/21/59/high-4717524_640.jpg",
        "src1280": "https://cdn.pixabay.com/photo/2019/12/24/21/59/high-4717524_1280.jpg"
    },
    {
        "id": "655507",
        "src640": "https://cdn.pixabay.com/photo/2015/03/02/00/38/water-655507_640.jpg",
        "src1280": "https://cdn.pixabay.com/photo/2015/03/02/00/38/water-655507_1280.jpg"
    },
    {
        "id": "3550628",
        "src640": "https://cdn.pixabay.com/photo/2018/07/20/13/18/flower-3550628_640.jpg",
        "src1280": "https://cdn.pixabay.com/photo/2018/07/20/13/18/flower-3550628_1280.jpg"
    },
    {
        "id": "5423866",
        "src640": "https://cdn.pixabay.com/photo/2020/07/20/18/05/flowers-5423866_640.jpg",
        "src1280": "https://cdn.pixabay.com/photo/2020/07/20/18/05/flowers-5423866_1280.jpg"
    },
    {
        "id": "428567",
        "src640": "https://cdn.pixabay.com/photo/2014/08/26/21/38/material-428567_640.jpg",
        "src1280": "https://cdn.pixabay.com/photo/2014/08/26/21/38/material-428567_1280.jpg"
    },
    {
        "id": "7439001",
        "src640": "https://cdn.pixabay.com/photo/2022/09/07/15/34/girl-7439001_640.jpg",
        "src1280": "https://cdn.pixabay.com/photo/2022/09/07/15/34/girl-7439001_1280.jpg"
    },
    {
        "id": "379620",
        "src640": "https://cdn.pixabay.com/photo/2014/06/29/18/08/orange-379620_640.jpg",
        "src1280": "https://cdn.pixabay.com/photo/2014/06/29/18/08/orange-379620_1280.jpg"
    },
    {
        "id": "8021813",
        "src640": "https://cdn.pixabay.com/photo/2023/05/27/16/25/woman-8021813_640.jpg",
        "src1280": "https://cdn.pixabay.com/photo/2023/05/27/16/25/woman-8021813_1280.jpg"
    },
    {
        "id": "6534911",
        "src640": "https://cdn.pixabay.com/photo/2021/08/10/03/56/woman-6534911_640.jpg",
        "src1280": "https://cdn.pixabay.com/photo/2021/08/10/03/56/woman-6534911_1280.jpg"
    },
    {
        "id": "5223716",
        "src640": "https://cdn.pixabay.com/photo/2020/05/26/16/22/nature-5223716_640.jpg",
        "src1280": "https://cdn.pixabay.com/photo/2020/05/26/16/22/nature-5223716_1280.jpg"
    },
    {
        "id": "5236438",
        "src640": "https://cdn.pixabay.com/photo/2020/05/29/19/50/flower-5236438_640.jpg",
        "src1280": "https://cdn.pixabay.com/photo/2020/05/29/19/50/flower-5236438_1280.jpg"
    },
    {
        "id": "3815934",
        "src640": "https://cdn.pixabay.com/photo/2018/11/14/19/34/autumn-3815934_640.jpg",
        "src1280": "https://cdn.pixabay.com/photo/2018/11/14/19/34/autumn-3815934_1280.jpg"
    },
    {
        "id": "7317978",
        "src640": "https://cdn.pixabay.com/photo/2022/07/12/18/26/daisy-7317978_640.jpg",
        "src1280": "https://cdn.pixabay.com/photo/2022/07/12/18/26/daisy-7317978_1280.jpg"
    }
]