[
    {
        "id": "4953637",
        "src640": "https://cdn.pixabay.com/photo/2020/03/21/12/00/background-4953637_640.jpg",
        "src1280": "https://cdn.pixabay.com/photo/2020/03/21/12/00/background-4953637_1280.jpg"
    },
    {
        "id": "4581756",
        "src640": "https://cdn.pixabay.com/photo/2019/10/27/13/22/autumn-4581756_640.jpg",
        "src1280": "https://cdn.pixabay.com/photo/2019/10/27/13/22/autumn-4581756_1280.jpg"
    },
    {
        "id": "106457",
        "src640": "https://cdn.pixabay.com/photo/2013/04/22/14/11/stones-106457_640.jpg",
        "src1280": "https://cdn.pixabay.com/photo/2013/04/22/14/11/stones-106457_1280.jpg"
    },
    {
        "id": "4667209",
        "src640": "https://cdn.pixabay.com/photo/2019/12/02/09/01/flowers-4667209_640.jpg",
        "src1280": "https://cdn.pixabay.com/photo/2019/12/02/09/01/flowers-4667209_1280.jpg"
    },
    {
        "id": "7213913",
        "src640": "https://cdn.pixabay.com/photo/2022/05/22/16/47/woman-7213913_640.jpg",
        "src1280": "https://cdn.pixabay.com/photo/2022/05/22/16/47/woman-7213913_1280.jpg"
    },
    {
        "id": "2520310",
        "src640": "https://cdn.pixabay.com/photo/2017/07/19/20/40/park-2520310_640.jpg",
        "src1280": "https://cdn.pixabay.com/photo/2017/07/19/20/40/park-2520310_1280.jpg"
    },
    {
        "id": "3735581",
        "src640": "https://cdn.pixabay.com/photo/2018/10/09/18/13/exotic-3735581_640.jpg",
        "src1280": "https://cdn.pixabay.com/photo/2018/10/09/18/13/exotic-3735581_1280.jpg"
    },
    {
        "id": "8343156",
        "src640": "https://cdn.pixabay.com/photo/2023/10/26/17/07/reptile-8343156_640.jpg",
        "src1280": "https://cdn.pixabay.com/photo/2023/10/26/17/07/reptile-8343156_1280.jpg"
    },
    {
        "id": "3827879",
        "src640": "https://cdn.pixabay.com/photo/2018/11/20/17/45/crocosmia-carmen-brilliant-3827879_640.jpg",
        "src1280": "https://cdn.pixabay.com/photo/2018/11/20/17/45/crocosmia-carmen-brilliant-3827879_1280.jpg"
    },
    {
        "id": "2447158",
        "src640": "https://cdn.pixabay.com/photo/2017/06/27/11/44/flower-2447158_640.jpg",
        "src1280": "https://cdn.pixabay.com/photo/2017/06/27/11/44/flower-2447158_1280.jpg"
    },
    {
        "id": "3070958",
        "src640": "https://cdn.pixabay.com/photo/2018/01/09/06/24/dried-flower-3070958_640.jpg",
        "src1280": "https://cdn.pixabay.com/photo/2018/01/09/06/24/dried-flower-3070958_1280.jpg"
    },
    {
        "id": "7111446",
        "src640": "https://cdn.pixabay.com/photo/2022/04/04/14/27/woman-7111446_640.jpg",
        "src1280": "https://cdn.pixabay.com/photo/2022/04/04/14/27/woman-7111446_1280.jpg"
    },
    {
        "id": "7310458",
        "src640": "https://cdn.pixabay.com/photo/2022/07/09/08/51/lilac-7310458_640.jpg",
        "src1280": "https://cdn.pixabay.com/photo/2022/07/09/08/51/lilac-7310458_1280.jpg"
    },
    {
        "id": "7753864",
        "src640": "https://cdn.pixabay.com/photo/2023/01/29/18/35/monstera-7753864_640.jpg",
        "src1280": "https://cdn.pixabay.com/photo/2023/01/29/18/35/monstera-7753864_1280.jpg"
    },
    {
        "id": "4685036",
        "src640": "https://cdn.pixabay.com/photo/2019/12/10/05/53/natural-4685036_640.jpg",
        "src1280": "https://cdn.pixabay.com/photo/2019/12/10/05/53/natural-4685036_1280.jpg"
    },
    {
        "id": "175000",
        "src640": "https://cdn.pixabay.com/photo/2013/08/23/13/02/glory-crown-175000_640.jpg",
        "src1280": "https://cdn.pixabay.com/photo/2013/08/23/13/02/glory-crown-175000_1280.jpg"
    },
    {
        "id": "3709876",
        "src640": "https://cdn.pixabay.com/photo/2018/09/28/18/19/rosehips-3709876_640.jpg",
        "src1280": "https://cdn.pixabay.com/photo/2018/09/28/18/19/rosehips-3709876_1280.jpg"
    },
    {
        "id": "4540900",
        "src640": "https://cdn.pixabay.com/photo/2019/10/11/02/22/butterfly-4540900_640.jpg",
        "src1280": "https://cdn.pixabay.com/photo/2019/10/11/02/22/butterfly-4540900_1280.jpg"
    },
    {
        "id": "1157407",
        "src640": "https://cdn.pixabay.com/photo/2016/01/23/13/28/flower-1157407_640.jpg",
        "src1280": "https://cdn.pixabay.com/photo/2016/01/23/13/28/flower-1157407_1280.jpg"
    },
    {
        "id": "1062777",
        "src640": "https://cdn.pixabay.com/photo/2015/11/25/19/09/stained-glass-window-1062777_640.jpg",
        "src1280": "https://cdn.pixabay.com/photo/2015/11/25/19/09/stained-glass-window-1062777_1280.jpg"
    },
    {
        "id": "1693468",
        "src640": "https://cdn.pixabay.com/photo/2016/09/25/11/25/flower-1693468_640.jpg",
        "src1280": "https://cdn.pixabay.com/photo/2016/09/25/11/25/flower-1693468_1280.jpg"
    },
    {
        "id": "7487157",
        "src640": "https://cdn.pixabay.com/photo/2022/09/29/11/28/flower-7487157_640.jpg",
        "src1280": "https://cdn.pixabay.com/photo/2022/09/29/11/28/flower-7487157_1280.jpg"
    },
    {
        "id": "3569809",
        "src640": "https://cdn.pixabay.com/photo/2018/07/29/10/26/butterfly-3569809_640.jpg",
        "src1280": "https://cdn.pixabay.com/photo/2018/07/29/10/26/butterfly-3569809_1280.jpg"
    },
    {
        "id": "3847131",
        "src640": "https://cdn.pixabay.com/photo/2018/11/30/07/10/woman-3847131_640.jpg",
        "src1280": "https://cdn.pixabay.com/photo/2018/11/30/07/10/woman-3847131_1280.jpg"
    },
    {
        "id": "7298611",
        "src640": "https://cdn.pixabay.com/photo/2022/07/03/08/06/lotus-7298611_640.jpg",
        "src1280": "https://cdn.pixabay.com/photo/2022/07/03/08/06/lotus-7298611_1280.jpg"
    },
    {
        "id": "722207",
        "src640": "https://cdn.pixabay.com/photo/2015/04/14/14/25/kanna-722207_640.jpg",
        "src1280": "https://cdn.pixabay.com/photo/2015/04/14/14/25/kanna-722207_1280.jpg"
    },
    {
        "id": "1400248",
        "src640": "https://cdn.pixabay.com/photo/2016/05/18/11/03/design-1400248_640.jpg",
        "src1280": "https://cdn.pixabay.com/photo/2016/05/18/11/03/design-1400248_1280.jpg"
    },
    {
        "id": "4336609",
        "src640": "https://cdn.pixabay.com/photo/2019/07/14/09/33/rose-4336609_640.jpg",
        "src1280": "https://cdn.pixabay.com/photo/2019/07/14/09/33/rose-4336609_1280.jpg"
    },
    {
        "id": "324399",
        "src640": "https://cdn.pixabay.com/photo/2014/04/14/23/23/daisy-324399_640.jpg",
        "src1280": "https://cdn.pixabay.com/photo/2014/04/14/23/23/daisy-324399_1280.jpg"
    },
    {
        "id": "4504681",
        "src640": "https://cdn.pixabay.com/photo/2019/09/25/21/11/flowers-4504681_640.jpg",
        "src1280": "https://cdn.pixabay.com/photo/2019/09/25/21/11/flowers-4504681_1280.jpg"
    },
    {
        "id": "7660118",
        "src640": "https://cdn.pixabay.com/photo/2022/12/16/16/28/book-7660118_640.jpg",
        "src1280": "https://cdn.pixabay.com/photo/2022/12/16/16/28/book-7660118_1280.jpg"
    },
    {
        "id": "7312868",
        "src640": "https://cdn.pixabay.com/photo/2022/07/10/13/33/lotus-7312868_640.jpg",
        "src1280": "https://cdn.pixabay.com/photo/2022/07/10/13/33/lotus-7312868_1280.jpg"
    },
    {
        "id": "3213030",
        "src640": "https://cdn.pixabay.com/photo/2018/03/10/00/49/lily-of-the-valley-3213030_640.jpg",
        "src1280": "https://cdn.pixabay.com/photo/2018/03/10/00/49/lily-of-the-valley-3213030_1280.jpg"
    },
    {
        "id": "4058498",
        "src640": "https://cdn.pixabay.com/photo/2019/03/16/05/46/bird-cherry-blossom-4058498_640.jpg",
        "src1280": "https://cdn.pixabay.com/photo/2019/03/16/05/46/bird-cherry-blossom-4058498_1280.jpg"
    },
    {
        "id": "3040193",
        "src640": "https://cdn.pixabay.com/photo/2017/12/26/10/52/yellow-3040193_640.jpg",
        "src1280": "https://cdn.pixabay.com/photo/2017/12/26/10/52/yellow-3040193_1280.jpg"
    },
    {
        "id": "7255917",
        "src640": "https://cdn.pixabay.com/photo/2022/06/11/07/43/poppies-7255917_640.jpg",
        "src1280": "https://cdn.pixabay.com/photo/2022/06/11/07/43/poppies-7255917_1280.jpg"
    },
    {
        "id": "4115102",
        "src640": "https://cdn.pixabay.com/photo/2019/04/09/17/29/heather-4115102_640.jpg",
        "src1280": "https://cdn.pixabay.com/photo/2019/04/09/17/29/heather-4115102_1280.jpg"
    },
    {
        "id": "3331972",
        "src640": "https://cdn.pixabay.com/photo/2018/04/18/23/53/nature-3331972_640.jpg",
        "src1280": "https://cdn.pixabay.com/photo/2018/04/18/23/53/nature-3331972_1280.jpg"
    },
    {
        "id": "5491106",
        "src640": "https://cdn.pixabay.com/photo/2020/08/15/18/06/flowers-5491106_640.jpg",
        "src1280": "https://cdn.pixabay.com/photo/2020/08/15/18/06/flowers-5491106_1280.jpg"
    },
    {
        "id": "7514934",
        "src640": "https://cdn.pixabay.com/photo/2022/10/11/18/30/autumn-7514934_640.jpg",
        "src1280": "https://cdn.pixabay.com/photo/2022/10/11/18/30/autumn-7514934_1280.jpg"
    },
    {
        "id": "189527",
        "src640": "https://cdn.pixabay.com/photo/2013/10/01/22/29/ipe-189527_640.jpg",
        "src1280": "https://cdn.pixabay.com/photo/2013/10/01/22/29/ipe-189527_1280.jpg"
    },
    {
        "id": "2681236",
        "src640": "https://cdn.pixabay.com/photo/2017/08/25/19/59/cherry-2681236_640.jpg",
        "src1280": "https://cdn.pixabay.com/photo/2017/08/25/19/59/cherry-2681236_1280.jpg"
    },
    {
        "id": "3563006",
        "src640": "https://cdn.pixabay.com/photo/2018/07/26/07/59/primrose-3563006_640.jpg",
        "src1280": "https://cdn.pixabay.com/photo/2018/07/26/07/59/primrose-3563006_1280.jpg"
    },
    {
        "id": "384613",
        "src640": "https://cdn.pixabay.com/photo/2014/07/05/08/40/tulip-384613_640.jpg",
        "src1280": "https://cdn.pixabay.com/photo/2014/07/05/08/40/tulip-384613_1280.jpg"
    },
    {
        "id": "1117459",
        "src640": "https://cdn.pixabay.com/photo/2016/01/02/01/23/hibiscus-1117459_640.jpg",
        "src1280": "https://cdn.pixabay.com/photo/2016/01/02/01/23/hibiscus-1117459_1280.jpg"
    },
    {
        "id": "5149465",
        "src640": "https://cdn.pixabay.com/photo/2020/05/09/12/21/rose-5149465_640.jpg",
        "src1280": "https://cdn.pixabay.com/photo/2020/05/09/12/21/rose-5149465_1280.jpg"
    },
    {
        "id": "6361577",
        "src640": "https://cdn.pixabay.com/photo/2021/06/24/15/19/butterfly-6361577_640.jpg",
        "src1280": "https://cdn.pixabay.com/photo/2021/06/24/15/19/butterfly-6361577_1280.jpg"
    },
    {
        "id": "2857908",
        "src640": "https://cdn.pixabay.com/photo/2017/10/16/17/33/home-2857908_640.jpg",
        "src1280": "https://cdn.pixabay.com/photo/2017/10/16/17/33/home-2857908_1280.jpg"
    },
    {
        "id": "3442495",
        "src640": "https://cdn.pixabay.com/photo/2018/05/30/20/44/rose-3442495_640.jpg",
        "src1280": "https://cdn.pixabay.com/photo/2018/05/30/20/44/rose-3442495_1280.jpg"
    },
    {
        "id": "1595594",
        "src640": "https://cdn.pixabay.com/photo/2016/08/15/14/37/lavender-1595594_640.jpg",
        "src1280": "https://cdn.pixabay.com/photo/2016/08/15/14/37/lavender-1595594_1280.jpg"
    },
    {
        "id": "7427216",
        "src640": "https://cdn.pixabay.com/photo/2022/09/02/10/27/lotus-7427216_640.jpg",
        "src1280": "https://cdn.pixabay.com/photo/2022/09/02/10/27/lotus-7427216_1280.jpg"
    },
    {
        "id": "1649413",
        "src640": "https://cdn.pixabay.com/photo/2016/09/06/15/36/flower-1649413_640.jpg",
        "src1280": "https://cdn.pixabay.com/photo/2016/09/06/15/36/flower-1649413_1280.jpg"
    },
    {
        "id": "1842398",
        "src640": "https://cdn.pixabay.com/photo/2016/11/20/10/01/background-1842398_640.jpg",
        "src1280": "https://cdn.pixabay.com/photo/2016/11/20/10/01/background-1842398_1280.jpg"
    },
    {
        "id": "3321876",
        "src640": "https://cdn.pixabay.com/photo/2018/04/15/15/02/nature-3321876_640.jpg",
        "src1280": "https://cdn.pixabay.com/photo/2018/04/15/15/02/nature-3321876_1280.jpg"
    },
    {
        "id": "1225807",
        "src640": "https://cdn.pixabay.com/photo/2016/02/27/16/21/flower-1225807_640.jpg",
        "src1280": "https://cdn.pixabay.com/photo/2016/02/27/16/21/flower-1225807_1280.jpg"
    },
    {
        "id": "2598720",
        "src640": "https://cdn.pixabay.com/photo/2017/08/07/02/11/dark-2598720_640.jpg",
        "src1280": "https://cdn.pixabay.com/photo/2017/08/07/02/11/dark-2598720_1280.jpg"
    },
    {
        "id": "7353821",
        "src640": "https://cdn.pixabay.com/photo/2022/07/30/13/36/woman-7353821_640.jpg",
        "src1280": "https://cdn.pixabay.com/photo/2022/07/30/13/36/woman-7353821_1280.jpg"
    },
    {
        "id": "3526583",
        "src640": "https://cdn.pixabay.com/photo/2018/07/09/17/07/pointed-flower-3526583_640.jpg",
        "src1280": "https://cdn.pixabay.com/photo/2018/07/09/17/07/pointed-flower-3526583_1280.jpg"
    },
    {
        "id": "4283844",
        "src640": "https://cdn.pixabay.com/photo/2019/06/19/04/05/butterfly-4283844_640.jpg",
        "src1280": "https://cdn.pixabay.com/photo/2019/06/19/04/05/butterfly-4283844_1280.jpg"
    },
    {
        "id": "7406874",
        "src640": "https://cdn.pixabay.com/photo/2022/08/24/04/10/dragonfly-7406874_640.jpg",
        "src1280": "https://cdn.pixabay.com/photo/2022/08/24/04/10/dragonfly-7406874_1280.jpg"
    },
    {
        "id": "7490067",
        "src640": "https://cdn.pixabay.com/photo/2022/09/30/18/47/sunrise-7490067_640.jpg",
        "src1280": "https://cdn.pixabay.com/photo/2022/09/30/18/47/sunrise-7490067_1280.jpg"
    },
    {
        "id": "1089271",
        "src640": "https://cdn.pixabay.com/photo/2015/12/12/08/56/lotus-1089271_640.jpg",
        "src1280": "https://cdn.pixabay.com/photo/2015/12/12/08/56/lotus-1089271_1280.jpg"
    },
    {
        "id": "1441554",
        "src640": "https://cdn.pixabay.com/photo/2016/06/07/12/59/columbine-1441554_640.jpg",
        "src1280": "https://cdn.pixabay.com/photo/2016/06/07/12/59/columbine-1441554_1280.jpg"
    },
    {
        "id": "3897117",
        "src640": "https://cdn.pixabay.com/photo/2018/12/27/07/10/iris-3897117_640.jpg",
        "src1280": "https://cdn.pixabay.com/photo/2018/12/27/07/10/iris-3897117_1280.jpg"
    },
    {
        "id": "7080203",
        "src640": "https://cdn.pixabay.com/photo/2022/03/20/08/10/young-woman-7080203_640.jpg",
        "src1280": "https://cdn.pixabay.com/photo/2022/03/20/08/10/young-woman-7080203_1280.jpg"
    },
    {
        "id": "3299171",
        "src640": "https://cdn.pixabay.com/photo/2018/04/07/18/23/flowers-3299171_640.jpg",
        "src1280": "https://cdn.pixabay.com/photo/2018/04/07/18/23/flowers-3299171_1280.jpg"
    },
    {
        "id": "3670440",
        "src640": "https://cdn.pixabay.com/photo/2018/09/11/19/40/zinnia-3670440_640.jpg",
        "src1280": "https://cdn.pixabay.com/photo/2018/09/11/19/40/zinnia-3670440_1280.jpg"
    },
    {
        "id": "3567274",
        "src640": "https://cdn.pixabay.com/photo/2018/07/28/04/15/butterfly-3567274_640.jpg",
        "src1280": "https://cdn.pixabay.com/photo/2018/07/28/04/15/butterfly-3567274_1280.jpg"
    },
    {
        "id": "7997831",
        "src640": "https://cdn.pixabay.com/photo/2023/05/16/14/24/young-man-7997831_640.jpg",
        "src1280": "https://cdn.pixabay.com/photo/2023/05/16/14/24/young-man-7997831_1280.jpg"
    },
    {
        "id": "4563312",
        "src640": "https://cdn.pixabay.com/photo/2019/10/20/11/01/flowers-4563312_640.jpg",
        "src1280": "https://cdn.pixabay.com/photo/2019/10/20/11/01/flowers-4563312_1280.jpg"
    },
    {
        "id": "4272394",
        "src640": "https://cdn.pixabay.com/photo/2019/06/13/20/13/nature-4272394_640.jpg",
        "src1280": "https://cdn.pixabay.com/photo/2019/06/13/20/13/nature-4272394_1280.jpg"
    },
    {
        "id": "5246220",
        "src640": "https://cdn.pixabay.com/photo/2020/06/01/10/49/magnolia-5246220_640.jpg",
        "src1280": "https://cdn.pixabay.com/photo/2020/06/01/10/49/magnolia-5246220_1280.jpg"
    },
    {
        "id": "3710271",
        "src640": "https://cdn.pixabay.com/photo/2018/09/28/21/25/flower-3710271_640.jpg",
        "src1280": "https://cdn.pixabay.com/photo/2018/09/28/21/25/flower-3710271_1280.jpg"
    },
    {
        "id": "3969777",
        "src640": "https://cdn.pixabay.com/photo/2019/02/01/20/37/orchid-3969777_640.jpg",
        "src1280": "https://cdn.pixabay.com/photo/2019/02/01/20/37/orchid-3969777_1280.jpg"
    },
    {
        "id": "2424030",
        "src640": "https://cdn.pixabay.com/photo/2017/06/20/17/47/lily-2424030_640.jpg",
        "src1280": "https://cdn.pixabay.com/photo/2017/06/20/17/47/lily-2424030_1280.jpg"
    },
    {
        "id": "2563659",
        "src640": "https://cdn.pixabay.com/photo/2017/08/01/08/49/waterlily-2563659_640.jpg",
        "src1280": "https://cdn.pixabay.com/photo/2017/08/01/08/49/waterlily-2563659_1280.jpg"
    },
    {
        "id": "7268873",
        "src640": "https://cdn.pixabay.com/photo/2022/06/17/23/53/flower-7268873_640.jpg",
        "src1280": "https://cdn.pixabay.com/photo/2022/06/17/23/53/flower-7268873_1280.jpg"
    },
    {
        "id": "3419419",
        "src640": "https://cdn.pixabay.com/photo/2018/05/21/20/41/poppy-3419419_640.jpg",
        "src1280": "https://cdn.pixabay.com/photo/2018/05/21/20/41/poppy-3419419_1280.jpg"
    },
    {
        "id": "3695961",
        "src640": "https://cdn.pixabay.com/photo/2018/09/22/19/35/bee-3695961_640.jpg",
        "src1280": "https://cdn.pixabay.com/photo/2018/09/22/19/35/bee-3695961_1280.jpg"
    },
    {
        "id": "3627560",
        "src640": "https://cdn.pixabay.com/photo/2018/08/24/09/02/flowers-3627560_640.jpg",
        "src1280": "https://cdn.pixabay.com/photo/2018/08/24/09/02/flowers-3627560_1280.jpg"
    },
    {
        "id": "4307419",
        "src640": "https://cdn.pixabay.com/photo/2019/06/30/06/50/sunset-4307419_640.jpg",
        "src1280": "https://cdn.pixabay.com/photo/2019/06/30/06/50/sunset-4307419_1280.jpg"
    },
    {
        "id": "3163699",
        "src640": "https://cdn.pixabay.com/photo/2018/02/18/22/10/background-3163699_640.jpg",
        "src1280": "https://cdn.pixabay.com/photo/2018/02/18/22/10/background-3163699_1280.jpg"
    },
    {
        "id": "3718584",
        "src640": "https://cdn.pixabay.com/photo/2018/10/02/11/37/dahlia-3718584_640.jpg",
        "src1280": "https://cdn.pixabay.com/photo/2018/10/02/11/37/dahlia-3718584_1280.jpg"
    },
    {
        "id": "7400480",
        "src640": "https://cdn.pixabay.com/photo/2022/08/21/05/57/iris-7400480_640.jpg",
        "src1280": "https://cdn.pixabay.com/photo/2022/08/21/05/57/iris-7400480_1280.jpg"
    },
    {
        "id": "4140633",
        "src640": "https://cdn.pixabay.com/photo/2019/04/19/22/43/flower-4140633_640.jpg",
        "src1280": "https://cdn.pixabay.com/photo/2019/04/19/22/43/flower-4140633_1280.jpg"
    },
    {
        "id": "4207767",
        "src640": "https://cdn.pixabay.com/photo/2019/05/16/18/19/flower-4207767_640.jpg",
        "src1280": "https://cdn.pixabay.com/photo/2019/05/16/18/19/flower-4207767_1280.jpg"
    },
    {
        "id": "4363502",
        "src640": "https://cdn.pixabay.com/photo/2019/07/25/22/09/black-tulip-4363502_640.jpg",
        "src1280": "https://cdn.pixabay.com/photo/2019/07/25/22/09/black-tulip-4363502_1280.jpg"
    },
    {
        "id": "978228",
        "src640": "https://cdn.pixabay.com/photo/2015/10/08/19/16/plant-978228_640.jpg",
        "src1280": "https://cdn.pixabay.com/photo/2015/10/08/19/16/plant-978228_1280.jpg"
    },
    {
        "id": "7145022",
        "src640": "https://cdn.pixabay.com/photo/2022/04/20/11/38/siberian-squill-7145022_640.jpg",
        "src1280": "https://cdn.pixabay.com/photo/2022/04/20/11/38/siberian-squill-7145022_1280.jpg"
    },
    {
        "id": "1157619",
        "src640": "https://cdn.pixabay.com/photo/2016/01/23/15/34/selfie-1157619_640.jpg",
        "src1280": "https://cdn.pixabay.com/photo/2016/01/23/15/34/selfie-1157619_1280.jpg"
    },
    {
        "id": "3114714",
        "src640": "https://cdn.pixabay.com/photo/2018/01/28/21/07/cherry-3114714_640.jpg",
        "src1280": "https://cdn.pixabay.com/photo/2018/01/28/21/07/cherry-3114714_1280.jpg"
    },
    {
        "id": "3765525",
        "src640": "https://cdn.pixabay.com/photo/2018/10/22/14/24/macro-3765525_640.jpg",
        "src1280": "https://cdn.pixabay.com/photo/2018/10/22/14/24/macro-3765525_1280.jpg"
    },
    {
        "id": "7529876",
        "src640": "https://cdn.pixabay.com/photo/2022/10/18/10/53/apache-beggarticks-7529876_640.jpg",
        "src1280": "https://cdn.pixabay.com/photo/2022/10/18/10/53/apache-beggarticks-7529876_1280.jpg"
    },
    {
        "id": "3323018",
        "src640": "https://cdn.pixabay.com/photo/2018/04/15/22/06/dandelion-3323018_640.jpg",
        "src1280": "https://cdn.pixabay.com/photo/2018/04/15/22/06/dandelion-3323018_1280.jpg"
    },
    {
        "id": "3113572",
        "src640": "https://cdn.pixabay.com/photo/2018/01/28/12/55/flower-3113572_640.jpg",
        "src1280": "https://cdn.pixabay.com/photo/2018/01/28/12/55/flower-3113572_1280.jpg"
    }
]