[
    {
        "id": "3739286",
        "src640": "https://cdn.pixabay.com/photo/2018/10/11/09/52/flower-3739286_640.jpg",
        "src1280": "https://cdn.pixabay.com/photo/2018/10/11/09/52/flower-3739286_1280.jpg"
    },
    {
        "id": "4957619",
        "src640": "https://cdn.pixabay.com/photo/2020/03/22/16/01/toilet-paper-4957619_640.jpg",
        "src1280": "https://cdn.pixabay.com/photo/2020/03/22/16/01/toilet-paper-4957619_1280.jpg"
    },
    {
        "id": "4423600",
        "src640": "https://cdn.pixabay.com/photo/2019/08/22/14/07/sunset-4423600_640.jpg",
        "src1280": "https://cdn.pixabay.com/photo/2019/08/22/14/07/sunset-4423600_1280.jpg"
    },
    {
        "id": "3160481",
        "src640": "https://cdn.pixabay.com/photo/2018/02/17/18/00/nature-3160481_640.jpg",
        "src1280": "https://cdn.pixabay.com/photo/2018/02/17/18/00/nature-3160481_1280.jpg"
    },
    {
        "id": "5951749",
        "src640": "https://cdn.pixabay.com/photo/2021/01/26/14/40/daisy-5951749_640.jpg",
        "src1280": "https://cdn.pixabay.com/photo/2021/01/26/14/40/daisy-5951749_1280.jpg"
    },
    {
        "id": "2116076",
        "src640": "https://cdn.pixabay.com/photo/2017/03/04/13/51/rose-2116076_640.jpg",
        "src1280": "https://cdn.pixabay.com/photo/2017/03/04/13/51/rose-2116076_1280.jpg"
    },
    {
        "id": "7343202",
        "src640": "https://cdn.pixabay.com/photo/2022/07/25/08/41/flower-7343202_640.jpg",
        "src1280": "https://cdn.pixabay.com/photo/2022/07/25/08/41/flower-7343202_1280.jpg"
    },
    {
        "id": "2756751",
        "src640": "https://cdn.pixabay.com/photo/2017/09/16/21/02/dahlia-2756751_640.jpg",
        "src1280": "https://cdn.pixabay.com/photo/2017/09/16/21/02/dahlia-2756751_1280.jpg"
    },
    {
        "id": "7250887",
        "src640": "https://cdn.pixabay.com/photo/2022/06/08/16/46/peacock-pansy-7250887_640.jpg",
        "src1280": "https://cdn.pixabay.com/photo/2022/06/08/16/46/peacock-pansy-7250887_1280.jpg"
    },
    {
        "id": "1429604",
        "src640": "https://cdn.pixabay.com/photo/2016/06/01/20/13/fritillary-butterfly-1429604_640.jpg",
        "src1280": "https://cdn.pixabay.com/photo/2016/06/01/20/13/fritillary-butterfly-1429604_1280.jpg"
    },
    {
        "id": "3391799",
        "src640": "https://cdn.pixabay.com/photo/2018/05/11/21/46/blue-butterfly-3391799_640.jpg",
        "src1280": "https://cdn.pixabay.com/photo/2018/05/11/21/46/blue-butterfly-3391799_1280.jpg"
    },
    {
        "id": "7573804",
        "src640": "https://cdn.pixabay.com/photo/2022/11/06/11/49/flowers-7573804_640.jpg",
        "src1280": "https://cdn.pixabay.com/photo/2022/11/06/11/49/flowers-7573804_1280.jpg"
    },
    {
        "id": "362228",
        "src640": "https://cdn.pixabay.com/photo/2014/06/04/17/28/iris-362228_640.jpg",
        "src1280": "https://cdn.pixabay.com/photo/2014/06/04/17/28/iris-362228_1280.jpg"
    },
    {
        "id": "6638250",
        "src640": "https://cdn.pixabay.com/photo/2021/09/19/15/25/hoverfly-6638250_640.jpg",
        "src1280": "https://cdn.pixabay.com/photo/2021/09/19/15/25/hoverfly-6638250_1280.jpg"
    },
    {
        "id": "2504692",
        "src640": "https://cdn.pixabay.com/photo/2017/07/14/19/01/flower-2504692_640.jpg",
        "src1280": "https://cdn.pixabay.com/photo/2017/07/14/19/01/flower-2504692_1280.jpg"
    },
    {
        "id": "7400956",
        "src640": "https://cdn.pixabay.com/photo/2022/08/21/11/01/thimble-7400956_640.jpg",
        "src1280": "https://cdn.pixabay.com/photo/2022/08/21/11/01/thimble-7400956_1280.jpg"
    },
    {
        "id": "2652414",
        "src640": "https://cdn.pixabay.com/photo/2017/08/17/18/28/flowers-2652414_640.jpg",
        "src1280": "https://cdn.pixabay.com/photo/2017/08/17/18/28/flowers-2652414_1280.jpg"
    },
    {
        "id": "6578467",
        "src640": "https://cdn.pixabay.com/photo/2021/08/27/11/21/woman-6578467_640.jpg",
        "src1280": "https://cdn.pixabay.com/photo/2021/08/27/11/21/woman-6578467_1280.jpg"
    },
    {
        "id": "5774742",
        "src640": "https://cdn.pixabay.com/photo/2020/11/25/06/28/lion-flower-5774742_640.jpg",
        "src1280": "https://cdn.pixabay.com/photo/2020/11/25/06/28/lion-flower-5774742_1280.jpg"
    },
    {
        "id": "6574907",
        "src640": "https://cdn.pixabay.com/photo/2021/08/26/03/16/flowers-6574907_640.jpg",
        "src1280": "https://cdn.pixabay.com/photo/2021/08/26/03/16/flowers-6574907_1280.jpg"
    },
    {
        "id": "1280223",
        "src640": "https://cdn.pixabay.com/photo/2016/03/26/09/15/flower-1280223_640.jpg",
        "src1280": "https://cdn.pixabay.com/photo/2016/03/26/09/15/flower-1280223_1280.jpg"
    },
    {
        "id": "6760265",
        "src640": "https://cdn.pixabay.com/photo/2021/11/01/12/44/marguerite-6760265_640.jpg",
        "src1280": "https://cdn.pixabay.com/photo/2021/11/01/12/44/marguerite-6760265_1280.jpg"
    },
    {
        "id": "8194383",
        "src640": "https://cdn.pixabay.com/photo/2023/08/16/15/32/cornflower-8194383_640.jpg",
        "src1280": "https://cdn.pixabay.com/photo/2023/08/16/15/32/cornflower-8194383_1280.jpg"
    },
    {
        "id": "495330",
        "src640": "https://cdn.pixabay.com/photo/2014/10/20/14/39/rose-495330_640.jpg",
        "src1280": "https://cdn.pixabay.com/photo/2014/10/20/14/39/rose-495330_1280.jpg"
    },
    {
        "id": "3513952",
        "src640": "https://cdn.pixabay.com/photo/2018/07/03/14/10/flower-3513952_640.jpg",
        "src1280": "https://cdn.pixabay.com/photo/2018/07/03/14/10/flower-3513952_1280.jpg"
    },
    {
        "id": "8236949",
        "src640": "https://cdn.pixabay.com/photo/2023/09/06/12/29/woman-8236949_640.jpg",
        "src1280": "https://cdn.pixabay.com/photo/2023/09/06/12/29/woman-8236949_1280.jpg"
    },
    {
        "id": "683564",
        "src640": "https://cdn.pixabay.com/photo/2015/03/21/11/53/cherry-blossoms-683564_640.jpg",
        "src1280": "https://cdn.pixabay.com/photo/2015/03/21/11/53/cherry-blossoms-683564_1280.jpg"
    },
    {
        "id": "1089766",
        "src640": "https://cdn.pixabay.com/photo/2015/12/12/17/26/everlasting-flower-1089766_640.jpg",
        "src1280": "https://cdn.pixabay.com/photo/2015/12/12/17/26/everlasting-flower-1089766_1280.jpg"
    },
    {
        "id": "4882226",
        "src640": "https://cdn.pixabay.com/photo/2020/02/26/16/31/butterfly-4882226_640.jpg",
        "src1280": "https://cdn.pixabay.com/photo/2020/02/26/16/31/butterfly-4882226_1280.jpg"
    },
    {
        "id": "5839551",
        "src640": "https://cdn.pixabay.com/photo/2020/12/17/14/07/flowers-5839551_640.jpg",
        "src1280": "https://cdn.pixabay.com/photo/2020/12/17/14/07/flowers-5839551_1280.jpg"
    },
    {
        "id": "6558561",
        "src640": "https://cdn.pixabay.com/photo/2021/08/19/17/20/bouquet-6558561_640.jpg",
        "src1280": "https://cdn.pixabay.com/photo/2021/08/19/17/20/bouquet-6558561_1280.jpg"
    },
    {
        "id": "167292",
        "src640": "https://cdn.pixabay.com/photo/2013/07/26/02/36/clematis-167292_640.jpg",
        "src1280": "https://cdn.pixabay.com/photo/2013/07/26/02/36/clematis-167292_1280.jpg"
    },
    {
        "id": "8942",
        "src640": "https://cdn.pixabay.com/photo/2011/08/18/01/30/tongue-flower-8942_640.jpg",
        "src1280": "https://cdn.pixabay.com/photo/2011/08/18/01/30/tongue-flower-8942_1280.jpg"
    },
    {
        "id": "7080743",
        "src640": "https://cdn.pixabay.com/photo/2022/03/20/12/52/flowers-7080743_640.jpg",
        "src1280": "https://cdn.pixabay.com/photo/2022/03/20/12/52/flowers-7080743_1280.jpg"
    },
    {
        "id": "8032066",
        "src640": "https://cdn.pixabay.com/photo/2023/05/31/18/58/poppy-8032066_640.jpg",
        "src1280": "https://cdn.pixabay.com/photo/2023/05/31/18/58/poppy-8032066_1280.jpg"
    },
    {
        "id": "7625135",
        "src640": "https://cdn.pixabay.com/photo/2022/11/29/19/04/plants-7625135_640.jpg",
        "src1280": "https://cdn.pixabay.com/photo/2022/11/29/19/04/plants-7625135_1280.jpg"
    },
    {
        "id": "1308474",
        "src640": "https://cdn.pixabay.com/photo/2016/04/04/23/37/frog-1308474_640.jpg",
        "src1280": "https://cdn.pixabay.com/photo/2016/04/04/23/37/frog-1308474_1280.jpg"
    },
    {
        "id": "6900260",
        "src640": "https://cdn.pixabay.com/photo/2021/12/28/21/41/angel-6900260_640.jpg",
        "src1280": "https://cdn.pixabay.com/photo/2021/12/28/21/41/angel-6900260_1280.jpg"
    },
    {
        "id": "2848919",
        "src640": "https://cdn.pixabay.com/photo/2017/10/13/20/57/lily-2848919_640.jpg",
        "src1280": "https://cdn.pixabay.com/photo/2017/10/13/20/57/lily-2848919_1280.jpg"
    },
    {
        "id": "4907214",
        "src640": "https://cdn.pixabay.com/photo/2020/03/06/14/34/hands-4907214_640.jpg",
        "src1280": "https://cdn.pixabay.com/photo/2020/03/06/14/34/hands-4907214_1280.jpg"
    },
    {
        "id": "4966928",
        "src640": "https://cdn.pixabay.com/photo/2020/03/25/11/23/objects-4966928_640.jpg",
        "src1280": "https://cdn.pixabay.com/photo/2020/03/25/11/23/objects-4966928_1280.jpg"
    },
    {
        "id": "7172081",
        "src640": "https://cdn.pixabay.com/photo/2022/05/03/16/22/flowers-7172081_640.jpg",
        "src1280": "https://cdn.pixabay.com/photo/2022/05/03/16/22/flowers-7172081_1280.jpg"
    },
    {
        "id": "8359626",
        "src640": "https://cdn.pixabay.com/photo/2023/11/02/04/21/girl-8359626_640.jpg",
        "src1280": "https://cdn.pixabay.com/photo/2023/11/02/04/21/girl-8359626_1280.jpg"
    },
    {
        "id": "689517",
        "src640": "https://cdn.pixabay.com/photo/2015/03/25/21/37/fence-689517_640.jpg",
        "src1280": "https://cdn.pixabay.com/photo/2015/03/25/21/37/fence-689517_1280.jpg"
    },
    {
        "id": "8056157",
        "src640": "https://cdn.pixabay.com/photo/2023/06/11/14/38/brothers-8056157_640.jpg",
        "src1280": "https://cdn.pixabay.com/photo/2023/06/11/14/38/brothers-8056157_1280.jpg"
    },
    {
        "id": "3092937",
        "src640": "https://cdn.pixabay.com/photo/2018/01/19/17/42/poppy-3092937_640.jpg",
        "src1280": "https://cdn.pixabay.com/photo/2018/01/19/17/42/poppy-3092937_1280.jpg"
    },
    {
        "id": "923524",
        "src640": "https://cdn.pixabay.com/photo/2015/09/05/00/30/flowers-923524_640.jpg",
        "src1280": "https://cdn.pixabay.com/photo/2015/09/05/00/30/flowers-923524_1280.jpg"
    },
    {
        "id": "7425258",
        "src640": "https://cdn.pixabay.com/photo/2022/09/01/10/21/background-7425258_640.jpg",
        "src1280": "https://cdn.pixabay.com/photo/2022/09/01/10/21/background-7425258_1280.jpg"
    },
    {
        "id": "7230008",
        "src640": "https://cdn.pixabay.com/photo/2022/05/29/21/41/flowers-7230008_640.jpg",
        "src1280": "https://cdn.pixabay.com/photo/2022/05/29/21/41/flowers-7230008_1280.jpg"
    },
    {
        "id": "6270604",
        "src640": "https://cdn.pixabay.com/photo/2021/05/21/09/12/poppy-6270604_640.jpg",
        "src1280": "https://cdn.pixabay.com/photo/2021/05/21/09/12/poppy-6270604_1280.jpg"
    },
    {
        "id": "8275336",
        "src640": "https://cdn.pixabay.com/photo/2023/09/25/15/07/sunflower-8275336_640.jpg",
        "src1280": "https://cdn.pixabay.com/photo/2023/09/25/15/07/sunflower-8275336_1280.jpg"
    },
    {
        "id": "5812183",
        "src640": "https://cdn.pixabay.com/photo/2020/12/07/16/08/autumn-crocus-5812183_640.jpg",
        "src1280": "https://cdn.pixabay.com/photo/2020/12/07/16/08/autumn-crocus-5812183_1280.jpg"
    },
    {
        "id": "415995",
        "src640": "https://cdn.pixabay.com/photo/2014/08/11/20/51/rose-415995_640.jpg",
        "src1280": "https://cdn.pixabay.com/photo/2014/08/11/20/51/rose-415995_1280.jpg"
    },
    {
        "id": "5131174",
        "src640": "https://cdn.pixabay.com/photo/2020/05/05/00/35/flowers-5131174_640.jpg",
        "src1280": "https://cdn.pixabay.com/photo/2020/05/05/00/35/flowers-5131174_1280.jpg"
    },
    {
        "id": "3195884",
        "src640": "https://cdn.pixabay.com/photo/2018/03/03/15/33/butterfly-3195884_640.jpg",
        "src1280": "https://cdn.pixabay.com/photo/2018/03/03/15/33/butterfly-3195884_1280.jpg"
    },
    {
        "id": "8254758",
        "src640": "https://cdn.pixabay.com/photo/2023/09/15/12/33/wavy-8254758_640.jpg",
        "src1280": "https://cdn.pixabay.com/photo/2023/09/15/12/33/wavy-8254758_1280.jpg"
    },
    {
        "id": "6369978",
        "src640": "https://cdn.pixabay.com/photo/2021/06/27/20/34/virgin-in-the-green-6369978_640.jpg",
        "src1280": "https://cdn.pixabay.com/photo/2021/06/27/20/34/virgin-in-the-green-6369978_1280.jpg"
    },
    {
        "id": "959104",
        "src640": "https://cdn.pixabay.com/photo/2015/09/26/13/50/flower-959104_640.jpg",
        "src1280": "https://cdn.pixabay.com/photo/2015/09/26/13/50/flower-959104_1280.jpg"
    },
    {
        "id": "7453475",
        "src640": "https://cdn.pixabay.com/photo/2022/09/14/05/47/rose-7453475_640.jpg",
        "src1280": "https://cdn.pixabay.com/photo/2022/09/14/05/47/rose-7453475_1280.jpg"
    },
    {
        "id": "971383",
        "src640": "https://cdn.pixabay.com/photo/2015/10/04/16/54/tulips-971383_640.jpg",
        "src1280": "https://cdn.pixabay.com/photo/2015/10/04/16/54/tulips-971383_1280.jpg"
    },
    {
        "id": "362130",
        "src640": "https://cdn.pixabay.com/photo/2014/06/04/16/17/lupine-362130_640.jpg",
        "src1280": "https://cdn.pixabay.com/photo/2014/06/04/16/17/lupine-362130_1280.jpg"
    },
    {
        "id": "7093283",
        "src640": "https://cdn.pixabay.com/photo/2022/03/26/17/47/flower-7093283_640.jpg",
        "src1280": "https://cdn.pixabay.com/photo/2022/03/26/17/47/flower-7093283_1280.jpg"
    },
    {
        "id": "7226632",
        "src640": "https://cdn.pixabay.com/photo/2022/05/28/06/13/baby-7226632_640.jpg",
        "src1280": "https://cdn.pixabay.com/photo/2022/05/28/06/13/baby-7226632_1280.jpg"
    },
    {
        "id": "5263704",
        "src640": "https://cdn.pixabay.com/photo/2020/06/05/16/30/pink-5263704_640.jpg",
        "src1280": "https://cdn.pixabay.com/photo/2020/06/05/16/30/pink-5263704_1280.jpg"
    },
    {
        "id": "49796",
        "src640": "https://cdn.pixabay.com/photo/2012/06/08/19/33/garden-hyacinth-49796_640.jpg",
        "src1280": "https://cdn.pixabay.com/photo/2012/06/08/19/33/garden-hyacinth-49796_1280.jpg"
    },
    {
        "id": "5147357",
        "src640": "https://cdn.pixabay.com/photo/2020/05/08/20/55/dandelion-5147357_640.jpg",
        "src1280": "https://cdn.pixabay.com/photo/2020/05/08/20/55/dandelion-5147357_1280.jpg"
    },
    {
        "id": "2680278",
        "src640": "https://cdn.pixabay.com/photo/2017/08/25/13/58/stairs-2680278_640.jpg",
        "src1280": "https://cdn.pixabay.com/photo/2017/08/25/13/58/stairs-2680278_1280.jpg"
    },
    {
        "id": "8293510",
        "src640": "https://cdn.pixabay.com/photo/2023/10/04/11/37/chair-8293510_640.jpg",
        "src1280": "https://cdn.pixabay.com/photo/2023/10/04/11/37/chair-8293510_1280.jpg"
    },
    {
        "id": "705722",
        "src640": "https://cdn.pixabay.com/photo/2015/04/03/19/33/dry-705722_640.jpg",
        "src1280": "https://cdn.pixabay.com/photo/2015/04/03/19/33/dry-705722_1280.jpg"
    },
    {
        "id": "4591210",
        "src640": "https://cdn.pixabay.com/photo/2019/10/31/07/35/magnolia-grandiflora-4591210_640.jpg",
        "src1280": "https://cdn.pixabay.com/photo/2019/10/31/07/35/magnolia-grandiflora-4591210_1280.jpg"
    },
    {
        "id": "4946396",
        "src640": "https://cdn.pixabay.com/photo/2020/03/19/05/50/cat-4946396_640.jpg",
        "src1280": "https://cdn.pixabay.com/photo/2020/03/19/05/50/cat-4946396_1280.jpg"
    },
    {
        "id": "6122386",
        "src640": "https://cdn.pixabay.com/photo/2021/03/25/08/36/tomatoes-6122386_640.jpg",
        "src1280": "https://cdn.pixabay.com/photo/2021/03/25/08/36/tomatoes-6122386_1280.jpg"
    },
    {
        "id": "361640",
        "src640": "https://cdn.pixabay.com/photo/2014/06/03/22/21/vanessa-cardui-361640_640.jpg",
        "src1280": "https://cdn.pixabay.com/photo/2014/06/03/22/21/vanessa-cardui-361640_1280.jpg"
    },
    {
        "id": "7529875",
        "src640": "https://cdn.pixabay.com/photo/2022/10/18/10/52/apache-beggarticks-7529875_640.jpg",
        "src1280": "https://cdn.pixabay.com/photo/2022/10/18/10/52/apache-beggarticks-7529875_1280.jpg"
    },
    {
        "id": "8300939",
        "src640": "https://cdn.pixabay.com/photo/2023/10/07/21/32/twirl-8300939_640.jpg",
        "src1280": "https://cdn.pixabay.com/photo/2023/10/07/21/32/twirl-8300939_1280.jpg"
    },
    {
        "id": "1227493",
        "src640": "https://cdn.pixabay.com/photo/2016/02/28/19/32/tulip-1227493_640.jpg",
        "src1280": "https://cdn.pixabay.com/photo/2016/02/28/19/32/tulip-1227493_1280.jpg"
    },
    {
        "id": "253423",
        "src640": "https://cdn.pixabay.com/photo/2014/01/27/20/29/cashew-tree-253423_640.jpg",
        "src1280": "https://cdn.pixabay.com/photo/2014/01/27/20/29/cashew-tree-253423_1280.jpg"
    },
    {
        "id": "604187",
        "src640": "https://cdn.pixabay.com/photo/2015/01/19/16/14/lupine-604187_640.jpg",
        "src1280": "https://cdn.pixabay.com/photo/2015/01/19/16/14/lupine-604187_1280.jpg"
    },
    {
        "id": "7310504",
        "src640": "https://cdn.pixabay.com/photo/2022/07/09/09/39/blossom-7310504_640.jpg",
        "src1280": "https://cdn.pixabay.com/photo/2022/07/09/09/39/blossom-7310504_1280.jpg"
    },
    {
        "id": "7151892",
        "src640": "https://cdn.pixabay.com/photo/2022/04/23/14/46/cherry-blossoms-7151892_640.jpg",
        "src1280": "https://cdn.pixabay.com/photo/2022/04/23/14/46/cherry-blossoms-7151892_1280.jpg"
    },
    {
        "id": "6568880",
        "src640": "https://cdn.pixabay.com/photo/2021/08/23/21/43/flower-6568880_640.jpg",
        "src1280": "https://cdn.pixabay.com/photo/2021/08/23/21/43/flower-6568880_1280.jpg"
    },
    {
        "id": "4512073",
        "src640": "https://cdn.pixabay.com/photo/2019/09/29/00/24/rose-4512073_640.jpg",
        "src1280": "https://cdn.pixabay.com/photo/2019/09/29/00/24/rose-4512073_1280.jpg"
    },
    {
        "id": "5123486",
        "src640": "https://cdn.pixabay.com/photo/2020/05/03/00/48/dandelion-5123486_640.jpg",
        "src1280": "https://cdn.pixabay.com/photo/2020/05/03/00/48/dandelion-5123486_1280.jpg"
    },
    {
        "id": "7134888",
        "src640": "https://cdn.pixabay.com/photo/2022/04/15/17/25/flower-buds-7134888_640.jpg",
        "src1280": "https://cdn.pixabay.com/photo/2022/04/15/17/25/flower-buds-7134888_1280.jpg"
    },
    {
        "id": "5859107",
        "src640": "https://cdn.pixabay.com/photo/2020/12/25/11/30/flowers-5859107_640.jpg",
        "src1280": "https://cdn.pixabay.com/photo/2020/12/25/11/30/flowers-5859107_1280.jpg"
    },
    {
        "id": "779216",
        "src640": "https://cdn.pixabay.com/photo/2015/05/22/15/28/pansy-779216_640.jpg",
        "src1280": "https://cdn.pixabay.com/photo/2015/05/22/15/28/pansy-779216_1280.jpg"
    },
    {
        "id": "5891902",
        "src640": "https://cdn.pixabay.com/photo/2021/01/05/17/16/tulips-5891902_640.jpg",
        "src1280": "https://cdn.pixabay.com/photo/2021/01/05/17/16/tulips-5891902_1280.jpg"
    },
    {
        "id": "4455867",
        "src640": "https://cdn.pixabay.com/photo/2019/09/06/08/16/barbary-ape-4455867_640.jpg",
        "src1280": "https://cdn.pixabay.com/photo/2019/09/06/08/16/barbary-ape-4455867_1280.jpg"
    },
    {
        "id": "6654157",
        "src640": "https://cdn.pixabay.com/photo/2021/09/25/06/37/dahlia-6654157_640.jpg",
        "src1280": "https://cdn.pixabay.com/photo/2021/09/25/06/37/dahlia-6654157_1280.jpg"
    }
]