[
    {
        "id": "7742914",
        "src640": "https://cdn.pixabay.com/photo/2023/01/25/09/23/bunny-7742914_640.jpg",
        "src1280": "https://cdn.pixabay.com/photo/2023/01/25/09/23/bunny-7742914_1280.jpg"
    },
    {
        "id": "6007715",
        "src640": "https://cdn.pixabay.com/photo/2021/02/12/08/40/roses-6007715_640.jpg",
        "src1280": "https://cdn.pixabay.com/photo/2021/02/12/08/40/roses-6007715_1280.jpg"
    },
    {
        "id": "8357755",
        "src640": "https://cdn.pixabay.com/photo/2023/11/01/14/42/girl-8357755_640.jpg",
        "src1280": "https://cdn.pixabay.com/photo/2023/11/01/14/42/girl-8357755_1280.jpg"
    },
    {
        "id": "4658247",
        "src640": "https://cdn.pixabay.com/photo/2019/11/28/02/32/flower-4658247_640.jpg",
        "src1280": "https://cdn.pixabay.com/photo/2019/11/28/02/32/flower-4658247_1280.jpg"
    },
    {
        "id": "5047234",
        "src640": "https://cdn.pixabay.com/photo/2020/04/15/16/01/tulip-5047234_640.jpg",
        "src1280": "https://cdn.pixabay.com/photo/2020/04/15/16/01/tulip-5047234_1280.jpg"
    },
    {
        "id": "4963880",
        "src640": "https://cdn.pixabay.com/photo/2020/03/24/12/13/plant-4963880_640.jpg",
        "src1280": "https://cdn.pixabay.com/photo/2020/03/24/12/13/plant-4963880_1280.jpg"
    },
    {
        "id": "200624",
        "src640": "https://cdn.pixabay.com/photo/2013/10/25/00/58/wedding-200624_640.jpg",
        "src1280": "https://cdn.pixabay.com/photo/2013/10/25/00/58/wedding-200624_1280.jpg"
    },
    {
        "id": "4962754",
        "src640": "https://cdn.pixabay.com/photo/2020/03/24/04/51/flower-4962754_640.jpg",
        "src1280": "https://cdn.pixabay.com/photo/2020/03/24/04/51/flower-4962754_1280.jpg"
    },
    {
        "id": "4263345",
        "src640": "https://cdn.pixabay.com/photo/2019/06/10/01/19/plant-4263345_640.jpg",
        "src1280": "https://cdn.pixabay.com/photo/2019/06/10/01/19/plant-4263345_1280.jpg"
    },
    {
        "id": "4218770",
        "src640": "https://cdn.pixabay.com/photo/2019/05/21/10/51/rose-4218770_640.jpg",
        "src1280": "https://cdn.pixabay.com/photo/2019/05/21/10/51/rose-4218770_1280.jpg"
    },
    {
        "id": "5018290",
        "src640": "https://cdn.pixabay.com/photo/2020/04/08/17/58/flower-5018290_640.jpg",
        "src1280": "https://cdn.pixabay.com/photo/2020/04/08/17/58/flower-5018290_1280.jpg"
    },
    {
        "id": "5338743",
        "src640": "https://cdn.pixabay.com/photo/2020/06/25/06/39/thunder-5338743_640.jpg",
        "src1280": "https://cdn.pixabay.com/photo/2020/06/25/06/39/thunder-5338743_1280.jpg"
    },
    {
        "id": "3905430",
        "src640": "https://cdn.pixabay.com/photo/2018/12/31/16/14/nature-3905430_640.jpg",
        "src1280": "https://cdn.pixabay.com/photo/2018/12/31/16/14/nature-3905430_1280.jpg"
    },
    {
        "id": "4897457",
        "src640": "https://cdn.pixabay.com/photo/2020/03/03/04/04/flower-4897457_640.jpg",
        "src1280": "https://cdn.pixabay.com/photo/2020/03/03/04/04/flower-4897457_1280.jpg"
    },
    {
        "id": "7848751",
        "src640": "https://cdn.pixabay.com/photo/2023/03/13/05/24/ai-generated-7848751_640.jpg",
        "src1280": "https://cdn.pixabay.com/photo/2023/03/13/05/24/ai-generated-7848751_1280.jpg"
    },
    {
        "id": "4826968",
        "src640": "https://cdn.pixabay.com/photo/2020/02/07/12/12/flowers-4826968_640.jpg",
        "src1280": "https://cdn.pixabay.com/photo/2020/02/07/12/12/flowers-4826968_1280.jpg"
    },
    {
        "id": "985544",
        "src640": "https://cdn.pixabay.com/photo/2015/10/13/03/24/agriculture-985544_640.jpg",
        "src1280": "https://cdn.pixabay.com/photo/2015/10/13/03/24/agriculture-985544_1280.jpg"
    },
    {
        "id": "2829365",
        "src640": "https://cdn.pixabay.com/photo/2017/10/08/10/04/dahlia-2829365_640.jpg",
        "src1280": "https://cdn.pixabay.com/photo/2017/10/08/10/04/dahlia-2829365_1280.jpg"
    },
    {
        "id": "8171767",
        "src640": "https://cdn.pixabay.com/photo/2023/08/05/20/48/zinnia-8171767_640.jpg",
        "src1280": "https://cdn.pixabay.com/photo/2023/08/05/20/48/zinnia-8171767_1280.jpg"
    },
    {
        "id": "4239980",
        "src640": "https://cdn.pixabay.com/photo/2019/05/30/14/42/tree-4239980_640.jpg",
        "src1280": "https://cdn.pixabay.com/photo/2019/05/30/14/42/tree-4239980_1280.jpg"
    },
    {
        "id": "1010681",
        "src640": "https://cdn.pixabay.com/photo/2015/10/28/15/21/crocus-1010681_640.jpg",
        "src1280": "https://cdn.pixabay.com/photo/2015/10/28/15/21/crocus-1010681_1280.jpg"
    },
    {
        "id": "2178577",
        "src640": "https://cdn.pixabay.com/photo/2017/03/27/13/02/autumn-2178577_640.jpg",
        "src1280": "https://cdn.pixabay.com/photo/2017/03/27/13/02/autumn-2178577_1280.jpg"
    },
    {
        "id": "7708330",
        "src640": "https://cdn.pixabay.com/photo/2023/01/09/22/04/geometric-pattern-7708330_640.jpg",
        "src1280": "https://cdn.pixabay.com/photo/2023/01/09/22/04/geometric-pattern-7708330_1280.jpg"
    },
    {
        "id": "7802552",
        "src640": "https://cdn.pixabay.com/photo/2023/02/20/15/51/cat-7802552_640.jpg",
        "src1280": "https://cdn.pixabay.com/photo/2023/02/20/15/51/cat-7802552_1280.jpg"
    },
    {
        "id": "7643907",
        "src640": "https://cdn.pixabay.com/photo/2022/12/08/18/52/hill-7643907_640.jpg",
        "src1280": "https://cdn.pixabay.com/photo/2022/12/08/18/52/hill-7643907_1280.jpg"
    },
    {
        "id": "5485065",
        "src640": "https://cdn.pixabay.com/photo/2020/08/13/12/22/drops-5485065_640.jpg",
        "src1280": "https://cdn.pixabay.com/photo/2020/08/13/12/22/drops-5485065_1280.jpg"
    },
    {
        "id": "5170710",
        "src640": "https://cdn.pixabay.com/photo/2020/05/14/17/41/daisy-5170710_640.jpg",
        "src1280": "https://cdn.pixabay.com/photo/2020/05/14/17/41/daisy-5170710_1280.jpg"
    },
    {
        "id": "4825527",
        "src640": "https://cdn.pixabay.com/photo/2020/02/06/21/24/sunflower-4825527_640.jpg",
        "src1280": "https://cdn.pixabay.com/photo/2020/02/06/21/24/sunflower-4825527_1280.jpg"
    },
    {
        "id": "3202081",
        "src640": "https://cdn.pixabay.com/photo/2018/03/05/22/42/two-tulips-3202081_640.jpg",
        "src1280": "https://cdn.pixabay.com/photo/2018/03/05/22/42/two-tulips-3202081_1280.jpg"
    },
    {
        "id": "4792173",
        "src640": "https://cdn.pixabay.com/photo/2020/01/25/10/44/anemone-4792173_640.jpg",
        "src1280": "https://cdn.pixabay.com/photo/2020/01/25/10/44/anemone-4792173_1280.jpg"
    },
    {
        "id": "5365803",
        "src640": "https://cdn.pixabay.com/photo/2020/07/03/09/31/woman-5365803_640.jpg",
        "src1280": "https://cdn.pixabay.com/photo/2020/07/03/09/31/woman-5365803_1280.jpg"
    },
    {
        "id": "7450627",
        "src640": "https://cdn.pixabay.com/photo/2022/09/12/23/13/roses-7450627_640.jpg",
        "src1280": "https://cdn.pixabay.com/photo/2022/09/12/23/13/roses-7450627_1280.jpg"
    },
    {
        "id": "2905100",
        "src640": "https://cdn.pixabay.com/photo/2017/10/31/12/14/flower-2905100_640.jpg",
        "src1280": "https://cdn.pixabay.com/photo/2017/10/31/12/14/flower-2905100_1280.jpg"
    },
    {
        "id": "4404217",
        "src640": "https://cdn.pixabay.com/photo/2019/08/13/20/47/rose-4404217_640.jpg",
        "src1280": "https://cdn.pixabay.com/photo/2019/08/13/20/47/rose-4404217_1280.jpg"
    },
    {
        "id": "5117543",
        "src640": "https://cdn.pixabay.com/photo/2020/05/01/15/04/flower-5117543_640.jpg",
        "src1280": "https://cdn.pixabay.com/photo/2020/05/01/15/04/flower-5117543_1280.jpg"
    },
    {
        "id": "5050427",
        "src640": "https://cdn.pixabay.com/photo/2020/04/16/12/38/wood-anemone-5050427_640.jpg",
        "src1280": "https://cdn.pixabay.com/photo/2020/04/16/12/38/wood-anemone-5050427_1280.jpg"
    },
    {
        "id": "7047266",
        "src640": "https://cdn.pixabay.com/photo/2022/03/04/12/50/neuron-7047266_640.jpg",
        "src1280": "https://cdn.pixabay.com/photo/2022/03/04/12/50/neuron-7047266_1280.jpg"
    },
    {
        "id": "4069600",
        "src640": "https://cdn.pixabay.com/photo/2019/03/20/21/23/thimble-4069600_640.jpg",
        "src1280": "https://cdn.pixabay.com/photo/2019/03/20/21/23/thimble-4069600_1280.jpg"
    },
    {
        "id": "4659875",
        "src640": "https://cdn.pixabay.com/photo/2019/11/28/19/09/flower-4659875_640.jpg",
        "src1280": "https://cdn.pixabay.com/photo/2019/11/28/19/09/flower-4659875_1280.jpg"
    },
    {
        "id": "4495158",
        "src640": "https://cdn.pixabay.com/photo/2019/09/22/05/46/hibiscus-4495158_640.jpg",
        "src1280": "https://cdn.pixabay.com/photo/2019/09/22/05/46/hibiscus-4495158_1280.jpg"
    },
    {
        "id": "2608975",
        "src640": "https://cdn.pixabay.com/photo/2017/08/07/23/10/tree-2608975_640.jpg",
        "src1280": "https://cdn.pixabay.com/photo/2017/08/07/23/10/tree-2608975_1280.jpg"
    },
    {
        "id": "759326",
        "src640": "https://cdn.pixabay.com/photo/2015/05/09/06/09/dahlia-759326_640.jpg",
        "src1280": "https://cdn.pixabay.com/photo/2015/05/09/06/09/dahlia-759326_1280.jpg"
    },
    {
        "id": "3694071",
        "src640": "https://cdn.pixabay.com/photo/2018/09/21/21/28/pink-3694071_640.jpg",
        "src1280": "https://cdn.pixabay.com/photo/2018/09/21/21/28/pink-3694071_1280.jpg"
    },
    {
        "id": "7945301",
        "src640": "https://cdn.pixabay.com/photo/2023/04/23/08/46/meditation-7945301_640.jpg",
        "src1280": "https://cdn.pixabay.com/photo/2023/04/23/08/46/meditation-7945301_1280.jpg"
    },
    {
        "id": "7843264",
        "src640": "https://cdn.pixabay.com/photo/2023/03/10/22/39/flower-7843264_640.jpg",
        "src1280": "https://cdn.pixabay.com/photo/2023/03/10/22/39/flower-7843264_1280.jpg"
    },
    {
        "id": "387762",
        "src640": "https://cdn.pixabay.com/photo/2014/07/08/17/58/wet-rose-387762_640.jpg",
        "src1280": "https://cdn.pixabay.com/photo/2014/07/08/17/58/wet-rose-387762_1280.jpg"
    },
    {
        "id": "5201939",
        "src640": "https://cdn.pixabay.com/photo/2020/05/21/18/09/lupine-5201939_640.jpg",
        "src1280": "https://cdn.pixabay.com/photo/2020/05/21/18/09/lupine-5201939_1280.jpg"
    },
    {
        "id": "5353453",
        "src640": "https://cdn.pixabay.com/photo/2020/06/29/17/13/chrysanthemum-5353453_640.jpg",
        "src1280": "https://cdn.pixabay.com/photo/2020/06/29/17/13/chrysanthemum-5353453_1280.jpg"
    },
    {
        "id": "6610502",
        "src640": "https://cdn.pixabay.com/photo/2021/09/09/12/43/girl-6610502_640.jpg",
        "src1280": "https://cdn.pixabay.com/photo/2021/09/09/12/43/girl-6610502_1280.jpg"
    },
    {
        "id": "4836155",
        "src640": "https://cdn.pixabay.com/photo/2020/02/10/11/05/new-years-eve-4836155_640.jpg",
        "src1280": "https://cdn.pixabay.com/photo/2020/02/10/11/05/new-years-eve-4836155_1280.jpg"
    },
    {
        "id": "5197601",
        "src640": "https://cdn.pixabay.com/photo/2020/05/20/18/00/flower-5197601_640.jpg",
        "src1280": "https://cdn.pixabay.com/photo/2020/05/20/18/00/flower-5197601_1280.jpg"
    },
    {
        "id": "7433580",
        "src640": "https://cdn.pixabay.com/photo/2022/09/05/08/06/butterfly-7433580_640.jpg",
        "src1280": "https://cdn.pixabay.com/photo/2022/09/05/08/06/butterfly-7433580_1280.jpg"
    },
    {
        "id": "3397800",
        "src640": "https://cdn.pixabay.com/photo/2018/05/13/20/28/carnation-3397800_640.jpg",
        "src1280": "https://cdn.pixabay.com/photo/2018/05/13/20/28/carnation-3397800_1280.jpg"
    },
    {
        "id": "7928328",
        "src640": "https://cdn.pixabay.com/photo/2023/04/15/17/46/woman-7928328_640.jpg",
        "src1280": "https://cdn.pixabay.com/photo/2023/04/15/17/46/woman-7928328_1280.jpg"
    },
    {
        "id": "4489469",
        "src640": "https://cdn.pixabay.com/photo/2019/09/19/14/49/flower-4489469_640.jpg",
        "src1280": "https://cdn.pixabay.com/photo/2019/09/19/14/49/flower-4489469_1280.jpg"
    },
    {
        "id": "4709406",
        "src640": "https://cdn.pixabay.com/photo/2019/12/20/22/22/digitalis-4709406_640.jpg",
        "src1280": "https://cdn.pixabay.com/photo/2019/12/20/22/22/digitalis-4709406_1280.jpg"
    },
    {
        "id": "7903388",
        "src640": "https://cdn.pixabay.com/photo/2023/04/06/08/50/train-7903388_640.jpg",
        "src1280": "https://cdn.pixabay.com/photo/2023/04/06/08/50/train-7903388_1280.jpg"
    },
    {
        "id": "5007259",
        "src640": "https://cdn.pixabay.com/photo/2020/04/05/18/23/magnolia-5007259_640.jpg",
        "src1280": "https://cdn.pixabay.com/photo/2020/04/05/18/23/magnolia-5007259_1280.jpg"
    },
    {
        "id": "4896819",
        "src640": "https://cdn.pixabay.com/photo/2020/03/02/20/13/hyacinth-4896819_640.jpg",
        "src1280": "https://cdn.pixabay.com/photo/2020/03/02/20/13/hyacinth-4896819_1280.jpg"
    },
    {
        "id": "4915133",
        "src640": "https://cdn.pixabay.com/photo/2020/03/09/09/51/flowers-4915133_640.jpg",
        "src1280": "https://cdn.pixabay.com/photo/2020/03/09/09/51/flowers-4915133_1280.jpg"
    },
    {
        "id": "4211760",
        "src640": "https://cdn.pixabay.com/photo/2019/05/18/12/47/roses-4211760_640.jpg",
        "src1280": "https://cdn.pixabay.com/photo/2019/05/18/12/47/roses-4211760_1280.jpg"
    },
    {
        "id": "7440795",
        "src640": "https://cdn.pixabay.com/photo/2022/09/08/12/04/autumn-7440795_640.jpg",
        "src1280": "https://cdn.pixabay.com/photo/2022/09/08/12/04/autumn-7440795_1280.jpg"
    },
    {
        "id": "7470927",
        "src640": "https://cdn.pixabay.com/photo/2022/09/21/18/04/clover-7470927_640.jpg",
        "src1280": "https://cdn.pixabay.com/photo/2022/09/21/18/04/clover-7470927_1280.jpg"
    },
    {
        "id": "4478716",
        "src640": "https://cdn.pixabay.com/photo/2019/09/15/16/29/tulip-4478716_640.jpg",
        "src1280": "https://cdn.pixabay.com/photo/2019/09/15/16/29/tulip-4478716_1280.jpg"
    },
    {
        "id": "7506272",
        "src640": "https://cdn.pixabay.com/photo/2022/10/08/05/13/computer-7506272_640.jpg",
        "src1280": "https://cdn.pixabay.com/photo/2022/10/08/05/13/computer-7506272_1280.jpg"
    },
    {
        "id": "2598087",
        "src640": "https://cdn.pixabay.com/photo/2017/08/07/00/47/butterfly-2598087_640.jpg",
        "src1280": "https://cdn.pixabay.com/photo/2017/08/07/00/47/butterfly-2598087_1280.jpg"
    },
    {
        "id": "6940569",
        "src640": "https://cdn.pixabay.com/photo/2022/01/15/19/44/valentine-6940569_640.jpg",
        "src1280": "https://cdn.pixabay.com/photo/2022/01/15/19/44/valentine-6940569_1280.jpg"
    },
    {
        "id": "4175643",
        "src640": "https://cdn.pixabay.com/photo/2019/05/03/11/11/flower-4175643_640.jpg",
        "src1280": "https://cdn.pixabay.com/photo/2019/05/03/11/11/flower-4175643_1280.jpg"
    },
    {
        "id": "4334988",
        "src640": "https://cdn.pixabay.com/photo/2019/07/13/15/05/green-4334988_640.jpg",
        "src1280": "https://cdn.pixabay.com/photo/2019/07/13/15/05/green-4334988_1280.jpg"
    },
    {
        "id": "5356718",
        "src640": "https://cdn.pixabay.com/photo/2020/06/30/15/13/bouquet-5356718_640.jpg",
        "src1280": "https://cdn.pixabay.com/photo/2020/06/30/15/13/bouquet-5356718_1280.jpg"
    },
    {
        "id": "4061081",
        "src640": "https://cdn.pixabay.com/photo/2019/03/17/14/37/mimosa-4061081_640.jpg",
        "src1280": "https://cdn.pixabay.com/photo/2019/03/17/14/37/mimosa-4061081_1280.jpg"
    },
    {
        "id": "3455693",
        "src640": "https://cdn.pixabay.com/photo/2018/06/05/15/10/outdoors-3455693_640.jpg",
        "src1280": "https://cdn.pixabay.com/photo/2018/06/05/15/10/outdoors-3455693_1280.jpg"
    },
    {
        "id": "3730297",
        "src640": "https://cdn.pixabay.com/photo/2018/10/07/14/39/nature-3730297_640.jpg",
        "src1280": "https://cdn.pixabay.com/photo/2018/10/07/14/39/nature-3730297_1280.jpg"
    },
    {
        "id": "5077233",
        "src640": "https://cdn.pixabay.com/photo/2020/04/22/10/25/flowers-5077233_640.jpg",
        "src1280": "https://cdn.pixabay.com/photo/2020/04/22/10/25/flowers-5077233_1280.jpg"
    },
    {
        "id": "5216332",
        "src640": "https://cdn.pixabay.com/photo/2020/05/24/21/25/peony-5216332_640.jpg",
        "src1280": "https://cdn.pixabay.com/photo/2020/05/24/21/25/peony-5216332_1280.jpg"
    },
    {
        "id": "2596094",
        "src640": "https://cdn.pixabay.com/photo/2017/08/06/20/37/rose-2596094_640.jpg",
        "src1280": "https://cdn.pixabay.com/photo/2017/08/06/20/37/rose-2596094_1280.jpg"
    },
    {
        "id": "3847141",
        "src640": "https://cdn.pixabay.com/photo/2018/11/30/07/13/male-3847141_640.jpg",
        "src1280": "https://cdn.pixabay.com/photo/2018/11/30/07/13/male-3847141_1280.jpg"
    },
    {
        "id": "8394960",
        "src640": "https://cdn.pixabay.com/photo/2023/11/17/19/53/woman-8394960_640.jpg",
        "src1280": "https://cdn.pixabay.com/photo/2023/11/17/19/53/woman-8394960_1280.jpg"
    },
    {
        "id": "7194039",
        "src640": "https://cdn.pixabay.com/photo/2022/05/13/15/46/flower-7194039_640.jpg",
        "src1280": "https://cdn.pixabay.com/photo/2022/05/13/15/46/flower-7194039_1280.jpg"
    },
    {
        "id": "3423682",
        "src640": "https://cdn.pixabay.com/photo/2018/05/23/10/24/bee-3423682_640.jpg",
        "src1280": "https://cdn.pixabay.com/photo/2018/05/23/10/24/bee-3423682_1280.jpg"
    },
    {
        "id": "8194122",
        "src640": "https://cdn.pixabay.com/photo/2023/08/16/13/06/mantis-8194122_640.jpg",
        "src1280": "https://cdn.pixabay.com/photo/2023/08/16/13/06/mantis-8194122_1280.jpg"
    },
    {
        "id": "6509443",
        "src640": "https://cdn.pixabay.com/photo/2021/07/30/11/43/tea-6509443_640.jpg",
        "src1280": "https://cdn.pixabay.com/photo/2021/07/30/11/43/tea-6509443_1280.jpg"
    },
    {
        "id": "7747579",
        "src640": "https://cdn.pixabay.com/photo/2023/01/27/02/05/abstract-7747579_640.jpg",
        "src1280": "https://cdn.pixabay.com/photo/2023/01/27/02/05/abstract-7747579_1280.jpg"
    },
    {
        "id": "7766717",
        "src640": "https://cdn.pixabay.com/photo/2023/02/04/08/30/butterfly-7766717_640.jpg",
        "src1280": "https://cdn.pixabay.com/photo/2023/02/04/08/30/butterfly-7766717_1280.jpg"
    },
    {
        "id": "7165184",
        "src640": "https://cdn.pixabay.com/photo/2022/04/30/09/09/flower-pots-7165184_640.jpg",
        "src1280": "https://cdn.pixabay.com/photo/2022/04/30/09/09/flower-pots-7165184_1280.jpg"
    },
    {
        "id": "3712989",
        "src640": "https://cdn.pixabay.com/photo/2018/09/30/09/23/pink-3712989_640.jpg",
        "src1280": "https://cdn.pixabay.com/photo/2018/09/30/09/23/pink-3712989_1280.jpg"
    },
    {
        "id": "7817165",
        "src640": "https://cdn.pixabay.com/photo/2023/02/26/23/57/flower-7817165_640.jpg",
        "src1280": "https://cdn.pixabay.com/photo/2023/02/26/23/57/flower-7817165_1280.jpg"
    },
    {
        "id": "6860424",
        "src640": "https://cdn.pixabay.com/photo/2021/12/10/12/30/bride-6860424_640.jpg",
        "src1280": "https://cdn.pixabay.com/photo/2021/12/10/12/30/bride-6860424_1280.jpg"
    },
    {
        "id": "1014165",
        "src640": "https://cdn.pixabay.com/photo/2015/10/30/13/54/flower-1014165_640.jpg",
        "src1280": "https://cdn.pixabay.com/photo/2015/10/30/13/54/flower-1014165_1280.jpg"
    },
    {
        "id": "3972379",
        "src640": "https://cdn.pixabay.com/photo/2019/02/03/11/29/glycine-3972379_640.jpg",
        "src1280": "https://cdn.pixabay.com/photo/2019/02/03/11/29/glycine-3972379_1280.jpg"
    },
    {
        "id": "6595344",
        "src640": "https://cdn.pixabay.com/photo/2021/09/03/09/13/vase-6595344_640.jpg",
        "src1280": "https://cdn.pixabay.com/photo/2021/09/03/09/13/vase-6595344_1280.jpg"
    },
    {
        "id": "4095117",
        "src640": "https://cdn.pixabay.com/photo/2019/04/01/11/17/spring-4095117_640.jpg",
        "src1280": "https://cdn.pixabay.com/photo/2019/04/01/11/17/spring-4095117_1280.jpg"
    },
    {
        "id": "4720141",
        "src640": "https://cdn.pixabay.com/photo/2019/12/26/10/21/rose-4720141_640.jpg",
        "src1280": "https://cdn.pixabay.com/photo/2019/12/26/10/21/rose-4720141_1280.jpg"
    },
    {
        "id": "771867",
        "src640": "https://cdn.pixabay.com/photo/2015/05/18/03/48/girl-771867_640.jpg",
        "src1280": "https://cdn.pixabay.com/photo/2015/05/18/03/48/girl-771867_1280.jpg"
    }
]