[
    {
        "id": "2436971",
        "src640": "https://cdn.pixabay.com/photo/2017/06/24/08/15/cloud-2436971_640.jpg",
        "src1280": "https://cdn.pixabay.com/photo/2017/06/24/08/15/cloud-2436971_1280.jpg"
    },
    {
        "id": "4795505",
        "src640": "https://cdn.pixabay.com/photo/2020/01/26/18/48/succulent-4795505_640.jpg",
        "src1280": "https://cdn.pixabay.com/photo/2020/01/26/18/48/succulent-4795505_1280.jpg"
    },
    {
        "id": "6997603",
        "src640": "https://cdn.pixabay.com/photo/2022/02/06/16/34/pink-flowers-6997603_640.jpg",
        "src1280": "https://cdn.pixabay.com/photo/2022/02/06/16/34/pink-flowers-6997603_1280.jpg"
    },
    {
        "id": "2352953",
        "src640": "https://cdn.pixabay.com/photo/2017/05/29/05/48/may-2352953_640.jpg",
        "src1280": "https://cdn.pixabay.com/photo/2017/05/29/05/48/may-2352953_1280.jpg"
    },
    {
        "id": "7172095",
        "src640": "https://cdn.pixabay.com/photo/2022/05/03/16/23/flowers-7172095_640.jpg",
        "src1280": "https://cdn.pixabay.com/photo/2022/05/03/16/23/flowers-7172095_1280.jpg"
    },
    {
        "id": "7725976",
        "src640": "https://cdn.pixabay.com/photo/2023/01/18/03/22/ai-generated-7725976_640.jpg",
        "src1280": "https://cdn.pixabay.com/photo/2023/01/18/03/22/ai-generated-7725976_1280.jpg"
    },
    {
        "id": "5222399",
        "src640": "https://cdn.pixabay.com/photo/2020/05/26/09/32/daisy-5222399_640.jpg",
        "src1280": "https://cdn.pixabay.com/photo/2020/05/26/09/32/daisy-5222399_1280.jpg"
    },
    {
        "id": "7181406",
        "src640": "https://cdn.pixabay.com/photo/2022/05/08/07/10/flowers-7181406_640.jpg",
        "src1280": "https://cdn.pixabay.com/photo/2022/05/08/07/10/flowers-7181406_1280.jpg"
    },
    {
        "id": "2818742",
        "src640": "https://cdn.pixabay.com/photo/2017/10/05/09/04/wedding-2818742_640.jpg",
        "src1280": "https://cdn.pixabay.com/photo/2017/10/05/09/04/wedding-2818742_1280.jpg"
    },
    {
        "id": "7826349",
        "src640": "https://cdn.pixabay.com/photo/2023/03/02/20/04/ai-generated-7826349_640.jpg",
        "src1280": "https://cdn.pixabay.com/photo/2023/03/02/20/04/ai-generated-7826349_1280.jpg"
    },
    {
        "id": "6703919",
        "src640": "https://cdn.pixabay.com/photo/2021/10/12/15/59/rainbow-6703919_640.jpg",
        "src1280": "https://cdn.pixabay.com/photo/2021/10/12/15/59/rainbow-6703919_1280.jpg"
    },
    {
        "id": "7788619",
        "src640": "https://cdn.pixabay.com/photo/2023/02/14/01/29/flower-7788619_640.jpg",
        "src1280": "https://cdn.pixabay.com/photo/2023/02/14/01/29/flower-7788619_1280.jpg"
    },
    {
        "id": "6488980",
        "src640": "https://cdn.pixabay.com/photo/2021/07/24/08/44/woman-6488980_640.jpg",
        "src1280": "https://cdn.pixabay.com/photo/2021/07/24/08/44/woman-6488980_1280.jpg"
    },
    {
        "id": "2568849",
        "src640": "https://cdn.pixabay.com/photo/2017/08/02/00/03/nature-2568849_640.jpg",
        "src1280": "https://cdn.pixabay.com/photo/2017/08/02/00/03/nature-2568849_1280.jpg"
    },
    {
        "id": "5167547",
        "src640": "https://cdn.pixabay.com/photo/2020/05/13/13/53/flower-5167547_640.jpg",
        "src1280": "https://cdn.pixabay.com/photo/2020/05/13/13/53/flower-5167547_1280.jpg"
    },
    {
        "id": "7143627",
        "src640": "https://cdn.pixabay.com/photo/2022/04/19/19/15/wave-7143627_640.jpg",
        "src1280": "https://cdn.pixabay.com/photo/2022/04/19/19/15/wave-7143627_1280.jpg"
    },
    {
        "id": "4912395",
        "src640": "https://cdn.pixabay.com/photo/2020/03/08/12/42/flower-4912395_640.jpg",
        "src1280": "https://cdn.pixabay.com/photo/2020/03/08/12/42/flower-4912395_1280.jpg"
    },
    {
        "id": "7257749",
        "src640": "https://cdn.pixabay.com/photo/2022/06/12/10/40/poppy-7257749_640.jpg",
        "src1280": "https://cdn.pixabay.com/photo/2022/06/12/10/40/poppy-7257749_1280.jpg"
    },
    {
        "id": "5071360",
        "src640": "https://cdn.pixabay.com/photo/2020/04/21/06/31/wedding-5071360_640.jpg",
        "src1280": "https://cdn.pixabay.com/photo/2020/04/21/06/31/wedding-5071360_1280.jpg"
    },
    {
        "id": "2308850",
        "src640": "https://cdn.pixabay.com/photo/2017/05/13/07/18/flower-2308850_640.jpg",
        "src1280": "https://cdn.pixabay.com/photo/2017/05/13/07/18/flower-2308850_1280.jpg"
    },
    {
        "id": "8389964",
        "src640": "https://cdn.pixabay.com/photo/2023/11/15/12/42/beautiful-8389964_640.jpg",
        "src1280": "https://cdn.pixabay.com/photo/2023/11/15/12/42/beautiful-8389964_1280.jpg"
    },
    {
        "id": "5156995",
        "src640": "https://cdn.pixabay.com/photo/2020/05/11/08/02/rose-5156995_640.jpg",
        "src1280": "https://cdn.pixabay.com/photo/2020/05/11/08/02/rose-5156995_1280.jpg"
    },
    {
        "id": "6927351",
        "src640": "https://cdn.pixabay.com/photo/2022/01/10/04/36/flower-6927351_640.jpg",
        "src1280": "https://cdn.pixabay.com/photo/2022/01/10/04/36/flower-6927351_1280.jpg"
    },
    {
        "id": "3891327",
        "src640": "https://cdn.pixabay.com/photo/2018/12/23/15/24/yellow-flowers-3891327_640.jpg",
        "src1280": "https://cdn.pixabay.com/photo/2018/12/23/15/24/yellow-flowers-3891327_1280.jpg"
    },
    {
        "id": "5211427",
        "src640": "https://cdn.pixabay.com/photo/2020/05/23/20/51/flower-5211427_640.jpg",
        "src1280": "https://cdn.pixabay.com/photo/2020/05/23/20/51/flower-5211427_1280.jpg"
    },
    {
        "id": "2443465",
        "src640": "https://cdn.pixabay.com/photo/2017/06/26/11/22/winter-2443465_640.jpg",
        "src1280": "https://cdn.pixabay.com/photo/2017/06/26/11/22/winter-2443465_1280.jpg"
    },
    {
        "id": "7870539",
        "src640": "https://cdn.pixabay.com/photo/2023/03/22/20/38/flower-7870539_640.jpg",
        "src1280": "https://cdn.pixabay.com/photo/2023/03/22/20/38/flower-7870539_1280.jpg"
    },
    {
        "id": "7716094",
        "src640": "https://cdn.pixabay.com/photo/2023/01/13/13/30/tulips-7716094_640.jpg",
        "src1280": "https://cdn.pixabay.com/photo/2023/01/13/13/30/tulips-7716094_1280.jpg"
    },
    {
        "id": "7061984",
        "src640": "https://cdn.pixabay.com/photo/2022/03/11/11/13/woman-7061984_640.jpg",
        "src1280": "https://cdn.pixabay.com/photo/2022/03/11/11/13/woman-7061984_1280.jpg"
    },
    {
        "id": "6075988",
        "src640": "https://cdn.pixabay.com/photo/2021/03/07/11/55/abstract-6075988_640.jpg",
        "src1280": "https://cdn.pixabay.com/photo/2021/03/07/11/55/abstract-6075988_1280.jpg"
    },
    {
        "id": "5371593",
        "src640": "https://cdn.pixabay.com/photo/2020/07/05/04/34/plant-5371593_640.jpg",
        "src1280": "https://cdn.pixabay.com/photo/2020/07/05/04/34/plant-5371593_1280.jpg"
    },
    {
        "id": "2649910",
        "src640": "https://cdn.pixabay.com/photo/2017/08/17/03/24/love-you-2649910_640.jpg",
        "src1280": "https://cdn.pixabay.com/photo/2017/08/17/03/24/love-you-2649910_1280.jpg"
    },
    {
        "id": "5381804",
        "src640": "https://cdn.pixabay.com/photo/2020/07/07/20/08/retro-5381804_640.jpg",
        "src1280": "https://cdn.pixabay.com/photo/2020/07/07/20/08/retro-5381804_1280.jpg"
    },
    {
        "id": "2437231",
        "src640": "https://cdn.pixabay.com/photo/2017/06/24/09/59/flower-2437231_640.jpg",
        "src1280": "https://cdn.pixabay.com/photo/2017/06/24/09/59/flower-2437231_1280.jpg"
    },
    {
        "id": "3105382",
        "src640": "https://cdn.pixabay.com/photo/2018/01/25/04/23/australia-3105382_640.jpg",
        "src1280": "https://cdn.pixabay.com/photo/2018/01/25/04/23/australia-3105382_1280.jpg"
    },
    {
        "id": "7173757",
        "src640": "https://cdn.pixabay.com/photo/2022/05/04/11/22/tulips-7173757_640.jpg",
        "src1280": "https://cdn.pixabay.com/photo/2022/05/04/11/22/tulips-7173757_1280.jpg"
    },
    {
        "id": "4419617",
        "src640": "https://cdn.pixabay.com/photo/2019/08/20/20/06/flowers-4419617_640.jpg",
        "src1280": "https://cdn.pixabay.com/photo/2019/08/20/20/06/flowers-4419617_1280.jpg"
    },
    {
        "id": "6589811",
        "src640": "https://cdn.pixabay.com/photo/2021/08/31/18/44/wasp-6589811_640.jpg",
        "src1280": "https://cdn.pixabay.com/photo/2021/08/31/18/44/wasp-6589811_1280.jpg"
    },
    {
        "id": "5063681",
        "src640": "https://cdn.pixabay.com/photo/2020/04/19/13/42/butterflies-5063681_640.jpg",
        "src1280": "https://cdn.pixabay.com/photo/2020/04/19/13/42/butterflies-5063681_1280.jpg"
    },
    {
        "id": "954159",
        "src640": "https://cdn.pixabay.com/photo/2015/09/23/18/13/apple-tree-954159_640.jpg",
        "src1280": "https://cdn.pixabay.com/photo/2015/09/23/18/13/apple-tree-954159_1280.jpg"
    },
    {
        "id": "5122046",
        "src640": "https://cdn.pixabay.com/photo/2020/05/02/16/15/cactus-5122046_640.jpg",
        "src1280": "https://cdn.pixabay.com/photo/2020/05/02/16/15/cactus-5122046_1280.jpg"
    },
    {
        "id": "2006756",
        "src640": "https://cdn.pixabay.com/photo/2017/01/24/23/59/simpsons-2006756_640.jpg",
        "src1280": "https://cdn.pixabay.com/photo/2017/01/24/23/59/simpsons-2006756_1280.jpg"
    },
    {
        "id": "7826315",
        "src640": "https://cdn.pixabay.com/photo/2023/03/02/19/57/ai-generated-7826315_640.jpg",
        "src1280": "https://cdn.pixabay.com/photo/2023/03/02/19/57/ai-generated-7826315_1280.jpg"
    },
    {
        "id": "7883217",
        "src640": "https://cdn.pixabay.com/photo/2023/03/28/13/54/flowers-7883217_640.jpg",
        "src1280": "https://cdn.pixabay.com/photo/2023/03/28/13/54/flowers-7883217_1280.jpg"
    },
    {
        "id": "6488974",
        "src640": "https://cdn.pixabay.com/photo/2021/07/24/08/44/woman-6488974_640.jpg",
        "src1280": "https://cdn.pixabay.com/photo/2021/07/24/08/44/woman-6488974_1280.jpg"
    },
    {
        "id": "6300930",
        "src640": "https://cdn.pixabay.com/photo/2021/06/01/08/00/harpy-6300930_640.jpg",
        "src1280": "https://cdn.pixabay.com/photo/2021/06/01/08/00/harpy-6300930_1280.jpg"
    },
    {
        "id": "7766754",
        "src640": "https://cdn.pixabay.com/photo/2023/02/04/08/56/rose-7766754_640.jpg",
        "src1280": "https://cdn.pixabay.com/photo/2023/02/04/08/56/rose-7766754_1280.jpg"
    },
    {
        "id": "75239",
        "src640": "https://cdn.pixabay.com/photo/2013/01/17/17/25/poppies-75239_640.jpg",
        "src1280": "https://cdn.pixabay.com/photo/2013/01/17/17/25/poppies-75239_1280.jpg"
    },
    {
        "id": "7218007",
        "src640": "https://cdn.pixabay.com/photo/2022/05/24/09/36/dog-7218007_640.jpg",
        "src1280": "https://cdn.pixabay.com/photo/2022/05/24/09/36/dog-7218007_1280.jpg"
    },
    {
        "id": "5339468",
        "src640": "https://cdn.pixabay.com/photo/2020/06/25/12/15/chamomile-5339468_640.jpg",
        "src1280": "https://cdn.pixabay.com/photo/2020/06/25/12/15/chamomile-5339468_1280.jpg"
    },
    {
        "id": "5174657",
        "src640": "https://cdn.pixabay.com/photo/2020/05/15/18/42/legs-5174657_640.jpg",
        "src1280": "https://cdn.pixabay.com/photo/2020/05/15/18/42/legs-5174657_1280.jpg"
    },
    {
        "id": "3061634",
        "src640": "https://cdn.pixabay.com/photo/2018/01/04/21/01/nature-3061634_640.jpg",
        "src1280": "https://cdn.pixabay.com/photo/2018/01/04/21/01/nature-3061634_1280.jpg"
    },
    {
        "id": "6056508",
        "src640": "https://cdn.pixabay.com/photo/2021/02/28/07/01/woman-6056508_640.jpg",
        "src1280": "https://cdn.pixabay.com/photo/2021/02/28/07/01/woman-6056508_1280.jpg"
    },
    {
        "id": "3574623",
        "src640": "https://cdn.pixabay.com/photo/2018/07/31/09/48/kite-3574623_640.jpg",
        "src1280": "https://cdn.pixabay.com/photo/2018/07/31/09/48/kite-3574623_1280.jpg"
    },
    {
        "id": "1774709",
        "src640": "https://cdn.pixabay.com/photo/2016/10/27/12/36/figure-1774709_640.jpg",
        "src1280": "https://cdn.pixabay.com/photo/2016/10/27/12/36/figure-1774709_1280.jpg"
    },
    {
        "id": "219436",
        "src640": "https://cdn.pixabay.com/photo/2013/11/27/18/14/mums-219436_640.jpg",
        "src1280": "https://cdn.pixabay.com/photo/2013/11/27/18/14/mums-219436_1280.jpg"
    },
    {
        "id": "3157",
        "src640": "https://cdn.pixabay.com/photo/2010/12/14/16/27/wood-anemone-3157_640.jpg",
        "src1280": "https://cdn.pixabay.com/photo/2010/12/14/16/27/wood-anemone-3157_1280.jpg"
    },
    {
        "id": "6143351",
        "src640": "https://cdn.pixabay.com/photo/2021/04/01/21/53/flower-6143351_640.jpg",
        "src1280": "https://cdn.pixabay.com/photo/2021/04/01/21/53/flower-6143351_1280.jpg"
    },
    {
        "id": "6797314",
        "src640": "https://cdn.pixabay.com/photo/2021/11/15/07/47/flower-6797314_640.jpg",
        "src1280": "https://cdn.pixabay.com/photo/2021/11/15/07/47/flower-6797314_1280.jpg"
    },
    {
        "id": "3193630",
        "src640": "https://cdn.pixabay.com/photo/2018/03/02/17/02/flower-3193630_640.jpg",
        "src1280": "https://cdn.pixabay.com/photo/2018/03/02/17/02/flower-3193630_1280.jpg"
    },
    {
        "id": "4900983",
        "src640": "https://cdn.pixabay.com/photo/2020/03/04/08/58/diagrams-4900983_640.jpg",
        "src1280": "https://cdn.pixabay.com/photo/2020/03/04/08/58/diagrams-4900983_1280.jpg"
    },
    {
        "id": "1428777",
        "src640": "https://cdn.pixabay.com/photo/2016/06/01/10/50/chicory-1428777_640.jpg",
        "src1280": "https://cdn.pixabay.com/photo/2016/06/01/10/50/chicory-1428777_1280.jpg"
    },
    {
        "id": "5275873",
        "src640": "https://cdn.pixabay.com/photo/2020/06/08/19/38/flower-5275873_640.jpg",
        "src1280": "https://cdn.pixabay.com/photo/2020/06/08/19/38/flower-5275873_1280.jpg"
    },
    {
        "id": "5571856",
        "src640": "https://cdn.pixabay.com/photo/2020/09/14/19/16/flower-5571856_640.jpg",
        "src1280": "https://cdn.pixabay.com/photo/2020/09/14/19/16/flower-5571856_1280.jpg"
    },
    {
        "id": "5173248",
        "src640": "https://cdn.pixabay.com/photo/2020/05/15/11/13/book-5173248_640.jpg",
        "src1280": "https://cdn.pixabay.com/photo/2020/05/15/11/13/book-5173248_1280.jpg"
    },
    {
        "id": "7014113",
        "src640": "https://cdn.pixabay.com/photo/2022/02/15/00/33/farm-7014113_640.jpg",
        "src1280": "https://cdn.pixabay.com/photo/2022/02/15/00/33/farm-7014113_1280.jpg"
    },
    {
        "id": "5516495",
        "src640": "https://cdn.pixabay.com/photo/2020/08/25/11/30/flowers-5516495_640.jpg",
        "src1280": "https://cdn.pixabay.com/photo/2020/08/25/11/30/flowers-5516495_1280.jpg"
    },
    {
        "id": "8308643",
        "src640": "https://cdn.pixabay.com/photo/2023/10/11/13/25/pumpkin-8308643_640.jpg",
        "src1280": "https://cdn.pixabay.com/photo/2023/10/11/13/25/pumpkin-8308643_1280.jpg"
    },
    {
        "id": "4978253",
        "src640": "https://cdn.pixabay.com/photo/2020/03/28/18/59/plum-4978253_640.jpg",
        "src1280": "https://cdn.pixabay.com/photo/2020/03/28/18/59/plum-4978253_1280.jpg"
    },
    {
        "id": "8208773",
        "src640": "https://cdn.pixabay.com/photo/2023/08/23/15/04/flower-8208773_640.jpg",
        "src1280": "https://cdn.pixabay.com/photo/2023/08/23/15/04/flower-8208773_1280.jpg"
    },
    {
        "id": "5041833",
        "src640": "https://cdn.pixabay.com/photo/2020/04/14/10/24/flower-5041833_640.jpg",
        "src1280": "https://cdn.pixabay.com/photo/2020/04/14/10/24/flower-5041833_1280.jpg"
    },
    {
        "id": "5442159",
        "src640": "https://cdn.pixabay.com/photo/2020/07/27/11/42/blossom-5442159_640.jpg",
        "src1280": "https://cdn.pixabay.com/photo/2020/07/27/11/42/blossom-5442159_1280.jpg"
    },
    {
        "id": "727577",
        "src640": "https://cdn.pixabay.com/photo/2015/04/17/16/30/away-727577_640.jpg",
        "src1280": "https://cdn.pixabay.com/photo/2015/04/17/16/30/away-727577_1280.jpg"
    },
    {
        "id": "938073",
        "src640": "https://cdn.pixabay.com/photo/2015/09/13/12/07/flowers-938073_640.jpg",
        "src1280": "https://cdn.pixabay.com/photo/2015/09/13/12/07/flowers-938073_1280.jpg"
    },
    {
        "id": "8311104",
        "src640": "https://cdn.pixabay.com/photo/2023/10/12/16/03/ai-generated-8311104_640.jpg",
        "src1280": "https://cdn.pixabay.com/photo/2023/10/12/16/03/ai-generated-8311104_1280.jpg"
    },
    {
        "id": "4068555",
        "src640": "https://cdn.pixabay.com/photo/2019/03/20/14/07/gel-4068555_640.jpg",
        "src1280": "https://cdn.pixabay.com/photo/2019/03/20/14/07/gel-4068555_1280.jpg"
    },
    {
        "id": "7619476",
        "src640": "https://cdn.pixabay.com/photo/2022/11/27/11/15/twelve-apostles-7619476_640.jpg",
        "src1280": "https://cdn.pixabay.com/photo/2022/11/27/11/15/twelve-apostles-7619476_1280.jpg"
    },
    {
        "id": "7478642",
        "src640": "https://cdn.pixabay.com/photo/2022/09/25/15/31/halloween-7478642_640.jpg",
        "src1280": "https://cdn.pixabay.com/photo/2022/09/25/15/31/halloween-7478642_1280.jpg"
    },
    {
        "id": "4669497",
        "src640": "https://cdn.pixabay.com/photo/2019/12/03/08/31/bee-4669497_640.jpg",
        "src1280": "https://cdn.pixabay.com/photo/2019/12/03/08/31/bee-4669497_1280.jpg"
    },
    {
        "id": "5189281",
        "src640": "https://cdn.pixabay.com/photo/2020/05/19/05/23/the-peony-5189281_640.jpg",
        "src1280": "https://cdn.pixabay.com/photo/2020/05/19/05/23/the-peony-5189281_1280.jpg"
    },
    {
        "id": "3414479",
        "src640": "https://cdn.pixabay.com/photo/2018/05/19/22/06/iris-3414479_640.jpg",
        "src1280": "https://cdn.pixabay.com/photo/2018/05/19/22/06/iris-3414479_1280.jpg"
    },
    {
        "id": "3319759",
        "src640": "https://cdn.pixabay.com/photo/2018/04/14/18/52/flower-3319759_640.jpg",
        "src1280": "https://cdn.pixabay.com/photo/2018/04/14/18/52/flower-3319759_1280.jpg"
    },
    {
        "id": "2119151",
        "src640": "https://cdn.pixabay.com/photo/2017/03/05/17/24/butterfly-2119151_640.jpg",
        "src1280": "https://cdn.pixabay.com/photo/2017/03/05/17/24/butterfly-2119151_1280.jpg"
    },
    {
        "id": "7161943",
        "src640": "https://cdn.pixabay.com/photo/2022/04/28/20/14/clouds-7161943_640.jpg",
        "src1280": "https://cdn.pixabay.com/photo/2022/04/28/20/14/clouds-7161943_1280.jpg"
    },
    {
        "id": "7270009",
        "src640": "https://cdn.pixabay.com/photo/2022/06/18/15/22/poppies-7270009_640.jpg",
        "src1280": "https://cdn.pixabay.com/photo/2022/06/18/15/22/poppies-7270009_1280.jpg"
    },
    {
        "id": "3335359",
        "src640": "https://cdn.pixabay.com/photo/2018/04/20/08/31/young-3335359_640.jpg",
        "src1280": "https://cdn.pixabay.com/photo/2018/04/20/08/31/young-3335359_1280.jpg"
    },
    {
        "id": "7667298",
        "src640": "https://cdn.pixabay.com/photo/2022/12/20/08/43/fall-7667298_640.jpg",
        "src1280": "https://cdn.pixabay.com/photo/2022/12/20/08/43/fall-7667298_1280.jpg"
    },
    {
        "id": "668408",
        "src640": "https://cdn.pixabay.com/photo/2015/03/11/09/40/roses-668408_640.jpg",
        "src1280": "https://cdn.pixabay.com/photo/2015/03/11/09/40/roses-668408_1280.jpg"
    },
    {
        "id": "7102490",
        "src640": "https://cdn.pixabay.com/photo/2022/03/31/08/42/rose-7102490_640.jpg",
        "src1280": "https://cdn.pixabay.com/photo/2022/03/31/08/42/rose-7102490_1280.jpg"
    },
    {
        "id": "7242817",
        "src640": "https://cdn.pixabay.com/photo/2022/06/04/20/48/rose-7242817_640.jpg",
        "src1280": "https://cdn.pixabay.com/photo/2022/06/04/20/48/rose-7242817_1280.jpg"
    },
    {
        "id": "989282",
        "src640": "https://cdn.pixabay.com/photo/2015/10/15/12/11/hyacinth-989282_640.jpg",
        "src1280": "https://cdn.pixabay.com/photo/2015/10/15/12/11/hyacinth-989282_1280.jpg"
    }
]