[
    {
        "id": "7884877",
        "src640": "https://cdn.pixabay.com/photo/2023/03/29/08/19/tulips-7884877_640.jpg",
        "src1280": "https://cdn.pixabay.com/photo/2023/03/29/08/19/tulips-7884877_1280.jpg"
    },
    {
        "id": "7280265",
        "src640": "https://cdn.pixabay.com/photo/2022/06/23/17/13/ball-7280265_640.jpg",
        "src1280": "https://cdn.pixabay.com/photo/2022/06/23/17/13/ball-7280265_1280.jpg"
    },
    {
        "id": "5324314",
        "src640": "https://cdn.pixabay.com/photo/2020/06/21/10/56/flower-5324314_640.jpg",
        "src1280": "https://cdn.pixabay.com/photo/2020/06/21/10/56/flower-5324314_1280.jpg"
    },
    {
        "id": "6807491",
        "src640": "https://cdn.pixabay.com/photo/2021/11/18/21/58/sunflower-6807491_640.jpg",
        "src1280": "https://cdn.pixabay.com/photo/2021/11/18/21/58/sunflower-6807491_1280.jpg"
    },
    {
        "id": "7866187",
        "src640": "https://cdn.pixabay.com/photo/2023/03/21/01/31/flower-7866187_640.jpg",
        "src1280": "https://cdn.pixabay.com/photo/2023/03/21/01/31/flower-7866187_1280.jpg"
    },
    {
        "id": "3964198",
        "src640": "https://cdn.pixabay.com/photo/2019/01/30/10/06/amsterdam-3964198_640.jpg",
        "src1280": "https://cdn.pixabay.com/photo/2019/01/30/10/06/amsterdam-3964198_1280.jpg"
    },
    {
        "id": "8384359",
        "src640": "https://cdn.pixabay.com/photo/2023/11/13/01/30/flower-8384359_640.jpg",
        "src1280": "https://cdn.pixabay.com/photo/2023/11/13/01/30/flower-8384359_1280.jpg"
    },
    {
        "id": "5410078",
        "src640": "https://cdn.pixabay.com/photo/2020/07/16/07/54/starry-sky-5410078_640.jpg",
        "src1280": "https://cdn.pixabay.com/photo/2020/07/16/07/54/starry-sky-5410078_1280.jpg"
    },
    {
        "id": "7537974",
        "src640": "https://cdn.pixabay.com/photo/2022/10/21/21/17/interior-7537974_640.jpg",
        "src1280": "https://cdn.pixabay.com/photo/2022/10/21/21/17/interior-7537974_1280.jpg"
    },
    {
        "id": "2677502",
        "src640": "https://cdn.pixabay.com/photo/2017/08/24/16/55/flowers-2677502_640.jpg",
        "src1280": "https://cdn.pixabay.com/photo/2017/08/24/16/55/flowers-2677502_1280.jpg"
    },
    {
        "id": "7853014",
        "src640": "https://cdn.pixabay.com/photo/2023/03/14/19/23/flowers-7853014_640.jpg",
        "src1280": "https://cdn.pixabay.com/photo/2023/03/14/19/23/flowers-7853014_1280.jpg"
    },
    {
        "id": "6865996",
        "src640": "https://cdn.pixabay.com/photo/2021/12/12/20/17/drink-6865996_640.jpg",
        "src1280": "https://cdn.pixabay.com/photo/2021/12/12/20/17/drink-6865996_1280.jpg"
    },
    {
        "id": "8407451",
        "src640": "https://cdn.pixabay.com/photo/2023/11/23/09/01/pineapple-8407451_640.jpg",
        "src1280": "https://cdn.pixabay.com/photo/2023/11/23/09/01/pineapple-8407451_1280.jpg"
    },
    {
        "id": "8147823",
        "src640": "https://cdn.pixabay.com/photo/2023/07/24/20/42/poppy-8147823_640.jpg",
        "src1280": "https://cdn.pixabay.com/photo/2023/07/24/20/42/poppy-8147823_1280.jpg"
    },
    {
        "id": "6805045",
        "src640": "https://cdn.pixabay.com/photo/2021/11/17/22/55/christmas-6805045_640.jpg",
        "src1280": "https://cdn.pixabay.com/photo/2021/11/17/22/55/christmas-6805045_1280.jpg"
    },
    {
        "id": "5985788",
        "src640": "https://cdn.pixabay.com/photo/2021/02/05/20/38/abstract-5985788_640.jpg",
        "src1280": "https://cdn.pixabay.com/photo/2021/02/05/20/38/abstract-5985788_1280.jpg"
    },
    {
        "id": "6466382",
        "src640": "https://cdn.pixabay.com/photo/2021/07/14/15/43/woman-6466382_640.jpg",
        "src1280": "https://cdn.pixabay.com/photo/2021/07/14/15/43/woman-6466382_1280.jpg"
    },
    {
        "id": "7855265",
        "src640": "https://cdn.pixabay.com/photo/2023/03/15/19/32/lilies-7855265_640.jpg",
        "src1280": "https://cdn.pixabay.com/photo/2023/03/15/19/32/lilies-7855265_1280.jpg"
    },
    {
        "id": "1512646",
        "src640": "https://cdn.pixabay.com/photo/2016/07/12/17/30/flowers-1512646_640.jpg",
        "src1280": "https://cdn.pixabay.com/photo/2016/07/12/17/30/flowers-1512646_1280.jpg"
    },
    {
        "id": "6115719",
        "src640": "https://cdn.pixabay.com/photo/2021/03/22/21/04/house-6115719_640.jpg",
        "src1280": "https://cdn.pixabay.com/photo/2021/03/22/21/04/house-6115719_1280.jpg"
    },
    {
        "id": "4919334",
        "src640": "https://cdn.pixabay.com/photo/2020/03/10/15/54/dandelion-4919334_640.jpg",
        "src1280": "https://cdn.pixabay.com/photo/2020/03/10/15/54/dandelion-4919334_1280.jpg"
    },
    {
        "id": "7625140",
        "src640": "https://cdn.pixabay.com/photo/2022/11/29/19/05/boho-7625140_640.jpg",
        "src1280": "https://cdn.pixabay.com/photo/2022/11/29/19/05/boho-7625140_1280.jpg"
    },
    {
        "id": "5376",
        "src640": "https://cdn.pixabay.com/photo/2011/03/16/16/12/tree-5376_640.jpg",
        "src1280": "https://cdn.pixabay.com/photo/2011/03/16/16/12/tree-5376_1280.jpg"
    },
    {
        "id": "8416208",
        "src640": "https://cdn.pixabay.com/photo/2023/11/27/21/15/bird-8416208_640.jpg",
        "src1280": "https://cdn.pixabay.com/photo/2023/11/27/21/15/bird-8416208_1280.jpg"
    },
    {
        "id": "4050336",
        "src640": "https://cdn.pixabay.com/photo/2019/03/12/10/08/grass-4050336_640.jpg",
        "src1280": "https://cdn.pixabay.com/photo/2019/03/12/10/08/grass-4050336_1280.jpg"
    },
    {
        "id": "5157666",
        "src640": "https://cdn.pixabay.com/photo/2020/05/11/11/23/woman-5157666_640.jpg",
        "src1280": "https://cdn.pixabay.com/photo/2020/05/11/11/23/woman-5157666_1280.jpg"
    },
    {
        "id": "1434536",
        "src640": "https://cdn.pixabay.com/photo/2016/06/03/21/47/flowers-1434536_640.jpg",
        "src1280": "https://cdn.pixabay.com/photo/2016/06/03/21/47/flowers-1434536_1280.jpg"
    },
    {
        "id": "7155181",
        "src640": "https://cdn.pixabay.com/photo/2022/04/25/06/22/feather-7155181_640.jpg",
        "src1280": "https://cdn.pixabay.com/photo/2022/04/25/06/22/feather-7155181_1280.jpg"
    },
    {
        "id": "7904985",
        "src640": "https://cdn.pixabay.com/photo/2023/04/06/19/11/flower-7904985_640.jpg",
        "src1280": "https://cdn.pixabay.com/photo/2023/04/06/19/11/flower-7904985_1280.jpg"
    },
    {
        "id": "5326194",
        "src640": "https://cdn.pixabay.com/photo/2020/06/21/18/23/tea-5326194_640.jpg",
        "src1280": "https://cdn.pixabay.com/photo/2020/06/21/18/23/tea-5326194_1280.jpg"
    },
    {
        "id": "7638368",
        "src640": "https://cdn.pixabay.com/photo/2022/12/06/06/21/lavender-7638368_640.jpg",
        "src1280": "https://cdn.pixabay.com/photo/2022/12/06/06/21/lavender-7638368_1280.jpg"
    },
    {
        "id": "3016761",
        "src640": "https://cdn.pixabay.com/photo/2017/12/13/13/16/fruit-3016761_640.jpg",
        "src1280": "https://cdn.pixabay.com/photo/2017/12/13/13/16/fruit-3016761_1280.jpg"
    },
    {
        "id": "263234",
        "src640": "https://cdn.pixabay.com/photo/2014/02/10/00/32/flower-263234_640.jpg",
        "src1280": "https://cdn.pixabay.com/photo/2014/02/10/00/32/flower-263234_1280.jpg"
    },
    {
        "id": "6315800",
        "src640": "https://cdn.pixabay.com/photo/2021/06/06/16/32/flowers-6315800_640.jpg",
        "src1280": "https://cdn.pixabay.com/photo/2021/06/06/16/32/flowers-6315800_1280.jpg"
    },
    {
        "id": "7700011",
        "src640": "https://cdn.pixabay.com/photo/2023/01/05/22/35/flower-7700011_640.jpg",
        "src1280": "https://cdn.pixabay.com/photo/2023/01/05/22/35/flower-7700011_1280.jpg"
    },
    {
        "id": "5074889",
        "src640": "https://cdn.pixabay.com/photo/2020/04/21/22/22/background-5074889_640.jpg",
        "src1280": "https://cdn.pixabay.com/photo/2020/04/21/22/22/background-5074889_1280.jpg"
    },
    {
        "id": "7878054",
        "src640": "https://cdn.pixabay.com/photo/2023/03/26/10/46/flower-7878054_640.jpg",
        "src1280": "https://cdn.pixabay.com/photo/2023/03/26/10/46/flower-7878054_1280.jpg"
    },
    {
        "id": "4916584",
        "src640": "https://cdn.pixabay.com/photo/2020/03/09/17/51/narcis-4916584_640.jpg",
        "src1280": "https://cdn.pixabay.com/photo/2020/03/09/17/51/narcis-4916584_1280.jpg"
    },
    {
        "id": "4985244",
        "src640": "https://cdn.pixabay.com/photo/2020/03/30/19/20/gypsophila-4985244_640.jpg",
        "src1280": "https://cdn.pixabay.com/photo/2020/03/30/19/20/gypsophila-4985244_1280.jpg"
    },
    {
        "id": "7498322",
        "src640": "https://cdn.pixabay.com/photo/2022/10/04/14/18/botanical-7498322_640.jpg",
        "src1280": "https://cdn.pixabay.com/photo/2022/10/04/14/18/botanical-7498322_1280.jpg"
    },
    {
        "id": "4476373",
        "src640": "https://cdn.pixabay.com/photo/2019/09/14/15/27/flower-4476373_640.jpg",
        "src1280": "https://cdn.pixabay.com/photo/2019/09/14/15/27/flower-4476373_1280.jpg"
    },
    {
        "id": "8416206",
        "src640": "https://cdn.pixabay.com/photo/2023/11/27/21/14/birds-8416206_640.jpg",
        "src1280": "https://cdn.pixabay.com/photo/2023/11/27/21/14/birds-8416206_1280.jpg"
    },
    {
        "id": "1316128",
        "src640": "https://cdn.pixabay.com/photo/2016/04/08/13/52/daffodils-1316128_640.jpg",
        "src1280": "https://cdn.pixabay.com/photo/2016/04/08/13/52/daffodils-1316128_1280.jpg"
    },
    {
        "id": "8184126",
        "src640": "https://cdn.pixabay.com/photo/2023/08/11/18/35/flowers-8184126_640.jpg",
        "src1280": "https://cdn.pixabay.com/photo/2023/08/11/18/35/flowers-8184126_1280.jpg"
    },
    {
        "id": "5096532",
        "src640": "https://cdn.pixabay.com/photo/2020/04/26/18/16/floral-5096532_640.jpg",
        "src1280": "https://cdn.pixabay.com/photo/2020/04/26/18/16/floral-5096532_1280.jpg"
    },
    {
        "id": "3383712",
        "src640": "https://cdn.pixabay.com/photo/2018/05/08/19/31/flower-3383712_640.jpg",
        "src1280": "https://cdn.pixabay.com/photo/2018/05/08/19/31/flower-3383712_1280.jpg"
    },
    {
        "id": "8215514",
        "src640": "https://cdn.pixabay.com/photo/2023/08/26/17/49/dahlias-8215514_640.jpg",
        "src1280": "https://cdn.pixabay.com/photo/2023/08/26/17/49/dahlias-8215514_1280.jpg"
    },
    {
        "id": "4487710",
        "src640": "https://cdn.pixabay.com/photo/2019/09/18/21/31/sea-4487710_640.jpg",
        "src1280": "https://cdn.pixabay.com/photo/2019/09/18/21/31/sea-4487710_1280.jpg"
    },
    {
        "id": "991215",
        "src640": "https://cdn.pixabay.com/photo/2015/10/16/13/45/ranunculus-991215_640.jpg",
        "src1280": "https://cdn.pixabay.com/photo/2015/10/16/13/45/ranunculus-991215_1280.jpg"
    },
    {
        "id": "8049076",
        "src640": "https://cdn.pixabay.com/photo/2023/06/08/08/27/plant-8049076_640.jpg",
        "src1280": "https://cdn.pixabay.com/photo/2023/06/08/08/27/plant-8049076_1280.jpg"
    },
    {
        "id": "6959585",
        "src640": "https://cdn.pixabay.com/photo/2022/01/23/01/44/blue-feather-6959585_640.jpg",
        "src1280": "https://cdn.pixabay.com/photo/2022/01/23/01/44/blue-feather-6959585_1280.jpg"
    },
    {
        "id": "3209128",
        "src640": "https://cdn.pixabay.com/photo/2018/03/08/17/02/flowers-3209128_640.jpg",
        "src1280": "https://cdn.pixabay.com/photo/2018/03/08/17/02/flowers-3209128_1280.jpg"
    },
    {
        "id": "8177578",
        "src640": "https://cdn.pixabay.com/photo/2023/08/08/15/01/flower-8177578_640.jpg",
        "src1280": "https://cdn.pixabay.com/photo/2023/08/08/15/01/flower-8177578_1280.jpg"
    },
    {
        "id": "2226095",
        "src640": "https://cdn.pixabay.com/photo/2017/04/12/23/23/wild-flower-2226095_640.jpg",
        "src1280": "https://cdn.pixabay.com/photo/2017/04/12/23/23/wild-flower-2226095_1280.jpg"
    },
    {
        "id": "4968242",
        "src640": "https://cdn.pixabay.com/photo/2020/03/25/18/33/drip-4968242_640.jpg",
        "src1280": "https://cdn.pixabay.com/photo/2020/03/25/18/33/drip-4968242_1280.jpg"
    },
    {
        "id": "558122",
        "src640": "https://cdn.pixabay.com/photo/2014/12/05/15/33/lamps-558122_640.jpg",
        "src1280": "https://cdn.pixabay.com/photo/2014/12/05/15/33/lamps-558122_1280.jpg"
    },
    {
        "id": "4185917",
        "src640": "https://cdn.pixabay.com/photo/2019/05/07/12/54/girl-4185917_640.jpg",
        "src1280": "https://cdn.pixabay.com/photo/2019/05/07/12/54/girl-4185917_1280.jpg"
    },
    {
        "id": "7108498",
        "src640": "https://cdn.pixabay.com/photo/2022/04/03/09/40/background-7108498_640.jpg",
        "src1280": "https://cdn.pixabay.com/photo/2022/04/03/09/40/background-7108498_1280.jpg"
    },
    {
        "id": "452491",
        "src640": "https://cdn.pixabay.com/photo/2014/09/19/13/37/lily-452491_640.jpg",
        "src1280": "https://cdn.pixabay.com/photo/2014/09/19/13/37/lily-452491_1280.jpg"
    },
    {
        "id": "3524000",
        "src640": "https://cdn.pixabay.com/photo/2018/07/08/14/19/marigold-3524000_640.jpg",
        "src1280": "https://cdn.pixabay.com/photo/2018/07/08/14/19/marigold-3524000_1280.jpg"
    },
    {
        "id": "1621990",
        "src640": "https://cdn.pixabay.com/photo/2016/08/26/12/03/sunflower-1621990_640.jpg",
        "src1280": "https://cdn.pixabay.com/photo/2016/08/26/12/03/sunflower-1621990_1280.jpg"
    },
    {
        "id": "3323903",
        "src640": "https://cdn.pixabay.com/photo/2018/04/16/08/36/bridal-bouquet-3323903_640.jpg",
        "src1280": "https://cdn.pixabay.com/photo/2018/04/16/08/36/bridal-bouquet-3323903_1280.jpg"
    },
    {
        "id": "7105626",
        "src640": "https://cdn.pixabay.com/photo/2022/04/01/20/37/moon-7105626_640.jpg",
        "src1280": "https://cdn.pixabay.com/photo/2022/04/01/20/37/moon-7105626_1280.jpg"
    },
    {
        "id": "234952",
        "src640": "https://cdn.pixabay.com/photo/2013/12/29/00/51/flower-234952_640.jpg",
        "src1280": "https://cdn.pixabay.com/photo/2013/12/29/00/51/flower-234952_1280.jpg"
    },
    {
        "id": "6284729",
        "src640": "https://cdn.pixabay.com/photo/2021/05/26/10/02/tulips-6284729_640.jpg",
        "src1280": "https://cdn.pixabay.com/photo/2021/05/26/10/02/tulips-6284729_1280.jpg"
    },
    {
        "id": "7233992",
        "src640": "https://cdn.pixabay.com/photo/2022/05/31/18/17/flowers-7233992_640.jpg",
        "src1280": "https://cdn.pixabay.com/photo/2022/05/31/18/17/flowers-7233992_1280.jpg"
    },
    {
        "id": "4886604",
        "src640": "https://cdn.pixabay.com/photo/2020/02/28/06/38/tulips-4886604_640.jpg",
        "src1280": "https://cdn.pixabay.com/photo/2020/02/28/06/38/tulips-4886604_1280.jpg"
    },
    {
        "id": "646637",
        "src640": "https://cdn.pixabay.com/photo/2015/02/23/20/49/flowers-646637_640.jpg",
        "src1280": "https://cdn.pixabay.com/photo/2015/02/23/20/49/flowers-646637_1280.jpg"
    },
    {
        "id": "7852923",
        "src640": "https://cdn.pixabay.com/photo/2023/03/14/18/22/boho-7852923_640.jpg",
        "src1280": "https://cdn.pixabay.com/photo/2023/03/14/18/22/boho-7852923_1280.jpg"
    },
    {
        "id": "7188503",
        "src640": "https://cdn.pixabay.com/photo/2022/05/11/06/00/flowers-7188503_640.jpg",
        "src1280": "https://cdn.pixabay.com/photo/2022/05/11/06/00/flowers-7188503_1280.jpg"
    },
    {
        "id": "7861255",
        "src640": "https://cdn.pixabay.com/photo/2023/03/18/19/46/botany-7861255_640.jpg",
        "src1280": "https://cdn.pixabay.com/photo/2023/03/18/19/46/botany-7861255_1280.jpg"
    },
    {
        "id": "6987522",
        "src640": "https://cdn.pixabay.com/photo/2022/02/02/04/36/sketch-6987522_640.jpg",
        "src1280": "https://cdn.pixabay.com/photo/2022/02/02/04/36/sketch-6987522_1280.jpg"
    },
    {
        "id": "7630520",
        "src640": "https://cdn.pixabay.com/photo/2022/12/02/08/30/raspberry-7630520_640.jpg",
        "src1280": "https://cdn.pixabay.com/photo/2022/12/02/08/30/raspberry-7630520_1280.jpg"
    },
    {
        "id": "1705135",
        "src640": "https://cdn.pixabay.com/photo/2016/09/30/12/02/camera-1705135_640.jpg",
        "src1280": "https://cdn.pixabay.com/photo/2016/09/30/12/02/camera-1705135_1280.jpg"
    },
    {
        "id": "8022731",
        "src640": "https://cdn.pixabay.com/photo/2023/05/28/03/34/flowers-8022731_640.jpg",
        "src1280": "https://cdn.pixabay.com/photo/2023/05/28/03/34/flowers-8022731_1280.jpg"
    },
    {
        "id": "4195181",
        "src640": "https://cdn.pixabay.com/photo/2019/05/11/06/15/flowers-4195181_640.jpg",
        "src1280": "https://cdn.pixabay.com/photo/2019/05/11/06/15/flowers-4195181_1280.jpg"
    },
    {
        "id": "5807013",
        "src640": "https://cdn.pixabay.com/photo/2020/12/05/19/47/smoke-art-5807013_640.jpg",
        "src1280": "https://cdn.pixabay.com/photo/2020/12/05/19/47/smoke-art-5807013_1280.jpg"
    },
    {
        "id": "3937297",
        "src640": "https://cdn.pixabay.com/photo/2019/01/17/08/23/flowers-3937297_640.jpg",
        "src1280": "https://cdn.pixabay.com/photo/2019/01/17/08/23/flowers-3937297_1280.jpg"
    },
    {
        "id": "7768218",
        "src640": "https://cdn.pixabay.com/photo/2023/02/04/21/32/flowers-7768218_640.jpg",
        "src1280": "https://cdn.pixabay.com/photo/2023/02/04/21/32/flowers-7768218_1280.jpg"
    },
    {
        "id": "7844173",
        "src640": "https://cdn.pixabay.com/photo/2023/03/11/10/42/plants-7844173_640.jpg",
        "src1280": "https://cdn.pixabay.com/photo/2023/03/11/10/42/plants-7844173_1280.jpg"
    },
    {
        "id": "1319325",
        "src640": "https://cdn.pixabay.com/photo/2016/04/10/02/38/nature-1319325_640.jpg",
        "src1280": "https://cdn.pixabay.com/photo/2016/04/10/02/38/nature-1319325_1280.jpg"
    },
    {
        "id": "1411992",
        "src640": "https://cdn.pixabay.com/photo/2016/05/24/09/27/bellflowers-1411992_640.jpg",
        "src1280": "https://cdn.pixabay.com/photo/2016/05/24/09/27/bellflowers-1411992_1280.jpg"
    },
    {
        "id": "7504222",
        "src640": "https://cdn.pixabay.com/photo/2022/10/07/06/11/verbena-7504222_640.jpg",
        "src1280": "https://cdn.pixabay.com/photo/2022/10/07/06/11/verbena-7504222_1280.jpg"
    },
    {
        "id": "8079524",
        "src640": "https://cdn.pixabay.com/photo/2023/06/21/15/07/butterfly-8079524_640.jpg",
        "src1280": "https://cdn.pixabay.com/photo/2023/06/21/15/07/butterfly-8079524_1280.jpg"
    },
    {
        "id": "7445243",
        "src640": "https://cdn.pixabay.com/photo/2022/09/10/15/13/sky-7445243_640.jpg",
        "src1280": "https://cdn.pixabay.com/photo/2022/09/10/15/13/sky-7445243_1280.jpg"
    },
    {
        "id": "7733877",
        "src640": "https://cdn.pixabay.com/photo/2023/01/21/13/39/trees-7733877_640.jpg",
        "src1280": "https://cdn.pixabay.com/photo/2023/01/21/13/39/trees-7733877_1280.jpg"
    },
    {
        "id": "4686590",
        "src640": "https://cdn.pixabay.com/photo/2019/12/10/19/15/christmas-4686590_640.jpg",
        "src1280": "https://cdn.pixabay.com/photo/2019/12/10/19/15/christmas-4686590_1280.jpg"
    },
    {
        "id": "6093230",
        "src640": "https://cdn.pixabay.com/photo/2021/03/14/02/50/child-6093230_640.jpg",
        "src1280": "https://cdn.pixabay.com/photo/2021/03/14/02/50/child-6093230_1280.jpg"
    },
    {
        "id": "8056663",
        "src640": "https://cdn.pixabay.com/photo/2023/06/11/19/09/fruit-8056663_640.jpg",
        "src1280": "https://cdn.pixabay.com/photo/2023/06/11/19/09/fruit-8056663_1280.jpg"
    },
    {
        "id": "8336583",
        "src640": "https://cdn.pixabay.com/photo/2023/10/23/17/53/bird-8336583_640.jpg",
        "src1280": "https://cdn.pixabay.com/photo/2023/10/23/17/53/bird-8336583_1280.jpg"
    },
    {
        "id": "4605815",
        "src640": "https://cdn.pixabay.com/photo/2019/11/06/10/44/fire-4605815_640.jpg",
        "src1280": "https://cdn.pixabay.com/photo/2019/11/06/10/44/fire-4605815_1280.jpg"
    },
    {
        "id": "7098126",
        "src640": "https://cdn.pixabay.com/photo/2022/03/28/18/41/coffee-7098126_640.jpg",
        "src1280": "https://cdn.pixabay.com/photo/2022/03/28/18/41/coffee-7098126_1280.jpg"
    },
    {
        "id": "7927829",
        "src640": "https://cdn.pixabay.com/photo/2023/04/15/14/21/bird-7927829_640.jpg",
        "src1280": "https://cdn.pixabay.com/photo/2023/04/15/14/21/bird-7927829_1280.jpg"
    },
    {
        "id": "4238686",
        "src640": "https://cdn.pixabay.com/photo/2019/05/29/22/03/rose-4238686_640.jpg",
        "src1280": "https://cdn.pixabay.com/photo/2019/05/29/22/03/rose-4238686_1280.jpg"
    },
    {
        "id": "2004492",
        "src640": "https://cdn.pixabay.com/photo/2017/01/24/03/54/plants-2004492_640.jpg",
        "src1280": "https://cdn.pixabay.com/photo/2017/01/24/03/54/plants-2004492_1280.jpg"
    },
    {
        "id": "6125690",
        "src640": "https://cdn.pixabay.com/photo/2021/03/26/11/41/couple-6125690_640.jpg",
        "src1280": "https://cdn.pixabay.com/photo/2021/03/26/11/41/couple-6125690_1280.jpg"
    }
]