[
    {
        "id": "4644826",
        "src640": "https://cdn.pixabay.com/photo/2019/11/22/13/04/rose-4644826_640.jpg",
        "src1280": "https://cdn.pixabay.com/photo/2019/11/22/13/04/rose-4644826_1280.jpg"
    },
    {
        "id": "1785084",
        "src640": "https://cdn.pixabay.com/photo/2016/10/31/08/28/bluebells-1785084_640.jpg",
        "src1280": "https://cdn.pixabay.com/photo/2016/10/31/08/28/bluebells-1785084_1280.jpg"
    },
    {
        "id": "4981765",
        "src640": "https://cdn.pixabay.com/photo/2020/03/29/18/33/glass-4981765_640.jpg",
        "src1280": "https://cdn.pixabay.com/photo/2020/03/29/18/33/glass-4981765_1280.jpg"
    },
    {
        "id": "6585840",
        "src640": "https://cdn.pixabay.com/photo/2021/08/30/13/35/sunflowers-6585840_640.jpg",
        "src1280": "https://cdn.pixabay.com/photo/2021/08/30/13/35/sunflowers-6585840_1280.jpg"
    },
    {
        "id": "7391012",
        "src640": "https://cdn.pixabay.com/photo/2022/08/16/19/23/flower-7391012_640.jpg",
        "src1280": "https://cdn.pixabay.com/photo/2022/08/16/19/23/flower-7391012_1280.jpg"
    },
    {
        "id": "634179",
        "src640": "https://cdn.pixabay.com/photo/2015/02/12/20/29/dandelion-634179_640.jpg",
        "src1280": "https://cdn.pixabay.com/photo/2015/02/12/20/29/dandelion-634179_1280.jpg"
    },
    {
        "id": "2932298",
        "src640": "https://cdn.pixabay.com/photo/2017/11/09/03/33/flowers-2932298_640.jpg",
        "src1280": "https://cdn.pixabay.com/photo/2017/11/09/03/33/flowers-2932298_1280.jpg"
    },
    {
        "id": "7030861",
        "src640": "https://cdn.pixabay.com/photo/2022/02/23/15/41/window-7030861_640.jpg",
        "src1280": "https://cdn.pixabay.com/photo/2022/02/23/15/41/window-7030861_1280.jpg"
    },
    {
        "id": "2889414",
        "src640": "https://cdn.pixabay.com/photo/2017/10/25/21/38/flower-2889414_640.jpg",
        "src1280": "https://cdn.pixabay.com/photo/2017/10/25/21/38/flower-2889414_1280.jpg"
    },
    {
        "id": "167464",
        "src640": "https://cdn.pixabay.com/photo/2013/07/26/05/48/large-speedwell-167464_640.jpg",
        "src1280": "https://cdn.pixabay.com/photo/2013/07/26/05/48/large-speedwell-167464_1280.jpg"
    },
    {
        "id": "6747064",
        "src640": "https://cdn.pixabay.com/photo/2021/10/27/11/33/art-6747064_640.jpg",
        "src1280": "https://cdn.pixabay.com/photo/2021/10/27/11/33/art-6747064_1280.jpg"
    },
    {
        "id": "6498576",
        "src640": "https://cdn.pixabay.com/photo/2021/07/28/08/29/lotus-6498576_640.jpg",
        "src1280": "https://cdn.pixabay.com/photo/2021/07/28/08/29/lotus-6498576_1280.jpg"
    },
    {
        "id": "4085942",
        "src640": "https://cdn.pixabay.com/photo/2019/03/27/21/40/flowers-4085942_640.jpg",
        "src1280": "https://cdn.pixabay.com/photo/2019/03/27/21/40/flowers-4085942_1280.jpg"
    },
    {
        "id": "7465765",
        "src640": "https://cdn.pixabay.com/photo/2022/09/19/14/53/flower-7465765_640.jpg",
        "src1280": "https://cdn.pixabay.com/photo/2022/09/19/14/53/flower-7465765_1280.jpg"
    },
    {
        "id": "2352326",
        "src640": "https://cdn.pixabay.com/photo/2017/05/28/21/34/poppy-2352326_640.jpg",
        "src1280": "https://cdn.pixabay.com/photo/2017/05/28/21/34/poppy-2352326_1280.jpg"
    },
    {
        "id": "177394",
        "src640": "https://cdn.pixabay.com/photo/2013/08/30/12/51/flowers-177394_640.jpg",
        "src1280": "https://cdn.pixabay.com/photo/2013/08/30/12/51/flowers-177394_1280.jpg"
    },
    {
        "id": "5202782",
        "src640": "https://cdn.pixabay.com/photo/2020/05/21/21/06/nature-5202782_640.jpg",
        "src1280": "https://cdn.pixabay.com/photo/2020/05/21/21/06/nature-5202782_1280.jpg"
    },
    {
        "id": "6380470",
        "src640": "https://cdn.pixabay.com/photo/2021/07/01/22/35/poppy-6380470_640.jpg",
        "src1280": "https://cdn.pixabay.com/photo/2021/07/01/22/35/poppy-6380470_1280.jpg"
    },
    {
        "id": "3290608",
        "src640": "https://cdn.pixabay.com/photo/2018/04/04/18/31/flower-3290608_640.jpg",
        "src1280": "https://cdn.pixabay.com/photo/2018/04/04/18/31/flower-3290608_1280.jpg"
    },
    {
        "id": "7338678",
        "src640": "https://cdn.pixabay.com/photo/2022/07/22/18/04/butterfly-7338678_640.jpg",
        "src1280": "https://cdn.pixabay.com/photo/2022/07/22/18/04/butterfly-7338678_1280.jpg"
    },
    {
        "id": "6489702",
        "src640": "https://cdn.pixabay.com/photo/2021/07/24/14/53/water-lily-6489702_640.jpg",
        "src1280": "https://cdn.pixabay.com/photo/2021/07/24/14/53/water-lily-6489702_1280.jpg"
    },
    {
        "id": "5093421",
        "src640": "https://cdn.pixabay.com/photo/2020/04/26/03/48/portrait-5093421_640.jpg",
        "src1280": "https://cdn.pixabay.com/photo/2020/04/26/03/48/portrait-5093421_1280.jpg"
    },
    {
        "id": "2352294",
        "src640": "https://cdn.pixabay.com/photo/2017/05/28/21/16/tulips-2352294_640.jpg",
        "src1280": "https://cdn.pixabay.com/photo/2017/05/28/21/16/tulips-2352294_1280.jpg"
    },
    {
        "id": "6519267",
        "src640": "https://cdn.pixabay.com/photo/2021/08/03/11/59/butterfly-6519267_640.jpg",
        "src1280": "https://cdn.pixabay.com/photo/2021/08/03/11/59/butterfly-6519267_1280.jpg"
    },
    {
        "id": "649692",
        "src640": "https://cdn.pixabay.com/photo/2015/02/25/22/55/flowers-649692_640.jpg",
        "src1280": "https://cdn.pixabay.com/photo/2015/02/25/22/55/flowers-649692_1280.jpg"
    },
    {
        "id": "6218017",
        "src640": "https://cdn.pixabay.com/photo/2021/04/30/06/36/wild-tulip-6218017_640.jpg",
        "src1280": "https://cdn.pixabay.com/photo/2021/04/30/06/36/wild-tulip-6218017_1280.jpg"
    },
    {
        "id": "21379",
        "src640": "https://cdn.pixabay.com/photo/2012/03/02/15/15/red-poppy-21379_640.jpg",
        "src1280": "https://cdn.pixabay.com/photo/2012/03/02/15/15/red-poppy-21379_1280.jpg"
    },
    {
        "id": "53067",
        "src640": "https://cdn.pixabay.com/photo/2012/07/27/13/11/pavonie-53067_640.jpg",
        "src1280": "https://cdn.pixabay.com/photo/2012/07/27/13/11/pavonie-53067_1280.jpg"
    },
    {
        "id": "363795",
        "src640": "https://cdn.pixabay.com/photo/2014/06/06/20/07/bouquet-of-flowers-363795_640.jpg",
        "src1280": "https://cdn.pixabay.com/photo/2014/06/06/20/07/bouquet-of-flowers-363795_1280.jpg"
    },
    {
        "id": "3171201",
        "src640": "https://cdn.pixabay.com/photo/2018/02/21/18/56/tree-3171201_640.jpg",
        "src1280": "https://cdn.pixabay.com/photo/2018/02/21/18/56/tree-3171201_1280.jpg"
    },
    {
        "id": "183700",
        "src640": "https://cdn.pixabay.com/photo/2013/09/19/06/58/garden-183700_640.jpg",
        "src1280": "https://cdn.pixabay.com/photo/2013/09/19/06/58/garden-183700_1280.jpg"
    },
    {
        "id": "5612601",
        "src640": "https://cdn.pixabay.com/photo/2020/09/29/11/54/flowers-5612601_640.jpg",
        "src1280": "https://cdn.pixabay.com/photo/2020/09/29/11/54/flowers-5612601_1280.jpg"
    },
    {
        "id": "3163345",
        "src640": "https://cdn.pixabay.com/photo/2018/02/18/20/03/tulip-3163345_640.jpg",
        "src1280": "https://cdn.pixabay.com/photo/2018/02/18/20/03/tulip-3163345_1280.jpg"
    },
    {
        "id": "2930263",
        "src640": "https://cdn.pixabay.com/photo/2017/11/08/12/22/snow-man-2930263_640.jpg",
        "src1280": "https://cdn.pixabay.com/photo/2017/11/08/12/22/snow-man-2930263_1280.jpg"
    },
    {
        "id": "178658",
        "src640": "https://cdn.pixabay.com/photo/2013/09/03/18/48/flower-178658_640.jpg",
        "src1280": "https://cdn.pixabay.com/photo/2013/09/03/18/48/flower-178658_1280.jpg"
    },
    {
        "id": "2770575",
        "src640": "https://cdn.pixabay.com/photo/2017/09/21/04/21/the-leaves-2770575_640.jpg",
        "src1280": "https://cdn.pixabay.com/photo/2017/09/21/04/21/the-leaves-2770575_1280.jpg"
    },
    {
        "id": "4721147",
        "src640": "https://cdn.pixabay.com/photo/2019/12/26/20/16/trifolium-rubens-4721147_640.jpg",
        "src1280": "https://cdn.pixabay.com/photo/2019/12/26/20/16/trifolium-rubens-4721147_1280.jpg"
    },
    {
        "id": "6489998",
        "src640": "https://cdn.pixabay.com/photo/2021/07/24/16/59/flower-6489998_640.jpg",
        "src1280": "https://cdn.pixabay.com/photo/2021/07/24/16/59/flower-6489998_1280.jpg"
    },
    {
        "id": "6211874",
        "src640": "https://cdn.pixabay.com/photo/2021/04/27/16/08/avocados-6211874_640.jpg",
        "src1280": "https://cdn.pixabay.com/photo/2021/04/27/16/08/avocados-6211874_1280.jpg"
    },
    {
        "id": "5648445",
        "src640": "https://cdn.pixabay.com/photo/2020/10/12/10/50/flower-5648445_640.jpg",
        "src1280": "https://cdn.pixabay.com/photo/2020/10/12/10/50/flower-5648445_1280.jpg"
    },
    {
        "id": "6374761",
        "src640": "https://cdn.pixabay.com/photo/2021/06/29/18/05/girl-6374761_640.jpg",
        "src1280": "https://cdn.pixabay.com/photo/2021/06/29/18/05/girl-6374761_1280.jpg"
    },
    {
        "id": "6868555",
        "src640": "https://cdn.pixabay.com/photo/2021/12/13/15/56/dahlia-6868555_640.jpg",
        "src1280": "https://cdn.pixabay.com/photo/2021/12/13/15/56/dahlia-6868555_1280.jpg"
    },
    {
        "id": "7313708",
        "src640": "https://cdn.pixabay.com/photo/2022/07/10/20/21/field-7313708_640.jpg",
        "src1280": "https://cdn.pixabay.com/photo/2022/07/10/20/21/field-7313708_1280.jpg"
    },
    {
        "id": "5126483",
        "src640": "https://cdn.pixabay.com/photo/2020/05/03/19/44/flower-5126483_640.jpg",
        "src1280": "https://cdn.pixabay.com/photo/2020/05/03/19/44/flower-5126483_1280.jpg"
    },
    {
        "id": "6312634",
        "src640": "https://cdn.pixabay.com/photo/2021/06/05/13/10/kid-6312634_640.jpg",
        "src1280": "https://cdn.pixabay.com/photo/2021/06/05/13/10/kid-6312634_1280.jpg"
    },
    {
        "id": "7112083",
        "src640": "https://cdn.pixabay.com/photo/2022/04/04/18/31/sunset-7112083_640.jpg",
        "src1280": "https://cdn.pixabay.com/photo/2022/04/04/18/31/sunset-7112083_1280.jpg"
    },
    {
        "id": "6862388",
        "src640": "https://cdn.pixabay.com/photo/2021/12/11/10/03/daemon-6862388_640.jpg",
        "src1280": "https://cdn.pixabay.com/photo/2021/12/11/10/03/daemon-6862388_1280.jpg"
    },
    {
        "id": "7056185",
        "src640": "https://cdn.pixabay.com/photo/2022/03/08/17/08/flowers-7056185_640.jpg",
        "src1280": "https://cdn.pixabay.com/photo/2022/03/08/17/08/flowers-7056185_1280.jpg"
    },
    {
        "id": "8050099",
        "src640": "https://cdn.pixabay.com/photo/2023/06/08/18/11/woman-8050099_640.jpg",
        "src1280": "https://cdn.pixabay.com/photo/2023/06/08/18/11/woman-8050099_1280.jpg"
    },
    {
        "id": "1319404",
        "src640": "https://cdn.pixabay.com/photo/2016/04/10/06/08/lantana-1319404_640.jpg",
        "src1280": "https://cdn.pixabay.com/photo/2016/04/10/06/08/lantana-1319404_1280.jpg"
    },
    {
        "id": "327150",
        "src640": "https://cdn.pixabay.com/photo/2014/04/18/13/26/tulip-327150_640.jpg",
        "src1280": "https://cdn.pixabay.com/photo/2014/04/18/13/26/tulip-327150_1280.jpg"
    },
    {
        "id": "7736739",
        "src640": "https://cdn.pixabay.com/photo/2023/01/22/15/55/tulip-7736739_640.jpg",
        "src1280": "https://cdn.pixabay.com/photo/2023/01/22/15/55/tulip-7736739_1280.jpg"
    },
    {
        "id": "5251126",
        "src640": "https://cdn.pixabay.com/photo/2020/06/02/13/59/poppy-5251126_640.jpg",
        "src1280": "https://cdn.pixabay.com/photo/2020/06/02/13/59/poppy-5251126_1280.jpg"
    },
    {
        "id": "6574113",
        "src640": "https://cdn.pixabay.com/photo/2021/08/25/17/36/semprevivo-6574113_640.jpg",
        "src1280": "https://cdn.pixabay.com/photo/2021/08/25/17/36/semprevivo-6574113_1280.jpg"
    },
    {
        "id": "6160053",
        "src640": "https://cdn.pixabay.com/photo/2021/04/07/20/15/daffodil-6160053_640.jpg",
        "src1280": "https://cdn.pixabay.com/photo/2021/04/07/20/15/daffodil-6160053_1280.jpg"
    },
    {
        "id": "767093",
        "src640": "https://cdn.pixabay.com/photo/2015/05/14/17/58/colourful-767093_640.jpg",
        "src1280": "https://cdn.pixabay.com/photo/2015/05/14/17/58/colourful-767093_1280.jpg"
    },
    {
        "id": "7945834",
        "src640": "https://cdn.pixabay.com/photo/2023/04/23/14/33/woman-7945834_640.jpg",
        "src1280": "https://cdn.pixabay.com/photo/2023/04/23/14/33/woman-7945834_1280.jpg"
    },
    {
        "id": "167419",
        "src640": "https://cdn.pixabay.com/photo/2013/07/26/04/55/large-speedwell-167419_640.jpg",
        "src1280": "https://cdn.pixabay.com/photo/2013/07/26/04/55/large-speedwell-167419_1280.jpg"
    },
    {
        "id": "277981",
        "src640": "https://cdn.pixabay.com/photo/2014/03/02/08/34/red-tulips-277981_640.jpg",
        "src1280": "https://cdn.pixabay.com/photo/2014/03/02/08/34/red-tulips-277981_1280.jpg"
    },
    {
        "id": "22226",
        "src640": "https://cdn.pixabay.com/photo/2012/03/04/01/05/tulip-22226_640.jpg",
        "src1280": "https://cdn.pixabay.com/photo/2012/03/04/01/05/tulip-22226_1280.jpg"
    },
    {
        "id": "741193",
        "src640": "https://cdn.pixabay.com/photo/2015/04/26/23/28/flower-741193_640.jpg",
        "src1280": "https://cdn.pixabay.com/photo/2015/04/26/23/28/flower-741193_1280.jpg"
    },
    {
        "id": "8179262",
        "src640": "https://cdn.pixabay.com/photo/2023/08/09/11/28/woman-8179262_640.jpg",
        "src1280": "https://cdn.pixabay.com/photo/2023/08/09/11/28/woman-8179262_1280.jpg"
    },
    {
        "id": "5166352",
        "src640": "https://cdn.pixabay.com/photo/2020/05/13/07/54/flower-5166352_640.jpg",
        "src1280": "https://cdn.pixabay.com/photo/2020/05/13/07/54/flower-5166352_1280.jpg"
    },
    {
        "id": "4825524",
        "src640": "https://cdn.pixabay.com/photo/2020/02/06/21/11/padlock-4825524_640.jpg",
        "src1280": "https://cdn.pixabay.com/photo/2020/02/06/21/11/padlock-4825524_1280.jpg"
    },
    {
        "id": "234548",
        "src640": "https://cdn.pixabay.com/photo/2013/12/27/23/54/dahlias-234548_640.jpg",
        "src1280": "https://cdn.pixabay.com/photo/2013/12/27/23/54/dahlias-234548_1280.jpg"
    },
    {
        "id": "7270984",
        "src640": "https://cdn.pixabay.com/photo/2022/06/19/04/00/woman-7270984_640.jpg",
        "src1280": "https://cdn.pixabay.com/photo/2022/06/19/04/00/woman-7270984_1280.jpg"
    },
    {
        "id": "6061505",
        "src640": "https://cdn.pixabay.com/photo/2021/03/02/05/11/flower-6061505_640.jpg",
        "src1280": "https://cdn.pixabay.com/photo/2021/03/02/05/11/flower-6061505_1280.jpg"
    },
    {
        "id": "52155",
        "src640": "https://cdn.pixabay.com/photo/2012/07/09/12/49/flowers-52155_640.jpg",
        "src1280": "https://cdn.pixabay.com/photo/2012/07/09/12/49/flowers-52155_1280.jpg"
    },
    {
        "id": "846120",
        "src640": "https://cdn.pixabay.com/photo/2015/07/15/12/25/waterlily-846120_640.jpg",
        "src1280": "https://cdn.pixabay.com/photo/2015/07/15/12/25/waterlily-846120_1280.jpg"
    },
    {
        "id": "1814076",
        "src640": "https://cdn.pixabay.com/photo/2016/11/10/11/31/poppy-1814076_640.jpg",
        "src1280": "https://cdn.pixabay.com/photo/2016/11/10/11/31/poppy-1814076_1280.jpg"
    },
    {
        "id": "4591832",
        "src640": "https://cdn.pixabay.com/photo/2019/10/31/12/38/rainy-4591832_640.jpg",
        "src1280": "https://cdn.pixabay.com/photo/2019/10/31/12/38/rainy-4591832_1280.jpg"
    },
    {
        "id": "7469077",
        "src640": "https://cdn.pixabay.com/photo/2022/09/21/00/57/yellow-flower-7469077_640.jpg",
        "src1280": "https://cdn.pixabay.com/photo/2022/09/21/00/57/yellow-flower-7469077_1280.jpg"
    },
    {
        "id": "6290941",
        "src640": "https://cdn.pixabay.com/photo/2021/05/28/13/58/poppy-6290941_640.jpg",
        "src1280": "https://cdn.pixabay.com/photo/2021/05/28/13/58/poppy-6290941_1280.jpg"
    },
    {
        "id": "6275622",
        "src640": "https://cdn.pixabay.com/photo/2021/05/23/09/38/tulip-6275622_640.jpg",
        "src1280": "https://cdn.pixabay.com/photo/2021/05/23/09/38/tulip-6275622_1280.jpg"
    },
    {
        "id": "5596081",
        "src640": "https://cdn.pixabay.com/photo/2020/09/23/14/09/roses-5596081_640.jpg",
        "src1280": "https://cdn.pixabay.com/photo/2020/09/23/14/09/roses-5596081_1280.jpg"
    },
    {
        "id": "8460927",
        "src640": "https://cdn.pixabay.com/photo/2023/12/20/23/58/ai-generated-8460927_640.jpg",
        "src1280": "https://cdn.pixabay.com/photo/2023/12/20/23/58/ai-generated-8460927_1280.jpg"
    },
    {
        "id": "6597673",
        "src640": "https://cdn.pixabay.com/photo/2021/09/04/12/33/woman-6597673_640.jpg",
        "src1280": "https://cdn.pixabay.com/photo/2021/09/04/12/33/woman-6597673_1280.jpg"
    },
    {
        "id": "4724325",
        "src640": "https://cdn.pixabay.com/photo/2019/12/28/11/09/branch-4724325_640.jpg",
        "src1280": "https://cdn.pixabay.com/photo/2019/12/28/11/09/branch-4724325_1280.jpg"
    },
    {
        "id": "5136198",
        "src640": "https://cdn.pixabay.com/photo/2020/05/06/06/01/rose-5136198_640.jpg",
        "src1280": "https://cdn.pixabay.com/photo/2020/05/06/06/01/rose-5136198_1280.jpg"
    },
    {
        "id": "6076754",
        "src640": "https://cdn.pixabay.com/photo/2021/03/07/16/23/beauty-6076754_640.jpg",
        "src1280": "https://cdn.pixabay.com/photo/2021/03/07/16/23/beauty-6076754_1280.jpg"
    },
    {
        "id": "5785396",
        "src640": "https://cdn.pixabay.com/photo/2020/11/28/17/46/rose-5785396_640.jpg",
        "src1280": "https://cdn.pixabay.com/photo/2020/11/28/17/46/rose-5785396_1280.jpg"
    },
    {
        "id": "1194072",
        "src640": "https://cdn.pixabay.com/photo/2016/02/11/16/57/flower-1194072_640.jpg",
        "src1280": "https://cdn.pixabay.com/photo/2016/02/11/16/57/flower-1194072_1280.jpg"
    },
    {
        "id": "6955460",
        "src640": "https://cdn.pixabay.com/photo/2022/01/21/18/37/ice-rink-6955460_640.jpg",
        "src1280": "https://cdn.pixabay.com/photo/2022/01/21/18/37/ice-rink-6955460_1280.jpg"
    },
    {
        "id": "202592",
        "src640": "https://cdn.pixabay.com/photo/2013/10/29/20/02/building-202592_640.jpg",
        "src1280": "https://cdn.pixabay.com/photo/2013/10/29/20/02/building-202592_1280.jpg"
    },
    {
        "id": "7764874",
        "src640": "https://cdn.pixabay.com/photo/2023/02/03/12/07/tree-7764874_640.jpg",
        "src1280": "https://cdn.pixabay.com/photo/2023/02/03/12/07/tree-7764874_1280.jpg"
    },
    {
        "id": "6516969",
        "src640": "https://cdn.pixabay.com/photo/2021/08/02/14/50/butterflies-6516969_640.jpg",
        "src1280": "https://cdn.pixabay.com/photo/2021/08/02/14/50/butterflies-6516969_1280.jpg"
    },
    {
        "id": "2489812",
        "src640": "https://cdn.pixabay.com/photo/2017/07/10/11/23/image-2489812_640.jpg",
        "src1280": "https://cdn.pixabay.com/photo/2017/07/10/11/23/image-2489812_1280.jpg"
    },
    {
        "id": "7180491",
        "src640": "https://cdn.pixabay.com/photo/2022/05/07/14/42/tulip-7180491_640.jpg",
        "src1280": "https://cdn.pixabay.com/photo/2022/05/07/14/42/tulip-7180491_1280.jpg"
    },
    {
        "id": "8036283",
        "src640": "https://cdn.pixabay.com/photo/2023/06/02/19/52/flower-8036283_640.jpg",
        "src1280": "https://cdn.pixabay.com/photo/2023/06/02/19/52/flower-8036283_1280.jpg"
    },
    {
        "id": "364734",
        "src640": "https://cdn.pixabay.com/photo/2014/06/08/06/01/lilies-364734_640.jpg",
        "src1280": "https://cdn.pixabay.com/photo/2014/06/08/06/01/lilies-364734_1280.jpg"
    },
    {
        "id": "1409811",
        "src640": "https://cdn.pixabay.com/photo/2016/05/23/07/09/ibiscus-1409811_640.jpg",
        "src1280": "https://cdn.pixabay.com/photo/2016/05/23/07/09/ibiscus-1409811_1280.jpg"
    },
    {
        "id": "3680989",
        "src640": "https://cdn.pixabay.com/photo/2018/09/16/09/47/green-3680989_640.jpg",
        "src1280": "https://cdn.pixabay.com/photo/2018/09/16/09/47/green-3680989_1280.jpg"
    },
    {
        "id": "6978232",
        "src640": "https://cdn.pixabay.com/photo/2022/01/29/17/59/flower-6978232_640.jpg",
        "src1280": "https://cdn.pixabay.com/photo/2022/01/29/17/59/flower-6978232_1280.jpg"
    }
]