[
    {
        "id": "3445767",
        "src640": "https://cdn.pixabay.com/photo/2018/06/01/06/00/rose-3445767_640.jpg",
        "src1280": "https://cdn.pixabay.com/photo/2018/06/01/06/00/rose-3445767_1280.jpg"
    },
    {
        "id": "4639257",
        "src640": "https://cdn.pixabay.com/photo/2019/11/20/06/17/macro-4639257_640.jpg",
        "src1280": "https://cdn.pixabay.com/photo/2019/11/20/06/17/macro-4639257_1280.jpg"
    },
    {
        "id": "4067873",
        "src640": "https://cdn.pixabay.com/photo/2019/03/20/07/30/flowers-4067873_640.jpg",
        "src1280": "https://cdn.pixabay.com/photo/2019/03/20/07/30/flowers-4067873_1280.jpg"
    },
    {
        "id": "5948708",
        "src640": "https://cdn.pixabay.com/photo/2021/01/25/15/54/tulip-5948708_640.jpg",
        "src1280": "https://cdn.pixabay.com/photo/2021/01/25/15/54/tulip-5948708_1280.jpg"
    },
    {
        "id": "6363066",
        "src640": "https://cdn.pixabay.com/photo/2021/06/25/07/46/sunflowers-6363066_640.jpg",
        "src1280": "https://cdn.pixabay.com/photo/2021/06/25/07/46/sunflowers-6363066_1280.jpg"
    },
    {
        "id": "8052826",
        "src640": "https://cdn.pixabay.com/photo/2023/06/09/23/32/pretty-8052826_640.jpg",
        "src1280": "https://cdn.pixabay.com/photo/2023/06/09/23/32/pretty-8052826_1280.jpg"
    },
    {
        "id": "7945829",
        "src640": "https://cdn.pixabay.com/photo/2023/04/23/14/33/woman-7945829_640.jpg",
        "src1280": "https://cdn.pixabay.com/photo/2023/04/23/14/33/woman-7945829_1280.jpg"
    },
    {
        "id": "5244844",
        "src640": "https://cdn.pixabay.com/photo/2020/06/01/02/16/vase-5244844_640.jpg",
        "src1280": "https://cdn.pixabay.com/photo/2020/06/01/02/16/vase-5244844_1280.jpg"
    },
    {
        "id": "5510331",
        "src640": "https://cdn.pixabay.com/photo/2020/08/23/09/31/flower-5510331_640.jpg",
        "src1280": "https://cdn.pixabay.com/photo/2020/08/23/09/31/flower-5510331_1280.jpg"
    },
    {
        "id": "3545046",
        "src640": "https://cdn.pixabay.com/photo/2018/07/17/21/32/yellow-flower-3545046_640.jpg",
        "src1280": "https://cdn.pixabay.com/photo/2018/07/17/21/32/yellow-flower-3545046_1280.jpg"
    },
    {
        "id": "7001312",
        "src640": "https://cdn.pixabay.com/photo/2022/02/08/12/29/flower-7001312_640.jpg",
        "src1280": "https://cdn.pixabay.com/photo/2022/02/08/12/29/flower-7001312_1280.jpg"
    },
    {
        "id": "3307582",
        "src640": "https://cdn.pixabay.com/photo/2018/04/10/15/02/willow-3307582_640.jpg",
        "src1280": "https://cdn.pixabay.com/photo/2018/04/10/15/02/willow-3307582_1280.jpg"
    },
    {
        "id": "951780",
        "src640": "https://cdn.pixabay.com/photo/2015/09/22/14/35/flower-951780_640.jpg",
        "src1280": "https://cdn.pixabay.com/photo/2015/09/22/14/35/flower-951780_1280.jpg"
    },
    {
        "id": "6922512",
        "src640": "https://cdn.pixabay.com/photo/2022/01/07/19/56/rose-6922512_640.jpg",
        "src1280": "https://cdn.pixabay.com/photo/2022/01/07/19/56/rose-6922512_1280.jpg"
    },
    {
        "id": "7444969",
        "src640": "https://cdn.pixabay.com/photo/2022/09/10/12/31/bee-7444969_640.jpg",
        "src1280": "https://cdn.pixabay.com/photo/2022/09/10/12/31/bee-7444969_1280.jpg"
    },
    {
        "id": "3281381",
        "src640": "https://cdn.pixabay.com/photo/2018/04/01/16/56/aubergine-3281381_640.jpg",
        "src1280": "https://cdn.pixabay.com/photo/2018/04/01/16/56/aubergine-3281381_1280.jpg"
    },
    {
        "id": "978386",
        "src640": "https://cdn.pixabay.com/photo/2015/10/08/20/49/chia-978386_640.jpg",
        "src1280": "https://cdn.pixabay.com/photo/2015/10/08/20/49/chia-978386_1280.jpg"
    },
    {
        "id": "4664775",
        "src640": "https://cdn.pixabay.com/photo/2019/12/01/06/11/winter-4664775_640.jpg",
        "src1280": "https://cdn.pixabay.com/photo/2019/12/01/06/11/winter-4664775_1280.jpg"
    },
    {
        "id": "3533474",
        "src640": "https://cdn.pixabay.com/photo/2018/07/12/14/00/plant-3533474_640.jpg",
        "src1280": "https://cdn.pixabay.com/photo/2018/07/12/14/00/plant-3533474_1280.jpg"
    },
    {
        "id": "7444968",
        "src640": "https://cdn.pixabay.com/photo/2022/09/10/12/31/purple-flowers-7444968_640.jpg",
        "src1280": "https://cdn.pixabay.com/photo/2022/09/10/12/31/purple-flowers-7444968_1280.jpg"
    },
    {
        "id": "4225900",
        "src640": "https://cdn.pixabay.com/photo/2019/05/24/09/45/rose-4225900_640.jpg",
        "src1280": "https://cdn.pixabay.com/photo/2019/05/24/09/45/rose-4225900_1280.jpg"
    },
    {
        "id": "5398850",
        "src640": "https://cdn.pixabay.com/photo/2020/07/12/22/14/alpine-5398850_640.jpg",
        "src1280": "https://cdn.pixabay.com/photo/2020/07/12/22/14/alpine-5398850_1280.jpg"
    },
    {
        "id": "2532475",
        "src640": "https://cdn.pixabay.com/photo/2017/07/23/19/41/tree-2532475_640.jpg",
        "src1280": "https://cdn.pixabay.com/photo/2017/07/23/19/41/tree-2532475_1280.jpg"
    },
    {
        "id": "480011",
        "src640": "https://cdn.pixabay.com/photo/2014/10/08/12/18/rose-480011_640.jpg",
        "src1280": "https://cdn.pixabay.com/photo/2014/10/08/12/18/rose-480011_1280.jpg"
    },
    {
        "id": "7895033",
        "src640": "https://cdn.pixabay.com/photo/2023/04/02/17/28/flowers-7895033_640.jpg",
        "src1280": "https://cdn.pixabay.com/photo/2023/04/02/17/28/flowers-7895033_1280.jpg"
    },
    {
        "id": "3439",
        "src640": "https://cdn.pixabay.com/photo/2010/12/16/01/19/red-rose-3439_640.jpg",
        "src1280": "https://cdn.pixabay.com/photo/2010/12/16/01/19/red-rose-3439_1280.jpg"
    },
    {
        "id": "7106338",
        "src640": "https://cdn.pixabay.com/photo/2022/04/02/05/25/crocus-7106338_640.jpg",
        "src1280": "https://cdn.pixabay.com/photo/2022/04/02/05/25/crocus-7106338_1280.jpg"
    },
    {
        "id": "3077651",
        "src640": "https://cdn.pixabay.com/photo/2018/01/12/05/58/purple-flowers-3077651_640.jpg",
        "src1280": "https://cdn.pixabay.com/photo/2018/01/12/05/58/purple-flowers-3077651_1280.jpg"
    },
    {
        "id": "3286171",
        "src640": "https://cdn.pixabay.com/photo/2018/04/03/07/49/dandelion-3286171_640.jpg",
        "src1280": "https://cdn.pixabay.com/photo/2018/04/03/07/49/dandelion-3286171_1280.jpg"
    },
    {
        "id": "5898180",
        "src640": "https://cdn.pixabay.com/photo/2021/01/07/18/50/orchid-5898180_640.jpg",
        "src1280": "https://cdn.pixabay.com/photo/2021/01/07/18/50/orchid-5898180_1280.jpg"
    },
    {
        "id": "6519534",
        "src640": "https://cdn.pixabay.com/photo/2021/08/03/13/52/girl-6519534_640.jpg",
        "src1280": "https://cdn.pixabay.com/photo/2021/08/03/13/52/girl-6519534_1280.jpg"
    },
    {
        "id": "7156",
        "src640": "https://cdn.pixabay.com/photo/2011/05/11/18/20/lilac-7156_640.jpg",
        "src1280": "https://cdn.pixabay.com/photo/2011/05/11/18/20/lilac-7156_1280.jpg"
    },
    {
        "id": "5363661",
        "src640": "https://cdn.pixabay.com/photo/2020/07/02/17/18/wild-5363661_640.jpg",
        "src1280": "https://cdn.pixabay.com/photo/2020/07/02/17/18/wild-5363661_1280.jpg"
    },
    {
        "id": "6531859",
        "src640": "https://cdn.pixabay.com/photo/2021/08/08/20/20/sunflower-6531859_640.jpg",
        "src1280": "https://cdn.pixabay.com/photo/2021/08/08/20/20/sunflower-6531859_1280.jpg"
    },
    {
        "id": "4473514",
        "src640": "https://cdn.pixabay.com/photo/2019/09/13/09/17/glass-4473514_640.jpg",
        "src1280": "https://cdn.pixabay.com/photo/2019/09/13/09/17/glass-4473514_1280.jpg"
    },
    {
        "id": "2819490",
        "src640": "https://cdn.pixabay.com/photo/2017/10/05/13/53/woman-2819490_640.jpg",
        "src1280": "https://cdn.pixabay.com/photo/2017/10/05/13/53/woman-2819490_1280.jpg"
    },
    {
        "id": "2061770",
        "src640": "https://cdn.pixabay.com/photo/2017/02/13/04/35/flower-2061770_640.jpg",
        "src1280": "https://cdn.pixabay.com/photo/2017/02/13/04/35/flower-2061770_1280.jpg"
    },
    {
        "id": "5765134",
        "src640": "https://cdn.pixabay.com/photo/2020/11/21/21/13/desert-5765134_640.jpg",
        "src1280": "https://cdn.pixabay.com/photo/2020/11/21/21/13/desert-5765134_1280.jpg"
    },
    {
        "id": "6369159",
        "src640": "https://cdn.pixabay.com/photo/2021/06/27/15/31/ladybird-6369159_640.jpg",
        "src1280": "https://cdn.pixabay.com/photo/2021/06/27/15/31/ladybird-6369159_1280.jpg"
    },
    {
        "id": "3411450",
        "src640": "https://cdn.pixabay.com/photo/2018/05/18/16/17/flower-3411450_640.jpg",
        "src1280": "https://cdn.pixabay.com/photo/2018/05/18/16/17/flower-3411450_1280.jpg"
    },
    {
        "id": "344893",
        "src640": "https://cdn.pixabay.com/photo/2014/05/15/14/16/pink-344893_640.jpg",
        "src1280": "https://cdn.pixabay.com/photo/2014/05/15/14/16/pink-344893_1280.jpg"
    },
    {
        "id": "1170578",
        "src640": "https://cdn.pixabay.com/photo/2016/01/30/21/01/hazel-1170578_640.jpg",
        "src1280": "https://cdn.pixabay.com/photo/2016/01/30/21/01/hazel-1170578_1280.jpg"
    },
    {
        "id": "3574624",
        "src640": "https://cdn.pixabay.com/photo/2018/07/31/09/48/kite-3574624_640.jpg",
        "src1280": "https://cdn.pixabay.com/photo/2018/07/31/09/48/kite-3574624_1280.jpg"
    },
    {
        "id": "3071489",
        "src640": "https://cdn.pixabay.com/photo/2018/01/09/12/55/flower-3071489_640.jpg",
        "src1280": "https://cdn.pixabay.com/photo/2018/01/09/12/55/flower-3071489_1280.jpg"
    },
    {
        "id": "5229323",
        "src640": "https://cdn.pixabay.com/photo/2020/05/27/23/54/flowers-5229323_640.jpg",
        "src1280": "https://cdn.pixabay.com/photo/2020/05/27/23/54/flowers-5229323_1280.jpg"
    },
    {
        "id": "1566638",
        "src640": "https://cdn.pixabay.com/photo/2016/08/03/12/46/flowers-1566638_640.jpg",
        "src1280": "https://cdn.pixabay.com/photo/2016/08/03/12/46/flowers-1566638_1280.jpg"
    },
    {
        "id": "8394964",
        "src640": "https://cdn.pixabay.com/photo/2023/11/17/19/54/woman-8394964_640.jpg",
        "src1280": "https://cdn.pixabay.com/photo/2023/11/17/19/54/woman-8394964_1280.jpg"
    },
    {
        "id": "7708288",
        "src640": "https://cdn.pixabay.com/photo/2023/01/09/21/34/star-of-david-7708288_640.jpg",
        "src1280": "https://cdn.pixabay.com/photo/2023/01/09/21/34/star-of-david-7708288_1280.jpg"
    },
    {
        "id": "4348321",
        "src640": "https://cdn.pixabay.com/photo/2019/07/19/09/22/flowers-4348321_640.jpg",
        "src1280": "https://cdn.pixabay.com/photo/2019/07/19/09/22/flowers-4348321_1280.jpg"
    },
    {
        "id": "7573006",
        "src640": "https://cdn.pixabay.com/photo/2022/11/05/23/42/nature-7573006_640.jpg",
        "src1280": "https://cdn.pixabay.com/photo/2022/11/05/23/42/nature-7573006_1280.jpg"
    },
    {
        "id": "6356561",
        "src640": "https://cdn.pixabay.com/photo/2021/06/22/16/08/tulip-6356561_640.jpg",
        "src1280": "https://cdn.pixabay.com/photo/2021/06/22/16/08/tulip-6356561_1280.jpg"
    },
    {
        "id": "3368134",
        "src640": "https://cdn.pixabay.com/photo/2018/05/02/09/50/wild-flower-3368134_640.jpg",
        "src1280": "https://cdn.pixabay.com/photo/2018/05/02/09/50/wild-flower-3368134_1280.jpg"
    },
    {
        "id": "2588640",
        "src640": "https://cdn.pixabay.com/photo/2017/08/06/04/16/flower-2588640_640.jpg",
        "src1280": "https://cdn.pixabay.com/photo/2017/08/06/04/16/flower-2588640_1280.jpg"
    },
    {
        "id": "5354999",
        "src640": "https://cdn.pixabay.com/photo/2020/06/30/02/59/althea-5354999_640.jpg",
        "src1280": "https://cdn.pixabay.com/photo/2020/06/30/02/59/althea-5354999_1280.jpg"
    },
    {
        "id": "6931906",
        "src640": "https://cdn.pixabay.com/photo/2022/01/12/02/56/flower-6931906_640.jpg",
        "src1280": "https://cdn.pixabay.com/photo/2022/01/12/02/56/flower-6931906_1280.jpg"
    },
    {
        "id": "21093",
        "src640": "https://cdn.pixabay.com/photo/2012/03/02/11/02/beautiful-21093_640.jpg",
        "src1280": "https://cdn.pixabay.com/photo/2012/03/02/11/02/beautiful-21093_1280.jpg"
    },
    {
        "id": "4436573",
        "src640": "https://cdn.pixabay.com/photo/2019/08/28/11/54/gladiolus-4436573_640.jpg",
        "src1280": "https://cdn.pixabay.com/photo/2019/08/28/11/54/gladiolus-4436573_1280.jpg"
    },
    {
        "id": "4903511",
        "src640": "https://cdn.pixabay.com/photo/2020/03/05/05/20/summer-4903511_640.jpg",
        "src1280": "https://cdn.pixabay.com/photo/2020/03/05/05/20/summer-4903511_1280.jpg"
    },
    {
        "id": "5251248",
        "src640": "https://cdn.pixabay.com/photo/2020/06/02/14/30/sky-5251248_640.jpg",
        "src1280": "https://cdn.pixabay.com/photo/2020/06/02/14/30/sky-5251248_1280.jpg"
    },
    {
        "id": "7465022",
        "src640": "https://cdn.pixabay.com/photo/2022/09/19/08/53/sunflower-7465022_640.jpg",
        "src1280": "https://cdn.pixabay.com/photo/2022/09/19/08/53/sunflower-7465022_1280.jpg"
    },
    {
        "id": "6295982",
        "src640": "https://cdn.pixabay.com/photo/2021/05/30/14/06/bernese-mountain-dog-6295982_640.jpg",
        "src1280": "https://cdn.pixabay.com/photo/2021/05/30/14/06/bernese-mountain-dog-6295982_1280.jpg"
    },
    {
        "id": "5437307",
        "src640": "https://cdn.pixabay.com/photo/2020/07/25/17/11/butterfly-5437307_640.jpg",
        "src1280": "https://cdn.pixabay.com/photo/2020/07/25/17/11/butterfly-5437307_1280.jpg"
    },
    {
        "id": "7053470",
        "src640": "https://cdn.pixabay.com/photo/2022/03/07/11/23/flower-7053470_640.jpg",
        "src1280": "https://cdn.pixabay.com/photo/2022/03/07/11/23/flower-7053470_1280.jpg"
    },
    {
        "id": "1858680",
        "src640": "https://cdn.pixabay.com/photo/2016/11/25/16/02/frauenschuh-1858680_640.jpg",
        "src1280": "https://cdn.pixabay.com/photo/2016/11/25/16/02/frauenschuh-1858680_1280.jpg"
    },
    {
        "id": "2378702",
        "src640": "https://cdn.pixabay.com/photo/2017/06/06/22/27/flower-2378702_640.jpg",
        "src1280": "https://cdn.pixabay.com/photo/2017/06/06/22/27/flower-2378702_1280.jpg"
    },
    {
        "id": "5137029",
        "src640": "https://cdn.pixabay.com/photo/2020/05/06/10/06/daisy-5137029_640.jpg",
        "src1280": "https://cdn.pixabay.com/photo/2020/05/06/10/06/daisy-5137029_1280.jpg"
    },
    {
        "id": "7734317",
        "src640": "https://cdn.pixabay.com/photo/2023/01/21/15/15/ai-generated-7734317_640.jpg",
        "src1280": "https://cdn.pixabay.com/photo/2023/01/21/15/15/ai-generated-7734317_1280.jpg"
    },
    {
        "id": "2288468",
        "src640": "https://cdn.pixabay.com/photo/2017/05/05/22/54/basket-2288468_640.jpg",
        "src1280": "https://cdn.pixabay.com/photo/2017/05/05/22/54/basket-2288468_1280.jpg"
    },
    {
        "id": "5273371",
        "src640": "https://cdn.pixabay.com/photo/2020/06/08/06/59/rose-5273371_640.jpg",
        "src1280": "https://cdn.pixabay.com/photo/2020/06/08/06/59/rose-5273371_1280.jpg"
    },
    {
        "id": "6394385",
        "src640": "https://cdn.pixabay.com/photo/2021/07/07/13/49/poppies-6394385_640.jpg",
        "src1280": "https://cdn.pixabay.com/photo/2021/07/07/13/49/poppies-6394385_1280.jpg"
    },
    {
        "id": "8337034",
        "src640": "https://cdn.pixabay.com/photo/2023/10/23/21/12/floral-8337034_640.jpg",
        "src1280": "https://cdn.pixabay.com/photo/2023/10/23/21/12/floral-8337034_1280.jpg"
    },
    {
        "id": "7668585",
        "src640": "https://cdn.pixabay.com/photo/2022/12/20/19/36/flower-7668585_640.jpg",
        "src1280": "https://cdn.pixabay.com/photo/2022/12/20/19/36/flower-7668585_1280.jpg"
    },
    {
        "id": "4021898",
        "src640": "https://cdn.pixabay.com/photo/2019/02/26/12/11/hibiscus-4021898_640.jpg",
        "src1280": "https://cdn.pixabay.com/photo/2019/02/26/12/11/hibiscus-4021898_1280.jpg"
    },
    {
        "id": "2091973",
        "src640": "https://cdn.pixabay.com/photo/2017/02/23/11/33/flowers-2091973_640.jpg",
        "src1280": "https://cdn.pixabay.com/photo/2017/02/23/11/33/flowers-2091973_1280.jpg"
    },
    {
        "id": "1944501",
        "src640": "https://cdn.pixabay.com/photo/2017/01/01/13/10/peach-and-cream-1944501_640.jpg",
        "src1280": "https://cdn.pixabay.com/photo/2017/01/01/13/10/peach-and-cream-1944501_1280.jpg"
    },
    {
        "id": "5005555",
        "src640": "https://cdn.pixabay.com/photo/2020/04/05/10/39/protea-5005555_640.jpg",
        "src1280": "https://cdn.pixabay.com/photo/2020/04/05/10/39/protea-5005555_1280.jpg"
    },
    {
        "id": "6532223",
        "src640": "https://cdn.pixabay.com/photo/2021/08/09/00/00/bellflower-6532223_640.jpg",
        "src1280": "https://cdn.pixabay.com/photo/2021/08/09/00/00/bellflower-6532223_1280.jpg"
    },
    {
        "id": "7528369",
        "src640": "https://cdn.pixabay.com/photo/2022/10/17/17/42/flowers-7528369_640.jpg",
        "src1280": "https://cdn.pixabay.com/photo/2022/10/17/17/42/flowers-7528369_1280.jpg"
    },
    {
        "id": "3231798",
        "src640": "https://cdn.pixabay.com/photo/2018/03/16/16/50/honeysuckle-3231798_640.jpg",
        "src1280": "https://cdn.pixabay.com/photo/2018/03/16/16/50/honeysuckle-3231798_1280.jpg"
    },
    {
        "id": "4054551",
        "src640": "https://cdn.pixabay.com/photo/2019/03/14/10/10/india-4054551_640.jpg",
        "src1280": "https://cdn.pixabay.com/photo/2019/03/14/10/10/india-4054551_1280.jpg"
    },
    {
        "id": "4021340",
        "src640": "https://cdn.pixabay.com/photo/2019/02/26/07/51/vegetarian-4021340_640.jpg",
        "src1280": "https://cdn.pixabay.com/photo/2019/02/26/07/51/vegetarian-4021340_1280.jpg"
    },
    {
        "id": "3360733",
        "src640": "https://cdn.pixabay.com/photo/2018/04/29/18/19/white-flowers-3360733_640.jpg",
        "src1280": "https://cdn.pixabay.com/photo/2018/04/29/18/19/white-flowers-3360733_1280.jpg"
    },
    {
        "id": "2571080",
        "src640": "https://cdn.pixabay.com/photo/2017/08/02/11/33/nature-2571080_640.jpg",
        "src1280": "https://cdn.pixabay.com/photo/2017/08/02/11/33/nature-2571080_1280.jpg"
    },
    {
        "id": "7013666",
        "src640": "https://cdn.pixabay.com/photo/2022/02/14/19/04/drink-7013666_640.jpg",
        "src1280": "https://cdn.pixabay.com/photo/2022/02/14/19/04/drink-7013666_1280.jpg"
    },
    {
        "id": "7971616",
        "src640": "https://cdn.pixabay.com/photo/2023/05/05/05/36/lotus-7971616_640.jpg",
        "src1280": "https://cdn.pixabay.com/photo/2023/05/05/05/36/lotus-7971616_1280.jpg"
    },
    {
        "id": "5750204",
        "src640": "https://cdn.pixabay.com/photo/2020/11/16/19/36/yellow-goose-flower-5750204_640.jpg",
        "src1280": "https://cdn.pixabay.com/photo/2020/11/16/19/36/yellow-goose-flower-5750204_1280.jpg"
    },
    {
        "id": "3267435",
        "src640": "https://cdn.pixabay.com/photo/2018/03/27/21/19/bloom-3267435_640.jpg",
        "src1280": "https://cdn.pixabay.com/photo/2018/03/27/21/19/bloom-3267435_1280.jpg"
    },
    {
        "id": "13496",
        "src640": "https://cdn.pixabay.com/photo/2012/02/16/12/27/flowers-13496_640.jpg",
        "src1280": "https://cdn.pixabay.com/photo/2012/02/16/12/27/flowers-13496_1280.jpg"
    },
    {
        "id": "5450483",
        "src640": "https://cdn.pixabay.com/photo/2020/07/30/15/04/tulip-5450483_640.jpg",
        "src1280": "https://cdn.pixabay.com/photo/2020/07/30/15/04/tulip-5450483_1280.jpg"
    },
    {
        "id": "5813338",
        "src640": "https://cdn.pixabay.com/photo/2020/12/08/03/20/moon-5813338_640.jpg",
        "src1280": "https://cdn.pixabay.com/photo/2020/12/08/03/20/moon-5813338_1280.jpg"
    },
    {
        "id": "8261043",
        "src640": "https://cdn.pixabay.com/photo/2023/09/18/17/29/nature-8261043_640.jpg",
        "src1280": "https://cdn.pixabay.com/photo/2023/09/18/17/29/nature-8261043_1280.jpg"
    },
    {
        "id": "1802108",
        "src640": "https://cdn.pixabay.com/photo/2016/11/06/02/14/spring-1802108_640.jpg",
        "src1280": "https://cdn.pixabay.com/photo/2016/11/06/02/14/spring-1802108_1280.jpg"
    }
]