[
    {
        "id": "190380",
        "src640": "https://cdn.pixabay.com/photo/2013/10/03/19/02/cherry-blossom-190380_640.jpg",
        "src1280": "https://cdn.pixabay.com/photo/2013/10/03/19/02/cherry-blossom-190380_1280.jpg"
    },
    {
        "id": "1699094",
        "src640": "https://cdn.pixabay.com/photo/2016/09/27/19/16/background-1699094_640.jpg",
        "src1280": "https://cdn.pixabay.com/photo/2016/09/27/19/16/background-1699094_1280.jpg"
    },
    {
        "id": "7230238",
        "src640": "https://cdn.pixabay.com/photo/2022/05/30/02/26/woman-7230238_640.jpg",
        "src1280": "https://cdn.pixabay.com/photo/2022/05/30/02/26/woman-7230238_1280.jpg"
    },
    {
        "id": "1100911",
        "src640": "https://cdn.pixabay.com/photo/2015/12/20/09/44/xmas-decoration-1100911_640.jpg",
        "src1280": "https://cdn.pixabay.com/photo/2015/12/20/09/44/xmas-decoration-1100911_1280.jpg"
    },
    {
        "id": "7120833",
        "src640": "https://cdn.pixabay.com/photo/2022/04/09/06/04/tulip-7120833_640.jpg",
        "src1280": "https://cdn.pixabay.com/photo/2022/04/09/06/04/tulip-7120833_1280.jpg"
    },
    {
        "id": "7537973",
        "src640": "https://cdn.pixabay.com/photo/2022/10/21/21/17/halloween-7537973_640.jpg",
        "src1280": "https://cdn.pixabay.com/photo/2022/10/21/21/17/halloween-7537973_1280.jpg"
    },
    {
        "id": "301721",
        "src640": "https://cdn.pixabay.com/photo/2014/03/30/23/38/plumbago-301721_640.jpg",
        "src1280": "https://cdn.pixabay.com/photo/2014/03/30/23/38/plumbago-301721_1280.jpg"
    },
    {
        "id": "1316718",
        "src640": "https://cdn.pixabay.com/photo/2016/04/08/18/17/narcissus-1316718_640.jpg",
        "src1280": "https://cdn.pixabay.com/photo/2016/04/08/18/17/narcissus-1316718_1280.jpg"
    },
    {
        "id": "2611383",
        "src640": "https://cdn.pixabay.com/photo/2017/08/08/13/18/lupin-2611383_640.jpg",
        "src1280": "https://cdn.pixabay.com/photo/2017/08/08/13/18/lupin-2611383_1280.jpg"
    },
    {
        "id": "5120006",
        "src640": "https://cdn.pixabay.com/photo/2020/05/02/06/18/flower-5120006_640.jpg",
        "src1280": "https://cdn.pixabay.com/photo/2020/05/02/06/18/flower-5120006_1280.jpg"
    },
    {
        "id": "768548",
        "src640": "https://cdn.pixabay.com/photo/2015/05/15/14/33/girl-768548_640.jpg",
        "src1280": "https://cdn.pixabay.com/photo/2015/05/15/14/33/girl-768548_1280.jpg"
    },
    {
        "id": "141009",
        "src640": "https://cdn.pixabay.com/photo/2013/06/24/21/45/trifolium-pratense-141009_640.jpg",
        "src1280": "https://cdn.pixabay.com/photo/2013/06/24/21/45/trifolium-pratense-141009_1280.jpg"
    },
    {
        "id": "7278555",
        "src640": "https://cdn.pixabay.com/photo/2022/06/22/18/45/background-7278555_640.jpg",
        "src1280": "https://cdn.pixabay.com/photo/2022/06/22/18/45/background-7278555_1280.jpg"
    },
    {
        "id": "4928519",
        "src640": "https://cdn.pixabay.com/photo/2020/03/13/16/51/sunshine-4928519_640.jpg",
        "src1280": "https://cdn.pixabay.com/photo/2020/03/13/16/51/sunshine-4928519_1280.jpg"
    },
    {
        "id": "5326720",
        "src640": "https://cdn.pixabay.com/photo/2020/06/21/20/44/flower-5326720_640.jpg",
        "src1280": "https://cdn.pixabay.com/photo/2020/06/21/20/44/flower-5326720_1280.jpg"
    },
    {
        "id": "7474634",
        "src640": "https://cdn.pixabay.com/photo/2022/09/23/14/58/happy-mothers-day-7474634_640.jpg",
        "src1280": "https://cdn.pixabay.com/photo/2022/09/23/14/58/happy-mothers-day-7474634_1280.jpg"
    },
    {
        "id": "5472726",
        "src640": "https://cdn.pixabay.com/photo/2020/08/08/11/12/sunflower-5472726_640.jpg",
        "src1280": "https://cdn.pixabay.com/photo/2020/08/08/11/12/sunflower-5472726_1280.jpg"
    },
    {
        "id": "5434944",
        "src640": "https://cdn.pixabay.com/photo/2020/07/24/19/51/flowers-5434944_640.jpg",
        "src1280": "https://cdn.pixabay.com/photo/2020/07/24/19/51/flowers-5434944_1280.jpg"
    },
    {
        "id": "8274961",
        "src640": "https://cdn.pixabay.com/photo/2023/09/25/13/08/woman-8274961_640.jpg",
        "src1280": "https://cdn.pixabay.com/photo/2023/09/25/13/08/woman-8274961_1280.jpg"
    },
    {
        "id": "5402247",
        "src640": "https://cdn.pixabay.com/photo/2020/07/13/22/16/flower-5402247_640.jpg",
        "src1280": "https://cdn.pixabay.com/photo/2020/07/13/22/16/flower-5402247_1280.jpg"
    },
    {
        "id": "6259563",
        "src640": "https://cdn.pixabay.com/photo/2021/05/17/01/33/cherry-blossom-6259563_640.jpg",
        "src1280": "https://cdn.pixabay.com/photo/2021/05/17/01/33/cherry-blossom-6259563_1280.jpg"
    },
    {
        "id": "719551",
        "src640": "https://cdn.pixabay.com/photo/2015/04/12/21/15/tree-719551_640.jpg",
        "src1280": "https://cdn.pixabay.com/photo/2015/04/12/21/15/tree-719551_1280.jpg"
    },
    {
        "id": "78262",
        "src640": "https://cdn.pixabay.com/photo/2013/02/06/04/15/belgium-78262_640.jpg",
        "src1280": "https://cdn.pixabay.com/photo/2013/02/06/04/15/belgium-78262_1280.jpg"
    },
    {
        "id": "115651",
        "src640": "https://cdn.pixabay.com/photo/2013/06/02/11/16/flower-115651_640.jpg",
        "src1280": "https://cdn.pixabay.com/photo/2013/06/02/11/16/flower-115651_1280.jpg"
    },
    {
        "id": "4778800",
        "src640": "https://cdn.pixabay.com/photo/2020/01/19/19/26/chihuahua-4778800_640.jpg",
        "src1280": "https://cdn.pixabay.com/photo/2020/01/19/19/26/chihuahua-4778800_1280.jpg"
    },
    {
        "id": "5084763",
        "src640": "https://cdn.pixabay.com/photo/2020/04/24/02/19/flower-5084763_640.jpg",
        "src1280": "https://cdn.pixabay.com/photo/2020/04/24/02/19/flower-5084763_1280.jpg"
    },
    {
        "id": "8021818",
        "src640": "https://cdn.pixabay.com/photo/2023/05/27/16/26/woman-8021818_640.jpg",
        "src1280": "https://cdn.pixabay.com/photo/2023/05/27/16/26/woman-8021818_1280.jpg"
    },
    {
        "id": "3707993",
        "src640": "https://cdn.pixabay.com/photo/2018/09/27/21/50/sunflower-3707993_640.jpg",
        "src1280": "https://cdn.pixabay.com/photo/2018/09/27/21/50/sunflower-3707993_1280.jpg"
    },
    {
        "id": "2439887",
        "src640": "https://cdn.pixabay.com/photo/2017/06/25/07/55/tulips-2439887_640.jpg",
        "src1280": "https://cdn.pixabay.com/photo/2017/06/25/07/55/tulips-2439887_1280.jpg"
    },
    {
        "id": "165012",
        "src640": "https://cdn.pixabay.com/photo/2013/07/18/20/26/tulip-165012_640.jpg",
        "src1280": "https://cdn.pixabay.com/photo/2013/07/18/20/26/tulip-165012_1280.jpg"
    },
    {
        "id": "3163989",
        "src640": "https://cdn.pixabay.com/photo/2018/02/19/01/14/erika-3163989_640.jpg",
        "src1280": "https://cdn.pixabay.com/photo/2018/02/19/01/14/erika-3163989_1280.jpg"
    },
    {
        "id": "2403049",
        "src640": "https://cdn.pixabay.com/photo/2017/06/14/19/08/trilye-2403049_640.jpg",
        "src1280": "https://cdn.pixabay.com/photo/2017/06/14/19/08/trilye-2403049_1280.jpg"
    },
    {
        "id": "428559",
        "src640": "https://cdn.pixabay.com/photo/2014/08/26/21/34/way-428559_640.jpg",
        "src1280": "https://cdn.pixabay.com/photo/2014/08/26/21/34/way-428559_1280.jpg"
    },
    {
        "id": "3331914",
        "src640": "https://cdn.pixabay.com/photo/2018/04/18/23/29/drink-3331914_640.jpg",
        "src1280": "https://cdn.pixabay.com/photo/2018/04/18/23/29/drink-3331914_1280.jpg"
    },
    {
        "id": "16009",
        "src640": "https://cdn.pixabay.com/photo/2012/02/23/09/16/branch-16009_640.jpg",
        "src1280": "https://cdn.pixabay.com/photo/2012/02/23/09/16/branch-16009_1280.jpg"
    },
    {
        "id": "7312864",
        "src640": "https://cdn.pixabay.com/photo/2022/07/10/13/31/lotus-7312864_640.jpg",
        "src1280": "https://cdn.pixabay.com/photo/2022/07/10/13/31/lotus-7312864_1280.jpg"
    },
    {
        "id": "1306757",
        "src640": "https://cdn.pixabay.com/photo/2016/04/04/12/29/daisy-1306757_640.jpg",
        "src1280": "https://cdn.pixabay.com/photo/2016/04/04/12/29/daisy-1306757_1280.jpg"
    },
    {
        "id": "6062483",
        "src640": "https://cdn.pixabay.com/photo/2021/03/02/13/23/cherry-blossoms-6062483_640.jpg",
        "src1280": "https://cdn.pixabay.com/photo/2021/03/02/13/23/cherry-blossoms-6062483_1280.jpg"
    },
    {
        "id": "485198",
        "src640": "https://cdn.pixabay.com/photo/2014/10/11/23/27/larkspur-485198_640.jpg",
        "src1280": "https://cdn.pixabay.com/photo/2014/10/11/23/27/larkspur-485198_1280.jpg"
    },
    {
        "id": "325343",
        "src640": "https://cdn.pixabay.com/photo/2014/04/16/02/34/cherry-tree-325343_640.jpg",
        "src1280": "https://cdn.pixabay.com/photo/2014/04/16/02/34/cherry-tree-325343_1280.jpg"
    },
    {
        "id": "989289",
        "src640": "https://cdn.pixabay.com/photo/2015/10/15/12/15/tulip-989289_640.jpg",
        "src1280": "https://cdn.pixabay.com/photo/2015/10/15/12/15/tulip-989289_1280.jpg"
    },
    {
        "id": "1274414",
        "src640": "https://cdn.pixabay.com/photo/2016/03/23/09/35/tussilago-farfara-1274414_640.jpg",
        "src1280": "https://cdn.pixabay.com/photo/2016/03/23/09/35/tussilago-farfara-1274414_1280.jpg"
    },
    {
        "id": "3920668",
        "src640": "https://cdn.pixabay.com/photo/2019/01/08/08/59/rose-3920668_640.jpg",
        "src1280": "https://cdn.pixabay.com/photo/2019/01/08/08/59/rose-3920668_1280.jpg"
    },
    {
        "id": "2843986",
        "src640": "https://cdn.pixabay.com/photo/2017/10/12/09/32/anthurium-2843986_640.jpg",
        "src1280": "https://cdn.pixabay.com/photo/2017/10/12/09/32/anthurium-2843986_1280.jpg"
    },
    {
        "id": "6337380",
        "src640": "https://cdn.pixabay.com/photo/2021/06/15/03/36/tulips-6337380_640.jpg",
        "src1280": "https://cdn.pixabay.com/photo/2021/06/15/03/36/tulips-6337380_1280.jpg"
    },
    {
        "id": "276855",
        "src640": "https://cdn.pixabay.com/photo/2014/02/28/12/14/wildflower-276855_640.jpg",
        "src1280": "https://cdn.pixabay.com/photo/2014/02/28/12/14/wildflower-276855_1280.jpg"
    },
    {
        "id": "1837829",
        "src640": "https://cdn.pixabay.com/photo/2016/11/19/02/39/columbine-1837829_640.jpg",
        "src1280": "https://cdn.pixabay.com/photo/2016/11/19/02/39/columbine-1837829_1280.jpg"
    },
    {
        "id": "6466843",
        "src640": "https://cdn.pixabay.com/photo/2021/07/14/18/39/honeysuckle-6466843_640.jpg",
        "src1280": "https://cdn.pixabay.com/photo/2021/07/14/18/39/honeysuckle-6466843_1280.jpg"
    },
    {
        "id": "978621",
        "src640": "https://cdn.pixabay.com/photo/2015/10/09/00/10/flowers-978621_640.jpg",
        "src1280": "https://cdn.pixabay.com/photo/2015/10/09/00/10/flowers-978621_1280.jpg"
    },
    {
        "id": "1576396",
        "src640": "https://cdn.pixabay.com/photo/2016/08/07/14/55/rose-1576396_640.jpg",
        "src1280": "https://cdn.pixabay.com/photo/2016/08/07/14/55/rose-1576396_1280.jpg"
    },
    {
        "id": "1512008",
        "src640": "https://cdn.pixabay.com/photo/2016/07/12/13/14/cornflower-1512008_640.jpg",
        "src1280": "https://cdn.pixabay.com/photo/2016/07/12/13/14/cornflower-1512008_1280.jpg"
    },
    {
        "id": "3176668",
        "src640": "https://cdn.pixabay.com/photo/2018/02/23/21/29/flora-3176668_640.jpg",
        "src1280": "https://cdn.pixabay.com/photo/2018/02/23/21/29/flora-3176668_1280.jpg"
    },
    {
        "id": "77450",
        "src640": "https://cdn.pixabay.com/photo/2013/02/02/21/22/california-77450_640.jpg",
        "src1280": "https://cdn.pixabay.com/photo/2013/02/02/21/22/california-77450_1280.jpg"
    },
    {
        "id": "6691937",
        "src640": "https://cdn.pixabay.com/photo/2021/10/08/17/35/purple-copper-butterfly-6691937_640.jpg",
        "src1280": "https://cdn.pixabay.com/photo/2021/10/08/17/35/purple-copper-butterfly-6691937_1280.jpg"
    },
    {
        "id": "7224443",
        "src640": "https://cdn.pixabay.com/photo/2022/05/27/05/54/poppies-7224443_640.jpg",
        "src1280": "https://cdn.pixabay.com/photo/2022/05/27/05/54/poppies-7224443_1280.jpg"
    },
    {
        "id": "2419145",
        "src640": "https://cdn.pixabay.com/photo/2017/06/19/12/22/lupins-2419145_640.jpg",
        "src1280": "https://cdn.pixabay.com/photo/2017/06/19/12/22/lupins-2419145_1280.jpg"
    },
    {
        "id": "7350869",
        "src640": "https://cdn.pixabay.com/photo/2022/07/29/01/34/peony-7350869_640.jpg",
        "src1280": "https://cdn.pixabay.com/photo/2022/07/29/01/34/peony-7350869_1280.jpg"
    },
    {
        "id": "1815280",
        "src640": "https://cdn.pixabay.com/photo/2016/11/10/21/50/purple-1815280_640.jpg",
        "src1280": "https://cdn.pixabay.com/photo/2016/11/10/21/50/purple-1815280_1280.jpg"
    },
    {
        "id": "8096573",
        "src640": "https://cdn.pixabay.com/photo/2023/06/29/15/21/woman-8096573_640.jpg",
        "src1280": "https://cdn.pixabay.com/photo/2023/06/29/15/21/woman-8096573_1280.jpg"
    },
    {
        "id": "5957926",
        "src640": "https://cdn.pixabay.com/photo/2021/01/28/12/55/woman-5957926_640.jpg",
        "src1280": "https://cdn.pixabay.com/photo/2021/01/28/12/55/woman-5957926_1280.jpg"
    },
    {
        "id": "1141334",
        "src640": "https://cdn.pixabay.com/photo/2016/01/15/09/20/table-decorations-1141334_640.jpg",
        "src1280": "https://cdn.pixabay.com/photo/2016/01/15/09/20/table-decorations-1141334_1280.jpg"
    },
    {
        "id": "1690908",
        "src640": "https://cdn.pixabay.com/photo/2016/09/24/01/51/flower-1690908_640.jpg",
        "src1280": "https://cdn.pixabay.com/photo/2016/09/24/01/51/flower-1690908_1280.jpg"
    },
    {
        "id": "778549",
        "src640": "https://cdn.pixabay.com/photo/2015/05/22/10/17/rose-saxifrage-778549_640.jpg",
        "src1280": "https://cdn.pixabay.com/photo/2015/05/22/10/17/rose-saxifrage-778549_1280.jpg"
    },
    {
        "id": "759328",
        "src640": "https://cdn.pixabay.com/photo/2015/05/09/06/11/dahlia-759328_640.jpg",
        "src1280": "https://cdn.pixabay.com/photo/2015/05/09/06/11/dahlia-759328_1280.jpg"
    },
    {
        "id": "4767967",
        "src640": "https://cdn.pixabay.com/photo/2020/01/15/13/49/flowers-4767967_640.jpg",
        "src1280": "https://cdn.pixabay.com/photo/2020/01/15/13/49/flowers-4767967_1280.jpg"
    },
    {
        "id": "7242815",
        "src640": "https://cdn.pixabay.com/photo/2022/06/04/20/48/rose-7242815_640.jpg",
        "src1280": "https://cdn.pixabay.com/photo/2022/06/04/20/48/rose-7242815_1280.jpg"
    },
    {
        "id": "7111881",
        "src640": "https://cdn.pixabay.com/photo/2022/04/04/17/11/tulips-7111881_640.jpg",
        "src1280": "https://cdn.pixabay.com/photo/2022/04/04/17/11/tulips-7111881_1280.jpg"
    },
    {
        "id": "2008788",
        "src640": "https://cdn.pixabay.com/photo/2017/01/25/19/18/hyacinth-2008788_640.jpg",
        "src1280": "https://cdn.pixabay.com/photo/2017/01/25/19/18/hyacinth-2008788_1280.jpg"
    },
    {
        "id": "533335",
        "src640": "https://cdn.pixabay.com/photo/2014/11/16/12/16/hyacinth-533335_640.jpg",
        "src1280": "https://cdn.pixabay.com/photo/2014/11/16/12/16/hyacinth-533335_1280.jpg"
    },
    {
        "id": "3340650",
        "src640": "https://cdn.pixabay.com/photo/2018/04/22/10/32/flower-3340650_640.jpg",
        "src1280": "https://cdn.pixabay.com/photo/2018/04/22/10/32/flower-3340650_1280.jpg"
    },
    {
        "id": "1397666",
        "src640": "https://cdn.pixabay.com/photo/2016/05/17/08/50/ranunculus-1397666_640.jpg",
        "src1280": "https://cdn.pixabay.com/photo/2016/05/17/08/50/ranunculus-1397666_1280.jpg"
    },
    {
        "id": "4138774",
        "src640": "https://cdn.pixabay.com/photo/2019/04/19/07/44/coffee-4138774_640.jpg",
        "src1280": "https://cdn.pixabay.com/photo/2019/04/19/07/44/coffee-4138774_1280.jpg"
    },
    {
        "id": "2392929",
        "src640": "https://cdn.pixabay.com/photo/2017/06/11/17/14/orchids-2392929_640.jpg",
        "src1280": "https://cdn.pixabay.com/photo/2017/06/11/17/14/orchids-2392929_1280.jpg"
    },
    {
        "id": "6481702",
        "src640": "https://cdn.pixabay.com/photo/2021/07/20/20/37/red-hot-poker-6481702_640.jpg",
        "src1280": "https://cdn.pixabay.com/photo/2021/07/20/20/37/red-hot-poker-6481702_1280.jpg"
    },
    {
        "id": "1616817",
        "src640": "https://cdn.pixabay.com/photo/2016/08/24/11/55/flowers-1616817_640.jpg",
        "src1280": "https://cdn.pixabay.com/photo/2016/08/24/11/55/flowers-1616817_1280.jpg"
    },
    {
        "id": "7259036",
        "src640": "https://cdn.pixabay.com/photo/2022/06/12/23/06/rose-7259036_640.jpg",
        "src1280": "https://cdn.pixabay.com/photo/2022/06/12/23/06/rose-7259036_1280.jpg"
    },
    {
        "id": "3697440",
        "src640": "https://cdn.pixabay.com/photo/2018/09/23/13/04/butterfly-3697440_640.jpg",
        "src1280": "https://cdn.pixabay.com/photo/2018/09/23/13/04/butterfly-3697440_1280.jpg"
    },
    {
        "id": "7208793",
        "src640": "https://cdn.pixabay.com/photo/2022/05/20/06/54/tulips-7208793_640.jpg",
        "src1280": "https://cdn.pixabay.com/photo/2022/05/20/06/54/tulips-7208793_1280.jpg"
    },
    {
        "id": "5983650",
        "src640": "https://cdn.pixabay.com/photo/2021/02/05/07/28/flower-5983650_640.jpg",
        "src1280": "https://cdn.pixabay.com/photo/2021/02/05/07/28/flower-5983650_1280.jpg"
    },
    {
        "id": "7673326",
        "src640": "https://cdn.pixabay.com/photo/2022/12/22/21/42/background-7673326_640.jpg",
        "src1280": "https://cdn.pixabay.com/photo/2022/12/22/21/42/background-7673326_1280.jpg"
    },
    {
        "id": "7146011",
        "src640": "https://cdn.pixabay.com/photo/2022/04/20/19/24/lewisia-7146011_640.jpg",
        "src1280": "https://cdn.pixabay.com/photo/2022/04/20/19/24/lewisia-7146011_1280.jpg"
    },
    {
        "id": "7353812",
        "src640": "https://cdn.pixabay.com/photo/2022/07/30/13/35/woman-7353812_640.jpg",
        "src1280": "https://cdn.pixabay.com/photo/2022/07/30/13/35/woman-7353812_1280.jpg"
    },
    {
        "id": "5221840",
        "src640": "https://cdn.pixabay.com/photo/2020/05/26/07/32/red-5221840_640.jpg",
        "src1280": "https://cdn.pixabay.com/photo/2020/05/26/07/32/red-5221840_1280.jpg"
    },
    {
        "id": "3167607",
        "src640": "https://cdn.pixabay.com/photo/2018/02/20/13/18/nature-3167607_640.jpg",
        "src1280": "https://cdn.pixabay.com/photo/2018/02/20/13/18/nature-3167607_1280.jpg"
    },
    {
        "id": "7583372",
        "src640": "https://cdn.pixabay.com/photo/2022/11/10/17/57/background-7583372_640.jpg",
        "src1280": "https://cdn.pixabay.com/photo/2022/11/10/17/57/background-7583372_1280.jpg"
    },
    {
        "id": "1138285",
        "src640": "https://cdn.pixabay.com/photo/2016/01/13/16/28/the-framework-1138285_640.jpg",
        "src1280": "https://cdn.pixabay.com/photo/2016/01/13/16/28/the-framework-1138285_1280.jpg"
    },
    {
        "id": "5461399",
        "src640": "https://cdn.pixabay.com/photo/2020/08/04/00/53/insect-5461399_640.jpg",
        "src1280": "https://cdn.pixabay.com/photo/2020/08/04/00/53/insect-5461399_1280.jpg"
    },
    {
        "id": "7257805",
        "src640": "https://cdn.pixabay.com/photo/2022/06/12/11/19/roses-7257805_640.jpg",
        "src1280": "https://cdn.pixabay.com/photo/2022/06/12/11/19/roses-7257805_1280.jpg"
    },
    {
        "id": "1524875",
        "src640": "https://cdn.pixabay.com/photo/2016/07/17/22/09/heath-spotted-orchid-1524875_640.jpg",
        "src1280": "https://cdn.pixabay.com/photo/2016/07/17/22/09/heath-spotted-orchid-1524875_1280.jpg"
    },
    {
        "id": "1183252",
        "src640": "https://cdn.pixabay.com/photo/2016/02/06/17/22/wedding-1183252_640.jpg",
        "src1280": "https://cdn.pixabay.com/photo/2016/02/06/17/22/wedding-1183252_1280.jpg"
    },
    {
        "id": "5530781",
        "src640": "https://cdn.pixabay.com/photo/2020/08/30/21/49/flower-5530781_640.jpg",
        "src1280": "https://cdn.pixabay.com/photo/2020/08/30/21/49/flower-5530781_1280.jpg"
    },
    {
        "id": "6474055",
        "src640": "https://cdn.pixabay.com/photo/2021/07/17/20/36/flowers-6474055_640.jpg",
        "src1280": "https://cdn.pixabay.com/photo/2021/07/17/20/36/flowers-6474055_1280.jpg"
    },
    {
        "id": "7686574",
        "src640": "https://cdn.pixabay.com/photo/2022/12/30/09/55/bohemian-art-7686574_640.jpg",
        "src1280": "https://cdn.pixabay.com/photo/2022/12/30/09/55/bohemian-art-7686574_1280.jpg"
    },
    {
        "id": "5580058",
        "src640": "https://cdn.pixabay.com/photo/2020/09/17/18/27/flower-5580058_640.jpg",
        "src1280": "https://cdn.pixabay.com/photo/2020/09/17/18/27/flower-5580058_1280.jpg"
    }
]