[
    {
        "id": "7477605",
        "src640": "https://cdn.pixabay.com/photo/2022/09/25/04/45/protea-7477605_640.jpg",
        "src1280": "https://cdn.pixabay.com/photo/2022/09/25/04/45/protea-7477605_1280.jpg"
    },
    {
        "id": "6873955",
        "src640": "https://cdn.pixabay.com/photo/2021/12/16/07/30/dog-6873955_640.jpg",
        "src1280": "https://cdn.pixabay.com/photo/2021/12/16/07/30/dog-6873955_1280.jpg"
    },
    {
        "id": "7276469",
        "src640": "https://cdn.pixabay.com/photo/2022/06/21/20/45/orchid-7276469_640.jpg",
        "src1280": "https://cdn.pixabay.com/photo/2022/06/21/20/45/orchid-7276469_1280.jpg"
    },
    {
        "id": "5885766",
        "src640": "https://cdn.pixabay.com/photo/2021/01/03/22/00/thistle-5885766_640.jpg",
        "src1280": "https://cdn.pixabay.com/photo/2021/01/03/22/00/thistle-5885766_1280.jpg"
    },
    {
        "id": "7327390",
        "src640": "https://cdn.pixabay.com/photo/2022/07/17/13/08/insect-7327390_640.jpg",
        "src1280": "https://cdn.pixabay.com/photo/2022/07/17/13/08/insect-7327390_1280.jpg"
    },
    {
        "id": "51000",
        "src640": "https://cdn.pixabay.com/photo/2012/06/29/18/10/flower-51000_640.jpg",
        "src1280": "https://cdn.pixabay.com/photo/2012/06/29/18/10/flower-51000_1280.jpg"
    },
    {
        "id": "7172122",
        "src640": "https://cdn.pixabay.com/photo/2022/05/03/16/25/apple-blossoms-7172122_640.jpg",
        "src1280": "https://cdn.pixabay.com/photo/2022/05/03/16/25/apple-blossoms-7172122_1280.jpg"
    },
    {
        "id": "262947",
        "src640": "https://cdn.pixabay.com/photo/2014/02/09/17/56/water-lily-262947_640.jpg",
        "src1280": "https://cdn.pixabay.com/photo/2014/02/09/17/56/water-lily-262947_1280.jpg"
    },
    {
        "id": "6448",
        "src640": "https://cdn.pixabay.com/photo/2011/04/13/01/40/daffodils-6448_640.jpg",
        "src1280": "https://cdn.pixabay.com/photo/2011/04/13/01/40/daffodils-6448_1280.jpg"
    },
    {
        "id": "7268714",
        "src640": "https://cdn.pixabay.com/photo/2022/06/17/20/48/tulip-7268714_640.jpg",
        "src1280": "https://cdn.pixabay.com/photo/2022/06/17/20/48/tulip-7268714_1280.jpg"
    },
    {
        "id": "8145248",
        "src640": "https://cdn.pixabay.com/photo/2023/07/23/14/56/moon-8145248_640.jpg",
        "src1280": "https://cdn.pixabay.com/photo/2023/07/23/14/56/moon-8145248_1280.jpg"
    },
    {
        "id": "3111480",
        "src640": "https://cdn.pixabay.com/photo/2018/01/27/15/42/flower-3111480_640.jpg",
        "src1280": "https://cdn.pixabay.com/photo/2018/01/27/15/42/flower-3111480_1280.jpg"
    },
    {
        "id": "6477929",
        "src640": "https://cdn.pixabay.com/photo/2021/07/19/11/39/sunflower-6477929_640.jpg",
        "src1280": "https://cdn.pixabay.com/photo/2021/07/19/11/39/sunflower-6477929_1280.jpg"
    },
    {
        "id": "7217139",
        "src640": "https://cdn.pixabay.com/photo/2022/05/23/20/20/chestnut-7217139_640.jpg",
        "src1280": "https://cdn.pixabay.com/photo/2022/05/23/20/20/chestnut-7217139_1280.jpg"
    },
    {
        "id": "5986961",
        "src640": "https://cdn.pixabay.com/photo/2021/02/06/05/57/woman-5986961_640.jpg",
        "src1280": "https://cdn.pixabay.com/photo/2021/02/06/05/57/woman-5986961_1280.jpg"
    },
    {
        "id": "7070017",
        "src640": "https://cdn.pixabay.com/photo/2022/03/15/10/23/flowers-7070017_640.jpg",
        "src1280": "https://cdn.pixabay.com/photo/2022/03/15/10/23/flowers-7070017_1280.jpg"
    },
    {
        "id": "60232",
        "src640": "https://cdn.pixabay.com/photo/2012/10/09/02/26/himalayan-balsam-60232_640.jpg",
        "src1280": "https://cdn.pixabay.com/photo/2012/10/09/02/26/himalayan-balsam-60232_1280.jpg"
    },
    {
        "id": "7144882",
        "src640": "https://cdn.pixabay.com/photo/2022/04/20/09/58/spring-snowflake-7144882_640.jpg",
        "src1280": "https://cdn.pixabay.com/photo/2022/04/20/09/58/spring-snowflake-7144882_1280.jpg"
    },
    {
        "id": "6242568",
        "src640": "https://cdn.pixabay.com/photo/2021/05/10/05/04/ao-dai-6242568_640.jpg",
        "src1280": "https://cdn.pixabay.com/photo/2021/05/10/05/04/ao-dai-6242568_1280.jpg"
    },
    {
        "id": "54050",
        "src640": "https://cdn.pixabay.com/photo/2012/08/11/13/56/tulips-54050_640.jpg",
        "src1280": "https://cdn.pixabay.com/photo/2012/08/11/13/56/tulips-54050_1280.jpg"
    },
    {
        "id": "2516988",
        "src640": "https://cdn.pixabay.com/photo/2017/07/18/20/41/dahlia-2516988_640.jpg",
        "src1280": "https://cdn.pixabay.com/photo/2017/07/18/20/41/dahlia-2516988_1280.jpg"
    },
    {
        "id": "5811444",
        "src640": "https://cdn.pixabay.com/photo/2020/12/07/12/52/woman-5811444_640.jpg",
        "src1280": "https://cdn.pixabay.com/photo/2020/12/07/12/52/woman-5811444_1280.jpg"
    },
    {
        "id": "732107",
        "src640": "https://cdn.pixabay.com/photo/2015/04/20/19/51/tulip-732107_640.jpg",
        "src1280": "https://cdn.pixabay.com/photo/2015/04/20/19/51/tulip-732107_1280.jpg"
    },
    {
        "id": "6766867",
        "src640": "https://cdn.pixabay.com/photo/2021/11/03/21/28/flowers-6766867_640.jpg",
        "src1280": "https://cdn.pixabay.com/photo/2021/11/03/21/28/flowers-6766867_1280.jpg"
    },
    {
        "id": "5132170",
        "src640": "https://cdn.pixabay.com/photo/2020/05/05/09/09/flower-5132170_640.jpg",
        "src1280": "https://cdn.pixabay.com/photo/2020/05/05/09/09/flower-5132170_1280.jpg"
    },
    {
        "id": "7504796",
        "src640": "https://cdn.pixabay.com/photo/2022/10/07/10/56/lily-7504796_640.jpg",
        "src1280": "https://cdn.pixabay.com/photo/2022/10/07/10/56/lily-7504796_1280.jpg"
    },
    {
        "id": "7163732",
        "src640": "https://cdn.pixabay.com/photo/2022/04/29/13/33/flower-7163732_640.jpg",
        "src1280": "https://cdn.pixabay.com/photo/2022/04/29/13/33/flower-7163732_1280.jpg"
    },
    {
        "id": "7397249",
        "src640": "https://cdn.pixabay.com/photo/2022/08/19/16/33/warrior-7397249_640.jpg",
        "src1280": "https://cdn.pixabay.com/photo/2022/08/19/16/33/warrior-7397249_1280.jpg"
    },
    {
        "id": "6421",
        "src640": "https://cdn.pixabay.com/photo/2011/04/13/01/13/rob-roy-6421_640.jpg",
        "src1280": "https://cdn.pixabay.com/photo/2011/04/13/01/13/rob-roy-6421_1280.jpg"
    },
    {
        "id": "232105",
        "src640": "https://cdn.pixabay.com/photo/2013/12/22/03/01/bouquet-232105_640.jpg",
        "src1280": "https://cdn.pixabay.com/photo/2013/12/22/03/01/bouquet-232105_1280.jpg"
    },
    {
        "id": "7353631",
        "src640": "https://cdn.pixabay.com/photo/2022/07/30/11/50/knapweed-7353631_640.jpg",
        "src1280": "https://cdn.pixabay.com/photo/2022/07/30/11/50/knapweed-7353631_1280.jpg"
    },
    {
        "id": "4141028",
        "src640": "https://cdn.pixabay.com/photo/2019/04/20/06/15/tulip-4141028_640.jpg",
        "src1280": "https://cdn.pixabay.com/photo/2019/04/20/06/15/tulip-4141028_1280.jpg"
    },
    {
        "id": "7181931",
        "src640": "https://cdn.pixabay.com/photo/2022/05/08/11/29/flowers-7181931_640.jpg",
        "src1280": "https://cdn.pixabay.com/photo/2022/05/08/11/29/flowers-7181931_1280.jpg"
    },
    {
        "id": "1349952",
        "src640": "https://cdn.pixabay.com/photo/2016/04/24/16/21/sun-flower-1349952_640.jpg",
        "src1280": "https://cdn.pixabay.com/photo/2016/04/24/16/21/sun-flower-1349952_1280.jpg"
    },
    {
        "id": "2002669",
        "src640": "https://cdn.pixabay.com/photo/2017/01/23/14/02/share-icon-2002669_640.jpg",
        "src1280": "https://cdn.pixabay.com/photo/2017/01/23/14/02/share-icon-2002669_1280.jpg"
    },
    {
        "id": "7132001",
        "src640": "https://cdn.pixabay.com/photo/2022/04/14/09/08/rose-7132001_640.jpg",
        "src1280": "https://cdn.pixabay.com/photo/2022/04/14/09/08/rose-7132001_1280.jpg"
    },
    {
        "id": "7466994",
        "src640": "https://cdn.pixabay.com/photo/2022/09/20/05/00/background-7466994_640.jpg",
        "src1280": "https://cdn.pixabay.com/photo/2022/09/20/05/00/background-7466994_1280.jpg"
    },
    {
        "id": "333495",
        "src640": "https://cdn.pixabay.com/photo/2014/04/27/21/52/water-lilies-333495_640.jpg",
        "src1280": "https://cdn.pixabay.com/photo/2014/04/27/21/52/water-lilies-333495_1280.jpg"
    },
    {
        "id": "22004",
        "src640": "https://cdn.pixabay.com/photo/2012/03/04/00/39/beautiful-22004_640.jpg",
        "src1280": "https://cdn.pixabay.com/photo/2012/03/04/00/39/beautiful-22004_1280.jpg"
    },
    {
        "id": "6523454",
        "src640": "https://cdn.pixabay.com/photo/2021/08/05/07/57/rose-6523454_640.jpg",
        "src1280": "https://cdn.pixabay.com/photo/2021/08/05/07/57/rose-6523454_1280.jpg"
    },
    {
        "id": "8006462",
        "src640": "https://cdn.pixabay.com/photo/2023/05/20/12/39/apples-8006462_640.jpg",
        "src1280": "https://cdn.pixabay.com/photo/2023/05/20/12/39/apples-8006462_1280.jpg"
    },
    {
        "id": "5483365",
        "src640": "https://cdn.pixabay.com/photo/2020/08/12/18/26/tulip-5483365_640.jpg",
        "src1280": "https://cdn.pixabay.com/photo/2020/08/12/18/26/tulip-5483365_1280.jpg"
    },
    {
        "id": "8050115",
        "src640": "https://cdn.pixabay.com/photo/2023/06/08/18/13/woman-8050115_640.jpg",
        "src1280": "https://cdn.pixabay.com/photo/2023/06/08/18/13/woman-8050115_1280.jpg"
    },
    {
        "id": "6230696",
        "src640": "https://cdn.pixabay.com/photo/2021/05/05/10/16/flowers-6230696_640.jpg",
        "src1280": "https://cdn.pixabay.com/photo/2021/05/05/10/16/flowers-6230696_1280.jpg"
    },
    {
        "id": "5588209",
        "src640": "https://cdn.pixabay.com/photo/2020/09/20/20/10/flowers-5588209_640.jpg",
        "src1280": "https://cdn.pixabay.com/photo/2020/09/20/20/10/flowers-5588209_1280.jpg"
    },
    {
        "id": "5130864",
        "src640": "https://cdn.pixabay.com/photo/2020/05/04/21/30/flower-5130864_640.jpg",
        "src1280": "https://cdn.pixabay.com/photo/2020/05/04/21/30/flower-5130864_1280.jpg"
    },
    {
        "id": "6664957",
        "src640": "https://cdn.pixabay.com/photo/2021/09/28/16/13/lotus-6664957_640.jpg",
        "src1280": "https://cdn.pixabay.com/photo/2021/09/28/16/13/lotus-6664957_1280.jpg"
    },
    {
        "id": "7053549",
        "src640": "https://cdn.pixabay.com/photo/2022/03/07/12/30/tulips-7053549_640.jpg",
        "src1280": "https://cdn.pixabay.com/photo/2022/03/07/12/30/tulips-7053549_1280.jpg"
    },
    {
        "id": "242468",
        "src640": "https://cdn.pixabay.com/photo/2014/01/11/22/06/wildflower-242468_640.jpg",
        "src1280": "https://cdn.pixabay.com/photo/2014/01/11/22/06/wildflower-242468_1280.jpg"
    },
    {
        "id": "1912130",
        "src640": "https://cdn.pixabay.com/photo/2016/12/16/19/18/flower-1912130_640.jpg",
        "src1280": "https://cdn.pixabay.com/photo/2016/12/16/19/18/flower-1912130_1280.jpg"
    },
    {
        "id": "228379",
        "src640": "https://cdn.pixabay.com/photo/2013/12/14/07/53/fire-sage-228379_640.jpg",
        "src1280": "https://cdn.pixabay.com/photo/2013/12/14/07/53/fire-sage-228379_1280.jpg"
    },
    {
        "id": "6814836",
        "src640": "https://cdn.pixabay.com/photo/2021/11/21/17/58/flower-6814836_640.jpg",
        "src1280": "https://cdn.pixabay.com/photo/2021/11/21/17/58/flower-6814836_1280.jpg"
    },
    {
        "id": "3585231",
        "src640": "https://cdn.pixabay.com/photo/2018/08/05/09/53/grass-3585231_640.jpg",
        "src1280": "https://cdn.pixabay.com/photo/2018/08/05/09/53/grass-3585231_1280.jpg"
    },
    {
        "id": "810345",
        "src640": "https://cdn.pixabay.com/photo/2015/06/15/16/40/window-810345_640.jpg",
        "src1280": "https://cdn.pixabay.com/photo/2015/06/15/16/40/window-810345_1280.jpg"
    },
    {
        "id": "2783518",
        "src640": "https://cdn.pixabay.com/photo/2017/09/24/22/45/lily-2783518_640.jpg",
        "src1280": "https://cdn.pixabay.com/photo/2017/09/24/22/45/lily-2783518_1280.jpg"
    },
    {
        "id": "7109273",
        "src640": "https://cdn.pixabay.com/photo/2022/04/03/15/33/flower-7109273_640.jpg",
        "src1280": "https://cdn.pixabay.com/photo/2022/04/03/15/33/flower-7109273_1280.jpg"
    },
    {
        "id": "6253731",
        "src640": "https://cdn.pixabay.com/photo/2021/05/14/15/38/flower-6253731_640.jpg",
        "src1280": "https://cdn.pixabay.com/photo/2021/05/14/15/38/flower-6253731_1280.jpg"
    },
    {
        "id": "6274895",
        "src640": "https://cdn.pixabay.com/photo/2021/05/23/00/49/lotus-6274895_640.jpg",
        "src1280": "https://cdn.pixabay.com/photo/2021/05/23/00/49/lotus-6274895_1280.jpg"
    },
    {
        "id": "6667570",
        "src640": "https://cdn.pixabay.com/photo/2021/09/29/14/13/flowers-6667570_640.jpg",
        "src1280": "https://cdn.pixabay.com/photo/2021/09/29/14/13/flowers-6667570_1280.jpg"
    },
    {
        "id": "1569507",
        "src640": "https://cdn.pixabay.com/photo/2016/08/04/17/02/grass-1569507_640.jpg",
        "src1280": "https://cdn.pixabay.com/photo/2016/08/04/17/02/grass-1569507_1280.jpg"
    },
    {
        "id": "5657824",
        "src640": "https://cdn.pixabay.com/photo/2020/10/15/19/38/woman-5657824_640.jpg",
        "src1280": "https://cdn.pixabay.com/photo/2020/10/15/19/38/woman-5657824_1280.jpg"
    },
    {
        "id": "17534",
        "src640": "https://cdn.pixabay.com/photo/2012/02/27/17/05/begonia-17534_640.jpg",
        "src1280": "https://cdn.pixabay.com/photo/2012/02/27/17/05/begonia-17534_1280.jpg"
    },
    {
        "id": "1515299",
        "src640": "https://cdn.pixabay.com/photo/2016/07/13/19/32/tulip-1515299_640.jpg",
        "src1280": "https://cdn.pixabay.com/photo/2016/07/13/19/32/tulip-1515299_1280.jpg"
    },
    {
        "id": "755318",
        "src640": "https://cdn.pixabay.com/photo/2015/05/06/14/46/tulip-755318_640.jpg",
        "src1280": "https://cdn.pixabay.com/photo/2015/05/06/14/46/tulip-755318_1280.jpg"
    },
    {
        "id": "6403602",
        "src640": "https://cdn.pixabay.com/photo/2021/07/11/12/02/rose-6403602_640.jpg",
        "src1280": "https://cdn.pixabay.com/photo/2021/07/11/12/02/rose-6403602_1280.jpg"
    },
    {
        "id": "5936300",
        "src640": "https://cdn.pixabay.com/photo/2021/01/21/05/26/lotus-5936300_640.jpg",
        "src1280": "https://cdn.pixabay.com/photo/2021/01/21/05/26/lotus-5936300_1280.jpg"
    },
    {
        "id": "7304009",
        "src640": "https://cdn.pixabay.com/photo/2022/07/05/21/34/background-7304009_640.jpg",
        "src1280": "https://cdn.pixabay.com/photo/2022/07/05/21/34/background-7304009_1280.jpg"
    },
    {
        "id": "6527233",
        "src640": "https://cdn.pixabay.com/photo/2021/08/06/21/24/dahlia-6527233_640.jpg",
        "src1280": "https://cdn.pixabay.com/photo/2021/08/06/21/24/dahlia-6527233_1280.jpg"
    },
    {
        "id": "7167679",
        "src640": "https://cdn.pixabay.com/photo/2022/05/01/14/31/woman-7167679_640.jpg",
        "src1280": "https://cdn.pixabay.com/photo/2022/05/01/14/31/woman-7167679_1280.jpg"
    },
    {
        "id": "5121322",
        "src640": "https://cdn.pixabay.com/photo/2020/05/02/13/03/child-5121322_640.jpg",
        "src1280": "https://cdn.pixabay.com/photo/2020/05/02/13/03/child-5121322_1280.jpg"
    },
    {
        "id": "7101237",
        "src640": "https://cdn.pixabay.com/photo/2022/03/30/14/01/roses-7101237_640.jpg",
        "src1280": "https://cdn.pixabay.com/photo/2022/03/30/14/01/roses-7101237_1280.jpg"
    },
    {
        "id": "2654986",
        "src640": "https://cdn.pixabay.com/photo/2017/08/18/13/31/white-2654986_640.jpg",
        "src1280": "https://cdn.pixabay.com/photo/2017/08/18/13/31/white-2654986_1280.jpg"
    },
    {
        "id": "7337372",
        "src640": "https://cdn.pixabay.com/photo/2022/07/22/05/55/apple-7337372_640.jpg",
        "src1280": "https://cdn.pixabay.com/photo/2022/07/22/05/55/apple-7337372_1280.jpg"
    },
    {
        "id": "6290927",
        "src640": "https://cdn.pixabay.com/photo/2021/05/28/13/55/lotus-6290927_640.jpg",
        "src1280": "https://cdn.pixabay.com/photo/2021/05/28/13/55/lotus-6290927_1280.jpg"
    },
    {
        "id": "7904409",
        "src640": "https://cdn.pixabay.com/photo/2023/04/06/15/56/ai-generated-7904409_640.jpg",
        "src1280": "https://cdn.pixabay.com/photo/2023/04/06/15/56/ai-generated-7904409_1280.jpg"
    },
    {
        "id": "4859199",
        "src640": "https://cdn.pixabay.com/photo/2020/02/18/11/30/close-up-4859199_640.jpg",
        "src1280": "https://cdn.pixabay.com/photo/2020/02/18/11/30/close-up-4859199_1280.jpg"
    },
    {
        "id": "849074",
        "src640": "https://cdn.pixabay.com/photo/2015/07/17/11/29/daisies-849074_640.jpg",
        "src1280": "https://cdn.pixabay.com/photo/2015/07/17/11/29/daisies-849074_1280.jpg"
    },
    {
        "id": "6311571",
        "src640": "https://cdn.pixabay.com/photo/2021/06/05/05/40/lotus-6311571_640.jpg",
        "src1280": "https://cdn.pixabay.com/photo/2021/06/05/05/40/lotus-6311571_1280.jpg"
    },
    {
        "id": "6242567",
        "src640": "https://cdn.pixabay.com/photo/2021/05/10/05/04/ao-dai-6242567_640.jpg",
        "src1280": "https://cdn.pixabay.com/photo/2021/05/10/05/04/ao-dai-6242567_1280.jpg"
    },
    {
        "id": "5167117",
        "src640": "https://cdn.pixabay.com/photo/2020/05/13/11/24/pink-5167117_640.jpg",
        "src1280": "https://cdn.pixabay.com/photo/2020/05/13/11/24/pink-5167117_1280.jpg"
    },
    {
        "id": "1284602",
        "src640": "https://cdn.pixabay.com/photo/2016/03/27/22/59/wildflower-1284602_640.jpg",
        "src1280": "https://cdn.pixabay.com/photo/2016/03/27/22/59/wildflower-1284602_1280.jpg"
    },
    {
        "id": "7109259",
        "src640": "https://cdn.pixabay.com/photo/2022/04/03/15/32/flower-7109259_640.jpg",
        "src1280": "https://cdn.pixabay.com/photo/2022/04/03/15/32/flower-7109259_1280.jpg"
    },
    {
        "id": "5462609",
        "src640": "https://cdn.pixabay.com/photo/2020/08/04/11/59/flower-5462609_640.jpg",
        "src1280": "https://cdn.pixabay.com/photo/2020/08/04/11/59/flower-5462609_1280.jpg"
    },
    {
        "id": "6565129",
        "src640": "https://cdn.pixabay.com/photo/2021/08/22/13/23/butterfly-6565129_640.jpg",
        "src1280": "https://cdn.pixabay.com/photo/2021/08/22/13/23/butterfly-6565129_1280.jpg"
    },
    {
        "id": "5474890",
        "src640": "https://cdn.pixabay.com/photo/2020/08/09/08/18/flowers-5474890_640.jpg",
        "src1280": "https://cdn.pixabay.com/photo/2020/08/09/08/18/flowers-5474890_1280.jpg"
    },
    {
        "id": "7052330",
        "src640": "https://cdn.pixabay.com/photo/2022/03/06/19/01/tulips-7052330_640.jpg",
        "src1280": "https://cdn.pixabay.com/photo/2022/03/06/19/01/tulips-7052330_1280.jpg"
    },
    {
        "id": "3723097",
        "src640": "https://cdn.pixabay.com/photo/2018/10/04/07/22/nature-3723097_640.jpg",
        "src1280": "https://cdn.pixabay.com/photo/2018/10/04/07/22/nature-3723097_1280.jpg"
    },
    {
        "id": "19093",
        "src640": "https://cdn.pixabay.com/photo/2012/02/29/15/42/lilies-19093_640.jpg",
        "src1280": "https://cdn.pixabay.com/photo/2012/02/29/15/42/lilies-19093_1280.jpg"
    },
    {
        "id": "2990205",
        "src640": "https://cdn.pixabay.com/photo/2017/12/01/06/09/leann-2990205_640.jpg",
        "src1280": "https://cdn.pixabay.com/photo/2017/12/01/06/09/leann-2990205_1280.jpg"
    },
    {
        "id": "6663386",
        "src640": "https://cdn.pixabay.com/photo/2021/09/28/05/53/girl-6663386_640.jpg",
        "src1280": "https://cdn.pixabay.com/photo/2021/09/28/05/53/girl-6663386_1280.jpg"
    },
    {
        "id": "7783825",
        "src640": "https://cdn.pixabay.com/photo/2023/02/11/22/29/background-7783825_640.jpg",
        "src1280": "https://cdn.pixabay.com/photo/2023/02/11/22/29/background-7783825_1280.jpg"
    },
    {
        "id": "6316237",
        "src640": "https://cdn.pixabay.com/photo/2021/06/06/19/51/lilac-6316237_640.jpg",
        "src1280": "https://cdn.pixabay.com/photo/2021/06/06/19/51/lilac-6316237_1280.jpg"
    },
    {
        "id": "4914606",
        "src640": "https://cdn.pixabay.com/photo/2020/03/09/05/34/knife-4914606_640.jpg",
        "src1280": "https://cdn.pixabay.com/photo/2020/03/09/05/34/knife-4914606_1280.jpg"
    },
    {
        "id": "7595583",
        "src640": "https://cdn.pixabay.com/photo/2022/11/16/09/42/christmas-7595583_640.jpg",
        "src1280": "https://cdn.pixabay.com/photo/2022/11/16/09/42/christmas-7595583_1280.jpg"
    },
    {
        "id": "7324604",
        "src640": "https://cdn.pixabay.com/photo/2022/07/16/07/24/lotus-7324604_640.jpg",
        "src1280": "https://cdn.pixabay.com/photo/2022/07/16/07/24/lotus-7324604_1280.jpg"
    },
    {
        "id": "7609681",
        "src640": "https://cdn.pixabay.com/photo/2022/11/22/13/27/tulip-7609681_640.jpg",
        "src1280": "https://cdn.pixabay.com/photo/2022/11/22/13/27/tulip-7609681_1280.jpg"
    },
    {
        "id": "8051682",
        "src640": "https://cdn.pixabay.com/photo/2023/06/09/13/15/silhouette-8051682_640.jpg",
        "src1280": "https://cdn.pixabay.com/photo/2023/06/09/13/15/silhouette-8051682_1280.jpg"
    },
    {
        "id": "6652561",
        "src640": "https://cdn.pixabay.com/photo/2021/09/24/13/36/rose-6652561_640.jpg",
        "src1280": "https://cdn.pixabay.com/photo/2021/09/24/13/36/rose-6652561_1280.jpg"
    },
    {
        "id": "7012",
        "src640": "https://cdn.pixabay.com/photo/2011/04/21/03/56/marguerite-7012_640.jpg",
        "src1280": "https://cdn.pixabay.com/photo/2011/04/21/03/56/marguerite-7012_1280.jpg"
    }
]