[
    {
        "id": "7238125",
        "src640": "https://cdn.pixabay.com/photo/2022/06/02/14/22/italian-alkanet-7238125_640.jpg",
        "src1280": "https://cdn.pixabay.com/photo/2022/06/02/14/22/italian-alkanet-7238125_1280.jpg"
    },
    {
        "id": "1617147",
        "src640": "https://cdn.pixabay.com/photo/2016/08/24/14/50/salzburg-1617147_640.jpg",
        "src1280": "https://cdn.pixabay.com/photo/2016/08/24/14/50/salzburg-1617147_1280.jpg"
    },
    {
        "id": "4130467",
        "src640": "https://cdn.pixabay.com/photo/2019/04/15/22/20/400500-4130467_640.jpg",
        "src1280": "https://cdn.pixabay.com/photo/2019/04/15/22/20/400500-4130467_1280.jpg"
    },
    {
        "id": "4992688",
        "src640": "https://cdn.pixabay.com/photo/2020/04/01/20/45/flower-4992688_640.jpg",
        "src1280": "https://cdn.pixabay.com/photo/2020/04/01/20/45/flower-4992688_1280.jpg"
    },
    {
        "id": "7692882",
        "src640": "https://cdn.pixabay.com/photo/2023/01/02/19/56/art-7692882_640.jpg",
        "src1280": "https://cdn.pixabay.com/photo/2023/01/02/19/56/art-7692882_1280.jpg"
    },
    {
        "id": "6371431",
        "src640": "https://cdn.pixabay.com/photo/2021/06/28/12/09/flowers-6371431_640.jpg",
        "src1280": "https://cdn.pixabay.com/photo/2021/06/28/12/09/flowers-6371431_1280.jpg"
    },
    {
        "id": "2483535",
        "src640": "https://cdn.pixabay.com/photo/2017/07/08/04/43/flower-2483535_640.jpg",
        "src1280": "https://cdn.pixabay.com/photo/2017/07/08/04/43/flower-2483535_1280.jpg"
    },
    {
        "id": "670519",
        "src640": "https://cdn.pixabay.com/photo/2015/03/12/17/25/nature-670519_640.jpg",
        "src1280": "https://cdn.pixabay.com/photo/2015/03/12/17/25/nature-670519_1280.jpg"
    },
    {
        "id": "215779",
        "src640": "https://cdn.pixabay.com/photo/2013/11/22/17/23/brick-215779_640.jpg",
        "src1280": "https://cdn.pixabay.com/photo/2013/11/22/17/23/brick-215779_1280.jpg"
    },
    {
        "id": "7082691",
        "src640": "https://cdn.pixabay.com/photo/2022/03/21/09/17/background-7082691_640.jpg",
        "src1280": "https://cdn.pixabay.com/photo/2022/03/21/09/17/background-7082691_1280.jpg"
    },
    {
        "id": "6983407",
        "src640": "https://cdn.pixabay.com/photo/2022/01/31/12/36/hibiscus-6983407_640.jpg",
        "src1280": "https://cdn.pixabay.com/photo/2022/01/31/12/36/hibiscus-6983407_1280.jpg"
    },
    {
        "id": "7496680",
        "src640": "https://cdn.pixabay.com/photo/2022/10/03/19/08/flower-7496680_640.jpg",
        "src1280": "https://cdn.pixabay.com/photo/2022/10/03/19/08/flower-7496680_1280.jpg"
    },
    {
        "id": "5255262",
        "src640": "https://cdn.pixabay.com/photo/2020/06/03/15/05/denim-5255262_640.jpg",
        "src1280": "https://cdn.pixabay.com/photo/2020/06/03/15/05/denim-5255262_1280.jpg"
    },
    {
        "id": "7295832",
        "src640": "https://cdn.pixabay.com/photo/2022/07/01/15/40/rose-7295832_640.jpg",
        "src1280": "https://cdn.pixabay.com/photo/2022/07/01/15/40/rose-7295832_1280.jpg"
    },
    {
        "id": "5576796",
        "src640": "https://cdn.pixabay.com/photo/2020/09/16/16/10/model-5576796_640.jpg",
        "src1280": "https://cdn.pixabay.com/photo/2020/09/16/16/10/model-5576796_1280.jpg"
    },
    {
        "id": "7506290",
        "src640": "https://cdn.pixabay.com/photo/2022/10/08/05/32/tulips-7506290_640.jpg",
        "src1280": "https://cdn.pixabay.com/photo/2022/10/08/05/32/tulips-7506290_1280.jpg"
    },
    {
        "id": "7678227",
        "src640": "https://cdn.pixabay.com/photo/2022/12/26/04/31/lotus-7678227_640.jpg",
        "src1280": "https://cdn.pixabay.com/photo/2022/12/26/04/31/lotus-7678227_1280.jpg"
    },
    {
        "id": "7116711",
        "src640": "https://cdn.pixabay.com/photo/2022/04/07/02/59/korean-rhododendron-7116711_640.jpg",
        "src1280": "https://cdn.pixabay.com/photo/2022/04/07/02/59/korean-rhododendron-7116711_1280.jpg"
    },
    {
        "id": "4059749",
        "src640": "https://cdn.pixabay.com/photo/2019/03/16/21/04/pink-gladiola-flower-4059749_640.jpg",
        "src1280": "https://cdn.pixabay.com/photo/2019/03/16/21/04/pink-gladiola-flower-4059749_1280.jpg"
    },
    {
        "id": "563556",
        "src640": "https://cdn.pixabay.com/photo/2014/12/10/23/08/cyclamen-563556_640.jpg",
        "src1280": "https://cdn.pixabay.com/photo/2014/12/10/23/08/cyclamen-563556_1280.jpg"
    },
    {
        "id": "6380486",
        "src640": "https://cdn.pixabay.com/photo/2021/07/01/22/58/foxgloves-6380486_640.jpg",
        "src1280": "https://cdn.pixabay.com/photo/2021/07/01/22/58/foxgloves-6380486_1280.jpg"
    },
    {
        "id": "7717667",
        "src640": "https://cdn.pixabay.com/photo/2023/01/14/07/38/animal-7717667_640.jpg",
        "src1280": "https://cdn.pixabay.com/photo/2023/01/14/07/38/animal-7717667_1280.jpg"
    },
    {
        "id": "5400926",
        "src640": "https://cdn.pixabay.com/photo/2020/07/13/14/28/daisy-5400926_640.jpg",
        "src1280": "https://cdn.pixabay.com/photo/2020/07/13/14/28/daisy-5400926_1280.jpg"
    },
    {
        "id": "7248277",
        "src640": "https://cdn.pixabay.com/photo/2022/06/07/12/26/banana-blossom-7248277_640.jpg",
        "src1280": "https://cdn.pixabay.com/photo/2022/06/07/12/26/banana-blossom-7248277_1280.jpg"
    },
    {
        "id": "7357873",
        "src640": "https://cdn.pixabay.com/photo/2022/08/01/10/35/poppies-7357873_640.jpg",
        "src1280": "https://cdn.pixabay.com/photo/2022/08/01/10/35/poppies-7357873_1280.jpg"
    },
    {
        "id": "7059074",
        "src640": "https://cdn.pixabay.com/photo/2022/03/10/04/54/cosmos-7059074_640.jpg",
        "src1280": "https://cdn.pixabay.com/photo/2022/03/10/04/54/cosmos-7059074_1280.jpg"
    },
    {
        "id": "3339497",
        "src640": "https://cdn.pixabay.com/photo/2018/04/21/20/50/clothing-3339497_640.jpg",
        "src1280": "https://cdn.pixabay.com/photo/2018/04/21/20/50/clothing-3339497_1280.jpg"
    },
    {
        "id": "4142361",
        "src640": "https://cdn.pixabay.com/photo/2019/04/20/18/06/crystal-ball-4142361_640.jpg",
        "src1280": "https://cdn.pixabay.com/photo/2019/04/20/18/06/crystal-ball-4142361_1280.jpg"
    },
    {
        "id": "1898763",
        "src640": "https://cdn.pixabay.com/photo/2016/12/11/04/25/bee-1898763_640.jpg",
        "src1280": "https://cdn.pixabay.com/photo/2016/12/11/04/25/bee-1898763_1280.jpg"
    },
    {
        "id": "2837466",
        "src640": "https://cdn.pixabay.com/photo/2017/10/10/14/53/landscape-2837466_640.jpg",
        "src1280": "https://cdn.pixabay.com/photo/2017/10/10/14/53/landscape-2837466_1280.jpg"
    },
    {
        "id": "4789844",
        "src640": "https://cdn.pixabay.com/photo/2020/01/24/10/18/dandelion-4789844_640.jpg",
        "src1280": "https://cdn.pixabay.com/photo/2020/01/24/10/18/dandelion-4789844_1280.jpg"
    },
    {
        "id": "2808881",
        "src640": "https://cdn.pixabay.com/photo/2017/10/02/13/54/cosmos-2808881_640.jpg",
        "src1280": "https://cdn.pixabay.com/photo/2017/10/02/13/54/cosmos-2808881_1280.jpg"
    },
    {
        "id": "5365539",
        "src640": "https://cdn.pixabay.com/photo/2020/07/03/07/59/flower-5365539_640.jpg",
        "src1280": "https://cdn.pixabay.com/photo/2020/07/03/07/59/flower-5365539_1280.jpg"
    },
    {
        "id": "4163639",
        "src640": "https://cdn.pixabay.com/photo/2019/04/28/16/44/tulip-4163639_640.jpg",
        "src1280": "https://cdn.pixabay.com/photo/2019/04/28/16/44/tulip-4163639_1280.jpg"
    },
    {
        "id": "6339979",
        "src640": "https://cdn.pixabay.com/photo/2021/06/16/02/16/girl-6339979_640.jpg",
        "src1280": "https://cdn.pixabay.com/photo/2021/06/16/02/16/girl-6339979_1280.jpg"
    },
    {
        "id": "6984975",
        "src640": "https://cdn.pixabay.com/photo/2022/01/31/20/23/flowers-6984975_640.jpg",
        "src1280": "https://cdn.pixabay.com/photo/2022/01/31/20/23/flowers-6984975_1280.jpg"
    },
    {
        "id": "6581313",
        "src640": "https://cdn.pixabay.com/photo/2021/08/28/15/56/butterfly-6581313_640.jpg",
        "src1280": "https://cdn.pixabay.com/photo/2021/08/28/15/56/butterfly-6581313_1280.jpg"
    },
    {
        "id": "873260",
        "src640": "https://cdn.pixabay.com/photo/2015/08/03/12/33/grain-873260_640.jpg",
        "src1280": "https://cdn.pixabay.com/photo/2015/08/03/12/33/grain-873260_1280.jpg"
    },
    {
        "id": "1121055",
        "src640": "https://cdn.pixabay.com/photo/2016/01/04/15/29/flower-1121055_640.jpg",
        "src1280": "https://cdn.pixabay.com/photo/2016/01/04/15/29/flower-1121055_1280.jpg"
    },
    {
        "id": "3602431",
        "src640": "https://cdn.pixabay.com/photo/2018/08/13/07/14/nature-3602431_640.jpg",
        "src1280": "https://cdn.pixabay.com/photo/2018/08/13/07/14/nature-3602431_1280.jpg"
    },
    {
        "id": "1104421",
        "src640": "https://cdn.pixabay.com/photo/2015/12/22/17/49/food-1104421_640.jpg",
        "src1280": "https://cdn.pixabay.com/photo/2015/12/22/17/49/food-1104421_1280.jpg"
    },
    {
        "id": "3582723",
        "src640": "https://cdn.pixabay.com/photo/2018/08/03/20/42/insect-3582723_640.jpg",
        "src1280": "https://cdn.pixabay.com/photo/2018/08/03/20/42/insect-3582723_1280.jpg"
    },
    {
        "id": "19179",
        "src640": "https://cdn.pixabay.com/photo/2012/02/29/15/49/flower-19179_640.jpg",
        "src1280": "https://cdn.pixabay.com/photo/2012/02/29/15/49/flower-19179_1280.jpg"
    },
    {
        "id": "670685",
        "src640": "https://cdn.pixabay.com/photo/2015/03/12/19/24/autumn-670685_640.jpg",
        "src1280": "https://cdn.pixabay.com/photo/2015/03/12/19/24/autumn-670685_1280.jpg"
    },
    {
        "id": "7195313",
        "src640": "https://cdn.pixabay.com/photo/2022/05/14/10/04/chickweed-7195313_640.jpg",
        "src1280": "https://cdn.pixabay.com/photo/2022/05/14/10/04/chickweed-7195313_1280.jpg"
    },
    {
        "id": "4916471",
        "src640": "https://cdn.pixabay.com/photo/2020/03/09/17/18/sky-4916471_640.jpg",
        "src1280": "https://cdn.pixabay.com/photo/2020/03/09/17/18/sky-4916471_1280.jpg"
    },
    {
        "id": "4130176",
        "src640": "https://cdn.pixabay.com/photo/2019/04/15/19/44/decoration-4130176_640.jpg",
        "src1280": "https://cdn.pixabay.com/photo/2019/04/15/19/44/decoration-4130176_1280.jpg"
    },
    {
        "id": "7035446",
        "src640": "https://cdn.pixabay.com/photo/2022/02/26/08/50/flowers-7035446_640.jpg",
        "src1280": "https://cdn.pixabay.com/photo/2022/02/26/08/50/flowers-7035446_1280.jpg"
    },
    {
        "id": "7095666",
        "src640": "https://cdn.pixabay.com/photo/2022/03/27/17/14/ivy-7095666_640.jpg",
        "src1280": "https://cdn.pixabay.com/photo/2022/03/27/17/14/ivy-7095666_1280.jpg"
    },
    {
        "id": "7140624",
        "src640": "https://cdn.pixabay.com/photo/2022/04/18/13/49/easter-7140624_640.jpg",
        "src1280": "https://cdn.pixabay.com/photo/2022/04/18/13/49/easter-7140624_1280.jpg"
    },
    {
        "id": "4355640",
        "src640": "https://cdn.pixabay.com/photo/2019/07/22/17/22/rose-4355640_640.jpg",
        "src1280": "https://cdn.pixabay.com/photo/2019/07/22/17/22/rose-4355640_1280.jpg"
    },
    {
        "id": "443309",
        "src640": "https://cdn.pixabay.com/photo/2014/09/12/20/58/flowers-443309_640.jpg",
        "src1280": "https://cdn.pixabay.com/photo/2014/09/12/20/58/flowers-443309_1280.jpg"
    },
    {
        "id": "2727798",
        "src640": "https://cdn.pixabay.com/photo/2017/09/08/05/39/lantana-2727798_640.jpg",
        "src1280": "https://cdn.pixabay.com/photo/2017/09/08/05/39/lantana-2727798_1280.jpg"
    },
    {
        "id": "7371807",
        "src640": "https://cdn.pixabay.com/photo/2022/08/08/04/23/butterfly-7371807_640.jpg",
        "src1280": "https://cdn.pixabay.com/photo/2022/08/08/04/23/butterfly-7371807_1280.jpg"
    },
    {
        "id": "7387342",
        "src640": "https://cdn.pixabay.com/photo/2022/08/15/08/01/flower-7387342_640.jpg",
        "src1280": "https://cdn.pixabay.com/photo/2022/08/15/08/01/flower-7387342_1280.jpg"
    },
    {
        "id": "5178891",
        "src640": "https://cdn.pixabay.com/photo/2020/05/16/19/30/camera-5178891_640.jpg",
        "src1280": "https://cdn.pixabay.com/photo/2020/05/16/19/30/camera-5178891_1280.jpg"
    },
    {
        "id": "4019004",
        "src640": "https://cdn.pixabay.com/photo/2019/02/25/07/38/heart-4019004_640.jpg",
        "src1280": "https://cdn.pixabay.com/photo/2019/02/25/07/38/heart-4019004_1280.jpg"
    },
    {
        "id": "7148097",
        "src640": "https://cdn.pixabay.com/photo/2022/04/21/18/42/flowers-7148097_640.jpg",
        "src1280": "https://cdn.pixabay.com/photo/2022/04/21/18/42/flowers-7148097_1280.jpg"
    },
    {
        "id": "4821495",
        "src640": "https://cdn.pixabay.com/photo/2020/02/05/15/23/nature-4821495_640.jpg",
        "src1280": "https://cdn.pixabay.com/photo/2020/02/05/15/23/nature-4821495_1280.jpg"
    },
    {
        "id": "6265104",
        "src640": "https://cdn.pixabay.com/photo/2021/05/19/06/33/tulips-6265104_640.jpg",
        "src1280": "https://cdn.pixabay.com/photo/2021/05/19/06/33/tulips-6265104_1280.jpg"
    },
    {
        "id": "7228420",
        "src640": "https://cdn.pixabay.com/photo/2022/05/29/05/05/tulips-7228420_640.jpg",
        "src1280": "https://cdn.pixabay.com/photo/2022/05/29/05/05/tulips-7228420_1280.jpg"
    },
    {
        "id": "2808869",
        "src640": "https://cdn.pixabay.com/photo/2017/10/02/13/51/orchid-2808869_640.jpg",
        "src1280": "https://cdn.pixabay.com/photo/2017/10/02/13/51/orchid-2808869_1280.jpg"
    },
    {
        "id": "1505815",
        "src640": "https://cdn.pixabay.com/photo/2016/07/09/07/19/flower-1505815_640.jpg",
        "src1280": "https://cdn.pixabay.com/photo/2016/07/09/07/19/flower-1505815_1280.jpg"
    },
    {
        "id": "4500408",
        "src640": "https://cdn.pixabay.com/photo/2019/09/24/06/36/flowers-4500408_640.jpg",
        "src1280": "https://cdn.pixabay.com/photo/2019/09/24/06/36/flowers-4500408_1280.jpg"
    },
    {
        "id": "1731779",
        "src640": "https://cdn.pixabay.com/photo/2016/10/11/14/46/flowers-1731779_640.jpg",
        "src1280": "https://cdn.pixabay.com/photo/2016/10/11/14/46/flowers-1731779_1280.jpg"
    },
    {
        "id": "4965274",
        "src640": "https://cdn.pixabay.com/photo/2020/03/24/19/33/hyacinth-4965274_640.jpg",
        "src1280": "https://cdn.pixabay.com/photo/2020/03/24/19/33/hyacinth-4965274_1280.jpg"
    },
    {
        "id": "8029575",
        "src640": "https://cdn.pixabay.com/photo/2023/05/30/19/18/daisy-8029575_640.jpg",
        "src1280": "https://cdn.pixabay.com/photo/2023/05/30/19/18/daisy-8029575_1280.jpg"
    },
    {
        "id": "814122",
        "src640": "https://cdn.pixabay.com/photo/2015/06/18/21/02/barn-814122_640.jpg",
        "src1280": "https://cdn.pixabay.com/photo/2015/06/18/21/02/barn-814122_1280.jpg"
    },
    {
        "id": "815012",
        "src640": "https://cdn.pixabay.com/photo/2015/06/19/15/05/flower-815012_640.jpg",
        "src1280": "https://cdn.pixabay.com/photo/2015/06/19/15/05/flower-815012_1280.jpg"
    },
    {
        "id": "1790997",
        "src640": "https://cdn.pixabay.com/photo/2016/11/02/10/02/flower-1790997_640.jpg",
        "src1280": "https://cdn.pixabay.com/photo/2016/11/02/10/02/flower-1790997_1280.jpg"
    },
    {
        "id": "7310559",
        "src640": "https://cdn.pixabay.com/photo/2022/07/09/10/10/butterfly-7310559_640.jpg",
        "src1280": "https://cdn.pixabay.com/photo/2022/07/09/10/10/butterfly-7310559_1280.jpg"
    },
    {
        "id": "5762547",
        "src640": "https://cdn.pixabay.com/photo/2020/11/20/20/08/flower-5762547_640.jpg",
        "src1280": "https://cdn.pixabay.com/photo/2020/11/20/20/08/flower-5762547_1280.jpg"
    },
    {
        "id": "7312279",
        "src640": "https://cdn.pixabay.com/photo/2022/07/10/06/31/bee-7312279_640.jpg",
        "src1280": "https://cdn.pixabay.com/photo/2022/07/10/06/31/bee-7312279_1280.jpg"
    },
    {
        "id": "1107681",
        "src640": "https://cdn.pixabay.com/photo/2015/12/25/14/19/tulip-1107681_640.jpg",
        "src1280": "https://cdn.pixabay.com/photo/2015/12/25/14/19/tulip-1107681_1280.jpg"
    },
    {
        "id": "2435282",
        "src640": "https://cdn.pixabay.com/photo/2017/06/23/17/08/flower-2435282_640.jpg",
        "src1280": "https://cdn.pixabay.com/photo/2017/06/23/17/08/flower-2435282_1280.jpg"
    },
    {
        "id": "2322565",
        "src640": "https://cdn.pixabay.com/photo/2017/05/18/05/30/lily-of-the-valley-2322565_640.jpg",
        "src1280": "https://cdn.pixabay.com/photo/2017/05/18/05/30/lily-of-the-valley-2322565_1280.jpg"
    },
    {
        "id": "2590239",
        "src640": "https://cdn.pixabay.com/photo/2017/08/06/08/23/flower-2590239_640.jpg",
        "src1280": "https://cdn.pixabay.com/photo/2017/08/06/08/23/flower-2590239_1280.jpg"
    },
    {
        "id": "4480131",
        "src640": "https://cdn.pixabay.com/photo/2019/09/16/07/40/grass-4480131_640.jpg",
        "src1280": "https://cdn.pixabay.com/photo/2019/09/16/07/40/grass-4480131_1280.jpg"
    },
    {
        "id": "3981217",
        "src640": "https://cdn.pixabay.com/photo/2019/02/07/13/30/flower-3981217_640.jpg",
        "src1280": "https://cdn.pixabay.com/photo/2019/02/07/13/30/flower-3981217_1280.jpg"
    },
    {
        "id": "1525169",
        "src640": "https://cdn.pixabay.com/photo/2016/07/18/02/46/dahlia-1525169_640.jpg",
        "src1280": "https://cdn.pixabay.com/photo/2016/07/18/02/46/dahlia-1525169_1280.jpg"
    },
    {
        "id": "8096824",
        "src640": "https://cdn.pixabay.com/photo/2023/06/29/17/56/huge-steppe-candle-8096824_640.jpg",
        "src1280": "https://cdn.pixabay.com/photo/2023/06/29/17/56/huge-steppe-candle-8096824_1280.jpg"
    },
    {
        "id": "6383606",
        "src640": "https://cdn.pixabay.com/photo/2021/07/03/10/39/flower-6383606_640.jpg",
        "src1280": "https://cdn.pixabay.com/photo/2021/07/03/10/39/flower-6383606_1280.jpg"
    },
    {
        "id": "7168996",
        "src640": "https://cdn.pixabay.com/photo/2022/05/02/06/59/bee-7168996_640.jpg",
        "src1280": "https://cdn.pixabay.com/photo/2022/05/02/06/59/bee-7168996_1280.jpg"
    },
    {
        "id": "4235759",
        "src640": "https://cdn.pixabay.com/photo/2019/05/28/18/16/flower-4235759_640.jpg",
        "src1280": "https://cdn.pixabay.com/photo/2019/05/28/18/16/flower-4235759_1280.jpg"
    },
    {
        "id": "807000",
        "src640": "https://cdn.pixabay.com/photo/2015/06/12/14/35/flower-807000_640.jpg",
        "src1280": "https://cdn.pixabay.com/photo/2015/06/12/14/35/flower-807000_1280.jpg"
    },
    {
        "id": "2478394",
        "src640": "https://cdn.pixabay.com/photo/2017/07/06/15/39/flower-2478394_640.jpg",
        "src1280": "https://cdn.pixabay.com/photo/2017/07/06/15/39/flower-2478394_1280.jpg"
    },
    {
        "id": "7236331",
        "src640": "https://cdn.pixabay.com/photo/2022/06/01/18/24/plant-7236331_640.jpg",
        "src1280": "https://cdn.pixabay.com/photo/2022/06/01/18/24/plant-7236331_1280.jpg"
    },
    {
        "id": "6142995",
        "src640": "https://cdn.pixabay.com/photo/2021/04/01/18/29/bug-6142995_640.jpg",
        "src1280": "https://cdn.pixabay.com/photo/2021/04/01/18/29/bug-6142995_1280.jpg"
    },
    {
        "id": "7346822",
        "src640": "https://cdn.pixabay.com/photo/2022/07/26/22/38/daffodils-7346822_640.jpg",
        "src1280": "https://cdn.pixabay.com/photo/2022/07/26/22/38/daffodils-7346822_1280.jpg"
    },
    {
        "id": "2743065",
        "src640": "https://cdn.pixabay.com/photo/2017/09/12/17/46/flowers-2743065_640.jpg",
        "src1280": "https://cdn.pixabay.com/photo/2017/09/12/17/46/flowers-2743065_1280.jpg"
    },
    {
        "id": "5230162",
        "src640": "https://cdn.pixabay.com/photo/2020/05/28/07/04/flowers-5230162_640.jpg",
        "src1280": "https://cdn.pixabay.com/photo/2020/05/28/07/04/flowers-5230162_1280.jpg"
    },
    {
        "id": "7578102",
        "src640": "https://cdn.pixabay.com/photo/2022/11/08/09/31/background-7578102_640.jpg",
        "src1280": "https://cdn.pixabay.com/photo/2022/11/08/09/31/background-7578102_1280.jpg"
    }
]