[
    {
        "id": "5450483",
        "src640": "https://cdn.pixabay.com/photo/2020/07/30/15/04/tulip-5450483_640.jpg",
        "src1280": "https://cdn.pixabay.com/photo/2020/07/30/15/04/tulip-5450483_1280.jpg"
    },
    {
        "id": "5137029",
        "src640": "https://cdn.pixabay.com/photo/2020/05/06/10/06/daisy-5137029_640.jpg",
        "src1280": "https://cdn.pixabay.com/photo/2020/05/06/10/06/daisy-5137029_1280.jpg"
    },
    {
        "id": "5241664",
        "src640": "https://cdn.pixabay.com/photo/2020/05/31/07/55/gold-5241664_640.jpg",
        "src1280": "https://cdn.pixabay.com/photo/2020/05/31/07/55/gold-5241664_1280.jpg"
    },
    {
        "id": "5377468",
        "src640": "https://cdn.pixabay.com/photo/2020/07/06/16/13/tulip-5377468_640.jpg",
        "src1280": "https://cdn.pixabay.com/photo/2020/07/06/16/13/tulip-5377468_1280.jpg"
    },
    {
        "id": "5262282",
        "src640": "https://cdn.pixabay.com/photo/2020/06/05/09/14/needlework-5262282_640.jpg",
        "src1280": "https://cdn.pixabay.com/photo/2020/06/05/09/14/needlework-5262282_1280.jpg"
    },
    {
        "id": "5124217",
        "src640": "https://cdn.pixabay.com/photo/2020/05/03/08/10/bougainvillea-5124217_640.jpg",
        "src1280": "https://cdn.pixabay.com/photo/2020/05/03/08/10/bougainvillea-5124217_1280.jpg"
    },
    {
        "id": "5174419",
        "src640": "https://cdn.pixabay.com/photo/2020/05/15/17/30/rosa-5174419_640.jpg",
        "src1280": "https://cdn.pixabay.com/photo/2020/05/15/17/30/rosa-5174419_1280.jpg"
    },
    {
        "id": "4700002",
        "src640": "https://cdn.pixabay.com/photo/2019/12/16/18/56/colorful-4700002_640.jpg",
        "src1280": "https://cdn.pixabay.com/photo/2019/12/16/18/56/colorful-4700002_1280.jpg"
    },
    {
        "id": "3245758",
        "src640": "https://cdn.pixabay.com/photo/2018/03/21/06/44/shamrock-3245758_640.jpg",
        "src1280": "https://cdn.pixabay.com/photo/2018/03/21/06/44/shamrock-3245758_1280.jpg"
    },
    {
        "id": "4425488",
        "src640": "https://cdn.pixabay.com/photo/2019/08/23/10/32/flower-4425488_640.jpg",
        "src1280": "https://cdn.pixabay.com/photo/2019/08/23/10/32/flower-4425488_1280.jpg"
    },
    {
        "id": "5778005",
        "src640": "https://cdn.pixabay.com/photo/2020/11/26/06/16/christmas-trees-5778005_640.jpg",
        "src1280": "https://cdn.pixabay.com/photo/2020/11/26/06/16/christmas-trees-5778005_1280.jpg"
    },
    {
        "id": "4438320",
        "src640": "https://cdn.pixabay.com/photo/2019/08/29/06/45/wild-carrot-4438320_640.jpg",
        "src1280": "https://cdn.pixabay.com/photo/2019/08/29/06/45/wild-carrot-4438320_1280.jpg"
    },
    {
        "id": "2711015",
        "src640": "https://cdn.pixabay.com/photo/2017/09/03/16/31/narcissus-2711015_640.jpg",
        "src1280": "https://cdn.pixabay.com/photo/2017/09/03/16/31/narcissus-2711015_1280.jpg"
    },
    {
        "id": "1365890",
        "src640": "https://cdn.pixabay.com/photo/2016/05/01/20/48/away-1365890_640.jpg",
        "src1280": "https://cdn.pixabay.com/photo/2016/05/01/20/48/away-1365890_1280.jpg"
    },
    {
        "id": "7359472",
        "src640": "https://cdn.pixabay.com/photo/2022/08/02/04/11/city-7359472_640.jpg",
        "src1280": "https://cdn.pixabay.com/photo/2022/08/02/04/11/city-7359472_1280.jpg"
    },
    {
        "id": "5142125",
        "src640": "https://cdn.pixabay.com/photo/2020/05/07/16/15/flower-5142125_640.jpg",
        "src1280": "https://cdn.pixabay.com/photo/2020/05/07/16/15/flower-5142125_1280.jpg"
    },
    {
        "id": "5041095",
        "src640": "https://cdn.pixabay.com/photo/2020/04/14/06/33/flowers-5041095_640.jpg",
        "src1280": "https://cdn.pixabay.com/photo/2020/04/14/06/33/flowers-5041095_1280.jpg"
    },
    {
        "id": "7444073",
        "src640": "https://cdn.pixabay.com/photo/2022/09/10/01/03/yellow-flower-7444073_640.jpg",
        "src1280": "https://cdn.pixabay.com/photo/2022/09/10/01/03/yellow-flower-7444073_1280.jpg"
    },
    {
        "id": "3439548",
        "src640": "https://cdn.pixabay.com/photo/2018/05/29/18/11/fruit-3439548_640.jpg",
        "src1280": "https://cdn.pixabay.com/photo/2018/05/29/18/11/fruit-3439548_1280.jpg"
    },
    {
        "id": "5197824",
        "src640": "https://cdn.pixabay.com/photo/2020/05/20/19/02/dandelion-5197824_640.jpg",
        "src1280": "https://cdn.pixabay.com/photo/2020/05/20/19/02/dandelion-5197824_1280.jpg"
    },
    {
        "id": "5362106",
        "src640": "https://cdn.pixabay.com/photo/2020/07/02/07/45/loewenmaeulchen-5362106_640.jpg",
        "src1280": "https://cdn.pixabay.com/photo/2020/07/02/07/45/loewenmaeulchen-5362106_1280.jpg"
    },
    {
        "id": "4029499",
        "src640": "https://cdn.pixabay.com/photo/2019/03/02/09/37/flower-4029499_640.jpg",
        "src1280": "https://cdn.pixabay.com/photo/2019/03/02/09/37/flower-4029499_1280.jpg"
    },
    {
        "id": "4320737",
        "src640": "https://cdn.pixabay.com/photo/2019/07/06/16/25/sunflower-4320737_640.jpg",
        "src1280": "https://cdn.pixabay.com/photo/2019/07/06/16/25/sunflower-4320737_1280.jpg"
    },
    {
        "id": "4700121",
        "src640": "https://cdn.pixabay.com/photo/2019/12/16/19/56/baby-4700121_640.jpg",
        "src1280": "https://cdn.pixabay.com/photo/2019/12/16/19/56/baby-4700121_1280.jpg"
    },
    {
        "id": "5276766",
        "src640": "https://cdn.pixabay.com/photo/2020/06/09/03/32/hepatica-5276766_640.jpg",
        "src1280": "https://cdn.pixabay.com/photo/2020/06/09/03/32/hepatica-5276766_1280.jpg"
    },
    {
        "id": "4192118",
        "src640": "https://cdn.pixabay.com/photo/2019/05/09/20/52/spring-4192118_640.jpg",
        "src1280": "https://cdn.pixabay.com/photo/2019/05/09/20/52/spring-4192118_1280.jpg"
    },
    {
        "id": "5496832",
        "src640": "https://cdn.pixabay.com/photo/2020/08/18/01/49/flowers-5496832_640.jpg",
        "src1280": "https://cdn.pixabay.com/photo/2020/08/18/01/49/flowers-5496832_1280.jpg"
    },
    {
        "id": "5203813",
        "src640": "https://cdn.pixabay.com/photo/2020/05/22/05/08/nature-5203813_640.jpg",
        "src1280": "https://cdn.pixabay.com/photo/2020/05/22/05/08/nature-5203813_1280.jpg"
    },
    {
        "id": "7140083",
        "src640": "https://cdn.pixabay.com/photo/2022/04/18/10/21/flower-7140083_640.jpg",
        "src1280": "https://cdn.pixabay.com/photo/2022/04/18/10/21/flower-7140083_1280.jpg"
    },
    {
        "id": "5276789",
        "src640": "https://cdn.pixabay.com/photo/2020/06/09/03/43/model-5276789_640.jpg",
        "src1280": "https://cdn.pixabay.com/photo/2020/06/09/03/43/model-5276789_1280.jpg"
    },
    {
        "id": "3648587",
        "src640": "https://cdn.pixabay.com/photo/2018/09/02/11/28/rope-3648587_640.jpg",
        "src1280": "https://cdn.pixabay.com/photo/2018/09/02/11/28/rope-3648587_1280.jpg"
    },
    {
        "id": "5342150",
        "src640": "https://cdn.pixabay.com/photo/2020/06/26/09/33/dandelion-5342150_640.jpg",
        "src1280": "https://cdn.pixabay.com/photo/2020/06/26/09/33/dandelion-5342150_1280.jpg"
    },
    {
        "id": "6141714",
        "src640": "https://cdn.pixabay.com/photo/2021/04/01/09/35/flowers-6141714_640.jpg",
        "src1280": "https://cdn.pixabay.com/photo/2021/04/01/09/35/flowers-6141714_1280.jpg"
    },
    {
        "id": "4919509",
        "src640": "https://cdn.pixabay.com/photo/2020/03/10/16/49/flower-4919509_640.jpg",
        "src1280": "https://cdn.pixabay.com/photo/2020/03/10/16/49/flower-4919509_1280.jpg"
    },
    {
        "id": "3566390",
        "src640": "https://cdn.pixabay.com/photo/2018/07/27/16/59/flower-3566390_640.jpg",
        "src1280": "https://cdn.pixabay.com/photo/2018/07/27/16/59/flower-3566390_1280.jpg"
    },
    {
        "id": "5342602",
        "src640": "https://cdn.pixabay.com/photo/2020/06/26/12/42/curled-tulips-5342602_640.jpg",
        "src1280": "https://cdn.pixabay.com/photo/2020/06/26/12/42/curled-tulips-5342602_1280.jpg"
    },
    {
        "id": "7867541",
        "src640": "https://cdn.pixabay.com/photo/2023/03/21/15/41/sun-set-7867541_640.jpg",
        "src1280": "https://cdn.pixabay.com/photo/2023/03/21/15/41/sun-set-7867541_1280.jpg"
    },
    {
        "id": "4080848",
        "src640": "https://cdn.pixabay.com/photo/2019/03/25/17/46/tree-4080848_640.jpg",
        "src1280": "https://cdn.pixabay.com/photo/2019/03/25/17/46/tree-4080848_1280.jpg"
    },
    {
        "id": "2797702",
        "src640": "https://cdn.pixabay.com/photo/2017/09/29/02/47/wedding-2797702_640.jpg",
        "src1280": "https://cdn.pixabay.com/photo/2017/09/29/02/47/wedding-2797702_1280.jpg"
    },
    {
        "id": "4351338",
        "src640": "https://cdn.pixabay.com/photo/2019/07/20/19/04/butterfly-4351338_640.jpg",
        "src1280": "https://cdn.pixabay.com/photo/2019/07/20/19/04/butterfly-4351338_1280.jpg"
    },
    {
        "id": "5230483",
        "src640": "https://cdn.pixabay.com/photo/2020/05/28/08/53/caesalpinia-5230483_640.jpg",
        "src1280": "https://cdn.pixabay.com/photo/2020/05/28/08/53/caesalpinia-5230483_1280.jpg"
    },
    {
        "id": "5100015",
        "src640": "https://cdn.pixabay.com/photo/2020/04/27/14/04/bokeh-5100015_640.jpg",
        "src1280": "https://cdn.pixabay.com/photo/2020/04/27/14/04/bokeh-5100015_1280.jpg"
    },
    {
        "id": "5299623",
        "src640": "https://cdn.pixabay.com/photo/2020/06/14/23/01/flower-5299623_640.jpg",
        "src1280": "https://cdn.pixabay.com/photo/2020/06/14/23/01/flower-5299623_1280.jpg"
    },
    {
        "id": "5275602",
        "src640": "https://cdn.pixabay.com/photo/2020/06/08/18/13/petunia-5275602_640.jpg",
        "src1280": "https://cdn.pixabay.com/photo/2020/06/08/18/13/petunia-5275602_1280.jpg"
    },
    {
        "id": "7393852",
        "src640": "https://cdn.pixabay.com/photo/2022/08/18/03/00/flowers-7393852_640.jpg",
        "src1280": "https://cdn.pixabay.com/photo/2022/08/18/03/00/flowers-7393852_1280.jpg"
    },
    {
        "id": "2358007",
        "src640": "https://cdn.pixabay.com/photo/2017/05/30/20/02/aster-2358007_640.jpg",
        "src1280": "https://cdn.pixabay.com/photo/2017/05/30/20/02/aster-2358007_1280.jpg"
    },
    {
        "id": "5232757",
        "src640": "https://cdn.pixabay.com/photo/2020/05/28/21/24/painted-lady-5232757_640.jpg",
        "src1280": "https://cdn.pixabay.com/photo/2020/05/28/21/24/painted-lady-5232757_1280.jpg"
    },
    {
        "id": "5349560",
        "src640": "https://cdn.pixabay.com/photo/2020/06/28/14/45/butterfly-5349560_640.jpg",
        "src1280": "https://cdn.pixabay.com/photo/2020/06/28/14/45/butterfly-5349560_1280.jpg"
    },
    {
        "id": "5356748",
        "src640": "https://cdn.pixabay.com/photo/2020/06/30/15/20/wedding-5356748_640.jpg",
        "src1280": "https://cdn.pixabay.com/photo/2020/06/30/15/20/wedding-5356748_1280.jpg"
    },
    {
        "id": "5074564",
        "src640": "https://cdn.pixabay.com/photo/2020/04/21/20/29/flower-5074564_640.jpg",
        "src1280": "https://cdn.pixabay.com/photo/2020/04/21/20/29/flower-5074564_1280.jpg"
    },
    {
        "id": "6814504",
        "src640": "https://cdn.pixabay.com/photo/2021/11/21/15/40/flowers-6814504_640.jpg",
        "src1280": "https://cdn.pixabay.com/photo/2021/11/21/15/40/flowers-6814504_1280.jpg"
    },
    {
        "id": "7114959",
        "src640": "https://cdn.pixabay.com/photo/2022/04/06/07/18/flower-7114959_640.jpg",
        "src1280": "https://cdn.pixabay.com/photo/2022/04/06/07/18/flower-7114959_1280.jpg"
    },
    {
        "id": "7917230",
        "src640": "https://cdn.pixabay.com/photo/2023/04/11/13/21/sports-7917230_640.jpg",
        "src1280": "https://cdn.pixabay.com/photo/2023/04/11/13/21/sports-7917230_1280.jpg"
    },
    {
        "id": "4087200",
        "src640": "https://cdn.pixabay.com/photo/2019/03/28/13/31/flowers-4087200_640.jpg",
        "src1280": "https://cdn.pixabay.com/photo/2019/03/28/13/31/flowers-4087200_1280.jpg"
    },
    {
        "id": "3293329",
        "src640": "https://cdn.pixabay.com/photo/2018/04/05/16/39/nature-3293329_640.jpg",
        "src1280": "https://cdn.pixabay.com/photo/2018/04/05/16/39/nature-3293329_1280.jpg"
    },
    {
        "id": "7850319",
        "src640": "https://cdn.pixabay.com/photo/2023/03/13/16/16/flowers-7850319_640.jpg",
        "src1280": "https://cdn.pixabay.com/photo/2023/03/13/16/16/flowers-7850319_1280.jpg"
    },
    {
        "id": "3847118",
        "src640": "https://cdn.pixabay.com/photo/2018/11/30/07/05/woman-3847118_640.jpg",
        "src1280": "https://cdn.pixabay.com/photo/2018/11/30/07/05/woman-3847118_1280.jpg"
    },
    {
        "id": "4837032",
        "src640": "https://cdn.pixabay.com/photo/2020/02/10/16/59/flower-4837032_640.jpg",
        "src1280": "https://cdn.pixabay.com/photo/2020/02/10/16/59/flower-4837032_1280.jpg"
    },
    {
        "id": "4835546",
        "src640": "https://cdn.pixabay.com/photo/2020/02/10/07/28/flowers-4835546_640.jpg",
        "src1280": "https://cdn.pixabay.com/photo/2020/02/10/07/28/flowers-4835546_1280.jpg"
    },
    {
        "id": "5269270",
        "src640": "https://cdn.pixabay.com/photo/2020/06/07/06/34/rose-5269270_640.jpg",
        "src1280": "https://cdn.pixabay.com/photo/2020/06/07/06/34/rose-5269270_1280.jpg"
    },
    {
        "id": "5404773",
        "src640": "https://cdn.pixabay.com/photo/2020/07/14/16/11/marigold-5404773_640.jpg",
        "src1280": "https://cdn.pixabay.com/photo/2020/07/14/16/11/marigold-5404773_1280.jpg"
    },
    {
        "id": "5422445",
        "src640": "https://cdn.pixabay.com/photo/2020/07/20/09/39/poinsettia-5422445_640.jpg",
        "src1280": "https://cdn.pixabay.com/photo/2020/07/20/09/39/poinsettia-5422445_1280.jpg"
    },
    {
        "id": "4083912",
        "src640": "https://cdn.pixabay.com/photo/2019/03/26/23/14/narcis-4083912_640.jpg",
        "src1280": "https://cdn.pixabay.com/photo/2019/03/26/23/14/narcis-4083912_1280.jpg"
    },
    {
        "id": "4844771",
        "src640": "https://cdn.pixabay.com/photo/2020/02/13/07/26/bee-4844771_640.jpg",
        "src1280": "https://cdn.pixabay.com/photo/2020/02/13/07/26/bee-4844771_1280.jpg"
    },
    {
        "id": "957306",
        "src640": "https://cdn.pixabay.com/photo/2015/09/25/12/48/poppy-957306_640.jpg",
        "src1280": "https://cdn.pixabay.com/photo/2015/09/25/12/48/poppy-957306_1280.jpg"
    },
    {
        "id": "892932",
        "src640": "https://cdn.pixabay.com/photo/2015/08/17/20/46/woodcarving-892932_640.jpg",
        "src1280": "https://cdn.pixabay.com/photo/2015/08/17/20/46/woodcarving-892932_1280.jpg"
    },
    {
        "id": "4188198",
        "src640": "https://cdn.pixabay.com/photo/2019/05/08/09/48/tulips-4188198_640.jpg",
        "src1280": "https://cdn.pixabay.com/photo/2019/05/08/09/48/tulips-4188198_1280.jpg"
    },
    {
        "id": "4463810",
        "src640": "https://cdn.pixabay.com/photo/2019/09/09/14/56/fashion-4463810_640.jpg",
        "src1280": "https://cdn.pixabay.com/photo/2019/09/09/14/56/fashion-4463810_1280.jpg"
    },
    {
        "id": "5020251",
        "src640": "https://cdn.pixabay.com/photo/2020/04/09/08/13/sunflower-5020251_640.jpg",
        "src1280": "https://cdn.pixabay.com/photo/2020/04/09/08/13/sunflower-5020251_1280.jpg"
    },
    {
        "id": "4837000",
        "src640": "https://cdn.pixabay.com/photo/2020/02/10/16/44/anisoptera-4837000_640.jpg",
        "src1280": "https://cdn.pixabay.com/photo/2020/02/10/16/44/anisoptera-4837000_1280.jpg"
    },
    {
        "id": "5627124",
        "src640": "https://cdn.pixabay.com/photo/2020/10/04/18/04/bee-5627124_640.jpg",
        "src1280": "https://cdn.pixabay.com/photo/2020/10/04/18/04/bee-5627124_1280.jpg"
    },
    {
        "id": "7032954",
        "src640": "https://cdn.pixabay.com/photo/2022/02/24/18/35/cave-7032954_640.jpg",
        "src1280": "https://cdn.pixabay.com/photo/2022/02/24/18/35/cave-7032954_1280.jpg"
    },
    {
        "id": "4928520",
        "src640": "https://cdn.pixabay.com/photo/2020/03/13/16/51/rose-4928520_640.jpg",
        "src1280": "https://cdn.pixabay.com/photo/2020/03/13/16/51/rose-4928520_1280.jpg"
    },
    {
        "id": "5018678",
        "src640": "https://cdn.pixabay.com/photo/2020/04/08/19/28/flowers-5018678_640.jpg",
        "src1280": "https://cdn.pixabay.com/photo/2020/04/08/19/28/flowers-5018678_1280.jpg"
    },
    {
        "id": "6984858",
        "src640": "https://cdn.pixabay.com/photo/2022/01/31/19/33/eastern-tiger-swallowtail-6984858_640.jpg",
        "src1280": "https://cdn.pixabay.com/photo/2022/01/31/19/33/eastern-tiger-swallowtail-6984858_1280.jpg"
    },
    {
        "id": "4873124",
        "src640": "https://cdn.pixabay.com/photo/2020/02/23/11/43/crocuses-4873124_640.jpg",
        "src1280": "https://cdn.pixabay.com/photo/2020/02/23/11/43/crocuses-4873124_1280.jpg"
    },
    {
        "id": "2666109",
        "src640": "https://cdn.pixabay.com/photo/2017/08/21/17/26/door-2666109_640.jpg",
        "src1280": "https://cdn.pixabay.com/photo/2017/08/21/17/26/door-2666109_1280.jpg"
    },
    {
        "id": "4967495",
        "src640": "https://cdn.pixabay.com/photo/2020/03/25/14/24/fashion-4967495_640.jpg",
        "src1280": "https://cdn.pixabay.com/photo/2020/03/25/14/24/fashion-4967495_1280.jpg"
    },
    {
        "id": "6578302",
        "src640": "https://cdn.pixabay.com/photo/2021/08/27/09/48/dahlia-6578302_640.jpg",
        "src1280": "https://cdn.pixabay.com/photo/2021/08/27/09/48/dahlia-6578302_1280.jpg"
    },
    {
        "id": "6566041",
        "src640": "https://cdn.pixabay.com/photo/2021/08/22/20/09/great-burnet-6566041_640.jpg",
        "src1280": "https://cdn.pixabay.com/photo/2021/08/22/20/09/great-burnet-6566041_1280.jpg"
    },
    {
        "id": "4873152",
        "src640": "https://cdn.pixabay.com/photo/2020/02/23/12/05/crocuses-4873152_640.jpg",
        "src1280": "https://cdn.pixabay.com/photo/2020/02/23/12/05/crocuses-4873152_1280.jpg"
    },
    {
        "id": "7200231",
        "src640": "https://cdn.pixabay.com/photo/2022/05/16/12/18/ribwort-plantain-7200231_640.jpg",
        "src1280": "https://cdn.pixabay.com/photo/2022/05/16/12/18/ribwort-plantain-7200231_1280.jpg"
    },
    {
        "id": "5298053",
        "src640": "https://cdn.pixabay.com/photo/2020/06/14/14/20/flower-5298053_640.jpg",
        "src1280": "https://cdn.pixabay.com/photo/2020/06/14/14/20/flower-5298053_1280.jpg"
    },
    {
        "id": "5174952",
        "src640": "https://cdn.pixabay.com/photo/2020/05/15/19/51/bird-5174952_640.jpg",
        "src1280": "https://cdn.pixabay.com/photo/2020/05/15/19/51/bird-5174952_1280.jpg"
    },
    {
        "id": "5390933",
        "src640": "https://cdn.pixabay.com/photo/2020/07/10/14/57/repah-5390933_640.jpg",
        "src1280": "https://cdn.pixabay.com/photo/2020/07/10/14/57/repah-5390933_1280.jpg"
    },
    {
        "id": "5223700",
        "src640": "https://cdn.pixabay.com/photo/2020/05/26/16/18/flower-5223700_640.jpg",
        "src1280": "https://cdn.pixabay.com/photo/2020/05/26/16/18/flower-5223700_1280.jpg"
    },
    {
        "id": "7144305",
        "src640": "https://cdn.pixabay.com/photo/2022/04/20/05/21/azalea-7144305_640.jpg",
        "src1280": "https://cdn.pixabay.com/photo/2022/04/20/05/21/azalea-7144305_1280.jpg"
    },
    {
        "id": "4724656",
        "src640": "https://cdn.pixabay.com/photo/2019/12/28/13/23/flower-4724656_640.jpg",
        "src1280": "https://cdn.pixabay.com/photo/2019/12/28/13/23/flower-4724656_1280.jpg"
    },
    {
        "id": "3216534",
        "src640": "https://cdn.pixabay.com/photo/2018/03/11/11/34/nature-3216534_640.jpg",
        "src1280": "https://cdn.pixabay.com/photo/2018/03/11/11/34/nature-3216534_1280.jpg"
    },
    {
        "id": "3852038",
        "src640": "https://cdn.pixabay.com/photo/2018/12/02/20/20/corn-3852038_640.jpg",
        "src1280": "https://cdn.pixabay.com/photo/2018/12/02/20/20/corn-3852038_1280.jpg"
    },
    {
        "id": "2404040",
        "src640": "https://cdn.pixabay.com/photo/2017/06/15/03/53/hibiscus-2404040_640.jpg",
        "src1280": "https://cdn.pixabay.com/photo/2017/06/15/03/53/hibiscus-2404040_1280.jpg"
    },
    {
        "id": "7095748",
        "src640": "https://cdn.pixabay.com/photo/2022/03/27/17/59/bouquet-7095748_640.jpg",
        "src1280": "https://cdn.pixabay.com/photo/2022/03/27/17/59/bouquet-7095748_1280.jpg"
    },
    {
        "id": "7347181",
        "src640": "https://cdn.pixabay.com/photo/2022/07/27/05/37/fly-7347181_640.jpg",
        "src1280": "https://cdn.pixabay.com/photo/2022/07/27/05/37/fly-7347181_1280.jpg"
    }
]