[
    {
        "id": "1841083",
        "src640": "https://cdn.pixabay.com/photo/2016/11/19/20/45/bouquet-1841083_640.jpg",
        "src1280": "https://cdn.pixabay.com/photo/2016/11/19/20/45/bouquet-1841083_1280.jpg"
    },
    {
        "id": "8419564",
        "src640": "https://cdn.pixabay.com/photo/2023/11/29/13/04/red-bauble-8419564_640.jpg",
        "src1280": "https://cdn.pixabay.com/photo/2023/11/29/13/04/red-bauble-8419564_1280.jpg"
    },
    {
        "id": "7184187",
        "src640": "https://cdn.pixabay.com/photo/2022/05/09/10/05/girl-7184187_640.jpg",
        "src1280": "https://cdn.pixabay.com/photo/2022/05/09/10/05/girl-7184187_1280.jpg"
    },
    {
        "id": "2906743",
        "src640": "https://cdn.pixabay.com/photo/2017/10/31/22/50/wood-2906743_640.jpg",
        "src1280": "https://cdn.pixabay.com/photo/2017/10/31/22/50/wood-2906743_1280.jpg"
    },
    {
        "id": "4903694",
        "src640": "https://cdn.pixabay.com/photo/2020/03/05/07/31/flower-4903694_640.jpg",
        "src1280": "https://cdn.pixabay.com/photo/2020/03/05/07/31/flower-4903694_1280.jpg"
    },
    {
        "id": "4351545",
        "src640": "https://cdn.pixabay.com/photo/2019/07/20/20/57/rose-4351545_640.jpg",
        "src1280": "https://cdn.pixabay.com/photo/2019/07/20/20/57/rose-4351545_1280.jpg"
    },
    {
        "id": "3231302",
        "src640": "https://cdn.pixabay.com/photo/2018/03/16/13/54/male-3231302_640.jpg",
        "src1280": "https://cdn.pixabay.com/photo/2018/03/16/13/54/male-3231302_1280.jpg"
    },
    {
        "id": "330461",
        "src640": "https://cdn.pixabay.com/photo/2014/04/23/11/31/bouquet-330461_640.jpg",
        "src1280": "https://cdn.pixabay.com/photo/2014/04/23/11/31/bouquet-330461_1280.jpg"
    },
    {
        "id": "968362",
        "src640": "https://cdn.pixabay.com/photo/2015/10/02/10/49/the-background-968362_640.jpg",
        "src1280": "https://cdn.pixabay.com/photo/2015/10/02/10/49/the-background-968362_1280.jpg"
    },
    {
        "id": "7752224",
        "src640": "https://cdn.pixabay.com/photo/2023/01/29/02/15/ai-generated-7752224_640.jpg",
        "src1280": "https://cdn.pixabay.com/photo/2023/01/29/02/15/ai-generated-7752224_1280.jpg"
    },
    {
        "id": "7667236",
        "src640": "https://cdn.pixabay.com/photo/2022/12/20/07/38/icicle-7667236_640.jpg",
        "src1280": "https://cdn.pixabay.com/photo/2022/12/20/07/38/icicle-7667236_1280.jpg"
    },
    {
        "id": "8347911",
        "src640": "https://cdn.pixabay.com/photo/2023/10/28/16/43/dalmatian-8347911_640.jpg",
        "src1280": "https://cdn.pixabay.com/photo/2023/10/28/16/43/dalmatian-8347911_1280.jpg"
    },
    {
        "id": "7826233",
        "src640": "https://cdn.pixabay.com/photo/2023/03/02/19/42/ai-generated-7826233_640.jpg",
        "src1280": "https://cdn.pixabay.com/photo/2023/03/02/19/42/ai-generated-7826233_1280.jpg"
    },
    {
        "id": "8386003",
        "src640": "https://cdn.pixabay.com/photo/2023/11/13/17/05/christmas-motif-8386003_640.jpg",
        "src1280": "https://cdn.pixabay.com/photo/2023/11/13/17/05/christmas-motif-8386003_1280.jpg"
    },
    {
        "id": "7826298",
        "src640": "https://cdn.pixabay.com/photo/2023/03/02/19/54/ai-generated-7826298_640.jpg",
        "src1280": "https://cdn.pixabay.com/photo/2023/03/02/19/54/ai-generated-7826298_1280.jpg"
    },
    {
        "id": "7826294",
        "src640": "https://cdn.pixabay.com/photo/2023/03/02/19/54/ai-generated-7826294_640.jpg",
        "src1280": "https://cdn.pixabay.com/photo/2023/03/02/19/54/ai-generated-7826294_1280.jpg"
    },
    {
        "id": "4061409",
        "src640": "https://cdn.pixabay.com/photo/2019/03/17/16/56/tulips-4061409_640.jpg",
        "src1280": "https://cdn.pixabay.com/photo/2019/03/17/16/56/tulips-4061409_1280.jpg"
    },
    {
        "id": "1661826",
        "src640": "https://cdn.pixabay.com/photo/2016/09/11/17/11/texture-1661826_640.jpg",
        "src1280": "https://cdn.pixabay.com/photo/2016/09/11/17/11/texture-1661826_1280.jpg"
    },
    {
        "id": "6463900",
        "src640": "https://cdn.pixabay.com/photo/2021/07/13/15/46/leaves-6463900_640.jpg",
        "src1280": "https://cdn.pixabay.com/photo/2021/07/13/15/46/leaves-6463900_1280.jpg"
    },
    {
        "id": "7247795",
        "src640": "https://cdn.pixabay.com/photo/2022/06/07/08/25/almond-blossoms-7247795_640.jpg",
        "src1280": "https://cdn.pixabay.com/photo/2022/06/07/08/25/almond-blossoms-7247795_1280.jpg"
    },
    {
        "id": "7848760",
        "src640": "https://cdn.pixabay.com/photo/2023/03/13/05/25/ai-generated-7848760_640.jpg",
        "src1280": "https://cdn.pixabay.com/photo/2023/03/13/05/25/ai-generated-7848760_1280.jpg"
    },
    {
        "id": "987088",
        "src640": "https://cdn.pixabay.com/photo/2015/10/14/01/43/wood-987088_640.jpg",
        "src1280": "https://cdn.pixabay.com/photo/2015/10/14/01/43/wood-987088_1280.jpg"
    },
    {
        "id": "8348052",
        "src640": "https://cdn.pixabay.com/photo/2023/10/28/17/28/ai-generated-8348052_640.jpg",
        "src1280": "https://cdn.pixabay.com/photo/2023/10/28/17/28/ai-generated-8348052_1280.jpg"
    },
    {
        "id": "5001578",
        "src640": "https://cdn.pixabay.com/photo/2020/04/04/09/58/raspberries-5001578_640.jpg",
        "src1280": "https://cdn.pixabay.com/photo/2020/04/04/09/58/raspberries-5001578_1280.jpg"
    },
    {
        "id": "3882815",
        "src640": "https://cdn.pixabay.com/photo/2018/12/18/18/16/texture-3882815_640.jpg",
        "src1280": "https://cdn.pixabay.com/photo/2018/12/18/18/16/texture-3882815_1280.jpg"
    },
    {
        "id": "8406385",
        "src640": "https://cdn.pixabay.com/photo/2023/11/22/20/31/snowmen-8406385_640.jpg",
        "src1280": "https://cdn.pixabay.com/photo/2023/11/22/20/31/snowmen-8406385_1280.jpg"
    },
    {
        "id": "8070704",
        "src640": "https://cdn.pixabay.com/photo/2023/06/17/19/41/lilies-8070704_640.jpg",
        "src1280": "https://cdn.pixabay.com/photo/2023/06/17/19/41/lilies-8070704_1280.jpg"
    },
    {
        "id": "1150874",
        "src640": "https://cdn.pixabay.com/photo/2016/01/20/04/30/peace-lily-1150874_640.jpg",
        "src1280": "https://cdn.pixabay.com/photo/2016/01/20/04/30/peace-lily-1150874_1280.jpg"
    },
    {
        "id": "5336156",
        "src640": "https://cdn.pixabay.com/photo/2020/06/24/13/13/flower-5336156_640.jpg",
        "src1280": "https://cdn.pixabay.com/photo/2020/06/24/13/13/flower-5336156_1280.jpg"
    },
    {
        "id": "3422503",
        "src640": "https://cdn.pixabay.com/photo/2018/05/22/21/33/bearded-iris-3422503_640.jpg",
        "src1280": "https://cdn.pixabay.com/photo/2018/05/22/21/33/bearded-iris-3422503_1280.jpg"
    },
    {
        "id": "1251715",
        "src640": "https://cdn.pixabay.com/photo/2016/03/12/09/21/textile-1251715_640.jpg",
        "src1280": "https://cdn.pixabay.com/photo/2016/03/12/09/21/textile-1251715_1280.jpg"
    },
    {
        "id": "4399844",
        "src640": "https://cdn.pixabay.com/photo/2019/08/11/20/21/sunflower-4399844_640.jpg",
        "src1280": "https://cdn.pixabay.com/photo/2019/08/11/20/21/sunflower-4399844_1280.jpg"
    },
    {
        "id": "7860854",
        "src640": "https://cdn.pixabay.com/photo/2023/03/18/15/54/dog-7860854_640.jpg",
        "src1280": "https://cdn.pixabay.com/photo/2023/03/18/15/54/dog-7860854_1280.jpg"
    },
    {
        "id": "3279237",
        "src640": "https://cdn.pixabay.com/photo/2018/03/31/20/23/blossom-3279237_640.jpg",
        "src1280": "https://cdn.pixabay.com/photo/2018/03/31/20/23/blossom-3279237_1280.jpg"
    },
    {
        "id": "7165724",
        "src640": "https://cdn.pixabay.com/photo/2022/04/30/14/51/purple-flower-7165724_640.jpg",
        "src1280": "https://cdn.pixabay.com/photo/2022/04/30/14/51/purple-flower-7165724_1280.jpg"
    },
    {
        "id": "5219449",
        "src640": "https://cdn.pixabay.com/photo/2020/05/25/16/49/flower-5219449_640.jpg",
        "src1280": "https://cdn.pixabay.com/photo/2020/05/25/16/49/flower-5219449_1280.jpg"
    },
    {
        "id": "6739330",
        "src640": "https://cdn.pixabay.com/photo/2021/10/24/21/23/halloween-6739330_640.jpg",
        "src1280": "https://cdn.pixabay.com/photo/2021/10/24/21/23/halloween-6739330_1280.jpg"
    },
    {
        "id": "672454",
        "src640": "https://cdn.pixabay.com/photo/2015/03/13/23/48/background-image-672454_640.jpg",
        "src1280": "https://cdn.pixabay.com/photo/2015/03/13/23/48/background-image-672454_1280.jpg"
    },
    {
        "id": "2065781",
        "src640": "https://cdn.pixabay.com/photo/2017/02/14/12/11/woman-2065781_640.jpg",
        "src1280": "https://cdn.pixabay.com/photo/2017/02/14/12/11/woman-2065781_1280.jpg"
    },
    {
        "id": "8331129",
        "src640": "https://cdn.pixabay.com/photo/2023/10/21/09/53/hand-8331129_640.jpg",
        "src1280": "https://cdn.pixabay.com/photo/2023/10/21/09/53/hand-8331129_1280.jpg"
    },
    {
        "id": "20023",
        "src640": "https://cdn.pixabay.com/photo/2012/03/01/01/09/gooseberry-20023_640.jpg",
        "src1280": "https://cdn.pixabay.com/photo/2012/03/01/01/09/gooseberry-20023_1280.jpg"
    },
    {
        "id": "4882328",
        "src640": "https://cdn.pixabay.com/photo/2020/02/26/17/00/banana-4882328_640.jpg",
        "src1280": "https://cdn.pixabay.com/photo/2020/02/26/17/00/banana-4882328_1280.jpg"
    },
    {
        "id": "7004656",
        "src640": "https://cdn.pixabay.com/photo/2022/02/10/05/57/flower-7004656_640.jpg",
        "src1280": "https://cdn.pixabay.com/photo/2022/02/10/05/57/flower-7004656_1280.jpg"
    },
    {
        "id": "1085526",
        "src640": "https://cdn.pixabay.com/photo/2015/12/09/20/43/background-1085526_640.jpg",
        "src1280": "https://cdn.pixabay.com/photo/2015/12/09/20/43/background-1085526_1280.jpg"
    },
    {
        "id": "4504681",
        "src640": "https://cdn.pixabay.com/photo/2019/09/25/21/11/flowers-4504681_640.jpg",
        "src1280": "https://cdn.pixabay.com/photo/2019/09/25/21/11/flowers-4504681_1280.jpg"
    },
    {
        "id": "4584087",
        "src640": "https://cdn.pixabay.com/photo/2019/10/28/11/47/swirl-4584087_640.jpg",
        "src1280": "https://cdn.pixabay.com/photo/2019/10/28/11/47/swirl-4584087_1280.jpg"
    },
    {
        "id": "2411779",
        "src640": "https://cdn.pixabay.com/photo/2017/06/17/10/21/tulips-2411779_640.jpg",
        "src1280": "https://cdn.pixabay.com/photo/2017/06/17/10/21/tulips-2411779_1280.jpg"
    },
    {
        "id": "8236185",
        "src640": "https://cdn.pixabay.com/photo/2023/09/06/03/03/sunflowers-8236185_640.jpg",
        "src1280": "https://cdn.pixabay.com/photo/2023/09/06/03/03/sunflowers-8236185_1280.jpg"
    },
    {
        "id": "8406223",
        "src640": "https://cdn.pixabay.com/photo/2023/11/22/19/14/cat-8406223_640.jpg",
        "src1280": "https://cdn.pixabay.com/photo/2023/11/22/19/14/cat-8406223_1280.jpg"
    },
    {
        "id": "7170391",
        "src640": "https://cdn.pixabay.com/photo/2022/05/02/20/30/oilseed-rape-7170391_640.jpg",
        "src1280": "https://cdn.pixabay.com/photo/2022/05/02/20/30/oilseed-rape-7170391_1280.jpg"
    },
    {
        "id": "7006243",
        "src640": "https://cdn.pixabay.com/photo/2022/02/10/22/14/art-7006243_640.jpg",
        "src1280": "https://cdn.pixabay.com/photo/2022/02/10/22/14/art-7006243_1280.jpg"
    },
    {
        "id": "2033770",
        "src640": "https://cdn.pixabay.com/photo/2017/02/02/20/32/flower-2033770_640.jpg",
        "src1280": "https://cdn.pixabay.com/photo/2017/02/02/20/32/flower-2033770_1280.jpg"
    },
    {
        "id": "978695",
        "src640": "https://cdn.pixabay.com/photo/2015/10/09/01/57/abstract-978695_640.jpg",
        "src1280": "https://cdn.pixabay.com/photo/2015/10/09/01/57/abstract-978695_1280.jpg"
    },
    {
        "id": "8025783",
        "src640": "https://cdn.pixabay.com/photo/2023/05/29/11/38/flowers-8025783_640.jpg",
        "src1280": "https://cdn.pixabay.com/photo/2023/05/29/11/38/flowers-8025783_1280.jpg"
    },
    {
        "id": "8447841",
        "src640": "https://cdn.pixabay.com/photo/2023/12/13/22/29/young-woman-8447841_640.jpg",
        "src1280": "https://cdn.pixabay.com/photo/2023/12/13/22/29/young-woman-8447841_1280.jpg"
    },
    {
        "id": "7441634",
        "src640": "https://cdn.pixabay.com/photo/2022/09/08/18/19/botanical-7441634_640.jpg",
        "src1280": "https://cdn.pixabay.com/photo/2022/09/08/18/19/botanical-7441634_1280.jpg"
    },
    {
        "id": "7585699",
        "src640": "https://cdn.pixabay.com/photo/2022/11/11/19/41/vase-7585699_640.jpg",
        "src1280": "https://cdn.pixabay.com/photo/2022/11/11/19/41/vase-7585699_1280.jpg"
    },
    {
        "id": "7102490",
        "src640": "https://cdn.pixabay.com/photo/2022/03/31/08/42/rose-7102490_640.jpg",
        "src1280": "https://cdn.pixabay.com/photo/2022/03/31/08/42/rose-7102490_1280.jpg"
    },
    {
        "id": "7281282",
        "src640": "https://cdn.pixabay.com/photo/2022/06/24/08/46/flower-7281282_640.jpg",
        "src1280": "https://cdn.pixabay.com/photo/2022/06/24/08/46/flower-7281282_1280.jpg"
    },
    {
        "id": "5200773",
        "src640": "https://cdn.pixabay.com/photo/2020/05/21/13/23/mountain-5200773_640.jpg",
        "src1280": "https://cdn.pixabay.com/photo/2020/05/21/13/23/mountain-5200773_1280.jpg"
    },
    {
        "id": "5825670",
        "src640": "https://cdn.pixabay.com/photo/2020/12/12/14/54/vase-5825670_640.jpg",
        "src1280": "https://cdn.pixabay.com/photo/2020/12/12/14/54/vase-5825670_1280.jpg"
    },
    {
        "id": "8478544",
        "src640": "https://cdn.pixabay.com/photo/2023/12/30/18/01/geometric-8478544_640.jpg",
        "src1280": "https://cdn.pixabay.com/photo/2023/12/30/18/01/geometric-8478544_1280.jpg"
    },
    {
        "id": "7964021",
        "src640": "https://cdn.pixabay.com/photo/2023/05/01/23/07/flowers-7964021_640.jpg",
        "src1280": "https://cdn.pixabay.com/photo/2023/05/01/23/07/flowers-7964021_1280.jpg"
    },
    {
        "id": "7916256",
        "src640": "https://cdn.pixabay.com/photo/2023/04/11/07/51/ai-generated-7916256_640.jpg",
        "src1280": "https://cdn.pixabay.com/photo/2023/04/11/07/51/ai-generated-7916256_1280.jpg"
    },
    {
        "id": "3295461",
        "src640": "https://cdn.pixabay.com/photo/2018/04/06/10/33/people-3295461_640.jpg",
        "src1280": "https://cdn.pixabay.com/photo/2018/04/06/10/33/people-3295461_1280.jpg"
    },
    {
        "id": "3158351",
        "src640": "https://cdn.pixabay.com/photo/2018/02/16/19/24/bouquet-3158351_640.jpg",
        "src1280": "https://cdn.pixabay.com/photo/2018/02/16/19/24/bouquet-3158351_1280.jpg"
    },
    {
        "id": "2809498",
        "src640": "https://cdn.pixabay.com/photo/2017/10/02/17/21/autumn-2809498_640.jpg",
        "src1280": "https://cdn.pixabay.com/photo/2017/10/02/17/21/autumn-2809498_1280.jpg"
    },
    {
        "id": "3287314",
        "src640": "https://cdn.pixabay.com/photo/2018/04/03/17/06/still-transience-of-life-3287314_640.jpg",
        "src1280": "https://cdn.pixabay.com/photo/2018/04/03/17/06/still-transience-of-life-3287314_1280.jpg"
    },
    {
        "id": "7837351",
        "src640": "https://cdn.pixabay.com/photo/2023/03/08/09/25/boho-7837351_640.jpg",
        "src1280": "https://cdn.pixabay.com/photo/2023/03/08/09/25/boho-7837351_1280.jpg"
    },
    {
        "id": "8051764",
        "src640": "https://cdn.pixabay.com/photo/2023/06/09/13/43/leaves-8051764_640.jpg",
        "src1280": "https://cdn.pixabay.com/photo/2023/06/09/13/43/leaves-8051764_1280.jpg"
    },
    {
        "id": "2439165",
        "src640": "https://cdn.pixabay.com/photo/2017/06/24/22/44/papaver-rhoeas-2439165_640.jpg",
        "src1280": "https://cdn.pixabay.com/photo/2017/06/24/22/44/papaver-rhoeas-2439165_1280.jpg"
    },
    {
        "id": "7529877",
        "src640": "https://cdn.pixabay.com/photo/2022/10/18/10/53/dandelion-7529877_640.jpg",
        "src1280": "https://cdn.pixabay.com/photo/2022/10/18/10/53/dandelion-7529877_1280.jpg"
    },
    {
        "id": "7200177",
        "src640": "https://cdn.pixabay.com/photo/2022/05/16/11/56/flowers-7200177_640.jpg",
        "src1280": "https://cdn.pixabay.com/photo/2022/05/16/11/56/flowers-7200177_1280.jpg"
    }
]