[
    {
        "id": "990002",
        "src640": "https://cdn.pixabay.com/photo/2015/10/15/20/31/retro-990002_640.jpg",
        "src1280": "https://cdn.pixabay.com/photo/2015/10/15/20/31/retro-990002_1280.jpg"
    },
    {
        "id": "950884",
        "src640": "https://cdn.pixabay.com/photo/2015/09/21/23/07/owl-950884_640.jpg",
        "src1280": "https://cdn.pixabay.com/photo/2015/09/21/23/07/owl-950884_1280.jpg"
    },
    {
        "id": "5665",
        "src640": "https://cdn.pixabay.com/photo/2011/03/21/10/58/snowflake-5665_640.jpg",
        "src1280": "https://cdn.pixabay.com/photo/2011/03/21/10/58/snowflake-5665_1280.jpg"
    },
    {
        "id": "1810529",
        "src640": "https://cdn.pixabay.com/photo/2016/11/09/08/38/flower-1810529_640.jpg",
        "src1280": "https://cdn.pixabay.com/photo/2016/11/09/08/38/flower-1810529_1280.jpg"
    },
    {
        "id": "4967499",
        "src640": "https://cdn.pixabay.com/photo/2020/03/25/14/24/fashion-4967499_640.jpg",
        "src1280": "https://cdn.pixabay.com/photo/2020/03/25/14/24/fashion-4967499_1280.jpg"
    },
    {
        "id": "7809992",
        "src640": "https://cdn.pixabay.com/photo/2023/02/24/02/32/ai-generated-7809992_640.jpg",
        "src1280": "https://cdn.pixabay.com/photo/2023/02/24/02/32/ai-generated-7809992_1280.jpg"
    },
    {
        "id": "7622619",
        "src640": "https://cdn.pixabay.com/photo/2022/11/28/17/30/plant-7622619_640.jpg",
        "src1280": "https://cdn.pixabay.com/photo/2022/11/28/17/30/plant-7622619_1280.jpg"
    },
    {
        "id": "4377958",
        "src640": "https://cdn.pixabay.com/photo/2019/08/01/16/51/painted-lady-4377958_640.jpg",
        "src1280": "https://cdn.pixabay.com/photo/2019/08/01/16/51/painted-lady-4377958_1280.jpg"
    },
    {
        "id": "4882363",
        "src640": "https://cdn.pixabay.com/photo/2020/02/26/17/13/pansy-4882363_640.jpg",
        "src1280": "https://cdn.pixabay.com/photo/2020/02/26/17/13/pansy-4882363_1280.jpg"
    },
    {
        "id": "2414",
        "src640": "https://cdn.pixabay.com/photo/2010/12/13/10/11/coin-2414_640.jpg",
        "src1280": "https://cdn.pixabay.com/photo/2010/12/13/10/11/coin-2414_1280.jpg"
    },
    {
        "id": "7058118",
        "src640": "https://cdn.pixabay.com/photo/2022/03/09/15/51/tulip-7058118_640.jpg",
        "src1280": "https://cdn.pixabay.com/photo/2022/03/09/15/51/tulip-7058118_1280.jpg"
    },
    {
        "id": "2706342",
        "src640": "https://cdn.pixabay.com/photo/2017/09/02/04/59/girl-2706342_640.jpg",
        "src1280": "https://cdn.pixabay.com/photo/2017/09/02/04/59/girl-2706342_1280.jpg"
    },
    {
        "id": "8429832",
        "src640": "https://cdn.pixabay.com/photo/2023/12/04/16/55/ai-generated-8429832_640.jpg",
        "src1280": "https://cdn.pixabay.com/photo/2023/12/04/16/55/ai-generated-8429832_1280.jpg"
    },
    {
        "id": "5888244",
        "src640": "https://cdn.pixabay.com/photo/2021/01/04/17/28/tulip-5888244_640.jpg",
        "src1280": "https://cdn.pixabay.com/photo/2021/01/04/17/28/tulip-5888244_1280.jpg"
    },
    {
        "id": "8000731",
        "src640": "https://cdn.pixabay.com/photo/2023/05/17/17/51/woodpecker-8000731_640.jpg",
        "src1280": "https://cdn.pixabay.com/photo/2023/05/17/17/51/woodpecker-8000731_1280.jpg"
    },
    {
        "id": "3204189",
        "src640": "https://cdn.pixabay.com/photo/2018/03/06/18/32/one-3204189_640.jpg",
        "src1280": "https://cdn.pixabay.com/photo/2018/03/06/18/32/one-3204189_1280.jpg"
    },
    {
        "id": "8491227",
        "src640": "https://cdn.pixabay.com/photo/2024/01/06/11/55/ai-generated-8491227_640.jpg",
        "src1280": "https://cdn.pixabay.com/photo/2024/01/06/11/55/ai-generated-8491227_1280.jpg"
    },
    {
        "id": "8423769",
        "src640": "https://cdn.pixabay.com/photo/2023/12/01/13/34/butterfly-8423769_640.jpg",
        "src1280": "https://cdn.pixabay.com/photo/2023/12/01/13/34/butterfly-8423769_1280.jpg"
    },
    {
        "id": "2757256",
        "src640": "https://cdn.pixabay.com/photo/2017/09/17/00/25/man-2757256_640.jpg",
        "src1280": "https://cdn.pixabay.com/photo/2017/09/17/00/25/man-2757256_1280.jpg"
    },
    {
        "id": "3938872",
        "src640": "https://cdn.pixabay.com/photo/2019/01/17/23/13/flowers-3938872_640.jpg",
        "src1280": "https://cdn.pixabay.com/photo/2019/01/17/23/13/flowers-3938872_1280.jpg"
    },
    {
        "id": "4885247",
        "src640": "https://cdn.pixabay.com/photo/2020/02/27/16/58/building-4885247_640.jpg",
        "src1280": "https://cdn.pixabay.com/photo/2020/02/27/16/58/building-4885247_1280.jpg"
    },
    {
        "id": "1098691",
        "src640": "https://cdn.pixabay.com/photo/2015/12/18/15/44/new-years-1098691_640.jpg",
        "src1280": "https://cdn.pixabay.com/photo/2015/12/18/15/44/new-years-1098691_1280.jpg"
    },
    {
        "id": "1725192",
        "src640": "https://cdn.pixabay.com/photo/2016/10/09/05/48/ballet-pose-1725192_640.jpg",
        "src1280": "https://cdn.pixabay.com/photo/2016/10/09/05/48/ballet-pose-1725192_1280.jpg"
    },
    {
        "id": "6852275",
        "src640": "https://cdn.pixabay.com/photo/2021/12/07/05/19/portrait-6852275_640.jpg",
        "src1280": "https://cdn.pixabay.com/photo/2021/12/07/05/19/portrait-6852275_1280.jpg"
    },
    {
        "id": "1160911",
        "src640": "https://cdn.pixabay.com/photo/2016/01/25/16/08/narcissus-1160911_640.jpg",
        "src1280": "https://cdn.pixabay.com/photo/2016/01/25/16/08/narcissus-1160911_1280.jpg"
    },
    {
        "id": "5607636",
        "src640": "https://cdn.pixabay.com/photo/2020/09/27/19/21/roses-5607636_640.jpg",
        "src1280": "https://cdn.pixabay.com/photo/2020/09/27/19/21/roses-5607636_1280.jpg"
    },
    {
        "id": "3236350",
        "src640": "https://cdn.pixabay.com/photo/2018/03/18/11/02/blossom-3236350_640.jpg",
        "src1280": "https://cdn.pixabay.com/photo/2018/03/18/11/02/blossom-3236350_1280.jpg"
    },
    {
        "id": "8210603",
        "src640": "https://cdn.pixabay.com/photo/2023/08/24/12/01/ai-generated-8210603_640.jpg",
        "src1280": "https://cdn.pixabay.com/photo/2023/08/24/12/01/ai-generated-8210603_1280.jpg"
    },
    {
        "id": "3521109",
        "src640": "https://cdn.pixabay.com/photo/2018/07/06/20/23/woman-3521109_640.jpg",
        "src1280": "https://cdn.pixabay.com/photo/2018/07/06/20/23/woman-3521109_1280.jpg"
    },
    {
        "id": "7794266",
        "src640": "https://cdn.pixabay.com/photo/2023/02/16/15/38/moss-7794266_640.jpg",
        "src1280": "https://cdn.pixabay.com/photo/2023/02/16/15/38/moss-7794266_1280.jpg"
    },
    {
        "id": "1396116",
        "src640": "https://cdn.pixabay.com/photo/2016/05/16/16/52/cloves-1396116_640.jpg",
        "src1280": "https://cdn.pixabay.com/photo/2016/05/16/16/52/cloves-1396116_1280.jpg"
    },
    {
        "id": "2405033",
        "src640": "https://cdn.pixabay.com/photo/2017/06/15/11/28/jeans-2405033_640.jpg",
        "src1280": "https://cdn.pixabay.com/photo/2017/06/15/11/28/jeans-2405033_1280.jpg"
    },
    {
        "id": "2298284",
        "src640": "https://cdn.pixabay.com/photo/2017/05/09/13/32/spring-2298284_640.jpg",
        "src1280": "https://cdn.pixabay.com/photo/2017/05/09/13/32/spring-2298284_1280.jpg"
    },
    {
        "id": "220211",
        "src640": "https://cdn.pixabay.com/photo/2013/11/28/11/29/strawberry-220211_640.jpg",
        "src1280": "https://cdn.pixabay.com/photo/2013/11/28/11/29/strawberry-220211_1280.jpg"
    },
    {
        "id": "5853394",
        "src640": "https://cdn.pixabay.com/photo/2020/12/22/22/04/tree-5853394_640.jpg",
        "src1280": "https://cdn.pixabay.com/photo/2020/12/22/22/04/tree-5853394_1280.jpg"
    },
    {
        "id": "4056199",
        "src640": "https://cdn.pixabay.com/photo/2019/03/15/00/33/deer-4056199_640.jpg",
        "src1280": "https://cdn.pixabay.com/photo/2019/03/15/00/33/deer-4056199_1280.jpg"
    },
    {
        "id": "2398822",
        "src640": "https://cdn.pixabay.com/photo/2017/06/13/13/06/girl-2398822_640.jpg",
        "src1280": "https://cdn.pixabay.com/photo/2017/06/13/13/06/girl-2398822_1280.jpg"
    },
    {
        "id": "2308874",
        "src640": "https://cdn.pixabay.com/photo/2017/05/13/07/25/plant-2308874_640.jpg",
        "src1280": "https://cdn.pixabay.com/photo/2017/05/13/07/25/plant-2308874_1280.jpg"
    },
    {
        "id": "391484",
        "src640": "https://cdn.pixabay.com/photo/2014/07/12/23/22/hyacinth-391484_640.jpg",
        "src1280": "https://cdn.pixabay.com/photo/2014/07/12/23/22/hyacinth-391484_1280.jpg"
    },
    {
        "id": "3449269",
        "src640": "https://cdn.pixabay.com/photo/2018/06/02/21/26/bearded-iris-3449269_640.jpg",
        "src1280": "https://cdn.pixabay.com/photo/2018/06/02/21/26/bearded-iris-3449269_1280.jpg"
    },
    {
        "id": "932753",
        "src640": "https://cdn.pixabay.com/photo/2015/09/09/19/24/fresh-932753_640.jpg",
        "src1280": "https://cdn.pixabay.com/photo/2015/09/09/19/24/fresh-932753_1280.jpg"
    },
    {
        "id": "6216080",
        "src640": "https://cdn.pixabay.com/photo/2021/04/29/08/18/pasqueflower-6216080_640.jpg",
        "src1280": "https://cdn.pixabay.com/photo/2021/04/29/08/18/pasqueflower-6216080_1280.jpg"
    },
    {
        "id": "1363478",
        "src640": "https://cdn.pixabay.com/photo/2016/04/30/18/10/flower-1363478_640.jpg",
        "src1280": "https://cdn.pixabay.com/photo/2016/04/30/18/10/flower-1363478_1280.jpg"
    },
    {
        "id": "6517572",
        "src640": "https://cdn.pixabay.com/photo/2021/08/02/18/45/flowers-6517572_640.jpg",
        "src1280": "https://cdn.pixabay.com/photo/2021/08/02/18/45/flowers-6517572_1280.jpg"
    },
    {
        "id": "3465448",
        "src640": "https://cdn.pixabay.com/photo/2018/06/09/23/01/rose-3465448_640.jpg",
        "src1280": "https://cdn.pixabay.com/photo/2018/06/09/23/01/rose-3465448_1280.jpg"
    },
    {
        "id": "1789122",
        "src640": "https://cdn.pixabay.com/photo/2016/11/01/18/19/christmas-1789122_640.jpg",
        "src1280": "https://cdn.pixabay.com/photo/2016/11/01/18/19/christmas-1789122_1280.jpg"
    },
    {
        "id": "2289199",
        "src640": "https://cdn.pixabay.com/photo/2017/05/06/08/44/abstract-2289199_640.jpg",
        "src1280": "https://cdn.pixabay.com/photo/2017/05/06/08/44/abstract-2289199_1280.jpg"
    },
    {
        "id": "1838144",
        "src640": "https://cdn.pixabay.com/photo/2016/11/19/06/35/dress-up-1838144_640.jpg",
        "src1280": "https://cdn.pixabay.com/photo/2016/11/19/06/35/dress-up-1838144_1280.jpg"
    },
    {
        "id": "6986837",
        "src640": "https://cdn.pixabay.com/photo/2022/02/01/18/49/flowers-6986837_640.jpg",
        "src1280": "https://cdn.pixabay.com/photo/2022/02/01/18/49/flowers-6986837_1280.jpg"
    },
    {
        "id": "3853935",
        "src640": "https://cdn.pixabay.com/photo/2018/12/03/18/24/christmas-3853935_640.jpg",
        "src1280": "https://cdn.pixabay.com/photo/2018/12/03/18/24/christmas-3853935_1280.jpg"
    },
    {
        "id": "6307414",
        "src640": "https://cdn.pixabay.com/photo/2021/06/03/16/10/swimming-pool-6307414_640.jpg",
        "src1280": "https://cdn.pixabay.com/photo/2021/06/03/16/10/swimming-pool-6307414_1280.jpg"
    },
    {
        "id": "8419909",
        "src640": "https://cdn.pixabay.com/photo/2023/11/29/15/44/ai-generated-8419909_640.jpg",
        "src1280": "https://cdn.pixabay.com/photo/2023/11/29/15/44/ai-generated-8419909_1280.jpg"
    },
    {
        "id": "7010647",
        "src640": "https://cdn.pixabay.com/photo/2022/02/13/09/13/guitar-7010647_640.jpg",
        "src1280": "https://cdn.pixabay.com/photo/2022/02/13/09/13/guitar-7010647_1280.jpg"
    }
]