[
    {
        "id": "3092327",
        "src640": "https://cdn.pixabay.com/photo/2018/01/19/12/32/tomato-3092327_640.jpg",
        "src1280": "https://cdn.pixabay.com/photo/2018/01/19/12/32/tomato-3092327_1280.jpg"
    },
    {
        "id": "6068658",
        "src640": "https://cdn.pixabay.com/photo/2021/03/04/16/29/gerbera-6068658_640.jpg",
        "src1280": "https://cdn.pixabay.com/photo/2021/03/04/16/29/gerbera-6068658_1280.jpg"
    },
    {
        "id": "7242830",
        "src640": "https://cdn.pixabay.com/photo/2022/06/04/21/04/dandelions-7242830_640.jpg",
        "src1280": "https://cdn.pixabay.com/photo/2022/06/04/21/04/dandelions-7242830_1280.jpg"
    },
    {
        "id": "7005939",
        "src640": "https://cdn.pixabay.com/photo/2022/02/10/19/07/wall-7005939_640.jpg",
        "src1280": "https://cdn.pixabay.com/photo/2022/02/10/19/07/wall-7005939_1280.jpg"
    },
    {
        "id": "5393071",
        "src640": "https://cdn.pixabay.com/photo/2020/07/11/07/59/butterfly-5393071_640.jpg",
        "src1280": "https://cdn.pixabay.com/photo/2020/07/11/07/59/butterfly-5393071_1280.jpg"
    },
    {
        "id": "1975943",
        "src640": "https://cdn.pixabay.com/photo/2017/01/12/23/06/roses-1975943_640.jpg",
        "src1280": "https://cdn.pixabay.com/photo/2017/01/12/23/06/roses-1975943_1280.jpg"
    },
    {
        "id": "1398235",
        "src640": "https://cdn.pixabay.com/photo/2016/05/17/14/48/design-1398235_640.jpg",
        "src1280": "https://cdn.pixabay.com/photo/2016/05/17/14/48/design-1398235_1280.jpg"
    },
    {
        "id": "5987868",
        "src640": "https://cdn.pixabay.com/photo/2021/02/06/11/33/frame-5987868_640.jpg",
        "src1280": "https://cdn.pixabay.com/photo/2021/02/06/11/33/frame-5987868_1280.jpg"
    },
    {
        "id": "2456097",
        "src640": "https://cdn.pixabay.com/photo/2017/06/29/20/16/lilies-of-the-valley-2456097_640.jpg",
        "src1280": "https://cdn.pixabay.com/photo/2017/06/29/20/16/lilies-of-the-valley-2456097_1280.jpg"
    },
    {
        "id": "2990203",
        "src640": "https://cdn.pixabay.com/photo/2017/12/01/06/07/leann-2990203_640.jpg",
        "src1280": "https://cdn.pixabay.com/photo/2017/12/01/06/07/leann-2990203_1280.jpg"
    },
    {
        "id": "5054076",
        "src640": "https://cdn.pixabay.com/photo/2020/04/17/09/55/tulips-5054076_640.jpg",
        "src1280": "https://cdn.pixabay.com/photo/2020/04/17/09/55/tulips-5054076_1280.jpg"
    },
    {
        "id": "6212000",
        "src640": "https://cdn.pixabay.com/photo/2021/04/27/17/12/ornamental-onion-6212000_640.jpg",
        "src1280": "https://cdn.pixabay.com/photo/2021/04/27/17/12/ornamental-onion-6212000_1280.jpg"
    },
    {
        "id": "7878137",
        "src640": "https://cdn.pixabay.com/photo/2023/03/26/11/10/plants-7878137_640.jpg",
        "src1280": "https://cdn.pixabay.com/photo/2023/03/26/11/10/plants-7878137_1280.jpg"
    },
    {
        "id": "6578302",
        "src640": "https://cdn.pixabay.com/photo/2021/08/27/09/48/dahlia-6578302_640.jpg",
        "src1280": "https://cdn.pixabay.com/photo/2021/08/27/09/48/dahlia-6578302_1280.jpg"
    },
    {
        "id": "837585",
        "src640": "https://cdn.pixabay.com/photo/2015/07/09/11/48/flowers-837585_640.jpg",
        "src1280": "https://cdn.pixabay.com/photo/2015/07/09/11/48/flowers-837585_1280.jpg"
    },
    {
        "id": "6937691",
        "src640": "https://cdn.pixabay.com/photo/2022/01/14/16/06/wood-6937691_640.jpg",
        "src1280": "https://cdn.pixabay.com/photo/2022/01/14/16/06/wood-6937691_1280.jpg"
    },
    {
        "id": "2356243",
        "src640": "https://cdn.pixabay.com/photo/2017/05/30/09/03/home-2356243_640.jpg",
        "src1280": "https://cdn.pixabay.com/photo/2017/05/30/09/03/home-2356243_1280.jpg"
    },
    {
        "id": "1209501",
        "src640": "https://cdn.pixabay.com/photo/2016/02/19/10/56/raw-1209501_640.jpg",
        "src1280": "https://cdn.pixabay.com/photo/2016/02/19/10/56/raw-1209501_1280.jpg"
    },
    {
        "id": "7126094",
        "src640": "https://cdn.pixabay.com/photo/2022/04/11/15/55/flowers-7126094_640.jpg",
        "src1280": "https://cdn.pixabay.com/photo/2022/04/11/15/55/flowers-7126094_1280.jpg"
    },
    {
        "id": "8386594",
        "src640": "https://cdn.pixabay.com/photo/2023/11/14/00/18/woman-8386594_640.jpg",
        "src1280": "https://cdn.pixabay.com/photo/2023/11/14/00/18/woman-8386594_1280.jpg"
    },
    {
        "id": "8461063",
        "src640": "https://cdn.pixabay.com/photo/2023/12/21/02/06/hand-8461063_640.jpg",
        "src1280": "https://cdn.pixabay.com/photo/2023/12/21/02/06/hand-8461063_1280.jpg"
    },
    {
        "id": "6075994",
        "src640": "https://cdn.pixabay.com/photo/2021/03/07/11/55/abstract-6075994_640.jpg",
        "src1280": "https://cdn.pixabay.com/photo/2021/03/07/11/55/abstract-6075994_1280.jpg"
    },
    {
        "id": "5177809",
        "src640": "https://cdn.pixabay.com/photo/2020/05/16/14/38/flower-5177809_640.jpg",
        "src1280": "https://cdn.pixabay.com/photo/2020/05/16/14/38/flower-5177809_1280.jpg"
    },
    {
        "id": "1048939",
        "src640": "https://cdn.pixabay.com/photo/2015/11/18/10/47/art-1048939_640.jpg",
        "src1280": "https://cdn.pixabay.com/photo/2015/11/18/10/47/art-1048939_1280.jpg"
    },
    {
        "id": "1398237",
        "src640": "https://cdn.pixabay.com/photo/2016/05/17/14/48/design-1398237_640.jpg",
        "src1280": "https://cdn.pixabay.com/photo/2016/05/17/14/48/design-1398237_1280.jpg"
    },
    {
        "id": "4940885",
        "src640": "https://cdn.pixabay.com/photo/2020/03/17/15/51/butterfly-4940885_640.jpg",
        "src1280": "https://cdn.pixabay.com/photo/2020/03/17/15/51/butterfly-4940885_1280.jpg"
    },
    {
        "id": "7198065",
        "src640": "https://cdn.pixabay.com/photo/2022/05/15/13/38/asian-7198065_640.jpg",
        "src1280": "https://cdn.pixabay.com/photo/2022/05/15/13/38/asian-7198065_1280.jpg"
    },
    {
        "id": "3677950",
        "src640": "https://cdn.pixabay.com/photo/2018/09/14/19/22/flowers-3677950_640.jpg",
        "src1280": "https://cdn.pixabay.com/photo/2018/09/14/19/22/flowers-3677950_1280.jpg"
    },
    {
        "id": "3311516",
        "src640": "https://cdn.pixabay.com/photo/2018/04/11/19/28/plaster-3311516_640.jpg",
        "src1280": "https://cdn.pixabay.com/photo/2018/04/11/19/28/plaster-3311516_1280.jpg"
    },
    {
        "id": "8300949",
        "src640": "https://cdn.pixabay.com/photo/2023/10/07/21/47/twirl-8300949_640.jpg",
        "src1280": "https://cdn.pixabay.com/photo/2023/10/07/21/47/twirl-8300949_1280.jpg"
    },
    {
        "id": "1252239",
        "src640": "https://cdn.pixabay.com/photo/2016/03/12/15/36/plants-1252239_640.jpg",
        "src1280": "https://cdn.pixabay.com/photo/2016/03/12/15/36/plants-1252239_1280.jpg"
    },
    {
        "id": "6463902",
        "src640": "https://cdn.pixabay.com/photo/2021/07/13/15/47/leaves-6463902_640.jpg",
        "src1280": "https://cdn.pixabay.com/photo/2021/07/13/15/47/leaves-6463902_1280.jpg"
    },
    {
        "id": "2087173",
        "src640": "https://cdn.pixabay.com/photo/2017/02/21/19/13/bark-2087173_640.jpg",
        "src1280": "https://cdn.pixabay.com/photo/2017/02/21/19/13/bark-2087173_1280.jpg"
    },
    {
        "id": "704538",
        "src640": "https://cdn.pixabay.com/photo/2015/04/03/00/34/pattern-704538_640.jpg",
        "src1280": "https://cdn.pixabay.com/photo/2015/04/03/00/34/pattern-704538_1280.jpg"
    },
    {
        "id": "8000731",
        "src640": "https://cdn.pixabay.com/photo/2023/05/17/17/51/woodpecker-8000731_640.jpg",
        "src1280": "https://cdn.pixabay.com/photo/2023/05/17/17/51/woodpecker-8000731_1280.jpg"
    },
    {
        "id": "1062370",
        "src640": "https://cdn.pixabay.com/photo/2015/11/25/15/44/background-1062370_640.jpg",
        "src1280": "https://cdn.pixabay.com/photo/2015/11/25/15/44/background-1062370_1280.jpg"
    },
    {
        "id": "2818937",
        "src640": "https://cdn.pixabay.com/photo/2017/10/05/10/18/mushrooms-2818937_640.jpg",
        "src1280": "https://cdn.pixabay.com/photo/2017/10/05/10/18/mushrooms-2818937_1280.jpg"
    },
    {
        "id": "8102940",
        "src640": "https://cdn.pixabay.com/photo/2023/07/02/20/14/flower-8102940_640.jpg",
        "src1280": "https://cdn.pixabay.com/photo/2023/07/02/20/14/flower-8102940_1280.jpg"
    },
    {
        "id": "7441243",
        "src640": "https://cdn.pixabay.com/photo/2022/09/08/15/32/background-7441243_640.jpg",
        "src1280": "https://cdn.pixabay.com/photo/2022/09/08/15/32/background-7441243_1280.jpg"
    },
    {
        "id": "952653",
        "src640": "https://cdn.pixabay.com/photo/2015/09/22/23/22/white-grapes-952653_640.jpg",
        "src1280": "https://cdn.pixabay.com/photo/2015/09/22/23/22/white-grapes-952653_1280.jpg"
    },
    {
        "id": "7826383",
        "src640": "https://cdn.pixabay.com/photo/2023/03/02/20/08/ai-generated-7826383_640.jpg",
        "src1280": "https://cdn.pixabay.com/photo/2023/03/02/20/08/ai-generated-7826383_1280.jpg"
    },
    {
        "id": "7629939",
        "src640": "https://cdn.pixabay.com/photo/2022/12/01/23/33/little-girl-7629939_640.jpg",
        "src1280": "https://cdn.pixabay.com/photo/2022/12/01/23/33/little-girl-7629939_1280.jpg"
    },
    {
        "id": "7257811",
        "src640": "https://cdn.pixabay.com/photo/2022/06/12/11/25/background-7257811_640.jpg",
        "src1280": "https://cdn.pixabay.com/photo/2022/06/12/11/25/background-7257811_1280.jpg"
    },
    {
        "id": "1610829",
        "src640": "https://cdn.pixabay.com/photo/2016/08/21/21/25/geese-flower-1610829_640.jpg",
        "src1280": "https://cdn.pixabay.com/photo/2016/08/21/21/25/geese-flower-1610829_1280.jpg"
    },
    {
        "id": "7978360",
        "src640": "https://cdn.pixabay.com/photo/2023/05/08/11/19/flowers-7978360_640.jpg",
        "src1280": "https://cdn.pixabay.com/photo/2023/05/08/11/19/flowers-7978360_1280.jpg"
    },
    {
        "id": "2097111",
        "src640": "https://cdn.pixabay.com/photo/2017/02/25/08/09/wood-2097111_640.jpg",
        "src1280": "https://cdn.pixabay.com/photo/2017/02/25/08/09/wood-2097111_1280.jpg"
    },
    {
        "id": "8254316",
        "src640": "https://cdn.pixabay.com/photo/2023/09/15/07/54/wavy-8254316_640.jpg",
        "src1280": "https://cdn.pixabay.com/photo/2023/09/15/07/54/wavy-8254316_1280.jpg"
    },
    {
        "id": "907290",
        "src640": "https://cdn.pixabay.com/photo/2015/08/25/18/01/background-907290_640.jpg",
        "src1280": "https://cdn.pixabay.com/photo/2015/08/25/18/01/background-907290_1280.jpg"
    },
    {
        "id": "7878143",
        "src640": "https://cdn.pixabay.com/photo/2023/03/26/11/11/plants-7878143_640.jpg",
        "src1280": "https://cdn.pixabay.com/photo/2023/03/26/11/11/plants-7878143_1280.jpg"
    },
    {
        "id": "8029204",
        "src640": "https://cdn.pixabay.com/photo/2023/05/30/17/20/ballet-8029204_640.jpg",
        "src1280": "https://cdn.pixabay.com/photo/2023/05/30/17/20/ballet-8029204_1280.jpg"
    },
    {
        "id": "1271354",
        "src640": "https://cdn.pixabay.com/photo/2016/03/21/19/34/tile-1271354_640.jpg",
        "src1280": "https://cdn.pixabay.com/photo/2016/03/21/19/34/tile-1271354_1280.jpg"
    },
    {
        "id": "7456482",
        "src640": "https://cdn.pixabay.com/photo/2022/09/15/13/43/abstract-7456482_640.jpg",
        "src1280": "https://cdn.pixabay.com/photo/2022/09/15/13/43/abstract-7456482_1280.jpg"
    },
    {
        "id": "1027603",
        "src640": "https://cdn.pixabay.com/photo/2015/11/06/13/14/texture-1027603_640.jpg",
        "src1280": "https://cdn.pixabay.com/photo/2015/11/06/13/14/texture-1027603_1280.jpg"
    },
    {
        "id": "4015708",
        "src640": "https://cdn.pixabay.com/photo/2019/02/23/14/28/autumn-4015708_640.jpg",
        "src1280": "https://cdn.pixabay.com/photo/2019/02/23/14/28/autumn-4015708_1280.jpg"
    },
    {
        "id": "3649508",
        "src640": "https://cdn.pixabay.com/photo/2018/09/02/18/39/sunflower-3649508_640.jpg",
        "src1280": "https://cdn.pixabay.com/photo/2018/09/02/18/39/sunflower-3649508_1280.jpg"
    },
    {
        "id": "7625154",
        "src640": "https://cdn.pixabay.com/photo/2022/11/29/19/19/christmas-7625154_640.jpg",
        "src1280": "https://cdn.pixabay.com/photo/2022/11/29/19/19/christmas-7625154_1280.jpg"
    },
    {
        "id": "4906704",
        "src640": "https://cdn.pixabay.com/photo/2020/03/06/10/19/girl-4906704_640.jpg",
        "src1280": "https://cdn.pixabay.com/photo/2020/03/06/10/19/girl-4906704_1280.jpg"
    },
    {
        "id": "8405875",
        "src640": "https://cdn.pixabay.com/photo/2023/11/22/16/19/christmas-star-8405875_640.jpg",
        "src1280": "https://cdn.pixabay.com/photo/2023/11/22/16/19/christmas-star-8405875_1280.jpg"
    },
    {
        "id": "7418101",
        "src640": "https://cdn.pixabay.com/photo/2022/08/29/06/03/flowers-7418101_640.jpg",
        "src1280": "https://cdn.pixabay.com/photo/2022/08/29/06/03/flowers-7418101_1280.jpg"
    },
    {
        "id": "3236350",
        "src640": "https://cdn.pixabay.com/photo/2018/03/18/11/02/blossom-3236350_640.jpg",
        "src1280": "https://cdn.pixabay.com/photo/2018/03/18/11/02/blossom-3236350_1280.jpg"
    },
    {
        "id": "2597904",
        "src640": "https://cdn.pixabay.com/photo/2017/08/07/00/20/small-paint-2597904_640.jpg",
        "src1280": "https://cdn.pixabay.com/photo/2017/08/07/00/20/small-paint-2597904_1280.jpg"
    },
    {
        "id": "7111121",
        "src640": "https://cdn.pixabay.com/photo/2022/04/04/12/32/diamond-pattern-7111121_640.jpg",
        "src1280": "https://cdn.pixabay.com/photo/2022/04/04/12/32/diamond-pattern-7111121_1280.jpg"
    },
    {
        "id": "7878144",
        "src640": "https://cdn.pixabay.com/photo/2023/03/26/11/11/plants-7878144_640.jpg",
        "src1280": "https://cdn.pixabay.com/photo/2023/03/26/11/11/plants-7878144_1280.jpg"
    },
    {
        "id": "7753869",
        "src640": "https://cdn.pixabay.com/photo/2023/01/29/18/36/monstera-7753869_640.jpg",
        "src1280": "https://cdn.pixabay.com/photo/2023/01/29/18/36/monstera-7753869_1280.jpg"
    },
    {
        "id": "7764872",
        "src640": "https://cdn.pixabay.com/photo/2023/02/03/12/07/tree-7764872_640.jpg",
        "src1280": "https://cdn.pixabay.com/photo/2023/02/03/12/07/tree-7764872_1280.jpg"
    },
    {
        "id": "2747",
        "src640": "https://cdn.pixabay.com/photo/2010/12/13/10/22/bridge-2747_640.jpg",
        "src1280": "https://cdn.pixabay.com/photo/2010/12/13/10/22/bridge-2747_1280.jpg"
    },
    {
        "id": "3222794",
        "src640": "https://cdn.pixabay.com/photo/2018/03/13/15/25/nature-3222794_640.jpg",
        "src1280": "https://cdn.pixabay.com/photo/2018/03/13/15/25/nature-3222794_1280.jpg"
    },
    {
        "id": "8454251",
        "src640": "https://cdn.pixabay.com/photo/2023/12/17/13/52/christmas-8454251_640.jpg",
        "src1280": "https://cdn.pixabay.com/photo/2023/12/17/13/52/christmas-8454251_1280.jpg"
    },
    {
        "id": "8466180",
        "src640": "https://cdn.pixabay.com/photo/2023/12/23/19/28/ai-generated-8466180_640.jpg",
        "src1280": "https://cdn.pixabay.com/photo/2023/12/23/19/28/ai-generated-8466180_1280.jpg"
    },
    {
        "id": "3159469",
        "src640": "https://cdn.pixabay.com/photo/2018/02/17/09/16/flower-3159469_640.jpg",
        "src1280": "https://cdn.pixabay.com/photo/2018/02/17/09/16/flower-3159469_1280.jpg"
    },
    {
        "id": "1551205",
        "src640": "https://cdn.pixabay.com/photo/2016/07/29/08/20/leaf-1551205_640.jpg",
        "src1280": "https://cdn.pixabay.com/photo/2016/07/29/08/20/leaf-1551205_1280.jpg"
    }
]