[
    {
        "id": "5356480",
        "src640": "https://cdn.pixabay.com/photo/2020/06/30/14/06/background-5356480_640.jpg",
        "src1280": "https://cdn.pixabay.com/photo/2020/06/30/14/06/background-5356480_1280.jpg"
    },
    {
        "id": "1338988",
        "src640": "https://cdn.pixabay.com/photo/2016/04/19/16/28/flower-1338988_640.jpg",
        "src1280": "https://cdn.pixabay.com/photo/2016/04/19/16/28/flower-1338988_1280.jpg"
    },
    {
        "id": "4872422",
        "src640": "https://cdn.pixabay.com/photo/2020/02/23/06/29/gothic-4872422_640.jpg",
        "src1280": "https://cdn.pixabay.com/photo/2020/02/23/06/29/gothic-4872422_1280.jpg"
    },
    {
        "id": "2354906",
        "src640": "https://cdn.pixabay.com/photo/2017/05/29/20/59/womens-2354906_640.jpg",
        "src1280": "https://cdn.pixabay.com/photo/2017/05/29/20/59/womens-2354906_1280.jpg"
    },
    {
        "id": "3358832",
        "src640": "https://cdn.pixabay.com/photo/2018/04/29/01/16/da-minh-chau-3358832_640.jpg",
        "src1280": "https://cdn.pixabay.com/photo/2018/04/29/01/16/da-minh-chau-3358832_1280.jpg"
    },
    {
        "id": "7786243",
        "src640": "https://cdn.pixabay.com/photo/2023/02/13/00/02/flower-7786243_640.jpg",
        "src1280": "https://cdn.pixabay.com/photo/2023/02/13/00/02/flower-7786243_1280.jpg"
    },
    {
        "id": "6843250",
        "src640": "https://cdn.pixabay.com/photo/2021/12/03/17/34/flower-6843250_640.jpg",
        "src1280": "https://cdn.pixabay.com/photo/2021/12/03/17/34/flower-6843250_1280.jpg"
    },
    {
        "id": "7389484",
        "src640": "https://cdn.pixabay.com/photo/2022/08/16/06/38/insect-7389484_640.jpg",
        "src1280": "https://cdn.pixabay.com/photo/2022/08/16/06/38/insect-7389484_1280.jpg"
    },
    {
        "id": "7853370",
        "src640": "https://cdn.pixabay.com/photo/2023/03/14/23/50/roses-7853370_640.jpg",
        "src1280": "https://cdn.pixabay.com/photo/2023/03/14/23/50/roses-7853370_1280.jpg"
    },
    {
        "id": "2211236",
        "src640": "https://cdn.pixabay.com/photo/2017/04/07/15/46/girl-2211236_640.jpg",
        "src1280": "https://cdn.pixabay.com/photo/2017/04/07/15/46/girl-2211236_1280.jpg"
    },
    {
        "id": "5987459",
        "src640": "https://cdn.pixabay.com/photo/2021/02/06/09/04/face-5987459_640.jpg",
        "src1280": "https://cdn.pixabay.com/photo/2021/02/06/09/04/face-5987459_1280.jpg"
    },
    {
        "id": "8431154",
        "src640": "https://cdn.pixabay.com/photo/2023/12/05/09/15/flower-8431154_640.jpg",
        "src1280": "https://cdn.pixabay.com/photo/2023/12/05/09/15/flower-8431154_1280.jpg"
    },
    {
        "id": "1478100",
        "src640": "https://cdn.pixabay.com/photo/2016/06/25/00/04/lavender-1478100_640.jpg",
        "src1280": "https://cdn.pixabay.com/photo/2016/06/25/00/04/lavender-1478100_1280.jpg"
    },
    {
        "id": "649139",
        "src640": "https://cdn.pixabay.com/photo/2015/02/25/17/42/flower-649139_640.jpg",
        "src1280": "https://cdn.pixabay.com/photo/2015/02/25/17/42/flower-649139_1280.jpg"
    },
    {
        "id": "70014",
        "src640": "https://cdn.pixabay.com/photo/2012/12/14/15/15/summer-70014_640.jpg",
        "src1280": "https://cdn.pixabay.com/photo/2012/12/14/15/15/summer-70014_1280.jpg"
    },
    {
        "id": "8480651",
        "src640": "https://cdn.pixabay.com/photo/2023/12/31/22/00/ai-generated-8480651_640.jpg",
        "src1280": "https://cdn.pixabay.com/photo/2023/12/31/22/00/ai-generated-8480651_1280.jpg"
    },
    {
        "id": "5154327",
        "src640": "https://cdn.pixabay.com/photo/2020/05/10/14/57/meadow-5154327_640.jpg",
        "src1280": "https://cdn.pixabay.com/photo/2020/05/10/14/57/meadow-5154327_1280.jpg"
    },
    {
        "id": "69484",
        "src640": "https://cdn.pixabay.com/photo/2012/12/11/21/28/chocolate-buttons-69484_640.jpg",
        "src1280": "https://cdn.pixabay.com/photo/2012/12/11/21/28/chocolate-buttons-69484_1280.jpg"
    },
    {
        "id": "7245258",
        "src640": "https://cdn.pixabay.com/photo/2022/06/06/04/21/bluebells-7245258_640.jpg",
        "src1280": "https://cdn.pixabay.com/photo/2022/06/06/04/21/bluebells-7245258_1280.jpg"
    },
    {
        "id": "2689718",
        "src640": "https://cdn.pixabay.com/photo/2017/08/28/14/31/background-2689718_640.jpg",
        "src1280": "https://cdn.pixabay.com/photo/2017/08/28/14/31/background-2689718_1280.jpg"
    },
    {
        "id": "67509",
        "src640": "https://cdn.pixabay.com/photo/2012/11/28/08/57/climber-plant-67509_640.jpg",
        "src1280": "https://cdn.pixabay.com/photo/2012/11/28/08/57/climber-plant-67509_1280.jpg"
    },
    {
        "id": "7240798",
        "src640": "https://cdn.pixabay.com/photo/2022/06/03/20/26/rose-7240798_640.jpg",
        "src1280": "https://cdn.pixabay.com/photo/2022/06/03/20/26/rose-7240798_1280.jpg"
    },
    {
        "id": "174886",
        "src640": "https://cdn.pixabay.com/photo/2013/08/23/00/00/perseverance-174886_640.jpg",
        "src1280": "https://cdn.pixabay.com/photo/2013/08/23/00/00/perseverance-174886_1280.jpg"
    },
    {
        "id": "8147974",
        "src640": "https://cdn.pixabay.com/photo/2023/07/24/22/34/paper-8147974_640.jpg",
        "src1280": "https://cdn.pixabay.com/photo/2023/07/24/22/34/paper-8147974_1280.jpg"
    },
    {
        "id": "1197928",
        "src640": "https://cdn.pixabay.com/photo/2016/02/13/14/35/flower-1197928_640.jpg",
        "src1280": "https://cdn.pixabay.com/photo/2016/02/13/14/35/flower-1197928_1280.jpg"
    },
    {
        "id": "7078366",
        "src640": "https://cdn.pixabay.com/photo/2022/03/19/11/41/almond-blossom-7078366_640.jpg",
        "src1280": "https://cdn.pixabay.com/photo/2022/03/19/11/41/almond-blossom-7078366_1280.jpg"
    },
    {
        "id": "4503151",
        "src640": "https://cdn.pixabay.com/photo/2019/09/25/09/31/leaves-4503151_640.jpg",
        "src1280": "https://cdn.pixabay.com/photo/2019/09/25/09/31/leaves-4503151_1280.jpg"
    },
    {
        "id": "3336719",
        "src640": "https://cdn.pixabay.com/photo/2018/04/20/18/27/forget-me-not-3336719_640.jpg",
        "src1280": "https://cdn.pixabay.com/photo/2018/04/20/18/27/forget-me-not-3336719_1280.jpg"
    },
    {
        "id": "220335",
        "src640": "https://cdn.pixabay.com/photo/2013/11/28/11/32/crow-220335_640.jpg",
        "src1280": "https://cdn.pixabay.com/photo/2013/11/28/11/32/crow-220335_1280.jpg"
    },
    {
        "id": "8429830",
        "src640": "https://cdn.pixabay.com/photo/2023/12/04/16/55/ai-generated-8429830_640.jpg",
        "src1280": "https://cdn.pixabay.com/photo/2023/12/04/16/55/ai-generated-8429830_1280.jpg"
    },
    {
        "id": "214622",
        "src640": "https://cdn.pixabay.com/photo/2013/11/21/11/10/lotus-214622_640.jpg",
        "src1280": "https://cdn.pixabay.com/photo/2013/11/21/11/10/lotus-214622_1280.jpg"
    },
    {
        "id": "1251783",
        "src640": "https://cdn.pixabay.com/photo/2016/03/12/10/13/leather-1251783_640.jpg",
        "src1280": "https://cdn.pixabay.com/photo/2016/03/12/10/13/leather-1251783_1280.jpg"
    },
    {
        "id": "2810887",
        "src640": "https://cdn.pixabay.com/photo/2017/10/03/00/17/cosmos-2810887_640.jpg",
        "src1280": "https://cdn.pixabay.com/photo/2017/10/03/00/17/cosmos-2810887_1280.jpg"
    },
    {
        "id": "4030592",
        "src640": "https://cdn.pixabay.com/photo/2019/03/02/20/15/tulips-4030592_640.jpg",
        "src1280": "https://cdn.pixabay.com/photo/2019/03/02/20/15/tulips-4030592_1280.jpg"
    },
    {
        "id": "1275553",
        "src640": "https://cdn.pixabay.com/photo/2016/03/23/19/59/ella-fitzgerald-1275553_640.jpg",
        "src1280": "https://cdn.pixabay.com/photo/2016/03/23/19/59/ella-fitzgerald-1275553_1280.jpg"
    },
    {
        "id": "4284587",
        "src640": "https://cdn.pixabay.com/photo/2019/06/19/10/26/palm-4284587_640.jpg",
        "src1280": "https://cdn.pixabay.com/photo/2019/06/19/10/26/palm-4284587_1280.jpg"
    },
    {
        "id": "7035587",
        "src640": "https://cdn.pixabay.com/photo/2022/02/26/10/34/sakura-7035587_640.jpg",
        "src1280": "https://cdn.pixabay.com/photo/2022/02/26/10/34/sakura-7035587_1280.jpg"
    },
    {
        "id": "4180708",
        "src640": "https://cdn.pixabay.com/photo/2019/05/05/14/35/lilac-4180708_640.jpg",
        "src1280": "https://cdn.pixabay.com/photo/2019/05/05/14/35/lilac-4180708_1280.jpg"
    },
    {
        "id": "170235",
        "src640": "https://cdn.pixabay.com/photo/2013/08/06/16/23/delphinium-170235_640.jpg",
        "src1280": "https://cdn.pixabay.com/photo/2013/08/06/16/23/delphinium-170235_1280.jpg"
    },
    {
        "id": "3975765",
        "src640": "https://cdn.pixabay.com/photo/2019/02/04/21/36/old-3975765_640.jpg",
        "src1280": "https://cdn.pixabay.com/photo/2019/02/04/21/36/old-3975765_1280.jpg"
    },
    {
        "id": "3289884",
        "src640": "https://cdn.pixabay.com/photo/2018/04/04/14/07/outdoors-3289884_640.jpg",
        "src1280": "https://cdn.pixabay.com/photo/2018/04/04/14/07/outdoors-3289884_1280.jpg"
    },
    {
        "id": "1329977",
        "src640": "https://cdn.pixabay.com/photo/2016/04/14/23/16/tile-1329977_640.jpg",
        "src1280": "https://cdn.pixabay.com/photo/2016/04/14/23/16/tile-1329977_1280.jpg"
    },
    {
        "id": "3761498",
        "src640": "https://cdn.pixabay.com/photo/2018/10/20/19/05/bornholm-magerite-3761498_640.jpg",
        "src1280": "https://cdn.pixabay.com/photo/2018/10/20/19/05/bornholm-magerite-3761498_1280.jpg"
    },
    {
        "id": "4348018",
        "src640": "https://cdn.pixabay.com/photo/2019/07/19/05/40/lotus-4348018_640.jpg",
        "src1280": "https://cdn.pixabay.com/photo/2019/07/19/05/40/lotus-4348018_1280.jpg"
    },
    {
        "id": "1798152",
        "src640": "https://cdn.pixabay.com/photo/2016/11/04/15/48/background-1798152_640.jpg",
        "src1280": "https://cdn.pixabay.com/photo/2016/11/04/15/48/background-1798152_1280.jpg"
    },
    {
        "id": "1839127",
        "src640": "https://cdn.pixabay.com/photo/2016/11/19/12/53/bloom-1839127_640.jpg",
        "src1280": "https://cdn.pixabay.com/photo/2016/11/19/12/53/bloom-1839127_1280.jpg"
    },
    {
        "id": "2245770",
        "src640": "https://cdn.pixabay.com/photo/2017/04/20/13/46/crack-2245770_640.jpg",
        "src1280": "https://cdn.pixabay.com/photo/2017/04/20/13/46/crack-2245770_1280.jpg"
    },
    {
        "id": "815389",
        "src640": "https://cdn.pixabay.com/photo/2015/06/19/23/10/chinese-815389_640.jpg",
        "src1280": "https://cdn.pixabay.com/photo/2015/06/19/23/10/chinese-815389_1280.jpg"
    },
    {
        "id": "8412371",
        "src640": "https://cdn.pixabay.com/photo/2023/11/25/19/44/flowers-8412371_640.jpg",
        "src1280": "https://cdn.pixabay.com/photo/2023/11/25/19/44/flowers-8412371_1280.jpg"
    },
    {
        "id": "8418308",
        "src640": "https://cdn.pixabay.com/photo/2023/11/28/22/40/cosmos-8418308_640.jpg",
        "src1280": "https://cdn.pixabay.com/photo/2023/11/28/22/40/cosmos-8418308_1280.jpg"
    },
    {
        "id": "5018669",
        "src640": "https://cdn.pixabay.com/photo/2020/04/08/19/23/fox-5018669_640.jpg",
        "src1280": "https://cdn.pixabay.com/photo/2020/04/08/19/23/fox-5018669_1280.jpg"
    },
    {
        "id": "3121975",
        "src640": "https://cdn.pixabay.com/photo/2018/01/31/21/15/flower-3121975_640.jpg",
        "src1280": "https://cdn.pixabay.com/photo/2018/01/31/21/15/flower-3121975_1280.jpg"
    },
    {
        "id": "2353633",
        "src640": "https://cdn.pixabay.com/photo/2017/05/29/12/07/background-2353633_640.jpg",
        "src1280": "https://cdn.pixabay.com/photo/2017/05/29/12/07/background-2353633_1280.jpg"
    },
    {
        "id": "8464250",
        "src640": "https://cdn.pixabay.com/photo/2023/12/22/19/16/flowers-8464250_640.jpg",
        "src1280": "https://cdn.pixabay.com/photo/2023/12/22/19/16/flowers-8464250_1280.jpg"
    },
    {
        "id": "6517571",
        "src640": "https://cdn.pixabay.com/photo/2021/08/02/18/45/flowers-6517571_640.jpg",
        "src1280": "https://cdn.pixabay.com/photo/2021/08/02/18/45/flowers-6517571_1280.jpg"
    },
    {
        "id": "3877863",
        "src640": "https://cdn.pixabay.com/photo/2018/12/16/01/22/fly-3877863_640.jpg",
        "src1280": "https://cdn.pixabay.com/photo/2018/12/16/01/22/fly-3877863_1280.jpg"
    },
    {
        "id": "3352297",
        "src640": "https://cdn.pixabay.com/photo/2018/04/26/16/09/animal-3352297_640.jpg",
        "src1280": "https://cdn.pixabay.com/photo/2018/04/26/16/09/animal-3352297_1280.jpg"
    },
    {
        "id": "7321696",
        "src640": "https://cdn.pixabay.com/photo/2022/07/14/17/47/anemone-7321696_640.jpg",
        "src1280": "https://cdn.pixabay.com/photo/2022/07/14/17/47/anemone-7321696_1280.jpg"
    },
    {
        "id": "2418416",
        "src640": "https://cdn.pixabay.com/photo/2017/06/19/07/41/rose-2418416_640.jpg",
        "src1280": "https://cdn.pixabay.com/photo/2017/06/19/07/41/rose-2418416_1280.jpg"
    },
    {
        "id": "7850582",
        "src640": "https://cdn.pixabay.com/photo/2023/03/13/19/13/botanical-7850582_640.jpg",
        "src1280": "https://cdn.pixabay.com/photo/2023/03/13/19/13/botanical-7850582_1280.jpg"
    },
    {
        "id": "4880653",
        "src640": "https://cdn.pixabay.com/photo/2020/02/26/05/32/moon-4880653_640.jpg",
        "src1280": "https://cdn.pixabay.com/photo/2020/02/26/05/32/moon-4880653_1280.jpg"
    },
    {
        "id": "7855800",
        "src640": "https://cdn.pixabay.com/photo/2023/03/16/02/25/ai-generated-7855800_640.jpg",
        "src1280": "https://cdn.pixabay.com/photo/2023/03/16/02/25/ai-generated-7855800_1280.jpg"
    },
    {
        "id": "2202834",
        "src640": "https://cdn.pixabay.com/photo/2017/04/04/19/24/flower-2202834_640.jpg",
        "src1280": "https://cdn.pixabay.com/photo/2017/04/04/19/24/flower-2202834_1280.jpg"
    },
    {
        "id": "1280019",
        "src640": "https://cdn.pixabay.com/photo/2016/03/26/03/48/plum-1280019_640.jpg",
        "src1280": "https://cdn.pixabay.com/photo/2016/03/26/03/48/plum-1280019_1280.jpg"
    }
]