[
    {
        "id": "4513602",
        "src640": "https://cdn.pixabay.com/photo/2019/09/29/15/30/drip-4513602_640.jpg",
        "src1280": "https://cdn.pixabay.com/photo/2019/09/29/15/30/drip-4513602_1280.jpg"
    },
    {
        "id": "1802101",
        "src640": "https://cdn.pixabay.com/photo/2016/11/06/02/09/spring-1802101_640.jpg",
        "src1280": "https://cdn.pixabay.com/photo/2016/11/06/02/09/spring-1802101_1280.jpg"
    },
    {
        "id": "975938",
        "src640": "https://cdn.pixabay.com/photo/2015/10/07/10/15/nasturtium-975938_640.jpg",
        "src1280": "https://cdn.pixabay.com/photo/2015/10/07/10/15/nasturtium-975938_1280.jpg"
    },
    {
        "id": "8247015",
        "src640": "https://cdn.pixabay.com/photo/2023/09/11/14/48/flower-8247015_640.jpg",
        "src1280": "https://cdn.pixabay.com/photo/2023/09/11/14/48/flower-8247015_1280.jpg"
    },
    {
        "id": "19658",
        "src640": "https://cdn.pixabay.com/photo/2012/03/01/00/31/poppy-19658_640.jpg",
        "src1280": "https://cdn.pixabay.com/photo/2012/03/01/00/31/poppy-19658_1280.jpg"
    },
    {
        "id": "1563998",
        "src640": "https://cdn.pixabay.com/photo/2016/08/02/16/32/coach-1563998_640.jpg",
        "src1280": "https://cdn.pixabay.com/photo/2016/08/02/16/32/coach-1563998_1280.jpg"
    },
    {
        "id": "7285691",
        "src640": "https://cdn.pixabay.com/photo/2022/06/26/14/58/flowers-7285691_640.jpg",
        "src1280": "https://cdn.pixabay.com/photo/2022/06/26/14/58/flowers-7285691_1280.jpg"
    },
    {
        "id": "2431390",
        "src640": "https://cdn.pixabay.com/photo/2017/06/22/16/22/sunset-2431390_640.jpg",
        "src1280": "https://cdn.pixabay.com/photo/2017/06/22/16/22/sunset-2431390_1280.jpg"
    },
    {
        "id": "4515712",
        "src640": "https://cdn.pixabay.com/photo/2019/09/30/13/06/abstract-4515712_640.jpg",
        "src1280": "https://cdn.pixabay.com/photo/2019/09/30/13/06/abstract-4515712_1280.jpg"
    },
    {
        "id": "15973",
        "src640": "https://cdn.pixabay.com/photo/2012/02/23/09/14/flower-15973_640.jpg",
        "src1280": "https://cdn.pixabay.com/photo/2012/02/23/09/14/flower-15973_1280.jpg"
    },
    {
        "id": "19890",
        "src640": "https://cdn.pixabay.com/photo/2012/03/01/00/59/eagle-19890_640.jpg",
        "src1280": "https://cdn.pixabay.com/photo/2012/03/01/00/59/eagle-19890_1280.jpg"
    },
    {
        "id": "990352",
        "src640": "https://cdn.pixabay.com/photo/2015/10/16/01/18/antique-990352_640.jpg",
        "src1280": "https://cdn.pixabay.com/photo/2015/10/16/01/18/antique-990352_1280.jpg"
    },
    {
        "id": "7671268",
        "src640": "https://cdn.pixabay.com/photo/2022/12/22/00/44/ai-generated-7671268_640.jpg",
        "src1280": "https://cdn.pixabay.com/photo/2022/12/22/00/44/ai-generated-7671268_1280.jpg"
    },
    {
        "id": "8421575",
        "src640": "https://cdn.pixabay.com/photo/2023/11/30/12/42/woman-8421575_640.jpg",
        "src1280": "https://cdn.pixabay.com/photo/2023/11/30/12/42/woman-8421575_1280.jpg"
    },
    {
        "id": "2325754",
        "src640": "https://cdn.pixabay.com/photo/2017/05/19/07/51/abstract-2325754_640.jpg",
        "src1280": "https://cdn.pixabay.com/photo/2017/05/19/07/51/abstract-2325754_1280.jpg"
    },
    {
        "id": "3227836",
        "src640": "https://cdn.pixabay.com/photo/2018/03/15/10/55/chicago-30-ies-3227836_640.jpg",
        "src1280": "https://cdn.pixabay.com/photo/2018/03/15/10/55/chicago-30-ies-3227836_1280.jpg"
    },
    {
        "id": "8482795",
        "src640": "https://cdn.pixabay.com/photo/2024/01/02/08/40/ai-generated-8482795_640.jpg",
        "src1280": "https://cdn.pixabay.com/photo/2024/01/02/08/40/ai-generated-8482795_1280.jpg"
    },
    {
        "id": "1142198",
        "src640": "https://cdn.pixabay.com/photo/2016/01/15/18/37/retro-1142198_640.jpg",
        "src1280": "https://cdn.pixabay.com/photo/2016/01/15/18/37/retro-1142198_1280.jpg"
    },
    {
        "id": "4963575",
        "src640": "https://cdn.pixabay.com/photo/2020/03/24/11/00/tulip-4963575_640.jpg",
        "src1280": "https://cdn.pixabay.com/photo/2020/03/24/11/00/tulip-4963575_1280.jpg"
    },
    {
        "id": "70829",
        "src640": "https://cdn.pixabay.com/photo/2012/12/19/03/13/wall-70829_640.jpg",
        "src1280": "https://cdn.pixabay.com/photo/2012/12/19/03/13/wall-70829_1280.jpg"
    },
    {
        "id": "8488640",
        "src640": "https://cdn.pixabay.com/photo/2024/01/05/01/07/flower-basket-8488640_640.jpg",
        "src1280": "https://cdn.pixabay.com/photo/2024/01/05/01/07/flower-basket-8488640_1280.jpg"
    },
    {
        "id": "5459504",
        "src640": "https://cdn.pixabay.com/photo/2020/08/03/08/09/butterfly-5459504_640.jpg",
        "src1280": "https://cdn.pixabay.com/photo/2020/08/03/08/09/butterfly-5459504_1280.jpg"
    },
    {
        "id": "3737118",
        "src640": "https://cdn.pixabay.com/photo/2018/10/10/12/18/flower-3737118_640.jpg",
        "src1280": "https://cdn.pixabay.com/photo/2018/10/10/12/18/flower-3737118_1280.jpg"
    },
    {
        "id": "2117",
        "src640": "https://cdn.pixabay.com/photo/2010/12/13/10/01/cactus-2117_640.jpg",
        "src1280": "https://cdn.pixabay.com/photo/2010/12/13/10/01/cactus-2117_1280.jpg"
    },
    {
        "id": "6971087",
        "src640": "https://cdn.pixabay.com/photo/2022/01/27/05/13/flower-6971087_640.jpg",
        "src1280": "https://cdn.pixabay.com/photo/2022/01/27/05/13/flower-6971087_1280.jpg"
    },
    {
        "id": "7282249",
        "src640": "https://cdn.pixabay.com/photo/2022/06/24/18/34/thistle-7282249_640.jpg",
        "src1280": "https://cdn.pixabay.com/photo/2022/06/24/18/34/thistle-7282249_1280.jpg"
    },
    {
        "id": "2105155",
        "src640": "https://cdn.pixabay.com/photo/2017/02/28/08/32/girl-2105155_640.jpg",
        "src1280": "https://cdn.pixabay.com/photo/2017/02/28/08/32/girl-2105155_1280.jpg"
    },
    {
        "id": "8431958",
        "src640": "https://cdn.pixabay.com/photo/2023/12/05/15/40/lantana-8431958_640.jpg",
        "src1280": "https://cdn.pixabay.com/photo/2023/12/05/15/40/lantana-8431958_1280.jpg"
    },
    {
        "id": "8273861",
        "src640": "https://cdn.pixabay.com/photo/2023/09/24/21/25/sunflower-8273861_640.jpg",
        "src1280": "https://cdn.pixabay.com/photo/2023/09/24/21/25/sunflower-8273861_1280.jpg"
    },
    {
        "id": "8433863",
        "src640": "https://cdn.pixabay.com/photo/2023/12/06/15/04/berries-8433863_640.jpg",
        "src1280": "https://cdn.pixabay.com/photo/2023/12/06/15/04/berries-8433863_1280.jpg"
    },
    {
        "id": "3700640",
        "src640": "https://cdn.pixabay.com/photo/2018/09/24/19/13/flower-3700640_640.jpg",
        "src1280": "https://cdn.pixabay.com/photo/2018/09/24/19/13/flower-3700640_1280.jpg"
    },
    {
        "id": "3997921",
        "src640": "https://cdn.pixabay.com/photo/2019/02/15/07/02/butterfly-3997921_640.jpg",
        "src1280": "https://cdn.pixabay.com/photo/2019/02/15/07/02/butterfly-3997921_1280.jpg"
    },
    {
        "id": "4162832",
        "src640": "https://cdn.pixabay.com/photo/2019/04/28/11/11/imperial-crown-4162832_640.jpg",
        "src1280": "https://cdn.pixabay.com/photo/2019/04/28/11/11/imperial-crown-4162832_1280.jpg"
    },
    {
        "id": "6287117",
        "src640": "https://cdn.pixabay.com/photo/2021/05/27/05/51/peach-blossoms-6287117_640.jpg",
        "src1280": "https://cdn.pixabay.com/photo/2021/05/27/05/51/peach-blossoms-6287117_1280.jpg"
    },
    {
        "id": "4242262",
        "src640": "https://cdn.pixabay.com/photo/2019/05/31/13/59/rose-4242262_640.jpg",
        "src1280": "https://cdn.pixabay.com/photo/2019/05/31/13/59/rose-4242262_1280.jpg"
    },
    {
        "id": "7424924",
        "src640": "https://cdn.pixabay.com/photo/2022/09/01/07/55/flower-7424924_640.jpg",
        "src1280": "https://cdn.pixabay.com/photo/2022/09/01/07/55/flower-7424924_1280.jpg"
    },
    {
        "id": "89194",
        "src640": "https://cdn.pixabay.com/photo/2013/03/02/02/40/portrayal-89194_640.jpg",
        "src1280": "https://cdn.pixabay.com/photo/2013/03/02/02/40/portrayal-89194_1280.jpg"
    },
    {
        "id": "4824023",
        "src640": "https://cdn.pixabay.com/photo/2020/02/06/12/07/girl-4824023_640.jpg",
        "src1280": "https://cdn.pixabay.com/photo/2020/02/06/12/07/girl-4824023_1280.jpg"
    },
    {
        "id": "7764521",
        "src640": "https://cdn.pixabay.com/photo/2023/02/03/08/59/abstract-7764521_640.jpg",
        "src1280": "https://cdn.pixabay.com/photo/2023/02/03/08/59/abstract-7764521_1280.jpg"
    },
    {
        "id": "7552898",
        "src640": "https://cdn.pixabay.com/photo/2022/10/28/11/02/whales-7552898_640.jpg",
        "src1280": "https://cdn.pixabay.com/photo/2022/10/28/11/02/whales-7552898_1280.jpg"
    },
    {
        "id": "1515996",
        "src640": "https://cdn.pixabay.com/photo/2016/07/14/02/57/background-1515996_640.jpg",
        "src1280": "https://cdn.pixabay.com/photo/2016/07/14/02/57/background-1515996_1280.jpg"
    },
    {
        "id": "5056150",
        "src640": "https://cdn.pixabay.com/photo/2020/04/17/17/18/flower-5056150_640.jpg",
        "src1280": "https://cdn.pixabay.com/photo/2020/04/17/17/18/flower-5056150_1280.jpg"
    },
    {
        "id": "7676797",
        "src640": "https://cdn.pixabay.com/photo/2022/12/25/04/24/leaf-7676797_640.jpg",
        "src1280": "https://cdn.pixabay.com/photo/2022/12/25/04/24/leaf-7676797_1280.jpg"
    },
    {
        "id": "19187",
        "src640": "https://cdn.pixabay.com/photo/2012/02/29/15/50/abstract-19187_640.jpg",
        "src1280": "https://cdn.pixabay.com/photo/2012/02/29/15/50/abstract-19187_1280.jpg"
    },
    {
        "id": "761150",
        "src640": "https://cdn.pixabay.com/photo/2015/05/10/17/10/lily-of-the-valley-761150_640.jpg",
        "src1280": "https://cdn.pixabay.com/photo/2015/05/10/17/10/lily-of-the-valley-761150_1280.jpg"
    },
    {
        "id": "7399857",
        "src640": "https://cdn.pixabay.com/photo/2022/08/20/19/20/flowers-7399857_640.jpg",
        "src1280": "https://cdn.pixabay.com/photo/2022/08/20/19/20/flowers-7399857_1280.jpg"
    },
    {
        "id": "2032075",
        "src640": "https://cdn.pixabay.com/photo/2017/02/02/05/49/earth-2032075_640.jpg",
        "src1280": "https://cdn.pixabay.com/photo/2017/02/02/05/49/earth-2032075_1280.jpg"
    },
    {
        "id": "4646398",
        "src640": "https://cdn.pixabay.com/photo/2019/11/23/07/16/loewenmaeulchen-4646398_640.jpg",
        "src1280": "https://cdn.pixabay.com/photo/2019/11/23/07/16/loewenmaeulchen-4646398_1280.jpg"
    },
    {
        "id": "5755504",
        "src640": "https://cdn.pixabay.com/photo/2020/11/18/14/48/marguerite-daisy-5755504_640.jpg",
        "src1280": "https://cdn.pixabay.com/photo/2020/11/18/14/48/marguerite-daisy-5755504_1280.jpg"
    },
    {
        "id": "4143673",
        "src640": "https://cdn.pixabay.com/photo/2019/04/21/08/52/scheinkalla-4143673_640.jpg",
        "src1280": "https://cdn.pixabay.com/photo/2019/04/21/08/52/scheinkalla-4143673_1280.jpg"
    },
    {
        "id": "5894904",
        "src640": "https://cdn.pixabay.com/photo/2021/01/06/16/12/blackboard-5894904_640.jpg",
        "src1280": "https://cdn.pixabay.com/photo/2021/01/06/16/12/blackboard-5894904_1280.jpg"
    },
    {
        "id": "7864994",
        "src640": "https://cdn.pixabay.com/photo/2023/03/20/14/52/rose-7864994_640.jpg",
        "src1280": "https://cdn.pixabay.com/photo/2023/03/20/14/52/rose-7864994_1280.jpg"
    },
    {
        "id": "843376",
        "src640": "https://cdn.pixabay.com/photo/2015/07/13/16/06/iris-843376_640.jpg",
        "src1280": "https://cdn.pixabay.com/photo/2015/07/13/16/06/iris-843376_1280.jpg"
    },
    {
        "id": "3667767",
        "src640": "https://cdn.pixabay.com/photo/2018/09/10/19/08/desk-3667767_640.jpg",
        "src1280": "https://cdn.pixabay.com/photo/2018/09/10/19/08/desk-3667767_1280.jpg"
    },
    {
        "id": "814131",
        "src640": "https://cdn.pixabay.com/photo/2015/06/18/21/02/goddess-814131_640.jpg",
        "src1280": "https://cdn.pixabay.com/photo/2015/06/18/21/02/goddess-814131_1280.jpg"
    },
    {
        "id": "4399844",
        "src640": "https://cdn.pixabay.com/photo/2019/08/11/20/21/sunflower-4399844_640.jpg",
        "src1280": "https://cdn.pixabay.com/photo/2019/08/11/20/21/sunflower-4399844_1280.jpg"
    },
    {
        "id": "2050310",
        "src640": "https://cdn.pixabay.com/photo/2017/02/08/22/35/background-2050310_640.jpg",
        "src1280": "https://cdn.pixabay.com/photo/2017/02/08/22/35/background-2050310_1280.jpg"
    },
    {
        "id": "7425283",
        "src640": "https://cdn.pixabay.com/photo/2022/09/01/10/35/anemone-7425283_640.jpg",
        "src1280": "https://cdn.pixabay.com/photo/2022/09/01/10/35/anemone-7425283_1280.jpg"
    },
    {
        "id": "7846919",
        "src640": "https://cdn.pixabay.com/photo/2023/03/12/13/33/boho-7846919_640.jpg",
        "src1280": "https://cdn.pixabay.com/photo/2023/03/12/13/33/boho-7846919_1280.jpg"
    },
    {
        "id": "6314722",
        "src640": "https://cdn.pixabay.com/photo/2021/06/06/08/41/basket-6314722_640.jpg",
        "src1280": "https://cdn.pixabay.com/photo/2021/06/06/08/41/basket-6314722_1280.jpg"
    },
    {
        "id": "1085526",
        "src640": "https://cdn.pixabay.com/photo/2015/12/09/20/43/background-1085526_640.jpg",
        "src1280": "https://cdn.pixabay.com/photo/2015/12/09/20/43/background-1085526_1280.jpg"
    }
]