[
    {
        "id": "4434",
        "src640": "https://cdn.pixabay.com/photo/2011/01/06/00/01/lotus-4434_640.jpg",
        "src1280": "https://cdn.pixabay.com/photo/2011/01/06/00/01/lotus-4434_1280.jpg"
    },
    {
        "id": "8354128",
        "src640": "https://cdn.pixabay.com/photo/2023/10/31/01/23/flower-8354128_640.jpg",
        "src1280": "https://cdn.pixabay.com/photo/2023/10/31/01/23/flower-8354128_1280.jpg"
    },
    {
        "id": "7723138",
        "src640": "https://cdn.pixabay.com/photo/2023/01/16/19/13/bird-7723138_640.jpg",
        "src1280": "https://cdn.pixabay.com/photo/2023/01/16/19/13/bird-7723138_1280.jpg"
    },
    {
        "id": "1135964",
        "src640": "https://cdn.pixabay.com/photo/2016/01/12/16/14/heart-1135964_640.jpg",
        "src1280": "https://cdn.pixabay.com/photo/2016/01/12/16/14/heart-1135964_1280.jpg"
    },
    {
        "id": "1197931",
        "src640": "https://cdn.pixabay.com/photo/2016/02/13/14/36/flower-1197931_640.jpg",
        "src1280": "https://cdn.pixabay.com/photo/2016/02/13/14/36/flower-1197931_1280.jpg"
    },
    {
        "id": "4516157",
        "src640": "https://cdn.pixabay.com/photo/2019/09/30/15/55/fleur-4516157_640.jpg",
        "src1280": "https://cdn.pixabay.com/photo/2019/09/30/15/55/fleur-4516157_1280.jpg"
    },
    {
        "id": "20434",
        "src640": "https://cdn.pixabay.com/photo/2012/03/01/15/45/background-20434_640.jpg",
        "src1280": "https://cdn.pixabay.com/photo/2012/03/01/15/45/background-20434_1280.jpg"
    },
    {
        "id": "4234566",
        "src640": "https://cdn.pixabay.com/photo/2019/05/28/07/46/nature-4234566_640.jpg",
        "src1280": "https://cdn.pixabay.com/photo/2019/05/28/07/46/nature-4234566_1280.jpg"
    },
    {
        "id": "4944553",
        "src640": "https://cdn.pixabay.com/photo/2020/03/18/15/44/girl-4944553_640.jpg",
        "src1280": "https://cdn.pixabay.com/photo/2020/03/18/15/44/girl-4944553_1280.jpg"
    },
    {
        "id": "3030825",
        "src640": "https://cdn.pixabay.com/photo/2017/12/20/23/06/rose-3030825_640.jpg",
        "src1280": "https://cdn.pixabay.com/photo/2017/12/20/23/06/rose-3030825_1280.jpg"
    },
    {
        "id": "1838699",
        "src640": "https://cdn.pixabay.com/photo/2016/11/19/11/19/purple-1838699_640.jpg",
        "src1280": "https://cdn.pixabay.com/photo/2016/11/19/11/19/purple-1838699_1280.jpg"
    },
    {
        "id": "3372258",
        "src640": "https://cdn.pixabay.com/photo/2018/05/03/20/17/tulip-3372258_640.jpg",
        "src1280": "https://cdn.pixabay.com/photo/2018/05/03/20/17/tulip-3372258_1280.jpg"
    },
    {
        "id": "8171742",
        "src640": "https://cdn.pixabay.com/photo/2023/08/05/20/20/flower-8171742_640.jpg",
        "src1280": "https://cdn.pixabay.com/photo/2023/08/05/20/20/flower-8171742_1280.jpg"
    },
    {
        "id": "3359073",
        "src640": "https://cdn.pixabay.com/photo/2018/04/29/04/37/flower-3359073_640.jpg",
        "src1280": "https://cdn.pixabay.com/photo/2018/04/29/04/37/flower-3359073_1280.jpg"
    },
    {
        "id": "6079907",
        "src640": "https://cdn.pixabay.com/photo/2021/03/08/18/33/woman-6079907_640.jpg",
        "src1280": "https://cdn.pixabay.com/photo/2021/03/08/18/33/woman-6079907_1280.jpg"
    },
    {
        "id": "3752737",
        "src640": "https://cdn.pixabay.com/photo/2018/10/16/22/52/flowers-3752737_640.jpg",
        "src1280": "https://cdn.pixabay.com/photo/2018/10/16/22/52/flowers-3752737_1280.jpg"
    },
    {
        "id": "2535318",
        "src640": "https://cdn.pixabay.com/photo/2017/07/24/16/41/coconut-oil-2535318_640.jpg",
        "src1280": "https://cdn.pixabay.com/photo/2017/07/24/16/41/coconut-oil-2535318_1280.jpg"
    },
    {
        "id": "8390985",
        "src640": "https://cdn.pixabay.com/photo/2023/11/15/20/29/flowers-8390985_640.jpg",
        "src1280": "https://cdn.pixabay.com/photo/2023/11/15/20/29/flowers-8390985_1280.jpg"
    },
    {
        "id": "7858708",
        "src640": "https://cdn.pixabay.com/photo/2023/03/17/14/15/poppy-7858708_640.jpg",
        "src1280": "https://cdn.pixabay.com/photo/2023/03/17/14/15/poppy-7858708_1280.jpg"
    },
    {
        "id": "62926",
        "src640": "https://cdn.pixabay.com/photo/2012/10/26/00/15/chrysanthemum-62926_640.jpg",
        "src1280": "https://cdn.pixabay.com/photo/2012/10/26/00/15/chrysanthemum-62926_1280.jpg"
    },
    {
        "id": "7594974",
        "src640": "https://cdn.pixabay.com/photo/2022/11/16/00/41/skeleton-7594974_640.jpg",
        "src1280": "https://cdn.pixabay.com/photo/2022/11/16/00/41/skeleton-7594974_1280.jpg"
    },
    {
        "id": "5253672",
        "src640": "https://cdn.pixabay.com/photo/2020/06/03/06/33/rose-5253672_640.jpg",
        "src1280": "https://cdn.pixabay.com/photo/2020/06/03/06/33/rose-5253672_1280.jpg"
    },
    {
        "id": "7157136",
        "src640": "https://cdn.pixabay.com/photo/2022/04/26/00/11/music-7157136_640.jpg",
        "src1280": "https://cdn.pixabay.com/photo/2022/04/26/00/11/music-7157136_1280.jpg"
    },
    {
        "id": "5225379",
        "src640": "https://cdn.pixabay.com/photo/2020/05/27/01/57/flower-5225379_640.jpg",
        "src1280": "https://cdn.pixabay.com/photo/2020/05/27/01/57/flower-5225379_1280.jpg"
    },
    {
        "id": "1561787",
        "src640": "https://cdn.pixabay.com/photo/2016/08/01/19/05/anemone-1561787_640.jpg",
        "src1280": "https://cdn.pixabay.com/photo/2016/08/01/19/05/anemone-1561787_1280.jpg"
    },
    {
        "id": "368647",
        "src640": "https://cdn.pixabay.com/photo/2014/06/14/06/36/abstract-368647_640.jpg",
        "src1280": "https://cdn.pixabay.com/photo/2014/06/14/06/36/abstract-368647_1280.jpg"
    },
    {
        "id": "7024947",
        "src640": "https://cdn.pixabay.com/photo/2022/02/20/17/13/flower-7024947_640.jpg",
        "src1280": "https://cdn.pixabay.com/photo/2022/02/20/17/13/flower-7024947_1280.jpg"
    },
    {
        "id": "3340008",
        "src640": "https://cdn.pixabay.com/photo/2018/04/22/01/51/rain-drops-3340008_640.jpg",
        "src1280": "https://cdn.pixabay.com/photo/2018/04/22/01/51/rain-drops-3340008_1280.jpg"
    },
    {
        "id": "978691",
        "src640": "https://cdn.pixabay.com/photo/2015/10/09/01/57/abstract-978691_640.jpg",
        "src1280": "https://cdn.pixabay.com/photo/2015/10/09/01/57/abstract-978691_1280.jpg"
    },
    {
        "id": "2819673",
        "src640": "https://cdn.pixabay.com/photo/2017/10/05/15/00/bride-2819673_640.jpg",
        "src1280": "https://cdn.pixabay.com/photo/2017/10/05/15/00/bride-2819673_1280.jpg"
    },
    {
        "id": "623849",
        "src640": "https://cdn.pixabay.com/photo/2015/02/04/14/36/imp-623849_640.jpg",
        "src1280": "https://cdn.pixabay.com/photo/2015/02/04/14/36/imp-623849_1280.jpg"
    },
    {
        "id": "3483647",
        "src640": "https://cdn.pixabay.com/photo/2018/06/19/00/49/champagne-3483647_640.jpg",
        "src1280": "https://cdn.pixabay.com/photo/2018/06/19/00/49/champagne-3483647_1280.jpg"
    },
    {
        "id": "6477402",
        "src640": "https://cdn.pixabay.com/photo/2021/07/19/07/22/woman-6477402_640.jpg",
        "src1280": "https://cdn.pixabay.com/photo/2021/07/19/07/22/woman-6477402_1280.jpg"
    },
    {
        "id": "3988917",
        "src640": "https://cdn.pixabay.com/photo/2019/02/11/07/51/foxglove-3988917_640.jpg",
        "src1280": "https://cdn.pixabay.com/photo/2019/02/11/07/51/foxglove-3988917_1280.jpg"
    },
    {
        "id": "4795255",
        "src640": "https://cdn.pixabay.com/photo/2020/01/26/17/06/daffodils-4795255_640.jpg",
        "src1280": "https://cdn.pixabay.com/photo/2020/01/26/17/06/daffodils-4795255_1280.jpg"
    },
    {
        "id": "6652963",
        "src640": "https://cdn.pixabay.com/photo/2021/09/24/16/07/honey-bee-6652963_640.jpg",
        "src1280": "https://cdn.pixabay.com/photo/2021/09/24/16/07/honey-bee-6652963_1280.jpg"
    },
    {
        "id": "8028607",
        "src640": "https://cdn.pixabay.com/photo/2023/05/30/13/42/lotus-8028607_640.jpg",
        "src1280": "https://cdn.pixabay.com/photo/2023/05/30/13/42/lotus-8028607_1280.jpg"
    },
    {
        "id": "5138278",
        "src640": "https://cdn.pixabay.com/photo/2020/05/06/16/46/denim-5138278_640.jpg",
        "src1280": "https://cdn.pixabay.com/photo/2020/05/06/16/46/denim-5138278_1280.jpg"
    },
    {
        "id": "4885731",
        "src640": "https://cdn.pixabay.com/photo/2020/02/27/20/18/forget-me-not-4885731_640.jpg",
        "src1280": "https://cdn.pixabay.com/photo/2020/02/27/20/18/forget-me-not-4885731_1280.jpg"
    },
    {
        "id": "4265847",
        "src640": "https://cdn.pixabay.com/photo/2019/06/11/00/47/nigella-damascena-4265847_640.jpg",
        "src1280": "https://cdn.pixabay.com/photo/2019/06/11/00/47/nigella-damascena-4265847_1280.jpg"
    },
    {
        "id": "4750215",
        "src640": "https://cdn.pixabay.com/photo/2020/01/08/14/20/flower-4750215_640.jpg",
        "src1280": "https://cdn.pixabay.com/photo/2020/01/08/14/20/flower-4750215_1280.jpg"
    },
    {
        "id": "8275964",
        "src640": "https://cdn.pixabay.com/photo/2023/09/25/20/11/sunflower-8275964_640.jpg",
        "src1280": "https://cdn.pixabay.com/photo/2023/09/25/20/11/sunflower-8275964_1280.jpg"
    },
    {
        "id": "7989740",
        "src640": "https://cdn.pixabay.com/photo/2023/05/13/05/52/flower-7989740_640.jpg",
        "src1280": "https://cdn.pixabay.com/photo/2023/05/13/05/52/flower-7989740_1280.jpg"
    },
    {
        "id": "3745544",
        "src640": "https://cdn.pixabay.com/photo/2018/10/14/01/13/plumeria-3745544_640.jpg",
        "src1280": "https://cdn.pixabay.com/photo/2018/10/14/01/13/plumeria-3745544_1280.jpg"
    },
    {
        "id": "676424",
        "src640": "https://cdn.pixabay.com/photo/2015/03/16/18/55/winter-676424_640.jpg",
        "src1280": "https://cdn.pixabay.com/photo/2015/03/16/18/55/winter-676424_1280.jpg"
    },
    {
        "id": "7968224",
        "src640": "https://cdn.pixabay.com/photo/2023/05/03/17/10/tulips-7968224_640.jpg",
        "src1280": "https://cdn.pixabay.com/photo/2023/05/03/17/10/tulips-7968224_1280.jpg"
    },
    {
        "id": "5263458",
        "src640": "https://cdn.pixabay.com/photo/2020/06/05/15/02/iris-5263458_640.jpg",
        "src1280": "https://cdn.pixabay.com/photo/2020/06/05/15/02/iris-5263458_1280.jpg"
    },
    {
        "id": "7906312",
        "src640": "https://cdn.pixabay.com/photo/2023/04/07/12/05/flower-7906312_640.jpg",
        "src1280": "https://cdn.pixabay.com/photo/2023/04/07/12/05/flower-7906312_1280.jpg"
    },
    {
        "id": "2368515",
        "src640": "https://cdn.pixabay.com/photo/2017/06/03/11/59/orchid-2368515_640.jpg",
        "src1280": "https://cdn.pixabay.com/photo/2017/06/03/11/59/orchid-2368515_1280.jpg"
    },
    {
        "id": "4268302",
        "src640": "https://cdn.pixabay.com/photo/2019/06/12/04/42/flower-4268302_640.jpg",
        "src1280": "https://cdn.pixabay.com/photo/2019/06/12/04/42/flower-4268302_1280.jpg"
    },
    {
        "id": "4233033",
        "src640": "https://cdn.pixabay.com/photo/2019/05/27/16/29/flowers-4233033_640.jpg",
        "src1280": "https://cdn.pixabay.com/photo/2019/05/27/16/29/flowers-4233033_1280.jpg"
    },
    {
        "id": "4510962",
        "src640": "https://cdn.pixabay.com/photo/2019/09/28/14/51/lotus-4510962_640.jpg",
        "src1280": "https://cdn.pixabay.com/photo/2019/09/28/14/51/lotus-4510962_1280.jpg"
    },
    {
        "id": "4487002",
        "src640": "https://cdn.pixabay.com/photo/2019/09/18/15/40/tulip-4487002_640.jpg",
        "src1280": "https://cdn.pixabay.com/photo/2019/09/18/15/40/tulip-4487002_1280.jpg"
    },
    {
        "id": "2564984",
        "src640": "https://cdn.pixabay.com/photo/2017/08/01/12/30/dining-2564984_640.jpg",
        "src1280": "https://cdn.pixabay.com/photo/2017/08/01/12/30/dining-2564984_1280.jpg"
    },
    {
        "id": "2538516",
        "src640": "https://cdn.pixabay.com/photo/2017/07/25/15/17/coffee-2538516_640.jpg",
        "src1280": "https://cdn.pixabay.com/photo/2017/07/25/15/17/coffee-2538516_1280.jpg"
    },
    {
        "id": "8210395",
        "src640": "https://cdn.pixabay.com/photo/2023/08/24/10/39/ai-generated-8210395_640.jpg",
        "src1280": "https://cdn.pixabay.com/photo/2023/08/24/10/39/ai-generated-8210395_1280.jpg"
    },
    {
        "id": "4356710",
        "src640": "https://cdn.pixabay.com/photo/2019/07/23/06/59/poppy-4356710_640.jpg",
        "src1280": "https://cdn.pixabay.com/photo/2019/07/23/06/59/poppy-4356710_1280.jpg"
    },
    {
        "id": "7282051",
        "src640": "https://cdn.pixabay.com/photo/2022/06/24/17/06/woman-7282051_640.jpg",
        "src1280": "https://cdn.pixabay.com/photo/2022/06/24/17/06/woman-7282051_1280.jpg"
    },
    {
        "id": "7126188",
        "src640": "https://cdn.pixabay.com/photo/2022/04/11/16/48/tulip-7126188_640.jpg",
        "src1280": "https://cdn.pixabay.com/photo/2022/04/11/16/48/tulip-7126188_1280.jpg"
    },
    {
        "id": "5143378",
        "src640": "https://cdn.pixabay.com/photo/2020/05/07/21/46/peony-5143378_640.jpg",
        "src1280": "https://cdn.pixabay.com/photo/2020/05/07/21/46/peony-5143378_1280.jpg"
    },
    {
        "id": "66312",
        "src640": "https://cdn.pixabay.com/photo/2012/11/16/08/14/meadow-66312_640.jpg",
        "src1280": "https://cdn.pixabay.com/photo/2012/11/16/08/14/meadow-66312_1280.jpg"
    },
    {
        "id": "5342906",
        "src640": "https://cdn.pixabay.com/photo/2020/06/26/14/42/girl-5342906_640.jpg",
        "src1280": "https://cdn.pixabay.com/photo/2020/06/26/14/42/girl-5342906_1280.jpg"
    },
    {
        "id": "4221220",
        "src640": "https://cdn.pixabay.com/photo/2019/05/22/10/57/blossom-4221220_640.jpg",
        "src1280": "https://cdn.pixabay.com/photo/2019/05/22/10/57/blossom-4221220_1280.jpg"
    },
    {
        "id": "5476041",
        "src640": "https://cdn.pixabay.com/photo/2020/08/09/16/44/rose-5476041_640.jpg",
        "src1280": "https://cdn.pixabay.com/photo/2020/08/09/16/44/rose-5476041_1280.jpg"
    },
    {
        "id": "3042127",
        "src640": "https://cdn.pixabay.com/photo/2017/12/27/07/52/butterfly-3042127_640.jpg",
        "src1280": "https://cdn.pixabay.com/photo/2017/12/27/07/52/butterfly-3042127_1280.jpg"
    },
    {
        "id": "8132230",
        "src640": "https://cdn.pixabay.com/photo/2023/07/17/09/16/bee-8132230_640.jpg",
        "src1280": "https://cdn.pixabay.com/photo/2023/07/17/09/16/bee-8132230_1280.jpg"
    },
    {
        "id": "4203469",
        "src640": "https://cdn.pixabay.com/photo/2019/05/14/20/39/tulip-4203469_640.jpg",
        "src1280": "https://cdn.pixabay.com/photo/2019/05/14/20/39/tulip-4203469_1280.jpg"
    },
    {
        "id": "7676649",
        "src640": "https://cdn.pixabay.com/photo/2022/12/25/01/08/christmas-card-7676649_640.jpg",
        "src1280": "https://cdn.pixabay.com/photo/2022/12/25/01/08/christmas-card-7676649_1280.jpg"
    },
    {
        "id": "7869193",
        "src640": "https://cdn.pixabay.com/photo/2023/03/22/11/07/purple-7869193_640.jpg",
        "src1280": "https://cdn.pixabay.com/photo/2023/03/22/11/07/purple-7869193_1280.jpg"
    },
    {
        "id": "3611821",
        "src640": "https://cdn.pixabay.com/photo/2018/08/16/23/54/flower-3611821_640.jpg",
        "src1280": "https://cdn.pixabay.com/photo/2018/08/16/23/54/flower-3611821_1280.jpg"
    },
    {
        "id": "6543352",
        "src640": "https://cdn.pixabay.com/photo/2021/08/13/15/31/bee-6543352_640.jpg",
        "src1280": "https://cdn.pixabay.com/photo/2021/08/13/15/31/bee-6543352_1280.jpg"
    },
    {
        "id": "8275963",
        "src640": "https://cdn.pixabay.com/photo/2023/09/25/20/11/sunflower-8275963_640.jpg",
        "src1280": "https://cdn.pixabay.com/photo/2023/09/25/20/11/sunflower-8275963_1280.jpg"
    },
    {
        "id": "3066334",
        "src640": "https://cdn.pixabay.com/photo/2018/01/07/01/12/rose-3066334_640.jpg",
        "src1280": "https://cdn.pixabay.com/photo/2018/01/07/01/12/rose-3066334_1280.jpg"
    },
    {
        "id": "4189423",
        "src640": "https://cdn.pixabay.com/photo/2019/05/08/19/31/asia-4189423_640.jpg",
        "src1280": "https://cdn.pixabay.com/photo/2019/05/08/19/31/asia-4189423_1280.jpg"
    },
    {
        "id": "1314678",
        "src640": "https://cdn.pixabay.com/photo/2016/04/07/20/50/holidays-1314678_640.jpg",
        "src1280": "https://cdn.pixabay.com/photo/2016/04/07/20/50/holidays-1314678_1280.jpg"
    },
    {
        "id": "8172324",
        "src640": "https://cdn.pixabay.com/photo/2023/08/06/07/19/branch-8172324_640.jpg",
        "src1280": "https://cdn.pixabay.com/photo/2023/08/06/07/19/branch-8172324_1280.jpg"
    },
    {
        "id": "1532950",
        "src640": "https://cdn.pixabay.com/photo/2016/07/21/16/34/barn-1532950_640.jpg",
        "src1280": "https://cdn.pixabay.com/photo/2016/07/21/16/34/barn-1532950_1280.jpg"
    },
    {
        "id": "6173365",
        "src640": "https://cdn.pixabay.com/photo/2021/04/12/17/22/flowers-6173365_640.jpg",
        "src1280": "https://cdn.pixabay.com/photo/2021/04/12/17/22/flowers-6173365_1280.jpg"
    }
]