[
    {
        "id": "7570501",
        "src640": "https://cdn.pixabay.com/photo/2022/11/04/18/46/autumn-7570501_640.jpg",
        "src1280": "https://cdn.pixabay.com/photo/2022/11/04/18/46/autumn-7570501_1280.jpg"
    },
    {
        "id": "7678543",
        "src640": "https://cdn.pixabay.com/photo/2022/12/26/09/00/building-7678543_640.jpg",
        "src1280": "https://cdn.pixabay.com/photo/2022/12/26/09/00/building-7678543_1280.jpg"
    },
    {
        "id": "3370447",
        "src640": "https://cdn.pixabay.com/photo/2018/05/03/05/29/flower-3370447_640.jpg",
        "src1280": "https://cdn.pixabay.com/photo/2018/05/03/05/29/flower-3370447_1280.jpg"
    },
    {
        "id": "7095433",
        "src640": "https://cdn.pixabay.com/photo/2022/03/27/15/26/magnolia-7095433_640.jpg",
        "src1280": "https://cdn.pixabay.com/photo/2022/03/27/15/26/magnolia-7095433_1280.jpg"
    },
    {
        "id": "8390988",
        "src640": "https://cdn.pixabay.com/photo/2023/11/15/20/29/flowers-8390988_640.jpg",
        "src1280": "https://cdn.pixabay.com/photo/2023/11/15/20/29/flowers-8390988_1280.jpg"
    },
    {
        "id": "7126176",
        "src640": "https://cdn.pixabay.com/photo/2022/04/11/16/46/tulip-7126176_640.jpg",
        "src1280": "https://cdn.pixabay.com/photo/2022/04/11/16/46/tulip-7126176_1280.jpg"
    },
    {
        "id": "748524",
        "src640": "https://cdn.pixabay.com/photo/2015/05/01/13/55/orchid-748524_640.jpg",
        "src1280": "https://cdn.pixabay.com/photo/2015/05/01/13/55/orchid-748524_1280.jpg"
    },
    {
        "id": "6480689",
        "src640": "https://cdn.pixabay.com/photo/2021/07/20/13/07/portrait-6480689_640.jpg",
        "src1280": "https://cdn.pixabay.com/photo/2021/07/20/13/07/portrait-6480689_1280.jpg"
    },
    {
        "id": "4391005",
        "src640": "https://cdn.pixabay.com/photo/2019/08/07/15/20/fuchsia-4391005_640.jpg",
        "src1280": "https://cdn.pixabay.com/photo/2019/08/07/15/20/fuchsia-4391005_1280.jpg"
    },
    {
        "id": "3187388",
        "src640": "https://cdn.pixabay.com/photo/2018/02/28/07/00/lupine-3187388_640.jpg",
        "src1280": "https://cdn.pixabay.com/photo/2018/02/28/07/00/lupine-3187388_1280.jpg"
    },
    {
        "id": "7115709",
        "src640": "https://cdn.pixabay.com/photo/2022/04/06/15/06/flower-7115709_640.jpg",
        "src1280": "https://cdn.pixabay.com/photo/2022/04/06/15/06/flower-7115709_1280.jpg"
    },
    {
        "id": "2148343",
        "src640": "https://cdn.pixabay.com/photo/2017/03/16/07/16/background-2148343_640.jpg",
        "src1280": "https://cdn.pixabay.com/photo/2017/03/16/07/16/background-2148343_1280.jpg"
    },
    {
        "id": "1504698",
        "src640": "https://cdn.pixabay.com/photo/2016/07/08/16/04/common-foxglove-1504698_640.jpg",
        "src1280": "https://cdn.pixabay.com/photo/2016/07/08/16/04/common-foxglove-1504698_1280.jpg"
    },
    {
        "id": "2462531",
        "src640": "https://cdn.pixabay.com/photo/2017/07/01/20/10/rose-2462531_640.jpg",
        "src1280": "https://cdn.pixabay.com/photo/2017/07/01/20/10/rose-2462531_1280.jpg"
    },
    {
        "id": "7521947",
        "src640": "https://cdn.pixabay.com/photo/2022/10/14/18/40/plants-7521947_640.jpg",
        "src1280": "https://cdn.pixabay.com/photo/2022/10/14/18/40/plants-7521947_1280.jpg"
    },
    {
        "id": "5925340",
        "src640": "https://cdn.pixabay.com/photo/2021/01/17/14/35/woman-5925340_640.jpg",
        "src1280": "https://cdn.pixabay.com/photo/2021/01/17/14/35/woman-5925340_1280.jpg"
    },
    {
        "id": "1001410",
        "src640": "https://cdn.pixabay.com/photo/2015/10/22/15/23/wallpaper-1001410_640.jpg",
        "src1280": "https://cdn.pixabay.com/photo/2015/10/22/15/23/wallpaper-1001410_1280.jpg"
    },
    {
        "id": "3189201",
        "src640": "https://cdn.pixabay.com/photo/2018/02/28/22/00/flower-3189201_640.jpg",
        "src1280": "https://cdn.pixabay.com/photo/2018/02/28/22/00/flower-3189201_1280.jpg"
    },
    {
        "id": "2373515",
        "src640": "https://cdn.pixabay.com/photo/2017/06/05/09/37/pen-2373515_640.jpg",
        "src1280": "https://cdn.pixabay.com/photo/2017/06/05/09/37/pen-2373515_1280.jpg"
    },
    {
        "id": "3733464",
        "src640": "https://cdn.pixabay.com/photo/2018/10/08/20/54/stonecrop-3733464_640.jpg",
        "src1280": "https://cdn.pixabay.com/photo/2018/10/08/20/54/stonecrop-3733464_1280.jpg"
    },
    {
        "id": "1430665",
        "src640": "https://cdn.pixabay.com/photo/2016/06/02/10/08/vase-1430665_640.jpg",
        "src1280": "https://cdn.pixabay.com/photo/2016/06/02/10/08/vase-1430665_1280.jpg"
    },
    {
        "id": "6535041",
        "src640": "https://cdn.pixabay.com/photo/2021/08/10/05/27/sunset-6535041_640.jpg",
        "src1280": "https://cdn.pixabay.com/photo/2021/08/10/05/27/sunset-6535041_1280.jpg"
    },
    {
        "id": "4968370",
        "src640": "https://cdn.pixabay.com/photo/2020/03/25/19/22/spring-4968370_640.jpg",
        "src1280": "https://cdn.pixabay.com/photo/2020/03/25/19/22/spring-4968370_1280.jpg"
    },
    {
        "id": "1694506",
        "src640": "https://cdn.pixabay.com/photo/2016/09/25/20/11/t-1694506_640.jpg",
        "src1280": "https://cdn.pixabay.com/photo/2016/09/25/20/11/t-1694506_1280.jpg"
    },
    {
        "id": "7572080",
        "src640": "https://cdn.pixabay.com/photo/2022/11/05/15/34/camellia-7572080_640.jpg",
        "src1280": "https://cdn.pixabay.com/photo/2022/11/05/15/34/camellia-7572080_1280.jpg"
    },
    {
        "id": "7349993",
        "src640": "https://cdn.pixabay.com/photo/2022/07/28/14/43/sky-7349993_640.jpg",
        "src1280": "https://cdn.pixabay.com/photo/2022/07/28/14/43/sky-7349993_1280.jpg"
    },
    {
        "id": "2850891",
        "src640": "https://cdn.pixabay.com/photo/2017/10/14/16/13/asters-2850891_640.jpg",
        "src1280": "https://cdn.pixabay.com/photo/2017/10/14/16/13/asters-2850891_1280.jpg"
    },
    {
        "id": "7747483",
        "src640": "https://cdn.pixabay.com/photo/2023/01/26/23/46/flower-7747483_640.jpg",
        "src1280": "https://cdn.pixabay.com/photo/2023/01/26/23/46/flower-7747483_1280.jpg"
    },
    {
        "id": "7372805",
        "src640": "https://cdn.pixabay.com/photo/2022/08/08/14/03/falling-stars-7372805_640.jpg",
        "src1280": "https://cdn.pixabay.com/photo/2022/08/08/14/03/falling-stars-7372805_1280.jpg"
    },
    {
        "id": "6921232",
        "src640": "https://cdn.pixabay.com/photo/2022/01/07/06/54/aster-6921232_640.jpg",
        "src1280": "https://cdn.pixabay.com/photo/2022/01/07/06/54/aster-6921232_1280.jpg"
    },
    {
        "id": "3455751",
        "src640": "https://cdn.pixabay.com/photo/2018/06/05/15/33/peonies-3455751_640.jpg",
        "src1280": "https://cdn.pixabay.com/photo/2018/06/05/15/33/peonies-3455751_1280.jpg"
    },
    {
        "id": "2140266",
        "src640": "https://cdn.pixabay.com/photo/2017/03/13/16/17/old-2140266_640.jpg",
        "src1280": "https://cdn.pixabay.com/photo/2017/03/13/16/17/old-2140266_1280.jpg"
    },
    {
        "id": "3292908",
        "src640": "https://cdn.pixabay.com/photo/2018/04/05/13/57/tulips-3292908_640.jpg",
        "src1280": "https://cdn.pixabay.com/photo/2018/04/05/13/57/tulips-3292908_1280.jpg"
    },
    {
        "id": "5021147",
        "src640": "https://cdn.pixabay.com/photo/2020/04/09/12/00/muscari-5021147_640.jpg",
        "src1280": "https://cdn.pixabay.com/photo/2020/04/09/12/00/muscari-5021147_1280.jpg"
    },
    {
        "id": "7434190",
        "src640": "https://cdn.pixabay.com/photo/2022/09/05/13/16/gladiolus-7434190_640.jpg",
        "src1280": "https://cdn.pixabay.com/photo/2022/09/05/13/16/gladiolus-7434190_1280.jpg"
    },
    {
        "id": "7848755",
        "src640": "https://cdn.pixabay.com/photo/2023/03/13/05/24/ai-generated-7848755_640.jpg",
        "src1280": "https://cdn.pixabay.com/photo/2023/03/13/05/24/ai-generated-7848755_1280.jpg"
    },
    {
        "id": "5045309",
        "src640": "https://cdn.pixabay.com/photo/2020/04/15/06/36/nature-5045309_640.jpg",
        "src1280": "https://cdn.pixabay.com/photo/2020/04/15/06/36/nature-5045309_1280.jpg"
    },
    {
        "id": "7115994",
        "src640": "https://cdn.pixabay.com/photo/2022/04/06/17/37/flower-7115994_640.jpg",
        "src1280": "https://cdn.pixabay.com/photo/2022/04/06/17/37/flower-7115994_1280.jpg"
    },
    {
        "id": "2605630",
        "src640": "https://cdn.pixabay.com/photo/2017/08/07/16/49/male-2605630_640.jpg",
        "src1280": "https://cdn.pixabay.com/photo/2017/08/07/16/49/male-2605630_1280.jpg"
    },
    {
        "id": "4139538",
        "src640": "https://cdn.pixabay.com/photo/2019/04/19/13/44/painted-peacock-4139538_640.jpg",
        "src1280": "https://cdn.pixabay.com/photo/2019/04/19/13/44/painted-peacock-4139538_1280.jpg"
    },
    {
        "id": "3309277",
        "src640": "https://cdn.pixabay.com/photo/2018/04/11/00/27/flowers-3309277_640.jpg",
        "src1280": "https://cdn.pixabay.com/photo/2018/04/11/00/27/flowers-3309277_1280.jpg"
    },
    {
        "id": "912083",
        "src640": "https://cdn.pixabay.com/photo/2015/08/28/15/55/pattern-912083_640.jpg",
        "src1280": "https://cdn.pixabay.com/photo/2015/08/28/15/55/pattern-912083_1280.jpg"
    },
    {
        "id": "4185455",
        "src640": "https://cdn.pixabay.com/photo/2019/05/07/09/58/marguerite-4185455_640.jpg",
        "src1280": "https://cdn.pixabay.com/photo/2019/05/07/09/58/marguerite-4185455_1280.jpg"
    },
    {
        "id": "2551463",
        "src640": "https://cdn.pixabay.com/photo/2017/07/29/13/17/waterlily-2551463_640.jpg",
        "src1280": "https://cdn.pixabay.com/photo/2017/07/29/13/17/waterlily-2551463_1280.jpg"
    },
    {
        "id": "8331125",
        "src640": "https://cdn.pixabay.com/photo/2023/10/21/09/50/branch-8331125_640.jpg",
        "src1280": "https://cdn.pixabay.com/photo/2023/10/21/09/50/branch-8331125_1280.jpg"
    },
    {
        "id": "805693",
        "src640": "https://cdn.pixabay.com/photo/2015/06/11/10/03/gloriosa-805693_640.jpg",
        "src1280": "https://cdn.pixabay.com/photo/2015/06/11/10/03/gloriosa-805693_1280.jpg"
    },
    {
        "id": "2670744",
        "src640": "https://cdn.pixabay.com/photo/2017/08/22/22/31/furniture-2670744_640.jpg",
        "src1280": "https://cdn.pixabay.com/photo/2017/08/22/22/31/furniture-2670744_1280.jpg"
    },
    {
        "id": "3730847",
        "src640": "https://cdn.pixabay.com/photo/2018/10/07/17/54/autumn-3730847_640.jpg",
        "src1280": "https://cdn.pixabay.com/photo/2018/10/07/17/54/autumn-3730847_1280.jpg"
    },
    {
        "id": "2822845",
        "src640": "https://cdn.pixabay.com/photo/2017/10/06/11/52/kermit-2822845_640.jpg",
        "src1280": "https://cdn.pixabay.com/photo/2017/10/06/11/52/kermit-2822845_1280.jpg"
    },
    {
        "id": "8373093",
        "src640": "https://cdn.pixabay.com/photo/2023/11/07/18/05/ai-generated-8373093_640.jpg",
        "src1280": "https://cdn.pixabay.com/photo/2023/11/07/18/05/ai-generated-8373093_1280.jpg"
    },
    {
        "id": "882960",
        "src640": "https://cdn.pixabay.com/photo/2015/08/10/18/27/christmas-882960_640.jpg",
        "src1280": "https://cdn.pixabay.com/photo/2015/08/10/18/27/christmas-882960_1280.jpg"
    },
    {
        "id": "3330429",
        "src640": "https://cdn.pixabay.com/photo/2018/04/18/13/20/port-3330429_640.jpg",
        "src1280": "https://cdn.pixabay.com/photo/2018/04/18/13/20/port-3330429_1280.jpg"
    },
    {
        "id": "1308047",
        "src640": "https://cdn.pixabay.com/photo/2016/04/04/19/52/flower-1308047_640.jpg",
        "src1280": "https://cdn.pixabay.com/photo/2016/04/04/19/52/flower-1308047_1280.jpg"
    },
    {
        "id": "628480",
        "src640": "https://cdn.pixabay.com/photo/2015/02/08/13/09/flower-628480_640.jpg",
        "src1280": "https://cdn.pixabay.com/photo/2015/02/08/13/09/flower-628480_1280.jpg"
    },
    {
        "id": "5291457",
        "src640": "https://cdn.pixabay.com/photo/2020/06/12/18/44/summer-5291457_640.jpg",
        "src1280": "https://cdn.pixabay.com/photo/2020/06/12/18/44/summer-5291457_1280.jpg"
    },
    {
        "id": "13992",
        "src640": "https://cdn.pixabay.com/photo/2012/02/17/14/50/flowers-13992_640.jpg",
        "src1280": "https://cdn.pixabay.com/photo/2012/02/17/14/50/flowers-13992_1280.jpg"
    },
    {
        "id": "4923438",
        "src640": "https://cdn.pixabay.com/photo/2020/03/11/22/27/bokeh-4923438_640.jpg",
        "src1280": "https://cdn.pixabay.com/photo/2020/03/11/22/27/bokeh-4923438_1280.jpg"
    },
    {
        "id": "6730935",
        "src640": "https://cdn.pixabay.com/photo/2021/10/22/02/50/leaves-6730935_640.jpg",
        "src1280": "https://cdn.pixabay.com/photo/2021/10/22/02/50/leaves-6730935_1280.jpg"
    },
    {
        "id": "7403640",
        "src640": "https://cdn.pixabay.com/photo/2022/08/22/13/08/flowers-7403640_640.jpg",
        "src1280": "https://cdn.pixabay.com/photo/2022/08/22/13/08/flowers-7403640_1280.jpg"
    },
    {
        "id": "943583",
        "src640": "https://cdn.pixabay.com/photo/2015/09/16/23/11/rose-943583_640.jpg",
        "src1280": "https://cdn.pixabay.com/photo/2015/09/16/23/11/rose-943583_1280.jpg"
    },
    {
        "id": "676383",
        "src640": "https://cdn.pixabay.com/photo/2015/03/16/18/34/awakening-676383_640.jpg",
        "src1280": "https://cdn.pixabay.com/photo/2015/03/16/18/34/awakening-676383_1280.jpg"
    },
    {
        "id": "7904425",
        "src640": "https://cdn.pixabay.com/photo/2023/04/06/15/57/ai-generated-7904425_640.jpg",
        "src1280": "https://cdn.pixabay.com/photo/2023/04/06/15/57/ai-generated-7904425_1280.jpg"
    },
    {
        "id": "6806530",
        "src640": "https://cdn.pixabay.com/photo/2021/11/18/14/31/flower-6806530_640.jpg",
        "src1280": "https://cdn.pixabay.com/photo/2021/11/18/14/31/flower-6806530_1280.jpg"
    },
    {
        "id": "3333954",
        "src640": "https://cdn.pixabay.com/photo/2018/04/19/18/51/tulip-3333954_640.jpg",
        "src1280": "https://cdn.pixabay.com/photo/2018/04/19/18/51/tulip-3333954_1280.jpg"
    },
    {
        "id": "6765529",
        "src640": "https://cdn.pixabay.com/photo/2021/11/03/11/36/flowers-6765529_640.jpg",
        "src1280": "https://cdn.pixabay.com/photo/2021/11/03/11/36/flowers-6765529_1280.jpg"
    },
    {
        "id": "4507115",
        "src640": "https://cdn.pixabay.com/photo/2019/09/26/21/37/flowers-4507115_640.jpg",
        "src1280": "https://cdn.pixabay.com/photo/2019/09/26/21/37/flowers-4507115_1280.jpg"
    },
    {
        "id": "177425",
        "src640": "https://cdn.pixabay.com/photo/2013/08/30/13/11/geranium-177425_640.jpg",
        "src1280": "https://cdn.pixabay.com/photo/2013/08/30/13/11/geranium-177425_1280.jpg"
    },
    {
        "id": "5286624",
        "src640": "https://cdn.pixabay.com/photo/2020/06/11/12/48/flower-5286624_640.jpg",
        "src1280": "https://cdn.pixabay.com/photo/2020/06/11/12/48/flower-5286624_1280.jpg"
    },
    {
        "id": "7861268",
        "src640": "https://cdn.pixabay.com/photo/2023/03/18/19/47/botany-7861268_640.jpg",
        "src1280": "https://cdn.pixabay.com/photo/2023/03/18/19/47/botany-7861268_1280.jpg"
    },
    {
        "id": "878361",
        "src640": "https://cdn.pixabay.com/photo/2015/08/06/18/43/stainless-878361_640.jpg",
        "src1280": "https://cdn.pixabay.com/photo/2015/08/06/18/43/stainless-878361_1280.jpg"
    },
    {
        "id": "1236577",
        "src640": "https://cdn.pixabay.com/photo/2016/03/04/19/36/california-poppy-1236577_640.jpg",
        "src1280": "https://cdn.pixabay.com/photo/2016/03/04/19/36/california-poppy-1236577_1280.jpg"
    },
    {
        "id": "6544993",
        "src640": "https://cdn.pixabay.com/photo/2021/08/14/10/11/butterfly-6544993_640.jpg",
        "src1280": "https://cdn.pixabay.com/photo/2021/08/14/10/11/butterfly-6544993_1280.jpg"
    },
    {
        "id": "5225954",
        "src640": "https://cdn.pixabay.com/photo/2020/05/27/06/59/fig-tree-5225954_640.jpg",
        "src1280": "https://cdn.pixabay.com/photo/2020/05/27/06/59/fig-tree-5225954_1280.jpg"
    },
    {
        "id": "2549321",
        "src640": "https://cdn.pixabay.com/photo/2017/07/28/17/46/gladiolus-2549321_640.jpg",
        "src1280": "https://cdn.pixabay.com/photo/2017/07/28/17/46/gladiolus-2549321_1280.jpg"
    },
    {
        "id": "4287897",
        "src640": "https://cdn.pixabay.com/photo/2019/06/20/19/27/margarita-4287897_640.jpg",
        "src1280": "https://cdn.pixabay.com/photo/2019/06/20/19/27/margarita-4287897_1280.jpg"
    },
    {
        "id": "8261617",
        "src640": "https://cdn.pixabay.com/photo/2023/09/19/00/06/buildings-8261617_640.jpg",
        "src1280": "https://cdn.pixabay.com/photo/2023/09/19/00/06/buildings-8261617_1280.jpg"
    },
    {
        "id": "78759",
        "src640": "https://cdn.pixabay.com/photo/2013/02/06/19/38/bellflower-78759_640.jpg",
        "src1280": "https://cdn.pixabay.com/photo/2013/02/06/19/38/bellflower-78759_1280.jpg"
    }
]