[
    {
        "id": "6132438",
        "src640": "https://cdn.pixabay.com/photo/2021/03/28/21/10/fashion-6132438_640.jpg",
        "src1280": "https://cdn.pixabay.com/photo/2021/03/28/21/10/fashion-6132438_1280.jpg"
    },
    {
        "id": "8254393",
        "src640": "https://cdn.pixabay.com/photo/2023/09/15/09/01/woman-8254393_640.jpg",
        "src1280": "https://cdn.pixabay.com/photo/2023/09/15/09/01/woman-8254393_1280.jpg"
    },
    {
        "id": "5608972",
        "src640": "https://cdn.pixabay.com/photo/2020/09/28/08/11/woman-5608972_640.jpg",
        "src1280": "https://cdn.pixabay.com/photo/2020/09/28/08/11/woman-5608972_1280.jpg"
    },
    {
        "id": "6656562",
        "src640": "https://cdn.pixabay.com/photo/2021/09/26/07/28/pin-up-6656562_640.jpg",
        "src1280": "https://cdn.pixabay.com/photo/2021/09/26/07/28/pin-up-6656562_1280.jpg"
    },
    {
        "id": "5907712",
        "src640": "https://cdn.pixabay.com/photo/2021/01/11/09/42/woman-5907712_640.jpg",
        "src1280": "https://cdn.pixabay.com/photo/2021/01/11/09/42/woman-5907712_1280.jpg"
    },
    {
        "id": "7661610",
        "src640": "https://cdn.pixabay.com/photo/2022/12/17/12/03/fashion-7661610_640.jpg",
        "src1280": "https://cdn.pixabay.com/photo/2022/12/17/12/03/fashion-7661610_1280.jpg"
    },
    {
        "id": "6736880",
        "src640": "https://cdn.pixabay.com/photo/2021/10/24/03/47/woman-6736880_640.jpg",
        "src1280": "https://cdn.pixabay.com/photo/2021/10/24/03/47/woman-6736880_1280.jpg"
    },
    {
        "id": "6633216",
        "src640": "https://cdn.pixabay.com/photo/2021/09/17/16/03/woman-6633216_640.jpg",
        "src1280": "https://cdn.pixabay.com/photo/2021/09/17/16/03/woman-6633216_1280.jpg"
    },
    {
        "id": "8061267",
        "src640": "https://cdn.pixabay.com/photo/2023/06/13/16/14/ai-generated-8061267_640.jpg",
        "src1280": "https://cdn.pixabay.com/photo/2023/06/13/16/14/ai-generated-8061267_1280.jpg"
    },
    {
        "id": "7569197",
        "src640": "https://cdn.pixabay.com/photo/2022/11/04/07/18/girl-7569197_640.jpg",
        "src1280": "https://cdn.pixabay.com/photo/2022/11/04/07/18/girl-7569197_1280.jpg"
    },
    {
        "id": "6930516",
        "src640": "https://cdn.pixabay.com/photo/2022/01/11/12/28/ao-dai-6930516_640.jpg",
        "src1280": "https://cdn.pixabay.com/photo/2022/01/11/12/28/ao-dai-6930516_1280.jpg"
    },
    {
        "id": "6578467",
        "src640": "https://cdn.pixabay.com/photo/2021/08/27/11/21/woman-6578467_640.jpg",
        "src1280": "https://cdn.pixabay.com/photo/2021/08/27/11/21/woman-6578467_1280.jpg"
    },
    {
        "id": "6610502",
        "src640": "https://cdn.pixabay.com/photo/2021/09/09/12/43/girl-6610502_640.jpg",
        "src1280": "https://cdn.pixabay.com/photo/2021/09/09/12/43/girl-6610502_1280.jpg"
    },
    {
        "id": "6713148",
        "src640": "https://cdn.pixabay.com/photo/2021/10/15/17/41/woman-6713148_640.jpg",
        "src1280": "https://cdn.pixabay.com/photo/2021/10/15/17/41/woman-6713148_1280.jpg"
    },
    {
        "id": "4840582",
        "src640": "https://cdn.pixabay.com/photo/2020/02/11/18/27/asia-4840582_640.jpg",
        "src1280": "https://cdn.pixabay.com/photo/2020/02/11/18/27/asia-4840582_1280.jpg"
    },
    {
        "id": "2452656",
        "src640": "https://cdn.pixabay.com/photo/2017/06/29/00/10/movie-poster-2452656_640.jpg",
        "src1280": "https://cdn.pixabay.com/photo/2017/06/29/00/10/movie-poster-2452656_1280.jpg"
    },
    {
        "id": "5008711",
        "src640": "https://cdn.pixabay.com/photo/2020/04/06/08/21/mendi-5008711_640.jpg",
        "src1280": "https://cdn.pixabay.com/photo/2020/04/06/08/21/mendi-5008711_1280.jpg"
    },
    {
        "id": "7197452",
        "src640": "https://cdn.pixabay.com/photo/2022/05/15/12/34/woman-7197452_640.jpg",
        "src1280": "https://cdn.pixabay.com/photo/2022/05/15/12/34/woman-7197452_1280.jpg"
    },
    {
        "id": "5849875",
        "src640": "https://cdn.pixabay.com/photo/2020/12/21/12/59/woman-5849875_640.jpg",
        "src1280": "https://cdn.pixabay.com/photo/2020/12/21/12/59/woman-5849875_1280.jpg"
    },
    {
        "id": "8255968",
        "src640": "https://cdn.pixabay.com/photo/2023/09/16/04/55/woman-8255968_640.jpg",
        "src1280": "https://cdn.pixabay.com/photo/2023/09/16/04/55/woman-8255968_1280.jpg"
    },
    {
        "id": "4634827",
        "src640": "https://cdn.pixabay.com/photo/2019/11/18/13/23/girl-4634827_640.jpg",
        "src1280": "https://cdn.pixabay.com/photo/2019/11/18/13/23/girl-4634827_1280.jpg"
    },
    {
        "id": "6287224",
        "src640": "https://cdn.pixabay.com/photo/2021/05/27/06/34/woman-6287224_640.jpg",
        "src1280": "https://cdn.pixabay.com/photo/2021/05/27/06/34/woman-6287224_1280.jpg"
    },
    {
        "id": "7074321",
        "src640": "https://cdn.pixabay.com/photo/2022/03/17/10/53/indian-woman-7074321_640.jpg",
        "src1280": "https://cdn.pixabay.com/photo/2022/03/17/10/53/indian-woman-7074321_1280.jpg"
    },
    {
        "id": "6020681",
        "src640": "https://cdn.pixabay.com/photo/2021/02/16/10/55/man-6020681_640.jpg",
        "src1280": "https://cdn.pixabay.com/photo/2021/02/16/10/55/man-6020681_1280.jpg"
    },
    {
        "id": "5235848",
        "src640": "https://cdn.pixabay.com/photo/2020/05/29/17/04/portrait-5235848_640.jpg",
        "src1280": "https://cdn.pixabay.com/photo/2020/05/29/17/04/portrait-5235848_1280.jpg"
    },
    {
        "id": "8017368",
        "src640": "https://cdn.pixabay.com/photo/2023/05/25/13/19/woman-8017368_640.jpg",
        "src1280": "https://cdn.pixabay.com/photo/2023/05/25/13/19/woman-8017368_1280.jpg"
    },
    {
        "id": "601683",
        "src640": "https://cdn.pixabay.com/photo/2015/01/16/17/24/spain-601683_640.jpg",
        "src1280": "https://cdn.pixabay.com/photo/2015/01/16/17/24/spain-601683_1280.jpg"
    },
    {
        "id": "6405258",
        "src640": "https://cdn.pixabay.com/photo/2021/07/12/03/38/woman-6405258_640.jpg",
        "src1280": "https://cdn.pixabay.com/photo/2021/07/12/03/38/woman-6405258_1280.jpg"
    },
    {
        "id": "8398907",
        "src640": "https://cdn.pixabay.com/photo/2023/11/19/15/09/woman-8398907_640.jpg",
        "src1280": "https://cdn.pixabay.com/photo/2023/11/19/15/09/woman-8398907_1280.jpg"
    },
    {
        "id": "7922045",
        "src640": "https://cdn.pixabay.com/photo/2023/04/13/08/48/woman-7922045_640.jpg",
        "src1280": "https://cdn.pixabay.com/photo/2023/04/13/08/48/woman-7922045_1280.jpg"
    },
    {
        "id": "4946396",
        "src640": "https://cdn.pixabay.com/photo/2020/03/19/05/50/cat-4946396_640.jpg",
        "src1280": "https://cdn.pixabay.com/photo/2020/03/19/05/50/cat-4946396_1280.jpg"
    },
    {
        "id": "6464697",
        "src640": "https://cdn.pixabay.com/photo/2021/07/14/00/04/woman-6464697_640.jpg",
        "src1280": "https://cdn.pixabay.com/photo/2021/07/14/00/04/woman-6464697_1280.jpg"
    },
    {
        "id": "7905579",
        "src640": "https://cdn.pixabay.com/photo/2023/04/07/05/58/woman-7905579_640.jpg",
        "src1280": "https://cdn.pixabay.com/photo/2023/04/07/05/58/woman-7905579_1280.jpg"
    },
    {
        "id": "5111435",
        "src640": "https://cdn.pixabay.com/photo/2020/04/30/05/30/girl-5111435_640.jpg",
        "src1280": "https://cdn.pixabay.com/photo/2020/04/30/05/30/girl-5111435_1280.jpg"
    },
    {
        "id": "6672335",
        "src640": "https://cdn.pixabay.com/photo/2021/10/01/12/19/woman-6672335_640.jpg",
        "src1280": "https://cdn.pixabay.com/photo/2021/10/01/12/19/woman-6672335_1280.jpg"
    },
    {
        "id": "6378390",
        "src640": "https://cdn.pixabay.com/photo/2021/07/01/06/26/girl-6378390_640.jpg",
        "src1280": "https://cdn.pixabay.com/photo/2021/07/01/06/26/girl-6378390_1280.jpg"
    },
    {
        "id": "5019842",
        "src640": "https://cdn.pixabay.com/photo/2020/04/09/06/00/girl-5019842_640.jpg",
        "src1280": "https://cdn.pixabay.com/photo/2020/04/09/06/00/girl-5019842_1280.jpg"
    },
    {
        "id": "5529842",
        "src640": "https://cdn.pixabay.com/photo/2020/08/30/15/13/woman-5529842_640.jpg",
        "src1280": "https://cdn.pixabay.com/photo/2020/08/30/15/13/woman-5529842_1280.jpg"
    },
    {
        "id": "8236316",
        "src640": "https://cdn.pixabay.com/photo/2023/09/06/04/33/ai-generated-8236316_640.jpg",
        "src1280": "https://cdn.pixabay.com/photo/2023/09/06/04/33/ai-generated-8236316_1280.jpg"
    },
    {
        "id": "7836835",
        "src640": "https://cdn.pixabay.com/photo/2023/03/08/04/47/woman-7836835_640.jpg",
        "src1280": "https://cdn.pixabay.com/photo/2023/03/08/04/47/woman-7836835_1280.jpg"
    },
    {
        "id": "6891999",
        "src640": "https://cdn.pixabay.com/photo/2021/12/24/23/11/woman-6891999_640.jpg",
        "src1280": "https://cdn.pixabay.com/photo/2021/12/24/23/11/woman-6891999_1280.jpg"
    },
    {
        "id": "4687824",
        "src640": "https://cdn.pixabay.com/photo/2019/12/11/08/43/nike-4687824_640.jpg",
        "src1280": "https://cdn.pixabay.com/photo/2019/12/11/08/43/nike-4687824_1280.jpg"
    },
    {
        "id": "6573310",
        "src640": "https://cdn.pixabay.com/photo/2021/08/25/12/38/woman-6573310_640.jpg",
        "src1280": "https://cdn.pixabay.com/photo/2021/08/25/12/38/woman-6573310_1280.jpg"
    },
    {
        "id": "6800084",
        "src640": "https://cdn.pixabay.com/photo/2021/11/16/04/11/woman-6800084_640.jpg",
        "src1280": "https://cdn.pixabay.com/photo/2021/11/16/04/11/woman-6800084_1280.jpg"
    },
    {
        "id": "4406720",
        "src640": "https://cdn.pixabay.com/photo/2019/08/14/21/00/kurta-4406720_640.jpg",
        "src1280": "https://cdn.pixabay.com/photo/2019/08/14/21/00/kurta-4406720_1280.jpg"
    },
    {
        "id": "175742",
        "src640": "https://cdn.pixabay.com/photo/2013/08/25/15/26/boy-175742_640.jpg",
        "src1280": "https://cdn.pixabay.com/photo/2013/08/25/15/26/boy-175742_1280.jpg"
    },
    {
        "id": "8211924",
        "src640": "https://cdn.pixabay.com/photo/2023/08/25/02/05/vietnamese-8211924_640.jpg",
        "src1280": "https://cdn.pixabay.com/photo/2023/08/25/02/05/vietnamese-8211924_1280.jpg"
    },
    {
        "id": "6585785",
        "src640": "https://cdn.pixabay.com/photo/2021/08/30/13/13/woman-6585785_640.jpg",
        "src1280": "https://cdn.pixabay.com/photo/2021/08/30/13/13/woman-6585785_1280.jpg"
    },
    {
        "id": "6992695",
        "src640": "https://cdn.pixabay.com/photo/2022/02/04/12/52/woman-6992695_640.jpg",
        "src1280": "https://cdn.pixabay.com/photo/2022/02/04/12/52/woman-6992695_1280.jpg"
    },
    {
        "id": "5956118",
        "src640": "https://cdn.pixabay.com/photo/2021/01/27/20/24/woman-5956118_640.jpg",
        "src1280": "https://cdn.pixabay.com/photo/2021/01/27/20/24/woman-5956118_1280.jpg"
    },
    {
        "id": "6690071",
        "src640": "https://cdn.pixabay.com/photo/2021/10/08/02/29/woman-6690071_640.jpg",
        "src1280": "https://cdn.pixabay.com/photo/2021/10/08/02/29/woman-6690071_1280.jpg"
    },
    {
        "id": "2523733",
        "src640": "https://cdn.pixabay.com/photo/2017/07/20/20/55/fashion-2523733_640.jpg",
        "src1280": "https://cdn.pixabay.com/photo/2017/07/20/20/55/fashion-2523733_1280.jpg"
    },
    {
        "id": "3402339",
        "src640": "https://cdn.pixabay.com/photo/2018/05/15/07/26/fashion-3402339_640.jpg",
        "src1280": "https://cdn.pixabay.com/photo/2018/05/15/07/26/fashion-3402339_1280.jpg"
    },
    {
        "id": "6805467",
        "src640": "https://cdn.pixabay.com/photo/2021/11/18/05/18/woman-6805467_640.jpg",
        "src1280": "https://cdn.pixabay.com/photo/2021/11/18/05/18/woman-6805467_1280.jpg"
    },
    {
        "id": "6614924",
        "src640": "https://cdn.pixabay.com/photo/2021/09/11/08/09/woman-6614924_640.jpg",
        "src1280": "https://cdn.pixabay.com/photo/2021/09/11/08/09/woman-6614924_1280.jpg"
    },
    {
        "id": "4080407",
        "src640": "https://cdn.pixabay.com/photo/2019/03/25/14/45/fashion-4080407_640.jpg",
        "src1280": "https://cdn.pixabay.com/photo/2019/03/25/14/45/fashion-4080407_1280.jpg"
    },
    {
        "id": "6130182",
        "src640": "https://cdn.pixabay.com/photo/2021/03/28/03/56/viet-phuc-6130182_640.jpg",
        "src1280": "https://cdn.pixabay.com/photo/2021/03/28/03/56/viet-phuc-6130182_1280.jpg"
    },
    {
        "id": "6253523",
        "src640": "https://cdn.pixabay.com/photo/2021/05/14/14/27/man-6253523_640.jpg",
        "src1280": "https://cdn.pixabay.com/photo/2021/05/14/14/27/man-6253523_1280.jpg"
    },
    {
        "id": "7970154",
        "src640": "https://cdn.pixabay.com/photo/2023/05/04/13/48/woman-7970154_640.jpg",
        "src1280": "https://cdn.pixabay.com/photo/2023/05/04/13/48/woman-7970154_1280.jpg"
    },
    {
        "id": "6653920",
        "src640": "https://cdn.pixabay.com/photo/2021/09/25/03/28/woman-6653920_640.jpg",
        "src1280": "https://cdn.pixabay.com/photo/2021/09/25/03/28/woman-6653920_1280.jpg"
    },
    {
        "id": "6836520",
        "src640": "https://cdn.pixabay.com/photo/2021/12/01/01/10/woman-6836520_640.jpg",
        "src1280": "https://cdn.pixabay.com/photo/2021/12/01/01/10/woman-6836520_1280.jpg"
    },
    {
        "id": "5679418",
        "src640": "https://cdn.pixabay.com/photo/2020/10/23/17/47/girl-5679418_640.jpg",
        "src1280": "https://cdn.pixabay.com/photo/2020/10/23/17/47/girl-5679418_1280.jpg"
    },
    {
        "id": "5185567",
        "src640": "https://cdn.pixabay.com/photo/2020/05/18/10/24/pants-5185567_640.jpg",
        "src1280": "https://cdn.pixabay.com/photo/2020/05/18/10/24/pants-5185567_1280.jpg"
    },
    {
        "id": "5754294",
        "src640": "https://cdn.pixabay.com/photo/2020/11/18/04/33/girl-5754294_640.jpg",
        "src1280": "https://cdn.pixabay.com/photo/2020/11/18/04/33/girl-5754294_1280.jpg"
    },
    {
        "id": "8137089",
        "src640": "https://cdn.pixabay.com/photo/2023/07/19/14/21/woman-8137089_640.jpg",
        "src1280": "https://cdn.pixabay.com/photo/2023/07/19/14/21/woman-8137089_1280.jpg"
    },
    {
        "id": "4974005",
        "src640": "https://cdn.pixabay.com/photo/2020/03/27/15/46/shoes-4974005_640.jpg",
        "src1280": "https://cdn.pixabay.com/photo/2020/03/27/15/46/shoes-4974005_1280.jpg"
    },
    {
        "id": "7043021",
        "src640": "https://cdn.pixabay.com/photo/2022/03/02/12/15/woman-7043021_640.jpg",
        "src1280": "https://cdn.pixabay.com/photo/2022/03/02/12/15/woman-7043021_1280.jpg"
    },
    {
        "id": "6537407",
        "src640": "https://cdn.pixabay.com/photo/2021/08/11/04/19/woman-6537407_640.jpg",
        "src1280": "https://cdn.pixabay.com/photo/2021/08/11/04/19/woman-6537407_1280.jpg"
    },
    {
        "id": "6566930",
        "src640": "https://cdn.pixabay.com/photo/2021/08/23/07/22/woman-6566930_640.jpg",
        "src1280": "https://cdn.pixabay.com/photo/2021/08/23/07/22/woman-6566930_1280.jpg"
    },
    {
        "id": "5476117",
        "src640": "https://cdn.pixabay.com/photo/2020/08/09/17/26/girl-5476117_640.jpg",
        "src1280": "https://cdn.pixabay.com/photo/2020/08/09/17/26/girl-5476117_1280.jpg"
    },
    {
        "id": "8166033",
        "src640": "https://cdn.pixabay.com/photo/2023/08/02/23/37/elegant-8166033_640.jpg",
        "src1280": "https://cdn.pixabay.com/photo/2023/08/02/23/37/elegant-8166033_1280.jpg"
    },
    {
        "id": "6367767",
        "src640": "https://cdn.pixabay.com/photo/2021/06/27/05/49/woman-6367767_640.jpg",
        "src1280": "https://cdn.pixabay.com/photo/2021/06/27/05/49/woman-6367767_1280.jpg"
    },
    {
        "id": "6992698",
        "src640": "https://cdn.pixabay.com/photo/2022/02/04/12/52/woman-6992698_640.jpg",
        "src1280": "https://cdn.pixabay.com/photo/2022/02/04/12/52/woman-6992698_1280.jpg"
    },
    {
        "id": "6548104",
        "src640": "https://cdn.pixabay.com/photo/2021/08/15/15/14/woman-6548104_640.jpg",
        "src1280": "https://cdn.pixabay.com/photo/2021/08/15/15/14/woman-6548104_1280.jpg"
    },
    {
        "id": "7929204",
        "src640": "https://cdn.pixabay.com/photo/2023/04/16/06/44/asian-woman-7929204_640.jpg",
        "src1280": "https://cdn.pixabay.com/photo/2023/04/16/06/44/asian-woman-7929204_1280.jpg"
    },
    {
        "id": "5697006",
        "src640": "https://cdn.pixabay.com/photo/2020/10/29/19/06/girl-5697006_640.jpg",
        "src1280": "https://cdn.pixabay.com/photo/2020/10/29/19/06/girl-5697006_1280.jpg"
    }
]