[
    {
        "id": "7213973",
        "src640": "https://cdn.pixabay.com/photo/2022/05/22/16/51/girl-7213973_640.jpg",
        "src1280": "https://cdn.pixabay.com/photo/2022/05/22/16/51/girl-7213973_1280.jpg"
    },
    {
        "id": "3677563",
        "src640": "https://cdn.pixabay.com/photo/2018/09/14/16/50/kurta-3677563_640.jpg",
        "src1280": "https://cdn.pixabay.com/photo/2018/09/14/16/50/kurta-3677563_1280.jpg"
    },
    {
        "id": "7922046",
        "src640": "https://cdn.pixabay.com/photo/2023/04/13/08/48/woman-7922046_640.jpg",
        "src1280": "https://cdn.pixabay.com/photo/2023/04/13/08/48/woman-7922046_1280.jpg"
    },
    {
        "id": "6770554",
        "src640": "https://cdn.pixabay.com/photo/2021/11/05/07/51/woman-6770554_640.jpg",
        "src1280": "https://cdn.pixabay.com/photo/2021/11/05/07/51/woman-6770554_1280.jpg"
    },
    {
        "id": "6352261",
        "src640": "https://cdn.pixabay.com/photo/2021/06/20/22/55/coat-6352261_640.jpg",
        "src1280": "https://cdn.pixabay.com/photo/2021/06/20/22/55/coat-6352261_1280.jpg"
    },
    {
        "id": "7357504",
        "src640": "https://cdn.pixabay.com/photo/2022/08/01/07/25/woman-7357504_640.jpg",
        "src1280": "https://cdn.pixabay.com/photo/2022/08/01/07/25/woman-7357504_1280.jpg"
    },
    {
        "id": "6352249",
        "src640": "https://cdn.pixabay.com/photo/2021/06/20/22/51/woman-6352249_640.jpg",
        "src1280": "https://cdn.pixabay.com/photo/2021/06/20/22/51/woman-6352249_1280.jpg"
    },
    {
        "id": "8281962",
        "src640": "https://cdn.pixabay.com/photo/2023/09/28/16/16/bunny-8281962_640.jpg",
        "src1280": "https://cdn.pixabay.com/photo/2023/09/28/16/16/bunny-8281962_1280.jpg"
    },
    {
        "id": "4942980",
        "src640": "https://cdn.pixabay.com/photo/2020/03/18/07/02/watercolour-4942980_640.jpg",
        "src1280": "https://cdn.pixabay.com/photo/2020/03/18/07/02/watercolour-4942980_1280.jpg"
    },
    {
        "id": "5095385",
        "src640": "https://cdn.pixabay.com/photo/2020/04/26/14/09/girl-5095385_640.jpg",
        "src1280": "https://cdn.pixabay.com/photo/2020/04/26/14/09/girl-5095385_1280.jpg"
    },
    {
        "id": "6540888",
        "src640": "https://cdn.pixabay.com/photo/2021/08/12/13/39/woman-6540888_640.jpg",
        "src1280": "https://cdn.pixabay.com/photo/2021/08/12/13/39/woman-6540888_1280.jpg"
    },
    {
        "id": "6138607",
        "src640": "https://cdn.pixabay.com/photo/2021/03/31/05/47/ao-dai-6138607_640.jpg",
        "src1280": "https://cdn.pixabay.com/photo/2021/03/31/05/47/ao-dai-6138607_1280.jpg"
    },
    {
        "id": "6216031",
        "src640": "https://cdn.pixabay.com/photo/2021/04/29/08/09/woman-6216031_640.jpg",
        "src1280": "https://cdn.pixabay.com/photo/2021/04/29/08/09/woman-6216031_1280.jpg"
    },
    {
        "id": "4974006",
        "src640": "https://cdn.pixabay.com/photo/2020/03/27/15/46/shoes-4974006_640.jpg",
        "src1280": "https://cdn.pixabay.com/photo/2020/03/27/15/46/shoes-4974006_1280.jpg"
    },
    {
        "id": "7339766",
        "src640": "https://cdn.pixabay.com/photo/2022/07/23/11/07/girl-7339766_640.jpg",
        "src1280": "https://cdn.pixabay.com/photo/2022/07/23/11/07/girl-7339766_1280.jpg"
    },
    {
        "id": "6369667",
        "src640": "https://cdn.pixabay.com/photo/2021/06/27/18/19/beauty-6369667_640.jpg",
        "src1280": "https://cdn.pixabay.com/photo/2021/06/27/18/19/beauty-6369667_1280.jpg"
    },
    {
        "id": "6804276",
        "src640": "https://cdn.pixabay.com/photo/2021/11/17/17/52/tablet-6804276_640.jpg",
        "src1280": "https://cdn.pixabay.com/photo/2021/11/17/17/52/tablet-6804276_1280.jpg"
    },
    {
        "id": "7974551",
        "src640": "https://cdn.pixabay.com/photo/2023/05/06/15/22/stylish-woman-7974551_640.jpg",
        "src1280": "https://cdn.pixabay.com/photo/2023/05/06/15/22/stylish-woman-7974551_1280.jpg"
    },
    {
        "id": "5909108",
        "src640": "https://cdn.pixabay.com/photo/2021/01/11/17/42/woman-5909108_640.jpg",
        "src1280": "https://cdn.pixabay.com/photo/2021/01/11/17/42/woman-5909108_1280.jpg"
    },
    {
        "id": "6572716",
        "src640": "https://cdn.pixabay.com/photo/2021/08/25/07/53/woman-6572716_640.jpg",
        "src1280": "https://cdn.pixabay.com/photo/2021/08/25/07/53/woman-6572716_1280.jpg"
    },
    {
        "id": "6805475",
        "src640": "https://cdn.pixabay.com/photo/2021/11/18/05/19/woman-6805475_640.jpg",
        "src1280": "https://cdn.pixabay.com/photo/2021/11/18/05/19/woman-6805475_1280.jpg"
    },
    {
        "id": "7030789",
        "src640": "https://cdn.pixabay.com/photo/2022/02/23/14/52/woman-7030789_640.jpg",
        "src1280": "https://cdn.pixabay.com/photo/2022/02/23/14/52/woman-7030789_1280.jpg"
    },
    {
        "id": "7143330",
        "src640": "https://cdn.pixabay.com/photo/2022/04/19/16/31/woman-7143330_640.jpg",
        "src1280": "https://cdn.pixabay.com/photo/2022/04/19/16/31/woman-7143330_1280.jpg"
    },
    {
        "id": "5947485",
        "src640": "https://cdn.pixabay.com/photo/2021/01/25/07/15/woman-5947485_640.jpg",
        "src1280": "https://cdn.pixabay.com/photo/2021/01/25/07/15/woman-5947485_1280.jpg"
    },
    {
        "id": "7111821",
        "src640": "https://cdn.pixabay.com/photo/2022/04/04/16/49/indian-dancer-7111821_640.jpg",
        "src1280": "https://cdn.pixabay.com/photo/2022/04/04/16/49/indian-dancer-7111821_1280.jpg"
    },
    {
        "id": "4668350",
        "src640": "https://cdn.pixabay.com/photo/2019/12/02/18/06/model-4668350_640.jpg",
        "src1280": "https://cdn.pixabay.com/photo/2019/12/02/18/06/model-4668350_1280.jpg"
    },
    {
        "id": "6653919",
        "src640": "https://cdn.pixabay.com/photo/2021/09/25/03/28/woman-6653919_640.jpg",
        "src1280": "https://cdn.pixabay.com/photo/2021/09/25/03/28/woman-6653919_1280.jpg"
    },
    {
        "id": "6746148",
        "src640": "https://cdn.pixabay.com/photo/2021/10/27/06/45/woman-6746148_640.jpg",
        "src1280": "https://cdn.pixabay.com/photo/2021/10/27/06/45/woman-6746148_1280.jpg"
    },
    {
        "id": "5558737",
        "src640": "https://cdn.pixabay.com/photo/2020/09/09/21/25/model-5558737_640.jpg",
        "src1280": "https://cdn.pixabay.com/photo/2020/09/09/21/25/model-5558737_1280.jpg"
    },
    {
        "id": "6191628",
        "src640": "https://cdn.pixabay.com/photo/2021/04/19/15/04/woman-6191628_640.jpg",
        "src1280": "https://cdn.pixabay.com/photo/2021/04/19/15/04/woman-6191628_1280.jpg"
    },
    {
        "id": "8390962",
        "src640": "https://cdn.pixabay.com/photo/2023/11/15/20/05/ai-generated-8390962_640.jpg",
        "src1280": "https://cdn.pixabay.com/photo/2023/11/15/20/05/ai-generated-8390962_1280.jpg"
    },
    {
        "id": "3781898",
        "src640": "https://cdn.pixabay.com/photo/2018/10/29/20/08/fashion-3781898_640.jpg",
        "src1280": "https://cdn.pixabay.com/photo/2018/10/29/20/08/fashion-3781898_1280.jpg"
    },
    {
        "id": "6914931",
        "src640": "https://cdn.pixabay.com/photo/2022/01/04/12/11/woman-6914931_640.jpg",
        "src1280": "https://cdn.pixabay.com/photo/2022/01/04/12/11/woman-6914931_1280.jpg"
    },
    {
        "id": "6067785",
        "src640": "https://cdn.pixabay.com/photo/2021/03/04/12/04/woman-6067785_640.jpg",
        "src1280": "https://cdn.pixabay.com/photo/2021/03/04/12/04/woman-6067785_1280.jpg"
    },
    {
        "id": "5765428",
        "src640": "https://cdn.pixabay.com/photo/2020/11/22/01/11/girl-5765428_640.jpg",
        "src1280": "https://cdn.pixabay.com/photo/2020/11/22/01/11/girl-5765428_1280.jpg"
    },
    {
        "id": "8243357",
        "src640": "https://cdn.pixabay.com/photo/2023/09/09/15/38/woman-8243357_640.jpg",
        "src1280": "https://cdn.pixabay.com/photo/2023/09/09/15/38/woman-8243357_1280.jpg"
    },
    {
        "id": "2775751",
        "src640": "https://cdn.pixabay.com/photo/2017/09/22/14/27/downloads-0-2775751_640.jpg",
        "src1280": "https://cdn.pixabay.com/photo/2017/09/22/14/27/downloads-0-2775751_1280.jpg"
    },
    {
        "id": "4424960",
        "src640": "https://cdn.pixabay.com/photo/2019/08/23/05/47/vintage-4424960_640.jpg",
        "src1280": "https://cdn.pixabay.com/photo/2019/08/23/05/47/vintage-4424960_1280.jpg"
    },
    {
        "id": "1077238",
        "src640": "https://cdn.pixabay.com/photo/2015/12/04/20/27/doll-1077238_640.jpg",
        "src1280": "https://cdn.pixabay.com/photo/2015/12/04/20/27/doll-1077238_1280.jpg"
    },
    {
        "id": "6215918",
        "src640": "https://cdn.pixabay.com/photo/2021/04/29/07/55/woman-6215918_640.jpg",
        "src1280": "https://cdn.pixabay.com/photo/2021/04/29/07/55/woman-6215918_1280.jpg"
    },
    {
        "id": "2322883",
        "src640": "https://cdn.pixabay.com/photo/2017/05/18/08/12/womens-2322883_640.jpg",
        "src1280": "https://cdn.pixabay.com/photo/2017/05/18/08/12/womens-2322883_1280.jpg"
    },
    {
        "id": "7072130",
        "src640": "https://cdn.pixabay.com/photo/2022/03/16/10/09/woman-7072130_640.jpg",
        "src1280": "https://cdn.pixabay.com/photo/2022/03/16/10/09/woman-7072130_1280.jpg"
    },
    {
        "id": "7445835",
        "src640": "https://cdn.pixabay.com/photo/2022/09/10/23/01/woman-7445835_640.jpg",
        "src1280": "https://cdn.pixabay.com/photo/2022/09/10/23/01/woman-7445835_1280.jpg"
    },
    {
        "id": "8211921",
        "src640": "https://cdn.pixabay.com/photo/2023/08/25/02/05/vietnamese-8211921_640.jpg",
        "src1280": "https://cdn.pixabay.com/photo/2023/08/25/02/05/vietnamese-8211921_1280.jpg"
    },
    {
        "id": "8070078",
        "src640": "https://cdn.pixabay.com/photo/2023/06/17/14/24/woman-8070078_640.jpg",
        "src1280": "https://cdn.pixabay.com/photo/2023/06/17/14/24/woman-8070078_1280.jpg"
    },
    {
        "id": "6482211",
        "src640": "https://cdn.pixabay.com/photo/2021/07/21/04/34/woman-6482211_640.jpg",
        "src1280": "https://cdn.pixabay.com/photo/2021/07/21/04/34/woman-6482211_1280.jpg"
    },
    {
        "id": "5564797",
        "src640": "https://cdn.pixabay.com/photo/2020/09/12/04/54/model-5564797_640.jpg",
        "src1280": "https://cdn.pixabay.com/photo/2020/09/12/04/54/model-5564797_1280.jpg"
    },
    {
        "id": "3583201",
        "src640": "https://cdn.pixabay.com/photo/2018/08/04/05/20/woman-3583201_640.jpg",
        "src1280": "https://cdn.pixabay.com/photo/2018/08/04/05/20/woman-3583201_1280.jpg"
    },
    {
        "id": "6345953",
        "src640": "https://cdn.pixabay.com/photo/2021/06/18/11/38/man-6345953_640.jpg",
        "src1280": "https://cdn.pixabay.com/photo/2021/06/18/11/38/man-6345953_1280.jpg"
    },
    {
        "id": "7340469",
        "src640": "https://cdn.pixabay.com/photo/2022/07/23/19/08/girl-7340469_640.jpg",
        "src1280": "https://cdn.pixabay.com/photo/2022/07/23/19/08/girl-7340469_1280.jpg"
    },
    {
        "id": "5582963",
        "src640": "https://cdn.pixabay.com/photo/2020/09/18/21/07/wedding-dress-5582963_640.jpg",
        "src1280": "https://cdn.pixabay.com/photo/2020/09/18/21/07/wedding-dress-5582963_1280.jpg"
    },
    {
        "id": "7029034",
        "src640": "https://cdn.pixabay.com/photo/2022/02/22/15/15/girl-7029034_640.jpg",
        "src1280": "https://cdn.pixabay.com/photo/2022/02/22/15/15/girl-7029034_1280.jpg"
    },
    {
        "id": "3298586",
        "src640": "https://cdn.pixabay.com/photo/2018/04/07/14/01/woman-3298586_640.jpg",
        "src1280": "https://cdn.pixabay.com/photo/2018/04/07/14/01/woman-3298586_1280.jpg"
    },
    {
        "id": "6687195",
        "src640": "https://cdn.pixabay.com/photo/2021/10/07/03/09/boy-6687195_640.jpg",
        "src1280": "https://cdn.pixabay.com/photo/2021/10/07/03/09/boy-6687195_1280.jpg"
    },
    {
        "id": "5209390",
        "src640": "https://cdn.pixabay.com/photo/2020/05/23/12/34/girl-5209390_640.jpg",
        "src1280": "https://cdn.pixabay.com/photo/2020/05/23/12/34/girl-5209390_1280.jpg"
    },
    {
        "id": "6383068",
        "src640": "https://cdn.pixabay.com/photo/2021/07/03/05/09/woman-6383068_640.jpg",
        "src1280": "https://cdn.pixabay.com/photo/2021/07/03/05/09/woman-6383068_1280.jpg"
    },
    {
        "id": "7333528",
        "src640": "https://cdn.pixabay.com/photo/2022/07/20/07/00/girl-7333528_640.jpg",
        "src1280": "https://cdn.pixabay.com/photo/2022/07/20/07/00/girl-7333528_1280.jpg"
    },
    {
        "id": "6983571",
        "src640": "https://cdn.pixabay.com/photo/2022/01/31/14/10/woman-6983571_640.jpg",
        "src1280": "https://cdn.pixabay.com/photo/2022/01/31/14/10/woman-6983571_1280.jpg"
    },
    {
        "id": "6462328",
        "src640": "https://cdn.pixabay.com/photo/2021/07/13/02/48/man-6462328_640.jpg",
        "src1280": "https://cdn.pixabay.com/photo/2021/07/13/02/48/man-6462328_1280.jpg"
    },
    {
        "id": "6617237",
        "src640": "https://cdn.pixabay.com/photo/2021/09/12/04/50/woman-6617237_640.jpg",
        "src1280": "https://cdn.pixabay.com/photo/2021/09/12/04/50/woman-6617237_1280.jpg"
    },
    {
        "id": "2863839",
        "src640": "https://cdn.pixabay.com/photo/2017/10/18/11/45/hat-2863839_640.jpg",
        "src1280": "https://cdn.pixabay.com/photo/2017/10/18/11/45/hat-2863839_1280.jpg"
    },
    {
        "id": "7234925",
        "src640": "https://cdn.pixabay.com/photo/2022/06/01/06/51/black-woman-7234925_640.jpg",
        "src1280": "https://cdn.pixabay.com/photo/2022/06/01/06/51/black-woman-7234925_1280.jpg"
    },
    {
        "id": "7166177",
        "src640": "https://cdn.pixabay.com/photo/2022/04/30/18/55/woman-7166177_640.jpg",
        "src1280": "https://cdn.pixabay.com/photo/2022/04/30/18/55/woman-7166177_1280.jpg"
    },
    {
        "id": "8406519",
        "src640": "https://cdn.pixabay.com/photo/2023/11/22/21/28/ai-generated-8406519_640.jpg",
        "src1280": "https://cdn.pixabay.com/photo/2023/11/22/21/28/ai-generated-8406519_1280.jpg"
    },
    {
        "id": "7030000",
        "src640": "https://cdn.pixabay.com/photo/2022/02/23/04/15/woman-7030000_640.jpg",
        "src1280": "https://cdn.pixabay.com/photo/2022/02/23/04/15/woman-7030000_1280.jpg"
    },
    {
        "id": "3741749",
        "src640": "https://cdn.pixabay.com/photo/2018/10/12/09/13/model-3741749_640.jpg",
        "src1280": "https://cdn.pixabay.com/photo/2018/10/12/09/13/model-3741749_1280.jpg"
    },
    {
        "id": "5852124",
        "src640": "https://cdn.pixabay.com/photo/2020/12/22/12/26/girl-5852124_640.jpg",
        "src1280": "https://cdn.pixabay.com/photo/2020/12/22/12/26/girl-5852124_1280.jpg"
    },
    {
        "id": "3406549",
        "src640": "https://cdn.pixabay.com/photo/2018/05/16/17/42/fashion-3406549_640.jpg",
        "src1280": "https://cdn.pixabay.com/photo/2018/05/16/17/42/fashion-3406549_1280.jpg"
    },
    {
        "id": "6844789",
        "src640": "https://cdn.pixabay.com/photo/2021/12/04/09/11/footwear-6844789_640.jpg",
        "src1280": "https://cdn.pixabay.com/photo/2021/12/04/09/11/footwear-6844789_1280.jpg"
    },
    {
        "id": "6352565",
        "src640": "https://cdn.pixabay.com/photo/2021/06/21/03/23/female-6352565_640.jpg",
        "src1280": "https://cdn.pixabay.com/photo/2021/06/21/03/23/female-6352565_1280.jpg"
    },
    {
        "id": "8339235",
        "src640": "https://cdn.pixabay.com/photo/2023/10/24/22/02/cute-8339235_640.jpg",
        "src1280": "https://cdn.pixabay.com/photo/2023/10/24/22/02/cute-8339235_1280.jpg"
    },
    {
        "id": "7361426",
        "src640": "https://cdn.pixabay.com/photo/2022/08/02/22/40/woman-7361426_640.jpg",
        "src1280": "https://cdn.pixabay.com/photo/2022/08/02/22/40/woman-7361426_1280.jpg"
    },
    {
        "id": "7323772",
        "src640": "https://cdn.pixabay.com/photo/2022/07/15/18/41/fashion-7323772_640.jpg",
        "src1280": "https://cdn.pixabay.com/photo/2022/07/15/18/41/fashion-7323772_1280.jpg"
    },
    {
        "id": "7109541",
        "src640": "https://cdn.pixabay.com/photo/2022/04/03/17/32/woman-7109541_640.jpg",
        "src1280": "https://cdn.pixabay.com/photo/2022/04/03/17/32/woman-7109541_1280.jpg"
    },
    {
        "id": "4203129",
        "src640": "https://cdn.pixabay.com/photo/2019/05/14/18/26/woman-4203129_640.jpg",
        "src1280": "https://cdn.pixabay.com/photo/2019/05/14/18/26/woman-4203129_1280.jpg"
    },
    {
        "id": "6252360",
        "src640": "https://cdn.pixabay.com/photo/2021/05/14/04/50/woman-6252360_640.jpg",
        "src1280": "https://cdn.pixabay.com/photo/2021/05/14/04/50/woman-6252360_1280.jpg"
    },
    {
        "id": "5845589",
        "src640": "https://cdn.pixabay.com/photo/2020/12/19/22/53/girl-5845589_640.jpg",
        "src1280": "https://cdn.pixabay.com/photo/2020/12/19/22/53/girl-5845589_1280.jpg"
    },
    {
        "id": "7041465",
        "src640": "https://cdn.pixabay.com/photo/2022/03/01/15/05/dress-7041465_640.jpg",
        "src1280": "https://cdn.pixabay.com/photo/2022/03/01/15/05/dress-7041465_1280.jpg"
    },
    {
        "id": "6167398",
        "src640": "https://cdn.pixabay.com/photo/2021/04/10/15/51/woman-6167398_640.jpg",
        "src1280": "https://cdn.pixabay.com/photo/2021/04/10/15/51/woman-6167398_1280.jpg"
    },
    {
        "id": "6549418",
        "src640": "https://cdn.pixabay.com/photo/2021/08/16/05/56/woman-6549418_640.jpg",
        "src1280": "https://cdn.pixabay.com/photo/2021/08/16/05/56/woman-6549418_1280.jpg"
    },
    {
        "id": "6617234",
        "src640": "https://cdn.pixabay.com/photo/2021/09/12/04/49/woman-6617234_640.jpg",
        "src1280": "https://cdn.pixabay.com/photo/2021/09/12/04/49/woman-6617234_1280.jpg"
    },
    {
        "id": "7097830",
        "src640": "https://cdn.pixabay.com/photo/2022/03/28/15/41/dress-7097830_640.jpg",
        "src1280": "https://cdn.pixabay.com/photo/2022/03/28/15/41/dress-7097830_1280.jpg"
    },
    {
        "id": "7734127",
        "src640": "https://cdn.pixabay.com/photo/2023/01/21/15/03/portrait-7734127_640.jpg",
        "src1280": "https://cdn.pixabay.com/photo/2023/01/21/15/03/portrait-7734127_1280.jpg"
    },
    {
        "id": "6572718",
        "src640": "https://cdn.pixabay.com/photo/2021/08/25/07/53/woman-6572718_640.jpg",
        "src1280": "https://cdn.pixabay.com/photo/2021/08/25/07/53/woman-6572718_1280.jpg"
    },
    {
        "id": "7275030",
        "src640": "https://cdn.pixabay.com/photo/2022/06/21/03/56/woman-7275030_640.jpg",
        "src1280": "https://cdn.pixabay.com/photo/2022/06/21/03/56/woman-7275030_1280.jpg"
    }
]