[
    {
        "id": "7043023",
        "src640": "https://cdn.pixabay.com/photo/2022/03/02/12/15/woman-7043023_640.jpg",
        "src1280": "https://cdn.pixabay.com/photo/2022/03/02/12/15/woman-7043023_1280.jpg"
    },
    {
        "id": "2592332",
        "src640": "https://cdn.pixabay.com/photo/2017/08/06/13/04/people-2592332_640.jpg",
        "src1280": "https://cdn.pixabay.com/photo/2017/08/06/13/04/people-2592332_1280.jpg"
    },
    {
        "id": "7528043",
        "src640": "https://cdn.pixabay.com/photo/2022/10/17/15/36/woman-7528043_640.jpg",
        "src1280": "https://cdn.pixabay.com/photo/2022/10/17/15/36/woman-7528043_1280.jpg"
    },
    {
        "id": "7730551",
        "src640": "https://cdn.pixabay.com/photo/2023/01/20/02/04/woman-7730551_640.jpg",
        "src1280": "https://cdn.pixabay.com/photo/2023/01/20/02/04/woman-7730551_1280.jpg"
    },
    {
        "id": "7336160",
        "src640": "https://cdn.pixabay.com/photo/2022/07/21/12/37/woman-7336160_640.jpg",
        "src1280": "https://cdn.pixabay.com/photo/2022/07/21/12/37/woman-7336160_1280.jpg"
    },
    {
        "id": "6971939",
        "src640": "https://cdn.pixabay.com/photo/2022/01/27/12/07/fashion-6971939_640.jpg",
        "src1280": "https://cdn.pixabay.com/photo/2022/01/27/12/07/fashion-6971939_1280.jpg"
    },
    {
        "id": "2333284",
        "src640": "https://cdn.pixabay.com/photo/2017/05/22/07/11/orak-2333284_640.jpg",
        "src1280": "https://cdn.pixabay.com/photo/2017/05/22/07/11/orak-2333284_1280.jpg"
    },
    {
        "id": "7029031",
        "src640": "https://cdn.pixabay.com/photo/2022/02/22/15/15/girl-7029031_640.jpg",
        "src1280": "https://cdn.pixabay.com/photo/2022/02/22/15/15/girl-7029031_1280.jpg"
    },
    {
        "id": "3957397",
        "src640": "https://cdn.pixabay.com/photo/2019/01/27/03/23/girl-3957397_640.jpg",
        "src1280": "https://cdn.pixabay.com/photo/2019/01/27/03/23/girl-3957397_1280.jpg"
    },
    {
        "id": "4785324",
        "src640": "https://cdn.pixabay.com/photo/2020/01/22/13/34/model-4785324_640.jpg",
        "src1280": "https://cdn.pixabay.com/photo/2020/01/22/13/34/model-4785324_1280.jpg"
    },
    {
        "id": "7054044",
        "src640": "https://cdn.pixabay.com/photo/2022/03/07/16/14/woman-7054044_640.jpg",
        "src1280": "https://cdn.pixabay.com/photo/2022/03/07/16/14/woman-7054044_1280.jpg"
    },
    {
        "id": "3148064",
        "src640": "https://cdn.pixabay.com/photo/2018/02/12/11/26/folk-3148064_640.jpg",
        "src1280": "https://cdn.pixabay.com/photo/2018/02/12/11/26/folk-3148064_1280.jpg"
    },
    {
        "id": "8030689",
        "src640": "https://cdn.pixabay.com/photo/2023/05/31/07/13/singer-8030689_640.jpg",
        "src1280": "https://cdn.pixabay.com/photo/2023/05/31/07/13/singer-8030689_1280.jpg"
    },
    {
        "id": "2915220",
        "src640": "https://cdn.pixabay.com/photo/2017/11/03/18/40/model-2915220_640.jpg",
        "src1280": "https://cdn.pixabay.com/photo/2017/11/03/18/40/model-2915220_1280.jpg"
    },
    {
        "id": "5012962",
        "src640": "https://cdn.pixabay.com/photo/2020/04/07/10/55/girl-5012962_640.jpg",
        "src1280": "https://cdn.pixabay.com/photo/2020/04/07/10/55/girl-5012962_1280.jpg"
    },
    {
        "id": "7770390",
        "src640": "https://cdn.pixabay.com/photo/2023/02/05/19/38/woman-7770390_640.jpg",
        "src1280": "https://cdn.pixabay.com/photo/2023/02/05/19/38/woman-7770390_1280.jpg"
    },
    {
        "id": "7743106",
        "src640": "https://cdn.pixabay.com/photo/2023/01/25/10/42/ai-generated-7743106_640.jpg",
        "src1280": "https://cdn.pixabay.com/photo/2023/01/25/10/42/ai-generated-7743106_1280.jpg"
    },
    {
        "id": "5953607",
        "src640": "https://cdn.pixabay.com/photo/2021/01/27/05/28/woman-5953607_640.jpg",
        "src1280": "https://cdn.pixabay.com/photo/2021/01/27/05/28/woman-5953607_1280.jpg"
    },
    {
        "id": "7701598",
        "src640": "https://cdn.pixabay.com/photo/2023/01/06/16/03/boy-7701598_640.jpg",
        "src1280": "https://cdn.pixabay.com/photo/2023/01/06/16/03/boy-7701598_1280.jpg"
    },
    {
        "id": "8052155",
        "src640": "https://cdn.pixabay.com/photo/2023/06/09/16/16/anime-8052155_640.jpg",
        "src1280": "https://cdn.pixabay.com/photo/2023/06/09/16/16/anime-8052155_1280.jpg"
    },
    {
        "id": "7701646",
        "src640": "https://cdn.pixabay.com/photo/2023/01/06/16/18/boy-7701646_640.jpg",
        "src1280": "https://cdn.pixabay.com/photo/2023/01/06/16/18/boy-7701646_1280.jpg"
    },
    {
        "id": "7356357",
        "src640": "https://cdn.pixabay.com/photo/2022/07/31/17/15/woman-7356357_640.jpg",
        "src1280": "https://cdn.pixabay.com/photo/2022/07/31/17/15/woman-7356357_1280.jpg"
    },
    {
        "id": "8269795",
        "src640": "https://cdn.pixabay.com/photo/2023/09/22/21/59/ai-generated-8269795_640.jpg",
        "src1280": "https://cdn.pixabay.com/photo/2023/09/22/21/59/ai-generated-8269795_1280.jpg"
    },
    {
        "id": "7815665",
        "src640": "https://cdn.pixabay.com/photo/2023/02/26/12/40/woman-7815665_640.jpg",
        "src1280": "https://cdn.pixabay.com/photo/2023/02/26/12/40/woman-7815665_1280.jpg"
    },
    {
        "id": "5977924",
        "src640": "https://cdn.pixabay.com/photo/2021/02/03/13/05/woman-5977924_640.jpg",
        "src1280": "https://cdn.pixabay.com/photo/2021/02/03/13/05/woman-5977924_1280.jpg"
    },
    {
        "id": "7534412",
        "src640": "https://cdn.pixabay.com/photo/2022/10/20/09/15/girl-7534412_640.jpg",
        "src1280": "https://cdn.pixabay.com/photo/2022/10/20/09/15/girl-7534412_1280.jpg"
    },
    {
        "id": "8390963",
        "src640": "https://cdn.pixabay.com/photo/2023/11/15/20/05/neon-8390963_640.jpg",
        "src1280": "https://cdn.pixabay.com/photo/2023/11/15/20/05/neon-8390963_1280.jpg"
    },
    {
        "id": "5958693",
        "src640": "https://cdn.pixabay.com/photo/2021/01/28/18/10/woman-5958693_640.jpg",
        "src1280": "https://cdn.pixabay.com/photo/2021/01/28/18/10/woman-5958693_1280.jpg"
    },
    {
        "id": "6190519",
        "src640": "https://cdn.pixabay.com/photo/2021/04/19/06/34/woman-6190519_640.jpg",
        "src1280": "https://cdn.pixabay.com/photo/2021/04/19/06/34/woman-6190519_1280.jpg"
    },
    {
        "id": "3515715",
        "src640": "https://cdn.pixabay.com/photo/2018/07/04/09/46/dress-3515715_640.jpg",
        "src1280": "https://cdn.pixabay.com/photo/2018/07/04/09/46/dress-3515715_1280.jpg"
    },
    {
        "id": "6052283",
        "src640": "https://cdn.pixabay.com/photo/2021/02/26/15/55/fashion-6052283_640.jpg",
        "src1280": "https://cdn.pixabay.com/photo/2021/02/26/15/55/fashion-6052283_1280.jpg"
    },
    {
        "id": "6019653",
        "src640": "https://cdn.pixabay.com/photo/2021/02/16/02/51/man-6019653_640.jpg",
        "src1280": "https://cdn.pixabay.com/photo/2021/02/16/02/51/man-6019653_1280.jpg"
    },
    {
        "id": "1504376",
        "src640": "https://cdn.pixabay.com/photo/2016/07/08/13/42/sexy-1504376_640.jpg",
        "src1280": "https://cdn.pixabay.com/photo/2016/07/08/13/42/sexy-1504376_1280.jpg"
    },
    {
        "id": "6019678",
        "src640": "https://cdn.pixabay.com/photo/2021/02/16/02/54/man-6019678_640.jpg",
        "src1280": "https://cdn.pixabay.com/photo/2021/02/16/02/54/man-6019678_1280.jpg"
    },
    {
        "id": "7639862",
        "src640": "https://cdn.pixabay.com/photo/2022/12/06/23/13/woman-7639862_640.jpg",
        "src1280": "https://cdn.pixabay.com/photo/2022/12/06/23/13/woman-7639862_1280.jpg"
    },
    {
        "id": "5965266",
        "src640": "https://cdn.pixabay.com/photo/2021/01/30/20/37/steampunk-5965266_640.jpg",
        "src1280": "https://cdn.pixabay.com/photo/2021/01/30/20/37/steampunk-5965266_1280.jpg"
    },
    {
        "id": "6628212",
        "src640": "https://cdn.pixabay.com/photo/2021/09/16/03/30/woman-6628212_640.jpg",
        "src1280": "https://cdn.pixabay.com/photo/2021/09/16/03/30/woman-6628212_1280.jpg"
    },
    {
        "id": "4913982",
        "src640": "https://cdn.pixabay.com/photo/2020/03/08/22/57/muscles-4913982_640.jpg",
        "src1280": "https://cdn.pixabay.com/photo/2020/03/08/22/57/muscles-4913982_1280.jpg"
    },
    {
        "id": "7074329",
        "src640": "https://cdn.pixabay.com/photo/2022/03/17/10/53/indian-woman-7074329_640.jpg",
        "src1280": "https://cdn.pixabay.com/photo/2022/03/17/10/53/indian-woman-7074329_1280.jpg"
    },
    {
        "id": "6138571",
        "src640": "https://cdn.pixabay.com/photo/2021/03/31/05/29/ao-dai-6138571_640.jpg",
        "src1280": "https://cdn.pixabay.com/photo/2021/03/31/05/29/ao-dai-6138571_1280.jpg"
    },
    {
        "id": "2798452",
        "src640": "https://cdn.pixabay.com/photo/2017/09/29/09/15/laugh-2798452_640.jpg",
        "src1280": "https://cdn.pixabay.com/photo/2017/09/29/09/15/laugh-2798452_1280.jpg"
    },
    {
        "id": "3677573",
        "src640": "https://cdn.pixabay.com/photo/2018/09/14/16/52/kurta-3677573_640.jpg",
        "src1280": "https://cdn.pixabay.com/photo/2018/09/14/16/52/kurta-3677573_1280.jpg"
    },
    {
        "id": "7476887",
        "src640": "https://cdn.pixabay.com/photo/2022/09/24/17/17/fashion-7476887_640.jpg",
        "src1280": "https://cdn.pixabay.com/photo/2022/09/24/17/17/fashion-7476887_1280.jpg"
    },
    {
        "id": "7134431",
        "src640": "https://cdn.pixabay.com/photo/2022/04/15/12/56/woman-7134431_640.jpg",
        "src1280": "https://cdn.pixabay.com/photo/2022/04/15/12/56/woman-7134431_1280.jpg"
    },
    {
        "id": "6494463",
        "src640": "https://cdn.pixabay.com/photo/2021/07/26/14/30/woman-6494463_640.jpg",
        "src1280": "https://cdn.pixabay.com/photo/2021/07/26/14/30/woman-6494463_1280.jpg"
    },
    {
        "id": "5762561",
        "src640": "https://cdn.pixabay.com/photo/2020/11/20/20/19/woman-5762561_640.jpg",
        "src1280": "https://cdn.pixabay.com/photo/2020/11/20/20/19/woman-5762561_1280.jpg"
    },
    {
        "id": "7528047",
        "src640": "https://cdn.pixabay.com/photo/2022/10/17/15/36/woman-7528047_640.jpg",
        "src1280": "https://cdn.pixabay.com/photo/2022/10/17/15/36/woman-7528047_1280.jpg"
    },
    {
        "id": "6960464",
        "src640": "https://cdn.pixabay.com/photo/2022/01/23/10/43/woman-6960464_640.jpg",
        "src1280": "https://cdn.pixabay.com/photo/2022/01/23/10/43/woman-6960464_1280.jpg"
    },
    {
        "id": "7815663",
        "src640": "https://cdn.pixabay.com/photo/2023/02/26/12/40/woman-7815663_640.jpg",
        "src1280": "https://cdn.pixabay.com/photo/2023/02/26/12/40/woman-7815663_1280.jpg"
    },
    {
        "id": "7496435",
        "src640": "https://cdn.pixabay.com/photo/2022/10/03/16/36/woman-7496435_640.jpg",
        "src1280": "https://cdn.pixabay.com/photo/2022/10/03/16/36/woman-7496435_1280.jpg"
    },
    {
        "id": "7576953",
        "src640": "https://cdn.pixabay.com/photo/2022/11/07/18/04/girl-7576953_640.jpg",
        "src1280": "https://cdn.pixabay.com/photo/2022/11/07/18/04/girl-7576953_1280.jpg"
    },
    {
        "id": "7466825",
        "src640": "https://cdn.pixabay.com/photo/2022/09/20/02/08/kinky-hair-7466825_640.jpg",
        "src1280": "https://cdn.pixabay.com/photo/2022/09/20/02/08/kinky-hair-7466825_1280.jpg"
    },
    {
        "id": "7489975",
        "src640": "https://cdn.pixabay.com/photo/2022/09/30/17/49/girl-7489975_640.jpg",
        "src1280": "https://cdn.pixabay.com/photo/2022/09/30/17/49/girl-7489975_1280.jpg"
    },
    {
        "id": "6980926",
        "src640": "https://cdn.pixabay.com/photo/2022/01/30/13/46/model-6980926_640.jpg",
        "src1280": "https://cdn.pixabay.com/photo/2022/01/30/13/46/model-6980926_1280.jpg"
    },
    {
        "id": "7423625",
        "src640": "https://cdn.pixabay.com/photo/2022/08/31/15/18/scene-7423625_640.jpg",
        "src1280": "https://cdn.pixabay.com/photo/2022/08/31/15/18/scene-7423625_1280.jpg"
    },
    {
        "id": "5964795",
        "src640": "https://cdn.pixabay.com/photo/2021/01/30/18/04/woman-5964795_640.jpg",
        "src1280": "https://cdn.pixabay.com/photo/2021/01/30/18/04/woman-5964795_1280.jpg"
    },
    {
        "id": "6020692",
        "src640": "https://cdn.pixabay.com/photo/2021/02/16/10/56/man-6020692_640.jpg",
        "src1280": "https://cdn.pixabay.com/photo/2021/02/16/10/56/man-6020692_1280.jpg"
    },
    {
        "id": "1759206",
        "src640": "https://cdn.pixabay.com/photo/2016/10/21/21/09/shari-1759206_640.jpg",
        "src1280": "https://cdn.pixabay.com/photo/2016/10/21/21/09/shari-1759206_1280.jpg"
    },
    {
        "id": "176204",
        "src640": "https://cdn.pixabay.com/photo/2013/08/27/16/19/window-176204_640.jpg",
        "src1280": "https://cdn.pixabay.com/photo/2013/08/27/16/19/window-176204_1280.jpg"
    },
    {
        "id": "7840907",
        "src640": "https://cdn.pixabay.com/photo/2023/03/09/21/38/woman-7840907_640.jpg",
        "src1280": "https://cdn.pixabay.com/photo/2023/03/09/21/38/woman-7840907_1280.jpg"
    },
    {
        "id": "2164024",
        "src640": "https://cdn.pixabay.com/photo/2017/03/22/05/01/portrait-2164024_640.jpg",
        "src1280": "https://cdn.pixabay.com/photo/2017/03/22/05/01/portrait-2164024_1280.jpg"
    },
    {
        "id": "2798445",
        "src640": "https://cdn.pixabay.com/photo/2017/09/29/09/13/laugh-2798445_640.jpg",
        "src1280": "https://cdn.pixabay.com/photo/2017/09/29/09/13/laugh-2798445_1280.jpg"
    },
    {
        "id": "7080185",
        "src640": "https://cdn.pixabay.com/photo/2022/03/20/08/00/woman-7080185_640.jpg",
        "src1280": "https://cdn.pixabay.com/photo/2022/03/20/08/00/woman-7080185_1280.jpg"
    },
    {
        "id": "3741750",
        "src640": "https://cdn.pixabay.com/photo/2018/10/12/09/13/model-3741750_640.jpg",
        "src1280": "https://cdn.pixabay.com/photo/2018/10/12/09/13/model-3741750_1280.jpg"
    },
    {
        "id": "7734250",
        "src640": "https://cdn.pixabay.com/photo/2023/01/21/15/10/ai-generated-7734250_640.jpg",
        "src1280": "https://cdn.pixabay.com/photo/2023/01/21/15/10/ai-generated-7734250_1280.jpg"
    },
    {
        "id": "7525412",
        "src640": "https://cdn.pixabay.com/photo/2022/10/16/15/45/girls-7525412_640.jpg",
        "src1280": "https://cdn.pixabay.com/photo/2022/10/16/15/45/girls-7525412_1280.jpg"
    },
    {
        "id": "7661613",
        "src640": "https://cdn.pixabay.com/photo/2022/12/17/12/03/fashion-7661613_640.jpg",
        "src1280": "https://cdn.pixabay.com/photo/2022/12/17/12/03/fashion-7661613_1280.jpg"
    },
    {
        "id": "6981441",
        "src640": "https://cdn.pixabay.com/photo/2022/01/30/15/43/woman-6981441_640.jpg",
        "src1280": "https://cdn.pixabay.com/photo/2022/01/30/15/43/woman-6981441_1280.jpg"
    },
    {
        "id": "6076754",
        "src640": "https://cdn.pixabay.com/photo/2021/03/07/16/23/beauty-6076754_640.jpg",
        "src1280": "https://cdn.pixabay.com/photo/2021/03/07/16/23/beauty-6076754_1280.jpg"
    },
    {
        "id": "6052367",
        "src640": "https://cdn.pixabay.com/photo/2021/02/26/16/04/woman-6052367_640.jpg",
        "src1280": "https://cdn.pixabay.com/photo/2021/02/26/16/04/woman-6052367_1280.jpg"
    },
    {
        "id": "6291091",
        "src640": "https://cdn.pixabay.com/photo/2021/05/28/14/39/boys-6291091_640.jpg",
        "src1280": "https://cdn.pixabay.com/photo/2021/05/28/14/39/boys-6291091_1280.jpg"
    },
    {
        "id": "1476757",
        "src640": "https://cdn.pixabay.com/photo/2016/06/24/06/29/prom-1476757_640.jpg",
        "src1280": "https://cdn.pixabay.com/photo/2016/06/24/06/29/prom-1476757_1280.jpg"
    },
    {
        "id": "6345951",
        "src640": "https://cdn.pixabay.com/photo/2021/06/18/11/38/man-6345951_640.jpg",
        "src1280": "https://cdn.pixabay.com/photo/2021/06/18/11/38/man-6345951_1280.jpg"
    },
    {
        "id": "7921622",
        "src640": "https://cdn.pixabay.com/photo/2023/04/13/03/43/woman-7921622_640.jpg",
        "src1280": "https://cdn.pixabay.com/photo/2023/04/13/03/43/woman-7921622_1280.jpg"
    },
    {
        "id": "3608783",
        "src640": "https://cdn.pixabay.com/photo/2018/08/15/18/30/girl-3608783_640.jpg",
        "src1280": "https://cdn.pixabay.com/photo/2018/08/15/18/30/girl-3608783_1280.jpg"
    },
    {
        "id": "1892053",
        "src640": "https://cdn.pixabay.com/photo/2016/12/08/16/06/window-1892053_640.jpg",
        "src1280": "https://cdn.pixabay.com/photo/2016/12/08/16/06/window-1892053_1280.jpg"
    },
    {
        "id": "8247428",
        "src640": "https://cdn.pixabay.com/photo/2023/09/11/18/42/ai-generated-8247428_640.jpg",
        "src1280": "https://cdn.pixabay.com/photo/2023/09/11/18/42/ai-generated-8247428_1280.jpg"
    }
]