[
    {
        "id": "3608783",
        "src640": "https://cdn.pixabay.com/photo/2018/08/15/18/30/girl-3608783_640.jpg",
        "src1280": "https://cdn.pixabay.com/photo/2018/08/15/18/30/girl-3608783_1280.jpg"
    },
    {
        "id": "6259589",
        "src640": "https://cdn.pixabay.com/photo/2021/05/17/01/52/fashion-6259589_640.jpg",
        "src1280": "https://cdn.pixabay.com/photo/2021/05/17/01/52/fashion-6259589_1280.jpg"
    },
    {
        "id": "1892053",
        "src640": "https://cdn.pixabay.com/photo/2016/12/08/16/06/window-1892053_640.jpg",
        "src1280": "https://cdn.pixabay.com/photo/2016/12/08/16/06/window-1892053_1280.jpg"
    },
    {
        "id": "5964795",
        "src640": "https://cdn.pixabay.com/photo/2021/01/30/18/04/woman-5964795_640.jpg",
        "src1280": "https://cdn.pixabay.com/photo/2021/01/30/18/04/woman-5964795_1280.jpg"
    },
    {
        "id": "7651189",
        "src640": "https://cdn.pixabay.com/photo/2022/12/12/15/02/woman-7651189_640.jpg",
        "src1280": "https://cdn.pixabay.com/photo/2022/12/12/15/02/woman-7651189_1280.jpg"
    },
    {
        "id": "7734275",
        "src640": "https://cdn.pixabay.com/photo/2023/01/21/15/12/ai-generated-7734275_640.jpg",
        "src1280": "https://cdn.pixabay.com/photo/2023/01/21/15/12/ai-generated-7734275_1280.jpg"
    },
    {
        "id": "8196693",
        "src640": "https://cdn.pixabay.com/photo/2023/08/17/14/13/ai-generated-8196693_640.jpg",
        "src1280": "https://cdn.pixabay.com/photo/2023/08/17/14/13/ai-generated-8196693_1280.jpg"
    },
    {
        "id": "6585794",
        "src640": "https://cdn.pixabay.com/photo/2021/08/30/13/13/woman-6585794_640.jpg",
        "src1280": "https://cdn.pixabay.com/photo/2021/08/30/13/13/woman-6585794_1280.jpg"
    },
    {
        "id": "4991117",
        "src640": "https://cdn.pixabay.com/photo/2020/04/01/12/57/portrait-4991117_640.jpg",
        "src1280": "https://cdn.pixabay.com/photo/2020/04/01/12/57/portrait-4991117_1280.jpg"
    },
    {
        "id": "6002517",
        "src640": "https://cdn.pixabay.com/photo/2021/02/10/15/32/woman-6002517_640.jpg",
        "src1280": "https://cdn.pixabay.com/photo/2021/02/10/15/32/woman-6002517_1280.jpg"
    },
    {
        "id": "7288779",
        "src640": "https://cdn.pixabay.com/photo/2022/06/28/04/27/woman-7288779_640.jpg",
        "src1280": "https://cdn.pixabay.com/photo/2022/06/28/04/27/woman-7288779_1280.jpg"
    },
    {
        "id": "2690526",
        "src640": "https://cdn.pixabay.com/photo/2017/08/28/17/34/mode-2690526_640.jpg",
        "src1280": "https://cdn.pixabay.com/photo/2017/08/28/17/34/mode-2690526_1280.jpg"
    },
    {
        "id": "7352928",
        "src640": "https://cdn.pixabay.com/photo/2022/07/30/02/08/woman-7352928_640.jpg",
        "src1280": "https://cdn.pixabay.com/photo/2022/07/30/02/08/woman-7352928_1280.jpg"
    },
    {
        "id": "6348194",
        "src640": "https://cdn.pixabay.com/photo/2021/06/19/10/01/boy-6348194_640.jpg",
        "src1280": "https://cdn.pixabay.com/photo/2021/06/19/10/01/boy-6348194_1280.jpg"
    },
    {
        "id": "6479297",
        "src640": "https://cdn.pixabay.com/photo/2021/07/19/23/44/woman-6479297_640.jpg",
        "src1280": "https://cdn.pixabay.com/photo/2021/07/19/23/44/woman-6479297_1280.jpg"
    },
    {
        "id": "7018981",
        "src640": "https://cdn.pixabay.com/photo/2022/02/17/15/12/woman-7018981_640.jpg",
        "src1280": "https://cdn.pixabay.com/photo/2022/02/17/15/12/woman-7018981_1280.jpg"
    },
    {
        "id": "5796231",
        "src640": "https://cdn.pixabay.com/photo/2020/12/02/04/25/woman-5796231_640.jpg",
        "src1280": "https://cdn.pixabay.com/photo/2020/12/02/04/25/woman-5796231_1280.jpg"
    },
    {
        "id": "6182827",
        "src640": "https://cdn.pixabay.com/photo/2021/04/16/07/22/ao-dai-6182827_640.jpg",
        "src1280": "https://cdn.pixabay.com/photo/2021/04/16/07/22/ao-dai-6182827_1280.jpg"
    },
    {
        "id": "6932276",
        "src640": "https://cdn.pixabay.com/photo/2022/01/12/08/43/country-girl-6932276_640.jpg",
        "src1280": "https://cdn.pixabay.com/photo/2022/01/12/08/43/country-girl-6932276_1280.jpg"
    },
    {
        "id": "7482147",
        "src640": "https://cdn.pixabay.com/photo/2022/09/27/05/43/woman-7482147_640.jpg",
        "src1280": "https://cdn.pixabay.com/photo/2022/09/27/05/43/woman-7482147_1280.jpg"
    },
    {
        "id": "6328499",
        "src640": "https://cdn.pixabay.com/photo/2021/06/11/12/39/woman-6328499_640.jpg",
        "src1280": "https://cdn.pixabay.com/photo/2021/06/11/12/39/woman-6328499_1280.jpg"
    },
    {
        "id": "7290100",
        "src640": "https://cdn.pixabay.com/photo/2022/06/28/16/31/woman-7290100_640.jpg",
        "src1280": "https://cdn.pixabay.com/photo/2022/06/28/16/31/woman-7290100_1280.jpg"
    },
    {
        "id": "7074329",
        "src640": "https://cdn.pixabay.com/photo/2022/03/17/10/53/indian-woman-7074329_640.jpg",
        "src1280": "https://cdn.pixabay.com/photo/2022/03/17/10/53/indian-woman-7074329_1280.jpg"
    },
    {
        "id": "5953607",
        "src640": "https://cdn.pixabay.com/photo/2021/01/27/05/28/woman-5953607_640.jpg",
        "src1280": "https://cdn.pixabay.com/photo/2021/01/27/05/28/woman-5953607_1280.jpg"
    },
    {
        "id": "7434921",
        "src640": "https://cdn.pixabay.com/photo/2022/09/05/18/32/woman-7434921_640.jpg",
        "src1280": "https://cdn.pixabay.com/photo/2022/09/05/18/32/woman-7434921_1280.jpg"
    },
    {
        "id": "7155805",
        "src640": "https://cdn.pixabay.com/photo/2022/04/25/12/26/woman-7155805_640.jpg",
        "src1280": "https://cdn.pixabay.com/photo/2022/04/25/12/26/woman-7155805_1280.jpg"
    },
    {
        "id": "7550231",
        "src640": "https://cdn.pixabay.com/photo/2022/10/27/07/18/woman-7550231_640.jpg",
        "src1280": "https://cdn.pixabay.com/photo/2022/10/27/07/18/woman-7550231_1280.jpg"
    },
    {
        "id": "3985558",
        "src640": "https://cdn.pixabay.com/photo/2019/02/09/17/20/sew-3985558_640.jpg",
        "src1280": "https://cdn.pixabay.com/photo/2019/02/09/17/20/sew-3985558_1280.jpg"
    },
    {
        "id": "5608968",
        "src640": "https://cdn.pixabay.com/photo/2020/09/28/08/10/woman-5608968_640.jpg",
        "src1280": "https://cdn.pixabay.com/photo/2020/09/28/08/10/woman-5608968_1280.jpg"
    },
    {
        "id": "6399047",
        "src640": "https://cdn.pixabay.com/photo/2021/07/09/13/06/woman-6399047_640.jpg",
        "src1280": "https://cdn.pixabay.com/photo/2021/07/09/13/06/woman-6399047_1280.jpg"
    },
    {
        "id": "7623949",
        "src640": "https://cdn.pixabay.com/photo/2022/11/29/08/03/woman-7623949_640.jpg",
        "src1280": "https://cdn.pixabay.com/photo/2022/11/29/08/03/woman-7623949_1280.jpg"
    },
    {
        "id": "7082402",
        "src640": "https://cdn.pixabay.com/photo/2022/03/21/06/34/woman-7082402_640.jpg",
        "src1280": "https://cdn.pixabay.com/photo/2022/03/21/06/34/woman-7082402_1280.jpg"
    },
    {
        "id": "8033715",
        "src640": "https://cdn.pixabay.com/photo/2023/06/01/14/39/forest-8033715_640.jpg",
        "src1280": "https://cdn.pixabay.com/photo/2023/06/01/14/39/forest-8033715_1280.jpg"
    },
    {
        "id": "6631850",
        "src640": "https://cdn.pixabay.com/photo/2021/09/17/07/23/woman-6631850_640.jpg",
        "src1280": "https://cdn.pixabay.com/photo/2021/09/17/07/23/woman-6631850_1280.jpg"
    },
    {
        "id": "6474543",
        "src640": "https://cdn.pixabay.com/photo/2021/07/18/03/33/man-6474543_640.jpg",
        "src1280": "https://cdn.pixabay.com/photo/2021/07/18/03/33/man-6474543_1280.jpg"
    },
    {
        "id": "5200239",
        "src640": "https://cdn.pixabay.com/photo/2020/05/21/11/02/tribal-5200239_640.jpg",
        "src1280": "https://cdn.pixabay.com/photo/2020/05/21/11/02/tribal-5200239_1280.jpg"
    },
    {
        "id": "7200406",
        "src640": "https://cdn.pixabay.com/photo/2022/05/16/13/48/woman-7200406_640.jpg",
        "src1280": "https://cdn.pixabay.com/photo/2022/05/16/13/48/woman-7200406_1280.jpg"
    },
    {
        "id": "5594168",
        "src640": "https://cdn.pixabay.com/photo/2020/09/22/19/36/business-5594168_640.jpg",
        "src1280": "https://cdn.pixabay.com/photo/2020/09/22/19/36/business-5594168_1280.jpg"
    },
    {
        "id": "2632565",
        "src640": "https://cdn.pixabay.com/photo/2017/08/11/19/56/woman-2632565_640.jpg",
        "src1280": "https://cdn.pixabay.com/photo/2017/08/11/19/56/woman-2632565_1280.jpg"
    },
    {
        "id": "7523236",
        "src640": "https://cdn.pixabay.com/photo/2022/10/15/14/13/woman-7523236_640.jpg",
        "src1280": "https://cdn.pixabay.com/photo/2022/10/15/14/13/woman-7523236_1280.jpg"
    },
    {
        "id": "7743106",
        "src640": "https://cdn.pixabay.com/photo/2023/01/25/10/42/ai-generated-7743106_640.jpg",
        "src1280": "https://cdn.pixabay.com/photo/2023/01/25/10/42/ai-generated-7743106_1280.jpg"
    },
    {
        "id": "4440401",
        "src640": "https://cdn.pixabay.com/photo/2019/08/30/04/41/young-couple-4440401_640.jpg",
        "src1280": "https://cdn.pixabay.com/photo/2019/08/30/04/41/young-couple-4440401_1280.jpg"
    },
    {
        "id": "6480855",
        "src640": "https://cdn.pixabay.com/photo/2021/07/20/14/14/girl-6480855_640.jpg",
        "src1280": "https://cdn.pixabay.com/photo/2021/07/20/14/14/girl-6480855_1280.jpg"
    },
    {
        "id": "6130169",
        "src640": "https://cdn.pixabay.com/photo/2021/03/28/03/54/viet-phuc-6130169_640.jpg",
        "src1280": "https://cdn.pixabay.com/photo/2021/03/28/03/54/viet-phuc-6130169_1280.jpg"
    },
    {
        "id": "6373379",
        "src640": "https://cdn.pixabay.com/photo/2021/06/29/07/07/woman-6373379_640.jpg",
        "src1280": "https://cdn.pixabay.com/photo/2021/06/29/07/07/woman-6373379_1280.jpg"
    },
    {
        "id": "8343232",
        "src640": "https://cdn.pixabay.com/photo/2023/10/26/17/46/ai-generated-8343232_640.jpg",
        "src1280": "https://cdn.pixabay.com/photo/2023/10/26/17/46/ai-generated-8343232_1280.jpg"
    },
    {
        "id": "5370830",
        "src640": "https://cdn.pixabay.com/photo/2020/07/04/20/18/girl-5370830_640.jpg",
        "src1280": "https://cdn.pixabay.com/photo/2020/07/04/20/18/girl-5370830_1280.jpg"
    },
    {
        "id": "6814910",
        "src640": "https://cdn.pixabay.com/photo/2021/11/21/18/17/woman-6814910_640.jpg",
        "src1280": "https://cdn.pixabay.com/photo/2021/11/21/18/17/woman-6814910_1280.jpg"
    },
    {
        "id": "7040955",
        "src640": "https://cdn.pixabay.com/photo/2022/03/01/09/38/woman-7040955_640.jpg",
        "src1280": "https://cdn.pixabay.com/photo/2022/03/01/09/38/woman-7040955_1280.jpg"
    },
    {
        "id": "6328505",
        "src640": "https://cdn.pixabay.com/photo/2021/06/11/12/40/woman-6328505_640.jpg",
        "src1280": "https://cdn.pixabay.com/photo/2021/06/11/12/40/woman-6328505_1280.jpg"
    },
    {
        "id": "7294278",
        "src640": "https://cdn.pixabay.com/photo/2022/06/30/18/31/woman-7294278_640.jpg",
        "src1280": "https://cdn.pixabay.com/photo/2022/06/30/18/31/woman-7294278_1280.jpg"
    },
    {
        "id": "5564800",
        "src640": "https://cdn.pixabay.com/photo/2020/09/12/04/54/woman-5564800_640.jpg",
        "src1280": "https://cdn.pixabay.com/photo/2020/09/12/04/54/woman-5564800_1280.jpg"
    },
    {
        "id": "5198464",
        "src640": "https://cdn.pixabay.com/photo/2020/05/20/22/31/woman-5198464_640.jpg",
        "src1280": "https://cdn.pixabay.com/photo/2020/05/20/22/31/woman-5198464_1280.jpg"
    },
    {
        "id": "7805499",
        "src640": "https://cdn.pixabay.com/photo/2023/02/22/01/51/fashion-7805499_640.jpg",
        "src1280": "https://cdn.pixabay.com/photo/2023/02/22/01/51/fashion-7805499_1280.jpg"
    },
    {
        "id": "69475",
        "src640": "https://cdn.pixabay.com/photo/2012/12/11/21/28/shop-69475_640.jpg",
        "src1280": "https://cdn.pixabay.com/photo/2012/12/11/21/28/shop-69475_1280.jpg"
    },
    {
        "id": "5948553",
        "src640": "https://cdn.pixabay.com/photo/2021/01/25/14/47/girl-5948553_640.jpg",
        "src1280": "https://cdn.pixabay.com/photo/2021/01/25/14/47/girl-5948553_1280.jpg"
    },
    {
        "id": "7921622",
        "src640": "https://cdn.pixabay.com/photo/2023/04/13/03/43/woman-7921622_640.jpg",
        "src1280": "https://cdn.pixabay.com/photo/2023/04/13/03/43/woman-7921622_1280.jpg"
    },
    {
        "id": "7213878",
        "src640": "https://cdn.pixabay.com/photo/2022/05/22/16/36/woman-7213878_640.jpg",
        "src1280": "https://cdn.pixabay.com/photo/2022/05/22/16/36/woman-7213878_1280.jpg"
    },
    {
        "id": "6312634",
        "src640": "https://cdn.pixabay.com/photo/2021/06/05/13/10/kid-6312634_640.jpg",
        "src1280": "https://cdn.pixabay.com/photo/2021/06/05/13/10/kid-6312634_1280.jpg"
    },
    {
        "id": "8247428",
        "src640": "https://cdn.pixabay.com/photo/2023/09/11/18/42/ai-generated-8247428_640.jpg",
        "src1280": "https://cdn.pixabay.com/photo/2023/09/11/18/42/ai-generated-8247428_1280.jpg"
    },
    {
        "id": "5943771",
        "src640": "https://cdn.pixabay.com/photo/2021/01/23/21/46/woman-5943771_640.jpg",
        "src1280": "https://cdn.pixabay.com/photo/2021/01/23/21/46/woman-5943771_1280.jpg"
    },
    {
        "id": "7382371",
        "src640": "https://cdn.pixabay.com/photo/2022/08/12/19/59/woman-7382371_640.jpg",
        "src1280": "https://cdn.pixabay.com/photo/2022/08/12/19/59/woman-7382371_1280.jpg"
    },
    {
        "id": "7213966",
        "src640": "https://cdn.pixabay.com/photo/2022/05/22/16/51/outdoors-7213966_640.jpg",
        "src1280": "https://cdn.pixabay.com/photo/2022/05/22/16/51/outdoors-7213966_1280.jpg"
    },
    {
        "id": "5273703",
        "src640": "https://cdn.pixabay.com/photo/2020/06/08/09/00/hair-5273703_640.jpg",
        "src1280": "https://cdn.pixabay.com/photo/2020/06/08/09/00/hair-5273703_1280.jpg"
    },
    {
        "id": "7025562",
        "src640": "https://cdn.pixabay.com/photo/2022/02/21/00/17/woman-7025562_640.jpg",
        "src1280": "https://cdn.pixabay.com/photo/2022/02/21/00/17/woman-7025562_1280.jpg"
    },
    {
        "id": "7302587",
        "src640": "https://cdn.pixabay.com/photo/2022/07/05/08/19/woman-7302587_640.jpg",
        "src1280": "https://cdn.pixabay.com/photo/2022/07/05/08/19/woman-7302587_1280.jpg"
    },
    {
        "id": "4820865",
        "src640": "https://cdn.pixabay.com/photo/2020/02/05/11/04/portrait-4820865_640.jpg",
        "src1280": "https://cdn.pixabay.com/photo/2020/02/05/11/04/portrait-4820865_1280.jpg"
    },
    {
        "id": "6388068",
        "src640": "https://cdn.pixabay.com/photo/2021/07/05/03/29/woman-6388068_640.jpg",
        "src1280": "https://cdn.pixabay.com/photo/2021/07/05/03/29/woman-6388068_1280.jpg"
    },
    {
        "id": "6960412",
        "src640": "https://cdn.pixabay.com/photo/2022/01/23/10/13/woman-6960412_640.jpg",
        "src1280": "https://cdn.pixabay.com/photo/2022/01/23/10/13/woman-6960412_1280.jpg"
    },
    {
        "id": "5304129",
        "src640": "https://cdn.pixabay.com/photo/2020/06/16/04/30/fashion-5304129_640.jpg",
        "src1280": "https://cdn.pixabay.com/photo/2020/06/16/04/30/fashion-5304129_1280.jpg"
    },
    {
        "id": "8017352",
        "src640": "https://cdn.pixabay.com/photo/2023/05/25/13/09/woman-8017352_640.jpg",
        "src1280": "https://cdn.pixabay.com/photo/2023/05/25/13/09/woman-8017352_1280.jpg"
    },
    {
        "id": "6788186",
        "src640": "https://cdn.pixabay.com/photo/2021/11/12/07/04/woman-6788186_640.jpg",
        "src1280": "https://cdn.pixabay.com/photo/2021/11/12/07/04/woman-6788186_1280.jpg"
    },
    {
        "id": "7030007",
        "src640": "https://cdn.pixabay.com/photo/2022/02/23/04/17/woman-7030007_640.jpg",
        "src1280": "https://cdn.pixabay.com/photo/2022/02/23/04/17/woman-7030007_1280.jpg"
    },
    {
        "id": "4808328",
        "src640": "https://cdn.pixabay.com/photo/2020/01/31/15/05/model-4808328_640.jpg",
        "src1280": "https://cdn.pixabay.com/photo/2020/01/31/15/05/model-4808328_1280.jpg"
    },
    {
        "id": "6713151",
        "src640": "https://cdn.pixabay.com/photo/2021/10/15/17/41/woman-6713151_640.jpg",
        "src1280": "https://cdn.pixabay.com/photo/2021/10/15/17/41/woman-6713151_1280.jpg"
    },
    {
        "id": "7649885",
        "src640": "https://cdn.pixabay.com/photo/2022/12/11/23/26/girl-7649885_640.jpg",
        "src1280": "https://cdn.pixabay.com/photo/2022/12/11/23/26/girl-7649885_1280.jpg"
    },
    {
        "id": "6495619",
        "src640": "https://cdn.pixabay.com/photo/2021/07/27/01/50/ao-dai-6495619_640.jpg",
        "src1280": "https://cdn.pixabay.com/photo/2021/07/27/01/50/ao-dai-6495619_1280.jpg"
    },
    {
        "id": "6788183",
        "src640": "https://cdn.pixabay.com/photo/2021/11/12/07/04/woman-6788183_640.jpg",
        "src1280": "https://cdn.pixabay.com/photo/2021/11/12/07/04/woman-6788183_1280.jpg"
    }
]