[
    {
        "id": "7083428",
        "src640": "https://cdn.pixabay.com/photo/2022/03/21/15/32/woman-7083428_640.jpg",
        "src1280": "https://cdn.pixabay.com/photo/2022/03/21/15/32/woman-7083428_1280.jpg"
    },
    {
        "id": "6042268",
        "src640": "https://cdn.pixabay.com/photo/2021/02/23/04/24/couple-6042268_640.jpg",
        "src1280": "https://cdn.pixabay.com/photo/2021/02/23/04/24/couple-6042268_1280.jpg"
    },
    {
        "id": "5632625",
        "src640": "https://cdn.pixabay.com/photo/2020/10/06/16/07/car-5632625_640.jpg",
        "src1280": "https://cdn.pixabay.com/photo/2020/10/06/16/07/car-5632625_1280.jpg"
    },
    {
        "id": "7093116",
        "src640": "https://cdn.pixabay.com/photo/2022/03/26/15/33/woman-7093116_640.jpg",
        "src1280": "https://cdn.pixabay.com/photo/2022/03/26/15/33/woman-7093116_1280.jpg"
    },
    {
        "id": "5911387",
        "src640": "https://cdn.pixabay.com/photo/2021/01/12/13/03/woman-5911387_640.jpg",
        "src1280": "https://cdn.pixabay.com/photo/2021/01/12/13/03/woman-5911387_1280.jpg"
    },
    {
        "id": "7358821",
        "src640": "https://cdn.pixabay.com/photo/2022/08/01/19/16/woman-7358821_640.jpg",
        "src1280": "https://cdn.pixabay.com/photo/2022/08/01/19/16/woman-7358821_1280.jpg"
    },
    {
        "id": "4637123",
        "src640": "https://cdn.pixabay.com/photo/2019/11/19/11/04/young-4637123_640.jpg",
        "src1280": "https://cdn.pixabay.com/photo/2019/11/19/11/04/young-4637123_1280.jpg"
    },
    {
        "id": "6067850",
        "src640": "https://cdn.pixabay.com/photo/2021/03/04/12/23/woman-6067850_640.jpg",
        "src1280": "https://cdn.pixabay.com/photo/2021/03/04/12/23/woman-6067850_1280.jpg"
    },
    {
        "id": "6167399",
        "src640": "https://cdn.pixabay.com/photo/2021/04/10/15/51/woman-6167399_640.jpg",
        "src1280": "https://cdn.pixabay.com/photo/2021/04/10/15/51/woman-6167399_1280.jpg"
    },
    {
        "id": "7350323",
        "src640": "https://cdn.pixabay.com/photo/2022/07/28/17/33/ladies-7350323_640.jpg",
        "src1280": "https://cdn.pixabay.com/photo/2022/07/28/17/33/ladies-7350323_1280.jpg"
    },
    {
        "id": "6805482",
        "src640": "https://cdn.pixabay.com/photo/2021/11/18/05/20/woman-6805482_640.jpg",
        "src1280": "https://cdn.pixabay.com/photo/2021/11/18/05/20/woman-6805482_1280.jpg"
    },
    {
        "id": "4436961",
        "src640": "https://cdn.pixabay.com/photo/2019/08/28/14/48/combat-boots-4436961_640.jpg",
        "src1280": "https://cdn.pixabay.com/photo/2019/08/28/14/48/combat-boots-4436961_1280.jpg"
    },
    {
        "id": "7841716",
        "src640": "https://cdn.pixabay.com/photo/2023/03/10/08/08/smoking-7841716_640.jpg",
        "src1280": "https://cdn.pixabay.com/photo/2023/03/10/08/08/smoking-7841716_1280.jpg"
    },
    {
        "id": "5307343",
        "src640": "https://cdn.pixabay.com/photo/2020/06/16/21/35/fashion-5307343_640.jpg",
        "src1280": "https://cdn.pixabay.com/photo/2020/06/16/21/35/fashion-5307343_1280.jpg"
    },
    {
        "id": "6595060",
        "src640": "https://cdn.pixabay.com/photo/2021/09/03/06/01/woman-6595060_640.jpg",
        "src1280": "https://cdn.pixabay.com/photo/2021/09/03/06/01/woman-6595060_1280.jpg"
    },
    {
        "id": "7361458",
        "src640": "https://cdn.pixabay.com/photo/2022/08/02/22/47/woman-7361458_640.jpg",
        "src1280": "https://cdn.pixabay.com/photo/2022/08/02/22/47/woman-7361458_1280.jpg"
    },
    {
        "id": "4809407",
        "src640": "https://cdn.pixabay.com/photo/2020/02/01/02/56/girl-4809407_640.jpg",
        "src1280": "https://cdn.pixabay.com/photo/2020/02/01/02/56/girl-4809407_1280.jpg"
    },
    {
        "id": "4255845",
        "src640": "https://cdn.pixabay.com/photo/2019/06/06/11/53/model-4255845_640.jpg",
        "src1280": "https://cdn.pixabay.com/photo/2019/06/06/11/53/model-4255845_1280.jpg"
    },
    {
        "id": "8142750",
        "src640": "https://cdn.pixabay.com/photo/2023/07/22/06/26/image-8142750_640.jpg",
        "src1280": "https://cdn.pixabay.com/photo/2023/07/22/06/26/image-8142750_1280.jpg"
    },
    {
        "id": "3831828",
        "src640": "https://cdn.pixabay.com/photo/2018/11/22/12/49/clothing-3831828_640.jpg",
        "src1280": "https://cdn.pixabay.com/photo/2018/11/22/12/49/clothing-3831828_1280.jpg"
    },
    {
        "id": "7714426",
        "src640": "https://cdn.pixabay.com/photo/2023/01/12/16/07/woman-7714426_640.jpg",
        "src1280": "https://cdn.pixabay.com/photo/2023/01/12/16/07/woman-7714426_1280.jpg"
    },
    {
        "id": "5982653",
        "src640": "https://cdn.pixabay.com/photo/2021/02/04/20/56/woman-5982653_640.jpg",
        "src1280": "https://cdn.pixabay.com/photo/2021/02/04/20/56/woman-5982653_1280.jpg"
    },
    {
        "id": "7457568",
        "src640": "https://cdn.pixabay.com/photo/2022/09/16/01/16/girl-7457568_640.jpg",
        "src1280": "https://cdn.pixabay.com/photo/2022/09/16/01/16/girl-7457568_1280.jpg"
    },
    {
        "id": "6919082",
        "src640": "https://cdn.pixabay.com/photo/2022/01/06/09/46/woman-6919082_640.jpg",
        "src1280": "https://cdn.pixabay.com/photo/2022/01/06/09/46/woman-6919082_1280.jpg"
    },
    {
        "id": "6378110",
        "src640": "https://cdn.pixabay.com/photo/2021/07/01/03/38/man-6378110_640.jpg",
        "src1280": "https://cdn.pixabay.com/photo/2021/07/01/03/38/man-6378110_1280.jpg"
    },
    {
        "id": "2737433",
        "src640": "https://cdn.pixabay.com/photo/2017/09/11/00/06/pattern-2737433_640.jpg",
        "src1280": "https://cdn.pixabay.com/photo/2017/09/11/00/06/pattern-2737433_1280.jpg"
    },
    {
        "id": "6649479",
        "src640": "https://cdn.pixabay.com/photo/2021/09/23/10/59/girl-6649479_640.jpg",
        "src1280": "https://cdn.pixabay.com/photo/2021/09/23/10/59/girl-6649479_1280.jpg"
    },
    {
        "id": "6704274",
        "src640": "https://cdn.pixabay.com/photo/2021/10/12/17/55/bride-6704274_640.jpg",
        "src1280": "https://cdn.pixabay.com/photo/2021/10/12/17/55/bride-6704274_1280.jpg"
    },
    {
        "id": "6771940",
        "src640": "https://cdn.pixabay.com/photo/2021/11/05/19/59/bride-6771940_640.jpg",
        "src1280": "https://cdn.pixabay.com/photo/2021/11/05/19/59/bride-6771940_1280.jpg"
    },
    {
        "id": "6692281",
        "src640": "https://cdn.pixabay.com/photo/2021/10/08/19/35/man-6692281_640.jpg",
        "src1280": "https://cdn.pixabay.com/photo/2021/10/08/19/35/man-6692281_1280.jpg"
    },
    {
        "id": "7235859",
        "src640": "https://cdn.pixabay.com/photo/2022/06/01/14/03/vietnamese-woman-7235859_640.jpg",
        "src1280": "https://cdn.pixabay.com/photo/2022/06/01/14/03/vietnamese-woman-7235859_1280.jpg"
    },
    {
        "id": "3877304",
        "src640": "https://cdn.pixabay.com/photo/2018/12/15/17/42/fashion-3877304_640.jpg",
        "src1280": "https://cdn.pixabay.com/photo/2018/12/15/17/42/fashion-3877304_1280.jpg"
    },
    {
        "id": "5741020",
        "src640": "https://cdn.pixabay.com/photo/2020/11/14/08/50/man-5741020_640.jpg",
        "src1280": "https://cdn.pixabay.com/photo/2020/11/14/08/50/man-5741020_1280.jpg"
    },
    {
        "id": "5643024",
        "src640": "https://cdn.pixabay.com/photo/2020/10/10/13/03/woman-5643024_640.jpg",
        "src1280": "https://cdn.pixabay.com/photo/2020/10/10/13/03/woman-5643024_1280.jpg"
    },
    {
        "id": "4628615",
        "src640": "https://cdn.pixabay.com/photo/2019/11/15/15/04/woman-4628615_640.jpg",
        "src1280": "https://cdn.pixabay.com/photo/2019/11/15/15/04/woman-4628615_1280.jpg"
    },
    {
        "id": "6067841",
        "src640": "https://cdn.pixabay.com/photo/2021/03/04/12/22/woman-6067841_640.jpg",
        "src1280": "https://cdn.pixabay.com/photo/2021/03/04/12/22/woman-6067841_1280.jpg"
    },
    {
        "id": "7665088",
        "src640": "https://cdn.pixabay.com/photo/2022/12/19/09/50/woman-7665088_640.jpg",
        "src1280": "https://cdn.pixabay.com/photo/2022/12/19/09/50/woman-7665088_1280.jpg"
    },
    {
        "id": "4359746",
        "src640": "https://cdn.pixabay.com/photo/2019/07/24/10/02/cigarette-4359746_640.jpg",
        "src1280": "https://cdn.pixabay.com/photo/2019/07/24/10/02/cigarette-4359746_1280.jpg"
    },
    {
        "id": "7636891",
        "src640": "https://cdn.pixabay.com/photo/2022/12/05/14/15/woman-7636891_640.jpg",
        "src1280": "https://cdn.pixabay.com/photo/2022/12/05/14/15/woman-7636891_1280.jpg"
    },
    {
        "id": "6882634",
        "src640": "https://cdn.pixabay.com/photo/2021/12/20/09/44/adult-6882634_640.jpg",
        "src1280": "https://cdn.pixabay.com/photo/2021/12/20/09/44/adult-6882634_1280.jpg"
    },
    {
        "id": "7299374",
        "src640": "https://cdn.pixabay.com/photo/2022/07/03/14/09/woman-7299374_640.jpg",
        "src1280": "https://cdn.pixabay.com/photo/2022/07/03/14/09/woman-7299374_1280.jpg"
    },
    {
        "id": "7527859",
        "src640": "https://cdn.pixabay.com/photo/2022/10/17/14/31/woman-7527859_640.jpg",
        "src1280": "https://cdn.pixabay.com/photo/2022/10/17/14/31/woman-7527859_1280.jpg"
    },
    {
        "id": "6585411",
        "src640": "https://cdn.pixabay.com/photo/2021/08/30/09/50/woman-6585411_640.jpg",
        "src1280": "https://cdn.pixabay.com/photo/2021/08/30/09/50/woman-6585411_1280.jpg"
    },
    {
        "id": "6548102",
        "src640": "https://cdn.pixabay.com/photo/2021/08/15/15/14/woman-6548102_640.jpg",
        "src1280": "https://cdn.pixabay.com/photo/2021/08/15/15/14/woman-6548102_1280.jpg"
    },
    {
        "id": "5305883",
        "src640": "https://cdn.pixabay.com/photo/2020/06/16/14/39/smile-5305883_640.jpg",
        "src1280": "https://cdn.pixabay.com/photo/2020/06/16/14/39/smile-5305883_1280.jpg"
    },
    {
        "id": "6914932",
        "src640": "https://cdn.pixabay.com/photo/2022/01/04/12/11/woman-6914932_640.jpg",
        "src1280": "https://cdn.pixabay.com/photo/2022/01/04/12/11/woman-6914932_1280.jpg"
    },
    {
        "id": "7138462",
        "src640": "https://cdn.pixabay.com/photo/2022/04/17/16/40/woman-7138462_640.jpg",
        "src1280": "https://cdn.pixabay.com/photo/2022/04/17/16/40/woman-7138462_1280.jpg"
    },
    {
        "id": "7892524",
        "src640": "https://cdn.pixabay.com/photo/2023/04/01/14/41/room-7892524_640.jpg",
        "src1280": "https://cdn.pixabay.com/photo/2023/04/01/14/41/room-7892524_1280.jpg"
    },
    {
        "id": "6965309",
        "src640": "https://cdn.pixabay.com/photo/2022/01/25/05/44/evening-dress-6965309_640.jpg",
        "src1280": "https://cdn.pixabay.com/photo/2022/01/25/05/44/evening-dress-6965309_1280.jpg"
    },
    {
        "id": "6067798",
        "src640": "https://cdn.pixabay.com/photo/2021/03/04/12/11/woman-6067798_640.jpg",
        "src1280": "https://cdn.pixabay.com/photo/2021/03/04/12/11/woman-6067798_1280.jpg"
    },
    {
        "id": "6687750",
        "src640": "https://cdn.pixabay.com/photo/2021/10/07/07/54/woman-6687750_640.jpg",
        "src1280": "https://cdn.pixabay.com/photo/2021/10/07/07/54/woman-6687750_1280.jpg"
    },
    {
        "id": "6996530",
        "src640": "https://cdn.pixabay.com/photo/2022/02/06/08/28/woman-6996530_640.jpg",
        "src1280": "https://cdn.pixabay.com/photo/2022/02/06/08/28/woman-6996530_1280.jpg"
    },
    {
        "id": "4536132",
        "src640": "https://cdn.pixabay.com/photo/2019/10/08/23/00/beauty-4536132_640.jpg",
        "src1280": "https://cdn.pixabay.com/photo/2019/10/08/23/00/beauty-4536132_1280.jpg"
    },
    {
        "id": "5111739",
        "src640": "https://cdn.pixabay.com/photo/2020/04/30/07/22/shoes-5111739_640.jpg",
        "src1280": "https://cdn.pixabay.com/photo/2020/04/30/07/22/shoes-5111739_1280.jpg"
    },
    {
        "id": "8039214",
        "src640": "https://cdn.pixabay.com/photo/2023/06/04/09/12/woman-8039214_640.jpg",
        "src1280": "https://cdn.pixabay.com/photo/2023/06/04/09/12/woman-8039214_1280.jpg"
    },
    {
        "id": "6809862",
        "src640": "https://cdn.pixabay.com/photo/2021/11/19/17/06/woman-6809862_640.jpg",
        "src1280": "https://cdn.pixabay.com/photo/2021/11/19/17/06/woman-6809862_1280.jpg"
    },
    {
        "id": "4637114",
        "src640": "https://cdn.pixabay.com/photo/2019/11/19/10/57/young-4637114_640.jpg",
        "src1280": "https://cdn.pixabay.com/photo/2019/11/19/10/57/young-4637114_1280.jpg"
    },
    {
        "id": "2431529",
        "src640": "https://cdn.pixabay.com/photo/2017/06/22/16/56/art-2431529_640.jpg",
        "src1280": "https://cdn.pixabay.com/photo/2017/06/22/16/56/art-2431529_1280.jpg"
    },
    {
        "id": "7230284",
        "src640": "https://cdn.pixabay.com/photo/2022/05/30/02/30/woman-7230284_640.jpg",
        "src1280": "https://cdn.pixabay.com/photo/2022/05/30/02/30/woman-7230284_1280.jpg"
    },
    {
        "id": "5096381",
        "src640": "https://cdn.pixabay.com/photo/2020/04/26/17/36/backgrounds-5096381_640.jpg",
        "src1280": "https://cdn.pixabay.com/photo/2020/04/26/17/36/backgrounds-5096381_1280.jpg"
    },
    {
        "id": "4712741",
        "src640": "https://cdn.pixabay.com/photo/2019/12/22/15/05/vietnamese-4712741_640.jpg",
        "src1280": "https://cdn.pixabay.com/photo/2019/12/22/15/05/vietnamese-4712741_1280.jpg"
    },
    {
        "id": "8064103",
        "src640": "https://cdn.pixabay.com/photo/2023/06/14/23/56/beauty-8064103_640.jpg",
        "src1280": "https://cdn.pixabay.com/photo/2023/06/14/23/56/beauty-8064103_1280.jpg"
    },
    {
        "id": "7361444",
        "src640": "https://cdn.pixabay.com/photo/2022/08/02/22/44/woman-7361444_640.jpg",
        "src1280": "https://cdn.pixabay.com/photo/2022/08/02/22/44/woman-7361444_1280.jpg"
    },
    {
        "id": "4288736",
        "src640": "https://cdn.pixabay.com/photo/2019/06/21/06/59/girl-4288736_640.jpg",
        "src1280": "https://cdn.pixabay.com/photo/2019/06/21/06/59/girl-4288736_1280.jpg"
    },
    {
        "id": "7270295",
        "src640": "https://cdn.pixabay.com/photo/2022/06/18/17/00/woman-7270295_640.jpg",
        "src1280": "https://cdn.pixabay.com/photo/2022/06/18/17/00/woman-7270295_1280.jpg"
    },
    {
        "id": "6540882",
        "src640": "https://cdn.pixabay.com/photo/2021/08/12/13/39/woman-6540882_640.jpg",
        "src1280": "https://cdn.pixabay.com/photo/2021/08/12/13/39/woman-6540882_1280.jpg"
    },
    {
        "id": "7692905",
        "src640": "https://cdn.pixabay.com/photo/2023/01/02/19/58/background-7692905_640.jpg",
        "src1280": "https://cdn.pixabay.com/photo/2023/01/02/19/58/background-7692905_1280.jpg"
    },
    {
        "id": "4150510",
        "src640": "https://cdn.pixabay.com/photo/2019/04/23/20/34/lady-4150510_640.jpg",
        "src1280": "https://cdn.pixabay.com/photo/2019/04/23/20/34/lady-4150510_1280.jpg"
    },
    {
        "id": "4354498",
        "src640": "https://cdn.pixabay.com/photo/2019/07/22/08/07/male-4354498_640.jpg",
        "src1280": "https://cdn.pixabay.com/photo/2019/07/22/08/07/male-4354498_1280.jpg"
    },
    {
        "id": "7082379",
        "src640": "https://cdn.pixabay.com/photo/2022/03/21/06/31/woman-7082379_640.jpg",
        "src1280": "https://cdn.pixabay.com/photo/2022/03/21/06/31/woman-7082379_1280.jpg"
    },
    {
        "id": "7025558",
        "src640": "https://cdn.pixabay.com/photo/2022/02/21/00/16/woman-7025558_640.jpg",
        "src1280": "https://cdn.pixabay.com/photo/2022/02/21/00/16/woman-7025558_1280.jpg"
    },
    {
        "id": "7987038",
        "src640": "https://cdn.pixabay.com/photo/2023/05/11/19/17/woman-7987038_640.jpg",
        "src1280": "https://cdn.pixabay.com/photo/2023/05/11/19/17/woman-7987038_1280.jpg"
    },
    {
        "id": "6805491",
        "src640": "https://cdn.pixabay.com/photo/2021/11/18/05/21/woman-6805491_640.jpg",
        "src1280": "https://cdn.pixabay.com/photo/2021/11/18/05/21/woman-6805491_1280.jpg"
    },
    {
        "id": "7780516",
        "src640": "https://cdn.pixabay.com/photo/2023/02/10/10/02/woman-7780516_640.jpg",
        "src1280": "https://cdn.pixabay.com/photo/2023/02/10/10/02/woman-7780516_1280.jpg"
    },
    {
        "id": "8064106",
        "src640": "https://cdn.pixabay.com/photo/2023/06/14/23/57/iranian-woman-8064106_640.jpg",
        "src1280": "https://cdn.pixabay.com/photo/2023/06/14/23/57/iranian-woman-8064106_1280.jpg"
    },
    {
        "id": "7606072",
        "src640": "https://cdn.pixabay.com/photo/2022/11/21/06/36/woman-7606072_640.jpg",
        "src1280": "https://cdn.pixabay.com/photo/2022/11/21/06/36/woman-7606072_1280.jpg"
    },
    {
        "id": "8243356",
        "src640": "https://cdn.pixabay.com/photo/2023/09/09/15/38/woman-8243356_640.jpg",
        "src1280": "https://cdn.pixabay.com/photo/2023/09/09/15/38/woman-8243356_1280.jpg"
    },
    {
        "id": "8118259",
        "src640": "https://cdn.pixabay.com/photo/2023/07/10/13/08/woman-8118259_640.jpg",
        "src1280": "https://cdn.pixabay.com/photo/2023/07/10/13/08/woman-8118259_1280.jpg"
    },
    {
        "id": "5186042",
        "src640": "https://cdn.pixabay.com/photo/2020/05/18/12/31/fence-5186042_640.jpg",
        "src1280": "https://cdn.pixabay.com/photo/2020/05/18/12/31/fence-5186042_1280.jpg"
    },
    {
        "id": "7309650",
        "src640": "https://cdn.pixabay.com/photo/2022/07/08/17/20/little-girl-7309650_640.jpg",
        "src1280": "https://cdn.pixabay.com/photo/2022/07/08/17/20/little-girl-7309650_1280.jpg"
    }
]