[
    {
        "id": "3203898",
        "src640": "https://cdn.pixabay.com/photo/2018/03/06/16/42/summer-3203898_640.jpg",
        "src1280": "https://cdn.pixabay.com/photo/2018/03/06/16/42/summer-3203898_1280.jpg"
    },
    {
        "id": "4785524",
        "src640": "https://cdn.pixabay.com/photo/2020/01/22/15/10/fashion-4785524_640.jpg",
        "src1280": "https://cdn.pixabay.com/photo/2020/01/22/15/10/fashion-4785524_1280.jpg"
    },
    {
        "id": "4857480",
        "src640": "https://cdn.pixabay.com/photo/2020/02/17/19/06/chain-4857480_640.jpg",
        "src1280": "https://cdn.pixabay.com/photo/2020/02/17/19/06/chain-4857480_1280.jpg"
    },
    {
        "id": "6052288",
        "src640": "https://cdn.pixabay.com/photo/2021/02/26/15/55/fashion-6052288_640.jpg",
        "src1280": "https://cdn.pixabay.com/photo/2021/02/26/15/55/fashion-6052288_1280.jpg"
    },
    {
        "id": "5973059",
        "src640": "https://cdn.pixabay.com/photo/2021/02/02/08/18/woman-5973059_640.jpg",
        "src1280": "https://cdn.pixabay.com/photo/2021/02/02/08/18/woman-5973059_1280.jpg"
    },
    {
        "id": "6508998",
        "src640": "https://cdn.pixabay.com/photo/2021/07/30/08/07/steampunk-6508998_640.jpg",
        "src1280": "https://cdn.pixabay.com/photo/2021/07/30/08/07/steampunk-6508998_1280.jpg"
    },
    {
        "id": "6951772",
        "src640": "https://cdn.pixabay.com/photo/2022/01/20/08/32/woman-6951772_640.jpg",
        "src1280": "https://cdn.pixabay.com/photo/2022/01/20/08/32/woman-6951772_1280.jpg"
    },
    {
        "id": "8156120",
        "src640": "https://cdn.pixabay.com/photo/2023/07/29/01/58/woman-8156120_640.jpg",
        "src1280": "https://cdn.pixabay.com/photo/2023/07/29/01/58/woman-8156120_1280.jpg"
    },
    {
        "id": "6484110",
        "src640": "https://cdn.pixabay.com/photo/2021/07/21/23/03/man-6484110_640.jpg",
        "src1280": "https://cdn.pixabay.com/photo/2021/07/21/23/03/man-6484110_1280.jpg"
    },
    {
        "id": "7082400",
        "src640": "https://cdn.pixabay.com/photo/2022/03/21/06/34/woman-7082400_640.jpg",
        "src1280": "https://cdn.pixabay.com/photo/2022/03/21/06/34/woman-7082400_1280.jpg"
    },
    {
        "id": "5909058",
        "src640": "https://cdn.pixabay.com/photo/2021/01/11/17/34/woman-5909058_640.jpg",
        "src1280": "https://cdn.pixabay.com/photo/2021/01/11/17/34/woman-5909058_1280.jpg"
    },
    {
        "id": "1174302",
        "src640": "https://cdn.pixabay.com/photo/2016/02/01/19/48/clothing-1174302_640.jpg",
        "src1280": "https://cdn.pixabay.com/photo/2016/02/01/19/48/clothing-1174302_1280.jpg"
    },
    {
        "id": "7015867",
        "src640": "https://cdn.pixabay.com/photo/2022/02/16/01/45/child-7015867_640.jpg",
        "src1280": "https://cdn.pixabay.com/photo/2022/02/16/01/45/child-7015867_1280.jpg"
    },
    {
        "id": "6106951",
        "src640": "https://cdn.pixabay.com/photo/2021/03/19/08/18/wedding-dress-6106951_640.jpg",
        "src1280": "https://cdn.pixabay.com/photo/2021/03/19/08/18/wedding-dress-6106951_1280.jpg"
    },
    {
        "id": "7082359",
        "src640": "https://cdn.pixabay.com/photo/2022/03/21/06/30/woman-7082359_640.jpg",
        "src1280": "https://cdn.pixabay.com/photo/2022/03/21/06/30/woman-7082359_1280.jpg"
    },
    {
        "id": "2863836",
        "src640": "https://cdn.pixabay.com/photo/2017/10/18/11/44/hat-2863836_640.jpg",
        "src1280": "https://cdn.pixabay.com/photo/2017/10/18/11/44/hat-2863836_1280.jpg"
    },
    {
        "id": "887524",
        "src640": "https://cdn.pixabay.com/photo/2015/08/13/20/48/wood-887524_640.jpg",
        "src1280": "https://cdn.pixabay.com/photo/2015/08/13/20/48/wood-887524_1280.jpg"
    },
    {
        "id": "5110893",
        "src640": "https://cdn.pixabay.com/photo/2020/04/29/23/24/girl-5110893_640.jpg",
        "src1280": "https://cdn.pixabay.com/photo/2020/04/29/23/24/girl-5110893_1280.jpg"
    },
    {
        "id": "8288864",
        "src640": "https://cdn.pixabay.com/photo/2023/10/02/09/39/ai-generated-8288864_640.jpg",
        "src1280": "https://cdn.pixabay.com/photo/2023/10/02/09/39/ai-generated-8288864_1280.jpg"
    },
    {
        "id": "5401393",
        "src640": "https://cdn.pixabay.com/photo/2020/07/13/17/07/woman-5401393_640.jpg",
        "src1280": "https://cdn.pixabay.com/photo/2020/07/13/17/07/woman-5401393_1280.jpg"
    },
    {
        "id": "3844692",
        "src640": "https://cdn.pixabay.com/photo/2018/11/28/22/43/girl-3844692_640.jpg",
        "src1280": "https://cdn.pixabay.com/photo/2018/11/28/22/43/girl-3844692_1280.jpg"
    },
    {
        "id": "6559666",
        "src640": "https://cdn.pixabay.com/photo/2021/08/20/07/07/woman-6559666_640.jpg",
        "src1280": "https://cdn.pixabay.com/photo/2021/08/20/07/07/woman-6559666_1280.jpg"
    },
    {
        "id": "6480749",
        "src640": "https://cdn.pixabay.com/photo/2021/07/20/13/23/boy-6480749_640.jpg",
        "src1280": "https://cdn.pixabay.com/photo/2021/07/20/13/23/boy-6480749_1280.jpg"
    },
    {
        "id": "4638917",
        "src640": "https://cdn.pixabay.com/photo/2019/11/20/01/17/woman-4638917_640.jpg",
        "src1280": "https://cdn.pixabay.com/photo/2019/11/20/01/17/woman-4638917_1280.jpg"
    },
    {
        "id": "6468146",
        "src640": "https://cdn.pixabay.com/photo/2021/07/15/11/15/woman-6468146_640.jpg",
        "src1280": "https://cdn.pixabay.com/photo/2021/07/15/11/15/woman-6468146_1280.jpg"
    },
    {
        "id": "7922074",
        "src640": "https://cdn.pixabay.com/photo/2023/04/13/08/51/woman-7922074_640.jpg",
        "src1280": "https://cdn.pixabay.com/photo/2023/04/13/08/51/woman-7922074_1280.jpg"
    },
    {
        "id": "6965305",
        "src640": "https://cdn.pixabay.com/photo/2022/01/25/05/43/evening-dress-6965305_640.jpg",
        "src1280": "https://cdn.pixabay.com/photo/2022/01/25/05/43/evening-dress-6965305_1280.jpg"
    },
    {
        "id": "8024045",
        "src640": "https://cdn.pixabay.com/photo/2023/05/28/15/48/man-8024045_640.jpg",
        "src1280": "https://cdn.pixabay.com/photo/2023/05/28/15/48/man-8024045_1280.jpg"
    },
    {
        "id": "6663314",
        "src640": "https://cdn.pixabay.com/photo/2021/09/28/05/45/bride-6663314_640.jpg",
        "src1280": "https://cdn.pixabay.com/photo/2021/09/28/05/45/bride-6663314_1280.jpg"
    },
    {
        "id": "5851600",
        "src640": "https://cdn.pixabay.com/photo/2020/12/22/07/09/woman-5851600_640.jpg",
        "src1280": "https://cdn.pixabay.com/photo/2020/12/22/07/09/woman-5851600_1280.jpg"
    },
    {
        "id": "6569321",
        "src640": "https://cdn.pixabay.com/photo/2021/08/24/03/24/woman-6569321_640.jpg",
        "src1280": "https://cdn.pixabay.com/photo/2021/08/24/03/24/woman-6569321_1280.jpg"
    },
    {
        "id": "7548782",
        "src640": "https://cdn.pixabay.com/photo/2022/10/26/15/24/woman-7548782_640.jpg",
        "src1280": "https://cdn.pixabay.com/photo/2022/10/26/15/24/woman-7548782_1280.jpg"
    },
    {
        "id": "8260835",
        "src640": "https://cdn.pixabay.com/photo/2023/09/18/15/46/woman-8260835_640.jpg",
        "src1280": "https://cdn.pixabay.com/photo/2023/09/18/15/46/woman-8260835_1280.jpg"
    },
    {
        "id": "8093942",
        "src640": "https://cdn.pixabay.com/photo/2023/06/28/09/40/woman-8093942_640.jpg",
        "src1280": "https://cdn.pixabay.com/photo/2023/06/28/09/40/woman-8093942_1280.jpg"
    },
    {
        "id": "5304132",
        "src640": "https://cdn.pixabay.com/photo/2020/06/16/04/31/fashion-5304132_640.jpg",
        "src1280": "https://cdn.pixabay.com/photo/2020/06/16/04/31/fashion-5304132_1280.jpg"
    },
    {
        "id": "6585225",
        "src640": "https://cdn.pixabay.com/photo/2021/08/30/08/30/woman-6585225_640.jpg",
        "src1280": "https://cdn.pixabay.com/photo/2021/08/30/08/30/woman-6585225_1280.jpg"
    },
    {
        "id": "7082441",
        "src640": "https://cdn.pixabay.com/photo/2022/03/21/06/37/woman-7082441_640.jpg",
        "src1280": "https://cdn.pixabay.com/photo/2022/03/21/06/37/woman-7082441_1280.jpg"
    },
    {
        "id": "7552585",
        "src640": "https://cdn.pixabay.com/photo/2022/10/28/08/23/very-cute-boy-handsome-boy-images-7552585_640.jpg",
        "src1280": "https://cdn.pixabay.com/photo/2022/10/28/08/23/very-cute-boy-handsome-boy-images-7552585_1280.jpg"
    },
    {
        "id": "7183484",
        "src640": "https://cdn.pixabay.com/photo/2022/05/09/03/51/woman-7183484_640.jpg",
        "src1280": "https://cdn.pixabay.com/photo/2022/05/09/03/51/woman-7183484_1280.jpg"
    },
    {
        "id": "5232383",
        "src640": "https://cdn.pixabay.com/photo/2020/05/28/19/33/mannequin-5232383_640.jpg",
        "src1280": "https://cdn.pixabay.com/photo/2020/05/28/19/33/mannequin-5232383_1280.jpg"
    },
    {
        "id": "6703987",
        "src640": "https://cdn.pixabay.com/photo/2021/10/12/16/23/man-6703987_640.jpg",
        "src1280": "https://cdn.pixabay.com/photo/2021/10/12/16/23/man-6703987_1280.jpg"
    },
    {
        "id": "4820873",
        "src640": "https://cdn.pixabay.com/photo/2020/02/05/11/05/portrait-4820873_640.jpg",
        "src1280": "https://cdn.pixabay.com/photo/2020/02/05/11/05/portrait-4820873_1280.jpg"
    },
    {
        "id": "7475318",
        "src640": "https://cdn.pixabay.com/photo/2022/09/23/22/57/woman-7475318_640.jpg",
        "src1280": "https://cdn.pixabay.com/photo/2022/09/23/22/57/woman-7475318_1280.jpg"
    },
    {
        "id": "7198063",
        "src640": "https://cdn.pixabay.com/photo/2022/05/15/13/37/happy-7198063_640.jpg",
        "src1280": "https://cdn.pixabay.com/photo/2022/05/15/13/37/happy-7198063_1280.jpg"
    },
    {
        "id": "6052246",
        "src640": "https://cdn.pixabay.com/photo/2021/02/26/15/51/fashion-6052246_640.jpg",
        "src1280": "https://cdn.pixabay.com/photo/2021/02/26/15/51/fashion-6052246_1280.jpg"
    },
    {
        "id": "7735885",
        "src640": "https://cdn.pixabay.com/photo/2023/01/22/09/19/girlie-7735885_640.jpg",
        "src1280": "https://cdn.pixabay.com/photo/2023/01/22/09/19/girlie-7735885_1280.jpg"
    },
    {
        "id": "5198467",
        "src640": "https://cdn.pixabay.com/photo/2020/05/20/22/31/woman-5198467_640.jpg",
        "src1280": "https://cdn.pixabay.com/photo/2020/05/20/22/31/woman-5198467_1280.jpg"
    },
    {
        "id": "6032413",
        "src640": "https://cdn.pixabay.com/photo/2021/02/20/06/17/woman-6032413_640.jpg",
        "src1280": "https://cdn.pixabay.com/photo/2021/02/20/06/17/woman-6032413_1280.jpg"
    },
    {
        "id": "4467214",
        "src640": "https://cdn.pixabay.com/photo/2019/09/10/20/10/fashion-4467214_640.jpg",
        "src1280": "https://cdn.pixabay.com/photo/2019/09/10/20/10/fashion-4467214_1280.jpg"
    },
    {
        "id": "7657025",
        "src640": "https://cdn.pixabay.com/photo/2022/12/15/06/46/woman-7657025_640.jpg",
        "src1280": "https://cdn.pixabay.com/photo/2022/12/15/06/46/woman-7657025_1280.jpg"
    },
    {
        "id": "6138574",
        "src640": "https://cdn.pixabay.com/photo/2021/03/31/05/33/ao-dai-6138574_640.jpg",
        "src1280": "https://cdn.pixabay.com/photo/2021/03/31/05/33/ao-dai-6138574_1280.jpg"
    },
    {
        "id": "7213857",
        "src640": "https://cdn.pixabay.com/photo/2022/05/22/16/35/ao-dai-7213857_640.jpg",
        "src1280": "https://cdn.pixabay.com/photo/2022/05/22/16/35/ao-dai-7213857_1280.jpg"
    },
    {
        "id": "4785533",
        "src640": "https://cdn.pixabay.com/photo/2020/01/22/15/11/boots-4785533_640.jpg",
        "src1280": "https://cdn.pixabay.com/photo/2020/01/22/15/11/boots-4785533_1280.jpg"
    },
    {
        "id": "8236674",
        "src640": "https://cdn.pixabay.com/photo/2023/09/06/08/46/woman-8236674_640.jpg",
        "src1280": "https://cdn.pixabay.com/photo/2023/09/06/08/46/woman-8236674_1280.jpg"
    },
    {
        "id": "7273383",
        "src640": "https://cdn.pixabay.com/photo/2022/06/20/09/24/girlie-7273383_640.jpg",
        "src1280": "https://cdn.pixabay.com/photo/2022/06/20/09/24/girlie-7273383_1280.jpg"
    },
    {
        "id": "2523720",
        "src640": "https://cdn.pixabay.com/photo/2017/07/20/20/55/fashion-2523720_640.jpg",
        "src1280": "https://cdn.pixabay.com/photo/2017/07/20/20/55/fashion-2523720_1280.jpg"
    },
    {
        "id": "7010668",
        "src640": "https://cdn.pixabay.com/photo/2022/02/13/09/15/fashion-7010668_640.jpg",
        "src1280": "https://cdn.pixabay.com/photo/2022/02/13/09/15/fashion-7010668_1280.jpg"
    },
    {
        "id": "8310898",
        "src640": "https://cdn.pixabay.com/photo/2023/10/12/13/55/ai-generated-8310898_640.jpg",
        "src1280": "https://cdn.pixabay.com/photo/2023/10/12/13/55/ai-generated-8310898_1280.jpg"
    },
    {
        "id": "4648557",
        "src640": "https://cdn.pixabay.com/photo/2019/11/24/04/48/vietnamese-4648557_640.jpg",
        "src1280": "https://cdn.pixabay.com/photo/2019/11/24/04/48/vietnamese-4648557_1280.jpg"
    },
    {
        "id": "3686368",
        "src640": "https://cdn.pixabay.com/photo/2018/09/18/14/57/girl-3686368_640.jpg",
        "src1280": "https://cdn.pixabay.com/photo/2018/09/18/14/57/girl-3686368_1280.jpg"
    },
    {
        "id": "4601990",
        "src640": "https://cdn.pixabay.com/photo/2019/11/04/19/43/bench-4601990_640.jpg",
        "src1280": "https://cdn.pixabay.com/photo/2019/11/04/19/43/bench-4601990_1280.jpg"
    },
    {
        "id": "5486724",
        "src640": "https://cdn.pixabay.com/photo/2020/08/14/01/24/woman-5486724_640.jpg",
        "src1280": "https://cdn.pixabay.com/photo/2020/08/14/01/24/woman-5486724_1280.jpg"
    },
    {
        "id": "6391219",
        "src640": "https://cdn.pixabay.com/photo/2021/07/06/10/37/woman-6391219_640.jpg",
        "src1280": "https://cdn.pixabay.com/photo/2021/07/06/10/37/woman-6391219_1280.jpg"
    },
    {
        "id": "6597678",
        "src640": "https://cdn.pixabay.com/photo/2021/09/04/12/34/woman-6597678_640.jpg",
        "src1280": "https://cdn.pixabay.com/photo/2021/09/04/12/34/woman-6597678_1280.jpg"
    },
    {
        "id": "4648562",
        "src640": "https://cdn.pixabay.com/photo/2019/11/24/04/48/vietnamese-4648562_640.jpg",
        "src1280": "https://cdn.pixabay.com/photo/2019/11/24/04/48/vietnamese-4648562_1280.jpg"
    },
    {
        "id": "7213876",
        "src640": "https://cdn.pixabay.com/photo/2022/05/22/16/36/woman-7213876_640.jpg",
        "src1280": "https://cdn.pixabay.com/photo/2022/05/22/16/36/woman-7213876_1280.jpg"
    },
    {
        "id": "6527700",
        "src640": "https://cdn.pixabay.com/photo/2021/08/07/03/34/woman-6527700_640.jpg",
        "src1280": "https://cdn.pixabay.com/photo/2021/08/07/03/34/woman-6527700_1280.jpg"
    },
    {
        "id": "5071168",
        "src640": "https://cdn.pixabay.com/photo/2020/04/21/06/01/red-dress-5071168_640.jpg",
        "src1280": "https://cdn.pixabay.com/photo/2020/04/21/06/01/red-dress-5071168_1280.jpg"
    },
    {
        "id": "7978360",
        "src640": "https://cdn.pixabay.com/photo/2023/05/08/11/19/flowers-7978360_640.jpg",
        "src1280": "https://cdn.pixabay.com/photo/2023/05/08/11/19/flowers-7978360_1280.jpg"
    },
    {
        "id": "8071179",
        "src640": "https://cdn.pixabay.com/photo/2023/06/18/04/02/woman-8071179_640.jpg",
        "src1280": "https://cdn.pixabay.com/photo/2023/06/18/04/02/woman-8071179_1280.jpg"
    },
    {
        "id": "7970153",
        "src640": "https://cdn.pixabay.com/photo/2023/05/04/13/48/woman-7970153_640.jpg",
        "src1280": "https://cdn.pixabay.com/photo/2023/05/04/13/48/woman-7970153_1280.jpg"
    },
    {
        "id": "7536583",
        "src640": "https://cdn.pixabay.com/photo/2022/10/21/09/05/fashion-7536583_640.jpg",
        "src1280": "https://cdn.pixabay.com/photo/2022/10/21/09/05/fashion-7536583_1280.jpg"
    },
    {
        "id": "7602274",
        "src640": "https://cdn.pixabay.com/photo/2022/11/19/14/50/woman-7602274_640.jpg",
        "src1280": "https://cdn.pixabay.com/photo/2022/11/19/14/50/woman-7602274_1280.jpg"
    },
    {
        "id": "4652185",
        "src640": "https://cdn.pixabay.com/photo/2019/11/25/14/25/photography-4652185_640.jpg",
        "src1280": "https://cdn.pixabay.com/photo/2019/11/25/14/25/photography-4652185_1280.jpg"
    },
    {
        "id": "8170063",
        "src640": "https://cdn.pixabay.com/photo/2023/08/04/23/02/ai-generated-8170063_640.jpg",
        "src1280": "https://cdn.pixabay.com/photo/2023/08/04/23/02/ai-generated-8170063_1280.jpg"
    },
    {
        "id": "4785543",
        "src640": "https://cdn.pixabay.com/photo/2020/01/22/15/12/white-4785543_640.jpg",
        "src1280": "https://cdn.pixabay.com/photo/2020/01/22/15/12/white-4785543_1280.jpg"
    },
    {
        "id": "7963476",
        "src640": "https://cdn.pixabay.com/photo/2023/05/01/17/15/ai-generated-7963476_640.jpg",
        "src1280": "https://cdn.pixabay.com/photo/2023/05/01/17/15/ai-generated-7963476_1280.jpg"
    },
    {
        "id": "4726655",
        "src640": "https://cdn.pixabay.com/photo/2019/12/29/10/17/girl-4726655_640.jpg",
        "src1280": "https://cdn.pixabay.com/photo/2019/12/29/10/17/girl-4726655_1280.jpg"
    },
    {
        "id": "1718605",
        "src640": "https://cdn.pixabay.com/photo/2016/10/06/09/35/fashion-1718605_640.jpg",
        "src1280": "https://cdn.pixabay.com/photo/2016/10/06/09/35/fashion-1718605_1280.jpg"
    },
    {
        "id": "4634524",
        "src640": "https://cdn.pixabay.com/photo/2019/11/18/10/44/cape-4634524_640.jpg",
        "src1280": "https://cdn.pixabay.com/photo/2019/11/18/10/44/cape-4634524_1280.jpg"
    },
    {
        "id": "4785521",
        "src640": "https://cdn.pixabay.com/photo/2020/01/22/15/10/pants-4785521_640.jpg",
        "src1280": "https://cdn.pixabay.com/photo/2020/01/22/15/10/pants-4785521_1280.jpg"
    },
    {
        "id": "6135765",
        "src640": "https://cdn.pixabay.com/photo/2021/03/30/03/09/ao-dai-6135765_640.jpg",
        "src1280": "https://cdn.pixabay.com/photo/2021/03/30/03/09/ao-dai-6135765_1280.jpg"
    }
]