[
    {
        "id": "3083453",
        "src640": "https://cdn.pixabay.com/photo/2018/01/15/08/34/woman-3083453_640.jpg",
        "src1280": "https://cdn.pixabay.com/photo/2018/01/15/08/34/woman-3083453_1280.jpg"
    },
    {
        "id": "5828786",
        "src640": "https://cdn.pixabay.com/photo/2020/12/13/16/37/woman-5828786_640.jpg",
        "src1280": "https://cdn.pixabay.com/photo/2020/12/13/16/37/woman-5828786_1280.jpg"
    },
    {
        "id": "1141279",
        "src640": "https://cdn.pixabay.com/photo/2016/01/15/08/02/girl-1141279_640.jpg",
        "src1280": "https://cdn.pixabay.com/photo/2016/01/15/08/02/girl-1141279_1280.jpg"
    },
    {
        "id": "1293658",
        "src640": "https://cdn.pixabay.com/photo/2016/03/31/17/17/woman-1293658_640.jpg",
        "src1280": "https://cdn.pixabay.com/photo/2016/03/31/17/17/woman-1293658_1280.jpg"
    },
    {
        "id": "564460",
        "src640": "https://cdn.pixabay.com/photo/2014/12/11/18/05/girl-564460_640.jpg",
        "src1280": "https://cdn.pixabay.com/photo/2014/12/11/18/05/girl-564460_1280.jpg"
    },
    {
        "id": "597173",
        "src640": "https://cdn.pixabay.com/photo/2015/01/12/10/44/woman-597173_640.jpg",
        "src1280": "https://cdn.pixabay.com/photo/2015/01/12/10/44/woman-597173_1280.jpg"
    },
    {
        "id": "3353711",
        "src640": "https://cdn.pixabay.com/photo/2018/04/27/04/06/woman-3353711_640.jpg",
        "src1280": "https://cdn.pixabay.com/photo/2018/04/27/04/06/woman-3353711_1280.jpg"
    },
    {
        "id": "716592",
        "src640": "https://cdn.pixabay.com/photo/2015/04/10/17/09/woman-716592_640.jpg",
        "src1280": "https://cdn.pixabay.com/photo/2015/04/10/17/09/woman-716592_1280.jpg"
    },
    {
        "id": "2363819",
        "src640": "https://cdn.pixabay.com/photo/2017/06/01/16/08/woman-2363819_640.jpg",
        "src1280": "https://cdn.pixabay.com/photo/2017/06/01/16/08/woman-2363819_1280.jpg"
    },
    {
        "id": "6466382",
        "src640": "https://cdn.pixabay.com/photo/2021/07/14/15/43/woman-6466382_640.jpg",
        "src1280": "https://cdn.pixabay.com/photo/2021/07/14/15/43/woman-6466382_1280.jpg"
    },
    {
        "id": "1838768",
        "src640": "https://cdn.pixabay.com/photo/2016/11/19/11/33/women-1838768_640.jpg",
        "src1280": "https://cdn.pixabay.com/photo/2016/11/19/11/33/women-1838768_1280.jpg"
    },
    {
        "id": "6771288",
        "src640": "https://cdn.pixabay.com/photo/2021/11/05/12/27/woman-6771288_640.jpg",
        "src1280": "https://cdn.pixabay.com/photo/2021/11/05/12/27/woman-6771288_1280.jpg"
    },
    {
        "id": "828395",
        "src640": "https://cdn.pixabay.com/photo/2015/07/02/05/28/portrait-828395_640.jpg",
        "src1280": "https://cdn.pixabay.com/photo/2015/07/02/05/28/portrait-828395_1280.jpg"
    },
    {
        "id": "5815354",
        "src640": "https://cdn.pixabay.com/photo/2020/12/08/19/12/woman-5815354_640.jpg",
        "src1280": "https://cdn.pixabay.com/photo/2020/12/08/19/12/woman-5815354_1280.jpg"
    },
    {
        "id": "636021",
        "src640": "https://cdn.pixabay.com/photo/2015/02/14/02/20/wedding-636021_640.jpg",
        "src1280": "https://cdn.pixabay.com/photo/2015/02/14/02/20/wedding-636021_1280.jpg"
    },
    {
        "id": "6588615",
        "src640": "https://cdn.pixabay.com/photo/2021/08/31/11/59/androgynous-6588615_640.jpg",
        "src1280": "https://cdn.pixabay.com/photo/2021/08/31/11/59/androgynous-6588615_1280.jpg"
    },
    {
        "id": "510441",
        "src640": "https://cdn.pixabay.com/photo/2014/10/31/07/05/young-girl-510441_640.jpg",
        "src1280": "https://cdn.pixabay.com/photo/2014/10/31/07/05/young-girl-510441_1280.jpg"
    },
    {
        "id": "7633843",
        "src640": "https://cdn.pixabay.com/photo/2022/12/04/07/03/woman-7633843_640.jpg",
        "src1280": "https://cdn.pixabay.com/photo/2022/12/04/07/03/woman-7633843_1280.jpg"
    },
    {
        "id": "4773351",
        "src640": "https://cdn.pixabay.com/photo/2020/01/17/16/26/portrait-4773351_640.jpg",
        "src1280": "https://cdn.pixabay.com/photo/2020/01/17/16/26/portrait-4773351_1280.jpg"
    },
    {
        "id": "2150882",
        "src640": "https://cdn.pixabay.com/photo/2017/03/17/04/08/woman-2150882_640.jpg",
        "src1280": "https://cdn.pixabay.com/photo/2017/03/17/04/08/woman-2150882_1280.jpg"
    },
    {
        "id": "7404948",
        "src640": "https://cdn.pixabay.com/photo/2022/08/23/04/12/vietnamese-woman-7404948_640.jpg",
        "src1280": "https://cdn.pixabay.com/photo/2022/08/23/04/12/vietnamese-woman-7404948_1280.jpg"
    },
    {
        "id": "6255516",
        "src640": "https://cdn.pixabay.com/photo/2021/05/15/10/59/fashion-6255516_640.jpg",
        "src1280": "https://cdn.pixabay.com/photo/2021/05/15/10/59/fashion-6255516_1280.jpg"
    },
    {
        "id": "1840538",
        "src640": "https://cdn.pixabay.com/photo/2016/11/19/17/45/woman-1840538_640.jpg",
        "src1280": "https://cdn.pixabay.com/photo/2016/11/19/17/45/woman-1840538_1280.jpg"
    },
    {
        "id": "1868459",
        "src640": "https://cdn.pixabay.com/photo/2016/11/29/08/34/woman-1868459_640.jpg",
        "src1280": "https://cdn.pixabay.com/photo/2016/11/29/08/34/woman-1868459_1280.jpg"
    },
    {
        "id": "1486256",
        "src640": "https://cdn.pixabay.com/photo/2016/06/29/08/41/wedding-dresses-1486256_640.jpg",
        "src1280": "https://cdn.pixabay.com/photo/2016/06/29/08/41/wedding-dresses-1486256_1280.jpg"
    },
    {
        "id": "4266713",
        "src640": "https://cdn.pixabay.com/photo/2019/06/11/10/57/woman-4266713_640.jpg",
        "src1280": "https://cdn.pixabay.com/photo/2019/06/11/10/57/woman-4266713_1280.jpg"
    },
    {
        "id": "2408569",
        "src640": "https://cdn.pixabay.com/photo/2017/06/16/10/14/underwater-2408569_640.jpg",
        "src1280": "https://cdn.pixabay.com/photo/2017/06/16/10/14/underwater-2408569_1280.jpg"
    },
    {
        "id": "1486260",
        "src640": "https://cdn.pixabay.com/photo/2016/06/29/08/42/wedding-dress-1486260_640.jpg",
        "src1280": "https://cdn.pixabay.com/photo/2016/06/29/08/42/wedding-dress-1486260_1280.jpg"
    },
    {
        "id": "6466907",
        "src640": "https://cdn.pixabay.com/photo/2021/07/14/19/18/woman-6466907_640.jpg",
        "src1280": "https://cdn.pixabay.com/photo/2021/07/14/19/18/woman-6466907_1280.jpg"
    },
    {
        "id": "4290853",
        "src640": "https://cdn.pixabay.com/photo/2019/06/22/05/29/woman-4290853_640.jpg",
        "src1280": "https://cdn.pixabay.com/photo/2019/06/22/05/29/woman-4290853_1280.jpg"
    },
    {
        "id": "487065",
        "src640": "https://cdn.pixabay.com/photo/2014/10/13/18/10/girl-487065_640.jpg",
        "src1280": "https://cdn.pixabay.com/photo/2014/10/13/18/10/girl-487065_1280.jpg"
    },
    {
        "id": "1712590",
        "src640": "https://cdn.pixabay.com/photo/2016/10/03/19/30/freedom-1712590_640.jpg",
        "src1280": "https://cdn.pixabay.com/photo/2016/10/03/19/30/freedom-1712590_1280.jpg"
    },
    {
        "id": "6670772",
        "src640": "https://cdn.pixabay.com/photo/2021/09/30/18/26/woman-6670772_640.jpg",
        "src1280": "https://cdn.pixabay.com/photo/2021/09/30/18/26/woman-6670772_1280.jpg"
    },
    {
        "id": "1284030",
        "src640": "https://cdn.pixabay.com/photo/2016/03/27/19/57/cold-1284030_640.jpg",
        "src1280": "https://cdn.pixabay.com/photo/2016/03/27/19/57/cold-1284030_1280.jpg"
    },
    {
        "id": "4390055",
        "src640": "https://cdn.pixabay.com/photo/2019/08/07/07/05/woman-4390055_640.jpg",
        "src1280": "https://cdn.pixabay.com/photo/2019/08/07/07/05/woman-4390055_1280.jpg"
    },
    {
        "id": "6115105",
        "src640": "https://cdn.pixabay.com/photo/2021/03/22/16/07/woman-6115105_640.jpg",
        "src1280": "https://cdn.pixabay.com/photo/2021/03/22/16/07/woman-6115105_1280.jpg"
    },
    {
        "id": "5679284",
        "src640": "https://cdn.pixabay.com/photo/2020/10/23/16/50/woman-5679284_640.jpg",
        "src1280": "https://cdn.pixabay.com/photo/2020/10/23/16/50/woman-5679284_1280.jpg"
    },
    {
        "id": "2178816",
        "src640": "https://cdn.pixabay.com/photo/2017/03/27/13/43/woman-2178816_640.jpg",
        "src1280": "https://cdn.pixabay.com/photo/2017/03/27/13/43/woman-2178816_1280.jpg"
    },
    {
        "id": "487067",
        "src640": "https://cdn.pixabay.com/photo/2014/10/13/18/10/woman-487067_640.jpg",
        "src1280": "https://cdn.pixabay.com/photo/2014/10/13/18/10/woman-487067_1280.jpg"
    },
    {
        "id": "6356536",
        "src640": "https://cdn.pixabay.com/photo/2021/06/22/16/04/beauty-6356536_640.jpg",
        "src1280": "https://cdn.pixabay.com/photo/2021/06/22/16/04/beauty-6356536_1280.jpg"
    },
    {
        "id": "3083516",
        "src640": "https://cdn.pixabay.com/photo/2018/01/15/09/17/woman-3083516_640.jpg",
        "src1280": "https://cdn.pixabay.com/photo/2018/01/15/09/17/woman-3083516_1280.jpg"
    },
    {
        "id": "1745048",
        "src640": "https://cdn.pixabay.com/photo/2016/10/16/12/28/mehndi-designs-1745048_640.jpg",
        "src1280": "https://cdn.pixabay.com/photo/2016/10/16/12/28/mehndi-designs-1745048_1280.jpg"
    },
    {
        "id": "3881133",
        "src640": "https://cdn.pixabay.com/photo/2018/12/17/19/46/woman-3881133_640.jpg",
        "src1280": "https://cdn.pixabay.com/photo/2018/12/17/19/46/woman-3881133_1280.jpg"
    },
    {
        "id": "1846490",
        "src640": "https://cdn.pixabay.com/photo/2016/11/21/17/03/girl-1846490_640.jpg",
        "src1280": "https://cdn.pixabay.com/photo/2016/11/21/17/03/girl-1846490_1280.jpg"
    },
    {
        "id": "7931381",
        "src640": "https://cdn.pixabay.com/photo/2023/04/17/00/06/vietnam-7931381_640.jpg",
        "src1280": "https://cdn.pixabay.com/photo/2023/04/17/00/06/vietnam-7931381_1280.jpg"
    },
    {
        "id": "4820889",
        "src640": "https://cdn.pixabay.com/photo/2020/02/05/11/06/woman-4820889_640.jpg",
        "src1280": "https://cdn.pixabay.com/photo/2020/02/05/11/06/woman-4820889_1280.jpg"
    },
    {
        "id": "3584435",
        "src640": "https://cdn.pixabay.com/photo/2018/08/04/20/48/woman-3584435_640.jpg",
        "src1280": "https://cdn.pixabay.com/photo/2018/08/04/20/48/woman-3584435_1280.jpg"
    },
    {
        "id": "6588614",
        "src640": "https://cdn.pixabay.com/photo/2021/08/31/11/58/woman-6588614_640.jpg",
        "src1280": "https://cdn.pixabay.com/photo/2021/08/31/11/58/woman-6588614_1280.jpg"
    },
    {
        "id": "1547507",
        "src640": "https://cdn.pixabay.com/photo/2016/07/28/10/45/woman-1547507_640.jpg",
        "src1280": "https://cdn.pixabay.com/photo/2016/07/28/10/45/woman-1547507_1280.jpg"
    },
    {
        "id": "1866572",
        "src640": "https://cdn.pixabay.com/photo/2016/11/29/01/34/man-1866572_640.jpg",
        "src1280": "https://cdn.pixabay.com/photo/2016/11/29/01/34/man-1866572_1280.jpg"
    },
    {
        "id": "1721069",
        "src640": "https://cdn.pixabay.com/photo/2016/10/07/08/56/woman-1721069_640.jpg",
        "src1280": "https://cdn.pixabay.com/photo/2016/10/07/08/56/woman-1721069_1280.jpg"
    },
    {
        "id": "515518",
        "src640": "https://cdn.pixabay.com/photo/2014/11/03/17/50/man-515518_640.jpg",
        "src1280": "https://cdn.pixabay.com/photo/2014/11/03/17/50/man-515518_1280.jpg"
    },
    {
        "id": "1134567",
        "src640": "https://cdn.pixabay.com/photo/2016/01/11/23/05/girl-1134567_640.jpg",
        "src1280": "https://cdn.pixabay.com/photo/2016/01/11/23/05/girl-1134567_1280.jpg"
    },
    {
        "id": "429242",
        "src640": "https://cdn.pixabay.com/photo/2014/08/27/15/15/model-429242_640.jpg",
        "src1280": "https://cdn.pixabay.com/photo/2014/08/27/15/15/model-429242_1280.jpg"
    },
    {
        "id": "2416039",
        "src640": "https://cdn.pixabay.com/photo/2017/06/18/14/47/bindi-2416039_640.jpg",
        "src1280": "https://cdn.pixabay.com/photo/2017/06/18/14/47/bindi-2416039_1280.jpg"
    },
    {
        "id": "5539094",
        "src640": "https://cdn.pixabay.com/photo/2020/09/02/18/03/girl-5539094_640.jpg",
        "src1280": "https://cdn.pixabay.com/photo/2020/09/02/18/03/girl-5539094_1280.jpg"
    },
    {
        "id": "2233820",
        "src640": "https://cdn.pixabay.com/photo/2017/04/16/01/53/woman-2233820_640.jpg",
        "src1280": "https://cdn.pixabay.com/photo/2017/04/16/01/53/woman-2233820_1280.jpg"
    },
    {
        "id": "2498663",
        "src640": "https://cdn.pixabay.com/photo/2017/07/12/22/51/model-2498663_640.jpg",
        "src1280": "https://cdn.pixabay.com/photo/2017/07/12/22/51/model-2498663_1280.jpg"
    },
    {
        "id": "3059143",
        "src640": "https://cdn.pixabay.com/photo/2018/01/03/19/54/fashion-3059143_640.jpg",
        "src1280": "https://cdn.pixabay.com/photo/2018/01/03/19/54/fashion-3059143_1280.jpg"
    },
    {
        "id": "5805574",
        "src640": "https://cdn.pixabay.com/photo/2020/12/05/10/31/woman-5805574_640.jpg",
        "src1280": "https://cdn.pixabay.com/photo/2020/12/05/10/31/woman-5805574_1280.jpg"
    },
    {
        "id": "6496881",
        "src640": "https://cdn.pixabay.com/photo/2021/07/27/13/40/woman-6496881_640.jpg",
        "src1280": "https://cdn.pixabay.com/photo/2021/07/27/13/40/woman-6496881_1280.jpg"
    },
    {
        "id": "1867297",
        "src640": "https://cdn.pixabay.com/photo/2016/11/29/04/23/little-girl-1867297_640.jpg",
        "src1280": "https://cdn.pixabay.com/photo/2016/11/29/04/23/little-girl-1867297_1280.jpg"
    },
    {
        "id": "5083690",
        "src640": "https://cdn.pixabay.com/photo/2020/04/23/19/15/face-5083690_640.jpg",
        "src1280": "https://cdn.pixabay.com/photo/2020/04/23/19/15/face-5083690_1280.jpg"
    },
    {
        "id": "1486242",
        "src640": "https://cdn.pixabay.com/photo/2016/06/29/08/38/woman-1486242_640.jpg",
        "src1280": "https://cdn.pixabay.com/photo/2016/06/29/08/38/woman-1486242_1280.jpg"
    },
    {
        "id": "6706267",
        "src640": "https://cdn.pixabay.com/photo/2021/10/13/11/29/girl-6706267_640.jpg",
        "src1280": "https://cdn.pixabay.com/photo/2021/10/13/11/29/girl-6706267_1280.jpg"
    },
    {
        "id": "6537397",
        "src640": "https://cdn.pixabay.com/photo/2021/08/11/04/18/woman-6537397_640.jpg",
        "src1280": "https://cdn.pixabay.com/photo/2021/08/11/04/18/woman-6537397_1280.jpg"
    },
    {
        "id": "842141",
        "src640": "https://cdn.pixabay.com/photo/2015/07/12/16/25/woman-842141_640.jpg",
        "src1280": "https://cdn.pixabay.com/photo/2015/07/12/16/25/woman-842141_1280.jpg"
    },
    {
        "id": "2406963",
        "src640": "https://cdn.pixabay.com/photo/2017/06/15/22/05/woman-2406963_640.jpg",
        "src1280": "https://cdn.pixabay.com/photo/2017/06/15/22/05/woman-2406963_1280.jpg"
    },
    {
        "id": "1819586",
        "src640": "https://cdn.pixabay.com/photo/2016/11/12/20/00/under-water-1819586_640.jpg",
        "src1280": "https://cdn.pixabay.com/photo/2016/11/12/20/00/under-water-1819586_1280.jpg"
    },
    {
        "id": "1333640",
        "src640": "https://cdn.pixabay.com/photo/2016/04/16/19/51/girl-1333640_640.jpg",
        "src1280": "https://cdn.pixabay.com/photo/2016/04/16/19/51/girl-1333640_1280.jpg"
    },
    {
        "id": "3179178",
        "src640": "https://cdn.pixabay.com/photo/2018/02/24/20/40/fashion-3179178_640.jpg",
        "src1280": "https://cdn.pixabay.com/photo/2018/02/24/20/40/fashion-3179178_1280.jpg"
    },
    {
        "id": "2072907",
        "src640": "https://cdn.pixabay.com/photo/2017/02/16/23/10/smile-2072907_640.jpg",
        "src1280": "https://cdn.pixabay.com/photo/2017/02/16/23/10/smile-2072907_1280.jpg"
    },
    {
        "id": "1754895",
        "src640": "https://cdn.pixabay.com/photo/2016/10/20/08/36/woman-1754895_640.jpg",
        "src1280": "https://cdn.pixabay.com/photo/2016/10/20/08/36/woman-1754895_1280.jpg"
    },
    {
        "id": "574232",
        "src640": "https://cdn.pixabay.com/photo/2014/12/20/18/22/woman-574232_640.jpg",
        "src1280": "https://cdn.pixabay.com/photo/2014/12/20/18/22/woman-574232_1280.jpg"
    },
    {
        "id": "1462985",
        "src640": "https://cdn.pixabay.com/photo/2016/06/17/09/54/woman-1462985_640.jpg",
        "src1280": "https://cdn.pixabay.com/photo/2016/06/17/09/54/woman-1462985_1280.jpg"
    },
    {
        "id": "3157027",
        "src640": "https://cdn.pixabay.com/photo/2018/02/16/06/11/fashion-3157027_640.jpg",
        "src1280": "https://cdn.pixabay.com/photo/2018/02/16/06/11/fashion-3157027_1280.jpg"
    },
    {
        "id": "3567600",
        "src640": "https://cdn.pixabay.com/photo/2018/07/28/09/23/woman-3567600_640.jpg",
        "src1280": "https://cdn.pixabay.com/photo/2018/07/28/09/23/woman-3567600_1280.jpg"
    },
    {
        "id": "3153999",
        "src640": "https://cdn.pixabay.com/photo/2018/02/14/21/45/woman-3153999_640.jpg",
        "src1280": "https://cdn.pixabay.com/photo/2018/02/14/21/45/woman-3153999_1280.jpg"
    },
    {
        "id": "4605248",
        "src640": "https://cdn.pixabay.com/photo/2019/11/06/05/57/woman-4605248_640.jpg",
        "src1280": "https://cdn.pixabay.com/photo/2019/11/06/05/57/woman-4605248_1280.jpg"
    },
    {
        "id": "875617",
        "src640": "https://cdn.pixabay.com/photo/2015/08/05/04/25/people-875617_640.jpg",
        "src1280": "https://cdn.pixabay.com/photo/2015/08/05/04/25/people-875617_1280.jpg"
    },
    {
        "id": "1846475",
        "src640": "https://cdn.pixabay.com/photo/2016/11/21/17/01/woman-1846475_640.jpg",
        "src1280": "https://cdn.pixabay.com/photo/2016/11/21/17/01/woman-1846475_1280.jpg"
    },
    {
        "id": "6771981",
        "src640": "https://cdn.pixabay.com/photo/2021/11/05/20/41/woman-6771981_640.jpg",
        "src1280": "https://cdn.pixabay.com/photo/2021/11/05/20/41/woman-6771981_1280.jpg"
    },
    {
        "id": "2322835",
        "src640": "https://cdn.pixabay.com/photo/2017/05/18/08/05/water-2322835_640.jpg",
        "src1280": "https://cdn.pixabay.com/photo/2017/05/18/08/05/water-2322835_1280.jpg"
    },
    {
        "id": "5590119",
        "src640": "https://cdn.pixabay.com/photo/2020/09/21/13/38/woman-5590119_640.jpg",
        "src1280": "https://cdn.pixabay.com/photo/2020/09/21/13/38/woman-5590119_1280.jpg"
    },
    {
        "id": "6715054",
        "src640": "https://cdn.pixabay.com/photo/2021/10/16/13/32/woman-6715054_640.jpg",
        "src1280": "https://cdn.pixabay.com/photo/2021/10/16/13/32/woman-6715054_1280.jpg"
    },
    {
        "id": "1845578",
        "src640": "https://cdn.pixabay.com/photo/2016/11/21/14/04/beautiful-1845578_640.jpg",
        "src1280": "https://cdn.pixabay.com/photo/2016/11/21/14/04/beautiful-1845578_1280.jpg"
    },
    {
        "id": "4642701",
        "src640": "https://cdn.pixabay.com/photo/2019/11/21/15/00/woman-4642701_640.jpg",
        "src1280": "https://cdn.pixabay.com/photo/2019/11/21/15/00/woman-4642701_1280.jpg"
    },
    {
        "id": "5835659",
        "src640": "https://cdn.pixabay.com/photo/2020/12/16/04/15/man-5835659_640.jpg",
        "src1280": "https://cdn.pixabay.com/photo/2020/12/16/04/15/man-5835659_1280.jpg"
    },
    {
        "id": "5601950",
        "src640": "https://cdn.pixabay.com/photo/2020/09/25/16/50/portrait-5601950_640.jpg",
        "src1280": "https://cdn.pixabay.com/photo/2020/09/25/16/50/portrait-5601950_1280.jpg"
    },
    {
        "id": "775053",
        "src640": "https://cdn.pixabay.com/photo/2015/05/20/09/22/teenager-775053_640.jpg",
        "src1280": "https://cdn.pixabay.com/photo/2015/05/20/09/22/teenager-775053_1280.jpg"
    },
    {
        "id": "8332162",
        "src640": "https://cdn.pixabay.com/photo/2023/10/21/18/51/woman-8332162_640.jpg",
        "src1280": "https://cdn.pixabay.com/photo/2023/10/21/18/51/woman-8332162_1280.jpg"
    },
    {
        "id": "4152274",
        "src640": "https://cdn.pixabay.com/photo/2019/04/24/14/46/woman-4152274_640.jpg",
        "src1280": "https://cdn.pixabay.com/photo/2019/04/24/14/46/woman-4152274_1280.jpg"
    }
]