[
    {
        "id": "5577292",
        "src640": "https://cdn.pixabay.com/photo/2020/09/16/19/24/painting-5577292_640.jpg",
        "src1280": "https://cdn.pixabay.com/photo/2020/09/16/19/24/painting-5577292_1280.jpg"
    },
    {
        "id": "4375666",
        "src640": "https://cdn.pixabay.com/photo/2019/07/31/17/20/woman-4375666_640.jpg",
        "src1280": "https://cdn.pixabay.com/photo/2019/07/31/17/20/woman-4375666_1280.jpg"
    },
    {
        "id": "5803000",
        "src640": "https://cdn.pixabay.com/photo/2020/12/04/12/03/woman-5803000_640.jpg",
        "src1280": "https://cdn.pixabay.com/photo/2020/12/04/12/03/woman-5803000_1280.jpg"
    },
    {
        "id": "5469359",
        "src640": "https://cdn.pixabay.com/photo/2020/08/06/23/05/man-5469359_640.jpg",
        "src1280": "https://cdn.pixabay.com/photo/2020/08/06/23/05/man-5469359_1280.jpg"
    },
    {
        "id": "567780",
        "src640": "https://cdn.pixabay.com/photo/2014/12/14/10/38/girl-567780_640.jpg",
        "src1280": "https://cdn.pixabay.com/photo/2014/12/14/10/38/girl-567780_1280.jpg"
    },
    {
        "id": "7580310",
        "src640": "https://cdn.pixabay.com/photo/2022/11/09/10/53/woman-7580310_640.jpg",
        "src1280": "https://cdn.pixabay.com/photo/2022/11/09/10/53/woman-7580310_1280.jpg"
    },
    {
        "id": "6814940",
        "src640": "https://cdn.pixabay.com/photo/2021/11/21/18/42/woman-6814940_640.jpg",
        "src1280": "https://cdn.pixabay.com/photo/2021/11/21/18/42/woman-6814940_1280.jpg"
    },
    {
        "id": "7421436",
        "src640": "https://cdn.pixabay.com/photo/2022/08/30/16/12/woman-7421436_640.jpg",
        "src1280": "https://cdn.pixabay.com/photo/2022/08/30/16/12/woman-7421436_1280.jpg"
    },
    {
        "id": "6817610",
        "src640": "https://cdn.pixabay.com/photo/2021/11/22/23/38/woman-6817610_640.jpg",
        "src1280": "https://cdn.pixabay.com/photo/2021/11/22/23/38/woman-6817610_1280.jpg"
    },
    {
        "id": "5688111",
        "src640": "https://cdn.pixabay.com/photo/2020/10/26/18/05/man-5688111_640.jpg",
        "src1280": "https://cdn.pixabay.com/photo/2020/10/26/18/05/man-5688111_1280.jpg"
    },
    {
        "id": "4472205",
        "src640": "https://cdn.pixabay.com/photo/2019/09/12/17/31/arcade-4472205_640.jpg",
        "src1280": "https://cdn.pixabay.com/photo/2019/09/12/17/31/arcade-4472205_1280.jpg"
    },
    {
        "id": "5447232",
        "src640": "https://cdn.pixabay.com/photo/2020/07/29/07/37/woman-5447232_640.jpg",
        "src1280": "https://cdn.pixabay.com/photo/2020/07/29/07/37/woman-5447232_1280.jpg"
    },
    {
        "id": "6682836",
        "src640": "https://cdn.pixabay.com/photo/2021/10/05/14/21/woman-6682836_640.jpg",
        "src1280": "https://cdn.pixabay.com/photo/2021/10/05/14/21/woman-6682836_1280.jpg"
    },
    {
        "id": "7012729",
        "src640": "https://cdn.pixabay.com/photo/2022/02/14/08/57/woman-7012729_640.jpg",
        "src1280": "https://cdn.pixabay.com/photo/2022/02/14/08/57/woman-7012729_1280.jpg"
    },
    {
        "id": "2359687",
        "src640": "https://cdn.pixabay.com/photo/2017/05/31/09/29/womens-2359687_640.jpg",
        "src1280": "https://cdn.pixabay.com/photo/2017/05/31/09/29/womens-2359687_1280.jpg"
    },
    {
        "id": "6210489",
        "src640": "https://cdn.pixabay.com/photo/2021/04/27/04/19/girls-6210489_640.jpg",
        "src1280": "https://cdn.pixabay.com/photo/2021/04/27/04/19/girls-6210489_1280.jpg"
    },
    {
        "id": "1522017",
        "src640": "https://cdn.pixabay.com/photo/2016/07/16/14/14/dress-1522017_640.jpg",
        "src1280": "https://cdn.pixabay.com/photo/2016/07/16/14/14/dress-1522017_1280.jpg"
    },
    {
        "id": "6560860",
        "src640": "https://cdn.pixabay.com/photo/2021/08/20/17/02/woman-6560860_640.jpg",
        "src1280": "https://cdn.pixabay.com/photo/2021/08/20/17/02/woman-6560860_1280.jpg"
    },
    {
        "id": "6875539",
        "src640": "https://cdn.pixabay.com/photo/2021/12/17/02/39/woman-6875539_640.jpg",
        "src1280": "https://cdn.pixabay.com/photo/2021/12/17/02/39/woman-6875539_1280.jpg"
    },
    {
        "id": "6796115",
        "src640": "https://cdn.pixabay.com/photo/2021/11/15/01/33/woman-6796115_640.jpg",
        "src1280": "https://cdn.pixabay.com/photo/2021/11/15/01/33/woman-6796115_1280.jpg"
    },
    {
        "id": "2725721",
        "src640": "https://cdn.pixabay.com/photo/2017/09/07/15/46/lady-2725721_640.jpg",
        "src1280": "https://cdn.pixabay.com/photo/2017/09/07/15/46/lady-2725721_1280.jpg"
    },
    {
        "id": "6715402",
        "src640": "https://cdn.pixabay.com/photo/2021/10/16/15/29/woman-6715402_640.jpg",
        "src1280": "https://cdn.pixabay.com/photo/2021/10/16/15/29/woman-6715402_1280.jpg"
    },
    {
        "id": "4566409",
        "src640": "https://cdn.pixabay.com/photo/2019/10/21/15/21/man-4566409_640.jpg",
        "src1280": "https://cdn.pixabay.com/photo/2019/10/21/15/21/man-4566409_1280.jpg"
    },
    {
        "id": "6784191",
        "src640": "https://cdn.pixabay.com/photo/2021/11/10/15/14/woman-6784191_640.jpg",
        "src1280": "https://cdn.pixabay.com/photo/2021/11/10/15/14/woman-6784191_1280.jpg"
    },
    {
        "id": "4026764",
        "src640": "https://cdn.pixabay.com/photo/2019/02/28/20/21/shoes-4026764_640.jpg",
        "src1280": "https://cdn.pixabay.com/photo/2019/02/28/20/21/shoes-4026764_1280.jpg"
    },
    {
        "id": "4647524",
        "src640": "https://cdn.pixabay.com/photo/2019/11/23/16/03/asian-4647524_640.jpg",
        "src1280": "https://cdn.pixabay.com/photo/2019/11/23/16/03/asian-4647524_1280.jpg"
    },
    {
        "id": "3872596",
        "src640": "https://cdn.pixabay.com/photo/2018/12/13/10/54/christmas-mood-3872596_640.jpg",
        "src1280": "https://cdn.pixabay.com/photo/2018/12/13/10/54/christmas-mood-3872596_1280.jpg"
    },
    {
        "id": "6834301",
        "src640": "https://cdn.pixabay.com/photo/2021/11/30/02/11/woman-6834301_640.jpg",
        "src1280": "https://cdn.pixabay.com/photo/2021/11/30/02/11/woman-6834301_1280.jpg"
    },
    {
        "id": "8038212",
        "src640": "https://cdn.pixabay.com/photo/2023/06/03/17/53/time-8038212_640.jpg",
        "src1280": "https://cdn.pixabay.com/photo/2023/06/03/17/53/time-8038212_1280.jpg"
    },
    {
        "id": "4765926",
        "src640": "https://cdn.pixabay.com/photo/2020/01/14/18/38/woman-4765926_640.jpg",
        "src1280": "https://cdn.pixabay.com/photo/2020/01/14/18/38/woman-4765926_1280.jpg"
    },
    {
        "id": "424810",
        "src640": "https://cdn.pixabay.com/photo/2014/08/22/22/12/jeans-424810_640.jpg",
        "src1280": "https://cdn.pixabay.com/photo/2014/08/22/22/12/jeans-424810_1280.jpg"
    },
    {
        "id": "701327",
        "src640": "https://cdn.pixabay.com/photo/2015/03/31/17/01/knee-701327_640.jpg",
        "src1280": "https://cdn.pixabay.com/photo/2015/03/31/17/01/knee-701327_1280.jpg"
    },
    {
        "id": "7067478",
        "src640": "https://cdn.pixabay.com/photo/2022/03/14/06/56/woman-7067478_640.jpg",
        "src1280": "https://cdn.pixabay.com/photo/2022/03/14/06/56/woman-7067478_1280.jpg"
    },
    {
        "id": "7773956",
        "src640": "https://cdn.pixabay.com/photo/2023/02/07/11/49/gibus-7773956_640.jpg",
        "src1280": "https://cdn.pixabay.com/photo/2023/02/07/11/49/gibus-7773956_1280.jpg"
    },
    {
        "id": "4791398",
        "src640": "https://cdn.pixabay.com/photo/2020/01/24/22/24/woman-4791398_640.jpg",
        "src1280": "https://cdn.pixabay.com/photo/2020/01/24/22/24/woman-4791398_1280.jpg"
    },
    {
        "id": "2724678",
        "src640": "https://cdn.pixabay.com/photo/2017/09/07/11/07/nobody-2724678_640.jpg",
        "src1280": "https://cdn.pixabay.com/photo/2017/09/07/11/07/nobody-2724678_1280.jpg"
    },
    {
        "id": "7729359",
        "src640": "https://cdn.pixabay.com/photo/2023/01/19/15/08/boy-7729359_640.jpg",
        "src1280": "https://cdn.pixabay.com/photo/2023/01/19/15/08/boy-7729359_1280.jpg"
    },
    {
        "id": "8211673",
        "src640": "https://cdn.pixabay.com/photo/2023/08/24/21/19/ai-generated-8211673_640.jpg",
        "src1280": "https://cdn.pixabay.com/photo/2023/08/24/21/19/ai-generated-8211673_1280.jpg"
    },
    {
        "id": "4404761",
        "src640": "https://cdn.pixabay.com/photo/2019/08/14/05/36/girl-4404761_640.jpg",
        "src1280": "https://cdn.pixabay.com/photo/2019/08/14/05/36/girl-4404761_1280.jpg"
    },
    {
        "id": "3157530",
        "src640": "https://cdn.pixabay.com/photo/2018/02/16/11/49/woman-3157530_640.jpg",
        "src1280": "https://cdn.pixabay.com/photo/2018/02/16/11/49/woman-3157530_1280.jpg"
    },
    {
        "id": "7082101",
        "src640": "https://cdn.pixabay.com/photo/2022/03/21/01/19/girl-7082101_640.jpg",
        "src1280": "https://cdn.pixabay.com/photo/2022/03/21/01/19/girl-7082101_1280.jpg"
    },
    {
        "id": "6584955",
        "src640": "https://cdn.pixabay.com/photo/2021/08/30/06/38/woman-6584955_640.jpg",
        "src1280": "https://cdn.pixabay.com/photo/2021/08/30/06/38/woman-6584955_1280.jpg"
    },
    {
        "id": "4973985",
        "src640": "https://cdn.pixabay.com/photo/2020/03/27/15/42/pink-4973985_640.jpg",
        "src1280": "https://cdn.pixabay.com/photo/2020/03/27/15/42/pink-4973985_1280.jpg"
    },
    {
        "id": "4254264",
        "src640": "https://cdn.pixabay.com/photo/2019/06/05/18/00/fashion-4254264_640.jpg",
        "src1280": "https://cdn.pixabay.com/photo/2019/06/05/18/00/fashion-4254264_1280.jpg"
    },
    {
        "id": "5579691",
        "src640": "https://cdn.pixabay.com/photo/2020/09/17/16/14/woman-5579691_640.jpg",
        "src1280": "https://cdn.pixabay.com/photo/2020/09/17/16/14/woman-5579691_1280.jpg"
    },
    {
        "id": "4071545",
        "src640": "https://cdn.pixabay.com/photo/2019/03/21/18/06/arabfashion-4071545_640.jpg",
        "src1280": "https://cdn.pixabay.com/photo/2019/03/21/18/06/arabfashion-4071545_1280.jpg"
    },
    {
        "id": "7221654",
        "src640": "https://cdn.pixabay.com/photo/2022/05/26/01/35/beautiful-model-7221654_640.jpg",
        "src1280": "https://cdn.pixabay.com/photo/2022/05/26/01/35/beautiful-model-7221654_1280.jpg"
    },
    {
        "id": "6638563",
        "src640": "https://cdn.pixabay.com/photo/2021/09/19/17/03/human-6638563_640.jpg",
        "src1280": "https://cdn.pixabay.com/photo/2021/09/19/17/03/human-6638563_1280.jpg"
    },
    {
        "id": "7946049",
        "src640": "https://cdn.pixabay.com/photo/2023/04/23/16/02/woman-7946049_640.jpg",
        "src1280": "https://cdn.pixabay.com/photo/2023/04/23/16/02/woman-7946049_1280.jpg"
    },
    {
        "id": "6937582",
        "src640": "https://cdn.pixabay.com/photo/2022/01/14/15/13/girl-6937582_640.jpg",
        "src1280": "https://cdn.pixabay.com/photo/2022/01/14/15/13/girl-6937582_1280.jpg"
    },
    {
        "id": "6591005",
        "src640": "https://cdn.pixabay.com/photo/2021/09/01/10/19/man-6591005_640.jpg",
        "src1280": "https://cdn.pixabay.com/photo/2021/09/01/10/19/man-6591005_1280.jpg"
    },
    {
        "id": "6307809",
        "src640": "https://cdn.pixabay.com/photo/2021/06/03/18/33/female-6307809_640.jpg",
        "src1280": "https://cdn.pixabay.com/photo/2021/06/03/18/33/female-6307809_1280.jpg"
    },
    {
        "id": "4346925",
        "src640": "https://cdn.pixabay.com/photo/2019/07/18/17/41/travel-4346925_640.jpg",
        "src1280": "https://cdn.pixabay.com/photo/2019/07/18/17/41/travel-4346925_1280.jpg"
    },
    {
        "id": "6569741",
        "src640": "https://cdn.pixabay.com/photo/2021/08/24/07/05/beautiful-girl-6569741_640.jpg",
        "src1280": "https://cdn.pixabay.com/photo/2021/08/24/07/05/beautiful-girl-6569741_1280.jpg"
    },
    {
        "id": "6834282",
        "src640": "https://cdn.pixabay.com/photo/2021/11/30/02/09/woman-6834282_640.jpg",
        "src1280": "https://cdn.pixabay.com/photo/2021/11/30/02/09/woman-6834282_1280.jpg"
    },
    {
        "id": "6341785",
        "src640": "https://cdn.pixabay.com/photo/2021/06/16/16/59/woman-6341785_640.jpg",
        "src1280": "https://cdn.pixabay.com/photo/2021/06/16/16/59/woman-6341785_1280.jpg"
    },
    {
        "id": "3423169",
        "src640": "https://cdn.pixabay.com/photo/2018/05/23/03/01/model-3423169_640.jpg",
        "src1280": "https://cdn.pixabay.com/photo/2018/05/23/03/01/model-3423169_1280.jpg"
    },
    {
        "id": "5802978",
        "src640": "https://cdn.pixabay.com/photo/2020/12/04/11/54/woman-5802978_640.jpg",
        "src1280": "https://cdn.pixabay.com/photo/2020/12/04/11/54/woman-5802978_1280.jpg"
    },
    {
        "id": "6740029",
        "src640": "https://cdn.pixabay.com/photo/2021/10/25/06/49/man-6740029_640.jpg",
        "src1280": "https://cdn.pixabay.com/photo/2021/10/25/06/49/man-6740029_1280.jpg"
    },
    {
        "id": "5904892",
        "src640": "https://cdn.pixabay.com/photo/2021/01/10/11/49/woman-5904892_640.jpg",
        "src1280": "https://cdn.pixabay.com/photo/2021/01/10/11/49/woman-5904892_1280.jpg"
    },
    {
        "id": "3870960",
        "src640": "https://cdn.pixabay.com/photo/2018/12/12/14/50/christmas-3870960_640.jpg",
        "src1280": "https://cdn.pixabay.com/photo/2018/12/12/14/50/christmas-3870960_1280.jpg"
    },
    {
        "id": "2998233",
        "src640": "https://cdn.pixabay.com/photo/2017/12/05/00/03/girl-2998233_640.jpg",
        "src1280": "https://cdn.pixabay.com/photo/2017/12/05/00/03/girl-2998233_1280.jpg"
    },
    {
        "id": "7981830",
        "src640": "https://cdn.pixabay.com/photo/2023/05/09/15/47/woman-7981830_640.jpg",
        "src1280": "https://cdn.pixabay.com/photo/2023/05/09/15/47/woman-7981830_1280.jpg"
    },
    {
        "id": "5453517",
        "src640": "https://cdn.pixabay.com/photo/2020/07/31/16/39/woman-5453517_640.jpg",
        "src1280": "https://cdn.pixabay.com/photo/2020/07/31/16/39/woman-5453517_1280.jpg"
    },
    {
        "id": "8129306",
        "src640": "https://cdn.pixabay.com/photo/2023/07/15/16/53/woman-8129306_640.jpg",
        "src1280": "https://cdn.pixabay.com/photo/2023/07/15/16/53/woman-8129306_1280.jpg"
    },
    {
        "id": "5898922",
        "src640": "https://cdn.pixabay.com/photo/2021/01/08/03/51/woman-5898922_640.jpg",
        "src1280": "https://cdn.pixabay.com/photo/2021/01/08/03/51/woman-5898922_1280.jpg"
    },
    {
        "id": "6858647",
        "src640": "https://cdn.pixabay.com/photo/2021/12/09/16/56/woman-6858647_640.jpg",
        "src1280": "https://cdn.pixabay.com/photo/2021/12/09/16/56/woman-6858647_1280.jpg"
    },
    {
        "id": "5073958",
        "src640": "https://cdn.pixabay.com/photo/2020/04/21/17/30/jewellery-5073958_640.jpg",
        "src1280": "https://cdn.pixabay.com/photo/2020/04/21/17/30/jewellery-5073958_1280.jpg"
    },
    {
        "id": "8096400",
        "src640": "https://cdn.pixabay.com/photo/2023/06/29/13/21/ai-generated-8096400_640.jpg",
        "src1280": "https://cdn.pixabay.com/photo/2023/06/29/13/21/ai-generated-8096400_1280.jpg"
    }
]