[
    {
        "id": "5635656",
        "src640": "https://cdn.pixabay.com/photo/2020/10/07/16/20/woman-5635656_640.jpg",
        "src1280": "https://cdn.pixabay.com/photo/2020/10/07/16/20/woman-5635656_1280.jpg"
    },
    {
        "id": "4240974",
        "src640": "https://cdn.pixabay.com/photo/2019/05/30/22/57/beauty-4240974_640.jpg",
        "src1280": "https://cdn.pixabay.com/photo/2019/05/30/22/57/beauty-4240974_1280.jpg"
    },
    {
        "id": "4957743",
        "src640": "https://cdn.pixabay.com/photo/2020/03/22/16/39/posture-4957743_640.jpg",
        "src1280": "https://cdn.pixabay.com/photo/2020/03/22/16/39/posture-4957743_1280.jpg"
    },
    {
        "id": "7080198",
        "src640": "https://cdn.pixabay.com/photo/2022/03/20/08/09/woman-7080198_640.jpg",
        "src1280": "https://cdn.pixabay.com/photo/2022/03/20/08/09/woman-7080198_1280.jpg"
    },
    {
        "id": "4704649",
        "src640": "https://cdn.pixabay.com/photo/2019/12/18/18/45/perfume-4704649_640.jpg",
        "src1280": "https://cdn.pixabay.com/photo/2019/12/18/18/45/perfume-4704649_1280.jpg"
    },
    {
        "id": "3902611",
        "src640": "https://cdn.pixabay.com/photo/2018/12/30/04/11/clothes-3902611_640.jpg",
        "src1280": "https://cdn.pixabay.com/photo/2018/12/30/04/11/clothes-3902611_1280.jpg"
    },
    {
        "id": "4953113",
        "src640": "https://cdn.pixabay.com/photo/2020/03/21/09/31/fashion-4953113_640.jpg",
        "src1280": "https://cdn.pixabay.com/photo/2020/03/21/09/31/fashion-4953113_1280.jpg"
    },
    {
        "id": "3890725",
        "src640": "https://cdn.pixabay.com/photo/2018/12/23/08/58/jewelry-3890725_640.jpg",
        "src1280": "https://cdn.pixabay.com/photo/2018/12/23/08/58/jewelry-3890725_1280.jpg"
    },
    {
        "id": "6726811",
        "src640": "https://cdn.pixabay.com/photo/2021/10/20/18/03/casualwear-6726811_640.jpg",
        "src1280": "https://cdn.pixabay.com/photo/2021/10/20/18/03/casualwear-6726811_1280.jpg"
    },
    {
        "id": "6847216",
        "src640": "https://cdn.pixabay.com/photo/2021/12/05/10/41/fashion-6847216_640.jpg",
        "src1280": "https://cdn.pixabay.com/photo/2021/12/05/10/41/fashion-6847216_1280.jpg"
    },
    {
        "id": "7891013",
        "src640": "https://cdn.pixabay.com/photo/2023/03/31/22/27/woman-7891013_640.jpg",
        "src1280": "https://cdn.pixabay.com/photo/2023/03/31/22/27/woman-7891013_1280.jpg"
    },
    {
        "id": "5303282",
        "src640": "https://cdn.pixabay.com/photo/2020/06/15/20/11/woman-5303282_640.jpg",
        "src1280": "https://cdn.pixabay.com/photo/2020/06/15/20/11/woman-5303282_1280.jpg"
    },
    {
        "id": "4618074",
        "src640": "https://cdn.pixabay.com/photo/2019/11/11/11/24/girl-4618074_640.jpg",
        "src1280": "https://cdn.pixabay.com/photo/2019/11/11/11/24/girl-4618074_1280.jpg"
    },
    {
        "id": "7299267",
        "src640": "https://cdn.pixabay.com/photo/2022/07/03/13/35/man-7299267_640.jpg",
        "src1280": "https://cdn.pixabay.com/photo/2022/07/03/13/35/man-7299267_1280.jpg"
    },
    {
        "id": "8046200",
        "src640": "https://cdn.pixabay.com/photo/2023/06/07/04/30/skirt-8046200_640.jpg",
        "src1280": "https://cdn.pixabay.com/photo/2023/06/07/04/30/skirt-8046200_1280.jpg"
    },
    {
        "id": "6913281",
        "src640": "https://cdn.pixabay.com/photo/2022/01/03/17/51/dress-6913281_640.jpg",
        "src1280": "https://cdn.pixabay.com/photo/2022/01/03/17/51/dress-6913281_1280.jpg"
    },
    {
        "id": "5497067",
        "src640": "https://cdn.pixabay.com/photo/2020/08/18/04/28/hakka-girl-5497067_640.jpg",
        "src1280": "https://cdn.pixabay.com/photo/2020/08/18/04/28/hakka-girl-5497067_1280.jpg"
    },
    {
        "id": "4925232",
        "src640": "https://cdn.pixabay.com/photo/2020/03/12/14/32/street-pat-4925232_640.jpg",
        "src1280": "https://cdn.pixabay.com/photo/2020/03/12/14/32/street-pat-4925232_1280.jpg"
    },
    {
        "id": "4056602",
        "src640": "https://cdn.pixabay.com/photo/2019/03/15/08/55/model-4056602_640.jpg",
        "src1280": "https://cdn.pixabay.com/photo/2019/03/15/08/55/model-4056602_1280.jpg"
    },
    {
        "id": "5538445",
        "src640": "https://cdn.pixabay.com/photo/2020/09/02/14/26/mehndi-5538445_640.jpg",
        "src1280": "https://cdn.pixabay.com/photo/2020/09/02/14/26/mehndi-5538445_1280.jpg"
    },
    {
        "id": "4854422",
        "src640": "https://cdn.pixabay.com/photo/2020/02/16/18/12/girl-4854422_640.jpg",
        "src1280": "https://cdn.pixabay.com/photo/2020/02/16/18/12/girl-4854422_1280.jpg"
    },
    {
        "id": "6753080",
        "src640": "https://cdn.pixabay.com/photo/2021/10/29/22/11/woman-6753080_640.jpg",
        "src1280": "https://cdn.pixabay.com/photo/2021/10/29/22/11/woman-6753080_1280.jpg"
    },
    {
        "id": "4514918",
        "src640": "https://cdn.pixabay.com/photo/2019/09/30/06/08/fashion-4514918_640.jpg",
        "src1280": "https://cdn.pixabay.com/photo/2019/09/30/06/08/fashion-4514918_1280.jpg"
    },
    {
        "id": "6487868",
        "src640": "https://cdn.pixabay.com/photo/2021/07/23/18/04/woman-6487868_640.jpg",
        "src1280": "https://cdn.pixabay.com/photo/2021/07/23/18/04/woman-6487868_1280.jpg"
    },
    {
        "id": "5072860",
        "src640": "https://cdn.pixabay.com/photo/2020/04/21/12/10/indian-5072860_640.jpg",
        "src1280": "https://cdn.pixabay.com/photo/2020/04/21/12/10/indian-5072860_1280.jpg"
    },
    {
        "id": "6749864",
        "src640": "https://cdn.pixabay.com/photo/2021/10/28/14/38/woman-6749864_640.jpg",
        "src1280": "https://cdn.pixabay.com/photo/2021/10/28/14/38/woman-6749864_1280.jpg"
    },
    {
        "id": "3736475",
        "src640": "https://cdn.pixabay.com/photo/2018/10/10/05/30/portrait-3736475_640.jpg",
        "src1280": "https://cdn.pixabay.com/photo/2018/10/10/05/30/portrait-3736475_1280.jpg"
    },
    {
        "id": "6808960",
        "src640": "https://cdn.pixabay.com/photo/2021/11/19/11/39/woman-6808960_640.jpg",
        "src1280": "https://cdn.pixabay.com/photo/2021/11/19/11/39/woman-6808960_1280.jpg"
    },
    {
        "id": "2690317",
        "src640": "https://cdn.pixabay.com/photo/2017/08/28/16/29/casual-2690317_640.jpg",
        "src1280": "https://cdn.pixabay.com/photo/2017/08/28/16/29/casual-2690317_1280.jpg"
    },
    {
        "id": "6665047",
        "src640": "https://cdn.pixabay.com/photo/2021/09/28/16/43/beautiful-girl-6665047_640.jpg",
        "src1280": "https://cdn.pixabay.com/photo/2021/09/28/16/43/beautiful-girl-6665047_1280.jpg"
    },
    {
        "id": "842474",
        "src640": "https://cdn.pixabay.com/photo/2015/07/12/21/21/lamp-842474_640.jpg",
        "src1280": "https://cdn.pixabay.com/photo/2015/07/12/21/21/lamp-842474_1280.jpg"
    },
    {
        "id": "8060069",
        "src640": "https://cdn.pixabay.com/photo/2023/06/13/06/22/woman-8060069_640.jpg",
        "src1280": "https://cdn.pixabay.com/photo/2023/06/13/06/22/woman-8060069_1280.jpg"
    },
    {
        "id": "6868748",
        "src640": "https://cdn.pixabay.com/photo/2021/12/13/17/18/woman-6868748_640.jpg",
        "src1280": "https://cdn.pixabay.com/photo/2021/12/13/17/18/woman-6868748_1280.jpg"
    },
    {
        "id": "6019673",
        "src640": "https://cdn.pixabay.com/photo/2021/02/16/02/53/man-6019673_640.jpg",
        "src1280": "https://cdn.pixabay.com/photo/2021/02/16/02/53/man-6019673_1280.jpg"
    },
    {
        "id": "2523719",
        "src640": "https://cdn.pixabay.com/photo/2017/07/20/20/55/fashion-2523719_640.jpg",
        "src1280": "https://cdn.pixabay.com/photo/2017/07/20/20/55/fashion-2523719_1280.jpg"
    },
    {
        "id": "5492854",
        "src640": "https://cdn.pixabay.com/photo/2020/08/16/14/10/heels-5492854_640.jpg",
        "src1280": "https://cdn.pixabay.com/photo/2020/08/16/14/10/heels-5492854_1280.jpg"
    },
    {
        "id": "3719115",
        "src640": "https://cdn.pixabay.com/photo/2018/10/02/15/26/portrait-3719115_640.jpg",
        "src1280": "https://cdn.pixabay.com/photo/2018/10/02/15/26/portrait-3719115_1280.jpg"
    },
    {
        "id": "4070481",
        "src640": "https://cdn.pixabay.com/photo/2019/03/21/08/30/style-4070481_640.jpg",
        "src1280": "https://cdn.pixabay.com/photo/2019/03/21/08/30/style-4070481_1280.jpg"
    },
    {
        "id": "8066154",
        "src640": "https://cdn.pixabay.com/photo/2023/06/15/17/43/woman-8066154_640.jpg",
        "src1280": "https://cdn.pixabay.com/photo/2023/06/15/17/43/woman-8066154_1280.jpg"
    },
    {
        "id": "1114742",
        "src640": "https://cdn.pixabay.com/photo/2015/12/30/20/28/train-1114742_640.jpg",
        "src1280": "https://cdn.pixabay.com/photo/2015/12/30/20/28/train-1114742_1280.jpg"
    },
    {
        "id": "5710769",
        "src640": "https://cdn.pixabay.com/photo/2020/11/03/19/56/man-5710769_640.jpg",
        "src1280": "https://cdn.pixabay.com/photo/2020/11/03/19/56/man-5710769_1280.jpg"
    },
    {
        "id": "3073899",
        "src640": "https://cdn.pixabay.com/photo/2018/01/10/13/43/mamiya-3073899_640.jpg",
        "src1280": "https://cdn.pixabay.com/photo/2018/01/10/13/43/mamiya-3073899_1280.jpg"
    },
    {
        "id": "3730610",
        "src640": "https://cdn.pixabay.com/photo/2018/10/07/16/49/portrait-3730610_640.jpg",
        "src1280": "https://cdn.pixabay.com/photo/2018/10/07/16/49/portrait-3730610_1280.jpg"
    },
    {
        "id": "3406397",
        "src640": "https://cdn.pixabay.com/photo/2018/05/16/17/13/fashion-3406397_640.jpg",
        "src1280": "https://cdn.pixabay.com/photo/2018/05/16/17/13/fashion-3406397_1280.jpg"
    },
    {
        "id": "6847217",
        "src640": "https://cdn.pixabay.com/photo/2021/12/05/10/41/fashion-6847217_640.jpg",
        "src1280": "https://cdn.pixabay.com/photo/2021/12/05/10/41/fashion-6847217_1280.jpg"
    },
    {
        "id": "6528404",
        "src640": "https://cdn.pixabay.com/photo/2021/08/07/11/14/woman-6528404_640.jpg",
        "src1280": "https://cdn.pixabay.com/photo/2021/08/07/11/14/woman-6528404_1280.jpg"
    },
    {
        "id": "1143709",
        "src640": "https://cdn.pixabay.com/photo/2016/01/16/18/01/women-1143709_640.jpg",
        "src1280": "https://cdn.pixabay.com/photo/2016/01/16/18/01/women-1143709_1280.jpg"
    },
    {
        "id": "5005905",
        "src640": "https://cdn.pixabay.com/photo/2020/04/05/12/18/parking-5005905_640.jpg",
        "src1280": "https://cdn.pixabay.com/photo/2020/04/05/12/18/parking-5005905_1280.jpg"
    },
    {
        "id": "5734001",
        "src640": "https://cdn.pixabay.com/photo/2020/11/12/01/02/woman-5734001_640.jpg",
        "src1280": "https://cdn.pixabay.com/photo/2020/11/12/01/02/woman-5734001_1280.jpg"
    },
    {
        "id": "5173130",
        "src640": "https://cdn.pixabay.com/photo/2020/05/15/10/21/tights-5173130_640.jpg",
        "src1280": "https://cdn.pixabay.com/photo/2020/05/15/10/21/tights-5173130_1280.jpg"
    },
    {
        "id": "7275018",
        "src640": "https://cdn.pixabay.com/photo/2022/06/21/03/55/woman-7275018_640.jpg",
        "src1280": "https://cdn.pixabay.com/photo/2022/06/21/03/55/woman-7275018_1280.jpg"
    },
    {
        "id": "5399010",
        "src640": "https://cdn.pixabay.com/photo/2020/07/12/23/37/woman-5399010_640.jpg",
        "src1280": "https://cdn.pixabay.com/photo/2020/07/12/23/37/woman-5399010_1280.jpg"
    },
    {
        "id": "6102670",
        "src640": "https://cdn.pixabay.com/photo/2021/03/17/15/22/fashion-6102670_640.jpg",
        "src1280": "https://cdn.pixabay.com/photo/2021/03/17/15/22/fashion-6102670_1280.jpg"
    },
    {
        "id": "6536160",
        "src640": "https://cdn.pixabay.com/photo/2021/08/10/14/56/man-6536160_640.jpg",
        "src1280": "https://cdn.pixabay.com/photo/2021/08/10/14/56/man-6536160_1280.jpg"
    },
    {
        "id": "8297491",
        "src640": "https://cdn.pixabay.com/photo/2023/10/06/05/45/ai-generated-8297491_640.jpg",
        "src1280": "https://cdn.pixabay.com/photo/2023/10/06/05/45/ai-generated-8297491_1280.jpg"
    },
    {
        "id": "6360834",
        "src640": "https://cdn.pixabay.com/photo/2021/06/24/10/56/man-6360834_640.jpg",
        "src1280": "https://cdn.pixabay.com/photo/2021/06/24/10/56/man-6360834_1280.jpg"
    },
    {
        "id": "6584957",
        "src640": "https://cdn.pixabay.com/photo/2021/08/30/06/38/woman-6584957_640.jpg",
        "src1280": "https://cdn.pixabay.com/photo/2021/08/30/06/38/woman-6584957_1280.jpg"
    },
    {
        "id": "4168684",
        "src640": "https://cdn.pixabay.com/photo/2019/04/30/14/13/girl-4168684_640.jpg",
        "src1280": "https://cdn.pixabay.com/photo/2019/04/30/14/13/girl-4168684_1280.jpg"
    },
    {
        "id": "4483382",
        "src640": "https://cdn.pixabay.com/photo/2019/09/17/12/38/fashion-4483382_640.jpg",
        "src1280": "https://cdn.pixabay.com/photo/2019/09/17/12/38/fashion-4483382_1280.jpg"
    },
    {
        "id": "5185563",
        "src640": "https://cdn.pixabay.com/photo/2020/05/18/10/24/pants-5185563_640.jpg",
        "src1280": "https://cdn.pixabay.com/photo/2020/05/18/10/24/pants-5185563_1280.jpg"
    },
    {
        "id": "5840445",
        "src640": "https://cdn.pixabay.com/photo/2020/12/17/20/07/woman-5840445_640.jpg",
        "src1280": "https://cdn.pixabay.com/photo/2020/12/17/20/07/woman-5840445_1280.jpg"
    },
    {
        "id": "6800621",
        "src640": "https://cdn.pixabay.com/photo/2021/11/16/10/24/woman-6800621_640.jpg",
        "src1280": "https://cdn.pixabay.com/photo/2021/11/16/10/24/woman-6800621_1280.jpg"
    },
    {
        "id": "2357088",
        "src640": "https://cdn.pixabay.com/photo/2017/05/30/14/08/fashion-2357088_640.jpg",
        "src1280": "https://cdn.pixabay.com/photo/2017/05/30/14/08/fashion-2357088_1280.jpg"
    },
    {
        "id": "4792225",
        "src640": "https://cdn.pixabay.com/photo/2020/01/25/11/06/jacket-4792225_640.jpg",
        "src1280": "https://cdn.pixabay.com/photo/2020/01/25/11/06/jacket-4792225_1280.jpg"
    },
    {
        "id": "4514919",
        "src640": "https://cdn.pixabay.com/photo/2019/09/30/06/08/fashion-4514919_640.jpg",
        "src1280": "https://cdn.pixabay.com/photo/2019/09/30/06/08/fashion-4514919_1280.jpg"
    },
    {
        "id": "8031671",
        "src640": "https://cdn.pixabay.com/photo/2023/05/31/15/18/woman-8031671_640.jpg",
        "src1280": "https://cdn.pixabay.com/photo/2023/05/31/15/18/woman-8031671_1280.jpg"
    },
    {
        "id": "4071531",
        "src640": "https://cdn.pixabay.com/photo/2019/03/21/18/04/arabfashion-4071531_640.jpg",
        "src1280": "https://cdn.pixabay.com/photo/2019/03/21/18/04/arabfashion-4071531_1280.jpg"
    },
    {
        "id": "5375003",
        "src640": "https://cdn.pixabay.com/photo/2020/07/06/01/32/girl-5375003_640.jpg",
        "src1280": "https://cdn.pixabay.com/photo/2020/07/06/01/32/girl-5375003_1280.jpg"
    },
    {
        "id": "4905877",
        "src640": "https://cdn.pixabay.com/photo/2020/03/06/02/01/black-4905877_640.jpg",
        "src1280": "https://cdn.pixabay.com/photo/2020/03/06/02/01/black-4905877_1280.jpg"
    },
    {
        "id": "6019681",
        "src640": "https://cdn.pixabay.com/photo/2021/02/16/02/55/man-6019681_640.jpg",
        "src1280": "https://cdn.pixabay.com/photo/2021/02/16/02/55/man-6019681_1280.jpg"
    },
    {
        "id": "2939867",
        "src640": "https://cdn.pixabay.com/photo/2017/11/11/18/19/city-2939867_640.jpg",
        "src1280": "https://cdn.pixabay.com/photo/2017/11/11/18/19/city-2939867_1280.jpg"
    },
    {
        "id": "4070478",
        "src640": "https://cdn.pixabay.com/photo/2019/03/21/08/29/girl-4070478_640.jpg",
        "src1280": "https://cdn.pixabay.com/photo/2019/03/21/08/29/girl-4070478_1280.jpg"
    },
    {
        "id": "8124906",
        "src640": "https://cdn.pixabay.com/photo/2023/07/13/13/57/girl-8124906_640.jpg",
        "src1280": "https://cdn.pixabay.com/photo/2023/07/13/13/57/girl-8124906_1280.jpg"
    },
    {
        "id": "4212522",
        "src640": "https://cdn.pixabay.com/photo/2019/05/18/20/41/girl-4212522_640.jpg",
        "src1280": "https://cdn.pixabay.com/photo/2019/05/18/20/41/girl-4212522_1280.jpg"
    },
    {
        "id": "6773791",
        "src640": "https://cdn.pixabay.com/photo/2021/11/06/16/51/woman-6773791_640.jpg",
        "src1280": "https://cdn.pixabay.com/photo/2021/11/06/16/51/woman-6773791_1280.jpg"
    },
    {
        "id": "8070089",
        "src640": "https://cdn.pixabay.com/photo/2023/06/17/14/26/woman-8070089_640.jpg",
        "src1280": "https://cdn.pixabay.com/photo/2023/06/17/14/26/woman-8070089_1280.jpg"
    },
    {
        "id": "5108689",
        "src640": "https://cdn.pixabay.com/photo/2020/04/29/12/20/jeans-5108689_640.jpg",
        "src1280": "https://cdn.pixabay.com/photo/2020/04/29/12/20/jeans-5108689_1280.jpg"
    },
    {
        "id": "6821781",
        "src640": "https://cdn.pixabay.com/photo/2021/11/24/17/45/fashion-6821781_640.jpg",
        "src1280": "https://cdn.pixabay.com/photo/2021/11/24/17/45/fashion-6821781_1280.jpg"
    },
    {
        "id": "6657899",
        "src640": "https://cdn.pixabay.com/photo/2021/09/26/14/12/woman-6657899_640.jpg",
        "src1280": "https://cdn.pixabay.com/photo/2021/09/26/14/12/woman-6657899_1280.jpg"
    },
    {
        "id": "3719725",
        "src640": "https://cdn.pixabay.com/photo/2018/10/02/19/36/woman-3719725_640.jpg",
        "src1280": "https://cdn.pixabay.com/photo/2018/10/02/19/36/woman-3719725_1280.jpg"
    },
    {
        "id": "2866731",
        "src640": "https://cdn.pixabay.com/photo/2017/10/19/07/05/friends-2866731_640.jpg",
        "src1280": "https://cdn.pixabay.com/photo/2017/10/19/07/05/friends-2866731_1280.jpg"
    },
    {
        "id": "8179246",
        "src640": "https://cdn.pixabay.com/photo/2023/08/09/11/21/ai-generated-8179246_640.jpg",
        "src1280": "https://cdn.pixabay.com/photo/2023/08/09/11/21/ai-generated-8179246_1280.jpg"
    }
]