[
    {
        "id": "6536155",
        "src640": "https://cdn.pixabay.com/photo/2021/08/10/14/56/man-6536155_640.jpg",
        "src1280": "https://cdn.pixabay.com/photo/2021/08/10/14/56/man-6536155_1280.jpg"
    },
    {
        "id": "5866609",
        "src640": "https://cdn.pixabay.com/photo/2020/12/28/10/41/man-5866609_640.jpg",
        "src1280": "https://cdn.pixabay.com/photo/2020/12/28/10/41/man-5866609_1280.jpg"
    },
    {
        "id": "6869064",
        "src640": "https://cdn.pixabay.com/photo/2021/12/13/20/41/man-6869064_640.jpg",
        "src1280": "https://cdn.pixabay.com/photo/2021/12/13/20/41/man-6869064_1280.jpg"
    },
    {
        "id": "6480747",
        "src640": "https://cdn.pixabay.com/photo/2021/07/20/13/23/boy-6480747_640.jpg",
        "src1280": "https://cdn.pixabay.com/photo/2021/07/20/13/23/boy-6480747_1280.jpg"
    },
    {
        "id": "5911486",
        "src640": "https://cdn.pixabay.com/photo/2021/01/12/13/29/women-5911486_640.jpg",
        "src1280": "https://cdn.pixabay.com/photo/2021/01/12/13/29/women-5911486_1280.jpg"
    },
    {
        "id": "7650038",
        "src640": "https://cdn.pixabay.com/photo/2022/12/12/02/50/woman-7650038_640.jpg",
        "src1280": "https://cdn.pixabay.com/photo/2022/12/12/02/50/woman-7650038_1280.jpg"
    },
    {
        "id": "6673148",
        "src640": "https://cdn.pixabay.com/photo/2021/10/01/17/44/girl-6673148_640.jpg",
        "src1280": "https://cdn.pixabay.com/photo/2021/10/01/17/44/girl-6673148_1280.jpg"
    },
    {
        "id": "7548781",
        "src640": "https://cdn.pixabay.com/photo/2022/10/26/15/23/woman-7548781_640.jpg",
        "src1280": "https://cdn.pixabay.com/photo/2022/10/26/15/23/woman-7548781_1280.jpg"
    },
    {
        "id": "7066143",
        "src640": "https://cdn.pixabay.com/photo/2022/03/13/14/22/woman-7066143_640.jpg",
        "src1280": "https://cdn.pixabay.com/photo/2022/03/13/14/22/woman-7066143_1280.jpg"
    },
    {
        "id": "6907824",
        "src640": "https://cdn.pixabay.com/photo/2022/01/01/15/20/woman-6907824_640.jpg",
        "src1280": "https://cdn.pixabay.com/photo/2022/01/01/15/20/woman-6907824_1280.jpg"
    },
    {
        "id": "166851",
        "src640": "https://cdn.pixabay.com/photo/2013/07/25/11/52/jeans-166851_640.jpg",
        "src1280": "https://cdn.pixabay.com/photo/2013/07/25/11/52/jeans-166851_1280.jpg"
    },
    {
        "id": "5927403",
        "src640": "https://cdn.pixabay.com/photo/2021/01/18/08/15/couple-5927403_640.jpg",
        "src1280": "https://cdn.pixabay.com/photo/2021/01/18/08/15/couple-5927403_1280.jpg"
    },
    {
        "id": "6582612",
        "src640": "https://cdn.pixabay.com/photo/2021/08/29/08/04/man-6582612_640.jpg",
        "src1280": "https://cdn.pixabay.com/photo/2021/08/29/08/04/man-6582612_1280.jpg"
    },
    {
        "id": "6720854",
        "src640": "https://cdn.pixabay.com/photo/2021/10/18/11/54/bride-6720854_640.jpg",
        "src1280": "https://cdn.pixabay.com/photo/2021/10/18/11/54/bride-6720854_1280.jpg"
    },
    {
        "id": "6798190",
        "src640": "https://cdn.pixabay.com/photo/2021/11/15/13/37/woman-6798190_640.jpg",
        "src1280": "https://cdn.pixabay.com/photo/2021/11/15/13/37/woman-6798190_1280.jpg"
    },
    {
        "id": "7236196",
        "src640": "https://cdn.pixabay.com/photo/2022/06/01/16/45/woman-7236196_640.jpg",
        "src1280": "https://cdn.pixabay.com/photo/2022/06/01/16/45/woman-7236196_1280.jpg"
    },
    {
        "id": "6528403",
        "src640": "https://cdn.pixabay.com/photo/2021/08/07/11/14/woman-6528403_640.jpg",
        "src1280": "https://cdn.pixabay.com/photo/2021/08/07/11/14/woman-6528403_1280.jpg"
    },
    {
        "id": "7282156",
        "src640": "https://cdn.pixabay.com/photo/2022/06/24/17/55/man-7282156_640.jpg",
        "src1280": "https://cdn.pixabay.com/photo/2022/06/24/17/55/man-7282156_1280.jpg"
    },
    {
        "id": "6589407",
        "src640": "https://cdn.pixabay.com/photo/2021/08/31/16/41/woman-6589407_640.jpg",
        "src1280": "https://cdn.pixabay.com/photo/2021/08/31/16/41/woman-6589407_1280.jpg"
    },
    {
        "id": "6930514",
        "src640": "https://cdn.pixabay.com/photo/2022/01/11/12/28/ao-dai-6930514_640.jpg",
        "src1280": "https://cdn.pixabay.com/photo/2022/01/11/12/28/ao-dai-6930514_1280.jpg"
    },
    {
        "id": "6464011",
        "src640": "https://cdn.pixabay.com/photo/2021/07/13/16/47/woman-6464011_640.jpg",
        "src1280": "https://cdn.pixabay.com/photo/2021/07/13/16/47/woman-6464011_1280.jpg"
    },
    {
        "id": "6126155",
        "src640": "https://cdn.pixabay.com/photo/2021/03/26/15/19/fashion-6126155_640.jpg",
        "src1280": "https://cdn.pixabay.com/photo/2021/03/26/15/19/fashion-6126155_1280.jpg"
    },
    {
        "id": "5765430",
        "src640": "https://cdn.pixabay.com/photo/2020/11/22/01/11/girl-5765430_640.jpg",
        "src1280": "https://cdn.pixabay.com/photo/2020/11/22/01/11/girl-5765430_1280.jpg"
    },
    {
        "id": "6385437",
        "src640": "https://cdn.pixabay.com/photo/2021/07/04/05/35/woman-6385437_640.jpg",
        "src1280": "https://cdn.pixabay.com/photo/2021/07/04/05/35/woman-6385437_1280.jpg"
    },
    {
        "id": "6834291",
        "src640": "https://cdn.pixabay.com/photo/2021/11/30/02/10/woman-6834291_640.jpg",
        "src1280": "https://cdn.pixabay.com/photo/2021/11/30/02/10/woman-6834291_1280.jpg"
    },
    {
        "id": "6130181",
        "src640": "https://cdn.pixabay.com/photo/2021/03/28/03/56/viet-phuc-6130181_640.jpg",
        "src1280": "https://cdn.pixabay.com/photo/2021/03/28/03/56/viet-phuc-6130181_1280.jpg"
    },
    {
        "id": "6494343",
        "src640": "https://cdn.pixabay.com/photo/2021/07/26/13/29/woman-6494343_640.jpg",
        "src1280": "https://cdn.pixabay.com/photo/2021/07/26/13/29/woman-6494343_1280.jpg"
    },
    {
        "id": "6597234",
        "src640": "https://cdn.pixabay.com/photo/2021/09/04/07/58/beautiful-girl-6597234_640.jpg",
        "src1280": "https://cdn.pixabay.com/photo/2021/09/04/07/58/beautiful-girl-6597234_1280.jpg"
    },
    {
        "id": "6286565",
        "src640": "https://cdn.pixabay.com/photo/2021/05/26/22/32/guy-6286565_640.jpg",
        "src1280": "https://cdn.pixabay.com/photo/2021/05/26/22/32/guy-6286565_1280.jpg"
    },
    {
        "id": "7174897",
        "src640": "https://cdn.pixabay.com/photo/2022/05/04/22/24/fashion-7174897_640.jpg",
        "src1280": "https://cdn.pixabay.com/photo/2022/05/04/22/24/fashion-7174897_1280.jpg"
    },
    {
        "id": "6493536",
        "src640": "https://cdn.pixabay.com/photo/2021/07/26/06/33/woman-6493536_640.jpg",
        "src1280": "https://cdn.pixabay.com/photo/2021/07/26/06/33/woman-6493536_1280.jpg"
    },
    {
        "id": "4483397",
        "src640": "https://cdn.pixabay.com/photo/2019/09/17/12/40/fashion-4483397_640.jpg",
        "src1280": "https://cdn.pixabay.com/photo/2019/09/17/12/40/fashion-4483397_1280.jpg"
    },
    {
        "id": "6366767",
        "src640": "https://cdn.pixabay.com/photo/2021/06/26/17/38/woman-6366767_640.jpg",
        "src1280": "https://cdn.pixabay.com/photo/2021/06/26/17/38/woman-6366767_1280.jpg"
    },
    {
        "id": "6356105",
        "src640": "https://cdn.pixabay.com/photo/2021/06/22/12/51/fashion-6356105_640.jpg",
        "src1280": "https://cdn.pixabay.com/photo/2021/06/22/12/51/fashion-6356105_1280.jpg"
    },
    {
        "id": "6834300",
        "src640": "https://cdn.pixabay.com/photo/2021/11/30/02/11/woman-6834300_640.jpg",
        "src1280": "https://cdn.pixabay.com/photo/2021/11/30/02/11/woman-6834300_1280.jpg"
    },
    {
        "id": "6816363",
        "src640": "https://cdn.pixabay.com/photo/2021/11/22/11/11/woman-6816363_640.jpg",
        "src1280": "https://cdn.pixabay.com/photo/2021/11/22/11/11/woman-6816363_1280.jpg"
    },
    {
        "id": "6488979",
        "src640": "https://cdn.pixabay.com/photo/2021/07/24/08/44/woman-6488979_640.jpg",
        "src1280": "https://cdn.pixabay.com/photo/2021/07/24/08/44/woman-6488979_1280.jpg"
    },
    {
        "id": "7536578",
        "src640": "https://cdn.pixabay.com/photo/2022/10/21/09/01/fashion-7536578_640.jpg",
        "src1280": "https://cdn.pixabay.com/photo/2022/10/21/09/01/fashion-7536578_1280.jpg"
    },
    {
        "id": "5950408",
        "src640": "https://cdn.pixabay.com/photo/2021/01/26/04/52/boy-5950408_640.jpg",
        "src1280": "https://cdn.pixabay.com/photo/2021/01/26/04/52/boy-5950408_1280.jpg"
    },
    {
        "id": "5162261",
        "src640": "https://cdn.pixabay.com/photo/2020/05/12/10/16/coronavirus-5162261_640.jpg",
        "src1280": "https://cdn.pixabay.com/photo/2020/05/12/10/16/coronavirus-5162261_1280.jpg"
    },
    {
        "id": "5882271",
        "src640": "https://cdn.pixabay.com/photo/2021/01/02/16/50/man-5882271_640.jpg",
        "src1280": "https://cdn.pixabay.com/photo/2021/01/02/16/50/man-5882271_1280.jpg"
    },
    {
        "id": "5059032",
        "src640": "https://cdn.pixabay.com/photo/2020/04/18/12/05/shoes-5059032_640.jpg",
        "src1280": "https://cdn.pixabay.com/photo/2020/04/18/12/05/shoes-5059032_1280.jpg"
    },
    {
        "id": "4440388",
        "src640": "https://cdn.pixabay.com/photo/2019/08/30/04/40/young-couple-4440388_640.jpg",
        "src1280": "https://cdn.pixabay.com/photo/2019/08/30/04/40/young-couple-4440388_1280.jpg"
    },
    {
        "id": "6930506",
        "src640": "https://cdn.pixabay.com/photo/2022/01/11/12/27/ao-dai-6930506_640.jpg",
        "src1280": "https://cdn.pixabay.com/photo/2022/01/11/12/27/ao-dai-6930506_1280.jpg"
    },
    {
        "id": "6619892",
        "src640": "https://cdn.pixabay.com/photo/2021/09/13/02/13/woman-6619892_640.jpg",
        "src1280": "https://cdn.pixabay.com/photo/2021/09/13/02/13/woman-6619892_1280.jpg"
    },
    {
        "id": "6647154",
        "src640": "https://cdn.pixabay.com/photo/2021/09/22/15/41/woman-6647154_640.jpg",
        "src1280": "https://cdn.pixabay.com/photo/2021/09/22/15/41/woman-6647154_1280.jpg"
    },
    {
        "id": "6405091",
        "src640": "https://cdn.pixabay.com/photo/2021/07/12/00/29/woman-6405091_640.jpg",
        "src1280": "https://cdn.pixabay.com/photo/2021/07/12/00/29/woman-6405091_1280.jpg"
    },
    {
        "id": "4790351",
        "src640": "https://cdn.pixabay.com/photo/2020/01/24/14/34/model-4790351_640.jpg",
        "src1280": "https://cdn.pixabay.com/photo/2020/01/24/14/34/model-4790351_1280.jpg"
    },
    {
        "id": "5937490",
        "src640": "https://cdn.pixabay.com/photo/2021/01/21/14/06/man-5937490_640.jpg",
        "src1280": "https://cdn.pixabay.com/photo/2021/01/21/14/06/man-5937490_1280.jpg"
    },
    {
        "id": "6597675",
        "src640": "https://cdn.pixabay.com/photo/2021/09/04/12/34/woman-6597675_640.jpg",
        "src1280": "https://cdn.pixabay.com/photo/2021/09/04/12/34/woman-6597675_1280.jpg"
    },
    {
        "id": "7111598",
        "src640": "https://cdn.pixabay.com/photo/2022/04/04/15/28/asian-woman-7111598_640.jpg",
        "src1280": "https://cdn.pixabay.com/photo/2022/04/04/15/28/asian-woman-7111598_1280.jpg"
    },
    {
        "id": "6488271",
        "src640": "https://cdn.pixabay.com/photo/2021/07/23/23/17/hijab-6488271_640.jpg",
        "src1280": "https://cdn.pixabay.com/photo/2021/07/23/23/17/hijab-6488271_1280.jpg"
    },
    {
        "id": "7298522",
        "src640": "https://cdn.pixabay.com/photo/2022/07/03/06/30/woman-7298522_640.jpg",
        "src1280": "https://cdn.pixabay.com/photo/2022/07/03/06/30/woman-7298522_1280.jpg"
    },
    {
        "id": "7770380",
        "src640": "https://cdn.pixabay.com/photo/2023/02/05/19/35/woman-7770380_640.jpg",
        "src1280": "https://cdn.pixabay.com/photo/2023/02/05/19/35/woman-7770380_1280.jpg"
    },
    {
        "id": "7508275",
        "src640": "https://cdn.pixabay.com/photo/2022/10/09/06/02/traditional-costume-7508275_640.jpg",
        "src1280": "https://cdn.pixabay.com/photo/2022/10/09/06/02/traditional-costume-7508275_1280.jpg"
    },
    {
        "id": "6930496",
        "src640": "https://cdn.pixabay.com/photo/2022/01/11/12/26/ao-dai-6930496_640.jpg",
        "src1280": "https://cdn.pixabay.com/photo/2022/01/11/12/26/ao-dai-6930496_1280.jpg"
    },
    {
        "id": "1025894",
        "src640": "https://cdn.pixabay.com/photo/2015/11/06/10/16/nicholas-1025894_640.jpg",
        "src1280": "https://cdn.pixabay.com/photo/2015/11/06/10/16/nicholas-1025894_1280.jpg"
    },
    {
        "id": "7428184",
        "src640": "https://cdn.pixabay.com/photo/2022/09/02/18/33/young-woman-7428184_640.jpg",
        "src1280": "https://cdn.pixabay.com/photo/2022/09/02/18/33/young-woman-7428184_1280.jpg"
    },
    {
        "id": "5265534",
        "src640": "https://cdn.pixabay.com/photo/2020/06/06/07/24/wedding-5265534_640.jpg",
        "src1280": "https://cdn.pixabay.com/photo/2020/06/06/07/24/wedding-5265534_1280.jpg"
    },
    {
        "id": "6378081",
        "src640": "https://cdn.pixabay.com/photo/2021/07/01/03/22/woman-6378081_640.jpg",
        "src1280": "https://cdn.pixabay.com/photo/2021/07/01/03/22/woman-6378081_1280.jpg"
    },
    {
        "id": "5005786",
        "src640": "https://cdn.pixabay.com/photo/2020/04/05/11/41/vietnamese-5005786_640.jpg",
        "src1280": "https://cdn.pixabay.com/photo/2020/04/05/11/41/vietnamese-5005786_1280.jpg"
    },
    {
        "id": "6915619",
        "src640": "https://cdn.pixabay.com/photo/2022/01/04/18/03/woman-6915619_640.jpg",
        "src1280": "https://cdn.pixabay.com/photo/2022/01/04/18/03/woman-6915619_1280.jpg"
    },
    {
        "id": "6287221",
        "src640": "https://cdn.pixabay.com/photo/2021/05/27/06/33/woman-6287221_640.jpg",
        "src1280": "https://cdn.pixabay.com/photo/2021/05/27/06/33/woman-6287221_1280.jpg"
    },
    {
        "id": "7014725",
        "src640": "https://cdn.pixabay.com/photo/2022/02/15/11/26/man-7014725_640.jpg",
        "src1280": "https://cdn.pixabay.com/photo/2022/02/15/11/26/man-7014725_1280.jpg"
    },
    {
        "id": "7569213",
        "src640": "https://cdn.pixabay.com/photo/2022/11/04/07/27/girl-7569213_640.jpg",
        "src1280": "https://cdn.pixabay.com/photo/2022/11/04/07/27/girl-7569213_1280.jpg"
    },
    {
        "id": "5923854",
        "src640": "https://cdn.pixabay.com/photo/2021/01/17/02/48/woman-5923854_640.jpg",
        "src1280": "https://cdn.pixabay.com/photo/2021/01/17/02/48/woman-5923854_1280.jpg"
    },
    {
        "id": "6387332",
        "src640": "https://cdn.pixabay.com/photo/2021/07/04/19/04/girl-6387332_640.jpg",
        "src1280": "https://cdn.pixabay.com/photo/2021/07/04/19/04/girl-6387332_1280.jpg"
    },
    {
        "id": "6024210",
        "src640": "https://cdn.pixabay.com/photo/2021/02/17/13/35/girl-6024210_640.jpg",
        "src1280": "https://cdn.pixabay.com/photo/2021/02/17/13/35/girl-6024210_1280.jpg"
    },
    {
        "id": "7906633",
        "src640": "https://cdn.pixabay.com/photo/2023/04/07/14/43/woman-7906633_640.jpg",
        "src1280": "https://cdn.pixabay.com/photo/2023/04/07/14/43/woman-7906633_1280.jpg"
    },
    {
        "id": "5108676",
        "src640": "https://cdn.pixabay.com/photo/2020/04/29/12/16/shoes-5108676_640.jpg",
        "src1280": "https://cdn.pixabay.com/photo/2020/04/29/12/16/shoes-5108676_1280.jpg"
    },
    {
        "id": "7323780",
        "src640": "https://cdn.pixabay.com/photo/2022/07/15/18/41/fashion-7323780_640.jpg",
        "src1280": "https://cdn.pixabay.com/photo/2022/07/15/18/41/fashion-7323780_1280.jpg"
    },
    {
        "id": "6836419",
        "src640": "https://cdn.pixabay.com/photo/2021/11/30/23/22/woman-6836419_640.jpg",
        "src1280": "https://cdn.pixabay.com/photo/2021/11/30/23/22/woman-6836419_1280.jpg"
    },
    {
        "id": "6259574",
        "src640": "https://cdn.pixabay.com/photo/2021/05/17/01/44/fashion-6259574_640.jpg",
        "src1280": "https://cdn.pixabay.com/photo/2021/05/17/01/44/fashion-6259574_1280.jpg"
    },
    {
        "id": "5998754",
        "src640": "https://cdn.pixabay.com/photo/2021/02/09/14/53/woman-5998754_640.jpg",
        "src1280": "https://cdn.pixabay.com/photo/2021/02/09/14/53/woman-5998754_1280.jpg"
    },
    {
        "id": "6619899",
        "src640": "https://cdn.pixabay.com/photo/2021/09/13/02/13/woman-6619899_640.jpg",
        "src1280": "https://cdn.pixabay.com/photo/2021/09/13/02/13/woman-6619899_1280.jpg"
    },
    {
        "id": "6359060",
        "src640": "https://cdn.pixabay.com/photo/2021/06/23/15/30/girl-6359060_640.jpg",
        "src1280": "https://cdn.pixabay.com/photo/2021/06/23/15/30/girl-6359060_1280.jpg"
    },
    {
        "id": "6376208",
        "src640": "https://cdn.pixabay.com/photo/2021/06/30/08/29/woman-6376208_640.jpg",
        "src1280": "https://cdn.pixabay.com/photo/2021/06/30/08/29/woman-6376208_1280.jpg"
    },
    {
        "id": "5899319",
        "src640": "https://cdn.pixabay.com/photo/2021/01/08/09/09/woman-5899319_640.jpg",
        "src1280": "https://cdn.pixabay.com/photo/2021/01/08/09/09/woman-5899319_1280.jpg"
    },
    {
        "id": "7970955",
        "src640": "https://cdn.pixabay.com/photo/2023/05/04/19/25/man-7970955_640.jpg",
        "src1280": "https://cdn.pixabay.com/photo/2023/05/04/19/25/man-7970955_1280.jpg"
    },
    {
        "id": "6492393",
        "src640": "https://cdn.pixabay.com/photo/2021/07/25/17/12/woman-6492393_640.jpg",
        "src1280": "https://cdn.pixabay.com/photo/2021/07/25/17/12/woman-6492393_1280.jpg"
    },
    {
        "id": "6572937",
        "src640": "https://cdn.pixabay.com/photo/2021/08/25/09/35/beautiful-girl-6572937_640.jpg",
        "src1280": "https://cdn.pixabay.com/photo/2021/08/25/09/35/beautiful-girl-6572937_1280.jpg"
    },
    {
        "id": "7441899",
        "src640": "https://cdn.pixabay.com/photo/2022/09/08/20/47/farmer-7441899_640.jpg",
        "src1280": "https://cdn.pixabay.com/photo/2022/09/08/20/47/farmer-7441899_1280.jpg"
    },
    {
        "id": "6625421",
        "src640": "https://cdn.pixabay.com/photo/2021/09/15/01/09/blindfolded-6625421_640.jpg",
        "src1280": "https://cdn.pixabay.com/photo/2021/09/15/01/09/blindfolded-6625421_1280.jpg"
    },
    {
        "id": "7361442",
        "src640": "https://cdn.pixabay.com/photo/2022/08/02/22/44/woman-7361442_640.jpg",
        "src1280": "https://cdn.pixabay.com/photo/2022/08/02/22/44/woman-7361442_1280.jpg"
    },
    {
        "id": "5134308",
        "src640": "https://cdn.pixabay.com/photo/2020/05/05/18/06/applying-5134308_640.jpg",
        "src1280": "https://cdn.pixabay.com/photo/2020/05/05/18/06/applying-5134308_1280.jpg"
    }
]