[
    {
        "id": "5072885",
        "src640": "https://cdn.pixabay.com/photo/2020/04/21/12/13/country-house-5072885_640.jpg",
        "src1280": "https://cdn.pixabay.com/photo/2020/04/21/12/13/country-house-5072885_1280.jpg"
    },
    {
        "id": "6803206",
        "src640": "https://cdn.pixabay.com/photo/2021/11/17/10/43/woman-6803206_640.jpg",
        "src1280": "https://cdn.pixabay.com/photo/2021/11/17/10/43/woman-6803206_1280.jpg"
    },
    {
        "id": "6523799",
        "src640": "https://cdn.pixabay.com/photo/2021/08/05/11/05/woman-6523799_640.jpg",
        "src1280": "https://cdn.pixabay.com/photo/2021/08/05/11/05/woman-6523799_1280.jpg"
    },
    {
        "id": "7441902",
        "src640": "https://cdn.pixabay.com/photo/2022/09/08/20/47/farmer-7441902_640.jpg",
        "src1280": "https://cdn.pixabay.com/photo/2022/09/08/20/47/farmer-7441902_1280.jpg"
    },
    {
        "id": "5173139",
        "src640": "https://cdn.pixabay.com/photo/2020/05/15/10/22/kazakh-5173139_640.jpg",
        "src1280": "https://cdn.pixabay.com/photo/2020/05/15/10/22/kazakh-5173139_1280.jpg"
    },
    {
        "id": "7576907",
        "src640": "https://cdn.pixabay.com/photo/2022/11/07/17/40/man-7576907_640.jpg",
        "src1280": "https://cdn.pixabay.com/photo/2022/11/07/17/40/man-7576907_1280.jpg"
    },
    {
        "id": "3271466",
        "src640": "https://cdn.pixabay.com/photo/2018/03/29/06/14/spider-lily-3271466_640.jpg",
        "src1280": "https://cdn.pixabay.com/photo/2018/03/29/06/14/spider-lily-3271466_1280.jpg"
    },
    {
        "id": "6619911",
        "src640": "https://cdn.pixabay.com/photo/2021/09/13/02/14/woman-6619911_640.jpg",
        "src1280": "https://cdn.pixabay.com/photo/2021/09/13/02/14/woman-6619911_1280.jpg"
    },
    {
        "id": "6538350",
        "src640": "https://cdn.pixabay.com/photo/2021/08/11/12/08/woman-6538350_640.jpg",
        "src1280": "https://cdn.pixabay.com/photo/2021/08/11/12/08/woman-6538350_1280.jpg"
    },
    {
        "id": "3847208",
        "src640": "https://cdn.pixabay.com/photo/2018/11/30/07/50/woman-3847208_640.jpg",
        "src1280": "https://cdn.pixabay.com/photo/2018/11/30/07/50/woman-3847208_1280.jpg"
    },
    {
        "id": "7745139",
        "src640": "https://cdn.pixabay.com/photo/2023/01/26/05/57/woman-7745139_640.jpg",
        "src1280": "https://cdn.pixabay.com/photo/2023/01/26/05/57/woman-7745139_1280.jpg"
    },
    {
        "id": "7729352",
        "src640": "https://cdn.pixabay.com/photo/2023/01/19/15/02/portrait-7729352_640.jpg",
        "src1280": "https://cdn.pixabay.com/photo/2023/01/19/15/02/portrait-7729352_1280.jpg"
    },
    {
        "id": "4523169",
        "src640": "https://cdn.pixabay.com/photo/2019/10/03/12/40/girl-4523169_640.jpg",
        "src1280": "https://cdn.pixabay.com/photo/2019/10/03/12/40/girl-4523169_1280.jpg"
    },
    {
        "id": "6625380",
        "src640": "https://cdn.pixabay.com/photo/2021/09/15/01/04/woman-6625380_640.jpg",
        "src1280": "https://cdn.pixabay.com/photo/2021/09/15/01/04/woman-6625380_1280.jpg"
    },
    {
        "id": "770777",
        "src640": "https://cdn.pixabay.com/photo/2015/05/17/12/04/snow-white-770777_640.jpg",
        "src1280": "https://cdn.pixabay.com/photo/2015/05/17/12/04/snow-white-770777_1280.jpg"
    },
    {
        "id": "1221916",
        "src640": "https://cdn.pixabay.com/photo/2016/02/25/12/17/model-1221916_640.jpg",
        "src1280": "https://cdn.pixabay.com/photo/2016/02/25/12/17/model-1221916_1280.jpg"
    },
    {
        "id": "5803619",
        "src640": "https://cdn.pixabay.com/photo/2020/12/04/16/15/watch-5803619_640.jpg",
        "src1280": "https://cdn.pixabay.com/photo/2020/12/04/16/15/watch-5803619_1280.jpg"
    },
    {
        "id": "6995465",
        "src640": "https://cdn.pixabay.com/photo/2022/02/05/17/59/young-man-6995465_640.jpg",
        "src1280": "https://cdn.pixabay.com/photo/2022/02/05/17/59/young-man-6995465_1280.jpg"
    },
    {
        "id": "8448551",
        "src640": "https://cdn.pixabay.com/photo/2023/12/14/09/55/model-8448551_640.jpg",
        "src1280": "https://cdn.pixabay.com/photo/2023/12/14/09/55/model-8448551_1280.jpg"
    },
    {
        "id": "7003173",
        "src640": "https://cdn.pixabay.com/photo/2022/02/09/11/17/man-7003173_640.jpg",
        "src1280": "https://cdn.pixabay.com/photo/2022/02/09/11/17/man-7003173_1280.jpg"
    },
    {
        "id": "7536579",
        "src640": "https://cdn.pixabay.com/photo/2022/10/21/09/02/fashion-7536579_640.jpg",
        "src1280": "https://cdn.pixabay.com/photo/2022/10/21/09/02/fashion-7536579_1280.jpg"
    },
    {
        "id": "6468549",
        "src640": "https://cdn.pixabay.com/photo/2021/07/15/13/53/woman-6468549_640.jpg",
        "src1280": "https://cdn.pixabay.com/photo/2021/07/15/13/53/woman-6468549_1280.jpg"
    },
    {
        "id": "6372787",
        "src640": "https://cdn.pixabay.com/photo/2021/06/28/22/50/man-6372787_640.jpg",
        "src1280": "https://cdn.pixabay.com/photo/2021/06/28/22/50/man-6372787_1280.jpg"
    },
    {
        "id": "5005782",
        "src640": "https://cdn.pixabay.com/photo/2020/04/05/11/41/vietnamese-5005782_640.jpg",
        "src1280": "https://cdn.pixabay.com/photo/2020/04/05/11/41/vietnamese-5005782_1280.jpg"
    },
    {
        "id": "7021783",
        "src640": "https://cdn.pixabay.com/photo/2022/02/19/01/48/girl-7021783_640.jpg",
        "src1280": "https://cdn.pixabay.com/photo/2022/02/19/01/48/girl-7021783_1280.jpg"
    },
    {
        "id": "5887600",
        "src640": "https://cdn.pixabay.com/photo/2021/01/04/13/50/christmas-5887600_640.jpg",
        "src1280": "https://cdn.pixabay.com/photo/2021/01/04/13/50/christmas-5887600_1280.jpg"
    },
    {
        "id": "6585663",
        "src640": "https://cdn.pixabay.com/photo/2021/08/30/12/07/woman-6585663_640.jpg",
        "src1280": "https://cdn.pixabay.com/photo/2021/08/30/12/07/woman-6585663_1280.jpg"
    },
    {
        "id": "5108697",
        "src640": "https://cdn.pixabay.com/photo/2020/04/29/12/22/fashion-5108697_640.jpg",
        "src1280": "https://cdn.pixabay.com/photo/2020/04/29/12/22/fashion-5108697_1280.jpg"
    },
    {
        "id": "5005747",
        "src640": "https://cdn.pixabay.com/photo/2020/04/05/11/39/vietnamese-5005747_640.jpg",
        "src1280": "https://cdn.pixabay.com/photo/2020/04/05/11/39/vietnamese-5005747_1280.jpg"
    },
    {
        "id": "5558735",
        "src640": "https://cdn.pixabay.com/photo/2020/09/09/21/25/model-5558735_640.jpg",
        "src1280": "https://cdn.pixabay.com/photo/2020/09/09/21/25/model-5558735_1280.jpg"
    },
    {
        "id": "6558654",
        "src640": "https://cdn.pixabay.com/photo/2021/08/19/17/52/woman-6558654_640.jpg",
        "src1280": "https://cdn.pixabay.com/photo/2021/08/19/17/52/woman-6558654_1280.jpg"
    },
    {
        "id": "6900961",
        "src640": "https://cdn.pixabay.com/photo/2021/12/29/08/29/woman-6900961_640.jpg",
        "src1280": "https://cdn.pixabay.com/photo/2021/12/29/08/29/woman-6900961_1280.jpg"
    },
    {
        "id": "7930940",
        "src640": "https://cdn.pixabay.com/photo/2023/04/16/18/52/woman-7930940_640.jpg",
        "src1280": "https://cdn.pixabay.com/photo/2023/04/16/18/52/woman-7930940_1280.jpg"
    },
    {
        "id": "3740356",
        "src640": "https://cdn.pixabay.com/photo/2018/10/11/17/27/male-3740356_640.jpg",
        "src1280": "https://cdn.pixabay.com/photo/2018/10/11/17/27/male-3740356_1280.jpg"
    },
    {
        "id": "7574922",
        "src640": "https://cdn.pixabay.com/photo/2022/11/06/19/59/boy-7574922_640.jpg",
        "src1280": "https://cdn.pixabay.com/photo/2022/11/06/19/59/boy-7574922_1280.jpg"
    },
    {
        "id": "7729353",
        "src640": "https://cdn.pixabay.com/photo/2023/01/19/15/02/portrait-7729353_640.jpg",
        "src1280": "https://cdn.pixabay.com/photo/2023/01/19/15/02/portrait-7729353_1280.jpg"
    },
    {
        "id": "4393245",
        "src640": "https://cdn.pixabay.com/photo/2019/08/08/15/56/boy-4393245_640.jpg",
        "src1280": "https://cdn.pixabay.com/photo/2019/08/08/15/56/boy-4393245_1280.jpg"
    },
    {
        "id": "6052356",
        "src640": "https://cdn.pixabay.com/photo/2021/02/26/16/03/woman-6052356_640.jpg",
        "src1280": "https://cdn.pixabay.com/photo/2021/02/26/16/03/woman-6052356_1280.jpg"
    },
    {
        "id": "6253463",
        "src640": "https://cdn.pixabay.com/photo/2021/05/14/14/01/man-6253463_640.jpg",
        "src1280": "https://cdn.pixabay.com/photo/2021/05/14/14/01/man-6253463_1280.jpg"
    },
    {
        "id": "3736480",
        "src640": "https://cdn.pixabay.com/photo/2018/10/10/05/30/portrait-3736480_640.jpg",
        "src1280": "https://cdn.pixabay.com/photo/2018/10/10/05/30/portrait-3736480_1280.jpg"
    },
    {
        "id": "6687199",
        "src640": "https://cdn.pixabay.com/photo/2021/10/07/03/10/man-6687199_640.jpg",
        "src1280": "https://cdn.pixabay.com/photo/2021/10/07/03/10/man-6687199_1280.jpg"
    },
    {
        "id": "3847196",
        "src640": "https://cdn.pixabay.com/photo/2018/11/30/07/45/woman-3847196_640.jpg",
        "src1280": "https://cdn.pixabay.com/photo/2018/11/30/07/45/woman-3847196_1280.jpg"
    },
    {
        "id": "7538469",
        "src640": "https://cdn.pixabay.com/photo/2022/10/22/05/55/girl-7538469_640.jpg",
        "src1280": "https://cdn.pixabay.com/photo/2022/10/22/05/55/girl-7538469_1280.jpg"
    },
    {
        "id": "7068710",
        "src640": "https://cdn.pixabay.com/photo/2022/03/14/18/47/woman-7068710_640.jpg",
        "src1280": "https://cdn.pixabay.com/photo/2022/03/14/18/47/woman-7068710_1280.jpg"
    },
    {
        "id": "6488304",
        "src640": "https://cdn.pixabay.com/photo/2021/07/23/23/28/hijab-6488304_640.jpg",
        "src1280": "https://cdn.pixabay.com/photo/2021/07/23/23/28/hijab-6488304_1280.jpg"
    },
    {
        "id": "5862138",
        "src640": "https://cdn.pixabay.com/photo/2020/12/26/18/46/woman-5862138_640.jpg",
        "src1280": "https://cdn.pixabay.com/photo/2020/12/26/18/46/woman-5862138_1280.jpg"
    },
    {
        "id": "6471318",
        "src640": "https://cdn.pixabay.com/photo/2021/07/16/16/31/man-6471318_640.jpg",
        "src1280": "https://cdn.pixabay.com/photo/2021/07/16/16/31/man-6471318_1280.jpg"
    },
    {
        "id": "4566920",
        "src640": "https://cdn.pixabay.com/photo/2019/10/21/19/01/portrait-4566920_640.jpg",
        "src1280": "https://cdn.pixabay.com/photo/2019/10/21/19/01/portrait-4566920_1280.jpg"
    },
    {
        "id": "6393017",
        "src640": "https://cdn.pixabay.com/photo/2021/07/07/02/17/man-6393017_640.jpg",
        "src1280": "https://cdn.pixabay.com/photo/2021/07/07/02/17/man-6393017_1280.jpg"
    },
    {
        "id": "6471317",
        "src640": "https://cdn.pixabay.com/photo/2021/07/16/16/31/man-6471317_640.jpg",
        "src1280": "https://cdn.pixabay.com/photo/2021/07/16/16/31/man-6471317_1280.jpg"
    },
    {
        "id": "3715337",
        "src640": "https://cdn.pixabay.com/photo/2018/10/01/04/17/portrait-3715337_640.jpg",
        "src1280": "https://cdn.pixabay.com/photo/2018/10/01/04/17/portrait-3715337_1280.jpg"
    },
    {
        "id": "5913159",
        "src640": "https://cdn.pixabay.com/photo/2021/01/13/03/48/man-5913159_640.jpg",
        "src1280": "https://cdn.pixabay.com/photo/2021/01/13/03/48/man-5913159_1280.jpg"
    },
    {
        "id": "2411724",
        "src640": "https://cdn.pixabay.com/photo/2017/06/17/10/10/model-2411724_640.jpg",
        "src1280": "https://cdn.pixabay.com/photo/2017/06/17/10/10/model-2411724_1280.jpg"
    },
    {
        "id": "6498294",
        "src640": "https://cdn.pixabay.com/photo/2021/07/28/04/44/dress-6498294_640.jpg",
        "src1280": "https://cdn.pixabay.com/photo/2021/07/28/04/44/dress-6498294_1280.jpg"
    },
    {
        "id": "5824613",
        "src640": "https://cdn.pixabay.com/photo/2020/12/12/06/32/man-5824613_640.jpg",
        "src1280": "https://cdn.pixabay.com/photo/2020/12/12/06/32/man-5824613_1280.jpg"
    },
    {
        "id": "6519091",
        "src640": "https://cdn.pixabay.com/photo/2021/08/03/11/08/man-6519091_640.jpg",
        "src1280": "https://cdn.pixabay.com/photo/2021/08/03/11/08/man-6519091_1280.jpg"
    },
    {
        "id": "4340927",
        "src640": "https://cdn.pixabay.com/photo/2019/07/16/02/53/mehndi-design-4340927_640.jpg",
        "src1280": "https://cdn.pixabay.com/photo/2019/07/16/02/53/mehndi-design-4340927_1280.jpg"
    },
    {
        "id": "7628100",
        "src640": "https://cdn.pixabay.com/photo/2022/12/01/02/26/model-7628100_640.jpg",
        "src1280": "https://cdn.pixabay.com/photo/2022/12/01/02/26/model-7628100_1280.jpg"
    },
    {
        "id": "7627734",
        "src640": "https://cdn.pixabay.com/photo/2022/11/30/20/46/man-7627734_640.jpg",
        "src1280": "https://cdn.pixabay.com/photo/2022/11/30/20/46/man-7627734_1280.jpg"
    },
    {
        "id": "8024043",
        "src640": "https://cdn.pixabay.com/photo/2023/05/28/15/47/man-8024043_640.jpg",
        "src1280": "https://cdn.pixabay.com/photo/2023/05/28/15/47/man-8024043_1280.jpg"
    },
    {
        "id": "5553780",
        "src640": "https://cdn.pixabay.com/photo/2020/09/08/06/36/hand-5553780_640.jpg",
        "src1280": "https://cdn.pixabay.com/photo/2020/09/08/06/36/hand-5553780_1280.jpg"
    },
    {
        "id": "4704648",
        "src640": "https://cdn.pixabay.com/photo/2019/12/18/18/45/perfume-4704648_640.jpg",
        "src1280": "https://cdn.pixabay.com/photo/2019/12/18/18/45/perfume-4704648_1280.jpg"
    },
    {
        "id": "6619896",
        "src640": "https://cdn.pixabay.com/photo/2021/09/13/02/13/woman-6619896_640.jpg",
        "src1280": "https://cdn.pixabay.com/photo/2021/09/13/02/13/woman-6619896_1280.jpg"
    },
    {
        "id": "6069887",
        "src640": "https://cdn.pixabay.com/photo/2021/03/04/23/58/baby-6069887_640.jpg",
        "src1280": "https://cdn.pixabay.com/photo/2021/03/04/23/58/baby-6069887_1280.jpg"
    },
    {
        "id": "6389059",
        "src640": "https://cdn.pixabay.com/photo/2021/07/05/12/30/woman-6389059_640.jpg",
        "src1280": "https://cdn.pixabay.com/photo/2021/07/05/12/30/woman-6389059_1280.jpg"
    },
    {
        "id": "6471321",
        "src640": "https://cdn.pixabay.com/photo/2021/07/16/16/32/man-6471321_640.jpg",
        "src1280": "https://cdn.pixabay.com/photo/2021/07/16/16/32/man-6471321_1280.jpg"
    },
    {
        "id": "5005781",
        "src640": "https://cdn.pixabay.com/photo/2020/04/05/11/41/vietnamese-5005781_640.jpg",
        "src1280": "https://cdn.pixabay.com/photo/2020/04/05/11/41/vietnamese-5005781_1280.jpg"
    },
    {
        "id": "7112116",
        "src640": "https://cdn.pixabay.com/photo/2022/04/04/18/36/man-7112116_640.jpg",
        "src1280": "https://cdn.pixabay.com/photo/2022/04/04/18/36/man-7112116_1280.jpg"
    },
    {
        "id": "7586919",
        "src640": "https://cdn.pixabay.com/photo/2022/11/12/12/17/frame-7586919_640.jpg",
        "src1280": "https://cdn.pixabay.com/photo/2022/11/12/12/17/frame-7586919_1280.jpg"
    },
    {
        "id": "8061642",
        "src640": "https://cdn.pixabay.com/photo/2023/06/13/19/13/ai-generated-8061642_640.jpg",
        "src1280": "https://cdn.pixabay.com/photo/2023/06/13/19/13/ai-generated-8061642_1280.jpg"
    },
    {
        "id": "6174777",
        "src640": "https://cdn.pixabay.com/photo/2021/04/13/06/38/man-6174777_640.jpg",
        "src1280": "https://cdn.pixabay.com/photo/2021/04/13/06/38/man-6174777_1280.jpg"
    },
    {
        "id": "6378116",
        "src640": "https://cdn.pixabay.com/photo/2021/07/01/03/38/man-6378116_640.jpg",
        "src1280": "https://cdn.pixabay.com/photo/2021/07/01/03/38/man-6378116_1280.jpg"
    },
    {
        "id": "7729334",
        "src640": "https://cdn.pixabay.com/photo/2023/01/19/14/59/boy-7729334_640.jpg",
        "src1280": "https://cdn.pixabay.com/photo/2023/01/19/14/59/boy-7729334_1280.jpg"
    },
    {
        "id": "7352937",
        "src640": "https://cdn.pixabay.com/photo/2022/07/30/02/09/women-7352937_640.jpg",
        "src1280": "https://cdn.pixabay.com/photo/2022/07/30/02/09/women-7352937_1280.jpg"
    },
    {
        "id": "6486472",
        "src640": "https://cdn.pixabay.com/photo/2021/07/23/04/45/girl-6486472_640.jpg",
        "src1280": "https://cdn.pixabay.com/photo/2021/07/23/04/45/girl-6486472_1280.jpg"
    },
    {
        "id": "4373262",
        "src640": "https://cdn.pixabay.com/photo/2019/07/30/15/48/copenhagen-4373262_640.jpg",
        "src1280": "https://cdn.pixabay.com/photo/2019/07/30/15/48/copenhagen-4373262_1280.jpg"
    },
    {
        "id": "4254265",
        "src640": "https://cdn.pixabay.com/photo/2019/06/05/18/00/fashion-4254265_640.jpg",
        "src1280": "https://cdn.pixabay.com/photo/2019/06/05/18/00/fashion-4254265_1280.jpg"
    },
    {
        "id": "7040709",
        "src640": "https://cdn.pixabay.com/photo/2022/03/01/06/43/man-7040709_640.jpg",
        "src1280": "https://cdn.pixabay.com/photo/2022/03/01/06/43/man-7040709_1280.jpg"
    },
    {
        "id": "3861914",
        "src640": "https://cdn.pixabay.com/photo/2018/12/07/15/40/jeans-3861914_640.jpg",
        "src1280": "https://cdn.pixabay.com/photo/2018/12/07/15/40/jeans-3861914_1280.jpg"
    },
    {
        "id": "6393162",
        "src640": "https://cdn.pixabay.com/photo/2021/07/07/04/15/woman-6393162_640.jpg",
        "src1280": "https://cdn.pixabay.com/photo/2021/07/07/04/15/woman-6393162_1280.jpg"
    },
    {
        "id": "7723947",
        "src640": "https://cdn.pixabay.com/photo/2023/01/17/07/26/background-7723947_640.jpg",
        "src1280": "https://cdn.pixabay.com/photo/2023/01/17/07/26/background-7723947_1280.jpg"
    },
    {
        "id": "7828469",
        "src640": "https://cdn.pixabay.com/photo/2023/03/03/21/09/woman-7828469_640.jpg",
        "src1280": "https://cdn.pixabay.com/photo/2023/03/03/21/09/woman-7828469_1280.jpg"
    },
    {
        "id": "3647483",
        "src640": "https://cdn.pixabay.com/photo/2018/09/01/19/49/model-3647483_640.jpg",
        "src1280": "https://cdn.pixabay.com/photo/2018/09/01/19/49/model-3647483_1280.jpg"
    }
]