[
    {
        "id": "3847124",
        "src640": "https://cdn.pixabay.com/photo/2018/11/30/07/08/woman-3847124_640.jpg",
        "src1280": "https://cdn.pixabay.com/photo/2018/11/30/07/08/woman-3847124_1280.jpg"
    },
    {
        "id": "7854572",
        "src640": "https://cdn.pixabay.com/photo/2023/03/15/13/44/switchblade-7854572_640.jpg",
        "src1280": "https://cdn.pixabay.com/photo/2023/03/15/13/44/switchblade-7854572_1280.jpg"
    },
    {
        "id": "6488318",
        "src640": "https://cdn.pixabay.com/photo/2021/07/23/23/34/hijab-6488318_640.jpg",
        "src1280": "https://cdn.pixabay.com/photo/2021/07/23/23/34/hijab-6488318_1280.jpg"
    },
    {
        "id": "7897053",
        "src640": "https://cdn.pixabay.com/photo/2023/04/03/15/02/woman-7897053_640.jpg",
        "src1280": "https://cdn.pixabay.com/photo/2023/04/03/15/02/woman-7897053_1280.jpg"
    },
    {
        "id": "5621973",
        "src640": "https://cdn.pixabay.com/photo/2020/10/02/19/36/girl-5621973_640.jpg",
        "src1280": "https://cdn.pixabay.com/photo/2020/10/02/19/36/girl-5621973_1280.jpg"
    },
    {
        "id": "4071541",
        "src640": "https://cdn.pixabay.com/photo/2019/03/21/18/05/arabfashion-4071541_640.jpg",
        "src1280": "https://cdn.pixabay.com/photo/2019/03/21/18/05/arabfashion-4071541_1280.jpg"
    },
    {
        "id": "623636",
        "src640": "https://cdn.pixabay.com/photo/2015/02/04/11/26/sandals-623636_640.jpg",
        "src1280": "https://cdn.pixabay.com/photo/2015/02/04/11/26/sandals-623636_1280.jpg"
    },
    {
        "id": "5882273",
        "src640": "https://cdn.pixabay.com/photo/2021/01/02/16/50/man-5882273_640.jpg",
        "src1280": "https://cdn.pixabay.com/photo/2021/01/02/16/50/man-5882273_1280.jpg"
    },
    {
        "id": "6673150",
        "src640": "https://cdn.pixabay.com/photo/2021/10/01/17/45/girl-6673150_640.jpg",
        "src1280": "https://cdn.pixabay.com/photo/2021/10/01/17/45/girl-6673150_1280.jpg"
    },
    {
        "id": "1974233",
        "src640": "https://cdn.pixabay.com/photo/2017/01/12/09/59/woman-1974233_640.jpg",
        "src1280": "https://cdn.pixabay.com/photo/2017/01/12/09/59/woman-1974233_1280.jpg"
    },
    {
        "id": "6385436",
        "src640": "https://cdn.pixabay.com/photo/2021/07/04/05/35/woman-6385436_640.jpg",
        "src1280": "https://cdn.pixabay.com/photo/2021/07/04/05/35/woman-6385436_1280.jpg"
    },
    {
        "id": "7342863",
        "src640": "https://cdn.pixabay.com/photo/2022/07/25/04/54/studio-7342863_640.jpg",
        "src1280": "https://cdn.pixabay.com/photo/2022/07/25/04/54/studio-7342863_1280.jpg"
    },
    {
        "id": "5180441",
        "src640": "https://cdn.pixabay.com/photo/2020/05/17/07/29/art-5180441_640.jpg",
        "src1280": "https://cdn.pixabay.com/photo/2020/05/17/07/29/art-5180441_1280.jpg"
    },
    {
        "id": "4233421",
        "src640": "https://cdn.pixabay.com/photo/2019/05/27/19/22/child-4233421_640.jpg",
        "src1280": "https://cdn.pixabay.com/photo/2019/05/27/19/22/child-4233421_1280.jpg"
    },
    {
        "id": "8014808",
        "src640": "https://cdn.pixabay.com/photo/2023/05/24/13/24/ai-generated-8014808_640.jpg",
        "src1280": "https://cdn.pixabay.com/photo/2023/05/24/13/24/ai-generated-8014808_1280.jpg"
    },
    {
        "id": "2691489",
        "src640": "https://cdn.pixabay.com/photo/2017/08/28/22/13/boy-2691489_640.jpg",
        "src1280": "https://cdn.pixabay.com/photo/2017/08/28/22/13/boy-2691489_1280.jpg"
    },
    {
        "id": "7165027",
        "src640": "https://cdn.pixabay.com/photo/2022/04/30/07/22/man-7165027_640.jpg",
        "src1280": "https://cdn.pixabay.com/photo/2022/04/30/07/22/man-7165027_1280.jpg"
    },
    {
        "id": "7646899",
        "src640": "https://cdn.pixabay.com/photo/2022/12/10/10/19/party-7646899_640.jpg",
        "src1280": "https://cdn.pixabay.com/photo/2022/12/10/10/19/party-7646899_1280.jpg"
    },
    {
        "id": "6625414",
        "src640": "https://cdn.pixabay.com/photo/2021/09/15/01/09/woman-6625414_640.jpg",
        "src1280": "https://cdn.pixabay.com/photo/2021/09/15/01/09/woman-6625414_1280.jpg"
    },
    {
        "id": "5719194",
        "src640": "https://cdn.pixabay.com/photo/2020/11/07/00/44/woman-5719194_640.jpg",
        "src1280": "https://cdn.pixabay.com/photo/2020/11/07/00/44/woman-5719194_1280.jpg"
    },
    {
        "id": "6406082",
        "src640": "https://cdn.pixabay.com/photo/2021/07/12/11/21/girl-6406082_640.jpg",
        "src1280": "https://cdn.pixabay.com/photo/2021/07/12/11/21/girl-6406082_1280.jpg"
    },
    {
        "id": "7352942",
        "src640": "https://cdn.pixabay.com/photo/2022/07/30/02/10/woman-7352942_640.jpg",
        "src1280": "https://cdn.pixabay.com/photo/2022/07/30/02/10/woman-7352942_1280.jpg"
    },
    {
        "id": "2852921",
        "src640": "https://cdn.pixabay.com/photo/2017/10/15/09/14/portrait-2852921_640.jpg",
        "src1280": "https://cdn.pixabay.com/photo/2017/10/15/09/14/portrait-2852921_1280.jpg"
    },
    {
        "id": "5866584",
        "src640": "https://cdn.pixabay.com/photo/2020/12/28/10/35/man-5866584_640.jpg",
        "src1280": "https://cdn.pixabay.com/photo/2020/12/28/10/35/man-5866584_1280.jpg"
    },
    {
        "id": "5913161",
        "src640": "https://cdn.pixabay.com/photo/2021/01/13/03/48/man-5913161_640.jpg",
        "src1280": "https://cdn.pixabay.com/photo/2021/01/13/03/48/man-5913161_1280.jpg"
    },
    {
        "id": "6473092",
        "src640": "https://cdn.pixabay.com/photo/2021/07/17/13/05/woman-6473092_640.jpg",
        "src1280": "https://cdn.pixabay.com/photo/2021/07/17/13/05/woman-6473092_1280.jpg"
    },
    {
        "id": "6306342",
        "src640": "https://cdn.pixabay.com/photo/2021/06/03/08/12/sneep-crew-6306342_640.jpg",
        "src1280": "https://cdn.pixabay.com/photo/2021/06/03/08/12/sneep-crew-6306342_1280.jpg"
    },
    {
        "id": "7505637",
        "src640": "https://cdn.pixabay.com/photo/2022/10/07/18/35/man-7505637_640.jpg",
        "src1280": "https://cdn.pixabay.com/photo/2022/10/07/18/35/man-7505637_1280.jpg"
    },
    {
        "id": "6216084",
        "src640": "https://cdn.pixabay.com/photo/2021/04/29/08/22/boy-6216084_640.jpg",
        "src1280": "https://cdn.pixabay.com/photo/2021/04/29/08/22/boy-6216084_1280.jpg"
    },
    {
        "id": "6673169",
        "src640": "https://cdn.pixabay.com/photo/2021/10/01/17/49/girl-6673169_640.jpg",
        "src1280": "https://cdn.pixabay.com/photo/2021/10/01/17/49/girl-6673169_1280.jpg"
    },
    {
        "id": "5551507",
        "src640": "https://cdn.pixabay.com/photo/2020/09/07/11/03/man-5551507_640.jpg",
        "src1280": "https://cdn.pixabay.com/photo/2020/09/07/11/03/man-5551507_1280.jpg"
    },
    {
        "id": "6389071",
        "src640": "https://cdn.pixabay.com/photo/2021/07/05/12/33/woman-6389071_640.jpg",
        "src1280": "https://cdn.pixabay.com/photo/2021/07/05/12/33/woman-6389071_1280.jpg"
    },
    {
        "id": "2587886",
        "src640": "https://cdn.pixabay.com/photo/2017/08/06/02/27/people-2587886_640.jpg",
        "src1280": "https://cdn.pixabay.com/photo/2017/08/06/02/27/people-2587886_1280.jpg"
    },
    {
        "id": "7734469",
        "src640": "https://cdn.pixabay.com/photo/2023/01/21/15/25/ai-generated-7734469_640.jpg",
        "src1280": "https://cdn.pixabay.com/photo/2023/01/21/15/25/ai-generated-7734469_1280.jpg"
    },
    {
        "id": "7519005",
        "src640": "https://cdn.pixabay.com/photo/2022/10/13/12/48/hot-air-balloons-7519005_640.jpg",
        "src1280": "https://cdn.pixabay.com/photo/2022/10/13/12/48/hot-air-balloons-7519005_1280.jpg"
    },
    {
        "id": "7942267",
        "src640": "https://cdn.pixabay.com/photo/2023/04/21/16/47/jewelry-7942267_640.jpg",
        "src1280": "https://cdn.pixabay.com/photo/2023/04/21/16/47/jewelry-7942267_1280.jpg"
    },
    {
        "id": "6673108",
        "src640": "https://cdn.pixabay.com/photo/2021/10/01/17/33/girl-6673108_640.jpg",
        "src1280": "https://cdn.pixabay.com/photo/2021/10/01/17/33/girl-6673108_1280.jpg"
    },
    {
        "id": "6514554",
        "src640": "https://cdn.pixabay.com/photo/2021/08/01/14/39/man-6514554_640.jpg",
        "src1280": "https://cdn.pixabay.com/photo/2021/08/01/14/39/man-6514554_1280.jpg"
    },
    {
        "id": "7357181",
        "src640": "https://cdn.pixabay.com/photo/2022/08/01/02/04/woman-7357181_640.jpg",
        "src1280": "https://cdn.pixabay.com/photo/2022/08/01/02/04/woman-7357181_1280.jpg"
    },
    {
        "id": "6342460",
        "src640": "https://cdn.pixabay.com/photo/2021/06/17/01/33/man-6342460_640.jpg",
        "src1280": "https://cdn.pixabay.com/photo/2021/06/17/01/33/man-6342460_1280.jpg"
    },
    {
        "id": "7734260",
        "src640": "https://cdn.pixabay.com/photo/2023/01/21/15/11/ai-generated-7734260_640.jpg",
        "src1280": "https://cdn.pixabay.com/photo/2023/01/21/15/11/ai-generated-7734260_1280.jpg"
    },
    {
        "id": "5934667",
        "src640": "https://cdn.pixabay.com/photo/2021/01/20/15/25/girl-5934667_640.jpg",
        "src1280": "https://cdn.pixabay.com/photo/2021/01/20/15/25/girl-5934667_1280.jpg"
    },
    {
        "id": "7142549",
        "src640": "https://cdn.pixabay.com/photo/2022/04/19/10/17/woman-7142549_640.jpg",
        "src1280": "https://cdn.pixabay.com/photo/2022/04/19/10/17/woman-7142549_1280.jpg"
    },
    {
        "id": "5419004",
        "src640": "https://cdn.pixabay.com/photo/2020/07/19/05/37/fashion-5419004_640.jpg",
        "src1280": "https://cdn.pixabay.com/photo/2020/07/19/05/37/fashion-5419004_1280.jpg"
    },
    {
        "id": "1348888",
        "src640": "https://cdn.pixabay.com/photo/2016/04/24/06/54/chucks-1348888_640.jpg",
        "src1280": "https://cdn.pixabay.com/photo/2016/04/24/06/54/chucks-1348888_1280.jpg"
    },
    {
        "id": "5187092",
        "src640": "https://cdn.pixabay.com/photo/2020/05/18/15/49/arabic-5187092_640.jpg",
        "src1280": "https://cdn.pixabay.com/photo/2020/05/18/15/49/arabic-5187092_1280.jpg"
    },
    {
        "id": "8341637",
        "src640": "https://cdn.pixabay.com/photo/2023/10/26/03/22/ai-generated-8341637_640.jpg",
        "src1280": "https://cdn.pixabay.com/photo/2023/10/26/03/22/ai-generated-8341637_1280.jpg"
    },
    {
        "id": "7744269",
        "src640": "https://cdn.pixabay.com/photo/2023/01/25/18/29/woman-7744269_640.jpg",
        "src1280": "https://cdn.pixabay.com/photo/2023/01/25/18/29/woman-7744269_1280.jpg"
    },
    {
        "id": "7589468",
        "src640": "https://cdn.pixabay.com/photo/2022/11/13/15/08/woman-7589468_640.jpg",
        "src1280": "https://cdn.pixabay.com/photo/2022/11/13/15/08/woman-7589468_1280.jpg"
    },
    {
        "id": "7951932",
        "src640": "https://cdn.pixabay.com/photo/2023/04/26/08/48/portrait-7951932_640.jpg",
        "src1280": "https://cdn.pixabay.com/photo/2023/04/26/08/48/portrait-7951932_1280.jpg"
    },
    {
        "id": "7304804",
        "src640": "https://cdn.pixabay.com/photo/2022/07/06/10/14/man-7304804_640.jpg",
        "src1280": "https://cdn.pixabay.com/photo/2022/07/06/10/14/man-7304804_1280.jpg"
    },
    {
        "id": "2602621",
        "src640": "https://cdn.pixabay.com/photo/2017/08/07/11/00/chair-2602621_640.jpg",
        "src1280": "https://cdn.pixabay.com/photo/2017/08/07/11/00/chair-2602621_1280.jpg"
    },
    {
        "id": "7536577",
        "src640": "https://cdn.pixabay.com/photo/2022/10/21/09/01/fashion-7536577_640.jpg",
        "src1280": "https://cdn.pixabay.com/photo/2022/10/21/09/01/fashion-7536577_1280.jpg"
    },
    {
        "id": "7696683",
        "src640": "https://cdn.pixabay.com/photo/2023/01/04/13/16/man-7696683_640.jpg",
        "src1280": "https://cdn.pixabay.com/photo/2023/01/04/13/16/man-7696683_1280.jpg"
    },
    {
        "id": "6534435",
        "src640": "https://cdn.pixabay.com/photo/2021/08/09/22/19/woman-6534435_640.jpg",
        "src1280": "https://cdn.pixabay.com/photo/2021/08/09/22/19/woman-6534435_1280.jpg"
    },
    {
        "id": "7743092",
        "src640": "https://cdn.pixabay.com/photo/2023/01/25/10/41/ai-generated-7743092_640.jpg",
        "src1280": "https://cdn.pixabay.com/photo/2023/01/25/10/41/ai-generated-7743092_1280.jpg"
    },
    {
        "id": "7382716",
        "src640": "https://cdn.pixabay.com/photo/2022/08/13/01/16/girl-7382716_640.jpg",
        "src1280": "https://cdn.pixabay.com/photo/2022/08/13/01/16/girl-7382716_1280.jpg"
    },
    {
        "id": "6709134",
        "src640": "https://cdn.pixabay.com/photo/2021/10/14/13/38/man-6709134_640.jpg",
        "src1280": "https://cdn.pixabay.com/photo/2021/10/14/13/38/man-6709134_1280.jpg"
    },
    {
        "id": "7916843",
        "src640": "https://cdn.pixabay.com/photo/2023/04/11/10/30/woman-7916843_640.jpg",
        "src1280": "https://cdn.pixabay.com/photo/2023/04/11/10/30/woman-7916843_1280.jpg"
    },
    {
        "id": "6673132",
        "src640": "https://cdn.pixabay.com/photo/2021/10/01/17/41/girl-6673132_640.jpg",
        "src1280": "https://cdn.pixabay.com/photo/2021/10/01/17/41/girl-6673132_1280.jpg"
    },
    {
        "id": "768173",
        "src640": "https://cdn.pixabay.com/photo/2015/05/15/11/05/jewelry-768173_640.jpg",
        "src1280": "https://cdn.pixabay.com/photo/2015/05/15/11/05/jewelry-768173_1280.jpg"
    },
    {
        "id": "3381432",
        "src640": "https://cdn.pixabay.com/photo/2018/05/07/19/06/boy-3381432_640.jpg",
        "src1280": "https://cdn.pixabay.com/photo/2018/05/07/19/06/boy-3381432_1280.jpg"
    },
    {
        "id": "7654789",
        "src640": "https://cdn.pixabay.com/photo/2022/12/14/07/26/thai-media-costumes-7654789_640.jpg",
        "src1280": "https://cdn.pixabay.com/photo/2022/12/14/07/26/thai-media-costumes-7654789_1280.jpg"
    },
    {
        "id": "6240715",
        "src640": "https://cdn.pixabay.com/photo/2021/05/09/12/33/vintage-6240715_640.jpg",
        "src1280": "https://cdn.pixabay.com/photo/2021/05/09/12/33/vintage-6240715_1280.jpg"
    },
    {
        "id": "4809426",
        "src640": "https://cdn.pixabay.com/photo/2020/02/01/02/59/girl-4809426_640.jpg",
        "src1280": "https://cdn.pixabay.com/photo/2020/02/01/02/59/girl-4809426_1280.jpg"
    },
    {
        "id": "8020202",
        "src640": "https://cdn.pixabay.com/photo/2023/05/26/20/04/car-8020202_640.jpg",
        "src1280": "https://cdn.pixabay.com/photo/2023/05/26/20/04/car-8020202_1280.jpg"
    },
    {
        "id": "6020184",
        "src640": "https://cdn.pixabay.com/photo/2021/02/16/08/28/woman-6020184_640.jpg",
        "src1280": "https://cdn.pixabay.com/photo/2021/02/16/08/28/woman-6020184_1280.jpg"
    },
    {
        "id": "2908409",
        "src640": "https://cdn.pixabay.com/photo/2017/11/01/15/52/young-2908409_640.jpg",
        "src1280": "https://cdn.pixabay.com/photo/2017/11/01/15/52/young-2908409_1280.jpg"
    },
    {
        "id": "6389061",
        "src640": "https://cdn.pixabay.com/photo/2021/07/05/12/31/woman-6389061_640.jpg",
        "src1280": "https://cdn.pixabay.com/photo/2021/07/05/12/31/woman-6389061_1280.jpg"
    },
    {
        "id": "7815857",
        "src640": "https://cdn.pixabay.com/photo/2023/02/26/13/49/bride-7815857_640.jpg",
        "src1280": "https://cdn.pixabay.com/photo/2023/02/26/13/49/bride-7815857_1280.jpg"
    },
    {
        "id": "5866608",
        "src640": "https://cdn.pixabay.com/photo/2020/12/28/10/41/man-5866608_640.jpg",
        "src1280": "https://cdn.pixabay.com/photo/2020/12/28/10/41/man-5866608_1280.jpg"
    },
    {
        "id": "7739029",
        "src640": "https://cdn.pixabay.com/photo/2023/01/23/15/56/young-woman-7739029_640.jpg",
        "src1280": "https://cdn.pixabay.com/photo/2023/01/23/15/56/young-woman-7739029_1280.jpg"
    },
    {
        "id": "5913160",
        "src640": "https://cdn.pixabay.com/photo/2021/01/13/03/48/man-5913160_640.jpg",
        "src1280": "https://cdn.pixabay.com/photo/2021/01/13/03/48/man-5913160_1280.jpg"
    },
    {
        "id": "8010348",
        "src640": "https://cdn.pixabay.com/photo/2023/05/22/10/19/ai-generated-8010348_640.jpg",
        "src1280": "https://cdn.pixabay.com/photo/2023/05/22/10/19/ai-generated-8010348_1280.jpg"
    },
    {
        "id": "6840890",
        "src640": "https://cdn.pixabay.com/photo/2021/12/02/16/32/man-6840890_640.jpg",
        "src1280": "https://cdn.pixabay.com/photo/2021/12/02/16/32/man-6840890_1280.jpg"
    },
    {
        "id": "6405271",
        "src640": "https://cdn.pixabay.com/photo/2021/07/12/03/44/woman-6405271_640.jpg",
        "src1280": "https://cdn.pixabay.com/photo/2021/07/12/03/44/woman-6405271_1280.jpg"
    },
    {
        "id": "7315528",
        "src640": "https://cdn.pixabay.com/photo/2022/07/11/16/31/women-7315528_640.jpg",
        "src1280": "https://cdn.pixabay.com/photo/2022/07/11/16/31/women-7315528_1280.jpg"
    },
    {
        "id": "7714419",
        "src640": "https://cdn.pixabay.com/photo/2023/01/12/16/06/woman-7714419_640.jpg",
        "src1280": "https://cdn.pixabay.com/photo/2023/01/12/16/06/woman-7714419_1280.jpg"
    },
    {
        "id": "7236197",
        "src640": "https://cdn.pixabay.com/photo/2022/06/01/16/45/woman-7236197_640.jpg",
        "src1280": "https://cdn.pixabay.com/photo/2022/06/01/16/45/woman-7236197_1280.jpg"
    },
    {
        "id": "7771827",
        "src640": "https://cdn.pixabay.com/photo/2023/02/06/11/32/man-7771827_640.jpg",
        "src1280": "https://cdn.pixabay.com/photo/2023/02/06/11/32/man-7771827_1280.jpg"
    },
    {
        "id": "4930079",
        "src640": "https://cdn.pixabay.com/photo/2020/03/14/09/22/amman-4930079_640.jpg",
        "src1280": "https://cdn.pixabay.com/photo/2020/03/14/09/22/amman-4930079_1280.jpg"
    },
    {
        "id": "7066487",
        "src640": "https://cdn.pixabay.com/photo/2022/03/13/17/41/aviator-7066487_640.jpg",
        "src1280": "https://cdn.pixabay.com/photo/2022/03/13/17/41/aviator-7066487_1280.jpg"
    },
    {
        "id": "6771361",
        "src640": "https://cdn.pixabay.com/photo/2021/11/05/13/09/man-6771361_640.jpg",
        "src1280": "https://cdn.pixabay.com/photo/2021/11/05/13/09/man-6771361_1280.jpg"
    },
    {
        "id": "6385424",
        "src640": "https://cdn.pixabay.com/photo/2021/07/04/05/31/woman-6385424_640.jpg",
        "src1280": "https://cdn.pixabay.com/photo/2021/07/04/05/31/woman-6385424_1280.jpg"
    },
    {
        "id": "4704651",
        "src640": "https://cdn.pixabay.com/photo/2019/12/18/18/45/ck-4704651_640.jpg",
        "src1280": "https://cdn.pixabay.com/photo/2019/12/18/18/45/ck-4704651_1280.jpg"
    },
    {
        "id": "5898172",
        "src640": "https://cdn.pixabay.com/photo/2021/01/07/18/45/girl-5898172_640.jpg",
        "src1280": "https://cdn.pixabay.com/photo/2021/01/07/18/45/girl-5898172_1280.jpg"
    },
    {
        "id": "4709781",
        "src640": "https://cdn.pixabay.com/photo/2019/12/21/06/25/girl-4709781_640.jpg",
        "src1280": "https://cdn.pixabay.com/photo/2019/12/21/06/25/girl-4709781_1280.jpg"
    },
    {
        "id": "6805473",
        "src640": "https://cdn.pixabay.com/photo/2021/11/18/05/19/woman-6805473_640.jpg",
        "src1280": "https://cdn.pixabay.com/photo/2021/11/18/05/19/woman-6805473_1280.jpg"
    },
    {
        "id": "5846482",
        "src640": "https://cdn.pixabay.com/photo/2020/12/20/09/08/girl-5846482_640.jpg",
        "src1280": "https://cdn.pixabay.com/photo/2020/12/20/09/08/girl-5846482_1280.jpg"
    }
]