[
    {
        "id": "3900436",
        "src640": "https://cdn.pixabay.com/photo/2018/12/28/21/53/clothes-3900436_640.jpg",
        "src1280": "https://cdn.pixabay.com/photo/2018/12/28/21/53/clothes-3900436_1280.jpg"
    },
    {
        "id": "3847149",
        "src640": "https://cdn.pixabay.com/photo/2018/11/30/07/16/woman-3847149_640.jpg",
        "src1280": "https://cdn.pixabay.com/photo/2018/11/30/07/16/woman-3847149_1280.jpg"
    },
    {
        "id": "3902613",
        "src640": "https://cdn.pixabay.com/photo/2018/12/30/04/12/clothes-3902613_640.jpg",
        "src1280": "https://cdn.pixabay.com/photo/2018/12/30/04/12/clothes-3902613_1280.jpg"
    },
    {
        "id": "6673105",
        "src640": "https://cdn.pixabay.com/photo/2021/10/01/17/32/girl-6673105_640.jpg",
        "src1280": "https://cdn.pixabay.com/photo/2021/10/01/17/32/girl-6673105_1280.jpg"
    },
    {
        "id": "8061171",
        "src640": "https://cdn.pixabay.com/photo/2023/06/13/15/27/ai-generated-8061171_640.jpg",
        "src1280": "https://cdn.pixabay.com/photo/2023/06/13/15/27/ai-generated-8061171_1280.jpg"
    },
    {
        "id": "5869967",
        "src640": "https://cdn.pixabay.com/photo/2020/12/29/09/21/girl-5869967_640.jpg",
        "src1280": "https://cdn.pixabay.com/photo/2020/12/29/09/21/girl-5869967_1280.jpg"
    },
    {
        "id": "6703976",
        "src640": "https://cdn.pixabay.com/photo/2021/10/12/16/22/man-6703976_640.jpg",
        "src1280": "https://cdn.pixabay.com/photo/2021/10/12/16/22/man-6703976_1280.jpg"
    },
    {
        "id": "6673125",
        "src640": "https://cdn.pixabay.com/photo/2021/10/01/17/40/girl-6673125_640.jpg",
        "src1280": "https://cdn.pixabay.com/photo/2021/10/01/17/40/girl-6673125_1280.jpg"
    },
    {
        "id": "2423969",
        "src640": "https://cdn.pixabay.com/photo/2017/06/20/17/37/train-2423969_640.jpg",
        "src1280": "https://cdn.pixabay.com/photo/2017/06/20/17/37/train-2423969_1280.jpg"
    },
    {
        "id": "6515765",
        "src640": "https://cdn.pixabay.com/photo/2021/08/02/04/08/woman-6515765_640.jpg",
        "src1280": "https://cdn.pixabay.com/photo/2021/08/02/04/08/woman-6515765_1280.jpg"
    },
    {
        "id": "7519010",
        "src640": "https://cdn.pixabay.com/photo/2022/10/13/12/48/railway-7519010_640.jpg",
        "src1280": "https://cdn.pixabay.com/photo/2022/10/13/12/48/railway-7519010_1280.jpg"
    },
    {
        "id": "5164144",
        "src640": "https://cdn.pixabay.com/photo/2020/05/12/17/30/casio-5164144_640.jpg",
        "src1280": "https://cdn.pixabay.com/photo/2020/05/12/17/30/casio-5164144_1280.jpg"
    },
    {
        "id": "5132462",
        "src640": "https://cdn.pixabay.com/photo/2020/05/05/10/23/sweatshirt-5132462_640.jpg",
        "src1280": "https://cdn.pixabay.com/photo/2020/05/05/10/23/sweatshirt-5132462_1280.jpg"
    },
    {
        "id": "6673153",
        "src640": "https://cdn.pixabay.com/photo/2021/10/01/17/45/girl-6673153_640.jpg",
        "src1280": "https://cdn.pixabay.com/photo/2021/10/01/17/45/girl-6673153_1280.jpg"
    },
    {
        "id": "5519436",
        "src640": "https://cdn.pixabay.com/photo/2020/08/26/12/57/digital-camera-5519436_640.jpg",
        "src1280": "https://cdn.pixabay.com/photo/2020/08/26/12/57/digital-camera-5519436_1280.jpg"
    },
    {
        "id": "6914797",
        "src640": "https://cdn.pixabay.com/photo/2022/01/04/11/08/man-6914797_640.jpg",
        "src1280": "https://cdn.pixabay.com/photo/2022/01/04/11/08/man-6914797_1280.jpg"
    },
    {
        "id": "6570370",
        "src640": "https://cdn.pixabay.com/photo/2021/08/24/11/22/man-6570370_640.jpg",
        "src1280": "https://cdn.pixabay.com/photo/2021/08/24/11/22/man-6570370_1280.jpg"
    },
    {
        "id": "4924078",
        "src640": "https://cdn.pixabay.com/photo/2020/03/12/06/48/model-4924078_640.jpg",
        "src1280": "https://cdn.pixabay.com/photo/2020/03/12/06/48/model-4924078_1280.jpg"
    },
    {
        "id": "2775128",
        "src640": "https://cdn.pixabay.com/photo/2017/09/22/11/00/bike-2775128_640.jpg",
        "src1280": "https://cdn.pixabay.com/photo/2017/09/22/11/00/bike-2775128_1280.jpg"
    },
    {
        "id": "6570357",
        "src640": "https://cdn.pixabay.com/photo/2021/08/24/11/21/man-6570357_640.jpg",
        "src1280": "https://cdn.pixabay.com/photo/2021/08/24/11/21/man-6570357_1280.jpg"
    },
    {
        "id": "7436136",
        "src640": "https://cdn.pixabay.com/photo/2022/09/06/08/29/srilankatravel-7436136_640.jpg",
        "src1280": "https://cdn.pixabay.com/photo/2022/09/06/08/29/srilankatravel-7436136_1280.jpg"
    },
    {
        "id": "6549417",
        "src640": "https://cdn.pixabay.com/photo/2021/08/16/05/55/woman-6549417_640.jpg",
        "src1280": "https://cdn.pixabay.com/photo/2021/08/16/05/55/woman-6549417_1280.jpg"
    },
    {
        "id": "7278595",
        "src640": "https://cdn.pixabay.com/photo/2022/06/22/19/05/cap-7278595_640.jpg",
        "src1280": "https://cdn.pixabay.com/photo/2022/06/22/19/05/cap-7278595_1280.jpg"
    },
    {
        "id": "5866622",
        "src640": "https://cdn.pixabay.com/photo/2020/12/28/10/48/man-5866622_640.jpg",
        "src1280": "https://cdn.pixabay.com/photo/2020/12/28/10/48/man-5866622_1280.jpg"
    },
    {
        "id": "5824614",
        "src640": "https://cdn.pixabay.com/photo/2020/12/12/06/32/man-5824614_640.jpg",
        "src1280": "https://cdn.pixabay.com/photo/2020/12/12/06/32/man-5824614_1280.jpg"
    },
    {
        "id": "5992604",
        "src640": "https://cdn.pixabay.com/photo/2021/02/07/20/22/boy-5992604_640.jpg",
        "src1280": "https://cdn.pixabay.com/photo/2021/02/07/20/22/boy-5992604_1280.jpg"
    },
    {
        "id": "6385451",
        "src640": "https://cdn.pixabay.com/photo/2021/07/04/05/43/man-6385451_640.jpg",
        "src1280": "https://cdn.pixabay.com/photo/2021/07/04/05/43/man-6385451_1280.jpg"
    },
    {
        "id": "3902605",
        "src640": "https://cdn.pixabay.com/photo/2018/12/30/04/10/clothes-3902605_640.jpg",
        "src1280": "https://cdn.pixabay.com/photo/2018/12/30/04/10/clothes-3902605_1280.jpg"
    },
    {
        "id": "7660946",
        "src640": "https://cdn.pixabay.com/photo/2022/12/17/04/27/men-png-7660946_640.jpg",
        "src1280": "https://cdn.pixabay.com/photo/2022/12/17/04/27/men-png-7660946_1280.jpg"
    },
    {
        "id": "7014717",
        "src640": "https://cdn.pixabay.com/photo/2022/02/15/11/26/man-7014717_640.jpg",
        "src1280": "https://cdn.pixabay.com/photo/2022/02/15/11/26/man-7014717_1280.jpg"
    },
    {
        "id": "6730046",
        "src640": "https://cdn.pixabay.com/photo/2021/10/21/18/58/wristwatch-6730046_640.jpg",
        "src1280": "https://cdn.pixabay.com/photo/2021/10/21/18/58/wristwatch-6730046_1280.jpg"
    },
    {
        "id": "6673137",
        "src640": "https://cdn.pixabay.com/photo/2021/10/01/17/41/girl-6673137_640.jpg",
        "src1280": "https://cdn.pixabay.com/photo/2021/10/01/17/41/girl-6673137_1280.jpg"
    },
    {
        "id": "7099100",
        "src640": "https://cdn.pixabay.com/photo/2022/03/29/09/34/woman-7099100_640.jpg",
        "src1280": "https://cdn.pixabay.com/photo/2022/03/29/09/34/woman-7099100_1280.jpg"
    },
    {
        "id": "7038096",
        "src640": "https://cdn.pixabay.com/photo/2022/02/27/21/09/man-7038096_640.jpg",
        "src1280": "https://cdn.pixabay.com/photo/2022/02/27/21/09/man-7038096_1280.jpg"
    },
    {
        "id": "5164134",
        "src640": "https://cdn.pixabay.com/photo/2020/05/12/17/28/casio-5164134_640.jpg",
        "src1280": "https://cdn.pixabay.com/photo/2020/05/12/17/28/casio-5164134_1280.jpg"
    },
    {
        "id": "7572227",
        "src640": "https://cdn.pixabay.com/photo/2022/11/05/16/18/iphone-7572227_640.jpg",
        "src1280": "https://cdn.pixabay.com/photo/2022/11/05/16/18/iphone-7572227_1280.jpg"
    },
    {
        "id": "6537831",
        "src640": "https://cdn.pixabay.com/photo/2021/08/11/08/27/man-6537831_640.jpg",
        "src1280": "https://cdn.pixabay.com/photo/2021/08/11/08/27/man-6537831_1280.jpg"
    },
    {
        "id": "2592191",
        "src640": "https://cdn.pixabay.com/photo/2017/08/06/12/45/people-2592191_640.jpg",
        "src1280": "https://cdn.pixabay.com/photo/2017/08/06/12/45/people-2592191_1280.jpg"
    },
    {
        "id": "6570375",
        "src640": "https://cdn.pixabay.com/photo/2021/08/24/11/31/couple-6570375_640.jpg",
        "src1280": "https://cdn.pixabay.com/photo/2021/08/24/11/31/couple-6570375_1280.jpg"
    },
    {
        "id": "7025951",
        "src640": "https://cdn.pixabay.com/photo/2022/02/21/07/15/man-7025951_640.jpg",
        "src1280": "https://cdn.pixabay.com/photo/2022/02/21/07/15/man-7025951_1280.jpg"
    },
    {
        "id": "7027981",
        "src640": "https://cdn.pixabay.com/photo/2022/02/22/04/04/girl-7027981_640.jpg",
        "src1280": "https://cdn.pixabay.com/photo/2022/02/22/04/04/girl-7027981_1280.jpg"
    },
    {
        "id": "6570356",
        "src640": "https://cdn.pixabay.com/photo/2021/08/24/11/21/man-6570356_640.jpg",
        "src1280": "https://cdn.pixabay.com/photo/2021/08/24/11/21/man-6570356_1280.jpg"
    },
    {
        "id": "7131387",
        "src640": "https://cdn.pixabay.com/photo/2022/04/14/00/24/woman-7131387_640.jpg",
        "src1280": "https://cdn.pixabay.com/photo/2022/04/14/00/24/woman-7131387_1280.jpg"
    },
    {
        "id": "7048763",
        "src640": "https://cdn.pixabay.com/photo/2022/03/05/09/33/vietnamese-bride-7048763_640.jpg",
        "src1280": "https://cdn.pixabay.com/photo/2022/03/05/09/33/vietnamese-bride-7048763_1280.jpg"
    },
    {
        "id": "6531370",
        "src640": "https://cdn.pixabay.com/photo/2021/08/08/16/47/woman-6531370_640.jpg",
        "src1280": "https://cdn.pixabay.com/photo/2021/08/08/16/47/woman-6531370_1280.jpg"
    },
    {
        "id": "6535690",
        "src640": "https://cdn.pixabay.com/photo/2021/08/10/10/52/man-6535690_640.jpg",
        "src1280": "https://cdn.pixabay.com/photo/2021/08/10/10/52/man-6535690_1280.jpg"
    },
    {
        "id": "3303623",
        "src640": "https://cdn.pixabay.com/photo/2018/04/09/09/33/outdoors-3303623_640.jpg",
        "src1280": "https://cdn.pixabay.com/photo/2018/04/09/09/33/outdoors-3303623_1280.jpg"
    },
    {
        "id": "6730097",
        "src640": "https://cdn.pixabay.com/photo/2021/10/21/19/02/wristwatch-6730097_640.jpg",
        "src1280": "https://cdn.pixabay.com/photo/2021/10/21/19/02/wristwatch-6730097_1280.jpg"
    },
    {
        "id": "7510462",
        "src640": "https://cdn.pixabay.com/photo/2022/10/10/00/44/woman-7510462_640.jpg",
        "src1280": "https://cdn.pixabay.com/photo/2022/10/10/00/44/woman-7510462_1280.jpg"
    },
    {
        "id": "6676370",
        "src640": "https://cdn.pixabay.com/photo/2021/10/02/20/33/man-6676370_640.jpg",
        "src1280": "https://cdn.pixabay.com/photo/2021/10/02/20/33/man-6676370_1280.jpg"
    },
    {
        "id": "7014726",
        "src640": "https://cdn.pixabay.com/photo/2022/02/15/11/26/man-7014726_640.jpg",
        "src1280": "https://cdn.pixabay.com/photo/2022/02/15/11/26/man-7014726_1280.jpg"
    },
    {
        "id": "6527457",
        "src640": "https://cdn.pixabay.com/photo/2021/08/07/00/01/man-6527457_640.jpg",
        "src1280": "https://cdn.pixabay.com/photo/2021/08/07/00/01/man-6527457_1280.jpg"
    },
    {
        "id": "6961410",
        "src640": "https://cdn.pixabay.com/photo/2022/01/23/16/48/woman-6961410_640.jpg",
        "src1280": "https://cdn.pixabay.com/photo/2022/01/23/16/48/woman-6961410_1280.jpg"
    },
    {
        "id": "6676363",
        "src640": "https://cdn.pixabay.com/photo/2021/10/02/20/30/man-6676363_640.jpg",
        "src1280": "https://cdn.pixabay.com/photo/2021/10/02/20/30/man-6676363_1280.jpg"
    },
    {
        "id": "7333172",
        "src640": "https://cdn.pixabay.com/photo/2022/07/20/00/46/man-7333172_640.jpg",
        "src1280": "https://cdn.pixabay.com/photo/2022/07/20/00/46/man-7333172_1280.jpg"
    },
    {
        "id": "5164149",
        "src640": "https://cdn.pixabay.com/photo/2020/05/12/17/30/casio-5164149_640.jpg",
        "src1280": "https://cdn.pixabay.com/photo/2020/05/12/17/30/casio-5164149_1280.jpg"
    },
    {
        "id": "7052478",
        "src640": "https://cdn.pixabay.com/photo/2022/03/06/20/16/man-7052478_640.jpg",
        "src1280": "https://cdn.pixabay.com/photo/2022/03/06/20/16/man-7052478_1280.jpg"
    },
    {
        "id": "7617172",
        "src640": "https://cdn.pixabay.com/photo/2022/11/26/02/42/woman-7617172_640.jpg",
        "src1280": "https://cdn.pixabay.com/photo/2022/11/26/02/42/woman-7617172_1280.jpg"
    },
    {
        "id": "4922154",
        "src640": "https://cdn.pixabay.com/photo/2020/03/11/13/28/jacket-4922154_640.jpg",
        "src1280": "https://cdn.pixabay.com/photo/2020/03/11/13/28/jacket-4922154_1280.jpg"
    },
    {
        "id": "5937493",
        "src640": "https://cdn.pixabay.com/photo/2021/01/21/14/07/fashion-5937493_640.jpg",
        "src1280": "https://cdn.pixabay.com/photo/2021/01/21/14/07/fashion-5937493_1280.jpg"
    },
    {
        "id": "7359375",
        "src640": "https://cdn.pixabay.com/photo/2022/08/02/03/09/man-7359375_640.jpg",
        "src1280": "https://cdn.pixabay.com/photo/2022/08/02/03/09/man-7359375_1280.jpg"
    },
    {
        "id": "6570353",
        "src640": "https://cdn.pixabay.com/photo/2021/08/24/11/20/man-6570353_640.jpg",
        "src1280": "https://cdn.pixabay.com/photo/2021/08/24/11/20/man-6570353_1280.jpg"
    },
    {
        "id": "4976852",
        "src640": "https://cdn.pixabay.com/photo/2020/03/28/12/34/closeup-4976852_640.jpg",
        "src1280": "https://cdn.pixabay.com/photo/2020/03/28/12/34/closeup-4976852_1280.jpg"
    },
    {
        "id": "6513263",
        "src640": "https://cdn.pixabay.com/photo/2021/07/31/23/55/man-6513263_640.jpg",
        "src1280": "https://cdn.pixabay.com/photo/2021/07/31/23/55/man-6513263_1280.jpg"
    },
    {
        "id": "882546",
        "src640": "https://cdn.pixabay.com/photo/2015/08/10/09/25/fashion-882546_640.jpg",
        "src1280": "https://cdn.pixabay.com/photo/2015/08/10/09/25/fashion-882546_1280.jpg"
    },
    {
        "id": "4782076",
        "src640": "https://cdn.pixabay.com/photo/2020/01/21/05/22/girl-4782076_640.jpg",
        "src1280": "https://cdn.pixabay.com/photo/2020/01/21/05/22/girl-4782076_1280.jpg"
    },
    {
        "id": "7033916",
        "src640": "https://cdn.pixabay.com/photo/2022/02/25/10/25/girls-7033916_640.jpg",
        "src1280": "https://cdn.pixabay.com/photo/2022/02/25/10/25/girls-7033916_1280.jpg"
    },
    {
        "id": "7128547",
        "src640": "https://cdn.pixabay.com/photo/2022/04/12/18/09/woman-7128547_640.jpg",
        "src1280": "https://cdn.pixabay.com/photo/2022/04/12/18/09/woman-7128547_1280.jpg"
    },
    {
        "id": "3902601",
        "src640": "https://cdn.pixabay.com/photo/2018/12/30/04/09/clothes-3902601_640.jpg",
        "src1280": "https://cdn.pixabay.com/photo/2018/12/30/04/09/clothes-3902601_1280.jpg"
    },
    {
        "id": "7805502",
        "src640": "https://cdn.pixabay.com/photo/2023/02/22/01/51/fashion-7805502_640.jpg",
        "src1280": "https://cdn.pixabay.com/photo/2023/02/22/01/51/fashion-7805502_1280.jpg"
    },
    {
        "id": "6730145",
        "src640": "https://cdn.pixabay.com/photo/2021/10/21/19/06/wristwatch-6730145_640.jpg",
        "src1280": "https://cdn.pixabay.com/photo/2021/10/21/19/06/wristwatch-6730145_1280.jpg"
    },
    {
        "id": "6624359",
        "src640": "https://cdn.pixabay.com/photo/2021/09/14/15/52/man-6624359_640.jpg",
        "src1280": "https://cdn.pixabay.com/photo/2021/09/14/15/52/man-6624359_1280.jpg"
    },
    {
        "id": "3847128",
        "src640": "https://cdn.pixabay.com/photo/2018/11/30/07/09/woman-3847128_640.jpg",
        "src1280": "https://cdn.pixabay.com/photo/2018/11/30/07/09/woman-3847128_1280.jpg"
    },
    {
        "id": "7744268",
        "src640": "https://cdn.pixabay.com/photo/2023/01/25/18/29/woman-7744268_640.jpg",
        "src1280": "https://cdn.pixabay.com/photo/2023/01/25/18/29/woman-7744268_1280.jpg"
    },
    {
        "id": "6676371",
        "src640": "https://cdn.pixabay.com/photo/2021/10/02/20/33/man-6676371_640.jpg",
        "src1280": "https://cdn.pixabay.com/photo/2021/10/02/20/33/man-6676371_1280.jpg"
    },
    {
        "id": "7686772",
        "src640": "https://cdn.pixabay.com/photo/2022/12/30/11/50/male-model-7686772_640.jpg",
        "src1280": "https://cdn.pixabay.com/photo/2022/12/30/11/50/male-model-7686772_1280.jpg"
    },
    {
        "id": "7654788",
        "src640": "https://cdn.pixabay.com/photo/2022/12/14/07/26/thai-media-costumes-7654788_640.jpg",
        "src1280": "https://cdn.pixabay.com/photo/2022/12/14/07/26/thai-media-costumes-7654788_1280.jpg"
    },
    {
        "id": "6519088",
        "src640": "https://cdn.pixabay.com/photo/2021/08/03/11/05/man-6519088_640.jpg",
        "src1280": "https://cdn.pixabay.com/photo/2021/08/03/11/05/man-6519088_1280.jpg"
    },
    {
        "id": "5164145",
        "src640": "https://cdn.pixabay.com/photo/2020/05/12/17/30/casio-5164145_640.jpg",
        "src1280": "https://cdn.pixabay.com/photo/2020/05/12/17/30/casio-5164145_1280.jpg"
    },
    {
        "id": "7836945",
        "src640": "https://cdn.pixabay.com/photo/2023/03/08/05/32/woman-7836945_640.jpg",
        "src1280": "https://cdn.pixabay.com/photo/2023/03/08/05/32/woman-7836945_1280.jpg"
    },
    {
        "id": "7052474",
        "src640": "https://cdn.pixabay.com/photo/2022/03/06/20/15/wedding-7052474_640.jpg",
        "src1280": "https://cdn.pixabay.com/photo/2022/03/06/20/15/wedding-7052474_1280.jpg"
    },
    {
        "id": "5117535",
        "src640": "https://cdn.pixabay.com/photo/2020/05/01/15/04/art-5117535_640.jpg",
        "src1280": "https://cdn.pixabay.com/photo/2020/05/01/15/04/art-5117535_1280.jpg"
    },
    {
        "id": "7033915",
        "src640": "https://cdn.pixabay.com/photo/2022/02/25/10/25/girls-7033915_640.jpg",
        "src1280": "https://cdn.pixabay.com/photo/2022/02/25/10/25/girls-7033915_1280.jpg"
    },
    {
        "id": "7505626",
        "src640": "https://cdn.pixabay.com/photo/2022/10/07/18/27/people-7505626_640.jpg",
        "src1280": "https://cdn.pixabay.com/photo/2022/10/07/18/27/people-7505626_1280.jpg"
    },
    {
        "id": "5409763",
        "src640": "https://cdn.pixabay.com/photo/2020/07/16/05/49/girl-5409763_640.jpg",
        "src1280": "https://cdn.pixabay.com/photo/2020/07/16/05/49/girl-5409763_1280.jpg"
    },
    {
        "id": "7060183",
        "src640": "https://cdn.pixabay.com/photo/2022/03/10/16/17/young-woman-7060183_640.jpg",
        "src1280": "https://cdn.pixabay.com/photo/2022/03/10/16/17/young-woman-7060183_1280.jpg"
    },
    {
        "id": "7033906",
        "src640": "https://cdn.pixabay.com/photo/2022/02/25/10/24/girl-7033906_640.jpg",
        "src1280": "https://cdn.pixabay.com/photo/2022/02/25/10/24/girl-7033906_1280.jpg"
    }
]