[
    {
        "id": "3754071",
        "src640": "https://cdn.pixabay.com/photo/2018/10/17/14/20/figure-3754071_640.jpg",
        "src1280": "https://cdn.pixabay.com/photo/2018/10/17/14/20/figure-3754071_1280.jpg"
    },
    {
        "id": "3164868",
        "src640": "https://cdn.pixabay.com/photo/2018/02/19/12/05/portrait-3164868_640.jpg",
        "src1280": "https://cdn.pixabay.com/photo/2018/02/19/12/05/portrait-3164868_1280.jpg"
    },
    {
        "id": "1161222",
        "src640": "https://cdn.pixabay.com/photo/2016/01/25/18/41/women-1161222_640.jpg",
        "src1280": "https://cdn.pixabay.com/photo/2016/01/25/18/41/women-1161222_1280.jpg"
    },
    {
        "id": "1001981",
        "src640": "https://cdn.pixabay.com/photo/2015/10/22/21/35/greeting-card-1001981_640.jpg",
        "src1280": "https://cdn.pixabay.com/photo/2015/10/22/21/35/greeting-card-1001981_1280.jpg"
    },
    {
        "id": "4407339",
        "src640": "https://cdn.pixabay.com/photo/2019/08/15/07/13/vintage-4407339_640.jpg",
        "src1280": "https://cdn.pixabay.com/photo/2019/08/15/07/13/vintage-4407339_1280.jpg"
    },
    {
        "id": "8430288",
        "src640": "https://cdn.pixabay.com/photo/2023/12/04/20/12/woman-8430288_640.jpg",
        "src1280": "https://cdn.pixabay.com/photo/2023/12/04/20/12/woman-8430288_1280.jpg"
    },
    {
        "id": "3359195",
        "src640": "https://cdn.pixabay.com/photo/2018/04/29/07/18/fashion-3359195_640.jpg",
        "src1280": "https://cdn.pixabay.com/photo/2018/04/29/07/18/fashion-3359195_1280.jpg"
    },
    {
        "id": "1253003",
        "src640": "https://cdn.pixabay.com/photo/2016/03/12/23/18/girl-1253003_640.jpg",
        "src1280": "https://cdn.pixabay.com/photo/2016/03/12/23/18/girl-1253003_1280.jpg"
    },
    {
        "id": "8427903",
        "src640": "https://cdn.pixabay.com/photo/2023/12/03/17/27/ai-generated-8427903_640.jpg",
        "src1280": "https://cdn.pixabay.com/photo/2023/12/03/17/27/ai-generated-8427903_1280.jpg"
    },
    {
        "id": "1167768",
        "src640": "https://cdn.pixabay.com/photo/2016/01/29/11/29/vintage-1167768_640.jpg",
        "src1280": "https://cdn.pixabay.com/photo/2016/01/29/11/29/vintage-1167768_1280.jpg"
    },
    {
        "id": "7613437",
        "src640": "https://cdn.pixabay.com/photo/2022/11/24/04/21/ai-generated-7613437_640.jpg",
        "src1280": "https://cdn.pixabay.com/photo/2022/11/24/04/21/ai-generated-7613437_1280.jpg"
    },
    {
        "id": "1283867",
        "src640": "https://cdn.pixabay.com/photo/2016/03/27/19/32/chic-1283867_640.jpg",
        "src1280": "https://cdn.pixabay.com/photo/2016/03/27/19/32/chic-1283867_1280.jpg"
    },
    {
        "id": "1497631",
        "src640": "https://cdn.pixabay.com/photo/2016/07/04/22/27/dress-1497631_640.jpg",
        "src1280": "https://cdn.pixabay.com/photo/2016/07/04/22/27/dress-1497631_1280.jpg"
    },
    {
        "id": "7582109",
        "src640": "https://cdn.pixabay.com/photo/2022/11/10/06/56/girl-7582109_640.jpg",
        "src1280": "https://cdn.pixabay.com/photo/2022/11/10/06/56/girl-7582109_1280.jpg"
    },
    {
        "id": "8412752",
        "src640": "https://cdn.pixabay.com/photo/2023/11/26/02/41/ai-generated-8412752_640.jpg",
        "src1280": "https://cdn.pixabay.com/photo/2023/11/26/02/41/ai-generated-8412752_1280.jpg"
    },
    {
        "id": "2134459",
        "src640": "https://cdn.pixabay.com/photo/2017/03/11/06/38/model-2134459_640.jpg",
        "src1280": "https://cdn.pixabay.com/photo/2017/03/11/06/38/model-2134459_1280.jpg"
    },
    {
        "id": "618563",
        "src640": "https://cdn.pixabay.com/photo/2015/01/31/15/01/girl-618563_640.jpg",
        "src1280": "https://cdn.pixabay.com/photo/2015/01/31/15/01/girl-618563_1280.jpg"
    },
    {
        "id": "1061569",
        "src640": "https://cdn.pixabay.com/photo/2015/11/25/09/52/vintage-1061569_640.jpg",
        "src1280": "https://cdn.pixabay.com/photo/2015/11/25/09/52/vintage-1061569_1280.jpg"
    },
    {
        "id": "8113426",
        "src640": "https://cdn.pixabay.com/photo/2023/07/07/22/07/ai-generated-8113426_640.jpg",
        "src1280": "https://cdn.pixabay.com/photo/2023/07/07/22/07/ai-generated-8113426_1280.jpg"
    },
    {
        "id": "1025375",
        "src640": "https://cdn.pixabay.com/photo/2015/11/06/05/04/japanese-fashion-1025375_640.jpg",
        "src1280": "https://cdn.pixabay.com/photo/2015/11/06/05/04/japanese-fashion-1025375_1280.jpg"
    },
    {
        "id": "7996449",
        "src640": "https://cdn.pixabay.com/photo/2023/05/16/04/00/woman-7996449_640.jpg",
        "src1280": "https://cdn.pixabay.com/photo/2023/05/16/04/00/woman-7996449_1280.jpg"
    },
    {
        "id": "910367",
        "src640": "https://cdn.pixabay.com/photo/2015/08/27/12/19/vintage-910367_640.jpg",
        "src1280": "https://cdn.pixabay.com/photo/2015/08/27/12/19/vintage-910367_1280.jpg"
    },
    {
        "id": "2894819",
        "src640": "https://cdn.pixabay.com/photo/2017/10/27/16/27/lady-2894819_640.jpg",
        "src1280": "https://cdn.pixabay.com/photo/2017/10/27/16/27/lady-2894819_1280.jpg"
    },
    {
        "id": "1060201",
        "src640": "https://cdn.pixabay.com/photo/2015/11/24/15/24/vintage-1060201_640.jpg",
        "src1280": "https://cdn.pixabay.com/photo/2015/11/24/15/24/vintage-1060201_1280.jpg"
    },
    {
        "id": "8437001",
        "src640": "https://cdn.pixabay.com/photo/2023/12/08/07/27/woman-8437001_640.jpg",
        "src1280": "https://cdn.pixabay.com/photo/2023/12/08/07/27/woman-8437001_1280.jpg"
    },
    {
        "id": "2635354",
        "src640": "https://cdn.pixabay.com/photo/2017/08/12/20/51/retro-2635354_640.jpg",
        "src1280": "https://cdn.pixabay.com/photo/2017/08/12/20/51/retro-2635354_1280.jpg"
    },
    {
        "id": "1001980",
        "src640": "https://cdn.pixabay.com/photo/2015/10/22/21/35/greeting-card-1001980_640.jpg",
        "src1280": "https://cdn.pixabay.com/photo/2015/10/22/21/35/greeting-card-1001980_1280.jpg"
    },
    {
        "id": "1856825",
        "src640": "https://cdn.pixabay.com/photo/2016/11/24/18/02/ladder-1856825_640.jpg",
        "src1280": "https://cdn.pixabay.com/photo/2016/11/24/18/02/ladder-1856825_1280.jpg"
    },
    {
        "id": "8416451",
        "src640": "https://cdn.pixabay.com/photo/2023/11/28/00/54/ai-generated-8416451_640.jpg",
        "src1280": "https://cdn.pixabay.com/photo/2023/11/28/00/54/ai-generated-8416451_1280.jpg"
    },
    {
        "id": "7582105",
        "src640": "https://cdn.pixabay.com/photo/2022/11/10/06/51/girl-7582105_640.jpg",
        "src1280": "https://cdn.pixabay.com/photo/2022/11/10/06/51/girl-7582105_1280.jpg"
    },
    {
        "id": "953426",
        "src640": "https://cdn.pixabay.com/photo/2015/09/23/10/46/vintage-953426_640.jpg",
        "src1280": "https://cdn.pixabay.com/photo/2015/09/23/10/46/vintage-953426_1280.jpg"
    },
    {
        "id": "2478970",
        "src640": "https://cdn.pixabay.com/photo/2017/07/06/18/48/supergirl-2478970_640.jpg",
        "src1280": "https://cdn.pixabay.com/photo/2017/07/06/18/48/supergirl-2478970_1280.jpg"
    },
    {
        "id": "1670935",
        "src640": "https://cdn.pixabay.com/photo/2016/09/15/02/13/girl-1670935_640.jpg",
        "src1280": "https://cdn.pixabay.com/photo/2016/09/15/02/13/girl-1670935_1280.jpg"
    },
    {
        "id": "1214881",
        "src640": "https://cdn.pixabay.com/photo/2016/02/22/07/37/fabric-1214881_640.jpg",
        "src1280": "https://cdn.pixabay.com/photo/2016/02/22/07/37/fabric-1214881_1280.jpg"
    },
    {
        "id": "1497623",
        "src640": "https://cdn.pixabay.com/photo/2016/07/04/22/23/dress-1497623_640.jpg",
        "src1280": "https://cdn.pixabay.com/photo/2016/07/04/22/23/dress-1497623_1280.jpg"
    },
    {
        "id": "8427905",
        "src640": "https://cdn.pixabay.com/photo/2023/12/03/17/29/ai-generated-8427905_640.jpg",
        "src1280": "https://cdn.pixabay.com/photo/2023/12/03/17/29/ai-generated-8427905_1280.jpg"
    },
    {
        "id": "3756503",
        "src640": "https://cdn.pixabay.com/photo/2018/10/18/14/07/girl-3756503_640.jpg",
        "src1280": "https://cdn.pixabay.com/photo/2018/10/18/14/07/girl-3756503_1280.jpg"
    },
    {
        "id": "5358458",
        "src640": "https://cdn.pixabay.com/photo/2020/07/01/05/27/woman-5358458_640.jpg",
        "src1280": "https://cdn.pixabay.com/photo/2020/07/01/05/27/woman-5358458_1280.jpg"
    },
    {
        "id": "1001984",
        "src640": "https://cdn.pixabay.com/photo/2015/10/22/21/36/greeting-card-1001984_640.jpg",
        "src1280": "https://cdn.pixabay.com/photo/2015/10/22/21/36/greeting-card-1001984_1280.jpg"
    },
    {
        "id": "2961482",
        "src640": "https://cdn.pixabay.com/photo/2017/11/18/22/47/man-2961482_640.jpg",
        "src1280": "https://cdn.pixabay.com/photo/2017/11/18/22/47/man-2961482_1280.jpg"
    },
    {
        "id": "1384083",
        "src640": "https://cdn.pixabay.com/photo/2016/05/10/16/33/fabric-1384083_640.jpg",
        "src1280": "https://cdn.pixabay.com/photo/2016/05/10/16/33/fabric-1384083_1280.jpg"
    }
]