[
    {
        "id": "791731",
        "src640": "https://cdn.pixabay.com/photo/2015/05/31/13/20/girl-791731_640.jpg",
        "src1280": "https://cdn.pixabay.com/photo/2015/05/31/13/20/girl-791731_1280.jpg"
    },
    {
        "id": "828395",
        "src640": "https://cdn.pixabay.com/photo/2015/07/02/05/28/portrait-828395_640.jpg",
        "src1280": "https://cdn.pixabay.com/photo/2015/07/02/05/28/portrait-828395_1280.jpg"
    },
    {
        "id": "2190028",
        "src640": "https://cdn.pixabay.com/photo/2017/03/30/23/30/fashion-2190028_640.jpg",
        "src1280": "https://cdn.pixabay.com/photo/2017/03/30/23/30/fashion-2190028_1280.jpg"
    },
    {
        "id": "2178816",
        "src640": "https://cdn.pixabay.com/photo/2017/03/27/13/43/woman-2178816_640.jpg",
        "src1280": "https://cdn.pixabay.com/photo/2017/03/27/13/43/woman-2178816_1280.jpg"
    },
    {
        "id": "1845578",
        "src640": "https://cdn.pixabay.com/photo/2016/11/21/14/04/beautiful-1845578_640.jpg",
        "src1280": "https://cdn.pixabay.com/photo/2016/11/21/14/04/beautiful-1845578_1280.jpg"
    },
    {
        "id": "2727846",
        "src640": "https://cdn.pixabay.com/photo/2017/09/08/06/23/pinky-2727846_640.jpg",
        "src1280": "https://cdn.pixabay.com/photo/2017/09/08/06/23/pinky-2727846_1280.jpg"
    },
    {
        "id": "678832",
        "src640": "https://cdn.pixabay.com/photo/2015/03/18/05/33/mode-678832_640.jpg",
        "src1280": "https://cdn.pixabay.com/photo/2015/03/18/05/33/mode-678832_1280.jpg"
    },
    {
        "id": "7880177",
        "src640": "https://cdn.pixabay.com/photo/2023/03/27/08/53/woman-7880177_640.jpg",
        "src1280": "https://cdn.pixabay.com/photo/2023/03/27/08/53/woman-7880177_1280.jpg"
    },
    {
        "id": "5368401",
        "src640": "https://cdn.pixabay.com/photo/2020/07/04/06/25/woman-5368401_640.jpg",
        "src1280": "https://cdn.pixabay.com/photo/2020/07/04/06/25/woman-5368401_1280.jpg"
    },
    {
        "id": "4610858",
        "src640": "https://cdn.pixabay.com/photo/2019/11/08/09/24/portrait-4610858_640.jpg",
        "src1280": "https://cdn.pixabay.com/photo/2019/11/08/09/24/portrait-4610858_1280.jpg"
    },
    {
        "id": "1746622",
        "src640": "https://cdn.pixabay.com/photo/2016/10/16/23/38/fashion-show-1746622_640.jpg",
        "src1280": "https://cdn.pixabay.com/photo/2016/10/16/23/38/fashion-show-1746622_1280.jpg"
    },
    {
        "id": "2169859",
        "src640": "https://cdn.pixabay.com/photo/2017/03/24/01/08/woman-2169859_640.jpg",
        "src1280": "https://cdn.pixabay.com/photo/2017/03/24/01/08/woman-2169859_1280.jpg"
    },
    {
        "id": "1746612",
        "src640": "https://cdn.pixabay.com/photo/2016/10/16/23/36/fashion-show-1746612_640.jpg",
        "src1280": "https://cdn.pixabay.com/photo/2016/10/16/23/36/fashion-show-1746612_1280.jpg"
    },
    {
        "id": "6135236",
        "src640": "https://cdn.pixabay.com/photo/2021/03/29/20/28/woman-6135236_640.jpg",
        "src1280": "https://cdn.pixabay.com/photo/2021/03/29/20/28/woman-6135236_1280.jpg"
    },
    {
        "id": "5095383",
        "src640": "https://cdn.pixabay.com/photo/2020/04/26/14/09/girl-5095383_640.jpg",
        "src1280": "https://cdn.pixabay.com/photo/2020/04/26/14/09/girl-5095383_1280.jpg"
    },
    {
        "id": "5531217",
        "src640": "https://cdn.pixabay.com/photo/2020/08/31/03/21/girl-5531217_640.jpg",
        "src1280": "https://cdn.pixabay.com/photo/2020/08/31/03/21/girl-5531217_1280.jpg"
    },
    {
        "id": "725045",
        "src640": "https://cdn.pixabay.com/photo/2015/04/16/04/50/beauty-725045_640.jpg",
        "src1280": "https://cdn.pixabay.com/photo/2015/04/16/04/50/beauty-725045_1280.jpg"
    },
    {
        "id": "678807",
        "src640": "https://cdn.pixabay.com/photo/2015/03/18/05/07/glamour-678807_640.jpg",
        "src1280": "https://cdn.pixabay.com/photo/2015/03/18/05/07/glamour-678807_1280.jpg"
    },
    {
        "id": "4123270",
        "src640": "https://cdn.pixabay.com/photo/2019/04/12/21/19/woman-4123270_640.jpg",
        "src1280": "https://cdn.pixabay.com/photo/2019/04/12/21/19/woman-4123270_1280.jpg"
    },
    {
        "id": "4605248",
        "src640": "https://cdn.pixabay.com/photo/2019/11/06/05/57/woman-4605248_640.jpg",
        "src1280": "https://cdn.pixabay.com/photo/2019/11/06/05/57/woman-4605248_1280.jpg"
    },
    {
        "id": "1853504",
        "src640": "https://cdn.pixabay.com/photo/2016/11/23/15/25/cabinet-1853504_640.jpg",
        "src1280": "https://cdn.pixabay.com/photo/2016/11/23/15/25/cabinet-1853504_1280.jpg"
    },
    {
        "id": "6356536",
        "src640": "https://cdn.pixabay.com/photo/2021/06/22/16/04/beauty-6356536_640.jpg",
        "src1280": "https://cdn.pixabay.com/photo/2021/06/22/16/04/beauty-6356536_1280.jpg"
    },
    {
        "id": "5590119",
        "src640": "https://cdn.pixabay.com/photo/2020/09/21/13/38/woman-5590119_640.jpg",
        "src1280": "https://cdn.pixabay.com/photo/2020/09/21/13/38/woman-5590119_1280.jpg"
    },
    {
        "id": "7851024",
        "src640": "https://cdn.pixabay.com/photo/2023/03/13/23/48/woman-7851024_640.jpg",
        "src1280": "https://cdn.pixabay.com/photo/2023/03/13/23/48/woman-7851024_1280.jpg"
    },
    {
        "id": "2561768",
        "src640": "https://cdn.pixabay.com/photo/2017/07/31/22/47/fashion-2561768_640.jpg",
        "src1280": "https://cdn.pixabay.com/photo/2017/07/31/22/47/fashion-2561768_1280.jpg"
    },
    {
        "id": "2164016",
        "src640": "https://cdn.pixabay.com/photo/2017/03/22/05/00/portrait-2164016_640.jpg",
        "src1280": "https://cdn.pixabay.com/photo/2017/03/22/05/00/portrait-2164016_1280.jpg"
    },
    {
        "id": "1255321",
        "src640": "https://cdn.pixabay.com/photo/2016/03/14/11/09/woman-1255321_640.jpg",
        "src1280": "https://cdn.pixabay.com/photo/2016/03/14/11/09/woman-1255321_1280.jpg"
    },
    {
        "id": "746522",
        "src640": "https://cdn.pixabay.com/photo/2015/04/30/06/51/girl-746522_640.jpg",
        "src1280": "https://cdn.pixabay.com/photo/2015/04/30/06/51/girl-746522_1280.jpg"
    },
    {
        "id": "4292183",
        "src640": "https://cdn.pixabay.com/photo/2019/06/22/18/25/woman-4292183_640.jpg",
        "src1280": "https://cdn.pixabay.com/photo/2019/06/22/18/25/woman-4292183_1280.jpg"
    },
    {
        "id": "2044666",
        "src640": "https://cdn.pixabay.com/photo/2017/02/07/00/17/girl-2044666_640.jpg",
        "src1280": "https://cdn.pixabay.com/photo/2017/02/07/00/17/girl-2044666_1280.jpg"
    },
    {
        "id": "5679419",
        "src640": "https://cdn.pixabay.com/photo/2020/10/23/17/47/girl-5679419_640.jpg",
        "src1280": "https://cdn.pixabay.com/photo/2020/10/23/17/47/girl-5679419_1280.jpg"
    },
    {
        "id": "3089385",
        "src640": "https://cdn.pixabay.com/photo/2018/01/18/01/44/beautiful-3089385_640.jpg",
        "src1280": "https://cdn.pixabay.com/photo/2018/01/18/01/44/beautiful-3089385_1280.jpg"
    },
    {
        "id": "1746596",
        "src640": "https://cdn.pixabay.com/photo/2016/10/16/23/34/fashion-show-1746596_640.jpg",
        "src1280": "https://cdn.pixabay.com/photo/2016/10/16/23/34/fashion-show-1746596_1280.jpg"
    },
    {
        "id": "1623087",
        "src640": "https://cdn.pixabay.com/photo/2016/08/26/20/44/elan-1623087_640.jpg",
        "src1280": "https://cdn.pixabay.com/photo/2016/08/26/20/44/elan-1623087_1280.jpg"
    },
    {
        "id": "3059143",
        "src640": "https://cdn.pixabay.com/photo/2018/01/03/19/54/fashion-3059143_640.jpg",
        "src1280": "https://cdn.pixabay.com/photo/2018/01/03/19/54/fashion-3059143_1280.jpg"
    },
    {
        "id": "1746617",
        "src640": "https://cdn.pixabay.com/photo/2016/10/16/23/37/fashion-show-1746617_640.jpg",
        "src1280": "https://cdn.pixabay.com/photo/2016/10/16/23/37/fashion-show-1746617_1280.jpg"
    },
    {
        "id": "487065",
        "src640": "https://cdn.pixabay.com/photo/2014/10/13/18/10/girl-487065_640.jpg",
        "src1280": "https://cdn.pixabay.com/photo/2014/10/13/18/10/girl-487065_1280.jpg"
    },
    {
        "id": "8016553",
        "src640": "https://cdn.pixabay.com/photo/2023/05/25/07/31/woman-8016553_640.jpg",
        "src1280": "https://cdn.pixabay.com/photo/2023/05/25/07/31/woman-8016553_1280.jpg"
    },
    {
        "id": "3567600",
        "src640": "https://cdn.pixabay.com/photo/2018/07/28/09/23/woman-3567600_640.jpg",
        "src1280": "https://cdn.pixabay.com/photo/2018/07/28/09/23/woman-3567600_1280.jpg"
    },
    {
        "id": "6466382",
        "src640": "https://cdn.pixabay.com/photo/2021/07/14/15/43/woman-6466382_640.jpg",
        "src1280": "https://cdn.pixabay.com/photo/2021/07/14/15/43/woman-6466382_1280.jpg"
    },
    {
        "id": "3857758",
        "src640": "https://cdn.pixabay.com/photo/2018/12/05/13/41/woman-3857758_640.jpg",
        "src1280": "https://cdn.pixabay.com/photo/2018/12/05/13/41/woman-3857758_1280.jpg"
    },
    {
        "id": "1486256",
        "src640": "https://cdn.pixabay.com/photo/2016/06/29/08/41/wedding-dresses-1486256_640.jpg",
        "src1280": "https://cdn.pixabay.com/photo/2016/06/29/08/41/wedding-dresses-1486256_1280.jpg"
    },
    {
        "id": "2190044",
        "src640": "https://cdn.pixabay.com/photo/2017/03/30/23/35/fashion-2190044_640.jpg",
        "src1280": "https://cdn.pixabay.com/photo/2017/03/30/23/35/fashion-2190044_1280.jpg"
    },
    {
        "id": "6537397",
        "src640": "https://cdn.pixabay.com/photo/2021/08/11/04/18/woman-6537397_640.jpg",
        "src1280": "https://cdn.pixabay.com/photo/2021/08/11/04/18/woman-6537397_1280.jpg"
    },
    {
        "id": "1253009",
        "src640": "https://cdn.pixabay.com/photo/2016/03/12/23/18/girl-1253009_640.jpg",
        "src1280": "https://cdn.pixabay.com/photo/2016/03/12/23/18/girl-1253009_1280.jpg"
    },
    {
        "id": "1746619",
        "src640": "https://cdn.pixabay.com/photo/2016/10/16/23/37/fashion-show-1746619_640.jpg",
        "src1280": "https://cdn.pixabay.com/photo/2016/10/16/23/37/fashion-show-1746619_1280.jpg"
    },
    {
        "id": "678820",
        "src640": "https://cdn.pixabay.com/photo/2015/03/18/05/10/style-678820_640.jpg",
        "src1280": "https://cdn.pixabay.com/photo/2015/03/18/05/10/style-678820_1280.jpg"
    },
    {
        "id": "2346216",
        "src640": "https://cdn.pixabay.com/photo/2017/05/26/14/59/womens-2346216_640.jpg",
        "src1280": "https://cdn.pixabay.com/photo/2017/05/26/14/59/womens-2346216_1280.jpg"
    },
    {
        "id": "868904",
        "src640": "https://cdn.pixabay.com/photo/2015/07/31/10/49/girl-868904_640.jpg",
        "src1280": "https://cdn.pixabay.com/photo/2015/07/31/10/49/girl-868904_1280.jpg"
    },
    {
        "id": "7131604",
        "src640": "https://cdn.pixabay.com/photo/2022/04/14/04/45/vintage-aesthetic-7131604_640.jpg",
        "src1280": "https://cdn.pixabay.com/photo/2022/04/14/04/45/vintage-aesthetic-7131604_1280.jpg"
    },
    {
        "id": "2164411",
        "src640": "https://cdn.pixabay.com/photo/2017/03/22/09/09/girl-2164411_640.jpg",
        "src1280": "https://cdn.pixabay.com/photo/2017/03/22/09/09/girl-2164411_1280.jpg"
    },
    {
        "id": "1746599",
        "src640": "https://cdn.pixabay.com/photo/2016/10/16/23/34/fashion-show-1746599_640.jpg",
        "src1280": "https://cdn.pixabay.com/photo/2016/10/16/23/34/fashion-show-1746599_1280.jpg"
    },
    {
        "id": "2134457",
        "src640": "https://cdn.pixabay.com/photo/2017/03/11/06/37/model-2134457_640.jpg",
        "src1280": "https://cdn.pixabay.com/photo/2017/03/11/06/37/model-2134457_1280.jpg"
    },
    {
        "id": "3946473",
        "src640": "https://cdn.pixabay.com/photo/2019/01/21/17/45/woman-3946473_640.jpg",
        "src1280": "https://cdn.pixabay.com/photo/2019/01/21/17/45/woman-3946473_1280.jpg"
    },
    {
        "id": "1746604",
        "src640": "https://cdn.pixabay.com/photo/2016/10/16/23/35/fashion-show-1746604_640.jpg",
        "src1280": "https://cdn.pixabay.com/photo/2016/10/16/23/35/fashion-show-1746604_1280.jpg"
    },
    {
        "id": "2164011",
        "src640": "https://cdn.pixabay.com/photo/2017/03/22/05/00/portrait-2164011_640.jpg",
        "src1280": "https://cdn.pixabay.com/photo/2017/03/22/05/00/portrait-2164011_1280.jpg"
    },
    {
        "id": "2038673",
        "src640": "https://cdn.pixabay.com/photo/2017/02/04/22/42/model-2038673_640.jpg",
        "src1280": "https://cdn.pixabay.com/photo/2017/02/04/22/42/model-2038673_1280.jpg"
    },
    {
        "id": "1746569",
        "src640": "https://cdn.pixabay.com/photo/2016/10/16/23/30/fashion-show-1746569_640.jpg",
        "src1280": "https://cdn.pixabay.com/photo/2016/10/16/23/30/fashion-show-1746569_1280.jpg"
    },
    {
        "id": "2363819",
        "src640": "https://cdn.pixabay.com/photo/2017/06/01/16/08/woman-2363819_640.jpg",
        "src1280": "https://cdn.pixabay.com/photo/2017/06/01/16/08/woman-2363819_1280.jpg"
    },
    {
        "id": "2262160",
        "src640": "https://cdn.pixabay.com/photo/2017/04/26/10/07/girl-2262160_640.jpg",
        "src1280": "https://cdn.pixabay.com/photo/2017/04/26/10/07/girl-2262160_1280.jpg"
    },
    {
        "id": "3153999",
        "src640": "https://cdn.pixabay.com/photo/2018/02/14/21/45/woman-3153999_640.jpg",
        "src1280": "https://cdn.pixabay.com/photo/2018/02/14/21/45/woman-3153999_1280.jpg"
    },
    {
        "id": "1623088",
        "src640": "https://cdn.pixabay.com/photo/2016/08/26/20/44/elan-1623088_640.jpg",
        "src1280": "https://cdn.pixabay.com/photo/2016/08/26/20/44/elan-1623088_1280.jpg"
    },
    {
        "id": "1526872",
        "src640": "https://cdn.pixabay.com/photo/2016/07/18/21/40/girl-1526872_640.jpg",
        "src1280": "https://cdn.pixabay.com/photo/2016/07/18/21/40/girl-1526872_1280.jpg"
    },
    {
        "id": "510441",
        "src640": "https://cdn.pixabay.com/photo/2014/10/31/07/05/young-girl-510441_640.jpg",
        "src1280": "https://cdn.pixabay.com/photo/2014/10/31/07/05/young-girl-510441_1280.jpg"
    },
    {
        "id": "2806675",
        "src640": "https://cdn.pixabay.com/photo/2017/10/01/19/10/woman-2806675_640.jpg",
        "src1280": "https://cdn.pixabay.com/photo/2017/10/01/19/10/woman-2806675_1280.jpg"
    },
    {
        "id": "4613470",
        "src640": "https://cdn.pixabay.com/photo/2019/11/09/12/41/portrait-4613470_640.jpg",
        "src1280": "https://cdn.pixabay.com/photo/2019/11/09/12/41/portrait-4613470_1280.jpg"
    },
    {
        "id": "7363571",
        "src640": "https://cdn.pixabay.com/photo/2022/08/04/00/51/woman-7363571_640.jpg",
        "src1280": "https://cdn.pixabay.com/photo/2022/08/04/00/51/woman-7363571_1280.jpg"
    },
    {
        "id": "1746592",
        "src640": "https://cdn.pixabay.com/photo/2016/10/16/23/33/fashion-show-1746592_640.jpg",
        "src1280": "https://cdn.pixabay.com/photo/2016/10/16/23/33/fashion-show-1746592_1280.jpg"
    },
    {
        "id": "1746588",
        "src640": "https://cdn.pixabay.com/photo/2016/10/16/23/33/fashion-show-1746588_640.jpg",
        "src1280": "https://cdn.pixabay.com/photo/2016/10/16/23/33/fashion-show-1746588_1280.jpg"
    },
    {
        "id": "5791566",
        "src640": "https://cdn.pixabay.com/photo/2020/11/30/17/21/businessman-5791566_640.jpg",
        "src1280": "https://cdn.pixabay.com/photo/2020/11/30/17/21/businessman-5791566_1280.jpg"
    },
    {
        "id": "1872972",
        "src640": "https://cdn.pixabay.com/photo/2016/11/30/14/56/woman-1872972_640.jpg",
        "src1280": "https://cdn.pixabay.com/photo/2016/11/30/14/56/woman-1872972_1280.jpg"
    },
    {
        "id": "1850945",
        "src640": "https://cdn.pixabay.com/photo/2016/11/22/22/29/beautiful-1850945_640.jpg",
        "src1280": "https://cdn.pixabay.com/photo/2016/11/22/22/29/beautiful-1850945_1280.jpg"
    },
    {
        "id": "6243486",
        "src640": "https://cdn.pixabay.com/photo/2021/05/10/14/15/corset-6243486_640.jpg",
        "src1280": "https://cdn.pixabay.com/photo/2021/05/10/14/15/corset-6243486_1280.jpg"
    },
    {
        "id": "4349857",
        "src640": "https://cdn.pixabay.com/photo/2019/07/20/00/10/woman-4349857_640.jpg",
        "src1280": "https://cdn.pixabay.com/photo/2019/07/20/00/10/woman-4349857_1280.jpg"
    },
    {
        "id": "1746594",
        "src640": "https://cdn.pixabay.com/photo/2016/10/16/23/34/fashion-show-1746594_640.jpg",
        "src1280": "https://cdn.pixabay.com/photo/2016/10/16/23/34/fashion-show-1746594_1280.jpg"
    },
    {
        "id": "7094786",
        "src640": "https://cdn.pixabay.com/photo/2022/03/27/11/14/fashion-7094786_640.jpg",
        "src1280": "https://cdn.pixabay.com/photo/2022/03/27/11/14/fashion-7094786_1280.jpg"
    },
    {
        "id": "2164001",
        "src640": "https://cdn.pixabay.com/photo/2017/03/22/04/58/portrait-2164001_640.jpg",
        "src1280": "https://cdn.pixabay.com/photo/2017/03/22/04/58/portrait-2164001_1280.jpg"
    },
    {
        "id": "6255516",
        "src640": "https://cdn.pixabay.com/photo/2021/05/15/10/59/fashion-6255516_640.jpg",
        "src1280": "https://cdn.pixabay.com/photo/2021/05/15/10/59/fashion-6255516_1280.jpg"
    },
    {
        "id": "6571265",
        "src640": "https://cdn.pixabay.com/photo/2021/08/24/17/39/woman-6571265_640.jpg",
        "src1280": "https://cdn.pixabay.com/photo/2021/08/24/17/39/woman-6571265_1280.jpg"
    },
    {
        "id": "7978357",
        "src640": "https://cdn.pixabay.com/photo/2023/05/08/11/18/hair-7978357_640.jpg",
        "src1280": "https://cdn.pixabay.com/photo/2023/05/08/11/18/hair-7978357_1280.jpg"
    }
]