[
    {
        "id": "4223482",
        "src640": "https://cdn.pixabay.com/photo/2019/05/23/09/29/portrait-4223482_640.jpg",
        "src1280": "https://cdn.pixabay.com/photo/2019/05/23/09/29/portrait-4223482_1280.jpg"
    },
    {
        "id": "8307302",
        "src640": "https://cdn.pixabay.com/photo/2023/10/10/19/40/women-8307302_640.jpg",
        "src1280": "https://cdn.pixabay.com/photo/2023/10/10/19/40/women-8307302_1280.jpg"
    },
    {
        "id": "2917161",
        "src640": "https://cdn.pixabay.com/photo/2017/11/04/11/07/beautiful-2917161_640.jpg",
        "src1280": "https://cdn.pixabay.com/photo/2017/11/04/11/07/beautiful-2917161_1280.jpg"
    },
    {
        "id": "7897077",
        "src640": "https://cdn.pixabay.com/photo/2023/04/03/15/18/ai-generated-7897077_640.jpg",
        "src1280": "https://cdn.pixabay.com/photo/2023/04/03/15/18/ai-generated-7897077_1280.jpg"
    },
    {
        "id": "6232207",
        "src640": "https://cdn.pixabay.com/photo/2021/05/06/02/06/woman-6232207_640.jpg",
        "src1280": "https://cdn.pixabay.com/photo/2021/05/06/02/06/woman-6232207_1280.jpg"
    },
    {
        "id": "7867454",
        "src640": "https://cdn.pixabay.com/photo/2023/03/21/14/53/ai-generated-7867454_640.jpg",
        "src1280": "https://cdn.pixabay.com/photo/2023/03/21/14/53/ai-generated-7867454_1280.jpg"
    },
    {
        "id": "7482493",
        "src640": "https://cdn.pixabay.com/photo/2022/09/27/10/11/woman-7482493_640.jpg",
        "src1280": "https://cdn.pixabay.com/photo/2022/09/27/10/11/woman-7482493_1280.jpg"
    },
    {
        "id": "6106952",
        "src640": "https://cdn.pixabay.com/photo/2021/03/19/08/20/fashion-6106952_640.jpg",
        "src1280": "https://cdn.pixabay.com/photo/2021/03/19/08/20/fashion-6106952_1280.jpg"
    },
    {
        "id": "3371353",
        "src640": "https://cdn.pixabay.com/photo/2018/05/03/13/36/summer-3371353_640.jpg",
        "src1280": "https://cdn.pixabay.com/photo/2018/05/03/13/36/summer-3371353_1280.jpg"
    },
    {
        "id": "4746867",
        "src640": "https://cdn.pixabay.com/photo/2020/01/07/06/33/belly-4746867_640.jpg",
        "src1280": "https://cdn.pixabay.com/photo/2020/01/07/06/33/belly-4746867_1280.jpg"
    },
    {
        "id": "7385131",
        "src640": "https://cdn.pixabay.com/photo/2022/08/14/07/52/woman-7385131_640.jpg",
        "src1280": "https://cdn.pixabay.com/photo/2022/08/14/07/52/woman-7385131_1280.jpg"
    },
    {
        "id": "6226508",
        "src640": "https://cdn.pixabay.com/photo/2021/05/03/15/12/ao-dai-6226508_640.jpg",
        "src1280": "https://cdn.pixabay.com/photo/2021/05/03/15/12/ao-dai-6226508_1280.jpg"
    },
    {
        "id": "6553874",
        "src640": "https://cdn.pixabay.com/photo/2021/08/17/18/49/girl-6553874_640.jpg",
        "src1280": "https://cdn.pixabay.com/photo/2021/08/17/18/49/girl-6553874_1280.jpg"
    },
    {
        "id": "4678699",
        "src640": "https://cdn.pixabay.com/photo/2019/12/07/05/37/night-4678699_640.jpg",
        "src1280": "https://cdn.pixabay.com/photo/2019/12/07/05/37/night-4678699_1280.jpg"
    },
    {
        "id": "3063419",
        "src640": "https://cdn.pixabay.com/photo/2018/01/05/17/18/child-3063419_640.jpg",
        "src1280": "https://cdn.pixabay.com/photo/2018/01/05/17/18/child-3063419_1280.jpg"
    },
    {
        "id": "1898304",
        "src640": "https://cdn.pixabay.com/photo/2016/12/10/22/16/vintage-1898304_640.jpg",
        "src1280": "https://cdn.pixabay.com/photo/2016/12/10/22/16/vintage-1898304_1280.jpg"
    },
    {
        "id": "1793185",
        "src640": "https://cdn.pixabay.com/photo/2016/11/03/00/38/vintage-1793185_640.jpg",
        "src1280": "https://cdn.pixabay.com/photo/2016/11/03/00/38/vintage-1793185_1280.jpg"
    },
    {
        "id": "5712892",
        "src640": "https://cdn.pixabay.com/photo/2020/11/04/16/18/woman-5712892_640.jpg",
        "src1280": "https://cdn.pixabay.com/photo/2020/11/04/16/18/woman-5712892_1280.jpg"
    },
    {
        "id": "6745395",
        "src640": "https://cdn.pixabay.com/photo/2021/10/27/01/14/woman-6745395_640.jpg",
        "src1280": "https://cdn.pixabay.com/photo/2021/10/27/01/14/woman-6745395_1280.jpg"
    },
    {
        "id": "699111",
        "src640": "https://cdn.pixabay.com/photo/2015/03/30/13/35/girl-699111_640.jpg",
        "src1280": "https://cdn.pixabay.com/photo/2015/03/30/13/35/girl-699111_1280.jpg"
    },
    {
        "id": "7186167",
        "src640": "https://cdn.pixabay.com/photo/2022/05/10/07/08/woman-7186167_640.jpg",
        "src1280": "https://cdn.pixabay.com/photo/2022/05/10/07/08/woman-7186167_1280.jpg"
    },
    {
        "id": "3048576",
        "src640": "https://cdn.pixabay.com/photo/2017/12/29/20/19/people-3048576_640.jpg",
        "src1280": "https://cdn.pixabay.com/photo/2017/12/29/20/19/people-3048576_1280.jpg"
    },
    {
        "id": "6106950",
        "src640": "https://cdn.pixabay.com/photo/2021/03/19/08/18/fashion-6106950_640.jpg",
        "src1280": "https://cdn.pixabay.com/photo/2021/03/19/08/18/fashion-6106950_1280.jpg"
    },
    {
        "id": "3801431",
        "src640": "https://cdn.pixabay.com/photo/2018/11/07/22/57/book-cover-3801431_640.jpg",
        "src1280": "https://cdn.pixabay.com/photo/2018/11/07/22/57/book-cover-3801431_1280.jpg"
    },
    {
        "id": "2334938",
        "src640": "https://cdn.pixabay.com/photo/2017/05/22/19/00/girl-2334938_640.jpg",
        "src1280": "https://cdn.pixabay.com/photo/2017/05/22/19/00/girl-2334938_1280.jpg"
    },
    {
        "id": "910414",
        "src640": "https://cdn.pixabay.com/photo/2015/08/27/12/56/vintage-910414_640.jpg",
        "src1280": "https://cdn.pixabay.com/photo/2015/08/27/12/56/vintage-910414_1280.jpg"
    },
    {
        "id": "6842902",
        "src640": "https://cdn.pixabay.com/photo/2021/12/03/14/27/woman-6842902_640.jpg",
        "src1280": "https://cdn.pixabay.com/photo/2021/12/03/14/27/woman-6842902_1280.jpg"
    },
    {
        "id": "7131949",
        "src640": "https://cdn.pixabay.com/photo/2022/04/14/08/33/portrait-7131949_640.jpg",
        "src1280": "https://cdn.pixabay.com/photo/2022/04/14/08/33/portrait-7131949_1280.jpg"
    },
    {
        "id": "3376062",
        "src640": "https://cdn.pixabay.com/photo/2018/05/05/10/38/rural-style-3376062_640.jpg",
        "src1280": "https://cdn.pixabay.com/photo/2018/05/05/10/38/rural-style-3376062_1280.jpg"
    },
    {
        "id": "7139247",
        "src640": "https://cdn.pixabay.com/photo/2022/04/18/02/03/portrait-7139247_640.jpg",
        "src1280": "https://cdn.pixabay.com/photo/2022/04/18/02/03/portrait-7139247_1280.jpg"
    },
    {
        "id": "8052683",
        "src640": "https://cdn.pixabay.com/photo/2023/06/09/21/18/woman-8052683_640.jpg",
        "src1280": "https://cdn.pixabay.com/photo/2023/06/09/21/18/woman-8052683_1280.jpg"
    },
    {
        "id": "1103376",
        "src640": "https://cdn.pixabay.com/photo/2015/12/21/23/09/christmas-1103376_640.jpg",
        "src1280": "https://cdn.pixabay.com/photo/2015/12/21/23/09/christmas-1103376_1280.jpg"
    },
    {
        "id": "1895953",
        "src640": "https://cdn.pixabay.com/photo/2016/12/09/20/08/vintage-1895953_640.jpg",
        "src1280": "https://cdn.pixabay.com/photo/2016/12/09/20/08/vintage-1895953_1280.jpg"
    },
    {
        "id": "7657026",
        "src640": "https://cdn.pixabay.com/photo/2022/12/15/06/46/woman-7657026_640.jpg",
        "src1280": "https://cdn.pixabay.com/photo/2022/12/15/06/46/woman-7657026_1280.jpg"
    },
    {
        "id": "4197790",
        "src640": "https://cdn.pixabay.com/photo/2019/05/12/11/35/woman-4197790_640.jpg",
        "src1280": "https://cdn.pixabay.com/photo/2019/05/12/11/35/woman-4197790_1280.jpg"
    },
    {
        "id": "8052684",
        "src640": "https://cdn.pixabay.com/photo/2023/06/09/21/18/woman-8052684_640.jpg",
        "src1280": "https://cdn.pixabay.com/photo/2023/06/09/21/18/woman-8052684_1280.jpg"
    },
    {
        "id": "7219732",
        "src640": "https://cdn.pixabay.com/photo/2022/05/25/05/09/woman-7219732_640.jpg",
        "src1280": "https://cdn.pixabay.com/photo/2022/05/25/05/09/woman-7219732_1280.jpg"
    },
    {
        "id": "6259609",
        "src640": "https://cdn.pixabay.com/photo/2021/05/17/01/56/photography-6259609_640.jpg",
        "src1280": "https://cdn.pixabay.com/photo/2021/05/17/01/56/photography-6259609_1280.jpg"
    },
    {
        "id": "7186166",
        "src640": "https://cdn.pixabay.com/photo/2022/05/10/07/08/woman-7186166_640.jpg",
        "src1280": "https://cdn.pixabay.com/photo/2022/05/10/07/08/woman-7186166_1280.jpg"
    },
    {
        "id": "6116343",
        "src640": "https://cdn.pixabay.com/photo/2021/03/23/05/10/face-6116343_640.jpg",
        "src1280": "https://cdn.pixabay.com/photo/2021/03/23/05/10/face-6116343_1280.jpg"
    },
    {
        "id": "1895942",
        "src640": "https://cdn.pixabay.com/photo/2016/12/09/20/04/vintage-1895942_640.jpg",
        "src1280": "https://cdn.pixabay.com/photo/2016/12/09/20/04/vintage-1895942_1280.jpg"
    },
    {
        "id": "7353810",
        "src640": "https://cdn.pixabay.com/photo/2022/07/30/13/35/woman-7353810_640.jpg",
        "src1280": "https://cdn.pixabay.com/photo/2022/07/30/13/35/woman-7353810_1280.jpg"
    },
    {
        "id": "4448933",
        "src640": "https://cdn.pixabay.com/photo/2019/09/03/08/17/girls-4448933_640.jpg",
        "src1280": "https://cdn.pixabay.com/photo/2019/09/03/08/17/girls-4448933_1280.jpg"
    },
    {
        "id": "1743327",
        "src640": "https://cdn.pixabay.com/photo/2016/10/15/18/56/mehndi-designs-1743327_640.jpg",
        "src1280": "https://cdn.pixabay.com/photo/2016/10/15/18/56/mehndi-designs-1743327_1280.jpg"
    },
    {
        "id": "3422352",
        "src640": "https://cdn.pixabay.com/photo/2018/05/22/20/22/hair-3422352_640.jpg",
        "src1280": "https://cdn.pixabay.com/photo/2018/05/22/20/22/hair-3422352_1280.jpg"
    },
    {
        "id": "6330748",
        "src640": "https://cdn.pixabay.com/photo/2021/06/12/11/47/woman-6330748_640.jpg",
        "src1280": "https://cdn.pixabay.com/photo/2021/06/12/11/47/woman-6330748_1280.jpg"
    },
    {
        "id": "4213519",
        "src640": "https://cdn.pixabay.com/photo/2019/05/19/09/04/posture-4213519_640.jpg",
        "src1280": "https://cdn.pixabay.com/photo/2019/05/19/09/04/posture-4213519_1280.jpg"
    },
    {
        "id": "6876099",
        "src640": "https://cdn.pixabay.com/photo/2021/12/17/09/36/girl-6876099_640.jpg",
        "src1280": "https://cdn.pixabay.com/photo/2021/12/17/09/36/girl-6876099_1280.jpg"
    },
    {
        "id": "4424991",
        "src640": "https://cdn.pixabay.com/photo/2019/08/23/06/16/sepia-4424991_640.jpg",
        "src1280": "https://cdn.pixabay.com/photo/2019/08/23/06/16/sepia-4424991_1280.jpg"
    },
    {
        "id": "8268558",
        "src640": "https://cdn.pixabay.com/photo/2023/09/22/08/57/ai-generated-8268558_640.jpg",
        "src1280": "https://cdn.pixabay.com/photo/2023/09/22/08/57/ai-generated-8268558_1280.jpg"
    },
    {
        "id": "7170073",
        "src640": "https://cdn.pixabay.com/photo/2022/05/02/17/07/woman-7170073_640.jpg",
        "src1280": "https://cdn.pixabay.com/photo/2022/05/02/17/07/woman-7170073_1280.jpg"
    },
    {
        "id": "6648290",
        "src640": "https://cdn.pixabay.com/photo/2021/09/23/02/01/woman-6648290_640.jpg",
        "src1280": "https://cdn.pixabay.com/photo/2021/09/23/02/01/woman-6648290_1280.jpg"
    },
    {
        "id": "8236689",
        "src640": "https://cdn.pixabay.com/photo/2023/09/06/08/49/woman-8236689_640.jpg",
        "src1280": "https://cdn.pixabay.com/photo/2023/09/06/08/49/woman-8236689_1280.jpg"
    },
    {
        "id": "7362158",
        "src640": "https://cdn.pixabay.com/photo/2022/08/03/08/38/young-woman-7362158_640.jpg",
        "src1280": "https://cdn.pixabay.com/photo/2022/08/03/08/38/young-woman-7362158_1280.jpg"
    },
    {
        "id": "3096133",
        "src640": "https://cdn.pixabay.com/photo/2018/01/21/09/35/costume-3096133_640.jpg",
        "src1280": "https://cdn.pixabay.com/photo/2018/01/21/09/35/costume-3096133_1280.jpg"
    },
    {
        "id": "6079842",
        "src640": "https://cdn.pixabay.com/photo/2021/03/08/18/23/woman-6079842_640.jpg",
        "src1280": "https://cdn.pixabay.com/photo/2021/03/08/18/23/woman-6079842_1280.jpg"
    },
    {
        "id": "4552028",
        "src640": "https://cdn.pixabay.com/photo/2019/10/15/15/24/woman-4552028_640.jpg",
        "src1280": "https://cdn.pixabay.com/photo/2019/10/15/15/24/woman-4552028_1280.jpg"
    },
    {
        "id": "2880077",
        "src640": "https://cdn.pixabay.com/photo/2017/10/23/03/25/texture-2880077_640.jpg",
        "src1280": "https://cdn.pixabay.com/photo/2017/10/23/03/25/texture-2880077_1280.jpg"
    },
    {
        "id": "1895950",
        "src640": "https://cdn.pixabay.com/photo/2016/12/09/20/07/vintage-1895950_640.jpg",
        "src1280": "https://cdn.pixabay.com/photo/2016/12/09/20/07/vintage-1895950_1280.jpg"
    }
]