[
    {
        "id": "6076162",
        "src640": "https://cdn.pixabay.com/photo/2021/03/07/12/56/beauty-6076162_640.jpg",
        "src1280": "https://cdn.pixabay.com/photo/2021/03/07/12/56/beauty-6076162_1280.jpg"
    },
    {
        "id": "8354644",
        "src640": "https://cdn.pixabay.com/photo/2023/10/31/08/52/ai-generated-8354644_640.jpg",
        "src1280": "https://cdn.pixabay.com/photo/2023/10/31/08/52/ai-generated-8354644_1280.jpg"
    },
    {
        "id": "6219994",
        "src640": "https://cdn.pixabay.com/photo/2021/04/30/22/55/girl-6219994_640.jpg",
        "src1280": "https://cdn.pixabay.com/photo/2021/04/30/22/55/girl-6219994_1280.jpg"
    },
    {
        "id": "6565820",
        "src640": "https://cdn.pixabay.com/photo/2021/08/22/18/12/woman-6565820_640.jpg",
        "src1280": "https://cdn.pixabay.com/photo/2021/08/22/18/12/woman-6565820_1280.jpg"
    },
    {
        "id": "1259744",
        "src640": "https://cdn.pixabay.com/photo/2016/03/16/01/40/choochoo-1259744_640.jpg",
        "src1280": "https://cdn.pixabay.com/photo/2016/03/16/01/40/choochoo-1259744_1280.jpg"
    },
    {
        "id": "6648032",
        "src640": "https://cdn.pixabay.com/photo/2021/09/22/22/41/woman-6648032_640.jpg",
        "src1280": "https://cdn.pixabay.com/photo/2021/09/22/22/41/woman-6648032_1280.jpg"
    },
    {
        "id": "4785931",
        "src640": "https://cdn.pixabay.com/photo/2020/01/22/18/12/model-4785931_640.jpg",
        "src1280": "https://cdn.pixabay.com/photo/2020/01/22/18/12/model-4785931_1280.jpg"
    },
    {
        "id": "7302588",
        "src640": "https://cdn.pixabay.com/photo/2022/07/05/08/19/traditional-costume-7302588_640.jpg",
        "src1280": "https://cdn.pixabay.com/photo/2022/07/05/08/19/traditional-costume-7302588_1280.jpg"
    },
    {
        "id": "5820594",
        "src640": "https://cdn.pixabay.com/photo/2020/12/10/15/33/woman-5820594_640.jpg",
        "src1280": "https://cdn.pixabay.com/photo/2020/12/10/15/33/woman-5820594_1280.jpg"
    },
    {
        "id": "5742254",
        "src640": "https://cdn.pixabay.com/photo/2020/11/14/16/45/girl-5742254_640.jpg",
        "src1280": "https://cdn.pixabay.com/photo/2020/11/14/16/45/girl-5742254_1280.jpg"
    },
    {
        "id": "2212656",
        "src640": "https://cdn.pixabay.com/photo/2017/04/08/07/24/eyes-2212656_640.jpg",
        "src1280": "https://cdn.pixabay.com/photo/2017/04/08/07/24/eyes-2212656_1280.jpg"
    },
    {
        "id": "6366105",
        "src640": "https://cdn.pixabay.com/photo/2021/06/26/12/32/girl-6366105_640.jpg",
        "src1280": "https://cdn.pixabay.com/photo/2021/06/26/12/32/girl-6366105_1280.jpg"
    },
    {
        "id": "1878933",
        "src640": "https://cdn.pixabay.com/photo/2016/12/03/01/19/women-1878933_640.jpg",
        "src1280": "https://cdn.pixabay.com/photo/2016/12/03/01/19/women-1878933_1280.jpg"
    },
    {
        "id": "7175722",
        "src640": "https://cdn.pixabay.com/photo/2022/05/05/09/55/woman-7175722_640.jpg",
        "src1280": "https://cdn.pixabay.com/photo/2022/05/05/09/55/woman-7175722_1280.jpg"
    },
    {
        "id": "3022804",
        "src640": "https://cdn.pixabay.com/photo/2017/12/16/15/36/door-3022804_640.jpg",
        "src1280": "https://cdn.pixabay.com/photo/2017/12/16/15/36/door-3022804_1280.jpg"
    },
    {
        "id": "5727751",
        "src640": "https://cdn.pixabay.com/photo/2020/11/09/20/29/woman-5727751_640.jpg",
        "src1280": "https://cdn.pixabay.com/photo/2020/11/09/20/29/woman-5727751_1280.jpg"
    },
    {
        "id": "8451568",
        "src640": "https://cdn.pixabay.com/photo/2023/12/15/23/13/ai-generated-8451568_640.jpg",
        "src1280": "https://cdn.pixabay.com/photo/2023/12/15/23/13/ai-generated-8451568_1280.jpg"
    },
    {
        "id": "7551820",
        "src640": "https://cdn.pixabay.com/photo/2022/10/27/20/51/fashion-show-7551820_640.jpg",
        "src1280": "https://cdn.pixabay.com/photo/2022/10/27/20/51/fashion-show-7551820_1280.jpg"
    },
    {
        "id": "5421545",
        "src640": "https://cdn.pixabay.com/photo/2020/07/20/00/36/portrait-5421545_640.jpg",
        "src1280": "https://cdn.pixabay.com/photo/2020/07/20/00/36/portrait-5421545_1280.jpg"
    },
    {
        "id": "4637530",
        "src640": "https://cdn.pixabay.com/photo/2019/11/19/14/09/fashion-4637530_640.jpg",
        "src1280": "https://cdn.pixabay.com/photo/2019/11/19/14/09/fashion-4637530_1280.jpg"
    },
    {
        "id": "7917828",
        "src640": "https://cdn.pixabay.com/photo/2023/04/11/17/27/ai-generated-7917828_640.jpg",
        "src1280": "https://cdn.pixabay.com/photo/2023/04/11/17/27/ai-generated-7917828_1280.jpg"
    },
    {
        "id": "5780885",
        "src640": "https://cdn.pixabay.com/photo/2020/11/27/05/46/woman-5780885_640.jpg",
        "src1280": "https://cdn.pixabay.com/photo/2020/11/27/05/46/woman-5780885_1280.jpg"
    },
    {
        "id": "6215839",
        "src640": "https://cdn.pixabay.com/photo/2021/04/29/07/48/fashion-6215839_640.jpg",
        "src1280": "https://cdn.pixabay.com/photo/2021/04/29/07/48/fashion-6215839_1280.jpg"
    },
    {
        "id": "6591641",
        "src640": "https://cdn.pixabay.com/photo/2021/09/01/15/12/woman-6591641_640.jpg",
        "src1280": "https://cdn.pixabay.com/photo/2021/09/01/15/12/woman-6591641_1280.jpg"
    },
    {
        "id": "7978343",
        "src640": "https://cdn.pixabay.com/photo/2023/05/08/11/15/woman-7978343_640.jpg",
        "src1280": "https://cdn.pixabay.com/photo/2023/05/08/11/15/woman-7978343_1280.jpg"
    },
    {
        "id": "5261320",
        "src640": "https://cdn.pixabay.com/photo/2020/06/05/03/36/fashion-5261320_640.jpg",
        "src1280": "https://cdn.pixabay.com/photo/2020/06/05/03/36/fashion-5261320_1280.jpg"
    },
    {
        "id": "833036",
        "src640": "https://cdn.pixabay.com/photo/2015/07/06/07/36/kollam-sarees-833036_640.jpg",
        "src1280": "https://cdn.pixabay.com/photo/2015/07/06/07/36/kollam-sarees-833036_1280.jpg"
    },
    {
        "id": "3851821",
        "src640": "https://cdn.pixabay.com/photo/2018/12/02/18/45/vintage-3851821_640.jpg",
        "src1280": "https://cdn.pixabay.com/photo/2018/12/02/18/45/vintage-3851821_1280.jpg"
    },
    {
        "id": "8343306",
        "src640": "https://cdn.pixabay.com/photo/2023/10/26/18/31/ai-generated-8343306_640.jpg",
        "src1280": "https://cdn.pixabay.com/photo/2023/10/26/18/31/ai-generated-8343306_1280.jpg"
    },
    {
        "id": "6215905",
        "src640": "https://cdn.pixabay.com/photo/2021/04/29/07/53/fashionista-from-the-20s-6215905_640.jpg",
        "src1280": "https://cdn.pixabay.com/photo/2021/04/29/07/53/fashionista-from-the-20s-6215905_1280.jpg"
    },
    {
        "id": "6044043",
        "src640": "https://cdn.pixabay.com/photo/2021/02/23/16/51/girl-6044043_640.jpg",
        "src1280": "https://cdn.pixabay.com/photo/2021/02/23/16/51/girl-6044043_1280.jpg"
    },
    {
        "id": "215846",
        "src640": "https://cdn.pixabay.com/photo/2013/11/22/17/25/woman-215846_640.jpg",
        "src1280": "https://cdn.pixabay.com/photo/2013/11/22/17/25/woman-215846_1280.jpg"
    },
    {
        "id": "3366705",
        "src640": "https://cdn.pixabay.com/photo/2018/05/01/19/39/jewelry-3366705_640.jpg",
        "src1280": "https://cdn.pixabay.com/photo/2018/05/01/19/39/jewelry-3366705_1280.jpg"
    },
    {
        "id": "3462520",
        "src640": "https://cdn.pixabay.com/photo/2018/06/08/15/35/outdoors-3462520_640.jpg",
        "src1280": "https://cdn.pixabay.com/photo/2018/06/08/15/35/outdoors-3462520_1280.jpg"
    },
    {
        "id": "2880064",
        "src640": "https://cdn.pixabay.com/photo/2017/10/23/03/22/texture-2880064_640.jpg",
        "src1280": "https://cdn.pixabay.com/photo/2017/10/23/03/22/texture-2880064_1280.jpg"
    },
    {
        "id": "8036351",
        "src640": "https://cdn.pixabay.com/photo/2023/06/02/21/19/woman-8036351_640.jpg",
        "src1280": "https://cdn.pixabay.com/photo/2023/06/02/21/19/woman-8036351_1280.jpg"
    },
    {
        "id": "3265944",
        "src640": "https://cdn.pixabay.com/photo/2018/03/27/13/19/woman-3265944_640.jpg",
        "src1280": "https://cdn.pixabay.com/photo/2018/03/27/13/19/woman-3265944_1280.jpg"
    },
    {
        "id": "3032955",
        "src640": "https://cdn.pixabay.com/photo/2017/12/22/03/26/woman-3032955_640.jpg",
        "src1280": "https://cdn.pixabay.com/photo/2017/12/22/03/26/woman-3032955_1280.jpg"
    },
    {
        "id": "5592674",
        "src640": "https://cdn.pixabay.com/photo/2020/09/22/10/44/woman-5592674_640.jpg",
        "src1280": "https://cdn.pixabay.com/photo/2020/09/22/10/44/woman-5592674_1280.jpg"
    },
    {
        "id": "7981850",
        "src640": "https://cdn.pixabay.com/photo/2023/05/09/15/52/woman-7981850_640.jpg",
        "src1280": "https://cdn.pixabay.com/photo/2023/05/09/15/52/woman-7981850_1280.jpg"
    },
    {
        "id": "6403211",
        "src640": "https://cdn.pixabay.com/photo/2021/07/11/08/42/woman-6403211_640.jpg",
        "src1280": "https://cdn.pixabay.com/photo/2021/07/11/08/42/woman-6403211_1280.jpg"
    },
    {
        "id": "8118111",
        "src640": "https://cdn.pixabay.com/photo/2023/07/10/11/48/woman-8118111_640.jpg",
        "src1280": "https://cdn.pixabay.com/photo/2023/07/10/11/48/woman-8118111_1280.jpg"
    },
    {
        "id": "5449642",
        "src640": "https://cdn.pixabay.com/photo/2020/07/30/07/38/woman-5449642_640.jpg",
        "src1280": "https://cdn.pixabay.com/photo/2020/07/30/07/38/woman-5449642_1280.jpg"
    },
    {
        "id": "7879994",
        "src640": "https://cdn.pixabay.com/photo/2023/03/27/07/14/ai-generated-7879994_640.jpg",
        "src1280": "https://cdn.pixabay.com/photo/2023/03/27/07/14/ai-generated-7879994_1280.jpg"
    },
    {
        "id": "8343301",
        "src640": "https://cdn.pixabay.com/photo/2023/10/26/18/31/ai-generated-8343301_640.jpg",
        "src1280": "https://cdn.pixabay.com/photo/2023/10/26/18/31/ai-generated-8343301_1280.jpg"
    },
    {
        "id": "3428015",
        "src640": "https://cdn.pixabay.com/photo/2018/05/24/23/32/hipster-3428015_640.jpg",
        "src1280": "https://cdn.pixabay.com/photo/2018/05/24/23/32/hipster-3428015_1280.jpg"
    },
    {
        "id": "1069046",
        "src640": "https://cdn.pixabay.com/photo/2015/11/29/17/51/nail-1069046_640.jpg",
        "src1280": "https://cdn.pixabay.com/photo/2015/11/29/17/51/nail-1069046_1280.jpg"
    },
    {
        "id": "7957663",
        "src640": "https://cdn.pixabay.com/photo/2023/04/29/03/45/ai-generated-7957663_640.jpg",
        "src1280": "https://cdn.pixabay.com/photo/2023/04/29/03/45/ai-generated-7957663_1280.jpg"
    },
    {
        "id": "8091815",
        "src640": "https://cdn.pixabay.com/photo/2023/06/27/09/24/woman-8091815_640.jpg",
        "src1280": "https://cdn.pixabay.com/photo/2023/06/27/09/24/woman-8091815_1280.jpg"
    },
    {
        "id": "8484275",
        "src640": "https://cdn.pixabay.com/photo/2024/01/03/00/18/woman-8484275_640.jpg",
        "src1280": "https://cdn.pixabay.com/photo/2024/01/03/00/18/woman-8484275_1280.jpg"
    },
    {
        "id": "7953010",
        "src640": "https://cdn.pixabay.com/photo/2023/04/26/17/40/ai-generated-7953010_640.jpg",
        "src1280": "https://cdn.pixabay.com/photo/2023/04/26/17/40/ai-generated-7953010_1280.jpg"
    },
    {
        "id": "3485135",
        "src640": "https://cdn.pixabay.com/photo/2018/06/19/19/44/man-3485135_640.jpg",
        "src1280": "https://cdn.pixabay.com/photo/2018/06/19/19/44/man-3485135_1280.jpg"
    },
    {
        "id": "8042771",
        "src640": "https://cdn.pixabay.com/photo/2023/06/05/16/42/ai-generated-8042771_640.jpg",
        "src1280": "https://cdn.pixabay.com/photo/2023/06/05/16/42/ai-generated-8042771_1280.jpg"
    },
    {
        "id": "7336162",
        "src640": "https://cdn.pixabay.com/photo/2022/07/21/12/37/fashion-7336162_640.jpg",
        "src1280": "https://cdn.pixabay.com/photo/2022/07/21/12/37/fashion-7336162_1280.jpg"
    },
    {
        "id": "6215843",
        "src640": "https://cdn.pixabay.com/photo/2021/04/29/07/48/blue-6215843_640.jpg",
        "src1280": "https://cdn.pixabay.com/photo/2021/04/29/07/48/blue-6215843_1280.jpg"
    },
    {
        "id": "2426334",
        "src640": "https://cdn.pixabay.com/photo/2017/06/21/07/36/muslim-dressing-2426334_640.jpg",
        "src1280": "https://cdn.pixabay.com/photo/2017/06/21/07/36/muslim-dressing-2426334_1280.jpg"
    },
    {
        "id": "5851596",
        "src640": "https://cdn.pixabay.com/photo/2020/12/22/07/09/woman-5851596_640.jpg",
        "src1280": "https://cdn.pixabay.com/photo/2020/12/22/07/09/woman-5851596_1280.jpg"
    },
    {
        "id": "6370270",
        "src640": "https://cdn.pixabay.com/photo/2021/06/28/00/27/woman-6370270_640.jpg",
        "src1280": "https://cdn.pixabay.com/photo/2021/06/28/00/27/woman-6370270_1280.jpg"
    },
    {
        "id": "6388636",
        "src640": "https://cdn.pixabay.com/photo/2021/07/05/09/34/man-6388636_640.jpg",
        "src1280": "https://cdn.pixabay.com/photo/2021/07/05/09/34/man-6388636_1280.jpg"
    },
    {
        "id": "6625426",
        "src640": "https://cdn.pixabay.com/photo/2021/09/15/01/10/woman-6625426_640.jpg",
        "src1280": "https://cdn.pixabay.com/photo/2021/09/15/01/10/woman-6625426_1280.jpg"
    },
    {
        "id": "7940908",
        "src640": "https://cdn.pixabay.com/photo/2023/04/21/01/52/woman-7940908_640.jpg",
        "src1280": "https://cdn.pixabay.com/photo/2023/04/21/01/52/woman-7940908_1280.jpg"
    },
    {
        "id": "6551618",
        "src640": "https://cdn.pixabay.com/photo/2021/08/17/00/09/woman-6551618_640.jpg",
        "src1280": "https://cdn.pixabay.com/photo/2021/08/17/00/09/woman-6551618_1280.jpg"
    }
]