[
    {
        "id": "1746571",
        "src640": "https://cdn.pixabay.com/photo/2016/10/16/23/31/fashion-show-1746571_640.jpg",
        "src1280": "https://cdn.pixabay.com/photo/2016/10/16/23/31/fashion-show-1746571_1280.jpg"
    },
    {
        "id": "5287183",
        "src640": "https://cdn.pixabay.com/photo/2020/06/11/15/37/model-5287183_640.jpg",
        "src1280": "https://cdn.pixabay.com/photo/2020/06/11/15/37/model-5287183_1280.jpg"
    },
    {
        "id": "2954278",
        "src640": "https://cdn.pixabay.com/photo/2017/11/16/11/51/model-2954278_640.jpg",
        "src1280": "https://cdn.pixabay.com/photo/2017/11/16/11/51/model-2954278_1280.jpg"
    },
    {
        "id": "7094787",
        "src640": "https://cdn.pixabay.com/photo/2022/03/27/11/14/fashion-7094787_640.jpg",
        "src1280": "https://cdn.pixabay.com/photo/2022/03/27/11/14/fashion-7094787_1280.jpg"
    },
    {
        "id": "3035677",
        "src640": "https://cdn.pixabay.com/photo/2017/12/23/18/03/woman-3035677_640.jpg",
        "src1280": "https://cdn.pixabay.com/photo/2017/12/23/18/03/woman-3035677_1280.jpg"
    },
    {
        "id": "20150",
        "src640": "https://cdn.pixabay.com/photo/2012/03/01/01/20/beauty-20150_640.jpg",
        "src1280": "https://cdn.pixabay.com/photo/2012/03/01/01/20/beauty-20150_1280.jpg"
    },
    {
        "id": "2367954",
        "src640": "https://cdn.pixabay.com/photo/2017/06/03/04/46/man-2367954_640.jpg",
        "src1280": "https://cdn.pixabay.com/photo/2017/06/03/04/46/man-2367954_1280.jpg"
    },
    {
        "id": "6133884",
        "src640": "https://cdn.pixabay.com/photo/2021/03/29/11/43/stockings-6133884_640.jpg",
        "src1280": "https://cdn.pixabay.com/photo/2021/03/29/11/43/stockings-6133884_1280.jpg"
    },
    {
        "id": "587767",
        "src640": "https://cdn.pixabay.com/photo/2015/01/03/20/09/cowgirl-587767_640.jpg",
        "src1280": "https://cdn.pixabay.com/photo/2015/01/03/20/09/cowgirl-587767_1280.jpg"
    },
    {
        "id": "360377",
        "src640": "https://cdn.pixabay.com/photo/2014/06/02/14/28/woman-360377_640.jpg",
        "src1280": "https://cdn.pixabay.com/photo/2014/06/02/14/28/woman-360377_1280.jpg"
    },
    {
        "id": "1895908",
        "src640": "https://cdn.pixabay.com/photo/2016/12/09/19/52/vintage-1895908_640.jpg",
        "src1280": "https://cdn.pixabay.com/photo/2016/12/09/19/52/vintage-1895908_1280.jpg"
    },
    {
        "id": "3497406",
        "src640": "https://cdn.pixabay.com/photo/2018/06/25/17/01/fashion-3497406_640.jpg",
        "src1280": "https://cdn.pixabay.com/photo/2018/06/25/17/01/fashion-3497406_1280.jpg"
    },
    {
        "id": "6665933",
        "src640": "https://cdn.pixabay.com/photo/2021/09/29/01/13/woman-6665933_640.jpg",
        "src1280": "https://cdn.pixabay.com/photo/2021/09/29/01/13/woman-6665933_1280.jpg"
    },
    {
        "id": "8458086",
        "src640": "https://cdn.pixabay.com/photo/2023/12/19/17/33/ai-generated-8458086_640.jpg",
        "src1280": "https://cdn.pixabay.com/photo/2023/12/19/17/33/ai-generated-8458086_1280.jpg"
    },
    {
        "id": "665339",
        "src640": "https://cdn.pixabay.com/photo/2015/03/09/10/05/ammonite-665339_640.jpg",
        "src1280": "https://cdn.pixabay.com/photo/2015/03/09/10/05/ammonite-665339_1280.jpg"
    },
    {
        "id": "598186",
        "src640": "https://cdn.pixabay.com/photo/2015/01/13/13/21/woman-598186_640.jpg",
        "src1280": "https://cdn.pixabay.com/photo/2015/01/13/13/21/woman-598186_1280.jpg"
    },
    {
        "id": "6094269",
        "src640": "https://cdn.pixabay.com/photo/2021/03/14/12/57/beauty-6094269_640.jpg",
        "src1280": "https://cdn.pixabay.com/photo/2021/03/14/12/57/beauty-6094269_1280.jpg"
    },
    {
        "id": "5674994",
        "src640": "https://cdn.pixabay.com/photo/2020/10/22/06/08/woman-5674994_640.jpg",
        "src1280": "https://cdn.pixabay.com/photo/2020/10/22/06/08/woman-5674994_1280.jpg"
    },
    {
        "id": "5562486",
        "src640": "https://cdn.pixabay.com/photo/2020/09/11/08/19/woman-5562486_640.jpg",
        "src1280": "https://cdn.pixabay.com/photo/2020/09/11/08/19/woman-5562486_1280.jpg"
    },
    {
        "id": "3737390",
        "src640": "https://cdn.pixabay.com/photo/2018/10/10/14/23/black-3737390_640.jpg",
        "src1280": "https://cdn.pixabay.com/photo/2018/10/10/14/23/black-3737390_1280.jpg"
    },
    {
        "id": "5607018",
        "src640": "https://cdn.pixabay.com/photo/2020/09/27/16/10/woman-5607018_640.jpg",
        "src1280": "https://cdn.pixabay.com/photo/2020/09/27/16/10/woman-5607018_1280.jpg"
    },
    {
        "id": "19428",
        "src640": "https://cdn.pixabay.com/photo/2012/02/29/16/09/adult-19428_640.jpg",
        "src1280": "https://cdn.pixabay.com/photo/2012/02/29/16/09/adult-19428_1280.jpg"
    },
    {
        "id": "4940564",
        "src640": "https://cdn.pixabay.com/photo/2020/03/17/14/44/dress-4940564_640.jpg",
        "src1280": "https://cdn.pixabay.com/photo/2020/03/17/14/44/dress-4940564_1280.jpg"
    },
    {
        "id": "2589493",
        "src640": "https://cdn.pixabay.com/photo/2017/08/06/06/30/woman-2589493_640.jpg",
        "src1280": "https://cdn.pixabay.com/photo/2017/08/06/06/30/woman-2589493_1280.jpg"
    },
    {
        "id": "2354920",
        "src640": "https://cdn.pixabay.com/photo/2017/05/29/21/01/womens-2354920_640.jpg",
        "src1280": "https://cdn.pixabay.com/photo/2017/05/29/21/01/womens-2354920_1280.jpg"
    },
    {
        "id": "720716",
        "src640": "https://cdn.pixabay.com/photo/2015/04/13/15/30/saree-720716_640.jpg",
        "src1280": "https://cdn.pixabay.com/photo/2015/04/13/15/30/saree-720716_1280.jpg"
    },
    {
        "id": "5729212",
        "src640": "https://cdn.pixabay.com/photo/2020/11/10/10/22/woman-5729212_640.jpg",
        "src1280": "https://cdn.pixabay.com/photo/2020/11/10/10/22/woman-5729212_1280.jpg"
    },
    {
        "id": "8446747",
        "src640": "https://cdn.pixabay.com/photo/2023/12/13/11/01/ai-generated-8446747_640.jpg",
        "src1280": "https://cdn.pixabay.com/photo/2023/12/13/11/01/ai-generated-8446747_1280.jpg"
    },
    {
        "id": "2346220",
        "src640": "https://cdn.pixabay.com/photo/2017/05/26/14/59/womens-2346220_640.jpg",
        "src1280": "https://cdn.pixabay.com/photo/2017/05/26/14/59/womens-2346220_1280.jpg"
    },
    {
        "id": "665382",
        "src640": "https://cdn.pixabay.com/photo/2015/03/09/10/17/jewelry-665382_640.jpg",
        "src1280": "https://cdn.pixabay.com/photo/2015/03/09/10/17/jewelry-665382_1280.jpg"
    },
    {
        "id": "1712528",
        "src640": "https://cdn.pixabay.com/photo/2016/10/03/19/03/photoshoot-1712528_640.jpg",
        "src1280": "https://cdn.pixabay.com/photo/2016/10/03/19/03/photoshoot-1712528_1280.jpg"
    },
    {
        "id": "2840817",
        "src640": "https://cdn.pixabay.com/photo/2017/10/11/11/55/dalat-2840817_640.jpg",
        "src1280": "https://cdn.pixabay.com/photo/2017/10/11/11/55/dalat-2840817_1280.jpg"
    },
    {
        "id": "1746583",
        "src640": "https://cdn.pixabay.com/photo/2016/10/16/23/32/fashion-show-1746583_640.jpg",
        "src1280": "https://cdn.pixabay.com/photo/2016/10/16/23/32/fashion-show-1746583_1280.jpg"
    },
    {
        "id": "8403405",
        "src640": "https://cdn.pixabay.com/photo/2023/11/21/13/28/ai-generated-8403405_640.jpg",
        "src1280": "https://cdn.pixabay.com/photo/2023/11/21/13/28/ai-generated-8403405_1280.jpg"
    },
    {
        "id": "8479306",
        "src640": "https://cdn.pixabay.com/photo/2023/12/31/00/54/ai-generated-8479306_640.jpg",
        "src1280": "https://cdn.pixabay.com/photo/2023/12/31/00/54/ai-generated-8479306_1280.jpg"
    },
    {
        "id": "6061852",
        "src640": "https://cdn.pixabay.com/photo/2021/03/02/08/37/woman-6061852_640.jpg",
        "src1280": "https://cdn.pixabay.com/photo/2021/03/02/08/37/woman-6061852_1280.jpg"
    },
    {
        "id": "977417",
        "src640": "https://cdn.pixabay.com/photo/2015/10/08/10/03/clothing-977417_640.jpg",
        "src1280": "https://cdn.pixabay.com/photo/2015/10/08/10/03/clothing-977417_1280.jpg"
    },
    {
        "id": "3497413",
        "src640": "https://cdn.pixabay.com/photo/2018/06/25/17/03/fashion-3497413_640.jpg",
        "src1280": "https://cdn.pixabay.com/photo/2018/06/25/17/03/fashion-3497413_1280.jpg"
    },
    {
        "id": "3089328",
        "src640": "https://cdn.pixabay.com/photo/2018/01/18/00/28/dress-3089328_640.jpg",
        "src1280": "https://cdn.pixabay.com/photo/2018/01/18/00/28/dress-3089328_1280.jpg"
    },
    {
        "id": "3566198",
        "src640": "https://cdn.pixabay.com/photo/2018/07/27/14/43/art-3566198_640.jpg",
        "src1280": "https://cdn.pixabay.com/photo/2018/07/27/14/43/art-3566198_1280.jpg"
    },
    {
        "id": "2430253",
        "src640": "https://cdn.pixabay.com/photo/2017/06/22/10/09/urban-2430253_640.jpg",
        "src1280": "https://cdn.pixabay.com/photo/2017/06/22/10/09/urban-2430253_1280.jpg"
    },
    {
        "id": "3643965",
        "src640": "https://cdn.pixabay.com/photo/2018/08/31/07/04/girl-3643965_640.jpg",
        "src1280": "https://cdn.pixabay.com/photo/2018/08/31/07/04/girl-3643965_1280.jpg"
    },
    {
        "id": "8473821",
        "src640": "https://cdn.pixabay.com/photo/2023/12/28/10/23/woman-8473821_640.jpg",
        "src1280": "https://cdn.pixabay.com/photo/2023/12/28/10/23/woman-8473821_1280.jpg"
    },
    {
        "id": "2354914",
        "src640": "https://cdn.pixabay.com/photo/2017/05/29/21/00/womens-2354914_640.jpg",
        "src1280": "https://cdn.pixabay.com/photo/2017/05/29/21/00/womens-2354914_1280.jpg"
    },
    {
        "id": "1535214",
        "src640": "https://cdn.pixabay.com/photo/2016/07/22/16/38/billboard-1535214_640.jpg",
        "src1280": "https://cdn.pixabay.com/photo/2016/07/22/16/38/billboard-1535214_1280.jpg"
    },
    {
        "id": "2437011",
        "src640": "https://cdn.pixabay.com/photo/2017/06/24/08/25/womens-2437011_640.jpg",
        "src1280": "https://cdn.pixabay.com/photo/2017/06/24/08/25/womens-2437011_1280.jpg"
    },
    {
        "id": "8387540",
        "src640": "https://cdn.pixabay.com/photo/2023/11/14/11/44/ai-generated-8387540_640.jpg",
        "src1280": "https://cdn.pixabay.com/photo/2023/11/14/11/44/ai-generated-8387540_1280.jpg"
    },
    {
        "id": "3330725",
        "src640": "https://cdn.pixabay.com/photo/2018/04/18/15/51/people-3330725_640.jpg",
        "src1280": "https://cdn.pixabay.com/photo/2018/04/18/15/51/people-3330725_1280.jpg"
    },
    {
        "id": "6597788",
        "src640": "https://cdn.pixabay.com/photo/2021/09/04/13/10/woman-6597788_640.jpg",
        "src1280": "https://cdn.pixabay.com/photo/2021/09/04/13/10/woman-6597788_1280.jpg"
    },
    {
        "id": "2359710",
        "src640": "https://cdn.pixabay.com/photo/2017/05/31/09/32/ballerina-2359710_640.jpg",
        "src1280": "https://cdn.pixabay.com/photo/2017/05/31/09/32/ballerina-2359710_1280.jpg"
    },
    {
        "id": "3148115",
        "src640": "https://cdn.pixabay.com/photo/2018/02/12/11/52/nature-3148115_640.jpg",
        "src1280": "https://cdn.pixabay.com/photo/2018/02/12/11/52/nature-3148115_1280.jpg"
    },
    {
        "id": "510448",
        "src640": "https://cdn.pixabay.com/photo/2014/10/31/07/05/girl-510448_640.jpg",
        "src1280": "https://cdn.pixabay.com/photo/2014/10/31/07/05/girl-510448_1280.jpg"
    },
    {
        "id": "1290136",
        "src640": "https://cdn.pixabay.com/photo/2016/03/30/06/03/girl-1290136_640.jpg",
        "src1280": "https://cdn.pixabay.com/photo/2016/03/30/06/03/girl-1290136_1280.jpg"
    },
    {
        "id": "3389325",
        "src640": "https://cdn.pixabay.com/photo/2018/05/11/01/12/boy-3389325_640.jpg",
        "src1280": "https://cdn.pixabay.com/photo/2018/05/11/01/12/boy-3389325_1280.jpg"
    },
    {
        "id": "2157328",
        "src640": "https://cdn.pixabay.com/photo/2017/03/19/18/46/man-2157328_640.jpg",
        "src1280": "https://cdn.pixabay.com/photo/2017/03/19/18/46/man-2157328_1280.jpg"
    },
    {
        "id": "1395241",
        "src640": "https://cdn.pixabay.com/photo/2016/05/16/09/56/young-model-1395241_640.jpg",
        "src1280": "https://cdn.pixabay.com/photo/2016/05/16/09/56/young-model-1395241_1280.jpg"
    },
    {
        "id": "3419198",
        "src640": "https://cdn.pixabay.com/photo/2018/05/21/19/23/young-3419198_640.jpg",
        "src1280": "https://cdn.pixabay.com/photo/2018/05/21/19/23/young-3419198_1280.jpg"
    }
]