[
    {
        "id": "8407983",
        "src640": "https://cdn.pixabay.com/photo/2023/11/23/12/41/ai-generated-8407983_640.jpg",
        "src1280": "https://cdn.pixabay.com/photo/2023/11/23/12/41/ai-generated-8407983_1280.jpg"
    },
    {
        "id": "8406045",
        "src640": "https://cdn.pixabay.com/photo/2023/11/22/17/38/woman-8406045_640.jpg",
        "src1280": "https://cdn.pixabay.com/photo/2023/11/22/17/38/woman-8406045_1280.jpg"
    },
    {
        "id": "3373645",
        "src640": "https://cdn.pixabay.com/photo/2018/05/04/10/31/people-3373645_640.jpg",
        "src1280": "https://cdn.pixabay.com/photo/2018/05/04/10/31/people-3373645_1280.jpg"
    },
    {
        "id": "7779525",
        "src640": "https://cdn.pixabay.com/photo/2023/02/09/19/01/woman-7779525_640.jpg",
        "src1280": "https://cdn.pixabay.com/photo/2023/02/09/19/01/woman-7779525_1280.jpg"
    },
    {
        "id": "7312672",
        "src640": "https://cdn.pixabay.com/photo/2022/07/10/11/46/woman-7312672_640.jpg",
        "src1280": "https://cdn.pixabay.com/photo/2022/07/10/11/46/woman-7312672_1280.jpg"
    },
    {
        "id": "1974689",
        "src640": "https://cdn.pixabay.com/photo/2017/01/12/13/20/boho-1974689_640.jpg",
        "src1280": "https://cdn.pixabay.com/photo/2017/01/12/13/20/boho-1974689_1280.jpg"
    },
    {
        "id": "8303592",
        "src640": "https://cdn.pixabay.com/photo/2023/10/09/08/28/fashion-8303592_640.jpg",
        "src1280": "https://cdn.pixabay.com/photo/2023/10/09/08/28/fashion-8303592_1280.jpg"
    },
    {
        "id": "584439",
        "src640": "https://cdn.pixabay.com/photo/2014/12/30/22/07/tux-584439_640.jpg",
        "src1280": "https://cdn.pixabay.com/photo/2014/12/30/22/07/tux-584439_1280.jpg"
    },
    {
        "id": "8084566",
        "src640": "https://cdn.pixabay.com/photo/2023/06/24/05/25/ai-generated-8084566_640.jpg",
        "src1280": "https://cdn.pixabay.com/photo/2023/06/24/05/25/ai-generated-8084566_1280.jpg"
    },
    {
        "id": "8301457",
        "src640": "https://cdn.pixabay.com/photo/2023/10/08/04/56/ai-generated-8301457_640.jpg",
        "src1280": "https://cdn.pixabay.com/photo/2023/10/08/04/56/ai-generated-8301457_1280.jpg"
    },
    {
        "id": "6381637",
        "src640": "https://cdn.pixabay.com/photo/2021/07/02/12/39/woman-6381637_640.jpg",
        "src1280": "https://cdn.pixabay.com/photo/2021/07/02/12/39/woman-6381637_1280.jpg"
    },
    {
        "id": "6034708",
        "src640": "https://cdn.pixabay.com/photo/2021/02/20/21/48/blonde-6034708_640.jpg",
        "src1280": "https://cdn.pixabay.com/photo/2021/02/20/21/48/blonde-6034708_1280.jpg"
    },
    {
        "id": "8372665",
        "src640": "https://cdn.pixabay.com/photo/2023/11/07/15/12/ai-generated-8372665_640.jpg",
        "src1280": "https://cdn.pixabay.com/photo/2023/11/07/15/12/ai-generated-8372665_1280.jpg"
    },
    {
        "id": "8107161",
        "src640": "https://cdn.pixabay.com/photo/2023/07/04/22/13/sansa-stark-8107161_640.jpg",
        "src1280": "https://cdn.pixabay.com/photo/2023/07/04/22/13/sansa-stark-8107161_1280.jpg"
    },
    {
        "id": "3128571",
        "src640": "https://cdn.pixabay.com/photo/2018/02/03/21/44/summer-3128571_640.jpg",
        "src1280": "https://cdn.pixabay.com/photo/2018/02/03/21/44/summer-3128571_1280.jpg"
    },
    {
        "id": "2164670",
        "src640": "https://cdn.pixabay.com/photo/2017/03/22/11/09/pendant-2164670_640.jpg",
        "src1280": "https://cdn.pixabay.com/photo/2017/03/22/11/09/pendant-2164670_1280.jpg"
    },
    {
        "id": "7924732",
        "src640": "https://cdn.pixabay.com/photo/2023/04/14/10/28/anime-7924732_640.jpg",
        "src1280": "https://cdn.pixabay.com/photo/2023/04/14/10/28/anime-7924732_1280.jpg"
    },
    {
        "id": "6057588",
        "src640": "https://cdn.pixabay.com/photo/2021/02/28/16/13/woman-6057588_640.jpg",
        "src1280": "https://cdn.pixabay.com/photo/2021/02/28/16/13/woman-6057588_1280.jpg"
    },
    {
        "id": "1805538",
        "src640": "https://cdn.pixabay.com/photo/2016/11/07/11/30/handsome-1805538_640.jpg",
        "src1280": "https://cdn.pixabay.com/photo/2016/11/07/11/30/handsome-1805538_1280.jpg"
    },
    {
        "id": "6004303",
        "src640": "https://cdn.pixabay.com/photo/2021/02/11/05/35/aodai-6004303_640.jpg",
        "src1280": "https://cdn.pixabay.com/photo/2021/02/11/05/35/aodai-6004303_1280.jpg"
    },
    {
        "id": "3109904",
        "src640": "https://cdn.pixabay.com/photo/2018/01/26/22/07/fashion-3109904_640.jpg",
        "src1280": "https://cdn.pixabay.com/photo/2018/01/26/22/07/fashion-3109904_1280.jpg"
    },
    {
        "id": "4024201",
        "src640": "https://cdn.pixabay.com/photo/2019/02/27/14/36/girl-4024201_640.jpg",
        "src1280": "https://cdn.pixabay.com/photo/2019/02/27/14/36/girl-4024201_1280.jpg"
    },
    {
        "id": "3741751",
        "src640": "https://cdn.pixabay.com/photo/2018/10/12/09/13/model-3741751_640.jpg",
        "src1280": "https://cdn.pixabay.com/photo/2018/10/12/09/13/model-3741751_1280.jpg"
    },
    {
        "id": "5851601",
        "src640": "https://cdn.pixabay.com/photo/2020/12/22/07/09/woman-5851601_640.jpg",
        "src1280": "https://cdn.pixabay.com/photo/2020/12/22/07/09/woman-5851601_1280.jpg"
    },
    {
        "id": "5821113",
        "src640": "https://cdn.pixabay.com/photo/2020/12/10/19/06/woman-5821113_640.jpg",
        "src1280": "https://cdn.pixabay.com/photo/2020/12/10/19/06/woman-5821113_1280.jpg"
    },
    {
        "id": "6551894",
        "src640": "https://cdn.pixabay.com/photo/2021/08/17/04/06/woman-6551894_640.jpg",
        "src1280": "https://cdn.pixabay.com/photo/2021/08/17/04/06/woman-6551894_1280.jpg"
    },
    {
        "id": "6231714",
        "src640": "https://cdn.pixabay.com/photo/2021/05/05/18/20/digital-art-6231714_640.jpg",
        "src1280": "https://cdn.pixabay.com/photo/2021/05/05/18/20/digital-art-6231714_1280.jpg"
    },
    {
        "id": "3058884",
        "src640": "https://cdn.pixabay.com/photo/2018/01/03/17/56/portrait-3058884_640.jpg",
        "src1280": "https://cdn.pixabay.com/photo/2018/01/03/17/56/portrait-3058884_1280.jpg"
    },
    {
        "id": "1947320",
        "src640": "https://cdn.pixabay.com/photo/2017/01/02/16/55/fashion-1947320_640.jpg",
        "src1280": "https://cdn.pixabay.com/photo/2017/01/02/16/55/fashion-1947320_1280.jpg"
    },
    {
        "id": "8221626",
        "src640": "https://cdn.pixabay.com/photo/2023/08/29/15/25/woman-8221626_640.jpg",
        "src1280": "https://cdn.pixabay.com/photo/2023/08/29/15/25/woman-8221626_1280.jpg"
    },
    {
        "id": "3692579",
        "src640": "https://cdn.pixabay.com/photo/2018/09/21/08/55/paint-3692579_640.jpg",
        "src1280": "https://cdn.pixabay.com/photo/2018/09/21/08/55/paint-3692579_1280.jpg"
    },
    {
        "id": "2752182",
        "src640": "https://cdn.pixabay.com/photo/2017/09/15/13/08/dance-2752182_640.jpg",
        "src1280": "https://cdn.pixabay.com/photo/2017/09/15/13/08/dance-2752182_1280.jpg"
    },
    {
        "id": "1287340",
        "src640": "https://cdn.pixabay.com/photo/2016/03/29/02/07/woman-1287340_640.jpg",
        "src1280": "https://cdn.pixabay.com/photo/2016/03/29/02/07/woman-1287340_1280.jpg"
    },
    {
        "id": "6056509",
        "src640": "https://cdn.pixabay.com/photo/2021/02/28/07/01/woman-6056509_640.jpg",
        "src1280": "https://cdn.pixabay.com/photo/2021/02/28/07/01/woman-6056509_1280.jpg"
    },
    {
        "id": "821086",
        "src640": "https://cdn.pixabay.com/photo/2015/06/25/09/20/kollam-sarees-821086_640.jpg",
        "src1280": "https://cdn.pixabay.com/photo/2015/06/25/09/20/kollam-sarees-821086_1280.jpg"
    },
    {
        "id": "1894825",
        "src640": "https://cdn.pixabay.com/photo/2016/12/09/13/05/woman-1894825_640.jpg",
        "src1280": "https://cdn.pixabay.com/photo/2016/12/09/13/05/woman-1894825_1280.jpg"
    },
    {
        "id": "8060052",
        "src640": "https://cdn.pixabay.com/photo/2023/06/13/06/12/ai-generated-8060052_640.jpg",
        "src1280": "https://cdn.pixabay.com/photo/2023/06/13/06/12/ai-generated-8060052_1280.jpg"
    },
    {
        "id": "8383245",
        "src640": "https://cdn.pixabay.com/photo/2023/11/12/15/14/ai-generated-8383245_640.jpg",
        "src1280": "https://cdn.pixabay.com/photo/2023/11/12/15/14/ai-generated-8383245_1280.jpg"
    },
    {
        "id": "7850790",
        "src640": "https://cdn.pixabay.com/photo/2023/03/13/20/49/ai-generated-7850790_640.jpg",
        "src1280": "https://cdn.pixabay.com/photo/2023/03/13/20/49/ai-generated-7850790_1280.jpg"
    },
    {
        "id": "4634528",
        "src640": "https://cdn.pixabay.com/photo/2019/11/18/10/45/cape-4634528_640.jpg",
        "src1280": "https://cdn.pixabay.com/photo/2019/11/18/10/45/cape-4634528_1280.jpg"
    },
    {
        "id": "7876349",
        "src640": "https://cdn.pixabay.com/photo/2023/03/25/16/00/ai-generated-7876349_640.jpg",
        "src1280": "https://cdn.pixabay.com/photo/2023/03/25/16/00/ai-generated-7876349_1280.jpg"
    },
    {
        "id": "6412011",
        "src640": "https://cdn.pixabay.com/photo/2021/07/12/17/25/woman-6412011_640.jpg",
        "src1280": "https://cdn.pixabay.com/photo/2021/07/12/17/25/woman-6412011_1280.jpg"
    },
    {
        "id": "1146796",
        "src640": "https://cdn.pixabay.com/photo/2016/01/18/16/10/scarf-1146796_640.jpg",
        "src1280": "https://cdn.pixabay.com/photo/2016/01/18/16/10/scarf-1146796_1280.jpg"
    },
    {
        "id": "7042355",
        "src640": "https://cdn.pixabay.com/photo/2022/03/02/03/25/woman-7042355_640.jpg",
        "src1280": "https://cdn.pixabay.com/photo/2022/03/02/03/25/woman-7042355_1280.jpg"
    },
    {
        "id": "2820164",
        "src640": "https://cdn.pixabay.com/photo/2017/10/05/17/23/girl-2820164_640.jpg",
        "src1280": "https://cdn.pixabay.com/photo/2017/10/05/17/23/girl-2820164_1280.jpg"
    },
    {
        "id": "8406075",
        "src640": "https://cdn.pixabay.com/photo/2023/11/22/17/43/woman-8406075_640.jpg",
        "src1280": "https://cdn.pixabay.com/photo/2023/11/22/17/43/woman-8406075_1280.jpg"
    },
    {
        "id": "5710103",
        "src640": "https://cdn.pixabay.com/photo/2020/11/03/15/16/girl-5710103_640.jpg",
        "src1280": "https://cdn.pixabay.com/photo/2020/11/03/15/16/girl-5710103_1280.jpg"
    },
    {
        "id": "1636389",
        "src640": "https://cdn.pixabay.com/photo/2016/09/01/15/18/vintage-1636389_640.jpg",
        "src1280": "https://cdn.pixabay.com/photo/2016/09/01/15/18/vintage-1636389_1280.jpg"
    },
    {
        "id": "7950379",
        "src640": "https://cdn.pixabay.com/photo/2023/04/25/14/45/ai-generated-7950379_640.jpg",
        "src1280": "https://cdn.pixabay.com/photo/2023/04/25/14/45/ai-generated-7950379_1280.jpg"
    },
    {
        "id": "6753895",
        "src640": "https://cdn.pixabay.com/photo/2021/10/30/09/25/dirndl-6753895_640.jpg",
        "src1280": "https://cdn.pixabay.com/photo/2021/10/30/09/25/dirndl-6753895_1280.jpg"
    },
    {
        "id": "5112966",
        "src640": "https://cdn.pixabay.com/photo/2020/04/30/14/09/model-5112966_640.jpg",
        "src1280": "https://cdn.pixabay.com/photo/2020/04/30/14/09/model-5112966_1280.jpg"
    },
    {
        "id": "7382717",
        "src640": "https://cdn.pixabay.com/photo/2022/08/13/01/16/woman-7382717_640.jpg",
        "src1280": "https://cdn.pixabay.com/photo/2022/08/13/01/16/woman-7382717_1280.jpg"
    },
    {
        "id": "3462526",
        "src640": "https://cdn.pixabay.com/photo/2018/06/08/15/39/outdoors-3462526_640.jpg",
        "src1280": "https://cdn.pixabay.com/photo/2018/06/08/15/39/outdoors-3462526_1280.jpg"
    },
    {
        "id": "725039",
        "src640": "https://cdn.pixabay.com/photo/2015/04/16/04/49/beauty-725039_640.jpg",
        "src1280": "https://cdn.pixabay.com/photo/2015/04/16/04/49/beauty-725039_1280.jpg"
    },
    {
        "id": "7857220",
        "src640": "https://cdn.pixabay.com/photo/2023/03/16/17/47/child-7857220_640.jpg",
        "src1280": "https://cdn.pixabay.com/photo/2023/03/16/17/47/child-7857220_1280.jpg"
    },
    {
        "id": "6004301",
        "src640": "https://cdn.pixabay.com/photo/2021/02/11/05/35/aodai-6004301_640.jpg",
        "src1280": "https://cdn.pixabay.com/photo/2021/02/11/05/35/aodai-6004301_1280.jpg"
    },
    {
        "id": "6348215",
        "src640": "https://cdn.pixabay.com/photo/2021/06/19/10/02/woman-6348215_640.jpg",
        "src1280": "https://cdn.pixabay.com/photo/2021/06/19/10/02/woman-6348215_1280.jpg"
    },
    {
        "id": "8159791",
        "src640": "https://cdn.pixabay.com/photo/2023/07/30/22/16/portrait-8159791_640.jpg",
        "src1280": "https://cdn.pixabay.com/photo/2023/07/30/22/16/portrait-8159791_1280.jpg"
    },
    {
        "id": "3703570",
        "src640": "https://cdn.pixabay.com/photo/2018/09/26/00/47/leg-3703570_640.jpg",
        "src1280": "https://cdn.pixabay.com/photo/2018/09/26/00/47/leg-3703570_1280.jpg"
    },
    {
        "id": "4934852",
        "src640": "https://cdn.pixabay.com/photo/2020/03/15/20/09/woman-4934852_640.jpg",
        "src1280": "https://cdn.pixabay.com/photo/2020/03/15/20/09/woman-4934852_1280.jpg"
    },
    {
        "id": "6227626",
        "src640": "https://cdn.pixabay.com/photo/2021/05/04/03/20/girl-6227626_640.jpg",
        "src1280": "https://cdn.pixabay.com/photo/2021/05/04/03/20/girl-6227626_1280.jpg"
    },
    {
        "id": "3469769",
        "src640": "https://cdn.pixabay.com/photo/2018/06/12/00/39/flower-3469769_640.jpg",
        "src1280": "https://cdn.pixabay.com/photo/2018/06/12/00/39/flower-3469769_1280.jpg"
    },
    {
        "id": "8434627",
        "src640": "https://cdn.pixabay.com/photo/2023/12/07/00/20/dark-green-8434627_640.jpg",
        "src1280": "https://cdn.pixabay.com/photo/2023/12/07/00/20/dark-green-8434627_1280.jpg"
    },
    {
        "id": "3932995",
        "src640": "https://cdn.pixabay.com/photo/2019/01/14/21/21/color-3932995_640.jpg",
        "src1280": "https://cdn.pixabay.com/photo/2019/01/14/21/21/color-3932995_1280.jpg"
    },
    {
        "id": "3624069",
        "src640": "https://cdn.pixabay.com/photo/2018/08/22/16/46/female-model-3624069_640.jpg",
        "src1280": "https://cdn.pixabay.com/photo/2018/08/22/16/46/female-model-3624069_1280.jpg"
    },
    {
        "id": "1915858",
        "src640": "https://cdn.pixabay.com/photo/2016/12/18/14/33/dresses-1915858_640.jpg",
        "src1280": "https://cdn.pixabay.com/photo/2016/12/18/14/33/dresses-1915858_1280.jpg"
    },
    {
        "id": "8142258",
        "src640": "https://cdn.pixabay.com/photo/2023/07/21/19/59/woman-8142258_640.jpg",
        "src1280": "https://cdn.pixabay.com/photo/2023/07/21/19/59/woman-8142258_1280.jpg"
    },
    {
        "id": "8455466",
        "src640": "https://cdn.pixabay.com/photo/2023/12/18/07/42/girl-8455466_640.jpg",
        "src1280": "https://cdn.pixabay.com/photo/2023/12/18/07/42/girl-8455466_1280.jpg"
    },
    {
        "id": "8285284",
        "src640": "https://cdn.pixabay.com/photo/2023/09/30/10/04/girl-8285284_640.jpg",
        "src1280": "https://cdn.pixabay.com/photo/2023/09/30/10/04/girl-8285284_1280.jpg"
    },
    {
        "id": "2008792",
        "src640": "https://cdn.pixabay.com/photo/2017/01/25/19/21/cool-2008792_640.jpg",
        "src1280": "https://cdn.pixabay.com/photo/2017/01/25/19/21/cool-2008792_1280.jpg"
    }
]