[
    {
        "id": "7024454",
        "src640": "https://cdn.pixabay.com/photo/2022/02/20/12/36/women-7024454_640.jpg",
        "src1280": "https://cdn.pixabay.com/photo/2022/02/20/12/36/women-7024454_1280.jpg"
    },
    {
        "id": "6615602",
        "src640": "https://cdn.pixabay.com/photo/2021/09/11/13/11/woman-6615602_640.jpg",
        "src1280": "https://cdn.pixabay.com/photo/2021/09/11/13/11/woman-6615602_1280.jpg"
    },
    {
        "id": "4505198",
        "src640": "https://cdn.pixabay.com/photo/2019/09/26/06/27/portrait-4505198_640.jpg",
        "src1280": "https://cdn.pixabay.com/photo/2019/09/26/06/27/portrait-4505198_1280.jpg"
    },
    {
        "id": "2417608",
        "src640": "https://cdn.pixabay.com/photo/2017/06/18/23/23/girl-2417608_640.jpg",
        "src1280": "https://cdn.pixabay.com/photo/2017/06/18/23/23/girl-2417608_1280.jpg"
    },
    {
        "id": "2674228",
        "src640": "https://cdn.pixabay.com/photo/2017/08/23/20/40/stylish-boy-2674228_640.jpg",
        "src1280": "https://cdn.pixabay.com/photo/2017/08/23/20/40/stylish-boy-2674228_1280.jpg"
    },
    {
        "id": "2605408",
        "src640": "https://cdn.pixabay.com/photo/2017/08/07/16/25/woman-2605408_640.jpg",
        "src1280": "https://cdn.pixabay.com/photo/2017/08/07/16/25/woman-2605408_1280.jpg"
    },
    {
        "id": "18594",
        "src640": "https://cdn.pixabay.com/photo/2012/02/29/11/50/elegance-18594_640.jpg",
        "src1280": "https://cdn.pixabay.com/photo/2012/02/29/11/50/elegance-18594_1280.jpg"
    },
    {
        "id": "5819394",
        "src640": "https://cdn.pixabay.com/photo/2020/12/10/05/24/girl-5819394_640.jpg",
        "src1280": "https://cdn.pixabay.com/photo/2020/12/10/05/24/girl-5819394_1280.jpg"
    },
    {
        "id": "5510681",
        "src640": "https://cdn.pixabay.com/photo/2020/08/23/12/01/fashion-5510681_640.jpg",
        "src1280": "https://cdn.pixabay.com/photo/2020/08/23/12/01/fashion-5510681_1280.jpg"
    },
    {
        "id": "932089",
        "src640": "https://cdn.pixabay.com/photo/2015/09/09/17/40/makeup-932089_640.jpg",
        "src1280": "https://cdn.pixabay.com/photo/2015/09/09/17/40/makeup-932089_1280.jpg"
    },
    {
        "id": "8473048",
        "src640": "https://cdn.pixabay.com/photo/2023/12/28/01/39/girl-8473048_640.jpg",
        "src1280": "https://cdn.pixabay.com/photo/2023/12/28/01/39/girl-8473048_1280.jpg"
    },
    {
        "id": "8484582",
        "src640": "https://cdn.pixabay.com/photo/2024/01/03/04/53/ai-generated-8484582_640.jpg",
        "src1280": "https://cdn.pixabay.com/photo/2024/01/03/04/53/ai-generated-8484582_1280.jpg"
    },
    {
        "id": "2312125",
        "src640": "https://cdn.pixabay.com/photo/2017/05/14/14/11/boy-2312125_640.jpg",
        "src1280": "https://cdn.pixabay.com/photo/2017/05/14/14/11/boy-2312125_1280.jpg"
    },
    {
        "id": "968129",
        "src640": "https://cdn.pixabay.com/photo/2015/10/02/05/48/mannequins-968129_640.jpg",
        "src1280": "https://cdn.pixabay.com/photo/2015/10/02/05/48/mannequins-968129_1280.jpg"
    },
    {
        "id": "5280024",
        "src640": "https://cdn.pixabay.com/photo/2020/06/09/20/53/girl-5280024_640.jpg",
        "src1280": "https://cdn.pixabay.com/photo/2020/06/09/20/53/girl-5280024_1280.jpg"
    },
    {
        "id": "6361953",
        "src640": "https://cdn.pixabay.com/photo/2021/06/24/17/45/woman-6361953_640.jpg",
        "src1280": "https://cdn.pixabay.com/photo/2021/06/24/17/45/woman-6361953_1280.jpg"
    },
    {
        "id": "5634686",
        "src640": "https://cdn.pixabay.com/photo/2020/10/07/09/54/woman-5634686_640.jpg",
        "src1280": "https://cdn.pixabay.com/photo/2020/10/07/09/54/woman-5634686_1280.jpg"
    },
    {
        "id": "8484266",
        "src640": "https://cdn.pixabay.com/photo/2024/01/03/00/12/woman-8484266_640.jpg",
        "src1280": "https://cdn.pixabay.com/photo/2024/01/03/00/12/woman-8484266_1280.jpg"
    },
    {
        "id": "360376",
        "src640": "https://cdn.pixabay.com/photo/2014/06/02/14/27/saree-360376_640.jpg",
        "src1280": "https://cdn.pixabay.com/photo/2014/06/02/14/27/saree-360376_1280.jpg"
    },
    {
        "id": "2658517",
        "src640": "https://cdn.pixabay.com/photo/2017/08/19/13/20/portrait-2658517_640.jpg",
        "src1280": "https://cdn.pixabay.com/photo/2017/08/19/13/20/portrait-2658517_1280.jpg"
    },
    {
        "id": "1794718",
        "src640": "https://cdn.pixabay.com/photo/2016/11/03/15/45/vintage-1794718_640.jpg",
        "src1280": "https://cdn.pixabay.com/photo/2016/11/03/15/45/vintage-1794718_1280.jpg"
    },
    {
        "id": "1982995",
        "src640": "https://cdn.pixabay.com/photo/2017/01/15/23/51/beautiful-girl-1982995_640.jpg",
        "src1280": "https://cdn.pixabay.com/photo/2017/01/15/23/51/beautiful-girl-1982995_1280.jpg"
    },
    {
        "id": "2437096",
        "src640": "https://cdn.pixabay.com/photo/2017/06/24/09/02/womens-2437096_640.jpg",
        "src1280": "https://cdn.pixabay.com/photo/2017/06/24/09/02/womens-2437096_1280.jpg"
    },
    {
        "id": "3289062",
        "src640": "https://cdn.pixabay.com/photo/2018/04/04/07/37/portrait-3289062_640.jpg",
        "src1280": "https://cdn.pixabay.com/photo/2018/04/04/07/37/portrait-3289062_1280.jpg"
    },
    {
        "id": "2575363",
        "src640": "https://cdn.pixabay.com/photo/2017/08/03/10/16/people-2575363_640.jpg",
        "src1280": "https://cdn.pixabay.com/photo/2017/08/03/10/16/people-2575363_1280.jpg"
    },
    {
        "id": "669799",
        "src640": "https://cdn.pixabay.com/photo/2015/03/12/08/00/girl-669799_640.jpg",
        "src1280": "https://cdn.pixabay.com/photo/2015/03/12/08/00/girl-669799_1280.jpg"
    },
    {
        "id": "1544787",
        "src640": "https://cdn.pixabay.com/photo/2016/07/27/08/02/handsom-1544787_640.jpg",
        "src1280": "https://cdn.pixabay.com/photo/2016/07/27/08/02/handsom-1544787_1280.jpg"
    },
    {
        "id": "8491722",
        "src640": "https://cdn.pixabay.com/photo/2024/01/06/17/10/ai-generated-8491722_640.jpg",
        "src1280": "https://cdn.pixabay.com/photo/2024/01/06/17/10/ai-generated-8491722_1280.jpg"
    },
    {
        "id": "2349022",
        "src640": "https://cdn.pixabay.com/photo/2017/05/27/17/48/model-2349022_640.jpg",
        "src1280": "https://cdn.pixabay.com/photo/2017/05/27/17/48/model-2349022_1280.jpg"
    },
    {
        "id": "3521109",
        "src640": "https://cdn.pixabay.com/photo/2018/07/06/20/23/woman-3521109_640.jpg",
        "src1280": "https://cdn.pixabay.com/photo/2018/07/06/20/23/woman-3521109_1280.jpg"
    },
    {
        "id": "6106917",
        "src640": "https://cdn.pixabay.com/photo/2021/03/19/08/08/fashion-6106917_640.jpg",
        "src1280": "https://cdn.pixabay.com/photo/2021/03/19/08/08/fashion-6106917_1280.jpg"
    },
    {
        "id": "5349867",
        "src640": "https://cdn.pixabay.com/photo/2020/06/28/16/23/woman-5349867_640.jpg",
        "src1280": "https://cdn.pixabay.com/photo/2020/06/28/16/23/woman-5349867_1280.jpg"
    },
    {
        "id": "2589860",
        "src640": "https://cdn.pixabay.com/photo/2017/08/06/07/27/people-2589860_640.jpg",
        "src1280": "https://cdn.pixabay.com/photo/2017/08/06/07/27/people-2589860_1280.jpg"
    },
    {
        "id": "8418762",
        "src640": "https://cdn.pixabay.com/photo/2023/11/29/05/48/woman-8418762_640.jpg",
        "src1280": "https://cdn.pixabay.com/photo/2023/11/29/05/48/woman-8418762_1280.jpg"
    },
    {
        "id": "5200742",
        "src640": "https://cdn.pixabay.com/photo/2020/05/21/13/15/young-5200742_640.jpg",
        "src1280": "https://cdn.pixabay.com/photo/2020/05/21/13/15/young-5200742_1280.jpg"
    },
    {
        "id": "3298418",
        "src640": "https://cdn.pixabay.com/photo/2018/04/07/12/49/fashion-3298418_640.jpg",
        "src1280": "https://cdn.pixabay.com/photo/2018/04/07/12/49/fashion-3298418_1280.jpg"
    },
    {
        "id": "1238298",
        "src640": "https://cdn.pixabay.com/photo/2016/03/05/19/11/background-1238298_640.jpg",
        "src1280": "https://cdn.pixabay.com/photo/2016/03/05/19/11/background-1238298_1280.jpg"
    },
    {
        "id": "791729",
        "src640": "https://cdn.pixabay.com/photo/2015/05/31/13/19/girl-791729_640.jpg",
        "src1280": "https://cdn.pixabay.com/photo/2015/05/31/13/19/girl-791729_1280.jpg"
    },
    {
        "id": "2383237",
        "src640": "https://cdn.pixabay.com/photo/2017/06/08/10/26/art-2383237_640.jpg",
        "src1280": "https://cdn.pixabay.com/photo/2017/06/08/10/26/art-2383237_1280.jpg"
    },
    {
        "id": "2082138",
        "src640": "https://cdn.pixabay.com/photo/2017/02/20/10/56/model-2082138_640.jpg",
        "src1280": "https://cdn.pixabay.com/photo/2017/02/20/10/56/model-2082138_1280.jpg"
    },
    {
        "id": "19447",
        "src640": "https://cdn.pixabay.com/photo/2012/02/29/16/12/beautiful-19447_640.jpg",
        "src1280": "https://cdn.pixabay.com/photo/2012/02/29/16/12/beautiful-19447_1280.jpg"
    },
    {
        "id": "826944",
        "src640": "https://cdn.pixabay.com/photo/2015/06/30/22/34/girl-826944_640.jpg",
        "src1280": "https://cdn.pixabay.com/photo/2015/06/30/22/34/girl-826944_1280.jpg"
    },
    {
        "id": "1390744",
        "src640": "https://cdn.pixabay.com/photo/2016/05/13/19/45/rider-form-1390744_640.jpg",
        "src1280": "https://cdn.pixabay.com/photo/2016/05/13/19/45/rider-form-1390744_1280.jpg"
    },
    {
        "id": "3518231",
        "src640": "https://cdn.pixabay.com/photo/2018/07/05/12/31/sensolatino-3518231_640.jpg",
        "src1280": "https://cdn.pixabay.com/photo/2018/07/05/12/31/sensolatino-3518231_1280.jpg"
    },
    {
        "id": "8486052",
        "src640": "https://cdn.pixabay.com/photo/2024/01/03/19/19/ai-generated-8486052_640.jpg",
        "src1280": "https://cdn.pixabay.com/photo/2024/01/03/19/19/ai-generated-8486052_1280.jpg"
    },
    {
        "id": "3161819",
        "src640": "https://cdn.pixabay.com/photo/2018/02/18/09/43/young-3161819_640.jpg",
        "src1280": "https://cdn.pixabay.com/photo/2018/02/18/09/43/young-3161819_1280.jpg"
    },
    {
        "id": "4096054",
        "src640": "https://cdn.pixabay.com/photo/2019/04/01/18/01/rain-4096054_640.jpg",
        "src1280": "https://cdn.pixabay.com/photo/2019/04/01/18/01/rain-4096054_1280.jpg"
    },
    {
        "id": "4743813",
        "src640": "https://cdn.pixabay.com/photo/2020/01/05/18/35/vintage-4743813_640.jpg",
        "src1280": "https://cdn.pixabay.com/photo/2020/01/05/18/35/vintage-4743813_1280.jpg"
    },
    {
        "id": "3078788",
        "src640": "https://cdn.pixabay.com/photo/2018/01/12/18/21/business-3078788_640.jpg",
        "src1280": "https://cdn.pixabay.com/photo/2018/01/12/18/21/business-3078788_1280.jpg"
    },
    {
        "id": "5089830",
        "src640": "https://cdn.pixabay.com/photo/2020/04/25/08/12/face-5089830_640.jpg",
        "src1280": "https://cdn.pixabay.com/photo/2020/04/25/08/12/face-5089830_1280.jpg"
    },
    {
        "id": "4727298",
        "src640": "https://cdn.pixabay.com/photo/2019/12/29/15/07/portrait-4727298_640.jpg",
        "src1280": "https://cdn.pixabay.com/photo/2019/12/29/15/07/portrait-4727298_1280.jpg"
    },
    {
        "id": "8437012",
        "src640": "https://cdn.pixabay.com/photo/2023/12/08/07/28/woman-8437012_640.jpg",
        "src1280": "https://cdn.pixabay.com/photo/2023/12/08/07/28/woman-8437012_1280.jpg"
    },
    {
        "id": "2349095",
        "src640": "https://cdn.pixabay.com/photo/2017/05/27/18/02/portrait-2349095_640.jpg",
        "src1280": "https://cdn.pixabay.com/photo/2017/05/27/18/02/portrait-2349095_1280.jpg"
    },
    {
        "id": "20134",
        "src640": "https://cdn.pixabay.com/photo/2012/03/01/01/18/beauty-20134_640.jpg",
        "src1280": "https://cdn.pixabay.com/photo/2012/03/01/01/18/beauty-20134_1280.jpg"
    }
]