[
    {
        "id": "2431528",
        "src640": "https://cdn.pixabay.com/photo/2017/06/22/16/56/fractal-2431528_640.jpg",
        "src1280": "https://cdn.pixabay.com/photo/2017/06/22/16/56/fractal-2431528_1280.jpg"
    },
    {
        "id": "8311290",
        "src640": "https://cdn.pixabay.com/photo/2023/10/12/16/59/ai-generated-8311290_640.jpg",
        "src1280": "https://cdn.pixabay.com/photo/2023/10/12/16/59/ai-generated-8311290_1280.jpg"
    },
    {
        "id": "4669952",
        "src640": "https://cdn.pixabay.com/photo/2019/12/03/12/32/portrait-4669952_640.jpg",
        "src1280": "https://cdn.pixabay.com/photo/2019/12/03/12/32/portrait-4669952_1280.jpg"
    },
    {
        "id": "3497409",
        "src640": "https://cdn.pixabay.com/photo/2018/06/25/17/02/fashion-3497409_640.jpg",
        "src1280": "https://cdn.pixabay.com/photo/2018/06/25/17/02/fashion-3497409_1280.jpg"
    },
    {
        "id": "1211747",
        "src640": "https://cdn.pixabay.com/photo/2016/02/20/09/01/models-1211747_640.jpg",
        "src1280": "https://cdn.pixabay.com/photo/2016/02/20/09/01/models-1211747_1280.jpg"
    },
    {
        "id": "3200766",
        "src640": "https://cdn.pixabay.com/photo/2018/03/05/13/29/fashion-3200766_640.jpg",
        "src1280": "https://cdn.pixabay.com/photo/2018/03/05/13/29/fashion-3200766_1280.jpg"
    },
    {
        "id": "2374526",
        "src640": "https://cdn.pixabay.com/photo/2017/06/05/16/39/design-2374526_640.jpg",
        "src1280": "https://cdn.pixabay.com/photo/2017/06/05/16/39/design-2374526_1280.jpg"
    },
    {
        "id": "4646465",
        "src640": "https://cdn.pixabay.com/photo/2019/11/23/07/40/portrait-4646465_640.jpg",
        "src1280": "https://cdn.pixabay.com/photo/2019/11/23/07/40/portrait-4646465_1280.jpg"
    },
    {
        "id": "8264971",
        "src640": "https://cdn.pixabay.com/photo/2023/09/20/14/27/girl-8264971_640.jpg",
        "src1280": "https://cdn.pixabay.com/photo/2023/09/20/14/27/girl-8264971_1280.jpg"
    },
    {
        "id": "2405020",
        "src640": "https://cdn.pixabay.com/photo/2017/06/15/11/27/model-2405020_640.jpg",
        "src1280": "https://cdn.pixabay.com/photo/2017/06/15/11/27/model-2405020_1280.jpg"
    },
    {
        "id": "7608161",
        "src640": "https://cdn.pixabay.com/photo/2022/11/21/20/49/woman-7608161_640.jpg",
        "src1280": "https://cdn.pixabay.com/photo/2022/11/21/20/49/woman-7608161_1280.jpg"
    },
    {
        "id": "909341",
        "src640": "https://cdn.pixabay.com/photo/2015/08/27/01/17/woman-909341_640.jpg",
        "src1280": "https://cdn.pixabay.com/photo/2015/08/27/01/17/woman-909341_1280.jpg"
    },
    {
        "id": "8445550",
        "src640": "https://cdn.pixabay.com/photo/2023/12/12/16/11/ai-generated-8445550_640.jpg",
        "src1280": "https://cdn.pixabay.com/photo/2023/12/12/16/11/ai-generated-8445550_1280.jpg"
    },
    {
        "id": "5129218",
        "src640": "https://cdn.pixabay.com/photo/2020/05/04/13/37/woman-5129218_640.jpg",
        "src1280": "https://cdn.pixabay.com/photo/2020/05/04/13/37/woman-5129218_1280.jpg"
    },
    {
        "id": "3970467",
        "src640": "https://cdn.pixabay.com/photo/2019/02/02/11/06/the-style-of-the-80-ies-3970467_640.jpg",
        "src1280": "https://cdn.pixabay.com/photo/2019/02/02/11/06/the-style-of-the-80-ies-3970467_1280.jpg"
    },
    {
        "id": "366716",
        "src640": "https://cdn.pixabay.com/photo/2014/06/11/14/34/indian-clothing-366716_640.jpg",
        "src1280": "https://cdn.pixabay.com/photo/2014/06/11/14/34/indian-clothing-366716_1280.jpg"
    },
    {
        "id": "7579791",
        "src640": "https://cdn.pixabay.com/photo/2022/11/09/02/46/woman-7579791_640.jpg",
        "src1280": "https://cdn.pixabay.com/photo/2022/11/09/02/46/woman-7579791_1280.jpg"
    },
    {
        "id": "982626",
        "src640": "https://cdn.pixabay.com/photo/2015/10/11/17/17/girl-face-982626_640.jpg",
        "src1280": "https://cdn.pixabay.com/photo/2015/10/11/17/17/girl-face-982626_1280.jpg"
    },
    {
        "id": "5075191",
        "src640": "https://cdn.pixabay.com/photo/2020/04/22/00/39/photo-5075191_640.jpg",
        "src1280": "https://cdn.pixabay.com/photo/2020/04/22/00/39/photo-5075191_1280.jpg"
    },
    {
        "id": "5304695",
        "src640": "https://cdn.pixabay.com/photo/2020/06/16/08/12/dress-5304695_640.jpg",
        "src1280": "https://cdn.pixabay.com/photo/2020/06/16/08/12/dress-5304695_1280.jpg"
    },
    {
        "id": "8437242",
        "src640": "https://cdn.pixabay.com/photo/2023/12/08/08/56/ai-generated-8437242_640.jpg",
        "src1280": "https://cdn.pixabay.com/photo/2023/12/08/08/56/ai-generated-8437242_1280.jpg"
    },
    {
        "id": "1548865",
        "src640": "https://cdn.pixabay.com/photo/2016/07/28/19/04/girl-1548865_640.jpg",
        "src1280": "https://cdn.pixabay.com/photo/2016/07/28/19/04/girl-1548865_1280.jpg"
    },
    {
        "id": "2381614",
        "src640": "https://cdn.pixabay.com/photo/2017/06/07/20/48/model-2381614_640.jpg",
        "src1280": "https://cdn.pixabay.com/photo/2017/06/07/20/48/model-2381614_1280.jpg"
    },
    {
        "id": "5937466",
        "src640": "https://cdn.pixabay.com/photo/2021/01/21/13/57/woman-5937466_640.jpg",
        "src1280": "https://cdn.pixabay.com/photo/2021/01/21/13/57/woman-5937466_1280.jpg"
    },
    {
        "id": "5431268",
        "src640": "https://cdn.pixabay.com/photo/2020/07/23/12/41/portrait-5431268_640.jpg",
        "src1280": "https://cdn.pixabay.com/photo/2020/07/23/12/41/portrait-5431268_1280.jpg"
    },
    {
        "id": "2339776",
        "src640": "https://cdn.pixabay.com/photo/2017/05/24/07/53/model-2339776_640.jpg",
        "src1280": "https://cdn.pixabay.com/photo/2017/05/24/07/53/model-2339776_1280.jpg"
    },
    {
        "id": "3440002",
        "src640": "https://cdn.pixabay.com/photo/2018/05/29/20/28/model-3440002_640.jpg",
        "src1280": "https://cdn.pixabay.com/photo/2018/05/29/20/28/model-3440002_1280.jpg"
    },
    {
        "id": "5937465",
        "src640": "https://cdn.pixabay.com/photo/2021/01/21/13/57/woman-5937465_640.jpg",
        "src1280": "https://cdn.pixabay.com/photo/2021/01/21/13/57/woman-5937465_1280.jpg"
    },
    {
        "id": "6603127",
        "src640": "https://cdn.pixabay.com/photo/2021/09/07/07/19/woman-6603127_640.jpg",
        "src1280": "https://cdn.pixabay.com/photo/2021/09/07/07/19/woman-6603127_1280.jpg"
    },
    {
        "id": "4714822",
        "src640": "https://cdn.pixabay.com/photo/2019/12/23/15/38/portrait-4714822_640.jpg",
        "src1280": "https://cdn.pixabay.com/photo/2019/12/23/15/38/portrait-4714822_1280.jpg"
    },
    {
        "id": "6663439",
        "src640": "https://cdn.pixabay.com/photo/2021/09/28/05/58/woman-6663439_640.jpg",
        "src1280": "https://cdn.pixabay.com/photo/2021/09/28/05/58/woman-6663439_1280.jpg"
    },
    {
        "id": "5576860",
        "src640": "https://cdn.pixabay.com/photo/2020/09/16/16/26/woman-5576860_640.jpg",
        "src1280": "https://cdn.pixabay.com/photo/2020/09/16/16/26/woman-5576860_1280.jpg"
    },
    {
        "id": "8232822",
        "src640": "https://cdn.pixabay.com/photo/2023/09/04/14/20/woman-8232822_640.jpg",
        "src1280": "https://cdn.pixabay.com/photo/2023/09/04/14/20/woman-8232822_1280.jpg"
    },
    {
        "id": "6228557",
        "src640": "https://cdn.pixabay.com/photo/2021/05/04/12/18/woman-6228557_640.jpg",
        "src1280": "https://cdn.pixabay.com/photo/2021/05/04/12/18/woman-6228557_1280.jpg"
    },
    {
        "id": "295881",
        "src640": "https://cdn.pixabay.com/photo/2014/03/24/23/35/woman-295881_640.jpg",
        "src1280": "https://cdn.pixabay.com/photo/2014/03/24/23/35/woman-295881_1280.jpg"
    },
    {
        "id": "1759207",
        "src640": "https://cdn.pixabay.com/photo/2016/10/21/21/10/shari-1759207_640.jpg",
        "src1280": "https://cdn.pixabay.com/photo/2016/10/21/21/10/shari-1759207_1280.jpg"
    },
    {
        "id": "4994649",
        "src640": "https://cdn.pixabay.com/photo/2020/04/02/11/26/girl-4994649_640.jpg",
        "src1280": "https://cdn.pixabay.com/photo/2020/04/02/11/26/girl-4994649_1280.jpg"
    },
    {
        "id": "2350507",
        "src640": "https://cdn.pixabay.com/photo/2017/05/28/09/35/model-2350507_640.jpg",
        "src1280": "https://cdn.pixabay.com/photo/2017/05/28/09/35/model-2350507_1280.jpg"
    },
    {
        "id": "5909020",
        "src640": "https://cdn.pixabay.com/photo/2021/01/11/17/30/couple-5909020_640.jpg",
        "src1280": "https://cdn.pixabay.com/photo/2021/01/11/17/30/couple-5909020_1280.jpg"
    },
    {
        "id": "3335109",
        "src640": "https://cdn.pixabay.com/photo/2018/04/20/05/10/looking-3335109_640.jpg",
        "src1280": "https://cdn.pixabay.com/photo/2018/04/20/05/10/looking-3335109_1280.jpg"
    },
    {
        "id": "3285308",
        "src640": "https://cdn.pixabay.com/photo/2018/04/02/22/00/portrait-3285308_640.jpg",
        "src1280": "https://cdn.pixabay.com/photo/2018/04/02/22/00/portrait-3285308_1280.jpg"
    },
    {
        "id": "3891282",
        "src640": "https://cdn.pixabay.com/photo/2018/12/23/14/58/man-3891282_640.jpg",
        "src1280": "https://cdn.pixabay.com/photo/2018/12/23/14/58/man-3891282_1280.jpg"
    },
    {
        "id": "4512204",
        "src640": "https://cdn.pixabay.com/photo/2019/09/29/03/30/girl-4512204_640.jpg",
        "src1280": "https://cdn.pixabay.com/photo/2019/09/29/03/30/girl-4512204_1280.jpg"
    },
    {
        "id": "5584071",
        "src640": "https://cdn.pixabay.com/photo/2020/09/19/10/21/woman-5584071_640.jpg",
        "src1280": "https://cdn.pixabay.com/photo/2020/09/19/10/21/woman-5584071_1280.jpg"
    },
    {
        "id": "5520074",
        "src640": "https://cdn.pixabay.com/photo/2020/08/26/16/51/woman-5520074_640.jpg",
        "src1280": "https://cdn.pixabay.com/photo/2020/08/26/16/51/woman-5520074_1280.jpg"
    },
    {
        "id": "6573302",
        "src640": "https://cdn.pixabay.com/photo/2021/08/25/12/38/woman-6573302_640.jpg",
        "src1280": "https://cdn.pixabay.com/photo/2021/08/25/12/38/woman-6573302_1280.jpg"
    },
    {
        "id": "6641065",
        "src640": "https://cdn.pixabay.com/photo/2021/09/20/14/36/woman-6641065_640.jpg",
        "src1280": "https://cdn.pixabay.com/photo/2021/09/20/14/36/woman-6641065_1280.jpg"
    },
    {
        "id": "1898409",
        "src640": "https://cdn.pixabay.com/photo/2016/12/10/23/24/vintage-1898409_640.jpg",
        "src1280": "https://cdn.pixabay.com/photo/2016/12/10/23/24/vintage-1898409_1280.jpg"
    },
    {
        "id": "5987431",
        "src640": "https://cdn.pixabay.com/photo/2021/02/06/09/02/woman-5987431_640.jpg",
        "src1280": "https://cdn.pixabay.com/photo/2021/02/06/09/02/woman-5987431_1280.jpg"
    },
    {
        "id": "5739698",
        "src640": "https://cdn.pixabay.com/photo/2020/11/13/19/25/girl-5739698_640.jpg",
        "src1280": "https://cdn.pixabay.com/photo/2020/11/13/19/25/girl-5739698_1280.jpg"
    },
    {
        "id": "6800572",
        "src640": "https://cdn.pixabay.com/photo/2021/11/16/10/12/woman-6800572_640.jpg",
        "src1280": "https://cdn.pixabay.com/photo/2021/11/16/10/12/woman-6800572_1280.jpg"
    },
    {
        "id": "6344302",
        "src640": "https://cdn.pixabay.com/photo/2021/06/17/18/28/baby-6344302_640.jpg",
        "src1280": "https://cdn.pixabay.com/photo/2021/06/17/18/28/baby-6344302_1280.jpg"
    },
    {
        "id": "6288801",
        "src640": "https://cdn.pixabay.com/photo/2021/05/27/17/39/face-6288801_640.jpg",
        "src1280": "https://cdn.pixabay.com/photo/2021/05/27/17/39/face-6288801_1280.jpg"
    },
    {
        "id": "4214450",
        "src640": "https://cdn.pixabay.com/photo/2019/05/19/16/10/wreath-4214450_640.jpg",
        "src1280": "https://cdn.pixabay.com/photo/2019/05/19/16/10/wreath-4214450_1280.jpg"
    },
    {
        "id": "3780482",
        "src640": "https://cdn.pixabay.com/photo/2018/10/29/06/39/fashion-3780482_640.jpg",
        "src1280": "https://cdn.pixabay.com/photo/2018/10/29/06/39/fashion-3780482_1280.jpg"
    },
    {
        "id": "358320",
        "src640": "https://cdn.pixabay.com/photo/2014/05/30/15/04/saree-358320_640.jpg",
        "src1280": "https://cdn.pixabay.com/photo/2014/05/30/15/04/saree-358320_1280.jpg"
    },
    {
        "id": "3110938",
        "src640": "https://cdn.pixabay.com/photo/2018/01/27/11/07/fashion-3110938_640.jpg",
        "src1280": "https://cdn.pixabay.com/photo/2018/01/27/11/07/fashion-3110938_1280.jpg"
    },
    {
        "id": "5192262",
        "src640": "https://cdn.pixabay.com/photo/2020/05/19/19/06/girl-5192262_640.jpg",
        "src1280": "https://cdn.pixabay.com/photo/2020/05/19/19/06/girl-5192262_1280.jpg"
    },
    {
        "id": "4956094",
        "src640": "https://cdn.pixabay.com/photo/2020/03/22/07/25/art-4956094_640.jpg",
        "src1280": "https://cdn.pixabay.com/photo/2020/03/22/07/25/art-4956094_1280.jpg"
    },
    {
        "id": "3231302",
        "src640": "https://cdn.pixabay.com/photo/2018/03/16/13/54/male-3231302_640.jpg",
        "src1280": "https://cdn.pixabay.com/photo/2018/03/16/13/54/male-3231302_1280.jpg"
    },
    {
        "id": "220334",
        "src640": "https://cdn.pixabay.com/photo/2013/11/28/11/32/woman-220334_640.jpg",
        "src1280": "https://cdn.pixabay.com/photo/2013/11/28/11/32/woman-220334_1280.jpg"
    }
]