[
    {
        "id": "6115120",
        "src640": "https://cdn.pixabay.com/photo/2021/03/22/16/14/woman-6115120_640.jpg",
        "src1280": "https://cdn.pixabay.com/photo/2021/03/22/16/14/woman-6115120_1280.jpg"
    },
    {
        "id": "2585544",
        "src640": "https://cdn.pixabay.com/photo/2017/08/05/20/58/black-and-white-2585544_640.jpg",
        "src1280": "https://cdn.pixabay.com/photo/2017/08/05/20/58/black-and-white-2585544_1280.jpg"
    },
    {
        "id": "2740520",
        "src640": "https://cdn.pixabay.com/photo/2017/09/11/21/28/girl-2740520_640.jpg",
        "src1280": "https://cdn.pixabay.com/photo/2017/09/11/21/28/girl-2740520_1280.jpg"
    },
    {
        "id": "4825291",
        "src640": "https://cdn.pixabay.com/photo/2020/02/06/19/20/woman-4825291_640.jpg",
        "src1280": "https://cdn.pixabay.com/photo/2020/02/06/19/20/woman-4825291_1280.jpg"
    },
    {
        "id": "6477402",
        "src640": "https://cdn.pixabay.com/photo/2021/07/19/07/22/woman-6477402_640.jpg",
        "src1280": "https://cdn.pixabay.com/photo/2021/07/19/07/22/woman-6477402_1280.jpg"
    },
    {
        "id": "7717893",
        "src640": "https://cdn.pixabay.com/photo/2023/01/14/10/34/ai-generated-7717893_640.jpg",
        "src1280": "https://cdn.pixabay.com/photo/2023/01/14/10/34/ai-generated-7717893_1280.jpg"
    },
    {
        "id": "7981931",
        "src640": "https://cdn.pixabay.com/photo/2023/05/09/16/30/ai-generated-7981931_640.jpg",
        "src1280": "https://cdn.pixabay.com/photo/2023/05/09/16/30/ai-generated-7981931_1280.jpg"
    },
    {
        "id": "6615578",
        "src640": "https://cdn.pixabay.com/photo/2021/09/11/13/07/girl-6615578_640.jpg",
        "src1280": "https://cdn.pixabay.com/photo/2021/09/11/13/07/girl-6615578_1280.jpg"
    },
    {
        "id": "4703638",
        "src640": "https://cdn.pixabay.com/photo/2019/12/18/10/44/girl-4703638_640.jpg",
        "src1280": "https://cdn.pixabay.com/photo/2019/12/18/10/44/girl-4703638_1280.jpg"
    },
    {
        "id": "6374757",
        "src640": "https://cdn.pixabay.com/photo/2021/06/29/18/04/woman-6374757_640.jpg",
        "src1280": "https://cdn.pixabay.com/photo/2021/06/29/18/04/woman-6374757_1280.jpg"
    },
    {
        "id": "8325726",
        "src640": "https://cdn.pixabay.com/photo/2023/10/19/06/41/beauty-8325726_640.jpg",
        "src1280": "https://cdn.pixabay.com/photo/2023/10/19/06/41/beauty-8325726_1280.jpg"
    },
    {
        "id": "1143722",
        "src640": "https://cdn.pixabay.com/photo/2016/01/16/18/07/march-2016-1143722_640.jpg",
        "src1280": "https://cdn.pixabay.com/photo/2016/01/16/18/07/march-2016-1143722_1280.jpg"
    },
    {
        "id": "4364172",
        "src640": "https://cdn.pixabay.com/photo/2019/07/26/08/05/feysart-4364172_640.jpg",
        "src1280": "https://cdn.pixabay.com/photo/2019/07/26/08/05/feysart-4364172_1280.jpg"
    },
    {
        "id": "8010958",
        "src640": "https://cdn.pixabay.com/photo/2023/05/22/15/23/ai-generated-8010958_640.jpg",
        "src1280": "https://cdn.pixabay.com/photo/2023/05/22/15/23/ai-generated-8010958_1280.jpg"
    },
    {
        "id": "8151724",
        "src640": "https://cdn.pixabay.com/photo/2023/07/26/17/32/ai-generated-8151724_640.jpg",
        "src1280": "https://cdn.pixabay.com/photo/2023/07/26/17/32/ai-generated-8151724_1280.jpg"
    },
    {
        "id": "4304265",
        "src640": "https://cdn.pixabay.com/photo/2019/06/28/14/44/woman-4304265_640.jpg",
        "src1280": "https://cdn.pixabay.com/photo/2019/06/28/14/44/woman-4304265_1280.jpg"
    },
    {
        "id": "6573838",
        "src640": "https://cdn.pixabay.com/photo/2021/08/25/15/37/woman-6573838_640.jpg",
        "src1280": "https://cdn.pixabay.com/photo/2021/08/25/15/37/woman-6573838_1280.jpg"
    },
    {
        "id": "8133466",
        "src640": "https://cdn.pixabay.com/photo/2023/07/17/19/55/woman-8133466_640.jpg",
        "src1280": "https://cdn.pixabay.com/photo/2023/07/17/19/55/woman-8133466_1280.jpg"
    },
    {
        "id": "4039354",
        "src640": "https://cdn.pixabay.com/photo/2019/03/07/02/16/woman-4039354_640.jpg",
        "src1280": "https://cdn.pixabay.com/photo/2019/03/07/02/16/woman-4039354_1280.jpg"
    },
    {
        "id": "7894418",
        "src640": "https://cdn.pixabay.com/photo/2023/04/02/11/20/ai-generated-7894418_640.jpg",
        "src1280": "https://cdn.pixabay.com/photo/2023/04/02/11/20/ai-generated-7894418_1280.jpg"
    },
    {
        "id": "220291",
        "src640": "https://cdn.pixabay.com/photo/2013/11/28/11/31/bike-220291_640.jpg",
        "src1280": "https://cdn.pixabay.com/photo/2013/11/28/11/31/bike-220291_1280.jpg"
    },
    {
        "id": "6267576",
        "src640": "https://cdn.pixabay.com/photo/2021/05/20/02/52/fashion-6267576_640.jpg",
        "src1280": "https://cdn.pixabay.com/photo/2021/05/20/02/52/fashion-6267576_1280.jpg"
    },
    {
        "id": "7134428",
        "src640": "https://cdn.pixabay.com/photo/2022/04/15/12/56/woman-7134428_640.jpg",
        "src1280": "https://cdn.pixabay.com/photo/2022/04/15/12/56/woman-7134428_1280.jpg"
    },
    {
        "id": "7170489",
        "src640": "https://cdn.pixabay.com/photo/2022/05/02/22/08/woman-7170489_640.jpg",
        "src1280": "https://cdn.pixabay.com/photo/2022/05/02/22/08/woman-7170489_1280.jpg"
    },
    {
        "id": "5577955",
        "src640": "https://cdn.pixabay.com/photo/2020/09/17/04/27/woman-5577955_640.jpg",
        "src1280": "https://cdn.pixabay.com/photo/2020/09/17/04/27/woman-5577955_1280.jpg"
    },
    {
        "id": "5520072",
        "src640": "https://cdn.pixabay.com/photo/2020/08/26/16/51/woman-5520072_640.jpg",
        "src1280": "https://cdn.pixabay.com/photo/2020/08/26/16/51/woman-5520072_1280.jpg"
    },
    {
        "id": "5937467",
        "src640": "https://cdn.pixabay.com/photo/2021/01/21/13/58/woman-5937467_640.jpg",
        "src1280": "https://cdn.pixabay.com/photo/2021/01/21/13/58/woman-5937467_1280.jpg"
    },
    {
        "id": "5138278",
        "src640": "https://cdn.pixabay.com/photo/2020/05/06/16/46/denim-5138278_640.jpg",
        "src1280": "https://cdn.pixabay.com/photo/2020/05/06/16/46/denim-5138278_1280.jpg"
    },
    {
        "id": "8227322",
        "src640": "https://cdn.pixabay.com/photo/2023/09/01/17/04/ai-generated-8227322_640.jpg",
        "src1280": "https://cdn.pixabay.com/photo/2023/09/01/17/04/ai-generated-8227322_1280.jpg"
    },
    {
        "id": "7099435",
        "src640": "https://cdn.pixabay.com/photo/2022/03/29/12/48/woman-7099435_640.jpg",
        "src1280": "https://cdn.pixabay.com/photo/2022/03/29/12/48/woman-7099435_1280.jpg"
    },
    {
        "id": "5864275",
        "src640": "https://cdn.pixabay.com/photo/2020/12/27/14/36/woman-5864275_640.jpg",
        "src1280": "https://cdn.pixabay.com/photo/2020/12/27/14/36/woman-5864275_1280.jpg"
    },
    {
        "id": "7248191",
        "src640": "https://cdn.pixabay.com/photo/2022/06/07/11/34/woman-7248191_640.jpg",
        "src1280": "https://cdn.pixabay.com/photo/2022/06/07/11/34/woman-7248191_1280.jpg"
    },
    {
        "id": "8137043",
        "src640": "https://cdn.pixabay.com/photo/2023/07/19/14/08/woman-8137043_640.jpg",
        "src1280": "https://cdn.pixabay.com/photo/2023/07/19/14/08/woman-8137043_1280.jpg"
    },
    {
        "id": "8398900",
        "src640": "https://cdn.pixabay.com/photo/2023/11/19/15/07/naive-8398900_640.jpg",
        "src1280": "https://cdn.pixabay.com/photo/2023/11/19/15/07/naive-8398900_1280.jpg"
    },
    {
        "id": "21067",
        "src640": "https://cdn.pixabay.com/photo/2012/03/02/10/59/adult-21067_640.jpg",
        "src1280": "https://cdn.pixabay.com/photo/2012/03/02/10/59/adult-21067_1280.jpg"
    },
    {
        "id": "6645979",
        "src640": "https://cdn.pixabay.com/photo/2021/09/22/07/46/ballerina-6645979_640.jpg",
        "src1280": "https://cdn.pixabay.com/photo/2021/09/22/07/46/ballerina-6645979_1280.jpg"
    },
    {
        "id": "3824359",
        "src640": "https://cdn.pixabay.com/photo/2018/11/19/00/27/girl-3824359_640.jpg",
        "src1280": "https://cdn.pixabay.com/photo/2018/11/19/00/27/girl-3824359_1280.jpg"
    },
    {
        "id": "8223469",
        "src640": "https://cdn.pixabay.com/photo/2023/08/30/14/49/woman-8223469_640.jpg",
        "src1280": "https://cdn.pixabay.com/photo/2023/08/30/14/49/woman-8223469_1280.jpg"
    },
    {
        "id": "4640234",
        "src640": "https://cdn.pixabay.com/photo/2019/11/20/14/46/girl-4640234_640.jpg",
        "src1280": "https://cdn.pixabay.com/photo/2019/11/20/14/46/girl-4640234_1280.jpg"
    },
    {
        "id": "4773345",
        "src640": "https://cdn.pixabay.com/photo/2020/01/17/16/25/portrait-4773345_640.jpg",
        "src1280": "https://cdn.pixabay.com/photo/2020/01/17/16/25/portrait-4773345_1280.jpg"
    },
    {
        "id": "7894413",
        "src640": "https://cdn.pixabay.com/photo/2023/04/02/11/19/ai-generated-7894413_640.jpg",
        "src1280": "https://cdn.pixabay.com/photo/2023/04/02/11/19/ai-generated-7894413_1280.jpg"
    },
    {
        "id": "6705069",
        "src640": "https://cdn.pixabay.com/photo/2021/10/13/01/22/woman-6705069_640.jpg",
        "src1280": "https://cdn.pixabay.com/photo/2021/10/13/01/22/woman-6705069_1280.jpg"
    },
    {
        "id": "4120283",
        "src640": "https://cdn.pixabay.com/photo/2019/04/11/17/42/beauty-4120283_640.jpg",
        "src1280": "https://cdn.pixabay.com/photo/2019/04/11/17/42/beauty-4120283_1280.jpg"
    },
    {
        "id": "8469719",
        "src640": "https://cdn.pixabay.com/photo/2023/12/26/07/53/ai-generated-8469719_640.jpg",
        "src1280": "https://cdn.pixabay.com/photo/2023/12/26/07/53/ai-generated-8469719_1280.jpg"
    },
    {
        "id": "6004245",
        "src640": "https://cdn.pixabay.com/photo/2021/02/11/05/21/woman-6004245_640.jpg",
        "src1280": "https://cdn.pixabay.com/photo/2021/02/11/05/21/woman-6004245_1280.jpg"
    },
    {
        "id": "7119716",
        "src640": "https://cdn.pixabay.com/photo/2022/04/08/15/35/black-woman-7119716_640.jpg",
        "src1280": "https://cdn.pixabay.com/photo/2022/04/08/15/35/black-woman-7119716_1280.jpg"
    },
    {
        "id": "2339935",
        "src640": "https://cdn.pixabay.com/photo/2017/05/24/09/13/potrait-2339935_640.jpg",
        "src1280": "https://cdn.pixabay.com/photo/2017/05/24/09/13/potrait-2339935_1280.jpg"
    },
    {
        "id": "7571727",
        "src640": "https://cdn.pixabay.com/photo/2022/11/05/12/42/woman-7571727_640.jpg",
        "src1280": "https://cdn.pixabay.com/photo/2022/11/05/12/42/woman-7571727_1280.jpg"
    },
    {
        "id": "4605249",
        "src640": "https://cdn.pixabay.com/photo/2019/11/06/05/57/model-4605249_640.jpg",
        "src1280": "https://cdn.pixabay.com/photo/2019/11/06/05/57/model-4605249_1280.jpg"
    },
    {
        "id": "6540896",
        "src640": "https://cdn.pixabay.com/photo/2021/08/12/13/39/woman-6540896_640.jpg",
        "src1280": "https://cdn.pixabay.com/photo/2021/08/12/13/39/woman-6540896_1280.jpg"
    },
    {
        "id": "3715695",
        "src640": "https://cdn.pixabay.com/photo/2018/10/01/09/08/daughter-3715695_640.jpg",
        "src1280": "https://cdn.pixabay.com/photo/2018/10/01/09/08/daughter-3715695_1280.jpg"
    },
    {
        "id": "2339784",
        "src640": "https://cdn.pixabay.com/photo/2017/05/24/07/56/model-2339784_640.jpg",
        "src1280": "https://cdn.pixabay.com/photo/2017/05/24/07/56/model-2339784_1280.jpg"
    },
    {
        "id": "606972",
        "src640": "https://cdn.pixabay.com/photo/2015/01/21/17/20/girl-606972_640.jpg",
        "src1280": "https://cdn.pixabay.com/photo/2015/01/21/17/20/girl-606972_1280.jpg"
    },
    {
        "id": "2437008",
        "src640": "https://cdn.pixabay.com/photo/2017/06/24/08/24/womens-2437008_640.jpg",
        "src1280": "https://cdn.pixabay.com/photo/2017/06/24/08/24/womens-2437008_1280.jpg"
    },
    {
        "id": "5873524",
        "src640": "https://cdn.pixabay.com/photo/2020/12/30/13/36/girl-5873524_640.jpg",
        "src1280": "https://cdn.pixabay.com/photo/2020/12/30/13/36/girl-5873524_1280.jpg"
    },
    {
        "id": "6147368",
        "src640": "https://cdn.pixabay.com/photo/2021/04/03/12/18/fashion-6147368_640.jpg",
        "src1280": "https://cdn.pixabay.com/photo/2021/04/03/12/18/fashion-6147368_1280.jpg"
    },
    {
        "id": "7703951",
        "src640": "https://cdn.pixabay.com/photo/2023/01/07/19/43/people-7703951_640.jpg",
        "src1280": "https://cdn.pixabay.com/photo/2023/01/07/19/43/people-7703951_1280.jpg"
    },
    {
        "id": "3571382",
        "src640": "https://cdn.pixabay.com/photo/2018/07/29/23/30/female-portraits-3571382_640.jpg",
        "src1280": "https://cdn.pixabay.com/photo/2018/07/29/23/30/female-portraits-3571382_1280.jpg"
    },
    {
        "id": "6916309",
        "src640": "https://cdn.pixabay.com/photo/2022/01/05/02/54/woman-6916309_640.jpg",
        "src1280": "https://cdn.pixabay.com/photo/2022/01/05/02/54/woman-6916309_1280.jpg"
    },
    {
        "id": "698514",
        "src640": "https://cdn.pixabay.com/photo/2015/03/30/12/37/young-698514_640.jpg",
        "src1280": "https://cdn.pixabay.com/photo/2015/03/30/12/37/young-698514_1280.jpg"
    },
    {
        "id": "5312739",
        "src640": "https://cdn.pixabay.com/photo/2020/06/18/09/41/fashion-5312739_640.jpg",
        "src1280": "https://cdn.pixabay.com/photo/2020/06/18/09/41/fashion-5312739_1280.jpg"
    },
    {
        "id": "4940572",
        "src640": "https://cdn.pixabay.com/photo/2020/03/17/14/44/dress-4940572_640.jpg",
        "src1280": "https://cdn.pixabay.com/photo/2020/03/17/14/44/dress-4940572_1280.jpg"
    },
    {
        "id": "6182868",
        "src640": "https://cdn.pixabay.com/photo/2021/04/16/07/30/ao-dai-6182868_640.jpg",
        "src1280": "https://cdn.pixabay.com/photo/2021/04/16/07/30/ao-dai-6182868_1280.jpg"
    },
    {
        "id": "1746615",
        "src640": "https://cdn.pixabay.com/photo/2016/10/16/23/37/fashion-show-1746615_640.jpg",
        "src1280": "https://cdn.pixabay.com/photo/2016/10/16/23/37/fashion-show-1746615_1280.jpg"
    },
    {
        "id": "2945535",
        "src640": "https://cdn.pixabay.com/photo/2017/11/13/12/59/photo-2945535_640.jpg",
        "src1280": "https://cdn.pixabay.com/photo/2017/11/13/12/59/photo-2945535_1280.jpg"
    },
    {
        "id": "5559917",
        "src640": "https://cdn.pixabay.com/photo/2020/09/10/09/55/woman-5559917_640.jpg",
        "src1280": "https://cdn.pixabay.com/photo/2020/09/10/09/55/woman-5559917_1280.jpg"
    },
    {
        "id": "3939885",
        "src640": "https://cdn.pixabay.com/photo/2019/01/18/14/51/fashion-3939885_640.jpg",
        "src1280": "https://cdn.pixabay.com/photo/2019/01/18/14/51/fashion-3939885_1280.jpg"
    },
    {
        "id": "881429",
        "src640": "https://cdn.pixabay.com/photo/2015/08/09/11/25/model-881429_640.jpg",
        "src1280": "https://cdn.pixabay.com/photo/2015/08/09/11/25/model-881429_1280.jpg"
    },
    {
        "id": "6792950",
        "src640": "https://cdn.pixabay.com/photo/2021/11/14/06/07/woman-6792950_640.jpg",
        "src1280": "https://cdn.pixabay.com/photo/2021/11/14/06/07/woman-6792950_1280.jpg"
    }
]