[
    {
        "id": "6230463",
        "src640": "https://cdn.pixabay.com/photo/2021/05/05/07/26/bride-6230463_640.jpg",
        "src1280": "https://cdn.pixabay.com/photo/2021/05/05/07/26/bride-6230463_1280.jpg"
    },
    {
        "id": "7563585",
        "src640": "https://cdn.pixabay.com/photo/2022/11/01/22/46/woman-7563585_640.jpg",
        "src1280": "https://cdn.pixabay.com/photo/2022/11/01/22/46/woman-7563585_1280.jpg"
    },
    {
        "id": "2359719",
        "src640": "https://cdn.pixabay.com/photo/2017/05/31/09/33/womens-2359719_640.jpg",
        "src1280": "https://cdn.pixabay.com/photo/2017/05/31/09/33/womens-2359719_1280.jpg"
    },
    {
        "id": "7181294",
        "src640": "https://cdn.pixabay.com/photo/2022/05/08/05/40/woman-7181294_640.jpg",
        "src1280": "https://cdn.pixabay.com/photo/2022/05/08/05/40/woman-7181294_1280.jpg"
    },
    {
        "id": "6398260",
        "src640": "https://cdn.pixabay.com/photo/2021/07/09/04/20/girl-6398260_640.jpg",
        "src1280": "https://cdn.pixabay.com/photo/2021/07/09/04/20/girl-6398260_1280.jpg"
    },
    {
        "id": "5969391",
        "src640": "https://cdn.pixabay.com/photo/2021/02/01/05/11/woman-5969391_640.jpg",
        "src1280": "https://cdn.pixabay.com/photo/2021/02/01/05/11/woman-5969391_1280.jpg"
    },
    {
        "id": "1794796",
        "src640": "https://cdn.pixabay.com/photo/2016/11/03/15/54/vintage-1794796_640.jpg",
        "src1280": "https://cdn.pixabay.com/photo/2016/11/03/15/54/vintage-1794796_1280.jpg"
    },
    {
        "id": "6196873",
        "src640": "https://cdn.pixabay.com/photo/2021/04/21/16/37/woman-6196873_640.jpg",
        "src1280": "https://cdn.pixabay.com/photo/2021/04/21/16/37/woman-6196873_1280.jpg"
    },
    {
        "id": "4669958",
        "src640": "https://cdn.pixabay.com/photo/2019/12/03/12/37/portrait-4669958_640.jpg",
        "src1280": "https://cdn.pixabay.com/photo/2019/12/03/12/37/portrait-4669958_1280.jpg"
    },
    {
        "id": "7230249",
        "src640": "https://cdn.pixabay.com/photo/2022/05/30/02/27/woman-7230249_640.jpg",
        "src1280": "https://cdn.pixabay.com/photo/2022/05/30/02/27/woman-7230249_1280.jpg"
    },
    {
        "id": "8263775",
        "src640": "https://cdn.pixabay.com/photo/2023/09/20/03/01/anime-8263775_640.jpg",
        "src1280": "https://cdn.pixabay.com/photo/2023/09/20/03/01/anime-8263775_1280.jpg"
    },
    {
        "id": "3304217",
        "src640": "https://cdn.pixabay.com/photo/2018/04/09/14/35/fashion-3304217_640.jpg",
        "src1280": "https://cdn.pixabay.com/photo/2018/04/09/14/35/fashion-3304217_1280.jpg"
    },
    {
        "id": "7256356",
        "src640": "https://cdn.pixabay.com/photo/2022/06/11/13/40/woman-7256356_640.jpg",
        "src1280": "https://cdn.pixabay.com/photo/2022/06/11/13/40/woman-7256356_1280.jpg"
    },
    {
        "id": "3273839",
        "src640": "https://cdn.pixabay.com/photo/2018/03/29/22/09/woman-3273839_640.jpg",
        "src1280": "https://cdn.pixabay.com/photo/2018/03/29/22/09/woman-3273839_1280.jpg"
    },
    {
        "id": "2189241",
        "src640": "https://cdn.pixabay.com/photo/2017/03/30/18/15/fashion-2189241_640.jpg",
        "src1280": "https://cdn.pixabay.com/photo/2017/03/30/18/15/fashion-2189241_1280.jpg"
    },
    {
        "id": "4240978",
        "src640": "https://cdn.pixabay.com/photo/2019/05/30/22/58/beauty-4240978_640.jpg",
        "src1280": "https://cdn.pixabay.com/photo/2019/05/30/22/58/beauty-4240978_1280.jpg"
    },
    {
        "id": "6259585",
        "src640": "https://cdn.pixabay.com/photo/2021/05/17/01/52/fashion-6259585_640.jpg",
        "src1280": "https://cdn.pixabay.com/photo/2021/05/17/01/52/fashion-6259585_1280.jpg"
    },
    {
        "id": "5305135",
        "src640": "https://cdn.pixabay.com/photo/2020/06/16/10/24/fashion-5305135_640.jpg",
        "src1280": "https://cdn.pixabay.com/photo/2020/06/16/10/24/fashion-5305135_1280.jpg"
    },
    {
        "id": "7161672",
        "src640": "https://cdn.pixabay.com/photo/2022/04/28/03/15/girl-7161672_640.jpg",
        "src1280": "https://cdn.pixabay.com/photo/2022/04/28/03/15/girl-7161672_1280.jpg"
    },
    {
        "id": "5670269",
        "src640": "https://cdn.pixabay.com/photo/2020/10/20/11/50/child-5670269_640.jpg",
        "src1280": "https://cdn.pixabay.com/photo/2020/10/20/11/50/child-5670269_1280.jpg"
    },
    {
        "id": "7288796",
        "src640": "https://cdn.pixabay.com/photo/2022/06/28/04/28/woman-7288796_640.jpg",
        "src1280": "https://cdn.pixabay.com/photo/2022/06/28/04/28/woman-7288796_1280.jpg"
    },
    {
        "id": "2587158",
        "src640": "https://cdn.pixabay.com/photo/2017/08/06/00/41/people-2587158_640.jpg",
        "src1280": "https://cdn.pixabay.com/photo/2017/08/06/00/41/people-2587158_1280.jpg"
    },
    {
        "id": "2619633",
        "src640": "https://cdn.pixabay.com/photo/2017/08/10/07/43/leather-2619633_640.jpg",
        "src1280": "https://cdn.pixabay.com/photo/2017/08/10/07/43/leather-2619633_1280.jpg"
    },
    {
        "id": "5263496",
        "src640": "https://cdn.pixabay.com/photo/2020/06/05/15/20/dress-5263496_640.jpg",
        "src1280": "https://cdn.pixabay.com/photo/2020/06/05/15/20/dress-5263496_1280.jpg"
    },
    {
        "id": "7357666",
        "src640": "https://cdn.pixabay.com/photo/2022/08/01/08/39/woman-7357666_640.jpg",
        "src1280": "https://cdn.pixabay.com/photo/2022/08/01/08/39/woman-7357666_1280.jpg"
    },
    {
        "id": "6645983",
        "src640": "https://cdn.pixabay.com/photo/2021/09/22/07/47/ballerina-6645983_640.jpg",
        "src1280": "https://cdn.pixabay.com/photo/2021/09/22/07/47/ballerina-6645983_1280.jpg"
    },
    {
        "id": "7722556",
        "src640": "https://cdn.pixabay.com/photo/2023/01/16/14/29/woman-7722556_640.jpg",
        "src1280": "https://cdn.pixabay.com/photo/2023/01/16/14/29/woman-7722556_1280.jpg"
    },
    {
        "id": "7256354",
        "src640": "https://cdn.pixabay.com/photo/2022/06/11/13/40/woman-7256354_640.jpg",
        "src1280": "https://cdn.pixabay.com/photo/2022/06/11/13/40/woman-7256354_1280.jpg"
    },
    {
        "id": "6687170",
        "src640": "https://cdn.pixabay.com/photo/2021/10/07/02/55/girl-6687170_640.jpg",
        "src1280": "https://cdn.pixabay.com/photo/2021/10/07/02/55/girl-6687170_1280.jpg"
    },
    {
        "id": "2411711",
        "src640": "https://cdn.pixabay.com/photo/2017/06/17/10/08/model-2411711_640.jpg",
        "src1280": "https://cdn.pixabay.com/photo/2017/06/17/10/08/model-2411711_1280.jpg"
    },
    {
        "id": "4212523",
        "src640": "https://cdn.pixabay.com/photo/2019/05/18/20/41/girl-4212523_640.jpg",
        "src1280": "https://cdn.pixabay.com/photo/2019/05/18/20/41/girl-4212523_1280.jpg"
    },
    {
        "id": "4986765",
        "src640": "https://cdn.pixabay.com/photo/2020/03/31/09/15/hijab-4986765_640.jpg",
        "src1280": "https://cdn.pixabay.com/photo/2020/03/31/09/15/hijab-4986765_1280.jpg"
    },
    {
        "id": "3877289",
        "src640": "https://cdn.pixabay.com/photo/2018/12/15/17/36/fashion-3877289_640.jpg",
        "src1280": "https://cdn.pixabay.com/photo/2018/12/15/17/36/fashion-3877289_1280.jpg"
    },
    {
        "id": "3802260",
        "src640": "https://cdn.pixabay.com/photo/2018/11/08/10/00/makeup-3802260_640.jpg",
        "src1280": "https://cdn.pixabay.com/photo/2018/11/08/10/00/makeup-3802260_1280.jpg"
    },
    {
        "id": "4673193",
        "src640": "https://cdn.pixabay.com/photo/2019/12/04/17/12/male-4673193_640.jpg",
        "src1280": "https://cdn.pixabay.com/photo/2019/12/04/17/12/male-4673193_1280.jpg"
    },
    {
        "id": "4402355",
        "src640": "https://cdn.pixabay.com/photo/2019/08/13/00/39/girl-4402355_640.jpg",
        "src1280": "https://cdn.pixabay.com/photo/2019/08/13/00/39/girl-4402355_1280.jpg"
    },
    {
        "id": "7320918",
        "src640": "https://cdn.pixabay.com/photo/2022/07/14/09/56/woman-7320918_640.jpg",
        "src1280": "https://cdn.pixabay.com/photo/2022/07/14/09/56/woman-7320918_1280.jpg"
    },
    {
        "id": "3012856",
        "src640": "https://cdn.pixabay.com/photo/2017/12/11/18/11/starrs-mill-3012856_640.jpg",
        "src1280": "https://cdn.pixabay.com/photo/2017/12/11/18/11/starrs-mill-3012856_1280.jpg"
    },
    {
        "id": "5232404",
        "src640": "https://cdn.pixabay.com/photo/2020/05/28/19/34/mannequin-5232404_640.jpg",
        "src1280": "https://cdn.pixabay.com/photo/2020/05/28/19/34/mannequin-5232404_1280.jpg"
    },
    {
        "id": "6663372",
        "src640": "https://cdn.pixabay.com/photo/2021/09/28/05/52/woman-6663372_640.jpg",
        "src1280": "https://cdn.pixabay.com/photo/2021/09/28/05/52/woman-6663372_1280.jpg"
    },
    {
        "id": "5660013",
        "src640": "https://cdn.pixabay.com/photo/2020/10/16/16/52/model-5660013_640.jpg",
        "src1280": "https://cdn.pixabay.com/photo/2020/10/16/16/52/model-5660013_1280.jpg"
    },
    {
        "id": "8058918",
        "src640": "https://cdn.pixabay.com/photo/2023/06/12/16/38/ai-generated-8058918_640.jpg",
        "src1280": "https://cdn.pixabay.com/photo/2023/06/12/16/38/ai-generated-8058918_1280.jpg"
    },
    {
        "id": "3298528",
        "src640": "https://cdn.pixabay.com/photo/2018/04/07/13/39/woman-3298528_640.jpg",
        "src1280": "https://cdn.pixabay.com/photo/2018/04/07/13/39/woman-3298528_1280.jpg"
    },
    {
        "id": "7486908",
        "src640": "https://cdn.pixabay.com/photo/2022/09/29/08/50/girl-7486908_640.jpg",
        "src1280": "https://cdn.pixabay.com/photo/2022/09/29/08/50/girl-7486908_1280.jpg"
    },
    {
        "id": "5232388",
        "src640": "https://cdn.pixabay.com/photo/2020/05/28/19/33/mannequin-5232388_640.jpg",
        "src1280": "https://cdn.pixabay.com/photo/2020/05/28/19/33/mannequin-5232388_1280.jpg"
    },
    {
        "id": "220333",
        "src640": "https://cdn.pixabay.com/photo/2013/11/28/11/32/woman-220333_640.jpg",
        "src1280": "https://cdn.pixabay.com/photo/2013/11/28/11/32/woman-220333_1280.jpg"
    },
    {
        "id": "1004661",
        "src640": "https://cdn.pixabay.com/photo/2015/10/24/16/57/style-1004661_640.jpg",
        "src1280": "https://cdn.pixabay.com/photo/2015/10/24/16/57/style-1004661_1280.jpg"
    },
    {
        "id": "3372104",
        "src640": "https://cdn.pixabay.com/photo/2018/05/03/19/02/woman-3372104_640.jpg",
        "src1280": "https://cdn.pixabay.com/photo/2018/05/03/19/02/woman-3372104_1280.jpg"
    },
    {
        "id": "20300",
        "src640": "https://cdn.pixabay.com/photo/2012/03/01/01/39/beautiful-20300_640.jpg",
        "src1280": "https://cdn.pixabay.com/photo/2012/03/01/01/39/beautiful-20300_1280.jpg"
    },
    {
        "id": "1531996",
        "src640": "https://cdn.pixabay.com/photo/2016/07/21/08/13/portrait-1531996_640.jpg",
        "src1280": "https://cdn.pixabay.com/photo/2016/07/21/08/13/portrait-1531996_1280.jpg"
    },
    {
        "id": "7916847",
        "src640": "https://cdn.pixabay.com/photo/2023/04/11/10/31/woman-7916847_640.jpg",
        "src1280": "https://cdn.pixabay.com/photo/2023/04/11/10/31/woman-7916847_1280.jpg"
    },
    {
        "id": "7288798",
        "src640": "https://cdn.pixabay.com/photo/2022/06/28/04/28/woman-7288798_640.jpg",
        "src1280": "https://cdn.pixabay.com/photo/2022/06/28/04/28/woman-7288798_1280.jpg"
    },
    {
        "id": "2907206",
        "src640": "https://cdn.pixabay.com/photo/2017/11/01/06/20/leather-pants-2907206_640.jpg",
        "src1280": "https://cdn.pixabay.com/photo/2017/11/01/06/20/leather-pants-2907206_1280.jpg"
    },
    {
        "id": "6024556",
        "src640": "https://cdn.pixabay.com/photo/2021/02/17/15/02/woman-6024556_640.jpg",
        "src1280": "https://cdn.pixabay.com/photo/2021/02/17/15/02/woman-6024556_1280.jpg"
    },
    {
        "id": "6215936",
        "src640": "https://cdn.pixabay.com/photo/2021/04/29/07/57/woman-6215936_640.jpg",
        "src1280": "https://cdn.pixabay.com/photo/2021/04/29/07/57/woman-6215936_1280.jpg"
    },
    {
        "id": "8175508",
        "src640": "https://cdn.pixabay.com/photo/2023/08/07/17/05/ai-generated-8175508_640.jpg",
        "src1280": "https://cdn.pixabay.com/photo/2023/08/07/17/05/ai-generated-8175508_1280.jpg"
    },
    {
        "id": "6810725",
        "src640": "https://cdn.pixabay.com/photo/2021/11/20/02/49/asian-woman-6810725_640.jpg",
        "src1280": "https://cdn.pixabay.com/photo/2021/11/20/02/49/asian-woman-6810725_1280.jpg"
    },
    {
        "id": "6203953",
        "src640": "https://cdn.pixabay.com/photo/2021/04/24/11/53/fashion-6203953_640.jpg",
        "src1280": "https://cdn.pixabay.com/photo/2021/04/24/11/53/fashion-6203953_1280.jpg"
    },
    {
        "id": "5851597",
        "src640": "https://cdn.pixabay.com/photo/2020/12/22/07/09/woman-5851597_640.jpg",
        "src1280": "https://cdn.pixabay.com/photo/2020/12/22/07/09/woman-5851597_1280.jpg"
    },
    {
        "id": "3240235",
        "src640": "https://cdn.pixabay.com/photo/2018/03/19/15/12/fashion-3240235_640.jpg",
        "src1280": "https://cdn.pixabay.com/photo/2018/03/19/15/12/fashion-3240235_1280.jpg"
    },
    {
        "id": "7978097",
        "src640": "https://cdn.pixabay.com/photo/2023/05/08/09/53/dress-7978097_640.jpg",
        "src1280": "https://cdn.pixabay.com/photo/2023/05/08/09/53/dress-7978097_1280.jpg"
    },
    {
        "id": "6017966",
        "src640": "https://cdn.pixabay.com/photo/2021/02/15/13/59/woman-6017966_640.jpg",
        "src1280": "https://cdn.pixabay.com/photo/2021/02/15/13/59/woman-6017966_1280.jpg"
    },
    {
        "id": "7462557",
        "src640": "https://cdn.pixabay.com/photo/2022/09/18/08/59/woman-7462557_640.jpg",
        "src1280": "https://cdn.pixabay.com/photo/2022/09/18/08/59/woman-7462557_1280.jpg"
    },
    {
        "id": "8063151",
        "src640": "https://cdn.pixabay.com/photo/2023/06/14/13/49/woman-8063151_640.jpg",
        "src1280": "https://cdn.pixabay.com/photo/2023/06/14/13/49/woman-8063151_1280.jpg"
    },
    {
        "id": "4798532",
        "src640": "https://cdn.pixabay.com/photo/2020/01/27/22/44/boy-4798532_640.jpg",
        "src1280": "https://cdn.pixabay.com/photo/2020/01/27/22/44/boy-4798532_1280.jpg"
    },
    {
        "id": "7063839",
        "src640": "https://cdn.pixabay.com/photo/2022/03/12/09/37/woman-7063839_640.jpg",
        "src1280": "https://cdn.pixabay.com/photo/2022/03/12/09/37/woman-7063839_1280.jpg"
    },
    {
        "id": "2181889",
        "src640": "https://cdn.pixabay.com/photo/2017/03/28/12/00/ancient-2181889_640.jpg",
        "src1280": "https://cdn.pixabay.com/photo/2017/03/28/12/00/ancient-2181889_1280.jpg"
    },
    {
        "id": "6979841",
        "src640": "https://cdn.pixabay.com/photo/2022/01/30/05/31/woman-6979841_640.jpg",
        "src1280": "https://cdn.pixabay.com/photo/2022/01/30/05/31/woman-6979841_1280.jpg"
    },
    {
        "id": "6363957",
        "src640": "https://cdn.pixabay.com/photo/2021/06/25/14/50/woman-6363957_640.jpg",
        "src1280": "https://cdn.pixabay.com/photo/2021/06/25/14/50/woman-6363957_1280.jpg"
    },
    {
        "id": "3959676",
        "src640": "https://cdn.pixabay.com/photo/2019/01/28/05/43/woman-3959676_640.jpg",
        "src1280": "https://cdn.pixabay.com/photo/2019/01/28/05/43/woman-3959676_1280.jpg"
    },
    {
        "id": "7119635",
        "src640": "https://cdn.pixabay.com/photo/2022/04/08/14/47/woman-7119635_640.jpg",
        "src1280": "https://cdn.pixabay.com/photo/2022/04/08/14/47/woman-7119635_1280.jpg"
    },
    {
        "id": "8255881",
        "src640": "https://cdn.pixabay.com/photo/2023/09/16/03/37/woman-8255881_640.jpg",
        "src1280": "https://cdn.pixabay.com/photo/2023/09/16/03/37/woman-8255881_1280.jpg"
    },
    {
        "id": "5095379",
        "src640": "https://cdn.pixabay.com/photo/2020/04/26/14/09/girl-5095379_640.jpg",
        "src1280": "https://cdn.pixabay.com/photo/2020/04/26/14/09/girl-5095379_1280.jpg"
    },
    {
        "id": "5312754",
        "src640": "https://cdn.pixabay.com/photo/2020/06/18/09/43/fashion-5312754_640.jpg",
        "src1280": "https://cdn.pixabay.com/photo/2020/06/18/09/43/fashion-5312754_1280.jpg"
    }
]