[
    {
        "id": "5586280",
        "src640": "https://cdn.pixabay.com/photo/2020/09/20/07/42/bride-5586280_640.jpg",
        "src1280": "https://cdn.pixabay.com/photo/2020/09/20/07/42/bride-5586280_1280.jpg"
    },
    {
        "id": "6850253",
        "src640": "https://cdn.pixabay.com/photo/2021/12/06/12/47/woman-6850253_640.jpg",
        "src1280": "https://cdn.pixabay.com/photo/2021/12/06/12/47/woman-6850253_1280.jpg"
    },
    {
        "id": "6656554",
        "src640": "https://cdn.pixabay.com/photo/2021/09/26/07/27/pin-up-6656554_640.jpg",
        "src1280": "https://cdn.pixabay.com/photo/2021/09/26/07/27/pin-up-6656554_1280.jpg"
    },
    {
        "id": "7867737",
        "src640": "https://cdn.pixabay.com/photo/2023/03/21/17/22/girlie-7867737_640.jpg",
        "src1280": "https://cdn.pixabay.com/photo/2023/03/21/17/22/girlie-7867737_1280.jpg"
    },
    {
        "id": "8287274",
        "src640": "https://cdn.pixabay.com/photo/2023/10/01/11/24/ai-generated-8287274_640.jpg",
        "src1280": "https://cdn.pixabay.com/photo/2023/10/01/11/24/ai-generated-8287274_1280.jpg"
    },
    {
        "id": "7494989",
        "src640": "https://cdn.pixabay.com/photo/2022/10/03/05/20/girl-7494989_640.jpg",
        "src1280": "https://cdn.pixabay.com/photo/2022/10/03/05/20/girl-7494989_1280.jpg"
    },
    {
        "id": "6615595",
        "src640": "https://cdn.pixabay.com/photo/2021/09/11/13/09/woman-6615595_640.jpg",
        "src1280": "https://cdn.pixabay.com/photo/2021/09/11/13/09/woman-6615595_1280.jpg"
    },
    {
        "id": "6543715",
        "src640": "https://cdn.pixabay.com/photo/2021/08/13/18/50/woman-6543715_640.jpg",
        "src1280": "https://cdn.pixabay.com/photo/2021/08/13/18/50/woman-6543715_1280.jpg"
    },
    {
        "id": "4940570",
        "src640": "https://cdn.pixabay.com/photo/2020/03/17/14/44/dress-4940570_640.jpg",
        "src1280": "https://cdn.pixabay.com/photo/2020/03/17/14/44/dress-4940570_1280.jpg"
    },
    {
        "id": "6470144",
        "src640": "https://cdn.pixabay.com/photo/2021/07/16/07/23/woman-6470144_640.jpg",
        "src1280": "https://cdn.pixabay.com/photo/2021/07/16/07/23/woman-6470144_1280.jpg"
    },
    {
        "id": "5339072",
        "src640": "https://cdn.pixabay.com/photo/2020/06/25/09/04/womens-5339072_640.jpg",
        "src1280": "https://cdn.pixabay.com/photo/2020/06/25/09/04/womens-5339072_1280.jpg"
    },
    {
        "id": "4785528",
        "src640": "https://cdn.pixabay.com/photo/2020/01/22/15/11/pants-4785528_640.jpg",
        "src1280": "https://cdn.pixabay.com/photo/2020/01/22/15/11/pants-4785528_1280.jpg"
    },
    {
        "id": "2726210",
        "src640": "https://cdn.pixabay.com/photo/2017/09/07/18/28/african-woman-2726210_640.jpg",
        "src1280": "https://cdn.pixabay.com/photo/2017/09/07/18/28/african-woman-2726210_1280.jpg"
    },
    {
        "id": "2605698",
        "src640": "https://cdn.pixabay.com/photo/2017/08/07/16/56/shirt-2605698_640.jpg",
        "src1280": "https://cdn.pixabay.com/photo/2017/08/07/16/56/shirt-2605698_1280.jpg"
    },
    {
        "id": "8098502",
        "src640": "https://cdn.pixabay.com/photo/2023/06/30/14/58/woman-8098502_640.jpg",
        "src1280": "https://cdn.pixabay.com/photo/2023/06/30/14/58/woman-8098502_1280.jpg"
    },
    {
        "id": "6518911",
        "src640": "https://cdn.pixabay.com/photo/2021/08/03/09/13/woman-6518911_640.jpg",
        "src1280": "https://cdn.pixabay.com/photo/2021/08/03/09/13/woman-6518911_1280.jpg"
    },
    {
        "id": "7275006",
        "src640": "https://cdn.pixabay.com/photo/2022/06/21/03/48/woman-7275006_640.jpg",
        "src1280": "https://cdn.pixabay.com/photo/2022/06/21/03/48/woman-7275006_1280.jpg"
    },
    {
        "id": "6540892",
        "src640": "https://cdn.pixabay.com/photo/2021/08/12/13/39/woman-6540892_640.jpg",
        "src1280": "https://cdn.pixabay.com/photo/2021/08/12/13/39/woman-6540892_1280.jpg"
    },
    {
        "id": "5806635",
        "src640": "https://cdn.pixabay.com/photo/2020/12/05/17/35/woman-5806635_640.jpg",
        "src1280": "https://cdn.pixabay.com/photo/2020/12/05/17/35/woman-5806635_1280.jpg"
    },
    {
        "id": "8110433",
        "src640": "https://cdn.pixabay.com/photo/2023/07/06/12/44/girl-8110433_640.jpg",
        "src1280": "https://cdn.pixabay.com/photo/2023/07/06/12/44/girl-8110433_1280.jpg"
    },
    {
        "id": "4820871",
        "src640": "https://cdn.pixabay.com/photo/2020/02/05/11/05/portrait-4820871_640.jpg",
        "src1280": "https://cdn.pixabay.com/photo/2020/02/05/11/05/portrait-4820871_1280.jpg"
    },
    {
        "id": "8116765",
        "src640": "https://cdn.pixabay.com/photo/2023/07/09/19/28/woman-8116765_640.jpg",
        "src1280": "https://cdn.pixabay.com/photo/2023/07/09/19/28/woman-8116765_1280.jpg"
    },
    {
        "id": "8408086",
        "src640": "https://cdn.pixabay.com/photo/2023/11/23/13/34/woman-8408086_640.jpg",
        "src1280": "https://cdn.pixabay.com/photo/2023/11/23/13/34/woman-8408086_1280.jpg"
    },
    {
        "id": "6090742",
        "src640": "https://cdn.pixabay.com/photo/2021/03/12/23/50/fashion-6090742_640.jpg",
        "src1280": "https://cdn.pixabay.com/photo/2021/03/12/23/50/fashion-6090742_1280.jpg"
    },
    {
        "id": "665488",
        "src640": "https://cdn.pixabay.com/photo/2015/03/09/11/26/druzy-665488_640.jpg",
        "src1280": "https://cdn.pixabay.com/photo/2015/03/09/11/26/druzy-665488_1280.jpg"
    },
    {
        "id": "4333672",
        "src640": "https://cdn.pixabay.com/photo/2019/07/12/21/57/woman-4333672_640.jpg",
        "src1280": "https://cdn.pixabay.com/photo/2019/07/12/21/57/woman-4333672_1280.jpg"
    },
    {
        "id": "7515678",
        "src640": "https://cdn.pixabay.com/photo/2022/10/12/04/57/woman-7515678_640.jpg",
        "src1280": "https://cdn.pixabay.com/photo/2022/10/12/04/57/woman-7515678_1280.jpg"
    },
    {
        "id": "4785535",
        "src640": "https://cdn.pixabay.com/photo/2020/01/22/15/11/pants-4785535_640.jpg",
        "src1280": "https://cdn.pixabay.com/photo/2020/01/22/15/11/pants-4785535_1280.jpg"
    },
    {
        "id": "8422893",
        "src640": "https://cdn.pixabay.com/photo/2023/12/01/05/31/woman-8422893_640.jpg",
        "src1280": "https://cdn.pixabay.com/photo/2023/12/01/05/31/woman-8422893_1280.jpg"
    },
    {
        "id": "3560137",
        "src640": "https://cdn.pixabay.com/photo/2018/07/24/22/07/fashion-3560137_640.jpg",
        "src1280": "https://cdn.pixabay.com/photo/2018/07/24/22/07/fashion-3560137_1280.jpg"
    },
    {
        "id": "6470143",
        "src640": "https://cdn.pixabay.com/photo/2021/07/16/07/23/woman-6470143_640.jpg",
        "src1280": "https://cdn.pixabay.com/photo/2021/07/16/07/23/woman-6470143_1280.jpg"
    },
    {
        "id": "4821609",
        "src640": "https://cdn.pixabay.com/photo/2020/02/05/16/01/silver-4821609_640.jpg",
        "src1280": "https://cdn.pixabay.com/photo/2020/02/05/16/01/silver-4821609_1280.jpg"
    },
    {
        "id": "5839417",
        "src640": "https://cdn.pixabay.com/photo/2020/12/17/13/44/woman-5839417_640.jpg",
        "src1280": "https://cdn.pixabay.com/photo/2020/12/17/13/44/woman-5839417_1280.jpg"
    },
    {
        "id": "6663432",
        "src640": "https://cdn.pixabay.com/photo/2021/09/28/05/58/woman-6663432_640.jpg",
        "src1280": "https://cdn.pixabay.com/photo/2021/09/28/05/58/woman-6663432_1280.jpg"
    },
    {
        "id": "7916847",
        "src640": "https://cdn.pixabay.com/photo/2023/04/11/10/31/woman-7916847_640.jpg",
        "src1280": "https://cdn.pixabay.com/photo/2023/04/11/10/31/woman-7916847_1280.jpg"
    },
    {
        "id": "3802260",
        "src640": "https://cdn.pixabay.com/photo/2018/11/08/10/00/makeup-3802260_640.jpg",
        "src1280": "https://cdn.pixabay.com/photo/2018/11/08/10/00/makeup-3802260_1280.jpg"
    },
    {
        "id": "3991326",
        "src640": "https://cdn.pixabay.com/photo/2019/02/12/04/42/suitcase-3991326_640.jpg",
        "src1280": "https://cdn.pixabay.com/photo/2019/02/12/04/42/suitcase-3991326_1280.jpg"
    },
    {
        "id": "6399371",
        "src640": "https://cdn.pixabay.com/photo/2021/07/09/15/29/girl-6399371_640.jpg",
        "src1280": "https://cdn.pixabay.com/photo/2021/07/09/15/29/girl-6399371_1280.jpg"
    },
    {
        "id": "4951592",
        "src640": "https://cdn.pixabay.com/photo/2020/03/20/18/37/portrait-4951592_640.jpg",
        "src1280": "https://cdn.pixabay.com/photo/2020/03/20/18/37/portrait-4951592_1280.jpg"
    },
    {
        "id": "4898945",
        "src640": "https://cdn.pixabay.com/photo/2020/03/03/15/07/portrait-4898945_640.jpg",
        "src1280": "https://cdn.pixabay.com/photo/2020/03/03/15/07/portrait-4898945_1280.jpg"
    },
    {
        "id": "6015168",
        "src640": "https://cdn.pixabay.com/photo/2021/02/14/16/54/man-6015168_640.jpg",
        "src1280": "https://cdn.pixabay.com/photo/2021/02/14/16/54/man-6015168_1280.jpg"
    },
    {
        "id": "6079786",
        "src640": "https://cdn.pixabay.com/photo/2021/03/08/18/15/man-6079786_640.jpg",
        "src1280": "https://cdn.pixabay.com/photo/2021/03/08/18/15/man-6079786_1280.jpg"
    },
    {
        "id": "4673998",
        "src640": "https://cdn.pixabay.com/photo/2019/12/05/00/37/woman-4673998_640.jpg",
        "src1280": "https://cdn.pixabay.com/photo/2019/12/05/00/37/woman-4673998_1280.jpg"
    },
    {
        "id": "4800896",
        "src640": "https://cdn.pixabay.com/photo/2020/01/28/20/06/model-4800896_640.jpg",
        "src1280": "https://cdn.pixabay.com/photo/2020/01/28/20/06/model-4800896_1280.jpg"
    },
    {
        "id": "4071877",
        "src640": "https://cdn.pixabay.com/photo/2019/03/21/20/31/glasses-4071877_640.jpg",
        "src1280": "https://cdn.pixabay.com/photo/2019/03/21/20/31/glasses-4071877_1280.jpg"
    },
    {
        "id": "6651939",
        "src640": "https://cdn.pixabay.com/photo/2021/09/24/08/15/evening-dress-6651939_640.jpg",
        "src1280": "https://cdn.pixabay.com/photo/2021/09/24/08/15/evening-dress-6651939_1280.jpg"
    },
    {
        "id": "4707673",
        "src640": "https://cdn.pixabay.com/photo/2019/12/20/05/39/portrait-4707673_640.jpg",
        "src1280": "https://cdn.pixabay.com/photo/2019/12/20/05/39/portrait-4707673_1280.jpg"
    },
    {
        "id": "8070080",
        "src640": "https://cdn.pixabay.com/photo/2023/06/17/14/25/woman-8070080_640.jpg",
        "src1280": "https://cdn.pixabay.com/photo/2023/06/17/14/25/woman-8070080_1280.jpg"
    },
    {
        "id": "3936548",
        "src640": "https://cdn.pixabay.com/photo/2019/01/16/19/06/fashion-3936548_640.jpg",
        "src1280": "https://cdn.pixabay.com/photo/2019/01/16/19/06/fashion-3936548_1280.jpg"
    },
    {
        "id": "4072583",
        "src640": "https://cdn.pixabay.com/photo/2019/03/22/06/56/girl-4072583_640.jpg",
        "src1280": "https://cdn.pixabay.com/photo/2019/03/22/06/56/girl-4072583_1280.jpg"
    },
    {
        "id": "6654906",
        "src640": "https://cdn.pixabay.com/photo/2021/09/25/12/16/woman-6654906_640.jpg",
        "src1280": "https://cdn.pixabay.com/photo/2021/09/25/12/16/woman-6654906_1280.jpg"
    },
    {
        "id": "5098620",
        "src640": "https://cdn.pixabay.com/photo/2020/04/27/07/52/face-5098620_640.jpg",
        "src1280": "https://cdn.pixabay.com/photo/2020/04/27/07/52/face-5098620_1280.jpg"
    },
    {
        "id": "7698065",
        "src640": "https://cdn.pixabay.com/photo/2023/01/05/04/45/woman-7698065_640.jpg",
        "src1280": "https://cdn.pixabay.com/photo/2023/01/05/04/45/woman-7698065_1280.jpg"
    },
    {
        "id": "6543663",
        "src640": "https://cdn.pixabay.com/photo/2021/08/13/18/15/woman-6543663_640.jpg",
        "src1280": "https://cdn.pixabay.com/photo/2021/08/13/18/15/woman-6543663_1280.jpg"
    },
    {
        "id": "4706737",
        "src640": "https://cdn.pixabay.com/photo/2019/12/19/17/45/girl-4706737_640.jpg",
        "src1280": "https://cdn.pixabay.com/photo/2019/12/19/17/45/girl-4706737_1280.jpg"
    },
    {
        "id": "4363225",
        "src640": "https://cdn.pixabay.com/photo/2019/07/25/18/21/girl-4363225_640.jpg",
        "src1280": "https://cdn.pixabay.com/photo/2019/07/25/18/21/girl-4363225_1280.jpg"
    },
    {
        "id": "3660272",
        "src640": "https://cdn.pixabay.com/photo/2018/09/07/09/50/girl-3660272_640.jpg",
        "src1280": "https://cdn.pixabay.com/photo/2018/09/07/09/50/girl-3660272_1280.jpg"
    },
    {
        "id": "2359607",
        "src640": "https://cdn.pixabay.com/photo/2017/05/31/09/16/womens-2359607_640.jpg",
        "src1280": "https://cdn.pixabay.com/photo/2017/05/31/09/16/womens-2359607_1280.jpg"
    },
    {
        "id": "8060811",
        "src640": "https://cdn.pixabay.com/photo/2023/06/13/12/13/woman-8060811_640.jpg",
        "src1280": "https://cdn.pixabay.com/photo/2023/06/13/12/13/woman-8060811_1280.jpg"
    },
    {
        "id": "6566734",
        "src640": "https://cdn.pixabay.com/photo/2021/08/23/05/31/man-6566734_640.jpg",
        "src1280": "https://cdn.pixabay.com/photo/2021/08/23/05/31/man-6566734_1280.jpg"
    },
    {
        "id": "8033726",
        "src640": "https://cdn.pixabay.com/photo/2023/06/01/14/43/book-8033726_640.jpg",
        "src1280": "https://cdn.pixabay.com/photo/2023/06/01/14/43/book-8033726_1280.jpg"
    },
    {
        "id": "8358180",
        "src640": "https://cdn.pixabay.com/photo/2023/11/01/16/29/ao-dai-8358180_640.jpg",
        "src1280": "https://cdn.pixabay.com/photo/2023/11/01/16/29/ao-dai-8358180_1280.jpg"
    },
    {
        "id": "5559945",
        "src640": "https://cdn.pixabay.com/photo/2020/09/10/10/06/girl-5559945_640.jpg",
        "src1280": "https://cdn.pixabay.com/photo/2020/09/10/10/06/girl-5559945_1280.jpg"
    }
]