[
    {
        "id": "4736925",
        "src640": "https://cdn.pixabay.com/photo/2020/01/02/22/06/woman-4736925_640.jpg",
        "src1280": "https://cdn.pixabay.com/photo/2020/01/02/22/06/woman-4736925_1280.jpg"
    },
    {
        "id": "8128504",
        "src640": "https://cdn.pixabay.com/photo/2023/07/15/10/30/woman-8128504_640.jpg",
        "src1280": "https://cdn.pixabay.com/photo/2023/07/15/10/30/woman-8128504_1280.jpg"
    },
    {
        "id": "689170",
        "src640": "https://cdn.pixabay.com/photo/2015/03/25/15/53/girl-689170_640.jpg",
        "src1280": "https://cdn.pixabay.com/photo/2015/03/25/15/53/girl-689170_1280.jpg"
    },
    {
        "id": "6822532",
        "src640": "https://cdn.pixabay.com/photo/2021/11/25/02/26/woman-6822532_640.jpg",
        "src1280": "https://cdn.pixabay.com/photo/2021/11/25/02/26/woman-6822532_1280.jpg"
    },
    {
        "id": "6862065",
        "src640": "https://cdn.pixabay.com/photo/2021/12/11/07/05/woman-6862065_640.jpg",
        "src1280": "https://cdn.pixabay.com/photo/2021/12/11/07/05/woman-6862065_1280.jpg"
    },
    {
        "id": "1189002",
        "src640": "https://cdn.pixabay.com/photo/2016/02/09/12/15/guy-1189002_640.jpg",
        "src1280": "https://cdn.pixabay.com/photo/2016/02/09/12/15/guy-1189002_1280.jpg"
    },
    {
        "id": "5488499",
        "src640": "https://cdn.pixabay.com/photo/2020/08/14/16/48/ootd-5488499_640.jpg",
        "src1280": "https://cdn.pixabay.com/photo/2020/08/14/16/48/ootd-5488499_1280.jpg"
    },
    {
        "id": "6615574",
        "src640": "https://cdn.pixabay.com/photo/2021/09/11/13/07/boy-6615574_640.jpg",
        "src1280": "https://cdn.pixabay.com/photo/2021/09/11/13/07/boy-6615574_1280.jpg"
    },
    {
        "id": "6603282",
        "src640": "https://cdn.pixabay.com/photo/2021/09/07/08/35/couple-6603282_640.jpg",
        "src1280": "https://cdn.pixabay.com/photo/2021/09/07/08/35/couple-6603282_1280.jpg"
    },
    {
        "id": "6603293",
        "src640": "https://cdn.pixabay.com/photo/2021/09/07/08/36/girl-6603293_640.jpg",
        "src1280": "https://cdn.pixabay.com/photo/2021/09/07/08/36/girl-6603293_1280.jpg"
    },
    {
        "id": "6589402",
        "src640": "https://cdn.pixabay.com/photo/2021/08/31/16/39/woman-6589402_640.jpg",
        "src1280": "https://cdn.pixabay.com/photo/2021/08/31/16/39/woman-6589402_1280.jpg"
    },
    {
        "id": "5909015",
        "src640": "https://cdn.pixabay.com/photo/2021/01/11/17/30/couple-5909015_640.jpg",
        "src1280": "https://cdn.pixabay.com/photo/2021/01/11/17/30/couple-5909015_1280.jpg"
    },
    {
        "id": "6770238",
        "src640": "https://cdn.pixabay.com/photo/2021/11/05/03/42/woman-6770238_640.jpg",
        "src1280": "https://cdn.pixabay.com/photo/2021/11/05/03/42/woman-6770238_1280.jpg"
    },
    {
        "id": "4957029",
        "src640": "https://cdn.pixabay.com/photo/2020/03/22/12/41/black-women-4957029_640.jpg",
        "src1280": "https://cdn.pixabay.com/photo/2020/03/22/12/41/black-women-4957029_1280.jpg"
    },
    {
        "id": "5010295",
        "src640": "https://cdn.pixabay.com/photo/2020/04/06/16/24/girl-5010295_640.jpg",
        "src1280": "https://cdn.pixabay.com/photo/2020/04/06/16/24/girl-5010295_1280.jpg"
    },
    {
        "id": "5796432",
        "src640": "https://cdn.pixabay.com/photo/2020/12/02/06/59/woman-5796432_640.jpg",
        "src1280": "https://cdn.pixabay.com/photo/2020/12/02/06/59/woman-5796432_1280.jpg"
    },
    {
        "id": "6089217",
        "src640": "https://cdn.pixabay.com/photo/2021/03/12/09/56/beauty-6089217_640.jpg",
        "src1280": "https://cdn.pixabay.com/photo/2021/03/12/09/56/beauty-6089217_1280.jpg"
    },
    {
        "id": "6695885",
        "src640": "https://cdn.pixabay.com/photo/2021/10/10/08/02/steampunk-6695885_640.jpg",
        "src1280": "https://cdn.pixabay.com/photo/2021/10/10/08/02/steampunk-6695885_1280.jpg"
    },
    {
        "id": "8255192",
        "src640": "https://cdn.pixabay.com/photo/2023/09/15/17/37/barbie-8255192_640.jpg",
        "src1280": "https://cdn.pixabay.com/photo/2023/09/15/17/37/barbie-8255192_1280.jpg"
    },
    {
        "id": "7003677",
        "src640": "https://cdn.pixabay.com/photo/2022/02/09/15/52/woman-7003677_640.jpg",
        "src1280": "https://cdn.pixabay.com/photo/2022/02/09/15/52/woman-7003677_1280.jpg"
    },
    {
        "id": "6615594",
        "src640": "https://cdn.pixabay.com/photo/2021/09/11/13/09/woman-6615594_640.jpg",
        "src1280": "https://cdn.pixabay.com/photo/2021/09/11/13/09/woman-6615594_1280.jpg"
    },
    {
        "id": "8429712",
        "src640": "https://cdn.pixabay.com/photo/2023/12/04/15/14/woman-8429712_640.jpg",
        "src1280": "https://cdn.pixabay.com/photo/2023/12/04/15/14/woman-8429712_1280.jpg"
    },
    {
        "id": "6488983",
        "src640": "https://cdn.pixabay.com/photo/2021/07/24/08/44/woman-6488983_640.jpg",
        "src1280": "https://cdn.pixabay.com/photo/2021/07/24/08/44/woman-6488983_1280.jpg"
    },
    {
        "id": "6215916",
        "src640": "https://cdn.pixabay.com/photo/2021/04/29/07/54/woman-6215916_640.jpg",
        "src1280": "https://cdn.pixabay.com/photo/2021/04/29/07/54/woman-6215916_1280.jpg"
    },
    {
        "id": "6374763",
        "src640": "https://cdn.pixabay.com/photo/2021/06/29/18/05/woman-6374763_640.jpg",
        "src1280": "https://cdn.pixabay.com/photo/2021/06/29/18/05/woman-6374763_1280.jpg"
    },
    {
        "id": "6653921",
        "src640": "https://cdn.pixabay.com/photo/2021/09/25/03/28/woman-6653921_640.jpg",
        "src1280": "https://cdn.pixabay.com/photo/2021/09/25/03/28/woman-6653921_1280.jpg"
    },
    {
        "id": "6470137",
        "src640": "https://cdn.pixabay.com/photo/2021/07/16/07/16/woman-6470137_640.jpg",
        "src1280": "https://cdn.pixabay.com/photo/2021/07/16/07/16/woman-6470137_1280.jpg"
    },
    {
        "id": "6882635",
        "src640": "https://cdn.pixabay.com/photo/2021/12/20/09/44/adult-6882635_640.jpg",
        "src1280": "https://cdn.pixabay.com/photo/2021/12/20/09/44/adult-6882635_1280.jpg"
    },
    {
        "id": "6990141",
        "src640": "https://cdn.pixabay.com/photo/2022/02/03/10/16/model-6990141_640.jpg",
        "src1280": "https://cdn.pixabay.com/photo/2022/02/03/10/16/model-6990141_1280.jpg"
    },
    {
        "id": "6182832",
        "src640": "https://cdn.pixabay.com/photo/2021/04/16/07/22/ao-dai-6182832_640.jpg",
        "src1280": "https://cdn.pixabay.com/photo/2021/04/16/07/22/ao-dai-6182832_1280.jpg"
    },
    {
        "id": "2405191",
        "src640": "https://cdn.pixabay.com/photo/2017/06/15/11/47/male-2405191_640.jpg",
        "src1280": "https://cdn.pixabay.com/photo/2017/06/15/11/47/male-2405191_1280.jpg"
    },
    {
        "id": "6163729",
        "src640": "https://cdn.pixabay.com/photo/2021/04/09/08/00/woman-6163729_640.jpg",
        "src1280": "https://cdn.pixabay.com/photo/2021/04/09/08/00/woman-6163729_1280.jpg"
    },
    {
        "id": "6810728",
        "src640": "https://cdn.pixabay.com/photo/2021/11/20/02/49/asian-woman-6810728_640.jpg",
        "src1280": "https://cdn.pixabay.com/photo/2021/11/20/02/49/asian-woman-6810728_1280.jpg"
    },
    {
        "id": "8369916",
        "src640": "https://cdn.pixabay.com/photo/2023/11/06/15/29/ai-generated-8369916_640.jpg",
        "src1280": "https://cdn.pixabay.com/photo/2023/11/06/15/29/ai-generated-8369916_1280.jpg"
    },
    {
        "id": "7906635",
        "src640": "https://cdn.pixabay.com/photo/2023/04/07/14/43/woman-7906635_640.jpg",
        "src1280": "https://cdn.pixabay.com/photo/2023/04/07/14/43/woman-7906635_1280.jpg"
    },
    {
        "id": "968125",
        "src640": "https://cdn.pixabay.com/photo/2015/10/02/05/38/lamp-968125_640.jpg",
        "src1280": "https://cdn.pixabay.com/photo/2015/10/02/05/38/lamp-968125_1280.jpg"
    },
    {
        "id": "7760319",
        "src640": "https://cdn.pixabay.com/photo/2023/02/01/12/10/evening-dress-7760319_640.jpg",
        "src1280": "https://cdn.pixabay.com/photo/2023/02/01/12/10/evening-dress-7760319_1280.jpg"
    },
    {
        "id": "7685652",
        "src640": "https://cdn.pixabay.com/photo/2022/12/29/19/52/woman-7685652_640.jpg",
        "src1280": "https://cdn.pixabay.com/photo/2022/12/29/19/52/woman-7685652_1280.jpg"
    },
    {
        "id": "6996543",
        "src640": "https://cdn.pixabay.com/photo/2022/02/06/08/29/woman-6996543_640.jpg",
        "src1280": "https://cdn.pixabay.com/photo/2022/02/06/08/29/woman-6996543_1280.jpg"
    },
    {
        "id": "3138070",
        "src640": "https://cdn.pixabay.com/photo/2018/02/07/21/38/woman-3138070_640.jpg",
        "src1280": "https://cdn.pixabay.com/photo/2018/02/07/21/38/woman-3138070_1280.jpg"
    },
    {
        "id": "6270557",
        "src640": "https://cdn.pixabay.com/photo/2021/05/21/08/55/woman-6270557_640.jpg",
        "src1280": "https://cdn.pixabay.com/photo/2021/05/21/08/55/woman-6270557_1280.jpg"
    },
    {
        "id": "6401687",
        "src640": "https://cdn.pixabay.com/photo/2021/07/10/15/27/woman-6401687_640.jpg",
        "src1280": "https://cdn.pixabay.com/photo/2021/07/10/15/27/woman-6401687_1280.jpg"
    },
    {
        "id": "975426",
        "src640": "https://cdn.pixabay.com/photo/2015/10/06/22/44/suit-975426_640.jpg",
        "src1280": "https://cdn.pixabay.com/photo/2015/10/06/22/44/suit-975426_1280.jpg"
    },
    {
        "id": "6092009",
        "src640": "https://cdn.pixabay.com/photo/2021/03/13/15/34/fashion-6092009_640.jpg",
        "src1280": "https://cdn.pixabay.com/photo/2021/03/13/15/34/fashion-6092009_1280.jpg"
    },
    {
        "id": "2939868",
        "src640": "https://cdn.pixabay.com/photo/2017/11/11/18/19/city-2939868_640.jpg",
        "src1280": "https://cdn.pixabay.com/photo/2017/11/11/18/19/city-2939868_1280.jpg"
    },
    {
        "id": "7734149",
        "src640": "https://cdn.pixabay.com/photo/2023/01/21/15/04/portrait-7734149_640.jpg",
        "src1280": "https://cdn.pixabay.com/photo/2023/01/21/15/04/portrait-7734149_1280.jpg"
    },
    {
        "id": "7256360",
        "src640": "https://cdn.pixabay.com/photo/2022/06/11/13/40/woman-7256360_640.jpg",
        "src1280": "https://cdn.pixabay.com/photo/2022/06/11/13/40/woman-7256360_1280.jpg"
    },
    {
        "id": "6563438",
        "src640": "https://cdn.pixabay.com/photo/2021/08/21/19/41/woman-6563438_640.jpg",
        "src1280": "https://cdn.pixabay.com/photo/2021/08/21/19/41/woman-6563438_1280.jpg"
    },
    {
        "id": "6479682",
        "src640": "https://cdn.pixabay.com/photo/2021/07/20/04/16/woman-6479682_640.jpg",
        "src1280": "https://cdn.pixabay.com/photo/2021/07/20/04/16/woman-6479682_1280.jpg"
    },
    {
        "id": "6070105",
        "src640": "https://cdn.pixabay.com/photo/2021/03/05/03/07/woman-6070105_640.jpg",
        "src1280": "https://cdn.pixabay.com/photo/2021/03/05/03/07/woman-6070105_1280.jpg"
    },
    {
        "id": "5913892",
        "src640": "https://cdn.pixabay.com/photo/2021/01/13/11/22/woman-5913892_640.jpg",
        "src1280": "https://cdn.pixabay.com/photo/2021/01/13/11/22/woman-5913892_1280.jpg"
    },
    {
        "id": "6702480",
        "src640": "https://cdn.pixabay.com/photo/2021/10/12/06/03/male-6702480_640.jpg",
        "src1280": "https://cdn.pixabay.com/photo/2021/10/12/06/03/male-6702480_1280.jpg"
    },
    {
        "id": "7097829",
        "src640": "https://cdn.pixabay.com/photo/2022/03/28/15/41/dress-7097829_640.jpg",
        "src1280": "https://cdn.pixabay.com/photo/2022/03/28/15/41/dress-7097829_1280.jpg"
    },
    {
        "id": "6196870",
        "src640": "https://cdn.pixabay.com/photo/2021/04/21/16/37/woman-6196870_640.jpg",
        "src1280": "https://cdn.pixabay.com/photo/2021/04/21/16/37/woman-6196870_1280.jpg"
    },
    {
        "id": "6361925",
        "src640": "https://cdn.pixabay.com/photo/2021/06/24/17/30/woman-6361925_640.jpg",
        "src1280": "https://cdn.pixabay.com/photo/2021/06/24/17/30/woman-6361925_1280.jpg"
    },
    {
        "id": "7867962",
        "src640": "https://cdn.pixabay.com/photo/2023/03/21/18/59/girlie-7867962_640.jpg",
        "src1280": "https://cdn.pixabay.com/photo/2023/03/21/18/59/girlie-7867962_1280.jpg"
    },
    {
        "id": "3178841",
        "src640": "https://cdn.pixabay.com/photo/2018/02/24/18/30/beautiful-3178841_640.jpg",
        "src1280": "https://cdn.pixabay.com/photo/2018/02/24/18/30/beautiful-3178841_1280.jpg"
    },
    {
        "id": "6663374",
        "src640": "https://cdn.pixabay.com/photo/2021/09/28/05/52/woman-6663374_640.jpg",
        "src1280": "https://cdn.pixabay.com/photo/2021/09/28/05/52/woman-6663374_1280.jpg"
    },
    {
        "id": "6468303",
        "src640": "https://cdn.pixabay.com/photo/2021/07/15/12/18/woman-6468303_640.jpg",
        "src1280": "https://cdn.pixabay.com/photo/2021/07/15/12/18/woman-6468303_1280.jpg"
    },
    {
        "id": "2808636",
        "src640": "https://cdn.pixabay.com/photo/2017/10/02/12/11/women-2808636_640.jpg",
        "src1280": "https://cdn.pixabay.com/photo/2017/10/02/12/11/women-2808636_1280.jpg"
    },
    {
        "id": "3116746",
        "src640": "https://cdn.pixabay.com/photo/2018/01/29/18/00/nature-3116746_640.jpg",
        "src1280": "https://cdn.pixabay.com/photo/2018/01/29/18/00/nature-3116746_1280.jpg"
    },
    {
        "id": "6175082",
        "src640": "https://cdn.pixabay.com/photo/2021/04/13/08/58/ao-dai-6175082_640.jpg",
        "src1280": "https://cdn.pixabay.com/photo/2021/04/13/08/58/ao-dai-6175082_1280.jpg"
    },
    {
        "id": "5992058",
        "src640": "https://cdn.pixabay.com/photo/2021/02/07/17/17/woman-5992058_640.jpg",
        "src1280": "https://cdn.pixabay.com/photo/2021/02/07/17/17/woman-5992058_1280.jpg"
    },
    {
        "id": "881432",
        "src640": "https://cdn.pixabay.com/photo/2015/08/09/11/27/model-881432_640.jpg",
        "src1280": "https://cdn.pixabay.com/photo/2015/08/09/11/27/model-881432_1280.jpg"
    },
    {
        "id": "6603290",
        "src640": "https://cdn.pixabay.com/photo/2021/09/07/08/35/girl-6603290_640.jpg",
        "src1280": "https://cdn.pixabay.com/photo/2021/09/07/08/35/girl-6603290_1280.jpg"
    },
    {
        "id": "6482609",
        "src640": "https://cdn.pixabay.com/photo/2021/07/21/08/46/woman-6482609_640.jpg",
        "src1280": "https://cdn.pixabay.com/photo/2021/07/21/08/46/woman-6482609_1280.jpg"
    },
    {
        "id": "6970060",
        "src640": "https://cdn.pixabay.com/photo/2022/01/26/22/23/man-6970060_640.jpg",
        "src1280": "https://cdn.pixabay.com/photo/2022/01/26/22/23/man-6970060_1280.jpg"
    },
    {
        "id": "6905090",
        "src640": "https://cdn.pixabay.com/photo/2021/12/31/06/33/elderly-6905090_640.jpg",
        "src1280": "https://cdn.pixabay.com/photo/2021/12/31/06/33/elderly-6905090_1280.jpg"
    },
    {
        "id": "6215886",
        "src640": "https://cdn.pixabay.com/photo/2021/04/29/07/51/woman-6215886_640.jpg",
        "src1280": "https://cdn.pixabay.com/photo/2021/04/29/07/51/woman-6215886_1280.jpg"
    },
    {
        "id": "6392936",
        "src640": "https://cdn.pixabay.com/photo/2021/07/07/01/48/woman-6392936_640.jpg",
        "src1280": "https://cdn.pixabay.com/photo/2021/07/07/01/48/woman-6392936_1280.jpg"
    },
    {
        "id": "6468353",
        "src640": "https://cdn.pixabay.com/photo/2021/07/15/12/35/woman-6468353_640.jpg",
        "src1280": "https://cdn.pixabay.com/photo/2021/07/15/12/35/woman-6468353_1280.jpg"
    },
    {
        "id": "4203131",
        "src640": "https://cdn.pixabay.com/photo/2019/05/14/18/26/woman-4203131_640.jpg",
        "src1280": "https://cdn.pixabay.com/photo/2019/05/14/18/26/woman-4203131_1280.jpg"
    },
    {
        "id": "6019697",
        "src640": "https://cdn.pixabay.com/photo/2021/02/16/02/57/man-6019697_640.jpg",
        "src1280": "https://cdn.pixabay.com/photo/2021/02/16/02/57/man-6019697_1280.jpg"
    },
    {
        "id": "80281",
        "src640": "https://cdn.pixabay.com/photo/2013/02/10/16/51/sequin-dress-80281_640.jpg",
        "src1280": "https://cdn.pixabay.com/photo/2013/02/10/16/51/sequin-dress-80281_1280.jpg"
    },
    {
        "id": "6151547",
        "src640": "https://cdn.pixabay.com/photo/2021/04/04/21/19/bride-6151547_640.jpg",
        "src1280": "https://cdn.pixabay.com/photo/2021/04/04/21/19/bride-6151547_1280.jpg"
    },
    {
        "id": "6388639",
        "src640": "https://cdn.pixabay.com/photo/2021/07/05/09/35/man-6388639_640.jpg",
        "src1280": "https://cdn.pixabay.com/photo/2021/07/05/09/35/man-6388639_1280.jpg"
    },
    {
        "id": "5836583",
        "src640": "https://cdn.pixabay.com/photo/2020/12/16/12/45/woman-5836583_640.jpg",
        "src1280": "https://cdn.pixabay.com/photo/2020/12/16/12/45/woman-5836583_1280.jpg"
    },
    {
        "id": "6822537",
        "src640": "https://cdn.pixabay.com/photo/2021/11/25/02/26/woman-6822537_640.jpg",
        "src1280": "https://cdn.pixabay.com/photo/2021/11/25/02/26/woman-6822537_1280.jpg"
    }
]