[
    {
        "id": "4139679",
        "src640": "https://cdn.pixabay.com/photo/2019/04/19/15/08/christmas-4139679_640.jpg",
        "src1280": "https://cdn.pixabay.com/photo/2019/04/19/15/08/christmas-4139679_1280.jpg"
    },
    {
        "id": "1047608",
        "src640": "https://cdn.pixabay.com/photo/2015/11/17/14/06/hot-chocolate-1047608_640.jpg",
        "src1280": "https://cdn.pixabay.com/photo/2015/11/17/14/06/hot-chocolate-1047608_1280.jpg"
    },
    {
        "id": "6816610",
        "src640": "https://cdn.pixabay.com/photo/2021/11/22/14/12/christmas-6816610_640.jpg",
        "src1280": "https://cdn.pixabay.com/photo/2021/11/22/14/12/christmas-6816610_1280.jpg"
    },
    {
        "id": "6845491",
        "src640": "https://cdn.pixabay.com/photo/2021/12/04/15/54/santa-claus-6845491_640.jpg",
        "src1280": "https://cdn.pixabay.com/photo/2021/12/04/15/54/santa-claus-6845491_1280.jpg"
    },
    {
        "id": "6847584",
        "src640": "https://cdn.pixabay.com/photo/2021/12/05/12/29/christmas-tree-6847584_640.jpg",
        "src1280": "https://cdn.pixabay.com/photo/2021/12/05/12/29/christmas-tree-6847584_1280.jpg"
    },
    {
        "id": "4695973",
        "src640": "https://cdn.pixabay.com/photo/2019/12/14/22/59/christmas-4695973_640.jpg",
        "src1280": "https://cdn.pixabay.com/photo/2019/12/14/22/59/christmas-4695973_1280.jpg"
    },
    {
        "id": "5847758",
        "src640": "https://cdn.pixabay.com/photo/2020/12/20/17/53/stars-5847758_640.jpg",
        "src1280": "https://cdn.pixabay.com/photo/2020/12/20/17/53/stars-5847758_1280.jpg"
    },
    {
        "id": "6883432",
        "src640": "https://cdn.pixabay.com/photo/2021/12/20/16/28/moose-6883432_640.jpg",
        "src1280": "https://cdn.pixabay.com/photo/2021/12/20/16/28/moose-6883432_1280.jpg"
    },
    {
        "id": "3486261",
        "src640": "https://cdn.pixabay.com/photo/2018/06/20/10/54/christmas-3486261_640.jpg",
        "src1280": "https://cdn.pixabay.com/photo/2018/06/20/10/54/christmas-3486261_1280.jpg"
    },
    {
        "id": "4697923",
        "src640": "https://cdn.pixabay.com/photo/2019/12/15/19/22/christmas-4697923_640.jpg",
        "src1280": "https://cdn.pixabay.com/photo/2019/12/15/19/22/christmas-4697923_1280.jpg"
    },
    {
        "id": "7581472",
        "src640": "https://cdn.pixabay.com/photo/2022/11/09/21/12/candle-7581472_640.jpg",
        "src1280": "https://cdn.pixabay.com/photo/2022/11/09/21/12/candle-7581472_1280.jpg"
    },
    {
        "id": "3484327",
        "src640": "https://cdn.pixabay.com/photo/2018/06/19/11/48/ornament-3484327_640.jpg",
        "src1280": "https://cdn.pixabay.com/photo/2018/06/19/11/48/ornament-3484327_1280.jpg"
    },
    {
        "id": "7651201",
        "src640": "https://cdn.pixabay.com/photo/2022/12/12/15/06/winter-sports-7651201_640.jpg",
        "src1280": "https://cdn.pixabay.com/photo/2022/12/12/15/06/winter-sports-7651201_1280.jpg"
    },
    {
        "id": "1827278",
        "src640": "https://cdn.pixabay.com/photo/2016/11/15/19/37/noel-1827278_640.jpg",
        "src1280": "https://cdn.pixabay.com/photo/2016/11/15/19/37/noel-1827278_1280.jpg"
    },
    {
        "id": "1909947",
        "src640": "https://cdn.pixabay.com/photo/2016/12/15/20/07/christmas-1909947_640.jpg",
        "src1280": "https://cdn.pixabay.com/photo/2016/12/15/20/07/christmas-1909947_1280.jpg"
    },
    {
        "id": "1082511",
        "src640": "https://cdn.pixabay.com/photo/2015/12/08/05/57/winter-wonderland-1082511_640.jpg",
        "src1280": "https://cdn.pixabay.com/photo/2015/12/08/05/57/winter-wonderland-1082511_1280.jpg"
    },
    {
        "id": "4631194",
        "src640": "https://cdn.pixabay.com/photo/2019/11/16/21/44/christmas-4631194_640.jpg",
        "src1280": "https://cdn.pixabay.com/photo/2019/11/16/21/44/christmas-4631194_1280.jpg"
    },
    {
        "id": "3023415",
        "src640": "https://cdn.pixabay.com/photo/2017/12/16/22/08/christmas-3023415_640.jpg",
        "src1280": "https://cdn.pixabay.com/photo/2017/12/16/22/08/christmas-3023415_1280.jpg"
    },
    {
        "id": "5832123",
        "src640": "https://cdn.pixabay.com/photo/2020/12/14/21/38/christmas-tree-5832123_640.jpg",
        "src1280": "https://cdn.pixabay.com/photo/2020/12/14/21/38/christmas-tree-5832123_1280.jpg"
    },
    {
        "id": "7646798",
        "src640": "https://cdn.pixabay.com/photo/2022/12/10/08/38/christmas-tree-7646798_640.jpg",
        "src1280": "https://cdn.pixabay.com/photo/2022/12/10/08/38/christmas-tree-7646798_1280.jpg"
    },
    {
        "id": "8398449",
        "src640": "https://cdn.pixabay.com/photo/2023/11/19/10/19/sheet-music-8398449_640.jpg",
        "src1280": "https://cdn.pixabay.com/photo/2023/11/19/10/19/sheet-music-8398449_1280.jpg"
    },
    {
        "id": "8443155",
        "src640": "https://cdn.pixabay.com/photo/2023/12/11/09/36/whisky-8443155_640.jpg",
        "src1280": "https://cdn.pixabay.com/photo/2023/12/11/09/36/whisky-8443155_1280.jpg"
    },
    {
        "id": "6876097",
        "src640": "https://cdn.pixabay.com/photo/2021/12/17/09/34/christmas-drink-6876097_640.jpg",
        "src1280": "https://cdn.pixabay.com/photo/2021/12/17/09/34/christmas-drink-6876097_1280.jpg"
    },
    {
        "id": "5847940",
        "src640": "https://cdn.pixabay.com/photo/2020/12/20/19/21/cookies-5847940_640.jpg",
        "src1280": "https://cdn.pixabay.com/photo/2020/12/20/19/21/cookies-5847940_1280.jpg"
    },
    {
        "id": "5746594",
        "src640": "https://cdn.pixabay.com/photo/2020/11/15/17/23/house-5746594_640.jpg",
        "src1280": "https://cdn.pixabay.com/photo/2020/11/15/17/23/house-5746594_1280.jpg"
    },
    {
        "id": "8437007",
        "src640": "https://cdn.pixabay.com/photo/2023/12/08/07/27/woman-8437007_640.jpg",
        "src1280": "https://cdn.pixabay.com/photo/2023/12/08/07/27/woman-8437007_1280.jpg"
    },
    {
        "id": "7651588",
        "src640": "https://cdn.pixabay.com/photo/2022/12/12/17/58/fir-branch-7651588_640.jpg",
        "src1280": "https://cdn.pixabay.com/photo/2022/12/12/17/58/fir-branch-7651588_1280.jpg"
    },
    {
        "id": "6805045",
        "src640": "https://cdn.pixabay.com/photo/2021/11/17/22/55/christmas-6805045_640.jpg",
        "src1280": "https://cdn.pixabay.com/photo/2021/11/17/22/55/christmas-6805045_1280.jpg"
    },
    {
        "id": "20725",
        "src640": "https://cdn.pixabay.com/photo/2012/03/02/00/32/cookies-20725_640.jpg",
        "src1280": "https://cdn.pixabay.com/photo/2012/03/02/00/32/cookies-20725_1280.jpg"
    },
    {
        "id": "8367102",
        "src640": "https://cdn.pixabay.com/photo/2023/11/05/13/19/christmas-8367102_640.jpg",
        "src1280": "https://cdn.pixabay.com/photo/2023/11/05/13/19/christmas-8367102_1280.jpg"
    },
    {
        "id": "4697588",
        "src640": "https://cdn.pixabay.com/photo/2019/12/15/17/05/cookies-4697588_640.jpg",
        "src1280": "https://cdn.pixabay.com/photo/2019/12/15/17/05/cookies-4697588_1280.jpg"
    },
    {
        "id": "65825",
        "src640": "https://cdn.pixabay.com/photo/2012/11/13/06/10/ball-65825_640.jpg",
        "src1280": "https://cdn.pixabay.com/photo/2012/11/13/06/10/ball-65825_1280.jpg"
    },
    {
        "id": "3974099",
        "src640": "https://cdn.pixabay.com/photo/2019/02/04/07/36/new-year-3974099_640.jpg",
        "src1280": "https://cdn.pixabay.com/photo/2019/02/04/07/36/new-year-3974099_1280.jpg"
    },
    {
        "id": "5778006",
        "src640": "https://cdn.pixabay.com/photo/2020/11/26/06/16/christmas-trees-5778006_640.jpg",
        "src1280": "https://cdn.pixabay.com/photo/2020/11/26/06/16/christmas-trees-5778006_1280.jpg"
    },
    {
        "id": "7638368",
        "src640": "https://cdn.pixabay.com/photo/2022/12/06/06/21/lavender-7638368_640.jpg",
        "src1280": "https://cdn.pixabay.com/photo/2022/12/06/06/21/lavender-7638368_1280.jpg"
    },
    {
        "id": "21971",
        "src640": "https://cdn.pixabay.com/photo/2012/03/04/00/36/baby-21971_640.jpg",
        "src1280": "https://cdn.pixabay.com/photo/2012/03/04/00/36/baby-21971_1280.jpg"
    },
    {
        "id": "4567561",
        "src640": "https://cdn.pixabay.com/photo/2019/10/22/03/34/gift-4567561_640.jpg",
        "src1280": "https://cdn.pixabay.com/photo/2019/10/22/03/34/gift-4567561_1280.jpg"
    },
    {
        "id": "6890764",
        "src640": "https://cdn.pixabay.com/photo/2021/12/24/09/11/winter-6890764_640.jpg",
        "src1280": "https://cdn.pixabay.com/photo/2021/12/24/09/11/winter-6890764_1280.jpg"
    },
    {
        "id": "4693868",
        "src640": "https://cdn.pixabay.com/photo/2019/12/13/20/56/miniature-4693868_640.jpg",
        "src1280": "https://cdn.pixabay.com/photo/2019/12/13/20/56/miniature-4693868_1280.jpg"
    },
    {
        "id": "1930733",
        "src640": "https://cdn.pixabay.com/photo/2016/12/25/19/41/france-1930733_640.jpg",
        "src1280": "https://cdn.pixabay.com/photo/2016/12/25/19/41/france-1930733_1280.jpg"
    },
    {
        "id": "6838719",
        "src640": "https://cdn.pixabay.com/photo/2021/12/01/17/28/branch-6838719_640.jpg",
        "src1280": "https://cdn.pixabay.com/photo/2021/12/01/17/28/branch-6838719_1280.jpg"
    },
    {
        "id": "4707542",
        "src640": "https://cdn.pixabay.com/photo/2019/12/20/03/29/woman-4707542_640.jpg",
        "src1280": "https://cdn.pixabay.com/photo/2019/12/20/03/29/woman-4707542_1280.jpg"
    },
    {
        "id": "5884606",
        "src640": "https://cdn.pixabay.com/photo/2021/01/03/13/55/christmas-tree-5884606_640.jpg",
        "src1280": "https://cdn.pixabay.com/photo/2021/01/03/13/55/christmas-tree-5884606_1280.jpg"
    },
    {
        "id": "7595610",
        "src640": "https://cdn.pixabay.com/photo/2022/11/16/09/58/festive-season-7595610_640.jpg",
        "src1280": "https://cdn.pixabay.com/photo/2022/11/16/09/58/festive-season-7595610_1280.jpg"
    },
    {
        "id": "66552",
        "src640": "https://cdn.pixabay.com/photo/2012/11/19/06/46/santa-claus-66552_640.jpg",
        "src1280": "https://cdn.pixabay.com/photo/2012/11/19/06/46/santa-claus-66552_1280.jpg"
    },
    {
        "id": "5859689",
        "src640": "https://cdn.pixabay.com/photo/2020/12/25/16/01/christmas-5859689_640.jpg",
        "src1280": "https://cdn.pixabay.com/photo/2020/12/25/16/01/christmas-5859689_1280.jpg"
    },
    {
        "id": "1827265",
        "src640": "https://cdn.pixabay.com/photo/2016/11/15/19/25/santa-claus-1827265_640.jpg",
        "src1280": "https://cdn.pixabay.com/photo/2016/11/15/19/25/santa-claus-1827265_1280.jpg"
    },
    {
        "id": "562157",
        "src640": "https://cdn.pixabay.com/photo/2014/12/09/17/34/girl-562157_640.jpg",
        "src1280": "https://cdn.pixabay.com/photo/2014/12/09/17/34/girl-562157_1280.jpg"
    },
    {
        "id": "8449616",
        "src640": "https://cdn.pixabay.com/photo/2023/12/14/20/24/christmas-balls-8449616_640.jpg",
        "src1280": "https://cdn.pixabay.com/photo/2023/12/14/20/24/christmas-balls-8449616_1280.jpg"
    },
    {
        "id": "6873312",
        "src640": "https://cdn.pixabay.com/photo/2021/12/15/19/50/wreath-6873312_640.jpg",
        "src1280": "https://cdn.pixabay.com/photo/2021/12/15/19/50/wreath-6873312_1280.jpg"
    },
    {
        "id": "4704072",
        "src640": "https://cdn.pixabay.com/photo/2019/12/18/13/59/christmas-4704072_640.jpg",
        "src1280": "https://cdn.pixabay.com/photo/2019/12/18/13/59/christmas-4704072_1280.jpg"
    },
    {
        "id": "6588525",
        "src640": "https://cdn.pixabay.com/photo/2021/08/31/11/11/christmas-6588525_640.jpg",
        "src1280": "https://cdn.pixabay.com/photo/2021/08/31/11/11/christmas-6588525_1280.jpg"
    },
    {
        "id": "4686590",
        "src640": "https://cdn.pixabay.com/photo/2019/12/10/19/15/christmas-4686590_640.jpg",
        "src1280": "https://cdn.pixabay.com/photo/2019/12/10/19/15/christmas-4686590_1280.jpg"
    },
    {
        "id": "6865996",
        "src640": "https://cdn.pixabay.com/photo/2021/12/12/20/17/drink-6865996_640.jpg",
        "src1280": "https://cdn.pixabay.com/photo/2021/12/12/20/17/drink-6865996_1280.jpg"
    },
    {
        "id": "7637542",
        "src640": "https://cdn.pixabay.com/photo/2022/12/05/19/36/hellebore-7637542_640.jpg",
        "src1280": "https://cdn.pixabay.com/photo/2022/12/05/19/36/hellebore-7637542_1280.jpg"
    },
    {
        "id": "6902574",
        "src640": "https://cdn.pixabay.com/photo/2021/12/29/19/08/christmas-6902574_640.jpg",
        "src1280": "https://cdn.pixabay.com/photo/2021/12/29/19/08/christmas-6902574_1280.jpg"
    },
    {
        "id": "4651978",
        "src640": "https://cdn.pixabay.com/photo/2019/11/25/12/58/christmas-4651978_640.jpg",
        "src1280": "https://cdn.pixabay.com/photo/2019/11/25/12/58/christmas-4651978_1280.jpg"
    },
    {
        "id": "4707204",
        "src640": "https://cdn.pixabay.com/photo/2019/12/19/21/41/christmas-ornament-4707204_640.jpg",
        "src1280": "https://cdn.pixabay.com/photo/2019/12/19/21/41/christmas-ornament-4707204_1280.jpg"
    },
    {
        "id": "5834193",
        "src640": "https://cdn.pixabay.com/photo/2020/12/15/16/25/clock-5834193_640.jpg",
        "src1280": "https://cdn.pixabay.com/photo/2020/12/15/16/25/clock-5834193_1280.jpg"
    },
    {
        "id": "7661889",
        "src640": "https://cdn.pixabay.com/photo/2022/12/17/15/20/ice-cream-7661889_640.jpg",
        "src1280": "https://cdn.pixabay.com/photo/2022/12/17/15/20/ice-cream-7661889_1280.jpg"
    },
    {
        "id": "7664112",
        "src640": "https://cdn.pixabay.com/photo/2022/12/18/19/30/christmas-7664112_640.jpg",
        "src1280": "https://cdn.pixabay.com/photo/2022/12/18/19/30/christmas-7664112_1280.jpg"
    }
]