[
    {
        "id": "6847229",
        "src640": "https://cdn.pixabay.com/photo/2021/12/05/10/43/christmas-6847229_640.jpg",
        "src1280": "https://cdn.pixabay.com/photo/2021/12/05/10/43/christmas-6847229_1280.jpg"
    },
    {
        "id": "2948207",
        "src640": "https://cdn.pixabay.com/photo/2017/11/14/11/42/christmas-2948207_640.jpg",
        "src1280": "https://cdn.pixabay.com/photo/2017/11/14/11/42/christmas-2948207_1280.jpg"
    },
    {
        "id": "5186244",
        "src640": "https://cdn.pixabay.com/photo/2020/05/18/13/18/harzer-schmalspuhrbahn-5186244_640.jpg",
        "src1280": "https://cdn.pixabay.com/photo/2020/05/18/13/18/harzer-schmalspuhrbahn-5186244_1280.jpg"
    },
    {
        "id": "4657886",
        "src640": "https://cdn.pixabay.com/photo/2019/11/27/21/13/pinecones-4657886_640.jpg",
        "src1280": "https://cdn.pixabay.com/photo/2019/11/27/21/13/pinecones-4657886_1280.jpg"
    },
    {
        "id": "6881922",
        "src640": "https://cdn.pixabay.com/photo/2021/12/19/20/44/man-6881922_640.jpg",
        "src1280": "https://cdn.pixabay.com/photo/2021/12/19/20/44/man-6881922_1280.jpg"
    },
    {
        "id": "7672736",
        "src640": "https://cdn.pixabay.com/photo/2022/12/22/18/24/cherry-7672736_640.jpg",
        "src1280": "https://cdn.pixabay.com/photo/2022/12/22/18/24/cherry-7672736_1280.jpg"
    },
    {
        "id": "7670095",
        "src640": "https://cdn.pixabay.com/photo/2022/12/21/13/48/christmas-7670095_640.jpg",
        "src1280": "https://cdn.pixabay.com/photo/2022/12/21/13/48/christmas-7670095_1280.jpg"
    },
    {
        "id": "4718424",
        "src640": "https://cdn.pixabay.com/photo/2019/12/25/12/03/christmas-4718424_640.jpg",
        "src1280": "https://cdn.pixabay.com/photo/2019/12/25/12/03/christmas-4718424_1280.jpg"
    },
    {
        "id": "1934575",
        "src640": "https://cdn.pixabay.com/photo/2016/12/27/19/15/ice-sculptures-1934575_640.jpg",
        "src1280": "https://cdn.pixabay.com/photo/2016/12/27/19/15/ice-sculptures-1934575_1280.jpg"
    },
    {
        "id": "11301",
        "src640": "https://cdn.pixabay.com/photo/2012/01/04/00/08/christmas-ornament-11301_640.jpg",
        "src1280": "https://cdn.pixabay.com/photo/2012/01/04/00/08/christmas-ornament-11301_1280.jpg"
    },
    {
        "id": "93176",
        "src640": "https://cdn.pixabay.com/photo/2013/03/13/13/41/spice-93176_640.jpg",
        "src1280": "https://cdn.pixabay.com/photo/2013/03/13/13/41/spice-93176_1280.jpg"
    },
    {
        "id": "4898671",
        "src640": "https://cdn.pixabay.com/photo/2020/03/03/12/44/girl-4898671_640.jpg",
        "src1280": "https://cdn.pixabay.com/photo/2020/03/03/12/44/girl-4898671_1280.jpg"
    },
    {
        "id": "6849701",
        "src640": "https://cdn.pixabay.com/photo/2021/12/06/09/29/christmas-6849701_640.jpg",
        "src1280": "https://cdn.pixabay.com/photo/2021/12/06/09/29/christmas-6849701_1280.jpg"
    },
    {
        "id": "8405882",
        "src640": "https://cdn.pixabay.com/photo/2023/11/22/16/22/ai-generated-8405882_640.jpg",
        "src1280": "https://cdn.pixabay.com/photo/2023/11/22/16/22/ai-generated-8405882_1280.jpg"
    },
    {
        "id": "4657632",
        "src640": "https://cdn.pixabay.com/photo/2019/11/27/18/56/christmas-4657632_640.jpg",
        "src1280": "https://cdn.pixabay.com/photo/2019/11/27/18/56/christmas-4657632_1280.jpg"
    },
    {
        "id": "5876188",
        "src640": "https://cdn.pixabay.com/photo/2020/12/31/10/54/mandarins-5876188_640.jpg",
        "src1280": "https://cdn.pixabay.com/photo/2020/12/31/10/54/mandarins-5876188_1280.jpg"
    },
    {
        "id": "6769867",
        "src640": "https://cdn.pixabay.com/photo/2021/11/05/01/15/icicles-6769867_640.jpg",
        "src1280": "https://cdn.pixabay.com/photo/2021/11/05/01/15/icicles-6769867_1280.jpg"
    },
    {
        "id": "6807488",
        "src640": "https://cdn.pixabay.com/photo/2021/11/18/21/57/christmas-bell-6807488_640.jpg",
        "src1280": "https://cdn.pixabay.com/photo/2021/11/18/21/57/christmas-bell-6807488_1280.jpg"
    },
    {
        "id": "5445511",
        "src640": "https://cdn.pixabay.com/photo/2020/07/28/15/51/toddler-5445511_640.jpg",
        "src1280": "https://cdn.pixabay.com/photo/2020/07/28/15/51/toddler-5445511_1280.jpg"
    },
    {
        "id": "7654742",
        "src640": "https://cdn.pixabay.com/photo/2022/12/14/07/07/woman-7654742_640.jpg",
        "src1280": "https://cdn.pixabay.com/photo/2022/12/14/07/07/woman-7654742_1280.jpg"
    },
    {
        "id": "4943154",
        "src640": "https://cdn.pixabay.com/photo/2020/03/18/08/06/christmas-4943154_640.jpg",
        "src1280": "https://cdn.pixabay.com/photo/2020/03/18/08/06/christmas-4943154_1280.jpg"
    },
    {
        "id": "4971107",
        "src640": "https://cdn.pixabay.com/photo/2020/03/26/17/25/snow-4971107_640.jpg",
        "src1280": "https://cdn.pixabay.com/photo/2020/03/26/17/25/snow-4971107_1280.jpg"
    },
    {
        "id": "7644206",
        "src640": "https://cdn.pixabay.com/photo/2022/12/08/23/13/ai-generated-7644206_640.jpg",
        "src1280": "https://cdn.pixabay.com/photo/2022/12/08/23/13/ai-generated-7644206_1280.jpg"
    },
    {
        "id": "4695445",
        "src640": "https://cdn.pixabay.com/photo/2019/12/14/18/04/christmas-4695445_640.jpg",
        "src1280": "https://cdn.pixabay.com/photo/2019/12/14/18/04/christmas-4695445_1280.jpg"
    },
    {
        "id": "5508218",
        "src640": "https://cdn.pixabay.com/photo/2020/08/22/11/41/decorations-5508218_640.jpg",
        "src1280": "https://cdn.pixabay.com/photo/2020/08/22/11/41/decorations-5508218_1280.jpg"
    },
    {
        "id": "3875795",
        "src640": "https://cdn.pixabay.com/photo/2018/12/14/21/13/christmas-3875795_640.jpg",
        "src1280": "https://cdn.pixabay.com/photo/2018/12/14/21/13/christmas-3875795_1280.jpg"
    },
    {
        "id": "919818",
        "src640": "https://cdn.pixabay.com/photo/2015/09/02/23/41/glass-ball-919818_640.jpg",
        "src1280": "https://cdn.pixabay.com/photo/2015/09/02/23/41/glass-ball-919818_1280.jpg"
    },
    {
        "id": "5646334",
        "src640": "https://cdn.pixabay.com/photo/2020/10/11/16/20/cake-5646334_640.jpg",
        "src1280": "https://cdn.pixabay.com/photo/2020/10/11/16/20/cake-5646334_1280.jpg"
    },
    {
        "id": "6857769",
        "src640": "https://cdn.pixabay.com/photo/2021/12/09/10/04/girl-6857769_640.jpg",
        "src1280": "https://cdn.pixabay.com/photo/2021/12/09/10/04/girl-6857769_1280.jpg"
    },
    {
        "id": "7619571",
        "src640": "https://cdn.pixabay.com/photo/2022/11/27/11/49/xmas-card-7619571_640.jpg",
        "src1280": "https://cdn.pixabay.com/photo/2022/11/27/11/49/xmas-card-7619571_1280.jpg"
    },
    {
        "id": "4647769",
        "src640": "https://cdn.pixabay.com/photo/2019/11/23/17/58/poinsettia-4647769_640.jpg",
        "src1280": "https://cdn.pixabay.com/photo/2019/11/23/17/58/poinsettia-4647769_1280.jpg"
    },
    {
        "id": "8098481",
        "src640": "https://cdn.pixabay.com/photo/2023/06/30/14/36/women-8098481_640.jpg",
        "src1280": "https://cdn.pixabay.com/photo/2023/06/30/14/36/women-8098481_1280.jpg"
    },
    {
        "id": "7718958",
        "src640": "https://cdn.pixabay.com/photo/2023/01/14/19/54/christmas-7718958_640.jpg",
        "src1280": "https://cdn.pixabay.com/photo/2023/01/14/19/54/christmas-7718958_1280.jpg"
    },
    {
        "id": "908539",
        "src640": "https://cdn.pixabay.com/photo/2015/08/26/14/02/shepherd-908539_640.jpg",
        "src1280": "https://cdn.pixabay.com/photo/2015/08/26/14/02/shepherd-908539_1280.jpg"
    },
    {
        "id": "542209",
        "src640": "https://cdn.pixabay.com/photo/2014/11/22/22/55/ren-542209_640.jpg",
        "src1280": "https://cdn.pixabay.com/photo/2014/11/22/22/55/ren-542209_1280.jpg"
    },
    {
        "id": "7497201",
        "src640": "https://cdn.pixabay.com/photo/2022/10/04/02/42/wedding-7497201_640.jpg",
        "src1280": "https://cdn.pixabay.com/photo/2022/10/04/02/42/wedding-7497201_1280.jpg"
    },
    {
        "id": "5286063",
        "src640": "https://cdn.pixabay.com/photo/2020/06/11/10/07/poinsettia-5286063_640.jpg",
        "src1280": "https://cdn.pixabay.com/photo/2020/06/11/10/07/poinsettia-5286063_1280.jpg"
    },
    {
        "id": "4688422",
        "src640": "https://cdn.pixabay.com/photo/2019/12/11/13/52/christmas-tree-4688422_640.jpg",
        "src1280": "https://cdn.pixabay.com/photo/2019/12/11/13/52/christmas-tree-4688422_1280.jpg"
    },
    {
        "id": "7605023",
        "src640": "https://cdn.pixabay.com/photo/2022/11/20/19/16/santa-claus-7605023_640.jpg",
        "src1280": "https://cdn.pixabay.com/photo/2022/11/20/19/16/santa-claus-7605023_1280.jpg"
    },
    {
        "id": "4595701",
        "src640": "https://cdn.pixabay.com/photo/2019/11/02/06/01/holly-4595701_640.jpg",
        "src1280": "https://cdn.pixabay.com/photo/2019/11/02/06/01/holly-4595701_1280.jpg"
    },
    {
        "id": "7471321",
        "src640": "https://cdn.pixabay.com/photo/2022/09/21/23/13/christmas-7471321_640.jpg",
        "src1280": "https://cdn.pixabay.com/photo/2022/09/21/23/13/christmas-7471321_1280.jpg"
    },
    {
        "id": "5823408",
        "src640": "https://cdn.pixabay.com/photo/2020/12/11/17/54/woman-5823408_640.jpg",
        "src1280": "https://cdn.pixabay.com/photo/2020/12/11/17/54/woman-5823408_1280.jpg"
    },
    {
        "id": "8363663",
        "src640": "https://cdn.pixabay.com/photo/2023/11/03/18/41/christmas-8363663_640.jpg",
        "src1280": "https://cdn.pixabay.com/photo/2023/11/03/18/41/christmas-8363663_1280.jpg"
    },
    {
        "id": "3007859",
        "src640": "https://cdn.pixabay.com/photo/2017/12/09/13/22/christmas-3007859_640.jpg",
        "src1280": "https://cdn.pixabay.com/photo/2017/12/09/13/22/christmas-3007859_1280.jpg"
    },
    {
        "id": "4695443",
        "src640": "https://cdn.pixabay.com/photo/2019/12/14/18/04/christmas-4695443_640.jpg",
        "src1280": "https://cdn.pixabay.com/photo/2019/12/14/18/04/christmas-4695443_1280.jpg"
    },
    {
        "id": "5847252",
        "src640": "https://cdn.pixabay.com/photo/2020/12/20/14/43/saint-nicholas-5847252_640.jpg",
        "src1280": "https://cdn.pixabay.com/photo/2020/12/20/14/43/saint-nicholas-5847252_1280.jpg"
    },
    {
        "id": "4746192",
        "src640": "https://cdn.pixabay.com/photo/2020/01/06/20/23/lake-wolfgang-4746192_640.jpg",
        "src1280": "https://cdn.pixabay.com/photo/2020/01/06/20/23/lake-wolfgang-4746192_1280.jpg"
    },
    {
        "id": "1929074",
        "src640": "https://cdn.pixabay.com/photo/2016/12/24/16/31/door-1929074_640.jpg",
        "src1280": "https://cdn.pixabay.com/photo/2016/12/24/16/31/door-1929074_1280.jpg"
    },
    {
        "id": "7673978",
        "src640": "https://cdn.pixabay.com/photo/2022/12/23/09/03/christmas-7673978_640.jpg",
        "src1280": "https://cdn.pixabay.com/photo/2022/12/23/09/03/christmas-7673978_1280.jpg"
    },
    {
        "id": "6881979",
        "src640": "https://cdn.pixabay.com/photo/2021/12/19/21/41/fir-tree-6881979_640.jpg",
        "src1280": "https://cdn.pixabay.com/photo/2021/12/19/21/41/fir-tree-6881979_1280.jpg"
    },
    {
        "id": "7632388",
        "src640": "https://cdn.pixabay.com/photo/2022/12/03/10/17/winter-7632388_640.jpg",
        "src1280": "https://cdn.pixabay.com/photo/2022/12/03/10/17/winter-7632388_1280.jpg"
    },
    {
        "id": "1920644",
        "src640": "https://cdn.pixabay.com/photo/2016/12/20/14/41/christmas-1920644_640.jpg",
        "src1280": "https://cdn.pixabay.com/photo/2016/12/20/14/41/christmas-1920644_1280.jpg"
    },
    {
        "id": "586194",
        "src640": "https://cdn.pixabay.com/photo/2015/01/01/22/28/pine-needles-586194_640.jpg",
        "src1280": "https://cdn.pixabay.com/photo/2015/01/01/22/28/pine-needles-586194_1280.jpg"
    },
    {
        "id": "7562672",
        "src640": "https://cdn.pixabay.com/photo/2022/11/01/15/46/candy-canes-7562672_640.jpg",
        "src1280": "https://cdn.pixabay.com/photo/2022/11/01/15/46/candy-canes-7562672_1280.jpg"
    },
    {
        "id": "3368210",
        "src640": "https://cdn.pixabay.com/photo/2018/05/02/10/16/celebration-3368210_640.jpg",
        "src1280": "https://cdn.pixabay.com/photo/2018/05/02/10/16/celebration-3368210_1280.jpg"
    },
    {
        "id": "1878087",
        "src640": "https://cdn.pixabay.com/photo/2016/12/02/16/42/christmas-1878087_640.jpg",
        "src1280": "https://cdn.pixabay.com/photo/2016/12/02/16/42/christmas-1878087_1280.jpg"
    },
    {
        "id": "15843",
        "src640": "https://cdn.pixabay.com/photo/2012/02/23/08/57/christmas-15843_640.jpg",
        "src1280": "https://cdn.pixabay.com/photo/2012/02/23/08/57/christmas-15843_1280.jpg"
    },
    {
        "id": "7634898",
        "src640": "https://cdn.pixabay.com/photo/2022/12/04/16/19/christmas-tree-7634898_640.jpg",
        "src1280": "https://cdn.pixabay.com/photo/2022/12/04/16/19/christmas-tree-7634898_1280.jpg"
    },
    {
        "id": "3968956",
        "src640": "https://cdn.pixabay.com/photo/2019/02/01/13/05/girl-3968956_640.jpg",
        "src1280": "https://cdn.pixabay.com/photo/2019/02/01/13/05/girl-3968956_1280.jpg"
    },
    {
        "id": "7451895",
        "src640": "https://cdn.pixabay.com/photo/2022/09/13/13/18/fee-7451895_640.jpg",
        "src1280": "https://cdn.pixabay.com/photo/2022/09/13/13/18/fee-7451895_1280.jpg"
    },
    {
        "id": "6173416",
        "src640": "https://cdn.pixabay.com/photo/2021/04/12/17/31/woman-6173416_640.jpg",
        "src1280": "https://cdn.pixabay.com/photo/2021/04/12/17/31/woman-6173416_1280.jpg"
    },
    {
        "id": "3037437",
        "src640": "https://cdn.pixabay.com/photo/2017/12/24/18/26/desktop-3037437_640.jpg",
        "src1280": "https://cdn.pixabay.com/photo/2017/12/24/18/26/desktop-3037437_1280.jpg"
    },
    {
        "id": "5899216",
        "src640": "https://cdn.pixabay.com/photo/2021/01/08/08/13/sparkler-5899216_640.jpg",
        "src1280": "https://cdn.pixabay.com/photo/2021/01/08/08/13/sparkler-5899216_1280.jpg"
    },
    {
        "id": "513563",
        "src640": "https://cdn.pixabay.com/photo/2014/11/02/09/51/christmas-ornament-513563_640.jpg",
        "src1280": "https://cdn.pixabay.com/photo/2014/11/02/09/51/christmas-ornament-513563_1280.jpg"
    },
    {
        "id": "6877012",
        "src640": "https://cdn.pixabay.com/photo/2021/12/17/17/21/peppermint-6877012_640.jpg",
        "src1280": "https://cdn.pixabay.com/photo/2021/12/17/17/21/peppermint-6877012_1280.jpg"
    },
    {
        "id": "1849866",
        "src640": "https://cdn.pixabay.com/photo/2016/11/22/17/43/christmas-hase-1849866_640.jpg",
        "src1280": "https://cdn.pixabay.com/photo/2016/11/22/17/43/christmas-hase-1849866_1280.jpg"
    },
    {
        "id": "7677416",
        "src640": "https://cdn.pixabay.com/photo/2022/12/25/14/41/coffee-7677416_640.jpg",
        "src1280": "https://cdn.pixabay.com/photo/2022/12/25/14/41/coffee-7677416_1280.jpg"
    },
    {
        "id": "6889864",
        "src640": "https://cdn.pixabay.com/photo/2021/12/23/19/24/its-christmas-time-6889864_640.jpg",
        "src1280": "https://cdn.pixabay.com/photo/2021/12/23/19/24/its-christmas-time-6889864_1280.jpg"
    },
    {
        "id": "7487774",
        "src640": "https://cdn.pixabay.com/photo/2022/09/29/18/20/pinecone-7487774_640.jpg",
        "src1280": "https://cdn.pixabay.com/photo/2022/09/29/18/20/pinecone-7487774_1280.jpg"
    },
    {
        "id": "8098478",
        "src640": "https://cdn.pixabay.com/photo/2023/06/30/14/36/women-8098478_640.jpg",
        "src1280": "https://cdn.pixabay.com/photo/2023/06/30/14/36/women-8098478_1280.jpg"
    },
    {
        "id": "445083",
        "src640": "https://cdn.pixabay.com/photo/2014/09/14/14/43/cake-445083_640.jpg",
        "src1280": "https://cdn.pixabay.com/photo/2014/09/14/14/43/cake-445083_1280.jpg"
    },
    {
        "id": "3971066",
        "src640": "https://cdn.pixabay.com/photo/2019/02/02/18/03/christmas-plant-3971066_640.jpg",
        "src1280": "https://cdn.pixabay.com/photo/2019/02/02/18/03/christmas-plant-3971066_1280.jpg"
    },
    {
        "id": "541425",
        "src640": "https://cdn.pixabay.com/photo/2014/11/22/07/46/christmas-541425_640.jpg",
        "src1280": "https://cdn.pixabay.com/photo/2014/11/22/07/46/christmas-541425_1280.jpg"
    },
    {
        "id": "1914854",
        "src640": "https://cdn.pixabay.com/photo/2016/12/18/01/46/christmas-1914854_640.jpg",
        "src1280": "https://cdn.pixabay.com/photo/2016/12/18/01/46/christmas-1914854_1280.jpg"
    },
    {
        "id": "7671412",
        "src640": "https://cdn.pixabay.com/photo/2022/12/22/03/24/merry-christmas-7671412_640.jpg",
        "src1280": "https://cdn.pixabay.com/photo/2022/12/22/03/24/merry-christmas-7671412_1280.jpg"
    },
    {
        "id": "1081007",
        "src640": "https://cdn.pixabay.com/photo/2015/12/07/16/47/santa-claus-1081007_640.jpg",
        "src1280": "https://cdn.pixabay.com/photo/2015/12/07/16/47/santa-claus-1081007_1280.jpg"
    },
    {
        "id": "6396625",
        "src640": "https://cdn.pixabay.com/photo/2021/07/08/11/05/christmas-tree-6396625_640.jpg",
        "src1280": "https://cdn.pixabay.com/photo/2021/07/08/11/05/christmas-tree-6396625_1280.jpg"
    },
    {
        "id": "1510389",
        "src640": "https://cdn.pixabay.com/photo/2016/07/11/19/22/christmas-1510389_640.jpg",
        "src1280": "https://cdn.pixabay.com/photo/2016/07/11/19/22/christmas-1510389_1280.jpg"
    },
    {
        "id": "4943197",
        "src640": "https://cdn.pixabay.com/photo/2020/03/18/08/16/christmas-4943197_640.jpg",
        "src1280": "https://cdn.pixabay.com/photo/2020/03/18/08/16/christmas-4943197_1280.jpg"
    },
    {
        "id": "18474",
        "src640": "https://cdn.pixabay.com/photo/2012/02/28/15/45/trees-18474_640.jpg",
        "src1280": "https://cdn.pixabay.com/photo/2012/02/28/15/45/trees-18474_1280.jpg"
    },
    {
        "id": "1750550",
        "src640": "https://cdn.pixabay.com/photo/2016/10/18/15/40/deer-1750550_640.jpg",
        "src1280": "https://cdn.pixabay.com/photo/2016/10/18/15/40/deer-1750550_1280.jpg"
    },
    {
        "id": "4677442",
        "src640": "https://cdn.pixabay.com/photo/2019/12/06/14/11/christmas-motif-4677442_640.jpg",
        "src1280": "https://cdn.pixabay.com/photo/2019/12/06/14/11/christmas-motif-4677442_1280.jpg"
    },
    {
        "id": "6881939",
        "src640": "https://cdn.pixabay.com/photo/2021/12/19/20/51/woman-6881939_640.jpg",
        "src1280": "https://cdn.pixabay.com/photo/2021/12/19/20/51/woman-6881939_1280.jpg"
    },
    {
        "id": "6894738",
        "src640": "https://cdn.pixabay.com/photo/2021/12/26/09/48/christmas-elf-6894738_640.jpg",
        "src1280": "https://cdn.pixabay.com/photo/2021/12/26/09/48/christmas-elf-6894738_1280.jpg"
    }
]