[
    {
        "id": "8441458",
        "src640": "https://cdn.pixabay.com/photo/2023/12/10/14/07/berries-8441458_640.jpg",
        "src1280": "https://cdn.pixabay.com/photo/2023/12/10/14/07/berries-8441458_1280.jpg"
    },
    {
        "id": "8444280",
        "src640": "https://cdn.pixabay.com/photo/2023/12/11/18/53/ai-generated-8444280_640.jpg",
        "src1280": "https://cdn.pixabay.com/photo/2023/12/11/18/53/ai-generated-8444280_1280.jpg"
    },
    {
        "id": "8420182",
        "src640": "https://cdn.pixabay.com/photo/2023/11/29/19/02/christmas-card-8420182_640.jpg",
        "src1280": "https://cdn.pixabay.com/photo/2023/11/29/19/02/christmas-card-8420182_1280.jpg"
    },
    {
        "id": "8386003",
        "src640": "https://cdn.pixabay.com/photo/2023/11/13/17/05/christmas-motif-8386003_640.jpg",
        "src1280": "https://cdn.pixabay.com/photo/2023/11/13/17/05/christmas-motif-8386003_1280.jpg"
    },
    {
        "id": "8450788",
        "src640": "https://cdn.pixabay.com/photo/2023/12/15/14/29/christmas-8450788_640.jpg",
        "src1280": "https://cdn.pixabay.com/photo/2023/12/15/14/29/christmas-8450788_1280.jpg"
    },
    {
        "id": "3949071",
        "src640": "https://cdn.pixabay.com/photo/2019/01/22/21/41/snow-3949071_640.jpg",
        "src1280": "https://cdn.pixabay.com/photo/2019/01/22/21/41/snow-3949071_1280.jpg"
    },
    {
        "id": "8461913",
        "src640": "https://cdn.pixabay.com/photo/2023/12/21/14/14/woman-8461913_640.jpg",
        "src1280": "https://cdn.pixabay.com/photo/2023/12/21/14/14/woman-8461913_1280.jpg"
    },
    {
        "id": "1913905",
        "src640": "https://cdn.pixabay.com/photo/2016/12/17/17/18/christmas-ornament-1913905_640.jpg",
        "src1280": "https://cdn.pixabay.com/photo/2016/12/17/17/18/christmas-ornament-1913905_1280.jpg"
    },
    {
        "id": "3875014",
        "src640": "https://cdn.pixabay.com/photo/2018/12/14/13/12/mulled-wine-christmas-3875014_640.jpg",
        "src1280": "https://cdn.pixabay.com/photo/2018/12/14/13/12/mulled-wine-christmas-3875014_1280.jpg"
    },
    {
        "id": "8438111",
        "src640": "https://cdn.pixabay.com/photo/2023/12/08/20/46/ai-generated-8438111_640.jpg",
        "src1280": "https://cdn.pixabay.com/photo/2023/12/08/20/46/ai-generated-8438111_1280.jpg"
    },
    {
        "id": "8457738",
        "src640": "https://cdn.pixabay.com/photo/2023/12/19/13/38/ai-generated-8457738_640.jpg",
        "src1280": "https://cdn.pixabay.com/photo/2023/12/19/13/38/ai-generated-8457738_1280.jpg"
    },
    {
        "id": "3823527",
        "src640": "https://cdn.pixabay.com/photo/2018/11/18/16/48/christmas-3823527_640.jpg",
        "src1280": "https://cdn.pixabay.com/photo/2018/11/18/16/48/christmas-3823527_1280.jpg"
    },
    {
        "id": "8443574",
        "src640": "https://cdn.pixabay.com/photo/2023/12/11/13/07/woman-8443574_640.jpg",
        "src1280": "https://cdn.pixabay.com/photo/2023/12/11/13/07/woman-8443574_1280.jpg"
    },
    {
        "id": "8446886",
        "src640": "https://cdn.pixabay.com/photo/2023/12/13/13/10/reindeer-8446886_640.jpg",
        "src1280": "https://cdn.pixabay.com/photo/2023/12/13/13/10/reindeer-8446886_1280.jpg"
    },
    {
        "id": "1795665",
        "src640": "https://cdn.pixabay.com/photo/2016/11/03/18/36/christmas-card-1795665_640.jpg",
        "src1280": "https://cdn.pixabay.com/photo/2016/11/03/18/36/christmas-card-1795665_1280.jpg"
    },
    {
        "id": "1789122",
        "src640": "https://cdn.pixabay.com/photo/2016/11/01/18/19/christmas-1789122_640.jpg",
        "src1280": "https://cdn.pixabay.com/photo/2016/11/01/18/19/christmas-1789122_1280.jpg"
    },
    {
        "id": "8438102",
        "src640": "https://cdn.pixabay.com/photo/2023/12/08/20/30/ai-generated-8438102_640.jpg",
        "src1280": "https://cdn.pixabay.com/photo/2023/12/08/20/30/ai-generated-8438102_1280.jpg"
    },
    {
        "id": "5767539",
        "src640": "https://cdn.pixabay.com/photo/2020/11/22/18/31/christmas-5767539_640.jpg",
        "src1280": "https://cdn.pixabay.com/photo/2020/11/22/18/31/christmas-5767539_1280.jpg"
    },
    {
        "id": "1022594",
        "src640": "https://cdn.pixabay.com/photo/2015/11/04/14/00/christmas-1022594_640.jpg",
        "src1280": "https://cdn.pixabay.com/photo/2015/11/04/14/00/christmas-1022594_1280.jpg"
    },
    {
        "id": "1769129",
        "src640": "https://cdn.pixabay.com/photo/2016/10/25/15/11/milk-1769129_640.jpg",
        "src1280": "https://cdn.pixabay.com/photo/2016/10/25/15/11/milk-1769129_1280.jpg"
    },
    {
        "id": "2295422",
        "src640": "https://cdn.pixabay.com/photo/2017/05/08/13/08/santa-claus-2295422_640.jpg",
        "src1280": "https://cdn.pixabay.com/photo/2017/05/08/13/08/santa-claus-2295422_1280.jpg"
    },
    {
        "id": "8398445",
        "src640": "https://cdn.pixabay.com/photo/2023/11/19/10/15/red-ball-8398445_640.jpg",
        "src1280": "https://cdn.pixabay.com/photo/2023/11/19/10/15/red-ball-8398445_1280.jpg"
    },
    {
        "id": "1095678",
        "src640": "https://cdn.pixabay.com/photo/2015/12/16/09/55/luna-1095678_640.jpg",
        "src1280": "https://cdn.pixabay.com/photo/2015/12/16/09/55/luna-1095678_1280.jpg"
    },
    {
        "id": "2932186",
        "src640": "https://cdn.pixabay.com/photo/2017/11/09/01/35/christmas-2932186_640.jpg",
        "src1280": "https://cdn.pixabay.com/photo/2017/11/09/01/35/christmas-2932186_1280.jpg"
    },
    {
        "id": "8438100",
        "src640": "https://cdn.pixabay.com/photo/2023/12/08/20/30/ai-generated-8438100_640.jpg",
        "src1280": "https://cdn.pixabay.com/photo/2023/12/08/20/30/ai-generated-8438100_1280.jpg"
    },
    {
        "id": "8445839",
        "src640": "https://cdn.pixabay.com/photo/2023/12/12/20/17/ai-generated-8445839_640.jpg",
        "src1280": "https://cdn.pixabay.com/photo/2023/12/12/20/17/ai-generated-8445839_1280.jpg"
    },
    {
        "id": "1769114",
        "src640": "https://cdn.pixabay.com/photo/2016/10/25/15/03/milk-1769114_640.jpg",
        "src1280": "https://cdn.pixabay.com/photo/2016/10/25/15/03/milk-1769114_1280.jpg"
    },
    {
        "id": "3107854",
        "src640": "https://cdn.pixabay.com/photo/2018/01/26/05/34/winter-3107854_640.jpg",
        "src1280": "https://cdn.pixabay.com/photo/2018/01/26/05/34/winter-3107854_1280.jpg"
    },
    {
        "id": "8419564",
        "src640": "https://cdn.pixabay.com/photo/2023/11/29/13/04/red-bauble-8419564_640.jpg",
        "src1280": "https://cdn.pixabay.com/photo/2023/11/29/13/04/red-bauble-8419564_1280.jpg"
    },
    {
        "id": "2939261",
        "src640": "https://cdn.pixabay.com/photo/2017/11/11/14/57/christmas-2939261_640.jpg",
        "src1280": "https://cdn.pixabay.com/photo/2017/11/11/14/57/christmas-2939261_1280.jpg"
    },
    {
        "id": "64180",
        "src640": "https://cdn.pixabay.com/photo/2012/11/05/16/27/christmas-64180_640.jpg",
        "src1280": "https://cdn.pixabay.com/photo/2012/11/05/16/27/christmas-64180_1280.jpg"
    },
    {
        "id": "3880922",
        "src640": "https://cdn.pixabay.com/photo/2018/12/17/18/06/owl-3880922_640.jpg",
        "src1280": "https://cdn.pixabay.com/photo/2018/12/17/18/06/owl-3880922_1280.jpg"
    },
    {
        "id": "2015729",
        "src640": "https://cdn.pixabay.com/photo/2017/01/28/16/18/christmas-2015729_640.jpg",
        "src1280": "https://cdn.pixabay.com/photo/2017/01/28/16/18/christmas-2015729_1280.jpg"
    },
    {
        "id": "5828650",
        "src640": "https://cdn.pixabay.com/photo/2020/12/13/16/03/gingerbread-man-5828650_640.jpg",
        "src1280": "https://cdn.pixabay.com/photo/2020/12/13/16/03/gingerbread-man-5828650_1280.jpg"
    },
    {
        "id": "1088140",
        "src640": "https://cdn.pixabay.com/photo/2015/12/11/13/59/lights-1088140_640.jpg",
        "src1280": "https://cdn.pixabay.com/photo/2015/12/11/13/59/lights-1088140_1280.jpg"
    },
    {
        "id": "1927451",
        "src640": "https://cdn.pixabay.com/photo/2016/12/23/15/08/little-girl-1927451_640.jpg",
        "src1280": "https://cdn.pixabay.com/photo/2016/12/23/15/08/little-girl-1927451_1280.jpg"
    },
    {
        "id": "890523",
        "src640": "https://cdn.pixabay.com/photo/2015/08/16/02/43/santa-890523_640.jpg",
        "src1280": "https://cdn.pixabay.com/photo/2015/08/16/02/43/santa-890523_1280.jpg"
    },
    {
        "id": "2440245",
        "src640": "https://cdn.pixabay.com/photo/2017/06/25/10/08/christmas-2440245_640.jpg",
        "src1280": "https://cdn.pixabay.com/photo/2017/06/25/10/08/christmas-2440245_1280.jpg"
    },
    {
        "id": "795724",
        "src640": "https://cdn.pixabay.com/photo/2015/06/02/23/22/christmas-tree-795724_640.jpg",
        "src1280": "https://cdn.pixabay.com/photo/2015/06/02/23/22/christmas-tree-795724_1280.jpg"
    },
    {
        "id": "577013",
        "src640": "https://cdn.pixabay.com/photo/2014/12/22/07/21/child-577013_640.jpg",
        "src1280": "https://cdn.pixabay.com/photo/2014/12/22/07/21/child-577013_1280.jpg"
    },
    {
        "id": "3853935",
        "src640": "https://cdn.pixabay.com/photo/2018/12/03/18/24/christmas-3853935_640.jpg",
        "src1280": "https://cdn.pixabay.com/photo/2018/12/03/18/24/christmas-3853935_1280.jpg"
    }
]