[
    {
        "id": "8425355",
        "src640": "https://cdn.pixabay.com/photo/2023/12/02/10/13/vintage-8425355_640.jpg",
        "src1280": "https://cdn.pixabay.com/photo/2023/12/02/10/13/vintage-8425355_1280.jpg"
    },
    {
        "id": "8467650",
        "src640": "https://cdn.pixabay.com/photo/2023/12/24/20/17/snow-8467650_640.jpg",
        "src1280": "https://cdn.pixabay.com/photo/2023/12/24/20/17/snow-8467650_1280.jpg"
    },
    {
        "id": "8425049",
        "src640": "https://cdn.pixabay.com/photo/2023/12/02/06/45/baubles-8425049_640.jpg",
        "src1280": "https://cdn.pixabay.com/photo/2023/12/02/06/45/baubles-8425049_1280.jpg"
    },
    {
        "id": "8462125",
        "src640": "https://cdn.pixabay.com/photo/2023/12/21/16/08/town-8462125_640.jpg",
        "src1280": "https://cdn.pixabay.com/photo/2023/12/21/16/08/town-8462125_1280.jpg"
    },
    {
        "id": "8427799",
        "src640": "https://cdn.pixabay.com/photo/2023/12/03/16/20/ai-generated-8427799_640.jpg",
        "src1280": "https://cdn.pixabay.com/photo/2023/12/03/16/20/ai-generated-8427799_1280.jpg"
    },
    {
        "id": "8459998",
        "src640": "https://cdn.pixabay.com/photo/2023/12/20/13/44/ai-generated-8459998_640.jpg",
        "src1280": "https://cdn.pixabay.com/photo/2023/12/20/13/44/ai-generated-8459998_1280.jpg"
    },
    {
        "id": "514217",
        "src640": "https://cdn.pixabay.com/photo/2014/11/02/16/33/crib-514217_640.jpg",
        "src1280": "https://cdn.pixabay.com/photo/2014/11/02/16/33/crib-514217_1280.jpg"
    },
    {
        "id": "8450434",
        "src640": "https://cdn.pixabay.com/photo/2023/12/15/11/20/christmas-8450434_640.jpg",
        "src1280": "https://cdn.pixabay.com/photo/2023/12/15/11/20/christmas-8450434_1280.jpg"
    },
    {
        "id": "8447602",
        "src640": "https://cdn.pixabay.com/photo/2023/12/13/20/10/ai-generated-8447602_640.jpg",
        "src1280": "https://cdn.pixabay.com/photo/2023/12/13/20/10/ai-generated-8447602_1280.jpg"
    },
    {
        "id": "8387947",
        "src640": "https://cdn.pixabay.com/photo/2023/11/14/15/24/santa-claus-8387947_640.jpg",
        "src1280": "https://cdn.pixabay.com/photo/2023/11/14/15/24/santa-claus-8387947_1280.jpg"
    },
    {
        "id": "8437134",
        "src640": "https://cdn.pixabay.com/photo/2023/12/08/08/42/ai-generated-8437134_640.jpg",
        "src1280": "https://cdn.pixabay.com/photo/2023/12/08/08/42/ai-generated-8437134_1280.jpg"
    },
    {
        "id": "8432606",
        "src640": "https://cdn.pixabay.com/photo/2023/12/05/23/17/santa-8432606_640.jpg",
        "src1280": "https://cdn.pixabay.com/photo/2023/12/05/23/17/santa-8432606_1280.jpg"
    },
    {
        "id": "8439858",
        "src640": "https://cdn.pixabay.com/photo/2023/12/09/17/49/ai-generated-8439858_640.jpg",
        "src1280": "https://cdn.pixabay.com/photo/2023/12/09/17/49/ai-generated-8439858_1280.jpg"
    },
    {
        "id": "8433477",
        "src640": "https://cdn.pixabay.com/photo/2023/12/06/10/50/ai-generated-8433477_640.jpg",
        "src1280": "https://cdn.pixabay.com/photo/2023/12/06/10/50/ai-generated-8433477_1280.jpg"
    },
    {
        "id": "8441720",
        "src640": "https://cdn.pixabay.com/photo/2023/12/10/15/54/ai-generated-8441720_640.jpg",
        "src1280": "https://cdn.pixabay.com/photo/2023/12/10/15/54/ai-generated-8441720_1280.jpg"
    },
    {
        "id": "5811944",
        "src640": "https://cdn.pixabay.com/photo/2020/12/07/14/53/santa-5811944_640.jpg",
        "src1280": "https://cdn.pixabay.com/photo/2020/12/07/14/53/santa-5811944_1280.jpg"
    },
    {
        "id": "8426980",
        "src640": "https://cdn.pixabay.com/photo/2023/12/03/06/51/ai-generated-8426980_640.jpg",
        "src1280": "https://cdn.pixabay.com/photo/2023/12/03/06/51/ai-generated-8426980_1280.jpg"
    },
    {
        "id": "8439853",
        "src640": "https://cdn.pixabay.com/photo/2023/12/09/17/49/ai-generated-8439853_640.jpg",
        "src1280": "https://cdn.pixabay.com/photo/2023/12/09/17/49/ai-generated-8439853_1280.jpg"
    },
    {
        "id": "8436076",
        "src640": "https://cdn.pixabay.com/photo/2023/12/07/18/20/mountains-8436076_640.jpg",
        "src1280": "https://cdn.pixabay.com/photo/2023/12/07/18/20/mountains-8436076_1280.jpg"
    },
    {
        "id": "8419763",
        "src640": "https://cdn.pixabay.com/photo/2023/11/29/14/34/santa-claus-8419763_640.jpg",
        "src1280": "https://cdn.pixabay.com/photo/2023/11/29/14/34/santa-claus-8419763_1280.jpg"
    },
    {
        "id": "8447603",
        "src640": "https://cdn.pixabay.com/photo/2023/12/13/20/10/ai-generated-8447603_640.jpg",
        "src1280": "https://cdn.pixabay.com/photo/2023/12/13/20/10/ai-generated-8447603_1280.jpg"
    },
    {
        "id": "8450076",
        "src640": "https://cdn.pixabay.com/photo/2023/12/15/05/22/christmas-8450076_640.jpg",
        "src1280": "https://cdn.pixabay.com/photo/2023/12/15/05/22/christmas-8450076_1280.jpg"
    },
    {
        "id": "2946315",
        "src640": "https://cdn.pixabay.com/photo/2017/11/13/17/52/santa-claus-2946315_640.jpg",
        "src1280": "https://cdn.pixabay.com/photo/2017/11/13/17/52/santa-claus-2946315_1280.jpg"
    },
    {
        "id": "3822421",
        "src640": "https://cdn.pixabay.com/photo/2018/11/18/02/45/ribbon-3822421_640.jpg",
        "src1280": "https://cdn.pixabay.com/photo/2018/11/18/02/45/ribbon-3822421_1280.jpg"
    },
    {
        "id": "8441766",
        "src640": "https://cdn.pixabay.com/photo/2023/12/10/15/56/ai-generated-8441766_640.jpg",
        "src1280": "https://cdn.pixabay.com/photo/2023/12/10/15/56/ai-generated-8441766_1280.jpg"
    },
    {
        "id": "8442350",
        "src640": "https://cdn.pixabay.com/photo/2023/12/10/21/30/ai-generated-8442350_640.jpg",
        "src1280": "https://cdn.pixabay.com/photo/2023/12/10/21/30/ai-generated-8442350_1280.jpg"
    },
    {
        "id": "8450436",
        "src640": "https://cdn.pixabay.com/photo/2023/12/15/11/20/christmas-8450436_640.jpg",
        "src1280": "https://cdn.pixabay.com/photo/2023/12/15/11/20/christmas-8450436_1280.jpg"
    },
    {
        "id": "8465477",
        "src640": "https://cdn.pixabay.com/photo/2023/12/23/12/44/ai-generated-8465477_640.jpg",
        "src1280": "https://cdn.pixabay.com/photo/2023/12/23/12/44/ai-generated-8465477_1280.jpg"
    },
    {
        "id": "8388059",
        "src640": "https://cdn.pixabay.com/photo/2023/11/14/16/02/santa-claus-8388059_640.jpg",
        "src1280": "https://cdn.pixabay.com/photo/2023/11/14/16/02/santa-claus-8388059_1280.jpg"
    },
    {
        "id": "8455807",
        "src640": "https://cdn.pixabay.com/photo/2023/12/18/11/18/ai-generated-8455807_640.jpg",
        "src1280": "https://cdn.pixabay.com/photo/2023/12/18/11/18/ai-generated-8455807_1280.jpg"
    },
    {
        "id": "8442347",
        "src640": "https://cdn.pixabay.com/photo/2023/12/10/21/30/ai-generated-8442347_640.jpg",
        "src1280": "https://cdn.pixabay.com/photo/2023/12/10/21/30/ai-generated-8442347_1280.jpg"
    },
    {
        "id": "8462021",
        "src640": "https://cdn.pixabay.com/photo/2023/12/21/15/30/gingerbread-8462021_640.jpg",
        "src1280": "https://cdn.pixabay.com/photo/2023/12/21/15/30/gingerbread-8462021_1280.jpg"
    },
    {
        "id": "8467383",
        "src640": "https://cdn.pixabay.com/photo/2023/12/24/15/21/dragon-8467383_640.jpg",
        "src1280": "https://cdn.pixabay.com/photo/2023/12/24/15/21/dragon-8467383_1280.jpg"
    },
    {
        "id": "8433476",
        "src640": "https://cdn.pixabay.com/photo/2023/12/06/10/50/ai-generated-8433476_640.jpg",
        "src1280": "https://cdn.pixabay.com/photo/2023/12/06/10/50/ai-generated-8433476_1280.jpg"
    },
    {
        "id": "8420564",
        "src640": "https://cdn.pixabay.com/photo/2023/11/30/00/30/ai-generated-8420564_640.jpg",
        "src1280": "https://cdn.pixabay.com/photo/2023/11/30/00/30/ai-generated-8420564_1280.jpg"
    },
    {
        "id": "8461593",
        "src640": "https://cdn.pixabay.com/photo/2023/12/21/09/44/building-8461593_640.jpg",
        "src1280": "https://cdn.pixabay.com/photo/2023/12/21/09/44/building-8461593_1280.jpg"
    },
    {
        "id": "8449358",
        "src640": "https://cdn.pixabay.com/photo/2023/12/14/17/52/ai-generated-8449358_640.jpg",
        "src1280": "https://cdn.pixabay.com/photo/2023/12/14/17/52/ai-generated-8449358_1280.jpg"
    },
    {
        "id": "8442634",
        "src640": "https://cdn.pixabay.com/photo/2023/12/11/03/54/girl-8442634_640.jpg",
        "src1280": "https://cdn.pixabay.com/photo/2023/12/11/03/54/girl-8442634_1280.jpg"
    },
    {
        "id": "8441719",
        "src640": "https://cdn.pixabay.com/photo/2023/12/10/15/54/ai-generated-8441719_640.jpg",
        "src1280": "https://cdn.pixabay.com/photo/2023/12/10/15/54/ai-generated-8441719_1280.jpg"
    },
    {
        "id": "8337017",
        "src640": "https://cdn.pixabay.com/photo/2023/10/23/21/10/ai-generated-8337017_640.jpg",
        "src1280": "https://cdn.pixabay.com/photo/2023/10/23/21/10/ai-generated-8337017_1280.jpg"
    },
    {
        "id": "8462026",
        "src640": "https://cdn.pixabay.com/photo/2023/12/21/15/30/love-8462026_640.jpg",
        "src1280": "https://cdn.pixabay.com/photo/2023/12/21/15/30/love-8462026_1280.jpg"
    },
    {
        "id": "3876145",
        "src640": "https://cdn.pixabay.com/photo/2018/12/15/00/36/merry-christmas-3876145_640.jpg",
        "src1280": "https://cdn.pixabay.com/photo/2018/12/15/00/36/merry-christmas-3876145_1280.jpg"
    },
    {
        "id": "8442349",
        "src640": "https://cdn.pixabay.com/photo/2023/12/10/21/30/ai-generated-8442349_640.jpg",
        "src1280": "https://cdn.pixabay.com/photo/2023/12/10/21/30/ai-generated-8442349_1280.jpg"
    },
    {
        "id": "8462150",
        "src640": "https://cdn.pixabay.com/photo/2023/12/21/16/08/house-8462150_640.jpg",
        "src1280": "https://cdn.pixabay.com/photo/2023/12/21/16/08/house-8462150_1280.jpg"
    },
    {
        "id": "8442348",
        "src640": "https://cdn.pixabay.com/photo/2023/12/10/21/30/ai-generated-8442348_640.jpg",
        "src1280": "https://cdn.pixabay.com/photo/2023/12/10/21/30/ai-generated-8442348_1280.jpg"
    },
    {
        "id": "8484946",
        "src640": "https://cdn.pixabay.com/photo/2024/01/03/08/54/ai-generated-8484946_640.jpg",
        "src1280": "https://cdn.pixabay.com/photo/2024/01/03/08/54/ai-generated-8484946_1280.jpg"
    },
    {
        "id": "8423865",
        "src640": "https://cdn.pixabay.com/photo/2023/12/01/15/11/ai-generated-8423865_640.jpg",
        "src1280": "https://cdn.pixabay.com/photo/2023/12/01/15/11/ai-generated-8423865_1280.jpg"
    },
    {
        "id": "8431505",
        "src640": "https://cdn.pixabay.com/photo/2023/12/05/12/00/christmas-8431505_640.jpg",
        "src1280": "https://cdn.pixabay.com/photo/2023/12/05/12/00/christmas-8431505_1280.jpg"
    },
    {
        "id": "8443500",
        "src640": "https://cdn.pixabay.com/photo/2023/12/11/12/34/christmas-background-8443500_640.jpg",
        "src1280": "https://cdn.pixabay.com/photo/2023/12/11/12/34/christmas-background-8443500_1280.jpg"
    },
    {
        "id": "8467561",
        "src640": "https://cdn.pixabay.com/photo/2023/12/24/18/51/ornament-8467561_640.jpg",
        "src1280": "https://cdn.pixabay.com/photo/2023/12/24/18/51/ornament-8467561_1280.jpg"
    },
    {
        "id": "8474934",
        "src640": "https://cdn.pixabay.com/photo/2023/12/28/21/03/ai-generated-8474934_640.jpg",
        "src1280": "https://cdn.pixabay.com/photo/2023/12/28/21/03/ai-generated-8474934_1280.jpg"
    },
    {
        "id": "8419759",
        "src640": "https://cdn.pixabay.com/photo/2023/11/29/14/29/santa-claus-8419759_640.jpg",
        "src1280": "https://cdn.pixabay.com/photo/2023/11/29/14/29/santa-claus-8419759_1280.jpg"
    },
    {
        "id": "8312619",
        "src640": "https://cdn.pixabay.com/photo/2023/10/13/11/18/ai-generated-8312619_640.jpg",
        "src1280": "https://cdn.pixabay.com/photo/2023/10/13/11/18/ai-generated-8312619_1280.jpg"
    },
    {
        "id": "6122514",
        "src640": "https://cdn.pixabay.com/photo/2021/03/25/09/23/holly-6122514_640.jpg",
        "src1280": "https://cdn.pixabay.com/photo/2021/03/25/09/23/holly-6122514_1280.jpg"
    },
    {
        "id": "1144820",
        "src640": "https://cdn.pixabay.com/photo/2016/01/17/12/28/capuccino-1144820_640.jpg",
        "src1280": "https://cdn.pixabay.com/photo/2016/01/17/12/28/capuccino-1144820_1280.jpg"
    },
    {
        "id": "8312615",
        "src640": "https://cdn.pixabay.com/photo/2023/10/13/11/18/ai-generated-8312615_640.jpg",
        "src1280": "https://cdn.pixabay.com/photo/2023/10/13/11/18/ai-generated-8312615_1280.jpg"
    },
    {
        "id": "8462129",
        "src640": "https://cdn.pixabay.com/photo/2023/12/21/16/08/child-8462129_640.jpg",
        "src1280": "https://cdn.pixabay.com/photo/2023/12/21/16/08/child-8462129_1280.jpg"
    },
    {
        "id": "8256142",
        "src640": "https://cdn.pixabay.com/photo/2023/09/16/07/11/ai-generated-8256142_640.jpg",
        "src1280": "https://cdn.pixabay.com/photo/2023/09/16/07/11/ai-generated-8256142_1280.jpg"
    },
    {
        "id": "8425430",
        "src640": "https://cdn.pixabay.com/photo/2023/12/02/10/39/ai-generated-8425430_640.jpg",
        "src1280": "https://cdn.pixabay.com/photo/2023/12/02/10/39/ai-generated-8425430_1280.jpg"
    },
    {
        "id": "8463179",
        "src640": "https://cdn.pixabay.com/photo/2023/12/22/05/59/christmas-8463179_640.jpg",
        "src1280": "https://cdn.pixabay.com/photo/2023/12/22/05/59/christmas-8463179_1280.jpg"
    },
    {
        "id": "8465478",
        "src640": "https://cdn.pixabay.com/photo/2023/12/23/12/44/ai-generated-8465478_640.jpg",
        "src1280": "https://cdn.pixabay.com/photo/2023/12/23/12/44/ai-generated-8465478_1280.jpg"
    },
    {
        "id": "8465481",
        "src640": "https://cdn.pixabay.com/photo/2023/12/23/12/46/ai-generated-8465481_640.jpg",
        "src1280": "https://cdn.pixabay.com/photo/2023/12/23/12/46/ai-generated-8465481_1280.jpg"
    },
    {
        "id": "8426975",
        "src640": "https://cdn.pixabay.com/photo/2023/12/03/06/44/ai-generated-8426975_640.jpg",
        "src1280": "https://cdn.pixabay.com/photo/2023/12/03/06/44/ai-generated-8426975_1280.jpg"
    },
    {
        "id": "8427383",
        "src640": "https://cdn.pixabay.com/photo/2023/12/03/11/56/ai-generated-8427383_640.jpg",
        "src1280": "https://cdn.pixabay.com/photo/2023/12/03/11/56/ai-generated-8427383_1280.jpg"
    },
    {
        "id": "489071",
        "src640": "https://cdn.pixabay.com/photo/2014/10/15/01/45/dog-489071_640.jpg",
        "src1280": "https://cdn.pixabay.com/photo/2014/10/15/01/45/dog-489071_1280.jpg"
    },
    {
        "id": "8446739",
        "src640": "https://cdn.pixabay.com/photo/2023/12/13/10/55/ai-generated-8446739_640.jpg",
        "src1280": "https://cdn.pixabay.com/photo/2023/12/13/10/55/ai-generated-8446739_1280.jpg"
    },
    {
        "id": "8441727",
        "src640": "https://cdn.pixabay.com/photo/2023/12/10/15/54/ai-generated-8441727_640.jpg",
        "src1280": "https://cdn.pixabay.com/photo/2023/12/10/15/54/ai-generated-8441727_1280.jpg"
    },
    {
        "id": "8434509",
        "src640": "https://cdn.pixabay.com/photo/2023/12/06/22/58/ai-generated-8434509_640.jpg",
        "src1280": "https://cdn.pixabay.com/photo/2023/12/06/22/58/ai-generated-8434509_1280.jpg"
    },
    {
        "id": "8427456",
        "src640": "https://cdn.pixabay.com/photo/2023/12/03/12/45/ai-generated-8427456_640.jpg",
        "src1280": "https://cdn.pixabay.com/photo/2023/12/03/12/45/ai-generated-8427456_1280.jpg"
    },
    {
        "id": "8464111",
        "src640": "https://cdn.pixabay.com/photo/2023/12/22/17/22/christmas-8464111_640.jpg",
        "src1280": "https://cdn.pixabay.com/photo/2023/12/22/17/22/christmas-8464111_1280.jpg"
    }
]