[
    {
        "id": "4732375",
        "src640": "https://cdn.pixabay.com/photo/2019/12/31/17/33/evening-4732375_640.jpg",
        "src1280": "https://cdn.pixabay.com/photo/2019/12/31/17/33/evening-4732375_1280.jpg"
    },
    {
        "id": "8247557",
        "src640": "https://cdn.pixabay.com/photo/2023/09/11/21/22/ai-generated-8247557_640.jpg",
        "src1280": "https://cdn.pixabay.com/photo/2023/09/11/21/22/ai-generated-8247557_1280.jpg"
    },
    {
        "id": "5828883",
        "src640": "https://cdn.pixabay.com/photo/2020/12/13/17/23/christmas-5828883_640.jpg",
        "src1280": "https://cdn.pixabay.com/photo/2020/12/13/17/23/christmas-5828883_1280.jpg"
    },
    {
        "id": "588433",
        "src640": "https://cdn.pixabay.com/photo/2015/01/04/16/15/candle-588433_640.jpg",
        "src1280": "https://cdn.pixabay.com/photo/2015/01/04/16/15/candle-588433_1280.jpg"
    },
    {
        "id": "4228341",
        "src640": "https://cdn.pixabay.com/photo/2019/05/25/13/09/baby-doll-4228341_640.jpg",
        "src1280": "https://cdn.pixabay.com/photo/2019/05/25/13/09/baby-doll-4228341_1280.jpg"
    },
    {
        "id": "6921203",
        "src640": "https://cdn.pixabay.com/photo/2022/01/07/06/53/ornament-6921203_640.jpg",
        "src1280": "https://cdn.pixabay.com/photo/2022/01/07/06/53/ornament-6921203_1280.jpg"
    },
    {
        "id": "549180",
        "src640": "https://cdn.pixabay.com/photo/2014/11/28/20/07/santa-claus-549180_640.jpg",
        "src1280": "https://cdn.pixabay.com/photo/2014/11/28/20/07/santa-claus-549180_1280.jpg"
    },
    {
        "id": "2999466",
        "src640": "https://cdn.pixabay.com/photo/2017/12/05/14/30/moose-2999466_640.jpg",
        "src1280": "https://cdn.pixabay.com/photo/2017/12/05/14/30/moose-2999466_1280.jpg"
    },
    {
        "id": "8420565",
        "src640": "https://cdn.pixabay.com/photo/2023/11/30/00/31/ai-generated-8420565_640.jpg",
        "src1280": "https://cdn.pixabay.com/photo/2023/11/30/00/31/ai-generated-8420565_1280.jpg"
    },
    {
        "id": "4443745",
        "src640": "https://cdn.pixabay.com/photo/2019/08/31/17/55/santa-4443745_640.jpg",
        "src1280": "https://cdn.pixabay.com/photo/2019/08/31/17/55/santa-4443745_1280.jpg"
    },
    {
        "id": "7646522",
        "src640": "https://cdn.pixabay.com/photo/2022/12/10/03/22/christmas-card-7646522_640.jpg",
        "src1280": "https://cdn.pixabay.com/photo/2022/12/10/03/22/christmas-card-7646522_1280.jpg"
    },
    {
        "id": "557499",
        "src640": "https://cdn.pixabay.com/photo/2014/12/05/04/13/german-shepherd-557499_640.jpg",
        "src1280": "https://cdn.pixabay.com/photo/2014/12/05/04/13/german-shepherd-557499_1280.jpg"
    },
    {
        "id": "8408679",
        "src640": "https://cdn.pixabay.com/photo/2023/11/23/20/28/ai-generated-8408679_640.jpg",
        "src1280": "https://cdn.pixabay.com/photo/2023/11/23/20/28/ai-generated-8408679_1280.jpg"
    },
    {
        "id": "1058672",
        "src640": "https://cdn.pixabay.com/photo/2015/11/23/17/01/christmas-tree-1058672_640.jpg",
        "src1280": "https://cdn.pixabay.com/photo/2015/11/23/17/01/christmas-tree-1058672_1280.jpg"
    },
    {
        "id": "8441743",
        "src640": "https://cdn.pixabay.com/photo/2023/12/10/15/55/ai-generated-8441743_640.jpg",
        "src1280": "https://cdn.pixabay.com/photo/2023/12/10/15/55/ai-generated-8441743_1280.jpg"
    },
    {
        "id": "8390691",
        "src640": "https://cdn.pixabay.com/photo/2023/11/15/17/55/ai-generated-8390691_640.jpg",
        "src1280": "https://cdn.pixabay.com/photo/2023/11/15/17/55/ai-generated-8390691_1280.jpg"
    },
    {
        "id": "8411871",
        "src640": "https://cdn.pixabay.com/photo/2023/11/25/14/50/ai-generated-8411871_640.jpg",
        "src1280": "https://cdn.pixabay.com/photo/2023/11/25/14/50/ai-generated-8411871_1280.jpg"
    },
    {
        "id": "898548",
        "src640": "https://cdn.pixabay.com/photo/2015/08/21/07/51/snowflakes-898548_640.jpg",
        "src1280": "https://cdn.pixabay.com/photo/2015/08/21/07/51/snowflakes-898548_1280.jpg"
    },
    {
        "id": "1047643",
        "src640": "https://cdn.pixabay.com/photo/2015/11/17/14/24/fir-1047643_640.jpg",
        "src1280": "https://cdn.pixabay.com/photo/2015/11/17/14/24/fir-1047643_1280.jpg"
    },
    {
        "id": "2743943",
        "src640": "https://cdn.pixabay.com/photo/2017/09/12/22/51/christmas-2743943_640.jpg",
        "src1280": "https://cdn.pixabay.com/photo/2017/09/12/22/51/christmas-2743943_1280.jpg"
    },
    {
        "id": "3880730",
        "src640": "https://cdn.pixabay.com/photo/2018/12/17/16/27/santa-claus-3880730_640.jpg",
        "src1280": "https://cdn.pixabay.com/photo/2018/12/17/16/27/santa-claus-3880730_1280.jpg"
    },
    {
        "id": "3851823",
        "src640": "https://cdn.pixabay.com/photo/2018/12/02/18/45/candles-3851823_640.jpg",
        "src1280": "https://cdn.pixabay.com/photo/2018/12/02/18/45/candles-3851823_1280.jpg"
    },
    {
        "id": "3872346",
        "src640": "https://cdn.pixabay.com/photo/2018/12/13/08/02/santa-claus-3872346_640.jpg",
        "src1280": "https://cdn.pixabay.com/photo/2018/12/13/08/02/santa-claus-3872346_1280.jpg"
    },
    {
        "id": "4688840",
        "src640": "https://cdn.pixabay.com/photo/2019/12/11/17/34/flat-lay-4688840_640.jpg",
        "src1280": "https://cdn.pixabay.com/photo/2019/12/11/17/34/flat-lay-4688840_1280.jpg"
    },
    {
        "id": "1831040",
        "src640": "https://cdn.pixabay.com/photo/2016/11/17/09/08/template-1831040_640.jpg",
        "src1280": "https://cdn.pixabay.com/photo/2016/11/17/09/08/template-1831040_1280.jpg"
    },
    {
        "id": "3660990",
        "src640": "https://cdn.pixabay.com/photo/2018/09/07/16/17/lined-journal-page-3660990_640.jpg",
        "src1280": "https://cdn.pixabay.com/photo/2018/09/07/16/17/lined-journal-page-3660990_1280.jpg"
    },
    {
        "id": "6934848",
        "src640": "https://cdn.pixabay.com/photo/2022/01/13/10/04/postcard-6934848_640.jpg",
        "src1280": "https://cdn.pixabay.com/photo/2022/01/13/10/04/postcard-6934848_1280.jpg"
    },
    {
        "id": "8426981",
        "src640": "https://cdn.pixabay.com/photo/2023/12/03/06/51/ai-generated-8426981_640.jpg",
        "src1280": "https://cdn.pixabay.com/photo/2023/12/03/06/51/ai-generated-8426981_1280.jpg"
    },
    {
        "id": "2954501",
        "src640": "https://cdn.pixabay.com/photo/2017/11/16/13/01/decoration-2954501_640.jpg",
        "src1280": "https://cdn.pixabay.com/photo/2017/11/16/13/01/decoration-2954501_1280.jpg"
    },
    {
        "id": "8300921",
        "src640": "https://cdn.pixabay.com/photo/2023/10/07/21/08/ai-generated-8300921_640.jpg",
        "src1280": "https://cdn.pixabay.com/photo/2023/10/07/21/08/ai-generated-8300921_1280.jpg"
    },
    {
        "id": "1088146",
        "src640": "https://cdn.pixabay.com/photo/2015/12/11/14/02/poinsettia-tree-1088146_640.jpg",
        "src1280": "https://cdn.pixabay.com/photo/2015/12/11/14/02/poinsettia-tree-1088146_1280.jpg"
    },
    {
        "id": "1885269",
        "src640": "https://cdn.pixabay.com/photo/2016/12/06/00/31/fir-ball-1885269_640.jpg",
        "src1280": "https://cdn.pixabay.com/photo/2016/12/06/00/31/fir-ball-1885269_1280.jpg"
    },
    {
        "id": "5832674",
        "src640": "https://cdn.pixabay.com/photo/2020/12/15/05/04/woman-5832674_640.jpg",
        "src1280": "https://cdn.pixabay.com/photo/2020/12/15/05/04/woman-5832674_1280.jpg"
    },
    {
        "id": "8389812",
        "src640": "https://cdn.pixabay.com/photo/2023/11/15/11/49/christmas-8389812_640.jpg",
        "src1280": "https://cdn.pixabay.com/photo/2023/11/15/11/49/christmas-8389812_1280.jpg"
    },
    {
        "id": "1893490",
        "src640": "https://cdn.pixabay.com/photo/2016/12/09/00/48/winter-1893490_640.jpg",
        "src1280": "https://cdn.pixabay.com/photo/2016/12/09/00/48/winter-1893490_1280.jpg"
    },
    {
        "id": "8413326",
        "src640": "https://cdn.pixabay.com/photo/2023/11/26/10/56/ai-generated-8413326_640.jpg",
        "src1280": "https://cdn.pixabay.com/photo/2023/11/26/10/56/ai-generated-8413326_1280.jpg"
    },
    {
        "id": "8367050",
        "src640": "https://cdn.pixabay.com/photo/2023/11/05/12/45/christmas-tree-8367050_640.jpg",
        "src1280": "https://cdn.pixabay.com/photo/2023/11/05/12/45/christmas-tree-8367050_1280.jpg"
    },
    {
        "id": "8420201",
        "src640": "https://cdn.pixabay.com/photo/2023/11/29/19/10/cake-8420201_640.jpg",
        "src1280": "https://cdn.pixabay.com/photo/2023/11/29/19/10/cake-8420201_1280.jpg"
    },
    {
        "id": "8399034",
        "src640": "https://cdn.pixabay.com/photo/2023/11/19/15/32/christmas-8399034_640.jpg",
        "src1280": "https://cdn.pixabay.com/photo/2023/11/19/15/32/christmas-8399034_1280.jpg"
    },
    {
        "id": "2721707",
        "src640": "https://cdn.pixabay.com/photo/2017/09/06/14/35/weather-2721707_640.jpg",
        "src1280": "https://cdn.pixabay.com/photo/2017/09/06/14/35/weather-2721707_1280.jpg"
    },
    {
        "id": "3052781",
        "src640": "https://cdn.pixabay.com/photo/2017/12/31/17/06/christmas-3052781_640.jpg",
        "src1280": "https://cdn.pixabay.com/photo/2017/12/31/17/06/christmas-3052781_1280.jpg"
    },
    {
        "id": "5761576",
        "src640": "https://cdn.pixabay.com/photo/2020/11/20/13/13/santa-claus-5761576_640.jpg",
        "src1280": "https://cdn.pixabay.com/photo/2020/11/20/13/13/santa-claus-5761576_1280.jpg"
    },
    {
        "id": "1074479",
        "src640": "https://cdn.pixabay.com/photo/2015/12/03/09/53/candle-1074479_640.jpg",
        "src1280": "https://cdn.pixabay.com/photo/2015/12/03/09/53/candle-1074479_1280.jpg"
    },
    {
        "id": "8465441",
        "src640": "https://cdn.pixabay.com/photo/2023/12/23/12/23/christmas-8465441_640.jpg",
        "src1280": "https://cdn.pixabay.com/photo/2023/12/23/12/23/christmas-8465441_1280.jpg"
    },
    {
        "id": "4688836",
        "src640": "https://cdn.pixabay.com/photo/2019/12/11/17/34/flat-lay-4688836_640.jpg",
        "src1280": "https://cdn.pixabay.com/photo/2019/12/11/17/34/flat-lay-4688836_1280.jpg"
    },
    {
        "id": "8462144",
        "src640": "https://cdn.pixabay.com/photo/2023/12/21/16/08/town-8462144_640.jpg",
        "src1280": "https://cdn.pixabay.com/photo/2023/12/21/16/08/town-8462144_1280.jpg"
    },
    {
        "id": "514211",
        "src640": "https://cdn.pixabay.com/photo/2014/11/02/16/31/christmas-514211_640.jpg",
        "src1280": "https://cdn.pixabay.com/photo/2014/11/02/16/31/christmas-514211_1280.jpg"
    },
    {
        "id": "8267155",
        "src640": "https://cdn.pixabay.com/photo/2023/09/21/16/41/ai-generated-8267155_640.jpg",
        "src1280": "https://cdn.pixabay.com/photo/2023/09/21/16/41/ai-generated-8267155_1280.jpg"
    },
    {
        "id": "8357278",
        "src640": "https://cdn.pixabay.com/photo/2023/11/01/11/39/winter-8357278_640.jpg",
        "src1280": "https://cdn.pixabay.com/photo/2023/11/01/11/39/winter-8357278_1280.jpg"
    },
    {
        "id": "3843773",
        "src640": "https://cdn.pixabay.com/photo/2018/11/28/14/09/illustration-3843773_640.jpg",
        "src1280": "https://cdn.pixabay.com/photo/2018/11/28/14/09/illustration-3843773_1280.jpg"
    },
    {
        "id": "6814129",
        "src640": "https://cdn.pixabay.com/photo/2021/11/21/13/26/flowers-6814129_640.jpg",
        "src1280": "https://cdn.pixabay.com/photo/2021/11/21/13/26/flowers-6814129_1280.jpg"
    },
    {
        "id": "8483555",
        "src640": "https://cdn.pixabay.com/photo/2024/01/02/16/37/jelly-8483555_640.jpg",
        "src1280": "https://cdn.pixabay.com/photo/2024/01/02/16/37/jelly-8483555_1280.jpg"
    },
    {
        "id": "8100774",
        "src640": "https://cdn.pixabay.com/photo/2023/07/01/19/29/ai-generated-8100774_640.jpg",
        "src1280": "https://cdn.pixabay.com/photo/2023/07/01/19/29/ai-generated-8100774_1280.jpg"
    },
    {
        "id": "2901092",
        "src640": "https://cdn.pixabay.com/photo/2017/10/29/23/35/furry-teddy-bear-2901092_640.jpg",
        "src1280": "https://cdn.pixabay.com/photo/2017/10/29/23/35/furry-teddy-bear-2901092_1280.jpg"
    },
    {
        "id": "5749862",
        "src640": "https://cdn.pixabay.com/photo/2020/11/16/18/06/santa-claus-5749862_640.jpg",
        "src1280": "https://cdn.pixabay.com/photo/2020/11/16/18/06/santa-claus-5749862_1280.jpg"
    },
    {
        "id": "7621799",
        "src640": "https://cdn.pixabay.com/photo/2022/11/28/11/15/generated-7621799_640.jpg",
        "src1280": "https://cdn.pixabay.com/photo/2022/11/28/11/15/generated-7621799_1280.jpg"
    },
    {
        "id": "8390875",
        "src640": "https://cdn.pixabay.com/photo/2023/11/15/19/39/christmas-8390875_640.jpg",
        "src1280": "https://cdn.pixabay.com/photo/2023/11/15/19/39/christmas-8390875_1280.jpg"
    },
    {
        "id": "8440895",
        "src640": "https://cdn.pixabay.com/photo/2023/12/10/09/33/christmas-8440895_640.jpg",
        "src1280": "https://cdn.pixabay.com/photo/2023/12/10/09/33/christmas-8440895_1280.jpg"
    },
    {
        "id": "3886977",
        "src640": "https://cdn.pixabay.com/photo/2018/12/20/23/15/manger-3886977_640.jpg",
        "src1280": "https://cdn.pixabay.com/photo/2018/12/20/23/15/manger-3886977_1280.jpg"
    },
    {
        "id": "3019886",
        "src640": "https://cdn.pixabay.com/photo/2017/12/14/22/26/christmas-3019886_640.jpg",
        "src1280": "https://cdn.pixabay.com/photo/2017/12/14/22/26/christmas-3019886_1280.jpg"
    },
    {
        "id": "1488977",
        "src640": "https://cdn.pixabay.com/photo/2016/06/30/13/12/dog-1488977_640.jpg",
        "src1280": "https://cdn.pixabay.com/photo/2016/06/30/13/12/dog-1488977_1280.jpg"
    },
    {
        "id": "3014909",
        "src640": "https://cdn.pixabay.com/photo/2017/12/12/15/24/christmas-3014909_640.jpg",
        "src1280": "https://cdn.pixabay.com/photo/2017/12/12/15/24/christmas-3014909_1280.jpg"
    },
    {
        "id": "678908",
        "src640": "https://cdn.pixabay.com/photo/2015/03/18/07/47/snow-678908_640.jpg",
        "src1280": "https://cdn.pixabay.com/photo/2015/03/18/07/47/snow-678908_1280.jpg"
    },
    {
        "id": "3830399",
        "src640": "https://cdn.pixabay.com/photo/2018/11/21/19/42/woman-3830399_640.jpg",
        "src1280": "https://cdn.pixabay.com/photo/2018/11/21/19/42/woman-3830399_1280.jpg"
    }
]