[
    {
        "id": "4271931",
        "src640": "https://cdn.pixabay.com/photo/2019/06/13/16/00/church-window-4271931_640.jpg",
        "src1280": "https://cdn.pixabay.com/photo/2019/06/13/16/00/church-window-4271931_1280.jpg"
    },
    {
        "id": "6856574",
        "src640": "https://cdn.pixabay.com/photo/2021/12/08/19/38/christmas-6856574_640.jpg",
        "src1280": "https://cdn.pixabay.com/photo/2021/12/08/19/38/christmas-6856574_1280.jpg"
    },
    {
        "id": "1861967",
        "src640": "https://cdn.pixabay.com/photo/2016/11/27/02/04/christmas-tree-1861967_640.jpg",
        "src1280": "https://cdn.pixabay.com/photo/2016/11/27/02/04/christmas-tree-1861967_1280.jpg"
    },
    {
        "id": "8418082",
        "src640": "https://cdn.pixabay.com/photo/2023/11/28/19/11/ai-generated-8418082_640.jpg",
        "src1280": "https://cdn.pixabay.com/photo/2023/11/28/19/11/ai-generated-8418082_1280.jpg"
    },
    {
        "id": "6285996",
        "src640": "https://cdn.pixabay.com/photo/2021/05/26/18/06/winter-6285996_640.jpg",
        "src1280": "https://cdn.pixabay.com/photo/2021/05/26/18/06/winter-6285996_1280.jpg"
    },
    {
        "id": "2862967",
        "src640": "https://cdn.pixabay.com/photo/2017/10/18/05/11/pattern-2862967_640.jpg",
        "src1280": "https://cdn.pixabay.com/photo/2017/10/18/05/11/pattern-2862967_1280.jpg"
    },
    {
        "id": "1841438",
        "src640": "https://cdn.pixabay.com/photo/2016/11/19/22/20/figure-1841438_640.jpg",
        "src1280": "https://cdn.pixabay.com/photo/2016/11/19/22/20/figure-1841438_1280.jpg"
    },
    {
        "id": "3871045",
        "src640": "https://cdn.pixabay.com/photo/2018/12/12/15/39/christmas-3871045_640.jpg",
        "src1280": "https://cdn.pixabay.com/photo/2018/12/12/15/39/christmas-3871045_1280.jpg"
    },
    {
        "id": "6877168",
        "src640": "https://cdn.pixabay.com/photo/2021/12/17/18/50/myfestiveseason-6877168_640.jpg",
        "src1280": "https://cdn.pixabay.com/photo/2021/12/17/18/50/myfestiveseason-6877168_1280.jpg"
    },
    {
        "id": "4359798",
        "src640": "https://cdn.pixabay.com/photo/2019/07/24/10/17/christmas-4359798_640.jpg",
        "src1280": "https://cdn.pixabay.com/photo/2019/07/24/10/17/christmas-4359798_1280.jpg"
    },
    {
        "id": "1884362",
        "src640": "https://cdn.pixabay.com/photo/2016/12/05/16/56/lantern-1884362_640.jpg",
        "src1280": "https://cdn.pixabay.com/photo/2016/12/05/16/56/lantern-1884362_1280.jpg"
    },
    {
        "id": "5846675",
        "src640": "https://cdn.pixabay.com/photo/2020/12/20/10/57/new-years-eve-5846675_640.jpg",
        "src1280": "https://cdn.pixabay.com/photo/2020/12/20/10/57/new-years-eve-5846675_1280.jpg"
    },
    {
        "id": "5243804",
        "src640": "https://cdn.pixabay.com/photo/2020/05/31/19/03/winter-5243804_640.jpg",
        "src1280": "https://cdn.pixabay.com/photo/2020/05/31/19/03/winter-5243804_1280.jpg"
    },
    {
        "id": "3747016",
        "src640": "https://cdn.pixabay.com/photo/2018/10/14/17/58/anise-3747016_640.jpg",
        "src1280": "https://cdn.pixabay.com/photo/2018/10/14/17/58/anise-3747016_1280.jpg"
    },
    {
        "id": "7629912",
        "src640": "https://cdn.pixabay.com/photo/2022/12/01/23/09/christmas-7629912_640.jpg",
        "src1280": "https://cdn.pixabay.com/photo/2022/12/01/23/09/christmas-7629912_1280.jpg"
    },
    {
        "id": "1184530",
        "src640": "https://cdn.pixabay.com/photo/2016/02/07/12/23/candle-1184530_640.jpg",
        "src1280": "https://cdn.pixabay.com/photo/2016/02/07/12/23/candle-1184530_1280.jpg"
    },
    {
        "id": "6872287",
        "src640": "https://cdn.pixabay.com/photo/2021/12/15/10/49/decoration-6872287_640.jpg",
        "src1280": "https://cdn.pixabay.com/photo/2021/12/15/10/49/decoration-6872287_1280.jpg"
    },
    {
        "id": "6580179",
        "src640": "https://cdn.pixabay.com/photo/2021/08/28/06/38/candles-6580179_640.jpg",
        "src1280": "https://cdn.pixabay.com/photo/2021/08/28/06/38/candles-6580179_1280.jpg"
    },
    {
        "id": "6893129",
        "src640": "https://cdn.pixabay.com/photo/2021/12/25/13/25/new-year-6893129_640.jpg",
        "src1280": "https://cdn.pixabay.com/photo/2021/12/25/13/25/new-year-6893129_1280.jpg"
    },
    {
        "id": "7473672",
        "src640": "https://cdn.pixabay.com/photo/2022/09/23/05/22/winter-7473672_640.jpg",
        "src1280": "https://cdn.pixabay.com/photo/2022/09/23/05/22/winter-7473672_1280.jpg"
    },
    {
        "id": "5776423",
        "src640": "https://cdn.pixabay.com/photo/2020/11/25/16/46/drip-5776423_640.jpg",
        "src1280": "https://cdn.pixabay.com/photo/2020/11/25/16/46/drip-5776423_1280.jpg"
    },
    {
        "id": "4045462",
        "src640": "https://cdn.pixabay.com/photo/2019/03/10/04/41/cat-4045462_640.jpg",
        "src1280": "https://cdn.pixabay.com/photo/2019/03/10/04/41/cat-4045462_1280.jpg"
    },
    {
        "id": "3715799",
        "src640": "https://cdn.pixabay.com/photo/2018/10/01/09/59/paris-3715799_640.jpg",
        "src1280": "https://cdn.pixabay.com/photo/2018/10/01/09/59/paris-3715799_1280.jpg"
    },
    {
        "id": "3899871",
        "src640": "https://cdn.pixabay.com/photo/2018/12/28/16/11/christmas-3899871_640.jpg",
        "src1280": "https://cdn.pixabay.com/photo/2018/12/28/16/11/christmas-3899871_1280.jpg"
    },
    {
        "id": "5792491",
        "src640": "https://cdn.pixabay.com/photo/2020/11/30/22/34/christmas-5792491_640.jpg",
        "src1280": "https://cdn.pixabay.com/photo/2020/11/30/22/34/christmas-5792491_1280.jpg"
    },
    {
        "id": "1813954",
        "src640": "https://cdn.pixabay.com/photo/2016/11/10/10/30/christmas-greetings-1813954_640.jpg",
        "src1280": "https://cdn.pixabay.com/photo/2016/11/10/10/30/christmas-greetings-1813954_1280.jpg"
    },
    {
        "id": "3889921",
        "src640": "https://cdn.pixabay.com/photo/2018/12/22/16/39/door-3889921_640.jpg",
        "src1280": "https://cdn.pixabay.com/photo/2018/12/22/16/39/door-3889921_1280.jpg"
    },
    {
        "id": "8342016",
        "src640": "https://cdn.pixabay.com/photo/2023/10/26/08/01/girl-8342016_640.jpg",
        "src1280": "https://cdn.pixabay.com/photo/2023/10/26/08/01/girl-8342016_1280.jpg"
    },
    {
        "id": "1012743",
        "src640": "https://cdn.pixabay.com/photo/2015/10/29/18/25/wax-warmer-1012743_640.jpg",
        "src1280": "https://cdn.pixabay.com/photo/2015/10/29/18/25/wax-warmer-1012743_1280.jpg"
    },
    {
        "id": "8342023",
        "src640": "https://cdn.pixabay.com/photo/2023/10/26/08/04/girl-8342023_640.jpg",
        "src1280": "https://cdn.pixabay.com/photo/2023/10/26/08/04/girl-8342023_1280.jpg"
    },
    {
        "id": "727657",
        "src640": "https://cdn.pixabay.com/photo/2015/04/17/16/54/christmas-727657_640.jpg",
        "src1280": "https://cdn.pixabay.com/photo/2015/04/17/16/54/christmas-727657_1280.jpg"
    },
    {
        "id": "5838045",
        "src640": "https://cdn.pixabay.com/photo/2020/12/17/01/00/christmas-5838045_640.jpg",
        "src1280": "https://cdn.pixabay.com/photo/2020/12/17/01/00/christmas-5838045_1280.jpg"
    },
    {
        "id": "7655864",
        "src640": "https://cdn.pixabay.com/photo/2022/12/14/17/06/christmas-7655864_640.jpg",
        "src1280": "https://cdn.pixabay.com/photo/2022/12/14/17/06/christmas-7655864_1280.jpg"
    },
    {
        "id": "8407560",
        "src640": "https://cdn.pixabay.com/photo/2023/11/23/09/45/ai-generated-8407560_640.jpg",
        "src1280": "https://cdn.pixabay.com/photo/2023/11/23/09/45/ai-generated-8407560_1280.jpg"
    },
    {
        "id": "8111991",
        "src640": "https://cdn.pixabay.com/photo/2023/07/07/08/08/christmas-8111991_640.jpg",
        "src1280": "https://cdn.pixabay.com/photo/2023/07/07/08/08/christmas-8111991_1280.jpg"
    },
    {
        "id": "5820936",
        "src640": "https://cdn.pixabay.com/photo/2020/12/10/18/03/bell-5820936_640.jpg",
        "src1280": "https://cdn.pixabay.com/photo/2020/12/10/18/03/bell-5820936_1280.jpg"
    },
    {
        "id": "1870960",
        "src640": "https://cdn.pixabay.com/photo/2016/11/29/19/28/christmas-1870960_640.jpg",
        "src1280": "https://cdn.pixabay.com/photo/2016/11/29/19/28/christmas-1870960_1280.jpg"
    },
    {
        "id": "3896410",
        "src640": "https://cdn.pixabay.com/photo/2018/12/26/20/17/evening-3896410_640.jpg",
        "src1280": "https://cdn.pixabay.com/photo/2018/12/26/20/17/evening-3896410_1280.jpg"
    },
    {
        "id": "4734010",
        "src640": "https://cdn.pixabay.com/photo/2020/01/01/17/24/christmas-4734010_640.jpg",
        "src1280": "https://cdn.pixabay.com/photo/2020/01/01/17/24/christmas-4734010_1280.jpg"
    },
    {
        "id": "2983397",
        "src640": "https://cdn.pixabay.com/photo/2017/11/28/11/42/pie-2983397_640.jpg",
        "src1280": "https://cdn.pixabay.com/photo/2017/11/28/11/42/pie-2983397_1280.jpg"
    },
    {
        "id": "6856675",
        "src640": "https://cdn.pixabay.com/photo/2021/12/08/20/44/candles-6856675_640.jpg",
        "src1280": "https://cdn.pixabay.com/photo/2021/12/08/20/44/candles-6856675_1280.jpg"
    },
    {
        "id": "339603",
        "src640": "https://cdn.pixabay.com/photo/2014/05/07/12/43/christmas-339603_640.jpg",
        "src1280": "https://cdn.pixabay.com/photo/2014/05/07/12/43/christmas-339603_1280.jpg"
    },
    {
        "id": "8394788",
        "src640": "https://cdn.pixabay.com/photo/2023/11/17/18/11/ai-generated-8394788_640.jpg",
        "src1280": "https://cdn.pixabay.com/photo/2023/11/17/18/11/ai-generated-8394788_1280.jpg"
    },
    {
        "id": "1913554",
        "src640": "https://cdn.pixabay.com/photo/2016/12/17/14/29/angel-1913554_640.jpg",
        "src1280": "https://cdn.pixabay.com/photo/2016/12/17/14/29/angel-1913554_1280.jpg"
    },
    {
        "id": "7341036",
        "src640": "https://cdn.pixabay.com/photo/2022/07/24/05/22/background-7341036_640.jpg",
        "src1280": "https://cdn.pixabay.com/photo/2022/07/24/05/22/background-7341036_1280.jpg"
    },
    {
        "id": "3091000",
        "src640": "https://cdn.pixabay.com/photo/2018/01/18/18/55/christmas-3091000_640.jpg",
        "src1280": "https://cdn.pixabay.com/photo/2018/01/18/18/55/christmas-3091000_1280.jpg"
    },
    {
        "id": "8365574",
        "src640": "https://cdn.pixabay.com/photo/2023/11/04/18/05/ai-generated-8365574_640.jpg",
        "src1280": "https://cdn.pixabay.com/photo/2023/11/04/18/05/ai-generated-8365574_1280.jpg"
    },
    {
        "id": "3017961",
        "src640": "https://cdn.pixabay.com/photo/2017/12/13/23/25/cristmas-3017961_640.jpg",
        "src1280": "https://cdn.pixabay.com/photo/2017/12/13/23/25/cristmas-3017961_1280.jpg"
    },
    {
        "id": "4688841",
        "src640": "https://cdn.pixabay.com/photo/2019/12/11/17/34/flat-lay-4688841_640.jpg",
        "src1280": "https://cdn.pixabay.com/photo/2019/12/11/17/34/flat-lay-4688841_1280.jpg"
    },
    {
        "id": "183787",
        "src640": "https://cdn.pixabay.com/photo/2013/09/19/13/38/christmas-183787_640.jpg",
        "src1280": "https://cdn.pixabay.com/photo/2013/09/19/13/38/christmas-183787_1280.jpg"
    },
    {
        "id": "673018",
        "src640": "https://cdn.pixabay.com/photo/2015/03/14/09/54/advent-calendar-673018_640.jpg",
        "src1280": "https://cdn.pixabay.com/photo/2015/03/14/09/54/advent-calendar-673018_1280.jpg"
    },
    {
        "id": "8400639",
        "src640": "https://cdn.pixabay.com/photo/2023/11/20/08/49/ai-generated-8400639_640.jpg",
        "src1280": "https://cdn.pixabay.com/photo/2023/11/20/08/49/ai-generated-8400639_1280.jpg"
    },
    {
        "id": "1613470",
        "src640": "https://cdn.pixabay.com/photo/2016/08/23/04/20/background-1613470_640.jpg",
        "src1280": "https://cdn.pixabay.com/photo/2016/08/23/04/20/background-1613470_1280.jpg"
    },
    {
        "id": "1158132",
        "src640": "https://cdn.pixabay.com/photo/2016/01/23/21/54/christmas-balls-1158132_640.jpg",
        "src1280": "https://cdn.pixabay.com/photo/2016/01/23/21/54/christmas-balls-1158132_1280.jpg"
    },
    {
        "id": "3699812",
        "src640": "https://cdn.pixabay.com/photo/2018/09/24/12/20/stars-3699812_640.jpg",
        "src1280": "https://cdn.pixabay.com/photo/2018/09/24/12/20/stars-3699812_1280.jpg"
    },
    {
        "id": "4833137",
        "src640": "https://cdn.pixabay.com/photo/2020/02/09/13/18/new-year-4833137_640.jpg",
        "src1280": "https://cdn.pixabay.com/photo/2020/02/09/13/18/new-year-4833137_1280.jpg"
    },
    {
        "id": "8100867",
        "src640": "https://cdn.pixabay.com/photo/2023/07/01/20/24/breakfast-8100867_640.jpg",
        "src1280": "https://cdn.pixabay.com/photo/2023/07/01/20/24/breakfast-8100867_1280.jpg"
    },
    {
        "id": "2615778",
        "src640": "https://cdn.pixabay.com/photo/2017/08/09/20/46/angel-2615778_640.jpg",
        "src1280": "https://cdn.pixabay.com/photo/2017/08/09/20/46/angel-2615778_1280.jpg"
    },
    {
        "id": "646078",
        "src640": "https://cdn.pixabay.com/photo/2015/02/23/15/03/old-town-646078_640.jpg",
        "src1280": "https://cdn.pixabay.com/photo/2015/02/23/15/03/old-town-646078_1280.jpg"
    },
    {
        "id": "6872694",
        "src640": "https://cdn.pixabay.com/photo/2021/12/15/14/06/christmas-6872694_640.jpg",
        "src1280": "https://cdn.pixabay.com/photo/2021/12/15/14/06/christmas-6872694_1280.jpg"
    },
    {
        "id": "7688330",
        "src640": "https://cdn.pixabay.com/photo/2022/12/31/09/51/christmas-tree-7688330_640.jpg",
        "src1280": "https://cdn.pixabay.com/photo/2022/12/31/09/51/christmas-tree-7688330_1280.jpg"
    },
    {
        "id": "1939712",
        "src640": "https://cdn.pixabay.com/photo/2016/12/30/01/19/religion-1939712_640.jpg",
        "src1280": "https://cdn.pixabay.com/photo/2016/12/30/01/19/religion-1939712_1280.jpg"
    },
    {
        "id": "8405908",
        "src640": "https://cdn.pixabay.com/photo/2023/11/22/16/29/ai-generated-8405908_640.jpg",
        "src1280": "https://cdn.pixabay.com/photo/2023/11/22/16/29/ai-generated-8405908_1280.jpg"
    },
    {
        "id": "3714066",
        "src640": "https://cdn.pixabay.com/photo/2018/09/30/17/52/christmas-3714066_640.jpg",
        "src1280": "https://cdn.pixabay.com/photo/2018/09/30/17/52/christmas-3714066_1280.jpg"
    },
    {
        "id": "262269",
        "src640": "https://cdn.pixabay.com/photo/2014/02/08/18/53/santa-claus-262269_640.jpg",
        "src1280": "https://cdn.pixabay.com/photo/2014/02/08/18/53/santa-claus-262269_1280.jpg"
    },
    {
        "id": "8392845",
        "src640": "https://cdn.pixabay.com/photo/2023/11/16/18/22/pine-8392845_640.jpg",
        "src1280": "https://cdn.pixabay.com/photo/2023/11/16/18/22/pine-8392845_1280.jpg"
    },
    {
        "id": "7286993",
        "src640": "https://cdn.pixabay.com/photo/2022/06/27/08/01/winter-7286993_640.jpg",
        "src1280": "https://cdn.pixabay.com/photo/2022/06/27/08/01/winter-7286993_1280.jpg"
    },
    {
        "id": "2846081",
        "src640": "https://cdn.pixabay.com/photo/2017/10/12/21/36/christmas-2846081_640.jpg",
        "src1280": "https://cdn.pixabay.com/photo/2017/10/12/21/36/christmas-2846081_1280.jpg"
    },
    {
        "id": "5895175",
        "src640": "https://cdn.pixabay.com/photo/2021/01/06/17/40/christmas-background-5895175_640.jpg",
        "src1280": "https://cdn.pixabay.com/photo/2021/01/06/17/40/christmas-background-5895175_1280.jpg"
    },
    {
        "id": "899985",
        "src640": "https://cdn.pixabay.com/photo/2015/08/22/00/40/night-899985_640.jpg",
        "src1280": "https://cdn.pixabay.com/photo/2015/08/22/00/40/night-899985_1280.jpg"
    },
    {
        "id": "3128884",
        "src640": "https://cdn.pixabay.com/photo/2018/02/04/01/54/winter-3128884_640.jpg",
        "src1280": "https://cdn.pixabay.com/photo/2018/02/04/01/54/winter-3128884_1280.jpg"
    },
    {
        "id": "965822",
        "src640": "https://cdn.pixabay.com/photo/2015/09/30/17/31/angel-965822_640.jpg",
        "src1280": "https://cdn.pixabay.com/photo/2015/09/30/17/31/angel-965822_1280.jpg"
    },
    {
        "id": "5919226",
        "src640": "https://cdn.pixabay.com/photo/2021/01/15/12/25/winter-5919226_640.jpg",
        "src1280": "https://cdn.pixabay.com/photo/2021/01/15/12/25/winter-5919226_1280.jpg"
    },
    {
        "id": "2727108",
        "src640": "https://cdn.pixabay.com/photo/2017/09/07/23/20/kids-2727108_640.jpg",
        "src1280": "https://cdn.pixabay.com/photo/2017/09/07/23/20/kids-2727108_1280.jpg"
    },
    {
        "id": "1093049",
        "src640": "https://cdn.pixabay.com/photo/2015/12/14/19/41/snoopy-1093049_640.jpg",
        "src1280": "https://cdn.pixabay.com/photo/2015/12/14/19/41/snoopy-1093049_1280.jpg"
    },
    {
        "id": "1885277",
        "src640": "https://cdn.pixabay.com/photo/2016/12/06/00/38/christmas-angel-1885277_640.jpg",
        "src1280": "https://cdn.pixabay.com/photo/2016/12/06/00/38/christmas-angel-1885277_1280.jpg"
    },
    {
        "id": "4112332",
        "src640": "https://cdn.pixabay.com/photo/2019/04/08/16/37/anemone-blanda-4112332_640.jpg",
        "src1280": "https://cdn.pixabay.com/photo/2019/04/08/16/37/anemone-blanda-4112332_1280.jpg"
    },
    {
        "id": "4690527",
        "src640": "https://cdn.pixabay.com/photo/2019/12/12/12/05/santa-claus-4690527_640.jpg",
        "src1280": "https://cdn.pixabay.com/photo/2019/12/12/12/05/santa-claus-4690527_1280.jpg"
    },
    {
        "id": "8351539",
        "src640": "https://cdn.pixabay.com/photo/2023/10/30/02/39/christmas-8351539_640.jpg",
        "src1280": "https://cdn.pixabay.com/photo/2023/10/30/02/39/christmas-8351539_1280.jpg"
    },
    {
        "id": "1639613",
        "src640": "https://cdn.pixabay.com/photo/2016/09/02/15/58/woman-1639613_640.jpg",
        "src1280": "https://cdn.pixabay.com/photo/2016/09/02/15/58/woman-1639613_1280.jpg"
    },
    {
        "id": "7552455",
        "src640": "https://cdn.pixabay.com/photo/2022/10/28/06/17/pumpkin-7552455_640.jpg",
        "src1280": "https://cdn.pixabay.com/photo/2022/10/28/06/17/pumpkin-7552455_1280.jpg"
    },
    {
        "id": "3900404",
        "src640": "https://cdn.pixabay.com/photo/2018/12/28/21/18/christmas-3900404_640.jpg",
        "src1280": "https://cdn.pixabay.com/photo/2018/12/28/21/18/christmas-3900404_1280.jpg"
    }
]