[
    {
        "id": "1584711",
        "src640": "https://cdn.pixabay.com/photo/2016/08/11/02/23/massage-therapy-1584711_640.jpg",
        "src1280": "https://cdn.pixabay.com/photo/2016/08/11/02/23/massage-therapy-1584711_1280.jpg"
    },
    {
        "id": "3557605",
        "src640": "https://cdn.pixabay.com/photo/2018/07/23/18/59/barefoot-3557605_640.jpg",
        "src1280": "https://cdn.pixabay.com/photo/2018/07/23/18/59/barefoot-3557605_1280.jpg"
    },
    {
        "id": "242223",
        "src640": "https://cdn.pixabay.com/photo/2014/01/11/16/26/balance-242223_640.jpg",
        "src1280": "https://cdn.pixabay.com/photo/2014/01/11/16/26/balance-242223_1280.jpg"
    },
    {
        "id": "667432",
        "src640": "https://cdn.pixabay.com/photo/2015/03/10/16/45/stacking-stones-667432_640.jpg",
        "src1280": "https://cdn.pixabay.com/photo/2015/03/10/16/45/stacking-stones-667432_1280.jpg"
    },
    {
        "id": "7369393",
        "src640": "https://cdn.pixabay.com/photo/2022/08/06/20/43/woman-7369393_640.jpg",
        "src1280": "https://cdn.pixabay.com/photo/2022/08/06/20/43/woman-7369393_1280.jpg"
    },
    {
        "id": "6125725",
        "src640": "https://cdn.pixabay.com/photo/2021/03/26/11/57/swing-6125725_640.jpg",
        "src1280": "https://cdn.pixabay.com/photo/2021/03/26/11/57/swing-6125725_1280.jpg"
    },
    {
        "id": "6125735",
        "src640": "https://cdn.pixabay.com/photo/2021/03/26/12/02/woman-6125735_640.jpg",
        "src1280": "https://cdn.pixabay.com/photo/2021/03/26/12/02/woman-6125735_1280.jpg"
    },
    {
        "id": "1350599",
        "src640": "https://cdn.pixabay.com/photo/2016/04/24/20/56/man-1350599_640.jpg",
        "src1280": "https://cdn.pixabay.com/photo/2016/04/24/20/56/man-1350599_1280.jpg"
    },
    {
        "id": "1281536",
        "src640": "https://cdn.pixabay.com/photo/2016/03/26/22/06/person-1281536_640.jpg",
        "src1280": "https://cdn.pixabay.com/photo/2016/03/26/22/06/person-1281536_1280.jpg"
    },
    {
        "id": "5459234",
        "src640": "https://cdn.pixabay.com/photo/2020/08/03/05/52/sun-5459234_640.jpg",
        "src1280": "https://cdn.pixabay.com/photo/2020/08/03/05/52/sun-5459234_1280.jpg"
    },
    {
        "id": "6582442",
        "src640": "https://cdn.pixabay.com/photo/2021/08/29/05/27/girl-6582442_640.jpg",
        "src1280": "https://cdn.pixabay.com/photo/2021/08/29/05/27/girl-6582442_1280.jpg"
    },
    {
        "id": "669098",
        "src640": "https://cdn.pixabay.com/photo/2015/03/11/19/45/stacking-stones-669098_640.jpg",
        "src1280": "https://cdn.pixabay.com/photo/2015/03/11/19/45/stacking-stones-669098_1280.jpg"
    },
    {
        "id": "8344065",
        "src640": "https://cdn.pixabay.com/photo/2023/10/27/05/38/woman-8344065_640.jpg",
        "src1280": "https://cdn.pixabay.com/photo/2023/10/27/05/38/woman-8344065_1280.jpg"
    },
    {
        "id": "2354483",
        "src640": "https://cdn.pixabay.com/photo/2017/05/29/18/20/pool-2354483_640.jpg",
        "src1280": "https://cdn.pixabay.com/photo/2017/05/29/18/20/pool-2354483_1280.jpg"
    },
    {
        "id": "8394961",
        "src640": "https://cdn.pixabay.com/photo/2023/11/17/19/53/woman-8394961_640.jpg",
        "src1280": "https://cdn.pixabay.com/photo/2023/11/17/19/53/woman-8394961_1280.jpg"
    },
    {
        "id": "7670224",
        "src640": "https://cdn.pixabay.com/photo/2022/12/21/14/46/brown-bear-7670224_640.jpg",
        "src1280": "https://cdn.pixabay.com/photo/2022/12/21/14/46/brown-bear-7670224_1280.jpg"
    },
    {
        "id": "4967888",
        "src640": "https://cdn.pixabay.com/photo/2020/03/25/16/27/man-4967888_640.jpg",
        "src1280": "https://cdn.pixabay.com/photo/2020/03/25/16/27/man-4967888_1280.jpg"
    },
    {
        "id": "7200120",
        "src640": "https://cdn.pixabay.com/photo/2022/05/16/11/24/woman-7200120_640.jpg",
        "src1280": "https://cdn.pixabay.com/photo/2022/05/16/11/24/woman-7200120_1280.jpg"
    },
    {
        "id": "4481538",
        "src640": "https://cdn.pixabay.com/photo/2019/09/16/17/18/spa-4481538_640.jpg",
        "src1280": "https://cdn.pixabay.com/photo/2019/09/16/17/18/spa-4481538_1280.jpg"
    },
    {
        "id": "5922911",
        "src640": "https://cdn.pixabay.com/photo/2021/01/16/17/46/male-5922911_640.jpg",
        "src1280": "https://cdn.pixabay.com/photo/2021/01/16/17/46/male-5922911_1280.jpg"
    },
    {
        "id": "3713470",
        "src640": "https://cdn.pixabay.com/photo/2018/09/30/13/16/taipei-3713470_640.jpg",
        "src1280": "https://cdn.pixabay.com/photo/2018/09/30/13/16/taipei-3713470_1280.jpg"
    },
    {
        "id": "6521203",
        "src640": "https://cdn.pixabay.com/photo/2021/08/04/07/09/balance-6521203_640.jpg",
        "src1280": "https://cdn.pixabay.com/photo/2021/08/04/07/09/balance-6521203_1280.jpg"
    },
    {
        "id": "4967176",
        "src640": "https://cdn.pixabay.com/photo/2020/03/25/12/41/beach-4967176_640.jpg",
        "src1280": "https://cdn.pixabay.com/photo/2020/03/25/12/41/beach-4967176_1280.jpg"
    },
    {
        "id": "862352",
        "src640": "https://cdn.pixabay.com/photo/2015/07/27/11/17/relaxation-862352_640.jpg",
        "src1280": "https://cdn.pixabay.com/photo/2015/07/27/11/17/relaxation-862352_1280.jpg"
    },
    {
        "id": "8070371",
        "src640": "https://cdn.pixabay.com/photo/2023/06/17/16/22/woman-8070371_640.jpg",
        "src1280": "https://cdn.pixabay.com/photo/2023/06/17/16/22/woman-8070371_1280.jpg"
    },
    {
        "id": "1684324",
        "src640": "https://cdn.pixabay.com/photo/2016/09/21/08/35/cat-1684324_640.jpg",
        "src1280": "https://cdn.pixabay.com/photo/2016/09/21/08/35/cat-1684324_1280.jpg"
    },
    {
        "id": "471152",
        "src640": "https://cdn.pixabay.com/photo/2014/10/03/06/26/female-471152_640.jpg",
        "src1280": "https://cdn.pixabay.com/photo/2014/10/03/06/26/female-471152_1280.jpg"
    },
    {
        "id": "6925824",
        "src640": "https://cdn.pixabay.com/photo/2022/01/09/12/17/candle-6925824_640.jpg",
        "src1280": "https://cdn.pixabay.com/photo/2022/01/09/12/17/candle-6925824_1280.jpg"
    },
    {
        "id": "7573568",
        "src640": "https://cdn.pixabay.com/photo/2022/11/06/09/37/woman-7573568_640.jpg",
        "src1280": "https://cdn.pixabay.com/photo/2022/11/06/09/37/woman-7573568_1280.jpg"
    },
    {
        "id": "2112869",
        "src640": "https://cdn.pixabay.com/photo/2017/03/03/00/54/smoke-2112869_640.jpg",
        "src1280": "https://cdn.pixabay.com/photo/2017/03/03/00/54/smoke-2112869_1280.jpg"
    },
    {
        "id": "3041628",
        "src640": "https://cdn.pixabay.com/photo/2017/12/26/23/30/girl-3041628_640.jpg",
        "src1280": "https://cdn.pixabay.com/photo/2017/12/26/23/30/girl-3041628_1280.jpg"
    },
    {
        "id": "111495",
        "src640": "https://cdn.pixabay.com/photo/2013/05/16/14/55/animals-111495_640.jpg",
        "src1280": "https://cdn.pixabay.com/photo/2013/05/16/14/55/animals-111495_1280.jpg"
    },
    {
        "id": "5452993",
        "src640": "https://cdn.pixabay.com/photo/2020/07/31/13/04/woman-5452993_640.jpg",
        "src1280": "https://cdn.pixabay.com/photo/2020/07/31/13/04/woman-5452993_1280.jpg"
    },
    {
        "id": "7390628",
        "src640": "https://cdn.pixabay.com/photo/2022/08/16/15/47/wellness-7390628_640.jpg",
        "src1280": "https://cdn.pixabay.com/photo/2022/08/16/15/47/wellness-7390628_1280.jpg"
    },
    {
        "id": "664927",
        "src640": "https://cdn.pixabay.com/photo/2015/03/09/01/37/stacked-stones-664927_640.jpg",
        "src1280": "https://cdn.pixabay.com/photo/2015/03/09/01/37/stacked-stones-664927_1280.jpg"
    },
    {
        "id": "1816094",
        "src640": "https://cdn.pixabay.com/photo/2016/11/11/09/07/stockings-1816094_640.jpg",
        "src1280": "https://cdn.pixabay.com/photo/2016/11/11/09/07/stockings-1816094_1280.jpg"
    },
    {
        "id": "3571093",
        "src640": "https://cdn.pixabay.com/photo/2018/07/29/21/29/summer-3571093_640.jpg",
        "src1280": "https://cdn.pixabay.com/photo/2018/07/29/21/29/summer-3571093_1280.jpg"
    },
    {
        "id": "7870318",
        "src640": "https://cdn.pixabay.com/photo/2023/03/22/18/49/woman-7870318_640.jpg",
        "src1280": "https://cdn.pixabay.com/photo/2023/03/22/18/49/woman-7870318_1280.jpg"
    },
    {
        "id": "4290401",
        "src640": "https://cdn.pixabay.com/photo/2019/06/21/21/05/indonesia-4290401_640.jpg",
        "src1280": "https://cdn.pixabay.com/photo/2019/06/21/21/05/indonesia-4290401_1280.jpg"
    },
    {
        "id": "8083900",
        "src640": "https://cdn.pixabay.com/photo/2023/06/23/17/43/woman-8083900_640.jpg",
        "src1280": "https://cdn.pixabay.com/photo/2023/06/23/17/43/woman-8083900_1280.jpg"
    },
    {
        "id": "7304948",
        "src640": "https://cdn.pixabay.com/photo/2022/07/06/12/04/candles-7304948_640.jpg",
        "src1280": "https://cdn.pixabay.com/photo/2022/07/06/12/04/candles-7304948_1280.jpg"
    },
    {
        "id": "1039302",
        "src640": "https://cdn.pixabay.com/photo/2015/11/11/21/43/man-1039302_640.jpg",
        "src1280": "https://cdn.pixabay.com/photo/2015/11/11/21/43/man-1039302_1280.jpg"
    },
    {
        "id": "8439436",
        "src640": "https://cdn.pixabay.com/photo/2023/12/09/14/00/ai-generated-8439436_640.jpg",
        "src1280": "https://cdn.pixabay.com/photo/2023/12/09/14/00/ai-generated-8439436_1280.jpg"
    },
    {
        "id": "8457376",
        "src640": "https://cdn.pixabay.com/photo/2023/12/19/09/17/child-8457376_640.jpg",
        "src1280": "https://cdn.pixabay.com/photo/2023/12/19/09/17/child-8457376_1280.jpg"
    },
    {
        "id": "3289608",
        "src640": "https://cdn.pixabay.com/photo/2018/04/04/12/02/woman-3289608_640.jpg",
        "src1280": "https://cdn.pixabay.com/photo/2018/04/04/12/02/woman-3289608_1280.jpg"
    },
    {
        "id": "3548949",
        "src640": "https://cdn.pixabay.com/photo/2018/07/19/17/15/wine-3548949_640.jpg",
        "src1280": "https://cdn.pixabay.com/photo/2018/07/19/17/15/wine-3548949_1280.jpg"
    },
    {
        "id": "2514408",
        "src640": "https://cdn.pixabay.com/photo/2017/07/18/00/42/meditation-2514408_640.jpg",
        "src1280": "https://cdn.pixabay.com/photo/2017/07/18/00/42/meditation-2514408_1280.jpg"
    },
    {
        "id": "8380770",
        "src640": "https://cdn.pixabay.com/photo/2023/11/11/08/37/girlie-8380770_640.jpg",
        "src1280": "https://cdn.pixabay.com/photo/2023/11/11/08/37/girlie-8380770_1280.jpg"
    },
    {
        "id": "5876894",
        "src640": "https://cdn.pixabay.com/photo/2020/12/31/15/57/fox-5876894_640.jpg",
        "src1280": "https://cdn.pixabay.com/photo/2020/12/31/15/57/fox-5876894_1280.jpg"
    },
    {
        "id": "8363723",
        "src640": "https://cdn.pixabay.com/photo/2023/11/03/19/10/woman-8363723_640.jpg",
        "src1280": "https://cdn.pixabay.com/photo/2023/11/03/19/10/woman-8363723_1280.jpg"
    },
    {
        "id": "8202529",
        "src640": "https://cdn.pixabay.com/photo/2023/08/20/15/00/woman-8202529_640.jpg",
        "src1280": "https://cdn.pixabay.com/photo/2023/08/20/15/00/woman-8202529_1280.jpg"
    },
    {
        "id": "7393289",
        "src640": "https://cdn.pixabay.com/photo/2022/08/17/19/02/relaxation-7393289_640.jpg",
        "src1280": "https://cdn.pixabay.com/photo/2022/08/17/19/02/relaxation-7393289_1280.jpg"
    },
    {
        "id": "7314421",
        "src640": "https://cdn.pixabay.com/photo/2022/07/11/08/03/woman-7314421_640.jpg",
        "src1280": "https://cdn.pixabay.com/photo/2022/07/11/08/03/woman-7314421_1280.jpg"
    },
    {
        "id": "8317472",
        "src640": "https://cdn.pixabay.com/photo/2023/10/15/17/34/woman-8317472_640.jpg",
        "src1280": "https://cdn.pixabay.com/photo/2023/10/15/17/34/woman-8317472_1280.jpg"
    },
    {
        "id": "6928011",
        "src640": "https://cdn.pixabay.com/photo/2022/01/10/10/51/book-6928011_640.jpg",
        "src1280": "https://cdn.pixabay.com/photo/2022/01/10/10/51/book-6928011_1280.jpg"
    },
    {
        "id": "8232024",
        "src640": "https://cdn.pixabay.com/photo/2023/09/04/05/21/woman-8232024_640.jpg",
        "src1280": "https://cdn.pixabay.com/photo/2023/09/04/05/21/woman-8232024_1280.jpg"
    },
    {
        "id": "7934127",
        "src640": "https://cdn.pixabay.com/photo/2023/04/18/04/30/woman-7934127_640.jpg",
        "src1280": "https://cdn.pixabay.com/photo/2023/04/18/04/30/woman-7934127_1280.jpg"
    },
    {
        "id": "6783508",
        "src640": "https://cdn.pixabay.com/photo/2021/11/10/09/39/woman-6783508_640.jpg",
        "src1280": "https://cdn.pixabay.com/photo/2021/11/10/09/39/woman-6783508_1280.jpg"
    },
    {
        "id": "1281607",
        "src640": "https://cdn.pixabay.com/photo/2016/03/26/22/28/person-1281607_640.jpg",
        "src1280": "https://cdn.pixabay.com/photo/2016/03/26/22/28/person-1281607_1280.jpg"
    },
    {
        "id": "422332",
        "src640": "https://cdn.pixabay.com/photo/2014/08/20/07/48/young-422332_640.jpg",
        "src1280": "https://cdn.pixabay.com/photo/2014/08/20/07/48/young-422332_1280.jpg"
    },
    {
        "id": "3548950",
        "src640": "https://cdn.pixabay.com/photo/2018/07/19/17/15/woman-3548950_640.jpg",
        "src1280": "https://cdn.pixabay.com/photo/2018/07/19/17/15/woman-3548950_1280.jpg"
    },
    {
        "id": "669097",
        "src640": "https://cdn.pixabay.com/photo/2015/03/11/19/45/stacking-stones-669097_640.jpg",
        "src1280": "https://cdn.pixabay.com/photo/2015/03/11/19/45/stacking-stones-669097_1280.jpg"
    },
    {
        "id": "5779323",
        "src640": "https://cdn.pixabay.com/photo/2020/11/26/15/28/woman-5779323_640.jpg",
        "src1280": "https://cdn.pixabay.com/photo/2020/11/26/15/28/woman-5779323_1280.jpg"
    },
    {
        "id": "664928",
        "src640": "https://cdn.pixabay.com/photo/2015/03/09/01/37/stacked-stones-664928_640.jpg",
        "src1280": "https://cdn.pixabay.com/photo/2015/03/09/01/37/stacked-stones-664928_1280.jpg"
    },
    {
        "id": "4906689",
        "src640": "https://cdn.pixabay.com/photo/2020/03/06/10/01/seat-4906689_640.jpg",
        "src1280": "https://cdn.pixabay.com/photo/2020/03/06/10/01/seat-4906689_1280.jpg"
    },
    {
        "id": "6284845",
        "src640": "https://cdn.pixabay.com/photo/2021/05/26/10/49/woman-6284845_640.jpg",
        "src1280": "https://cdn.pixabay.com/photo/2021/05/26/10/49/woman-6284845_1280.jpg"
    },
    {
        "id": "4519290",
        "src640": "https://cdn.pixabay.com/photo/2019/10/01/20/13/stone-tower-4519290_640.jpg",
        "src1280": "https://cdn.pixabay.com/photo/2019/10/01/20/13/stone-tower-4519290_1280.jpg"
    },
    {
        "id": "4792470",
        "src640": "https://cdn.pixabay.com/photo/2020/01/25/12/46/cabin-4792470_640.jpg",
        "src1280": "https://cdn.pixabay.com/photo/2020/01/25/12/46/cabin-4792470_1280.jpg"
    },
    {
        "id": "8317442",
        "src640": "https://cdn.pixabay.com/photo/2023/10/15/17/09/smartphone-8317442_640.jpg",
        "src1280": "https://cdn.pixabay.com/photo/2023/10/15/17/09/smartphone-8317442_1280.jpg"
    },
    {
        "id": "914737",
        "src640": "https://cdn.pixabay.com/photo/2015/08/30/21/52/people-914737_640.jpg",
        "src1280": "https://cdn.pixabay.com/photo/2015/08/30/21/52/people-914737_1280.jpg"
    },
    {
        "id": "3548948",
        "src640": "https://cdn.pixabay.com/photo/2018/07/19/17/15/wine-3548948_640.jpg",
        "src1280": "https://cdn.pixabay.com/photo/2018/07/19/17/15/wine-3548948_1280.jpg"
    },
    {
        "id": "8228818",
        "src640": "https://cdn.pixabay.com/photo/2023/09/02/12/59/woman-8228818_640.jpg",
        "src1280": "https://cdn.pixabay.com/photo/2023/09/02/12/59/woman-8228818_1280.jpg"
    },
    {
        "id": "1427110",
        "src640": "https://cdn.pixabay.com/photo/2016/05/31/15/16/woman-1427110_640.jpg",
        "src1280": "https://cdn.pixabay.com/photo/2016/05/31/15/16/woman-1427110_1280.jpg"
    },
    {
        "id": "825740",
        "src640": "https://cdn.pixabay.com/photo/2015/06/29/17/01/country-porch-825740_640.jpg",
        "src1280": "https://cdn.pixabay.com/photo/2015/06/29/17/01/country-porch-825740_1280.jpg"
    },
    {
        "id": "7727169",
        "src640": "https://cdn.pixabay.com/photo/2023/01/18/15/24/scented-candles-7727169_640.jpg",
        "src1280": "https://cdn.pixabay.com/photo/2023/01/18/15/24/scented-candles-7727169_1280.jpg"
    },
    {
        "id": "6950926",
        "src640": "https://cdn.pixabay.com/photo/2022/01/19/20/24/yoga-6950926_640.jpg",
        "src1280": "https://cdn.pixabay.com/photo/2022/01/19/20/24/yoga-6950926_1280.jpg"
    },
    {
        "id": "6950921",
        "src640": "https://cdn.pixabay.com/photo/2022/01/19/20/23/man-6950921_640.jpg",
        "src1280": "https://cdn.pixabay.com/photo/2022/01/19/20/23/man-6950921_1280.jpg"
    },
    {
        "id": "1279888",
        "src640": "https://cdn.pixabay.com/photo/2016/03/26/01/00/chill-1279888_640.jpg",
        "src1280": "https://cdn.pixabay.com/photo/2016/03/26/01/00/chill-1279888_1280.jpg"
    },
    {
        "id": "1044367",
        "src640": "https://cdn.pixabay.com/photo/2015/11/15/14/31/veligandu-island-1044367_640.jpg",
        "src1280": "https://cdn.pixabay.com/photo/2015/11/15/14/31/veligandu-island-1044367_1280.jpg"
    }
]