[
    {
        "id": "5036606",
        "src640": "https://cdn.pixabay.com/photo/2020/04/13/03/12/jungle-5036606_640.jpg",
        "src1280": "https://cdn.pixabay.com/photo/2020/04/13/03/12/jungle-5036606_1280.jpg"
    },
    {
        "id": "64431",
        "src640": "https://cdn.pixabay.com/photo/2012/11/06/21/45/kermit-64431_640.jpg",
        "src1280": "https://cdn.pixabay.com/photo/2012/11/06/21/45/kermit-64431_1280.jpg"
    },
    {
        "id": "2639175",
        "src640": "https://cdn.pixabay.com/photo/2017/08/14/03/00/tree-2639175_640.jpg",
        "src1280": "https://cdn.pixabay.com/photo/2017/08/14/03/00/tree-2639175_1280.jpg"
    },
    {
        "id": "1434531",
        "src640": "https://cdn.pixabay.com/photo/2016/06/03/21/47/swan-1434531_640.jpg",
        "src1280": "https://cdn.pixabay.com/photo/2016/06/03/21/47/swan-1434531_1280.jpg"
    },
    {
        "id": "997896",
        "src640": "https://cdn.pixabay.com/photo/2015/10/20/15/36/samos-997896_640.jpg",
        "src1280": "https://cdn.pixabay.com/photo/2015/10/20/15/36/samos-997896_1280.jpg"
    },
    {
        "id": "4433253",
        "src640": "https://cdn.pixabay.com/photo/2019/08/27/03/29/sky-4433253_640.jpg",
        "src1280": "https://cdn.pixabay.com/photo/2019/08/27/03/29/sky-4433253_1280.jpg"
    },
    {
        "id": "4644516",
        "src640": "https://cdn.pixabay.com/photo/2019/11/22/09/57/forest-4644516_640.jpg",
        "src1280": "https://cdn.pixabay.com/photo/2019/11/22/09/57/forest-4644516_1280.jpg"
    },
    {
        "id": "770160",
        "src640": "https://cdn.pixabay.com/photo/2015/05/16/17/49/coffee-break-770160_640.jpg",
        "src1280": "https://cdn.pixabay.com/photo/2015/05/16/17/49/coffee-break-770160_1280.jpg"
    },
    {
        "id": "5223774",
        "src640": "https://cdn.pixabay.com/photo/2020/05/26/16/44/bed-5223774_640.jpg",
        "src1280": "https://cdn.pixabay.com/photo/2020/05/26/16/44/bed-5223774_1280.jpg"
    },
    {
        "id": "5149045",
        "src640": "https://cdn.pixabay.com/photo/2020/05/09/10/14/landscape-5149045_640.jpg",
        "src1280": "https://cdn.pixabay.com/photo/2020/05/09/10/14/landscape-5149045_1280.jpg"
    },
    {
        "id": "219923",
        "src640": "https://cdn.pixabay.com/photo/2013/11/28/10/02/wood-219923_640.jpg",
        "src1280": "https://cdn.pixabay.com/photo/2013/11/28/10/02/wood-219923_1280.jpg"
    },
    {
        "id": "5338674",
        "src640": "https://cdn.pixabay.com/photo/2020/06/25/06/05/flowers-5338674_640.jpg",
        "src1280": "https://cdn.pixabay.com/photo/2020/06/25/06/05/flowers-5338674_1280.jpg"
    },
    {
        "id": "5440326",
        "src640": "https://cdn.pixabay.com/photo/2020/07/26/18/28/man-5440326_640.jpg",
        "src1280": "https://cdn.pixabay.com/photo/2020/07/26/18/28/man-5440326_1280.jpg"
    },
    {
        "id": "4890597",
        "src640": "https://cdn.pixabay.com/photo/2020/02/29/16/56/girls-4890597_640.jpg",
        "src1280": "https://cdn.pixabay.com/photo/2020/02/29/16/56/girls-4890597_1280.jpg"
    },
    {
        "id": "7409022",
        "src640": "https://cdn.pixabay.com/photo/2022/08/25/01/40/asian-woman-7409022_640.jpg",
        "src1280": "https://cdn.pixabay.com/photo/2022/08/25/01/40/asian-woman-7409022_1280.jpg"
    },
    {
        "id": "7280297",
        "src640": "https://cdn.pixabay.com/photo/2022/06/23/17/32/staff-7280297_640.jpg",
        "src1280": "https://cdn.pixabay.com/photo/2022/06/23/17/32/staff-7280297_1280.jpg"
    },
    {
        "id": "5183421",
        "src640": "https://cdn.pixabay.com/photo/2020/05/17/20/21/beach-5183421_640.jpg",
        "src1280": "https://cdn.pixabay.com/photo/2020/05/17/20/21/beach-5183421_1280.jpg"
    },
    {
        "id": "196094",
        "src640": "https://cdn.pixabay.com/photo/2013/10/15/19/45/boat-196094_640.jpg",
        "src1280": "https://cdn.pixabay.com/photo/2013/10/15/19/45/boat-196094_1280.jpg"
    },
    {
        "id": "3683675",
        "src640": "https://cdn.pixabay.com/photo/2018/09/17/12/06/stones-3683675_640.jpg",
        "src1280": "https://cdn.pixabay.com/photo/2018/09/17/12/06/stones-3683675_1280.jpg"
    },
    {
        "id": "6564943",
        "src640": "https://cdn.pixabay.com/photo/2021/08/22/11/43/cross-6564943_640.jpg",
        "src1280": "https://cdn.pixabay.com/photo/2021/08/22/11/43/cross-6564943_1280.jpg"
    },
    {
        "id": "4577945",
        "src640": "https://cdn.pixabay.com/photo/2019/10/25/19/59/venice-4577945_640.jpg",
        "src1280": "https://cdn.pixabay.com/photo/2019/10/25/19/59/venice-4577945_1280.jpg"
    },
    {
        "id": "7019334",
        "src640": "https://cdn.pixabay.com/photo/2022/02/17/19/20/woman-7019334_640.jpg",
        "src1280": "https://cdn.pixabay.com/photo/2022/02/17/19/20/woman-7019334_1280.jpg"
    },
    {
        "id": "7086553",
        "src640": "https://cdn.pixabay.com/photo/2022/03/23/07/13/cat-7086553_640.jpg",
        "src1280": "https://cdn.pixabay.com/photo/2022/03/23/07/13/cat-7086553_1280.jpg"
    },
    {
        "id": "1445829",
        "src640": "https://cdn.pixabay.com/photo/2016/06/09/14/13/mountain-1445829_640.jpg",
        "src1280": "https://cdn.pixabay.com/photo/2016/06/09/14/13/mountain-1445829_1280.jpg"
    },
    {
        "id": "1593530",
        "src640": "https://cdn.pixabay.com/photo/2016/08/14/17/59/water-1593530_640.jpg",
        "src1280": "https://cdn.pixabay.com/photo/2016/08/14/17/59/water-1593530_1280.jpg"
    },
    {
        "id": "2540296",
        "src640": "https://cdn.pixabay.com/photo/2017/07/26/03/28/glass-of-wine-2540296_640.jpg",
        "src1280": "https://cdn.pixabay.com/photo/2017/07/26/03/28/glass-of-wine-2540296_1280.jpg"
    },
    {
        "id": "414129",
        "src640": "https://cdn.pixabay.com/photo/2014/08/09/14/08/yoga-414129_640.jpg",
        "src1280": "https://cdn.pixabay.com/photo/2014/08/09/14/08/yoga-414129_1280.jpg"
    },
    {
        "id": "2712503",
        "src640": "https://cdn.pixabay.com/photo/2017/09/03/23/31/chess-2712503_640.jpg",
        "src1280": "https://cdn.pixabay.com/photo/2017/09/03/23/31/chess-2712503_1280.jpg"
    },
    {
        "id": "958456",
        "src640": "https://cdn.pixabay.com/photo/2015/09/25/23/54/beach-958456_640.jpg",
        "src1280": "https://cdn.pixabay.com/photo/2015/09/25/23/54/beach-958456_1280.jpg"
    },
    {
        "id": "968713",
        "src640": "https://cdn.pixabay.com/photo/2015/10/02/16/46/barge-968713_640.jpg",
        "src1280": "https://cdn.pixabay.com/photo/2015/10/02/16/46/barge-968713_1280.jpg"
    },
    {
        "id": "2740068",
        "src640": "https://cdn.pixabay.com/photo/2017/09/11/19/02/child-2740068_640.jpg",
        "src1280": "https://cdn.pixabay.com/photo/2017/09/11/19/02/child-2740068_1280.jpg"
    },
    {
        "id": "4789446",
        "src640": "https://cdn.pixabay.com/photo/2020/01/24/06/17/holiday-4789446_640.jpg",
        "src1280": "https://cdn.pixabay.com/photo/2020/01/24/06/17/holiday-4789446_1280.jpg"
    },
    {
        "id": "5658861",
        "src640": "https://cdn.pixabay.com/photo/2020/10/16/08/24/woman-5658861_640.jpg",
        "src1280": "https://cdn.pixabay.com/photo/2020/10/16/08/24/woman-5658861_1280.jpg"
    },
    {
        "id": "6769354",
        "src640": "https://cdn.pixabay.com/photo/2021/11/04/21/28/post-office-6769354_640.jpg",
        "src1280": "https://cdn.pixabay.com/photo/2021/11/04/21/28/post-office-6769354_1280.jpg"
    },
    {
        "id": "69785",
        "src640": "https://cdn.pixabay.com/photo/2012/12/13/11/48/mountain-69785_640.jpg",
        "src1280": "https://cdn.pixabay.com/photo/2012/12/13/11/48/mountain-69785_1280.jpg"
    },
    {
        "id": "443976",
        "src640": "https://cdn.pixabay.com/photo/2014/09/13/12/32/red-wine-443976_640.jpg",
        "src1280": "https://cdn.pixabay.com/photo/2014/09/13/12/32/red-wine-443976_1280.jpg"
    },
    {
        "id": "2483173",
        "src640": "https://cdn.pixabay.com/photo/2017/07/07/23/43/monkey-2483173_640.jpg",
        "src1280": "https://cdn.pixabay.com/photo/2017/07/07/23/43/monkey-2483173_1280.jpg"
    },
    {
        "id": "3673483",
        "src640": "https://cdn.pixabay.com/photo/2018/09/12/23/58/portrait-3673483_640.jpg",
        "src1280": "https://cdn.pixabay.com/photo/2018/09/12/23/58/portrait-3673483_1280.jpg"
    },
    {
        "id": "7641764",
        "src640": "https://cdn.pixabay.com/photo/2022/12/07/19/01/woman-7641764_640.jpg",
        "src1280": "https://cdn.pixabay.com/photo/2022/12/07/19/01/woman-7641764_1280.jpg"
    },
    {
        "id": "2071409",
        "src640": "https://cdn.pixabay.com/photo/2017/02/16/12/36/buddhas-2071409_640.jpg",
        "src1280": "https://cdn.pixabay.com/photo/2017/02/16/12/36/buddhas-2071409_1280.jpg"
    },
    {
        "id": "4608947",
        "src640": "https://cdn.pixabay.com/photo/2019/11/07/13/54/portugal-4608947_640.jpg",
        "src1280": "https://cdn.pixabay.com/photo/2019/11/07/13/54/portugal-4608947_1280.jpg"
    },
    {
        "id": "7334626",
        "src640": "https://cdn.pixabay.com/photo/2022/07/20/17/29/girlie-7334626_640.jpg",
        "src1280": "https://cdn.pixabay.com/photo/2022/07/20/17/29/girlie-7334626_1280.jpg"
    },
    {
        "id": "7198065",
        "src640": "https://cdn.pixabay.com/photo/2022/05/15/13/38/asian-7198065_640.jpg",
        "src1280": "https://cdn.pixabay.com/photo/2022/05/15/13/38/asian-7198065_1280.jpg"
    },
    {
        "id": "4929186",
        "src640": "https://cdn.pixabay.com/photo/2020/03/13/21/24/tree-4929186_640.jpg",
        "src1280": "https://cdn.pixabay.com/photo/2020/03/13/21/24/tree-4929186_1280.jpg"
    },
    {
        "id": "4667212",
        "src640": "https://cdn.pixabay.com/photo/2019/12/02/09/01/coffee-4667212_640.jpg",
        "src1280": "https://cdn.pixabay.com/photo/2019/12/02/09/01/coffee-4667212_1280.jpg"
    },
    {
        "id": "4622230",
        "src640": "https://cdn.pixabay.com/photo/2019/11/12/23/06/sunset-4622230_640.jpg",
        "src1280": "https://cdn.pixabay.com/photo/2019/11/12/23/06/sunset-4622230_1280.jpg"
    },
    {
        "id": "5085226",
        "src640": "https://cdn.pixabay.com/photo/2020/04/24/05/56/asia-5085226_640.jpg",
        "src1280": "https://cdn.pixabay.com/photo/2020/04/24/05/56/asia-5085226_1280.jpg"
    },
    {
        "id": "63873",
        "src640": "https://cdn.pixabay.com/photo/2012/11/02/02/40/pool-63873_640.jpg",
        "src1280": "https://cdn.pixabay.com/photo/2012/11/02/02/40/pool-63873_1280.jpg"
    },
    {
        "id": "3652784",
        "src640": "https://cdn.pixabay.com/photo/2018/09/04/01/03/hut-3652784_640.jpg",
        "src1280": "https://cdn.pixabay.com/photo/2018/09/04/01/03/hut-3652784_1280.jpg"
    },
    {
        "id": "330465",
        "src640": "https://cdn.pixabay.com/photo/2014/04/23/11/33/flower-330465_640.jpg",
        "src1280": "https://cdn.pixabay.com/photo/2014/04/23/11/33/flower-330465_1280.jpg"
    },
    {
        "id": "63882",
        "src640": "https://cdn.pixabay.com/photo/2012/11/02/02/46/hotel-63882_640.jpg",
        "src1280": "https://cdn.pixabay.com/photo/2012/11/02/02/46/hotel-63882_1280.jpg"
    },
    {
        "id": "7371088",
        "src640": "https://cdn.pixabay.com/photo/2022/08/07/18/04/woman-7371088_640.jpg",
        "src1280": "https://cdn.pixabay.com/photo/2022/08/07/18/04/woman-7371088_1280.jpg"
    },
    {
        "id": "361508",
        "src640": "https://cdn.pixabay.com/photo/2014/06/03/19/34/woman-361508_640.jpg",
        "src1280": "https://cdn.pixabay.com/photo/2014/06/03/19/34/woman-361508_1280.jpg"
    },
    {
        "id": "7514173",
        "src640": "https://cdn.pixabay.com/photo/2022/10/11/12/20/girl-7514173_640.jpg",
        "src1280": "https://cdn.pixabay.com/photo/2022/10/11/12/20/girl-7514173_1280.jpg"
    },
    {
        "id": "2157356",
        "src640": "https://cdn.pixabay.com/photo/2017/03/19/18/52/armchair-2157356_640.jpg",
        "src1280": "https://cdn.pixabay.com/photo/2017/03/19/18/52/armchair-2157356_1280.jpg"
    },
    {
        "id": "4986455",
        "src640": "https://cdn.pixabay.com/photo/2020/03/31/06/40/lady-buddha-4986455_640.jpg",
        "src1280": "https://cdn.pixabay.com/photo/2020/03/31/06/40/lady-buddha-4986455_1280.jpg"
    },
    {
        "id": "4967765",
        "src640": "https://cdn.pixabay.com/photo/2020/03/25/15/44/zion-valley-4967765_640.jpg",
        "src1280": "https://cdn.pixabay.com/photo/2020/03/25/15/44/zion-valley-4967765_1280.jpg"
    },
    {
        "id": "2398445",
        "src640": "https://cdn.pixabay.com/photo/2017/06/13/11/08/bamboo-2398445_640.jpg",
        "src1280": "https://cdn.pixabay.com/photo/2017/06/13/11/08/bamboo-2398445_1280.jpg"
    },
    {
        "id": "4748190",
        "src640": "https://cdn.pixabay.com/photo/2020/01/07/17/30/portrait-4748190_640.jpg",
        "src1280": "https://cdn.pixabay.com/photo/2020/01/07/17/30/portrait-4748190_1280.jpg"
    },
    {
        "id": "3340811",
        "src640": "https://cdn.pixabay.com/photo/2018/04/22/11/33/nature-3340811_640.jpg",
        "src1280": "https://cdn.pixabay.com/photo/2018/04/22/11/33/nature-3340811_1280.jpg"
    },
    {
        "id": "5223920",
        "src640": "https://cdn.pixabay.com/photo/2020/05/26/17/16/bank-5223920_640.jpg",
        "src1280": "https://cdn.pixabay.com/photo/2020/05/26/17/16/bank-5223920_1280.jpg"
    },
    {
        "id": "4937980",
        "src640": "https://cdn.pixabay.com/photo/2020/03/16/18/46/vacations-4937980_640.jpg",
        "src1280": "https://cdn.pixabay.com/photo/2020/03/16/18/46/vacations-4937980_1280.jpg"
    },
    {
        "id": "2779711",
        "src640": "https://cdn.pixabay.com/photo/2017/09/23/18/21/hobby-2779711_640.jpg",
        "src1280": "https://cdn.pixabay.com/photo/2017/09/23/18/21/hobby-2779711_1280.jpg"
    },
    {
        "id": "4172588",
        "src640": "https://cdn.pixabay.com/photo/2019/05/02/03/36/bud-4172588_640.jpg",
        "src1280": "https://cdn.pixabay.com/photo/2019/05/02/03/36/bud-4172588_1280.jpg"
    },
    {
        "id": "2865804",
        "src640": "https://cdn.pixabay.com/photo/2017/10/18/22/47/pig-2865804_640.jpg",
        "src1280": "https://cdn.pixabay.com/photo/2017/10/18/22/47/pig-2865804_1280.jpg"
    },
    {
        "id": "3625687",
        "src640": "https://cdn.pixabay.com/photo/2018/08/23/11/12/great-arber-lake-3625687_640.jpg",
        "src1280": "https://cdn.pixabay.com/photo/2018/08/23/11/12/great-arber-lake-3625687_1280.jpg"
    },
    {
        "id": "4566916",
        "src640": "https://cdn.pixabay.com/photo/2019/10/21/19/01/travel-4566916_640.jpg",
        "src1280": "https://cdn.pixabay.com/photo/2019/10/21/19/01/travel-4566916_1280.jpg"
    },
    {
        "id": "7997706",
        "src640": "https://cdn.pixabay.com/photo/2023/05/16/14/08/river-7997706_640.jpg",
        "src1280": "https://cdn.pixabay.com/photo/2023/05/16/14/08/river-7997706_1280.jpg"
    },
    {
        "id": "5246696",
        "src640": "https://cdn.pixabay.com/photo/2020/06/01/13/34/landscape-5246696_640.jpg",
        "src1280": "https://cdn.pixabay.com/photo/2020/06/01/13/34/landscape-5246696_1280.jpg"
    },
    {
        "id": "77490",
        "src640": "https://cdn.pixabay.com/photo/2013/02/02/23/41/waterfall-77490_640.jpg",
        "src1280": "https://cdn.pixabay.com/photo/2013/02/02/23/41/waterfall-77490_1280.jpg"
    },
    {
        "id": "3103573",
        "src640": "https://cdn.pixabay.com/photo/2018/01/24/09/53/sunset-3103573_640.jpg",
        "src1280": "https://cdn.pixabay.com/photo/2018/01/24/09/53/sunset-3103573_1280.jpg"
    },
    {
        "id": "1239399",
        "src640": "https://cdn.pixabay.com/photo/2016/03/05/22/55/animal-1239399_640.jpg",
        "src1280": "https://cdn.pixabay.com/photo/2016/03/05/22/55/animal-1239399_1280.jpg"
    },
    {
        "id": "4490860",
        "src640": "https://cdn.pixabay.com/photo/2019/09/20/05/30/beach-4490860_640.jpg",
        "src1280": "https://cdn.pixabay.com/photo/2019/09/20/05/30/beach-4490860_1280.jpg"
    },
    {
        "id": "5459231",
        "src640": "https://cdn.pixabay.com/photo/2020/08/03/05/52/sun-5459231_640.jpg",
        "src1280": "https://cdn.pixabay.com/photo/2020/08/03/05/52/sun-5459231_1280.jpg"
    },
    {
        "id": "1500456",
        "src640": "https://cdn.pixabay.com/photo/2016/07/06/13/20/mountain-1500456_640.jpg",
        "src1280": "https://cdn.pixabay.com/photo/2016/07/06/13/20/mountain-1500456_1280.jpg"
    },
    {
        "id": "2545956",
        "src640": "https://cdn.pixabay.com/photo/2017/07/27/16/51/beach-2545956_640.jpg",
        "src1280": "https://cdn.pixabay.com/photo/2017/07/27/16/51/beach-2545956_1280.jpg"
    },
    {
        "id": "1550959",
        "src640": "https://cdn.pixabay.com/photo/2016/07/29/07/37/lotus-1550959_640.jpg",
        "src1280": "https://cdn.pixabay.com/photo/2016/07/29/07/37/lotus-1550959_1280.jpg"
    },
    {
        "id": "2260775",
        "src640": "https://cdn.pixabay.com/photo/2017/04/25/20/39/coot-2260775_640.jpg",
        "src1280": "https://cdn.pixabay.com/photo/2017/04/25/20/39/coot-2260775_1280.jpg"
    },
    {
        "id": "4809422",
        "src640": "https://cdn.pixabay.com/photo/2020/02/01/02/58/girl-4809422_640.jpg",
        "src1280": "https://cdn.pixabay.com/photo/2020/02/01/02/58/girl-4809422_1280.jpg"
    },
    {
        "id": "5305872",
        "src640": "https://cdn.pixabay.com/photo/2020/06/16/14/38/flying-fabric-5305872_640.jpg",
        "src1280": "https://cdn.pixabay.com/photo/2020/06/16/14/38/flying-fabric-5305872_1280.jpg"
    },
    {
        "id": "6398443",
        "src640": "https://cdn.pixabay.com/photo/2021/07/09/07/04/pier-6398443_640.jpg",
        "src1280": "https://cdn.pixabay.com/photo/2021/07/09/07/04/pier-6398443_1280.jpg"
    },
    {
        "id": "7773188",
        "src640": "https://cdn.pixabay.com/photo/2023/02/07/03/38/women-7773188_640.jpg",
        "src1280": "https://cdn.pixabay.com/photo/2023/02/07/03/38/women-7773188_1280.jpg"
    },
    {
        "id": "7145801",
        "src640": "https://cdn.pixabay.com/photo/2022/04/20/17/35/cyclists-7145801_640.jpg",
        "src1280": "https://cdn.pixabay.com/photo/2022/04/20/17/35/cyclists-7145801_1280.jpg"
    },
    {
        "id": "5198228",
        "src640": "https://cdn.pixabay.com/photo/2020/05/20/21/06/margarite-5198228_640.jpg",
        "src1280": "https://cdn.pixabay.com/photo/2020/05/20/21/06/margarite-5198228_1280.jpg"
    },
    {
        "id": "5048310",
        "src640": "https://cdn.pixabay.com/photo/2020/04/15/21/33/panda-5048310_640.jpg",
        "src1280": "https://cdn.pixabay.com/photo/2020/04/15/21/33/panda-5048310_1280.jpg"
    },
    {
        "id": "4510012",
        "src640": "https://cdn.pixabay.com/photo/2019/09/28/06/21/nature-4510012_640.jpg",
        "src1280": "https://cdn.pixabay.com/photo/2019/09/28/06/21/nature-4510012_1280.jpg"
    },
    {
        "id": "57722",
        "src640": "https://cdn.pixabay.com/photo/2012/09/22/03/51/sheep-57722_640.jpg",
        "src1280": "https://cdn.pixabay.com/photo/2012/09/22/03/51/sheep-57722_1280.jpg"
    },
    {
        "id": "4675297",
        "src640": "https://cdn.pixabay.com/photo/2019/12/05/14/23/sky-4675297_640.jpg",
        "src1280": "https://cdn.pixabay.com/photo/2019/12/05/14/23/sky-4675297_1280.jpg"
    },
    {
        "id": "1003022",
        "src640": "https://cdn.pixabay.com/photo/2015/10/23/13/45/books-1003022_640.jpg",
        "src1280": "https://cdn.pixabay.com/photo/2015/10/23/13/45/books-1003022_1280.jpg"
    },
    {
        "id": "4675301",
        "src640": "https://cdn.pixabay.com/photo/2019/12/05/14/23/sky-4675301_640.jpg",
        "src1280": "https://cdn.pixabay.com/photo/2019/12/05/14/23/sky-4675301_1280.jpg"
    },
    {
        "id": "7081934",
        "src640": "https://cdn.pixabay.com/photo/2022/03/20/22/20/daffodils-7081934_640.jpg",
        "src1280": "https://cdn.pixabay.com/photo/2022/03/20/22/20/daffodils-7081934_1280.jpg"
    },
    {
        "id": "5472144",
        "src640": "https://cdn.pixabay.com/photo/2020/08/08/05/22/beach-5472144_640.jpg",
        "src1280": "https://cdn.pixabay.com/photo/2020/08/08/05/22/beach-5472144_1280.jpg"
    },
    {
        "id": "4608924",
        "src640": "https://cdn.pixabay.com/photo/2019/11/07/13/48/girl-4608924_640.jpg",
        "src1280": "https://cdn.pixabay.com/photo/2019/11/07/13/48/girl-4608924_1280.jpg"
    },
    {
        "id": "8027542",
        "src640": "https://cdn.pixabay.com/photo/2023/05/30/03/41/woman-8027542_640.jpg",
        "src1280": "https://cdn.pixabay.com/photo/2023/05/30/03/41/woman-8027542_1280.jpg"
    },
    {
        "id": "7328778",
        "src640": "https://cdn.pixabay.com/photo/2022/07/18/05/13/girl-7328778_640.jpg",
        "src1280": "https://cdn.pixabay.com/photo/2022/07/18/05/13/girl-7328778_1280.jpg"
    },
    {
        "id": "4310439",
        "src640": "https://cdn.pixabay.com/photo/2019/07/01/16/59/tanzania-4310439_640.jpg",
        "src1280": "https://cdn.pixabay.com/photo/2019/07/01/16/59/tanzania-4310439_1280.jpg"
    },
    {
        "id": "84259",
        "src640": "https://cdn.pixabay.com/photo/2013/02/21/13/55/stone-tower-84259_640.jpg",
        "src1280": "https://cdn.pixabay.com/photo/2013/02/21/13/55/stone-tower-84259_1280.jpg"
    }
]