[
    {
        "id": "1004813",
        "src640": "https://cdn.pixabay.com/photo/2015/10/24/18/51/lady-1004813_640.jpg",
        "src1280": "https://cdn.pixabay.com/photo/2015/10/24/18/51/lady-1004813_1280.jpg"
    },
    {
        "id": "4792577",
        "src640": "https://cdn.pixabay.com/photo/2020/01/25/13/33/sunset-4792577_640.jpg",
        "src1280": "https://cdn.pixabay.com/photo/2020/01/25/13/33/sunset-4792577_1280.jpg"
    },
    {
        "id": "4172815",
        "src640": "https://cdn.pixabay.com/photo/2019/05/02/07/40/sea-4172815_640.jpg",
        "src1280": "https://cdn.pixabay.com/photo/2019/05/02/07/40/sea-4172815_1280.jpg"
    },
    {
        "id": "1260788",
        "src640": "https://cdn.pixabay.com/photo/2016/03/16/14/03/beer-1260788_640.jpg",
        "src1280": "https://cdn.pixabay.com/photo/2016/03/16/14/03/beer-1260788_1280.jpg"
    },
    {
        "id": "17634",
        "src640": "https://cdn.pixabay.com/photo/2012/02/28/00/38/cat-17634_640.jpg",
        "src1280": "https://cdn.pixabay.com/photo/2012/02/28/00/38/cat-17634_1280.jpg"
    },
    {
        "id": "3741908",
        "src640": "https://cdn.pixabay.com/photo/2018/10/12/11/07/background-3741908_640.jpg",
        "src1280": "https://cdn.pixabay.com/photo/2018/10/12/11/07/background-3741908_1280.jpg"
    },
    {
        "id": "5958083",
        "src640": "https://cdn.pixabay.com/photo/2021/01/28/14/01/english-cocker-spaniel-5958083_640.jpg",
        "src1280": "https://cdn.pixabay.com/photo/2021/01/28/14/01/english-cocker-spaniel-5958083_1280.jpg"
    },
    {
        "id": "4580728",
        "src640": "https://cdn.pixabay.com/photo/2019/10/27/05/56/journey-4580728_640.jpg",
        "src1280": "https://cdn.pixabay.com/photo/2019/10/27/05/56/journey-4580728_1280.jpg"
    },
    {
        "id": "226916",
        "src640": "https://cdn.pixabay.com/photo/2013/12/11/20/24/forest-226916_640.jpg",
        "src1280": "https://cdn.pixabay.com/photo/2013/12/11/20/24/forest-226916_1280.jpg"
    },
    {
        "id": "7010815",
        "src640": "https://cdn.pixabay.com/photo/2022/02/13/10/29/bedroom-7010815_640.jpg",
        "src1280": "https://cdn.pixabay.com/photo/2022/02/13/10/29/bedroom-7010815_1280.jpg"
    },
    {
        "id": "2572078",
        "src640": "https://cdn.pixabay.com/photo/2017/08/02/15/21/people-2572078_640.jpg",
        "src1280": "https://cdn.pixabay.com/photo/2017/08/02/15/21/people-2572078_1280.jpg"
    },
    {
        "id": "5286860",
        "src640": "https://cdn.pixabay.com/photo/2020/06/11/14/05/beach-5286860_640.jpg",
        "src1280": "https://cdn.pixabay.com/photo/2020/06/11/14/05/beach-5286860_1280.jpg"
    },
    {
        "id": "2693522",
        "src640": "https://cdn.pixabay.com/photo/2017/08/29/14/22/street-2693522_640.jpg",
        "src1280": "https://cdn.pixabay.com/photo/2017/08/29/14/22/street-2693522_1280.jpg"
    },
    {
        "id": "4148831",
        "src640": "https://cdn.pixabay.com/photo/2019/04/23/08/41/sea-4148831_640.jpg",
        "src1280": "https://cdn.pixabay.com/photo/2019/04/23/08/41/sea-4148831_1280.jpg"
    },
    {
        "id": "6839855",
        "src640": "https://cdn.pixabay.com/photo/2021/12/02/07/37/sunset-6839855_640.jpg",
        "src1280": "https://cdn.pixabay.com/photo/2021/12/02/07/37/sunset-6839855_1280.jpg"
    },
    {
        "id": "4744079",
        "src640": "https://cdn.pixabay.com/photo/2020/01/05/20/52/mountain-4744079_640.jpg",
        "src1280": "https://cdn.pixabay.com/photo/2020/01/05/20/52/mountain-4744079_1280.jpg"
    },
    {
        "id": "5323864",
        "src640": "https://cdn.pixabay.com/photo/2020/06/21/08/40/buddha-5323864_640.jpg",
        "src1280": "https://cdn.pixabay.com/photo/2020/06/21/08/40/buddha-5323864_1280.jpg"
    },
    {
        "id": "4957408",
        "src640": "https://cdn.pixabay.com/photo/2020/03/22/14/33/sunset-4957408_640.jpg",
        "src1280": "https://cdn.pixabay.com/photo/2020/03/22/14/33/sunset-4957408_1280.jpg"
    },
    {
        "id": "2677875",
        "src640": "https://cdn.pixabay.com/photo/2017/08/24/18/30/ship-2677875_640.jpg",
        "src1280": "https://cdn.pixabay.com/photo/2017/08/24/18/30/ship-2677875_1280.jpg"
    },
    {
        "id": "5111092",
        "src640": "https://cdn.pixabay.com/photo/2020/04/30/01/36/sun-loungers-5111092_640.jpg",
        "src1280": "https://cdn.pixabay.com/photo/2020/04/30/01/36/sun-loungers-5111092_1280.jpg"
    },
    {
        "id": "2811047",
        "src640": "https://cdn.pixabay.com/photo/2017/10/03/01/35/monkey-2811047_640.jpg",
        "src1280": "https://cdn.pixabay.com/photo/2017/10/03/01/35/monkey-2811047_1280.jpg"
    },
    {
        "id": "2520507",
        "src640": "https://cdn.pixabay.com/photo/2017/07/19/21/52/slovenia-2520507_640.jpg",
        "src1280": "https://cdn.pixabay.com/photo/2017/07/19/21/52/slovenia-2520507_1280.jpg"
    },
    {
        "id": "3677473",
        "src640": "https://cdn.pixabay.com/photo/2018/09/14/16/03/beach-3677473_640.jpg",
        "src1280": "https://cdn.pixabay.com/photo/2018/09/14/16/03/beach-3677473_1280.jpg"
    },
    {
        "id": "4925804",
        "src640": "https://cdn.pixabay.com/photo/2020/03/12/17/40/green-4925804_640.jpg",
        "src1280": "https://cdn.pixabay.com/photo/2020/03/12/17/40/green-4925804_1280.jpg"
    },
    {
        "id": "5511047",
        "src640": "https://cdn.pixabay.com/photo/2020/08/23/14/55/beach-5511047_640.jpg",
        "src1280": "https://cdn.pixabay.com/photo/2020/08/23/14/55/beach-5511047_1280.jpg"
    },
    {
        "id": "2563359",
        "src640": "https://cdn.pixabay.com/photo/2017/08/01/08/01/river-2563359_640.jpg",
        "src1280": "https://cdn.pixabay.com/photo/2017/08/01/08/01/river-2563359_1280.jpg"
    },
    {
        "id": "6281379",
        "src640": "https://cdn.pixabay.com/photo/2021/05/25/05/44/boat-6281379_640.jpg",
        "src1280": "https://cdn.pixabay.com/photo/2021/05/25/05/44/boat-6281379_1280.jpg"
    },
    {
        "id": "5460775",
        "src640": "https://cdn.pixabay.com/photo/2020/08/03/18/30/beach-towel-5460775_640.jpg",
        "src1280": "https://cdn.pixabay.com/photo/2020/08/03/18/30/beach-towel-5460775_1280.jpg"
    },
    {
        "id": "5129832",
        "src640": "https://cdn.pixabay.com/photo/2020/05/04/16/49/tao-5129832_640.jpg",
        "src1280": "https://cdn.pixabay.com/photo/2020/05/04/16/49/tao-5129832_1280.jpg"
    },
    {
        "id": "5197538",
        "src640": "https://cdn.pixabay.com/photo/2020/05/20/17/46/blossoms-5197538_640.jpg",
        "src1280": "https://cdn.pixabay.com/photo/2020/05/20/17/46/blossoms-5197538_1280.jpg"
    },
    {
        "id": "3835285",
        "src640": "https://cdn.pixabay.com/photo/2018/11/24/10/54/landscape-3835285_640.jpg",
        "src1280": "https://cdn.pixabay.com/photo/2018/11/24/10/54/landscape-3835285_1280.jpg"
    },
    {
        "id": "5081239",
        "src640": "https://cdn.pixabay.com/photo/2020/04/23/06/13/lavender-5081239_640.jpg",
        "src1280": "https://cdn.pixabay.com/photo/2020/04/23/06/13/lavender-5081239_1280.jpg"
    },
    {
        "id": "5112677",
        "src640": "https://cdn.pixabay.com/photo/2020/04/30/12/27/art-5112677_640.jpg",
        "src1280": "https://cdn.pixabay.com/photo/2020/04/30/12/27/art-5112677_1280.jpg"
    },
    {
        "id": "5001841",
        "src640": "https://cdn.pixabay.com/photo/2020/04/04/11/09/ukulele-5001841_640.jpg",
        "src1280": "https://cdn.pixabay.com/photo/2020/04/04/11/09/ukulele-5001841_1280.jpg"
    },
    {
        "id": "8394964",
        "src640": "https://cdn.pixabay.com/photo/2023/11/17/19/54/woman-8394964_640.jpg",
        "src1280": "https://cdn.pixabay.com/photo/2023/11/17/19/54/woman-8394964_1280.jpg"
    },
    {
        "id": "2803570",
        "src640": "https://cdn.pixabay.com/photo/2017/09/30/21/00/salzkammergut-2803570_640.jpg",
        "src1280": "https://cdn.pixabay.com/photo/2017/09/30/21/00/salzkammergut-2803570_1280.jpg"
    },
    {
        "id": "4148829",
        "src640": "https://cdn.pixabay.com/photo/2019/04/23/08/41/sea-4148829_640.jpg",
        "src1280": "https://cdn.pixabay.com/photo/2019/04/23/08/41/sea-4148829_1280.jpg"
    },
    {
        "id": "7538681",
        "src640": "https://cdn.pixabay.com/photo/2022/10/22/07/39/goat-7538681_640.jpg",
        "src1280": "https://cdn.pixabay.com/photo/2022/10/22/07/39/goat-7538681_1280.jpg"
    },
    {
        "id": "2648367",
        "src640": "https://cdn.pixabay.com/photo/2017/08/16/16/36/bank-2648367_640.jpg",
        "src1280": "https://cdn.pixabay.com/photo/2017/08/16/16/36/bank-2648367_1280.jpg"
    },
    {
        "id": "2153940",
        "src640": "https://cdn.pixabay.com/photo/2017/03/18/13/04/coffee-2153940_640.jpg",
        "src1280": "https://cdn.pixabay.com/photo/2017/03/18/13/04/coffee-2153940_1280.jpg"
    },
    {
        "id": "4949211",
        "src640": "https://cdn.pixabay.com/photo/2020/03/20/01/18/sunset-4949211_640.jpg",
        "src1280": "https://cdn.pixabay.com/photo/2020/03/20/01/18/sunset-4949211_1280.jpg"
    },
    {
        "id": "5217707",
        "src640": "https://cdn.pixabay.com/photo/2020/05/25/09/00/broom-5217707_640.jpg",
        "src1280": "https://cdn.pixabay.com/photo/2020/05/25/09/00/broom-5217707_1280.jpg"
    },
    {
        "id": "5208285",
        "src640": "https://cdn.pixabay.com/photo/2020/05/23/07/08/mauve-5208285_640.jpg",
        "src1280": "https://cdn.pixabay.com/photo/2020/05/23/07/08/mauve-5208285_1280.jpg"
    },
    {
        "id": "4568275",
        "src640": "https://cdn.pixabay.com/photo/2019/10/22/10/27/summer-4568275_640.jpg",
        "src1280": "https://cdn.pixabay.com/photo/2019/10/22/10/27/summer-4568275_1280.jpg"
    },
    {
        "id": "3433547",
        "src640": "https://cdn.pixabay.com/photo/2018/05/27/13/49/foliage-3433547_640.jpg",
        "src1280": "https://cdn.pixabay.com/photo/2018/05/27/13/49/foliage-3433547_1280.jpg"
    },
    {
        "id": "5377543",
        "src640": "https://cdn.pixabay.com/photo/2020/07/06/16/28/lighthouse-5377543_640.jpg",
        "src1280": "https://cdn.pixabay.com/photo/2020/07/06/16/28/lighthouse-5377543_1280.jpg"
    },
    {
        "id": "7454949",
        "src640": "https://cdn.pixabay.com/photo/2022/09/14/18/32/machines-7454949_640.jpg",
        "src1280": "https://cdn.pixabay.com/photo/2022/09/14/18/32/machines-7454949_1280.jpg"
    },
    {
        "id": "5123628",
        "src640": "https://cdn.pixabay.com/photo/2020/05/03/02/28/squirrel-5123628_640.jpg",
        "src1280": "https://cdn.pixabay.com/photo/2020/05/03/02/28/squirrel-5123628_1280.jpg"
    },
    {
        "id": "955773",
        "src640": "https://cdn.pixabay.com/photo/2015/09/24/15/10/sea-955773_640.jpg",
        "src1280": "https://cdn.pixabay.com/photo/2015/09/24/15/10/sea-955773_1280.jpg"
    },
    {
        "id": "1038050",
        "src640": "https://cdn.pixabay.com/photo/2015/11/11/00/56/sand-1038050_640.jpg",
        "src1280": "https://cdn.pixabay.com/photo/2015/11/11/00/56/sand-1038050_1280.jpg"
    },
    {
        "id": "788049",
        "src640": "https://cdn.pixabay.com/photo/2015/05/28/15/29/malinois-788049_640.jpg",
        "src1280": "https://cdn.pixabay.com/photo/2015/05/28/15/29/malinois-788049_1280.jpg"
    },
    {
        "id": "4946062",
        "src640": "https://cdn.pixabay.com/photo/2020/03/19/02/27/silhouette-4946062_640.jpg",
        "src1280": "https://cdn.pixabay.com/photo/2020/03/19/02/27/silhouette-4946062_1280.jpg"
    },
    {
        "id": "4692144",
        "src640": "https://cdn.pixabay.com/photo/2019/12/13/04/49/girl-4692144_640.jpg",
        "src1280": "https://cdn.pixabay.com/photo/2019/12/13/04/49/girl-4692144_1280.jpg"
    },
    {
        "id": "1527585",
        "src640": "https://cdn.pixabay.com/photo/2016/07/19/05/53/hammock-1527585_640.jpg",
        "src1280": "https://cdn.pixabay.com/photo/2016/07/19/05/53/hammock-1527585_1280.jpg"
    },
    {
        "id": "2628957",
        "src640": "https://cdn.pixabay.com/photo/2017/08/10/23/41/flower-2628957_640.jpg",
        "src1280": "https://cdn.pixabay.com/photo/2017/08/10/23/41/flower-2628957_1280.jpg"
    },
    {
        "id": "4142786",
        "src640": "https://cdn.pixabay.com/photo/2019/04/20/21/35/blue-bonnet-4142786_640.jpg",
        "src1280": "https://cdn.pixabay.com/photo/2019/04/20/21/35/blue-bonnet-4142786_1280.jpg"
    },
    {
        "id": "73729",
        "src640": "https://cdn.pixabay.com/photo/2013/01/05/11/14/plough-73729_640.jpg",
        "src1280": "https://cdn.pixabay.com/photo/2013/01/05/11/14/plough-73729_1280.jpg"
    },
    {
        "id": "2683349",
        "src640": "https://cdn.pixabay.com/photo/2017/08/26/15/14/stones-2683349_640.jpg",
        "src1280": "https://cdn.pixabay.com/photo/2017/08/26/15/14/stones-2683349_1280.jpg"
    },
    {
        "id": "5231713",
        "src640": "https://cdn.pixabay.com/photo/2020/05/28/16/26/gummies-5231713_640.jpg",
        "src1280": "https://cdn.pixabay.com/photo/2020/05/28/16/26/gummies-5231713_1280.jpg"
    },
    {
        "id": "4758979",
        "src640": "https://cdn.pixabay.com/photo/2020/01/12/00/04/wood-4758979_640.jpg",
        "src1280": "https://cdn.pixabay.com/photo/2020/01/12/00/04/wood-4758979_1280.jpg"
    },
    {
        "id": "7563127",
        "src640": "https://cdn.pixabay.com/photo/2022/11/01/19/11/sunrise-7563127_640.jpg",
        "src1280": "https://cdn.pixabay.com/photo/2022/11/01/19/11/sunrise-7563127_1280.jpg"
    },
    {
        "id": "3723263",
        "src640": "https://cdn.pixabay.com/photo/2018/10/04/09/36/mushroom-3723263_640.jpg",
        "src1280": "https://cdn.pixabay.com/photo/2018/10/04/09/36/mushroom-3723263_1280.jpg"
    },
    {
        "id": "5186869",
        "src640": "https://cdn.pixabay.com/photo/2020/05/18/15/05/tags-5186869_640.jpg",
        "src1280": "https://cdn.pixabay.com/photo/2020/05/18/15/05/tags-5186869_1280.jpg"
    },
    {
        "id": "4942776",
        "src640": "https://cdn.pixabay.com/photo/2020/03/18/05/55/landscape-4942776_640.jpg",
        "src1280": "https://cdn.pixabay.com/photo/2020/03/18/05/55/landscape-4942776_1280.jpg"
    },
    {
        "id": "4958939",
        "src640": "https://cdn.pixabay.com/photo/2020/03/22/23/56/landscape-4958939_640.jpg",
        "src1280": "https://cdn.pixabay.com/photo/2020/03/22/23/56/landscape-4958939_1280.jpg"
    },
    {
        "id": "5043024",
        "src640": "https://cdn.pixabay.com/photo/2020/04/14/14/56/fashion-5043024_640.jpg",
        "src1280": "https://cdn.pixabay.com/photo/2020/04/14/14/56/fashion-5043024_1280.jpg"
    },
    {
        "id": "4645332",
        "src640": "https://cdn.pixabay.com/photo/2019/11/22/18/00/dominica-4645332_640.jpg",
        "src1280": "https://cdn.pixabay.com/photo/2019/11/22/18/00/dominica-4645332_1280.jpg"
    },
    {
        "id": "4593811",
        "src640": "https://cdn.pixabay.com/photo/2019/11/01/10/34/dog-4593811_640.jpg",
        "src1280": "https://cdn.pixabay.com/photo/2019/11/01/10/34/dog-4593811_1280.jpg"
    },
    {
        "id": "4602139",
        "src640": "https://cdn.pixabay.com/photo/2019/11/04/20/43/chandler-bridge-4602139_640.jpg",
        "src1280": "https://cdn.pixabay.com/photo/2019/11/04/20/43/chandler-bridge-4602139_1280.jpg"
    },
    {
        "id": "4932138",
        "src640": "https://cdn.pixabay.com/photo/2020/03/15/00/18/sunset-4932138_640.jpg",
        "src1280": "https://cdn.pixabay.com/photo/2020/03/15/00/18/sunset-4932138_1280.jpg"
    },
    {
        "id": "7116462",
        "src640": "https://cdn.pixabay.com/photo/2022/04/06/22/39/mountains-7116462_640.jpg",
        "src1280": "https://cdn.pixabay.com/photo/2022/04/06/22/39/mountains-7116462_1280.jpg"
    },
    {
        "id": "231671",
        "src640": "https://cdn.pixabay.com/photo/2013/12/21/13/24/hanging-chair-231671_640.jpg",
        "src1280": "https://cdn.pixabay.com/photo/2013/12/21/13/24/hanging-chair-231671_1280.jpg"
    },
    {
        "id": "825987",
        "src640": "https://cdn.pixabay.com/photo/2015/06/29/21/14/penguin-825987_640.jpg",
        "src1280": "https://cdn.pixabay.com/photo/2015/06/29/21/14/penguin-825987_1280.jpg"
    },
    {
        "id": "4581781",
        "src640": "https://cdn.pixabay.com/photo/2019/10/27/13/26/church-4581781_640.jpg",
        "src1280": "https://cdn.pixabay.com/photo/2019/10/27/13/26/church-4581781_1280.jpg"
    },
    {
        "id": "4523452",
        "src640": "https://cdn.pixabay.com/photo/2019/10/03/14/13/male-4523452_640.jpg",
        "src1280": "https://cdn.pixabay.com/photo/2019/10/03/14/13/male-4523452_1280.jpg"
    },
    {
        "id": "2561707",
        "src640": "https://cdn.pixabay.com/photo/2017/07/31/22/38/sea-2561707_640.jpg",
        "src1280": "https://cdn.pixabay.com/photo/2017/07/31/22/38/sea-2561707_1280.jpg"
    },
    {
        "id": "4692161",
        "src640": "https://cdn.pixabay.com/photo/2019/12/13/04/52/girl-4692161_640.jpg",
        "src1280": "https://cdn.pixabay.com/photo/2019/12/13/04/52/girl-4692161_1280.jpg"
    },
    {
        "id": "7600814",
        "src640": "https://cdn.pixabay.com/photo/2022/11/18/19/14/black-and-white-7600814_640.jpg",
        "src1280": "https://cdn.pixabay.com/photo/2022/11/18/19/14/black-and-white-7600814_1280.jpg"
    },
    {
        "id": "7867620",
        "src640": "https://cdn.pixabay.com/photo/2023/03/21/16/14/panda-7867620_640.jpg",
        "src1280": "https://cdn.pixabay.com/photo/2023/03/21/16/14/panda-7867620_1280.jpg"
    },
    {
        "id": "5195561",
        "src640": "https://cdn.pixabay.com/photo/2020/05/20/09/02/art-5195561_640.jpg",
        "src1280": "https://cdn.pixabay.com/photo/2020/05/20/09/02/art-5195561_1280.jpg"
    },
    {
        "id": "4935226",
        "src640": "https://cdn.pixabay.com/photo/2020/03/15/23/03/beach-4935226_640.jpg",
        "src1280": "https://cdn.pixabay.com/photo/2020/03/15/23/03/beach-4935226_1280.jpg"
    },
    {
        "id": "4523493",
        "src640": "https://cdn.pixabay.com/photo/2019/10/03/14/29/coffee-4523493_640.jpg",
        "src1280": "https://cdn.pixabay.com/photo/2019/10/03/14/29/coffee-4523493_1280.jpg"
    },
    {
        "id": "5053280",
        "src640": "https://cdn.pixabay.com/photo/2020/04/17/05/46/alps-5053280_640.jpg",
        "src1280": "https://cdn.pixabay.com/photo/2020/04/17/05/46/alps-5053280_1280.jpg"
    },
    {
        "id": "4044846",
        "src640": "https://cdn.pixabay.com/photo/2019/03/09/19/26/sheep-4044846_640.jpg",
        "src1280": "https://cdn.pixabay.com/photo/2019/03/09/19/26/sheep-4044846_1280.jpg"
    },
    {
        "id": "4987845",
        "src640": "https://cdn.pixabay.com/photo/2020/03/31/14/17/chair-4987845_640.jpg",
        "src1280": "https://cdn.pixabay.com/photo/2020/03/31/14/17/chair-4987845_1280.jpg"
    },
    {
        "id": "1587798",
        "src640": "https://cdn.pixabay.com/photo/2016/08/12/06/18/rocking-1587798_640.jpg",
        "src1280": "https://cdn.pixabay.com/photo/2016/08/12/06/18/rocking-1587798_1280.jpg"
    },
    {
        "id": "672317",
        "src640": "https://cdn.pixabay.com/photo/2015/03/13/21/37/animal-672317_640.jpg",
        "src1280": "https://cdn.pixabay.com/photo/2015/03/13/21/37/animal-672317_1280.jpg"
    },
    {
        "id": "4607274",
        "src640": "https://cdn.pixabay.com/photo/2019/11/06/22/17/cork-4607274_640.jpg",
        "src1280": "https://cdn.pixabay.com/photo/2019/11/06/22/17/cork-4607274_1280.jpg"
    },
    {
        "id": "3399195",
        "src640": "https://cdn.pixabay.com/photo/2018/05/14/09/33/nature-3399195_640.jpg",
        "src1280": "https://cdn.pixabay.com/photo/2018/05/14/09/33/nature-3399195_1280.jpg"
    },
    {
        "id": "2133288",
        "src640": "https://cdn.pixabay.com/photo/2017/03/10/17/05/fish-2133288_640.jpg",
        "src1280": "https://cdn.pixabay.com/photo/2017/03/10/17/05/fish-2133288_1280.jpg"
    },
    {
        "id": "4649997",
        "src640": "https://cdn.pixabay.com/photo/2019/11/24/18/11/grenada-4649997_640.jpg",
        "src1280": "https://cdn.pixabay.com/photo/2019/11/24/18/11/grenada-4649997_1280.jpg"
    },
    {
        "id": "4932144",
        "src640": "https://cdn.pixabay.com/photo/2020/03/15/00/18/sunset-4932144_640.jpg",
        "src1280": "https://cdn.pixabay.com/photo/2020/03/15/00/18/sunset-4932144_1280.jpg"
    },
    {
        "id": "7327419",
        "src640": "https://cdn.pixabay.com/photo/2022/07/17/13/19/zen-7327419_640.jpg",
        "src1280": "https://cdn.pixabay.com/photo/2022/07/17/13/19/zen-7327419_1280.jpg"
    },
    {
        "id": "2693065",
        "src640": "https://cdn.pixabay.com/photo/2017/08/29/12/10/domestic-cat-close-up-2693065_640.jpg",
        "src1280": "https://cdn.pixabay.com/photo/2017/08/29/12/10/domestic-cat-close-up-2693065_1280.jpg"
    },
    {
        "id": "4800242",
        "src640": "https://cdn.pixabay.com/photo/2020/01/28/16/47/sunset-4800242_640.jpg",
        "src1280": "https://cdn.pixabay.com/photo/2020/01/28/16/47/sunset-4800242_1280.jpg"
    }
]