[
    {
        "id": "5005324",
        "src640": "https://cdn.pixabay.com/photo/2020/04/05/09/31/grilling-5005324_640.jpg",
        "src1280": "https://cdn.pixabay.com/photo/2020/04/05/09/31/grilling-5005324_1280.jpg"
    },
    {
        "id": "4932133",
        "src640": "https://cdn.pixabay.com/photo/2020/03/15/00/18/sunset-4932133_640.jpg",
        "src1280": "https://cdn.pixabay.com/photo/2020/03/15/00/18/sunset-4932133_1280.jpg"
    },
    {
        "id": "5517730",
        "src640": "https://cdn.pixabay.com/photo/2020/08/25/18/26/road-5517730_640.jpg",
        "src1280": "https://cdn.pixabay.com/photo/2020/08/25/18/26/road-5517730_1280.jpg"
    },
    {
        "id": "4759508",
        "src640": "https://cdn.pixabay.com/photo/2020/01/12/08/14/peace-4759508_640.jpg",
        "src1280": "https://cdn.pixabay.com/photo/2020/01/12/08/14/peace-4759508_1280.jpg"
    },
    {
        "id": "5467040",
        "src640": "https://cdn.pixabay.com/photo/2020/08/06/05/42/summer-5467040_640.jpg",
        "src1280": "https://cdn.pixabay.com/photo/2020/08/06/05/42/summer-5467040_1280.jpg"
    },
    {
        "id": "3608196",
        "src640": "https://cdn.pixabay.com/photo/2018/08/15/14/56/dog-3608196_640.jpg",
        "src1280": "https://cdn.pixabay.com/photo/2018/08/15/14/56/dog-3608196_1280.jpg"
    },
    {
        "id": "402139",
        "src640": "https://cdn.pixabay.com/photo/2014/07/26/09/50/boardwalk-402139_640.jpg",
        "src1280": "https://cdn.pixabay.com/photo/2014/07/26/09/50/boardwalk-402139_1280.jpg"
    },
    {
        "id": "5148675",
        "src640": "https://cdn.pixabay.com/photo/2020/05/09/08/09/sea-5148675_640.jpg",
        "src1280": "https://cdn.pixabay.com/photo/2020/05/09/08/09/sea-5148675_1280.jpg"
    },
    {
        "id": "7063859",
        "src640": "https://cdn.pixabay.com/photo/2022/03/12/09/39/couple-7063859_640.jpg",
        "src1280": "https://cdn.pixabay.com/photo/2022/03/12/09/39/couple-7063859_1280.jpg"
    },
    {
        "id": "5954251",
        "src640": "https://cdn.pixabay.com/photo/2021/01/27/09/04/woman-5954251_640.jpg",
        "src1280": "https://cdn.pixabay.com/photo/2021/01/27/09/04/woman-5954251_1280.jpg"
    },
    {
        "id": "4875662",
        "src640": "https://cdn.pixabay.com/photo/2020/02/24/09/09/shell-4875662_640.jpg",
        "src1280": "https://cdn.pixabay.com/photo/2020/02/24/09/09/shell-4875662_1280.jpg"
    },
    {
        "id": "4858231",
        "src640": "https://cdn.pixabay.com/photo/2020/02/18/01/43/sunset-4858231_640.jpg",
        "src1280": "https://cdn.pixabay.com/photo/2020/02/18/01/43/sunset-4858231_1280.jpg"
    },
    {
        "id": "4916863",
        "src640": "https://cdn.pixabay.com/photo/2020/03/09/19/14/nature-4916863_640.jpg",
        "src1280": "https://cdn.pixabay.com/photo/2020/03/09/19/14/nature-4916863_1280.jpg"
    },
    {
        "id": "4850357",
        "src640": "https://cdn.pixabay.com/photo/2020/02/15/08/41/tea-4850357_640.jpg",
        "src1280": "https://cdn.pixabay.com/photo/2020/02/15/08/41/tea-4850357_1280.jpg"
    },
    {
        "id": "4023378",
        "src640": "https://cdn.pixabay.com/photo/2019/02/27/04/59/nature-4023378_640.jpg",
        "src1280": "https://cdn.pixabay.com/photo/2019/02/27/04/59/nature-4023378_1280.jpg"
    },
    {
        "id": "5271766",
        "src640": "https://cdn.pixabay.com/photo/2020/06/07/19/26/rose-5271766_640.jpg",
        "src1280": "https://cdn.pixabay.com/photo/2020/06/07/19/26/rose-5271766_1280.jpg"
    },
    {
        "id": "5010093",
        "src640": "https://cdn.pixabay.com/photo/2020/04/06/15/21/sunset-5010093_640.jpg",
        "src1280": "https://cdn.pixabay.com/photo/2020/04/06/15/21/sunset-5010093_1280.jpg"
    },
    {
        "id": "1358220",
        "src640": "https://cdn.pixabay.com/photo/2016/04/28/06/42/chair-1358220_640.jpg",
        "src1280": "https://cdn.pixabay.com/photo/2016/04/28/06/42/chair-1358220_1280.jpg"
    },
    {
        "id": "830430",
        "src640": "https://cdn.pixabay.com/photo/2015/07/03/16/08/person-830430_640.jpg",
        "src1280": "https://cdn.pixabay.com/photo/2015/07/03/16/08/person-830430_1280.jpg"
    },
    {
        "id": "5237239",
        "src640": "https://cdn.pixabay.com/photo/2020/05/30/00/53/sunset-5237239_640.jpg",
        "src1280": "https://cdn.pixabay.com/photo/2020/05/30/00/53/sunset-5237239_1280.jpg"
    },
    {
        "id": "5233629",
        "src640": "https://cdn.pixabay.com/photo/2020/05/29/04/55/sunset-5233629_640.jpg",
        "src1280": "https://cdn.pixabay.com/photo/2020/05/29/04/55/sunset-5233629_1280.jpg"
    },
    {
        "id": "6878003",
        "src640": "https://cdn.pixabay.com/photo/2021/12/18/06/00/curtain-6878003_640.jpg",
        "src1280": "https://cdn.pixabay.com/photo/2021/12/18/06/00/curtain-6878003_1280.jpg"
    },
    {
        "id": "4088306",
        "src640": "https://cdn.pixabay.com/photo/2019/03/28/23/49/women-4088306_640.jpg",
        "src1280": "https://cdn.pixabay.com/photo/2019/03/28/23/49/women-4088306_1280.jpg"
    },
    {
        "id": "6366169",
        "src640": "https://cdn.pixabay.com/photo/2021/06/26/12/51/couple-6366169_640.jpg",
        "src1280": "https://cdn.pixabay.com/photo/2021/06/26/12/51/couple-6366169_1280.jpg"
    },
    {
        "id": "5373222",
        "src640": "https://cdn.pixabay.com/photo/2020/07/05/14/36/sleep-5373222_640.jpg",
        "src1280": "https://cdn.pixabay.com/photo/2020/07/05/14/36/sleep-5373222_1280.jpg"
    },
    {
        "id": "6950223",
        "src640": "https://cdn.pixabay.com/photo/2022/01/19/15/43/tree-6950223_640.jpg",
        "src1280": "https://cdn.pixabay.com/photo/2022/01/19/15/43/tree-6950223_1280.jpg"
    },
    {
        "id": "1494178",
        "src640": "https://cdn.pixabay.com/photo/2016/07/03/02/09/woman-1494178_640.jpg",
        "src1280": "https://cdn.pixabay.com/photo/2016/07/03/02/09/woman-1494178_1280.jpg"
    },
    {
        "id": "4461882",
        "src640": "https://cdn.pixabay.com/photo/2019/09/08/20/47/austria-4461882_640.jpg",
        "src1280": "https://cdn.pixabay.com/photo/2019/09/08/20/47/austria-4461882_1280.jpg"
    },
    {
        "id": "3283300",
        "src640": "https://cdn.pixabay.com/photo/2018/04/02/08/52/woman-3283300_640.jpg",
        "src1280": "https://cdn.pixabay.com/photo/2018/04/02/08/52/woman-3283300_1280.jpg"
    },
    {
        "id": "5091843",
        "src640": "https://cdn.pixabay.com/photo/2020/04/25/17/20/chicken-5091843_640.jpg",
        "src1280": "https://cdn.pixabay.com/photo/2020/04/25/17/20/chicken-5091843_1280.jpg"
    },
    {
        "id": "4769246",
        "src640": "https://cdn.pixabay.com/photo/2020/01/16/00/01/bank-4769246_640.jpg",
        "src1280": "https://cdn.pixabay.com/photo/2020/01/16/00/01/bank-4769246_1280.jpg"
    },
    {
        "id": "4952286",
        "src640": "https://cdn.pixabay.com/photo/2020/03/20/23/34/sunset-4952286_640.jpg",
        "src1280": "https://cdn.pixabay.com/photo/2020/03/20/23/34/sunset-4952286_1280.jpg"
    },
    {
        "id": "5277161",
        "src640": "https://cdn.pixabay.com/photo/2020/06/09/06/25/sunset-5277161_640.jpg",
        "src1280": "https://cdn.pixabay.com/photo/2020/06/09/06/25/sunset-5277161_1280.jpg"
    },
    {
        "id": "7357358",
        "src640": "https://cdn.pixabay.com/photo/2022/08/01/05/02/wave-7357358_640.jpg",
        "src1280": "https://cdn.pixabay.com/photo/2022/08/01/05/02/wave-7357358_1280.jpg"
    },
    {
        "id": "5148034",
        "src640": "https://cdn.pixabay.com/photo/2020/05/09/03/07/arizona-5148034_640.jpg",
        "src1280": "https://cdn.pixabay.com/photo/2020/05/09/03/07/arizona-5148034_1280.jpg"
    },
    {
        "id": "750952",
        "src640": "https://cdn.pixabay.com/photo/2015/05/03/10/34/japanese-cherry-750952_640.jpg",
        "src1280": "https://cdn.pixabay.com/photo/2015/05/03/10/34/japanese-cherry-750952_1280.jpg"
    },
    {
        "id": "7536701",
        "src640": "https://cdn.pixabay.com/photo/2022/10/21/10/16/waterfall-7536701_640.jpg",
        "src1280": "https://cdn.pixabay.com/photo/2022/10/21/10/16/waterfall-7536701_1280.jpg"
    },
    {
        "id": "5279661",
        "src640": "https://cdn.pixabay.com/photo/2020/06/09/18/58/art-5279661_640.jpg",
        "src1280": "https://cdn.pixabay.com/photo/2020/06/09/18/58/art-5279661_1280.jpg"
    },
    {
        "id": "4939791",
        "src640": "https://cdn.pixabay.com/photo/2020/03/17/11/14/shiva-4939791_640.jpg",
        "src1280": "https://cdn.pixabay.com/photo/2020/03/17/11/14/shiva-4939791_1280.jpg"
    },
    {
        "id": "2878712",
        "src640": "https://cdn.pixabay.com/photo/2017/10/22/18/16/feet-2878712_640.jpg",
        "src1280": "https://cdn.pixabay.com/photo/2017/10/22/18/16/feet-2878712_1280.jpg"
    },
    {
        "id": "4853726",
        "src640": "https://cdn.pixabay.com/photo/2020/02/16/14/35/trees-4853726_640.jpg",
        "src1280": "https://cdn.pixabay.com/photo/2020/02/16/14/35/trees-4853726_1280.jpg"
    },
    {
        "id": "823150",
        "src640": "https://cdn.pixabay.com/photo/2015/06/27/00/33/ocean-823150_640.jpg",
        "src1280": "https://cdn.pixabay.com/photo/2015/06/27/00/33/ocean-823150_1280.jpg"
    },
    {
        "id": "4142785",
        "src640": "https://cdn.pixabay.com/photo/2019/04/20/21/35/blue-bonnet-4142785_640.jpg",
        "src1280": "https://cdn.pixabay.com/photo/2019/04/20/21/35/blue-bonnet-4142785_1280.jpg"
    },
    {
        "id": "1521975",
        "src640": "https://cdn.pixabay.com/photo/2016/07/16/14/08/castle-1521975_640.jpg",
        "src1280": "https://cdn.pixabay.com/photo/2016/07/16/14/08/castle-1521975_1280.jpg"
    },
    {
        "id": "825991",
        "src640": "https://cdn.pixabay.com/photo/2015/06/29/21/16/penguin-825991_640.jpg",
        "src1280": "https://cdn.pixabay.com/photo/2015/06/29/21/16/penguin-825991_1280.jpg"
    },
    {
        "id": "5187289",
        "src640": "https://cdn.pixabay.com/photo/2020/05/18/16/24/water-5187289_640.jpg",
        "src1280": "https://cdn.pixabay.com/photo/2020/05/18/16/24/water-5187289_1280.jpg"
    },
    {
        "id": "5078875",
        "src640": "https://cdn.pixabay.com/photo/2020/04/22/16/05/sun-5078875_640.jpg",
        "src1280": "https://cdn.pixabay.com/photo/2020/04/22/16/05/sun-5078875_1280.jpg"
    },
    {
        "id": "5954260",
        "src640": "https://cdn.pixabay.com/photo/2021/01/27/09/05/woman-5954260_640.jpg",
        "src1280": "https://cdn.pixabay.com/photo/2021/01/27/09/05/woman-5954260_1280.jpg"
    },
    {
        "id": "1004818",
        "src640": "https://cdn.pixabay.com/photo/2015/10/24/18/54/lady-1004818_640.jpg",
        "src1280": "https://cdn.pixabay.com/photo/2015/10/24/18/54/lady-1004818_1280.jpg"
    },
    {
        "id": "6284499",
        "src640": "https://cdn.pixabay.com/photo/2021/05/26/08/13/men-6284499_640.jpg",
        "src1280": "https://cdn.pixabay.com/photo/2021/05/26/08/13/men-6284499_1280.jpg"
    },
    {
        "id": "5366550",
        "src640": "https://cdn.pixabay.com/photo/2020/07/03/14/37/lighthouse-5366550_640.jpg",
        "src1280": "https://cdn.pixabay.com/photo/2020/07/03/14/37/lighthouse-5366550_1280.jpg"
    },
    {
        "id": "915104",
        "src640": "https://cdn.pixabay.com/photo/2015/08/31/07/49/chairs-915104_640.jpg",
        "src1280": "https://cdn.pixabay.com/photo/2015/08/31/07/49/chairs-915104_1280.jpg"
    },
    {
        "id": "5921232",
        "src640": "https://cdn.pixabay.com/photo/2021/01/16/05/42/man-5921232_640.jpg",
        "src1280": "https://cdn.pixabay.com/photo/2021/01/16/05/42/man-5921232_1280.jpg"
    },
    {
        "id": "3699815",
        "src640": "https://cdn.pixabay.com/photo/2018/09/24/12/23/garden-3699815_640.jpg",
        "src1280": "https://cdn.pixabay.com/photo/2018/09/24/12/23/garden-3699815_1280.jpg"
    },
    {
        "id": "5887274",
        "src640": "https://cdn.pixabay.com/photo/2021/01/04/11/46/old-woman-5887274_640.jpg",
        "src1280": "https://cdn.pixabay.com/photo/2021/01/04/11/46/old-woman-5887274_1280.jpg"
    },
    {
        "id": "4996091",
        "src640": "https://cdn.pixabay.com/photo/2020/04/02/17/47/lake-4996091_640.jpg",
        "src1280": "https://cdn.pixabay.com/photo/2020/04/02/17/47/lake-4996091_1280.jpg"
    },
    {
        "id": "5460754",
        "src640": "https://cdn.pixabay.com/photo/2020/08/03/18/29/sea-5460754_640.jpg",
        "src1280": "https://cdn.pixabay.com/photo/2020/08/03/18/29/sea-5460754_1280.jpg"
    },
    {
        "id": "2218068",
        "src640": "https://cdn.pixabay.com/photo/2017/04/10/10/35/landscape-2218068_640.jpg",
        "src1280": "https://cdn.pixabay.com/photo/2017/04/10/10/35/landscape-2218068_1280.jpg"
    },
    {
        "id": "4754764",
        "src640": "https://cdn.pixabay.com/photo/2020/01/10/08/27/palmer-4754764_640.jpg",
        "src1280": "https://cdn.pixabay.com/photo/2020/01/10/08/27/palmer-4754764_1280.jpg"
    },
    {
        "id": "5476510",
        "src640": "https://cdn.pixabay.com/photo/2020/08/09/21/50/pier-5476510_640.jpg",
        "src1280": "https://cdn.pixabay.com/photo/2020/08/09/21/50/pier-5476510_1280.jpg"
    },
    {
        "id": "4852251",
        "src640": "https://cdn.pixabay.com/photo/2020/02/15/23/13/leaves-4852251_640.jpg",
        "src1280": "https://cdn.pixabay.com/photo/2020/02/15/23/13/leaves-4852251_1280.jpg"
    },
    {
        "id": "5095963",
        "src640": "https://cdn.pixabay.com/photo/2020/04/26/16/02/nature-5095963_640.jpg",
        "src1280": "https://cdn.pixabay.com/photo/2020/04/26/16/02/nature-5095963_1280.jpg"
    },
    {
        "id": "5285856",
        "src640": "https://cdn.pixabay.com/photo/2020/06/11/08/56/reflection-5285856_640.jpg",
        "src1280": "https://cdn.pixabay.com/photo/2020/06/11/08/56/reflection-5285856_1280.jpg"
    },
    {
        "id": "5054284",
        "src640": "https://cdn.pixabay.com/photo/2020/04/17/10/42/people-5054284_640.jpg",
        "src1280": "https://cdn.pixabay.com/photo/2020/04/17/10/42/people-5054284_1280.jpg"
    },
    {
        "id": "5106728",
        "src640": "https://cdn.pixabay.com/photo/2020/04/29/00/21/sailboat-5106728_640.jpg",
        "src1280": "https://cdn.pixabay.com/photo/2020/04/29/00/21/sailboat-5106728_1280.jpg"
    },
    {
        "id": "4850069",
        "src640": "https://cdn.pixabay.com/photo/2020/02/15/05/16/sports-4850069_640.jpg",
        "src1280": "https://cdn.pixabay.com/photo/2020/02/15/05/16/sports-4850069_1280.jpg"
    },
    {
        "id": "5460766",
        "src640": "https://cdn.pixabay.com/photo/2020/08/03/18/30/sea-5460766_640.jpg",
        "src1280": "https://cdn.pixabay.com/photo/2020/08/03/18/30/sea-5460766_1280.jpg"
    },
    {
        "id": "5327421",
        "src640": "https://cdn.pixabay.com/photo/2020/06/22/03/11/farmers-5327421_640.jpg",
        "src1280": "https://cdn.pixabay.com/photo/2020/06/22/03/11/farmers-5327421_1280.jpg"
    },
    {
        "id": "2511536",
        "src640": "https://cdn.pixabay.com/photo/2017/07/17/06/13/beach-2511536_640.jpg",
        "src1280": "https://cdn.pixabay.com/photo/2017/07/17/06/13/beach-2511536_1280.jpg"
    },
    {
        "id": "5173020",
        "src640": "https://cdn.pixabay.com/photo/2020/05/15/09/45/sunset-5173020_640.jpg",
        "src1280": "https://cdn.pixabay.com/photo/2020/05/15/09/45/sunset-5173020_1280.jpg"
    },
    {
        "id": "4787532",
        "src640": "https://cdn.pixabay.com/photo/2020/01/23/11/43/sea-4787532_640.jpg",
        "src1280": "https://cdn.pixabay.com/photo/2020/01/23/11/43/sea-4787532_1280.jpg"
    },
    {
        "id": "7012752",
        "src640": "https://cdn.pixabay.com/photo/2022/02/14/09/08/lake-7012752_640.jpg",
        "src1280": "https://cdn.pixabay.com/photo/2022/02/14/09/08/lake-7012752_1280.jpg"
    },
    {
        "id": "2573774",
        "src640": "https://cdn.pixabay.com/photo/2017/08/02/22/37/chill-2573774_640.jpg",
        "src1280": "https://cdn.pixabay.com/photo/2017/08/02/22/37/chill-2573774_1280.jpg"
    },
    {
        "id": "4611626",
        "src640": "https://cdn.pixabay.com/photo/2019/11/08/15/10/new-zealand-4611626_640.jpg",
        "src1280": "https://cdn.pixabay.com/photo/2019/11/08/15/10/new-zealand-4611626_1280.jpg"
    },
    {
        "id": "938677",
        "src640": "https://cdn.pixabay.com/photo/2015/09/13/20/12/bench-938677_640.jpg",
        "src1280": "https://cdn.pixabay.com/photo/2015/09/13/20/12/bench-938677_1280.jpg"
    },
    {
        "id": "4758670",
        "src640": "https://cdn.pixabay.com/photo/2020/01/11/20/38/pair-4758670_640.jpg",
        "src1280": "https://cdn.pixabay.com/photo/2020/01/11/20/38/pair-4758670_1280.jpg"
    },
    {
        "id": "4356501",
        "src640": "https://cdn.pixabay.com/photo/2019/07/23/03/08/hammock-4356501_640.jpg",
        "src1280": "https://cdn.pixabay.com/photo/2019/07/23/03/08/hammock-4356501_1280.jpg"
    },
    {
        "id": "1808257",
        "src640": "https://cdn.pixabay.com/photo/2016/11/08/12/57/lake-1808257_640.jpg",
        "src1280": "https://cdn.pixabay.com/photo/2016/11/08/12/57/lake-1808257_1280.jpg"
    },
    {
        "id": "4932146",
        "src640": "https://cdn.pixabay.com/photo/2020/03/15/00/18/sunset-4932146_640.jpg",
        "src1280": "https://cdn.pixabay.com/photo/2020/03/15/00/18/sunset-4932146_1280.jpg"
    },
    {
        "id": "1644357",
        "src640": "https://cdn.pixabay.com/photo/2016/09/04/15/56/lake-in-the-dunes-1644357_640.jpg",
        "src1280": "https://cdn.pixabay.com/photo/2016/09/04/15/56/lake-in-the-dunes-1644357_1280.jpg"
    },
    {
        "id": "4809426",
        "src640": "https://cdn.pixabay.com/photo/2020/02/01/02/59/girl-4809426_640.jpg",
        "src1280": "https://cdn.pixabay.com/photo/2020/02/01/02/59/girl-4809426_1280.jpg"
    },
    {
        "id": "4608946",
        "src640": "https://cdn.pixabay.com/photo/2019/11/07/13/54/portugal-4608946_640.jpg",
        "src1280": "https://cdn.pixabay.com/photo/2019/11/07/13/54/portugal-4608946_1280.jpg"
    },
    {
        "id": "2256645",
        "src640": "https://cdn.pixabay.com/photo/2017/04/24/14/24/landscape-2256645_640.jpg",
        "src1280": "https://cdn.pixabay.com/photo/2017/04/24/14/24/landscape-2256645_1280.jpg"
    },
    {
        "id": "4903136",
        "src640": "https://cdn.pixabay.com/photo/2020/03/05/01/06/park-bench-4903136_640.jpg",
        "src1280": "https://cdn.pixabay.com/photo/2020/03/05/01/06/park-bench-4903136_1280.jpg"
    },
    {
        "id": "5006483",
        "src640": "https://cdn.pixabay.com/photo/2020/04/05/14/59/coffee-5006483_640.jpg",
        "src1280": "https://cdn.pixabay.com/photo/2020/04/05/14/59/coffee-5006483_1280.jpg"
    },
    {
        "id": "4899993",
        "src640": "https://cdn.pixabay.com/photo/2020/03/03/22/15/yoga-4899993_640.jpg",
        "src1280": "https://cdn.pixabay.com/photo/2020/03/03/22/15/yoga-4899993_1280.jpg"
    },
    {
        "id": "2830070",
        "src640": "https://cdn.pixabay.com/photo/2017/10/08/14/44/sunset-2830070_640.jpg",
        "src1280": "https://cdn.pixabay.com/photo/2017/10/08/14/44/sunset-2830070_1280.jpg"
    },
    {
        "id": "4905974",
        "src640": "https://cdn.pixabay.com/photo/2020/03/06/03/54/dog-4905974_640.jpg",
        "src1280": "https://cdn.pixabay.com/photo/2020/03/06/03/54/dog-4905974_1280.jpg"
    },
    {
        "id": "4957376",
        "src640": "https://cdn.pixabay.com/photo/2020/03/22/14/28/sunset-4957376_640.jpg",
        "src1280": "https://cdn.pixabay.com/photo/2020/03/22/14/28/sunset-4957376_1280.jpg"
    },
    {
        "id": "2999486",
        "src640": "https://cdn.pixabay.com/photo/2017/12/05/14/38/monkeys-2999486_640.jpg",
        "src1280": "https://cdn.pixabay.com/photo/2017/12/05/14/38/monkeys-2999486_1280.jpg"
    },
    {
        "id": "1521977",
        "src640": "https://cdn.pixabay.com/photo/2016/07/16/14/09/towers-1521977_640.jpg",
        "src1280": "https://cdn.pixabay.com/photo/2016/07/16/14/09/towers-1521977_1280.jpg"
    },
    {
        "id": "708547",
        "src640": "https://cdn.pixabay.com/photo/2015/04/05/20/57/woman-708547_640.jpg",
        "src1280": "https://cdn.pixabay.com/photo/2015/04/05/20/57/woman-708547_1280.jpg"
    },
    {
        "id": "4980238",
        "src640": "https://cdn.pixabay.com/photo/2020/03/29/10/56/couple-4980238_640.jpg",
        "src1280": "https://cdn.pixabay.com/photo/2020/03/29/10/56/couple-4980238_1280.jpg"
    },
    {
        "id": "825988",
        "src640": "https://cdn.pixabay.com/photo/2015/06/29/21/14/penguin-825988_640.jpg",
        "src1280": "https://cdn.pixabay.com/photo/2015/06/29/21/14/penguin-825988_1280.jpg"
    },
    {
        "id": "4949202",
        "src640": "https://cdn.pixabay.com/photo/2020/03/20/01/16/sunset-4949202_640.jpg",
        "src1280": "https://cdn.pixabay.com/photo/2020/03/20/01/16/sunset-4949202_1280.jpg"
    },
    {
        "id": "5460768",
        "src640": "https://cdn.pixabay.com/photo/2020/08/03/18/30/sea-5460768_640.jpg",
        "src1280": "https://cdn.pixabay.com/photo/2020/08/03/18/30/sea-5460768_1280.jpg"
    }
]