[
    {
        "id": "327600",
        "src640": "https://cdn.pixabay.com/photo/2014/04/18/19/19/coffee-327600_640.jpg",
        "src1280": "https://cdn.pixabay.com/photo/2014/04/18/19/19/coffee-327600_1280.jpg"
    },
    {
        "id": "2279447",
        "src640": "https://cdn.pixabay.com/photo/2017/05/02/21/51/bourn-2279447_640.jpg",
        "src1280": "https://cdn.pixabay.com/photo/2017/05/02/21/51/bourn-2279447_1280.jpg"
    },
    {
        "id": "3234393",
        "src640": "https://cdn.pixabay.com/photo/2018/03/17/16/15/sand-3234393_640.jpg",
        "src1280": "https://cdn.pixabay.com/photo/2018/03/17/16/15/sand-3234393_1280.jpg"
    },
    {
        "id": "6198016",
        "src640": "https://cdn.pixabay.com/photo/2021/04/22/04/27/paragliding-6198016_640.jpg",
        "src1280": "https://cdn.pixabay.com/photo/2021/04/22/04/27/paragliding-6198016_1280.jpg"
    },
    {
        "id": "3386460",
        "src640": "https://cdn.pixabay.com/photo/2018/05/09/23/20/church-3386460_640.jpg",
        "src1280": "https://cdn.pixabay.com/photo/2018/05/09/23/20/church-3386460_1280.jpg"
    },
    {
        "id": "7713942",
        "src640": "https://cdn.pixabay.com/photo/2023/01/12/11/35/book-7713942_640.jpg",
        "src1280": "https://cdn.pixabay.com/photo/2023/01/12/11/35/book-7713942_1280.jpg"
    },
    {
        "id": "1500219",
        "src640": "https://cdn.pixabay.com/photo/2016/07/06/09/25/child-1500219_640.jpg",
        "src1280": "https://cdn.pixabay.com/photo/2016/07/06/09/25/child-1500219_1280.jpg"
    },
    {
        "id": "2250499",
        "src640": "https://cdn.pixabay.com/photo/2017/04/22/02/41/cat-2250499_640.jpg",
        "src1280": "https://cdn.pixabay.com/photo/2017/04/22/02/41/cat-2250499_1280.jpg"
    },
    {
        "id": "6162602",
        "src640": "https://cdn.pixabay.com/photo/2021/04/08/18/56/sunset-6162602_640.jpg",
        "src1280": "https://cdn.pixabay.com/photo/2021/04/08/18/56/sunset-6162602_1280.jpg"
    },
    {
        "id": "676947",
        "src640": "https://cdn.pixabay.com/photo/2015/03/16/22/26/sweet-676947_640.jpg",
        "src1280": "https://cdn.pixabay.com/photo/2015/03/16/22/26/sweet-676947_1280.jpg"
    },
    {
        "id": "911226",
        "src640": "https://cdn.pixabay.com/photo/2015/08/27/22/34/dahlia-911226_640.jpg",
        "src1280": "https://cdn.pixabay.com/photo/2015/08/27/22/34/dahlia-911226_1280.jpg"
    },
    {
        "id": "3600984",
        "src640": "https://cdn.pixabay.com/photo/2018/08/12/15/13/gold-3600984_640.jpg",
        "src1280": "https://cdn.pixabay.com/photo/2018/08/12/15/13/gold-3600984_1280.jpg"
    },
    {
        "id": "1675237",
        "src640": "https://cdn.pixabay.com/photo/2016/09/16/22/02/garden-table-1675237_640.jpg",
        "src1280": "https://cdn.pixabay.com/photo/2016/09/16/22/02/garden-table-1675237_1280.jpg"
    },
    {
        "id": "5782753",
        "src640": "https://cdn.pixabay.com/photo/2020/11/27/19/43/lake-5782753_640.jpg",
        "src1280": "https://cdn.pixabay.com/photo/2020/11/27/19/43/lake-5782753_1280.jpg"
    },
    {
        "id": "7798295",
        "src640": "https://cdn.pixabay.com/photo/2023/02/18/16/36/girl-7798295_640.jpg",
        "src1280": "https://cdn.pixabay.com/photo/2023/02/18/16/36/girl-7798295_1280.jpg"
    },
    {
        "id": "373747",
        "src640": "https://cdn.pixabay.com/photo/2014/06/21/11/13/buddha-373747_640.jpg",
        "src1280": "https://cdn.pixabay.com/photo/2014/06/21/11/13/buddha-373747_1280.jpg"
    },
    {
        "id": "4374115",
        "src640": "https://cdn.pixabay.com/photo/2019/07/31/01/17/beach-4374115_640.jpg",
        "src1280": "https://cdn.pixabay.com/photo/2019/07/31/01/17/beach-4374115_1280.jpg"
    },
    {
        "id": "7620208",
        "src640": "https://cdn.pixabay.com/photo/2022/11/27/16/14/cat-7620208_640.jpg",
        "src1280": "https://cdn.pixabay.com/photo/2022/11/27/16/14/cat-7620208_1280.jpg"
    },
    {
        "id": "7023286",
        "src640": "https://cdn.pixabay.com/photo/2022/02/19/19/09/yoga-7023286_640.jpg",
        "src1280": "https://cdn.pixabay.com/photo/2022/02/19/19/09/yoga-7023286_1280.jpg"
    },
    {
        "id": "5939709",
        "src640": "https://cdn.pixabay.com/photo/2021/01/22/10/32/maldives-5939709_640.jpg",
        "src1280": "https://cdn.pixabay.com/photo/2021/01/22/10/32/maldives-5939709_1280.jpg"
    },
    {
        "id": "423139",
        "src640": "https://cdn.pixabay.com/photo/2014/08/21/07/24/holiday-423139_640.jpg",
        "src1280": "https://cdn.pixabay.com/photo/2014/08/21/07/24/holiday-423139_1280.jpg"
    },
    {
        "id": "5218982",
        "src640": "https://cdn.pixabay.com/photo/2020/05/25/15/00/person-5218982_640.jpg",
        "src1280": "https://cdn.pixabay.com/photo/2020/05/25/15/00/person-5218982_1280.jpg"
    },
    {
        "id": "2351186",
        "src640": "https://cdn.pixabay.com/photo/2017/05/28/14/35/woman-2351186_640.jpg",
        "src1280": "https://cdn.pixabay.com/photo/2017/05/28/14/35/woman-2351186_1280.jpg"
    },
    {
        "id": "3107999",
        "src640": "https://cdn.pixabay.com/photo/2018/01/26/07/47/yoga-3107999_640.jpg",
        "src1280": "https://cdn.pixabay.com/photo/2018/01/26/07/47/yoga-3107999_1280.jpg"
    },
    {
        "id": "1788545",
        "src640": "https://cdn.pixabay.com/photo/2016/11/01/15/18/break-1788545_640.jpg",
        "src1280": "https://cdn.pixabay.com/photo/2016/11/01/15/18/break-1788545_1280.jpg"
    },
    {
        "id": "5605338",
        "src640": "https://cdn.pixabay.com/photo/2020/09/27/00/26/meditation-5605338_640.jpg",
        "src1280": "https://cdn.pixabay.com/photo/2020/09/27/00/26/meditation-5605338_1280.jpg"
    },
    {
        "id": "3639163",
        "src640": "https://cdn.pixabay.com/photo/2018/08/29/04/25/willow-3639163_640.jpg",
        "src1280": "https://cdn.pixabay.com/photo/2018/08/29/04/25/willow-3639163_1280.jpg"
    },
    {
        "id": "988482",
        "src640": "https://cdn.pixabay.com/photo/2015/10/14/21/04/france-988482_640.jpg",
        "src1280": "https://cdn.pixabay.com/photo/2015/10/14/21/04/france-988482_1280.jpg"
    },
    {
        "id": "8471728",
        "src640": "https://cdn.pixabay.com/photo/2023/12/27/09/18/ai-generated-8471728_640.jpg",
        "src1280": "https://cdn.pixabay.com/photo/2023/12/27/09/18/ai-generated-8471728_1280.jpg"
    },
    {
        "id": "449163",
        "src640": "https://cdn.pixabay.com/photo/2014/09/17/06/07/feet-449163_640.jpg",
        "src1280": "https://cdn.pixabay.com/photo/2014/09/17/06/07/feet-449163_1280.jpg"
    },
    {
        "id": "1483105",
        "src640": "https://cdn.pixabay.com/photo/2016/06/27/19/21/tea-1483105_640.jpg",
        "src1280": "https://cdn.pixabay.com/photo/2016/06/27/19/21/tea-1483105_1280.jpg"
    },
    {
        "id": "5646324",
        "src640": "https://cdn.pixabay.com/photo/2020/10/11/16/12/woman-5646324_640.jpg",
        "src1280": "https://cdn.pixabay.com/photo/2020/10/11/16/12/woman-5646324_1280.jpg"
    },
    {
        "id": "6270372",
        "src640": "https://cdn.pixabay.com/photo/2021/05/21/07/19/man-6270372_640.jpg",
        "src1280": "https://cdn.pixabay.com/photo/2021/05/21/07/19/man-6270372_1280.jpg"
    },
    {
        "id": "1235275",
        "src640": "https://cdn.pixabay.com/photo/2016/03/04/00/03/tai-chi-1235275_640.jpg",
        "src1280": "https://cdn.pixabay.com/photo/2016/03/04/00/03/tai-chi-1235275_1280.jpg"
    },
    {
        "id": "611567",
        "src640": "https://cdn.pixabay.com/photo/2015/01/25/18/01/buddha-611567_640.jpg",
        "src1280": "https://cdn.pixabay.com/photo/2015/01/25/18/01/buddha-611567_1280.jpg"
    },
    {
        "id": "8337018",
        "src640": "https://cdn.pixabay.com/photo/2023/10/23/21/10/ai-generated-8337018_640.jpg",
        "src1280": "https://cdn.pixabay.com/photo/2023/10/23/21/10/ai-generated-8337018_1280.jpg"
    },
    {
        "id": "1281268",
        "src640": "https://cdn.pixabay.com/photo/2016/03/26/20/34/buddha-1281268_640.jpg",
        "src1280": "https://cdn.pixabay.com/photo/2016/03/26/20/34/buddha-1281268_1280.jpg"
    },
    {
        "id": "3896760",
        "src640": "https://cdn.pixabay.com/photo/2018/12/27/00/50/palatinate-forest-3896760_640.jpg",
        "src1280": "https://cdn.pixabay.com/photo/2018/12/27/00/50/palatinate-forest-3896760_1280.jpg"
    },
    {
        "id": "407472",
        "src640": "https://cdn.pixabay.com/photo/2014/08/01/09/42/buddha-407472_640.jpg",
        "src1280": "https://cdn.pixabay.com/photo/2014/08/01/09/42/buddha-407472_1280.jpg"
    },
    {
        "id": "411939",
        "src640": "https://cdn.pixabay.com/photo/2014/08/06/19/24/woman-411939_640.jpg",
        "src1280": "https://cdn.pixabay.com/photo/2014/08/06/19/24/woman-411939_1280.jpg"
    },
    {
        "id": "8008907",
        "src640": "https://cdn.pixabay.com/photo/2023/05/21/17/20/colonnade-8008907_640.jpg",
        "src1280": "https://cdn.pixabay.com/photo/2023/05/21/17/20/colonnade-8008907_1280.jpg"
    },
    {
        "id": "3729527",
        "src640": "https://cdn.pixabay.com/photo/2018/10/07/09/43/boat-3729527_640.jpg",
        "src1280": "https://cdn.pixabay.com/photo/2018/10/07/09/43/boat-3729527_1280.jpg"
    },
    {
        "id": "1143802",
        "src640": "https://cdn.pixabay.com/photo/2016/01/16/19/34/snow-1143802_640.jpg",
        "src1280": "https://cdn.pixabay.com/photo/2016/01/16/19/34/snow-1143802_1280.jpg"
    },
    {
        "id": "1276794",
        "src640": "https://cdn.pixabay.com/photo/2016/03/24/13/52/coffee-cup-1276794_640.jpg",
        "src1280": "https://cdn.pixabay.com/photo/2016/03/24/13/52/coffee-cup-1276794_1280.jpg"
    },
    {
        "id": "5508229",
        "src640": "https://cdn.pixabay.com/photo/2020/08/22/11/45/house-5508229_640.jpg",
        "src1280": "https://cdn.pixabay.com/photo/2020/08/22/11/45/house-5508229_1280.jpg"
    },
    {
        "id": "629885",
        "src640": "https://cdn.pixabay.com/photo/2015/02/09/16/44/yoga-629885_640.jpg",
        "src1280": "https://cdn.pixabay.com/photo/2015/02/09/16/44/yoga-629885_1280.jpg"
    },
    {
        "id": "8173584",
        "src640": "https://cdn.pixabay.com/photo/2023/08/06/18/44/ai-generated-8173584_640.jpg",
        "src1280": "https://cdn.pixabay.com/photo/2023/08/06/18/44/ai-generated-8173584_1280.jpg"
    },
    {
        "id": "494556",
        "src640": "https://cdn.pixabay.com/photo/2014/10/19/18/01/beach-494556_640.jpg",
        "src1280": "https://cdn.pixabay.com/photo/2014/10/19/18/01/beach-494556_1280.jpg"
    },
    {
        "id": "5333805",
        "src640": "https://cdn.pixabay.com/photo/2020/06/23/20/34/purple-5333805_640.jpg",
        "src1280": "https://cdn.pixabay.com/photo/2020/06/23/20/34/purple-5333805_1280.jpg"
    },
    {
        "id": "3820890",
        "src640": "https://cdn.pixabay.com/photo/2018/11/17/11/04/fox-3820890_640.jpg",
        "src1280": "https://cdn.pixabay.com/photo/2018/11/17/11/04/fox-3820890_1280.jpg"
    },
    {
        "id": "1022740",
        "src640": "https://cdn.pixabay.com/photo/2015/11/04/15/42/dahlia-1022740_640.jpg",
        "src1280": "https://cdn.pixabay.com/photo/2015/11/04/15/42/dahlia-1022740_1280.jpg"
    },
    {
        "id": "3804175",
        "src640": "https://cdn.pixabay.com/photo/2018/11/09/10/24/villa-3804175_640.jpg",
        "src1280": "https://cdn.pixabay.com/photo/2018/11/09/10/24/villa-3804175_1280.jpg"
    },
    {
        "id": "7023284",
        "src640": "https://cdn.pixabay.com/photo/2022/02/19/19/09/yoga-7023284_640.jpg",
        "src1280": "https://cdn.pixabay.com/photo/2022/02/19/19/09/yoga-7023284_1280.jpg"
    },
    {
        "id": "3581366",
        "src640": "https://cdn.pixabay.com/photo/2018/08/03/08/48/girl-3581366_640.jpg",
        "src1280": "https://cdn.pixabay.com/photo/2018/08/03/08/48/girl-3581366_1280.jpg"
    },
    {
        "id": "6084973",
        "src640": "https://cdn.pixabay.com/photo/2021/03/10/16/32/cliffs-6084973_640.jpg",
        "src1280": "https://cdn.pixabay.com/photo/2021/03/10/16/32/cliffs-6084973_1280.jpg"
    },
    {
        "id": "7645915",
        "src640": "https://cdn.pixabay.com/photo/2022/12/09/19/44/girlie-7645915_640.jpg",
        "src1280": "https://cdn.pixabay.com/photo/2022/12/09/19/44/girlie-7645915_1280.jpg"
    },
    {
        "id": "1874064",
        "src640": "https://cdn.pixabay.com/photo/2016/11/30/22/36/shore-1874064_640.jpg",
        "src1280": "https://cdn.pixabay.com/photo/2016/11/30/22/36/shore-1874064_1280.jpg"
    },
    {
        "id": "6391614",
        "src640": "https://cdn.pixabay.com/photo/2021/07/06/13/04/stones-6391614_640.jpg",
        "src1280": "https://cdn.pixabay.com/photo/2021/07/06/13/04/stones-6391614_1280.jpg"
    },
    {
        "id": "1310886",
        "src640": "https://cdn.pixabay.com/photo/2016/04/06/03/02/chair-1310886_640.jpg",
        "src1280": "https://cdn.pixabay.com/photo/2016/04/06/03/02/chair-1310886_1280.jpg"
    },
    {
        "id": "928875",
        "src640": "https://cdn.pixabay.com/photo/2015/09/07/18/32/swing-928875_640.jpg",
        "src1280": "https://cdn.pixabay.com/photo/2015/09/07/18/32/swing-928875_1280.jpg"
    },
    {
        "id": "1023974",
        "src640": "https://cdn.pixabay.com/photo/2015/11/05/10/00/child-1023974_640.jpg",
        "src1280": "https://cdn.pixabay.com/photo/2015/11/05/10/00/child-1023974_1280.jpg"
    },
    {
        "id": "2679883",
        "src640": "https://cdn.pixabay.com/photo/2017/08/25/11/47/mojito-2679883_640.jpg",
        "src1280": "https://cdn.pixabay.com/photo/2017/08/25/11/47/mojito-2679883_1280.jpg"
    },
    {
        "id": "8008786",
        "src640": "https://cdn.pixabay.com/photo/2023/05/21/15/54/woman-8008786_640.jpg",
        "src1280": "https://cdn.pixabay.com/photo/2023/05/21/15/54/woman-8008786_1280.jpg"
    },
    {
        "id": "5218841",
        "src640": "https://cdn.pixabay.com/photo/2020/05/25/14/28/beach-5218841_640.jpg",
        "src1280": "https://cdn.pixabay.com/photo/2020/05/25/14/28/beach-5218841_1280.jpg"
    },
    {
        "id": "3109104",
        "src640": "https://cdn.pixabay.com/photo/2018/01/26/16/46/zen-3109104_640.jpg",
        "src1280": "https://cdn.pixabay.com/photo/2018/01/26/16/46/zen-3109104_1280.jpg"
    },
    {
        "id": "4123257",
        "src640": "https://cdn.pixabay.com/photo/2019/04/12/21/11/beach-4123257_640.jpg",
        "src1280": "https://cdn.pixabay.com/photo/2019/04/12/21/11/beach-4123257_1280.jpg"
    },
    {
        "id": "6012885",
        "src640": "https://cdn.pixabay.com/photo/2021/02/13/21/49/interiordesign-6012885_640.jpg",
        "src1280": "https://cdn.pixabay.com/photo/2021/02/13/21/49/interiordesign-6012885_1280.jpg"
    },
    {
        "id": "6475094",
        "src640": "https://cdn.pixabay.com/photo/2021/07/18/10/09/red-hot-poker-6475094_640.jpg",
        "src1280": "https://cdn.pixabay.com/photo/2021/07/18/10/09/red-hot-poker-6475094_1280.jpg"
    },
    {
        "id": "4914316",
        "src640": "https://cdn.pixabay.com/photo/2020/03/09/03/41/rock-4914316_640.jpg",
        "src1280": "https://cdn.pixabay.com/photo/2020/03/09/03/41/rock-4914316_1280.jpg"
    },
    {
        "id": "1244817",
        "src640": "https://cdn.pixabay.com/photo/2016/03/08/21/16/buddha-1244817_640.jpg",
        "src1280": "https://cdn.pixabay.com/photo/2016/03/08/21/16/buddha-1244817_1280.jpg"
    },
    {
        "id": "7438508",
        "src640": "https://cdn.pixabay.com/photo/2022/09/07/10/46/waterfall-7438508_640.jpg",
        "src1280": "https://cdn.pixabay.com/photo/2022/09/07/10/46/waterfall-7438508_1280.jpg"
    },
    {
        "id": "327611",
        "src640": "https://cdn.pixabay.com/photo/2014/04/18/19/24/coffee-327611_640.jpg",
        "src1280": "https://cdn.pixabay.com/photo/2014/04/18/19/24/coffee-327611_1280.jpg"
    },
    {
        "id": "1346481",
        "src640": "https://cdn.pixabay.com/photo/2016/04/22/20/13/sleeping-1346481_640.jpg",
        "src1280": "https://cdn.pixabay.com/photo/2016/04/22/20/13/sleeping-1346481_1280.jpg"
    },
    {
        "id": "988475",
        "src640": "https://cdn.pixabay.com/photo/2015/10/14/21/02/shutters-988475_640.jpg",
        "src1280": "https://cdn.pixabay.com/photo/2015/10/14/21/02/shutters-988475_1280.jpg"
    },
    {
        "id": "6245912",
        "src640": "https://cdn.pixabay.com/photo/2021/05/11/13/35/buddha-6245912_640.jpg",
        "src1280": "https://cdn.pixabay.com/photo/2021/05/11/13/35/buddha-6245912_1280.jpg"
    },
    {
        "id": "4034117",
        "src640": "https://cdn.pixabay.com/photo/2019/03/04/13/25/beach-4034117_640.jpg",
        "src1280": "https://cdn.pixabay.com/photo/2019/03/04/13/25/beach-4034117_1280.jpg"
    },
    {
        "id": "2649680",
        "src640": "https://cdn.pixabay.com/photo/2017/08/17/01/13/grandpa-2649680_640.jpg",
        "src1280": "https://cdn.pixabay.com/photo/2017/08/17/01/13/grandpa-2649680_1280.jpg"
    },
    {
        "id": "5342888",
        "src640": "https://cdn.pixabay.com/photo/2020/06/26/14/37/time-5342888_640.jpg",
        "src1280": "https://cdn.pixabay.com/photo/2020/06/26/14/37/time-5342888_1280.jpg"
    },
    {
        "id": "4451935",
        "src640": "https://cdn.pixabay.com/photo/2019/09/04/15/36/water-4451935_640.jpg",
        "src1280": "https://cdn.pixabay.com/photo/2019/09/04/15/36/water-4451935_1280.jpg"
    },
    {
        "id": "1735304",
        "src640": "https://cdn.pixabay.com/photo/2016/10/12/17/57/wait-1735304_640.jpg",
        "src1280": "https://cdn.pixabay.com/photo/2016/10/12/17/57/wait-1735304_1280.jpg"
    },
    {
        "id": "1245036",
        "src640": "https://cdn.pixabay.com/photo/2016/03/08/23/19/white-1245036_640.jpg",
        "src1280": "https://cdn.pixabay.com/photo/2016/03/08/23/19/white-1245036_1280.jpg"
    },
    {
        "id": "3109312",
        "src640": "https://cdn.pixabay.com/photo/2018/01/26/18/03/palm-3109312_640.jpg",
        "src1280": "https://cdn.pixabay.com/photo/2018/01/26/18/03/palm-3109312_1280.jpg"
    },
    {
        "id": "633017",
        "src640": "https://cdn.pixabay.com/photo/2015/02/11/20/31/boy-633017_640.jpg",
        "src1280": "https://cdn.pixabay.com/photo/2015/02/11/20/31/boy-633017_1280.jpg"
    },
    {
        "id": "2525124",
        "src640": "https://cdn.pixabay.com/photo/2017/07/21/09/01/girl-2525124_640.jpg",
        "src1280": "https://cdn.pixabay.com/photo/2017/07/21/09/01/girl-2525124_1280.jpg"
    },
    {
        "id": "4997569",
        "src640": "https://cdn.pixabay.com/photo/2020/04/03/06/46/room-4997569_640.jpg",
        "src1280": "https://cdn.pixabay.com/photo/2020/04/03/06/46/room-4997569_1280.jpg"
    },
    {
        "id": "5153535",
        "src640": "https://cdn.pixabay.com/photo/2020/05/10/11/04/japanese-5153535_640.jpg",
        "src1280": "https://cdn.pixabay.com/photo/2020/05/10/11/04/japanese-5153535_1280.jpg"
    },
    {
        "id": "4699494",
        "src640": "https://cdn.pixabay.com/photo/2019/12/16/14/40/sea-4699494_640.jpg",
        "src1280": "https://cdn.pixabay.com/photo/2019/12/16/14/40/sea-4699494_1280.jpg"
    },
    {
        "id": "4171226",
        "src640": "https://cdn.pixabay.com/photo/2019/05/01/16/04/dog-4171226_640.jpg",
        "src1280": "https://cdn.pixabay.com/photo/2019/05/01/16/04/dog-4171226_1280.jpg"
    },
    {
        "id": "1549666",
        "src640": "https://cdn.pixabay.com/photo/2016/07/28/20/54/jamaica-1549666_640.jpg",
        "src1280": "https://cdn.pixabay.com/photo/2016/07/28/20/54/jamaica-1549666_1280.jpg"
    },
    {
        "id": "719879",
        "src640": "https://cdn.pixabay.com/photo/2015/04/13/01/10/beach-719879_640.jpg",
        "src1280": "https://cdn.pixabay.com/photo/2015/04/13/01/10/beach-719879_1280.jpg"
    }
]