[
    {
        "id": "1331890",
        "src640": "https://cdn.pixabay.com/photo/2016/04/15/21/00/snow-1331890_640.jpg",
        "src1280": "https://cdn.pixabay.com/photo/2016/04/15/21/00/snow-1331890_1280.jpg"
    },
    {
        "id": "1171866",
        "src640": "https://cdn.pixabay.com/photo/2016/01/31/18/28/fishing-1171866_640.jpg",
        "src1280": "https://cdn.pixabay.com/photo/2016/01/31/18/28/fishing-1171866_1280.jpg"
    },
    {
        "id": "1949820",
        "src640": "https://cdn.pixabay.com/photo/2017/01/03/16/02/frost-1949820_640.jpg",
        "src1280": "https://cdn.pixabay.com/photo/2017/01/03/16/02/frost-1949820_1280.jpg"
    },
    {
        "id": "64241",
        "src640": "https://cdn.pixabay.com/photo/2012/11/06/01/57/trees-64241_640.jpg",
        "src1280": "https://cdn.pixabay.com/photo/2012/11/06/01/57/trees-64241_1280.jpg"
    },
    {
        "id": "7021729",
        "src640": "https://cdn.pixabay.com/photo/2022/02/19/00/03/winter-7021729_640.jpg",
        "src1280": "https://cdn.pixabay.com/photo/2022/02/19/00/03/winter-7021729_1280.jpg"
    },
    {
        "id": "6759594",
        "src640": "https://cdn.pixabay.com/photo/2021/11/01/07/13/leaf-6759594_640.jpg",
        "src1280": "https://cdn.pixabay.com/photo/2021/11/01/07/13/leaf-6759594_1280.jpg"
    },
    {
        "id": "6874764",
        "src640": "https://cdn.pixabay.com/photo/2021/12/16/15/47/footprint-6874764_640.jpg",
        "src1280": "https://cdn.pixabay.com/photo/2021/12/16/15/47/footprint-6874764_1280.jpg"
    },
    {
        "id": "4947279",
        "src640": "https://cdn.pixabay.com/photo/2020/03/19/12/04/winter-4947279_640.jpg",
        "src1280": "https://cdn.pixabay.com/photo/2020/03/19/12/04/winter-4947279_1280.jpg"
    },
    {
        "id": "663290",
        "src640": "https://cdn.pixabay.com/photo/2015/03/07/17/47/winter-663290_640.jpg",
        "src1280": "https://cdn.pixabay.com/photo/2015/03/07/17/47/winter-663290_1280.jpg"
    },
    {
        "id": "5696762",
        "src640": "https://cdn.pixabay.com/photo/2020/10/29/17/21/snow-5696762_640.jpg",
        "src1280": "https://cdn.pixabay.com/photo/2020/10/29/17/21/snow-5696762_1280.jpg"
    },
    {
        "id": "2050099",
        "src640": "https://cdn.pixabay.com/photo/2017/02/08/21/14/girl-2050099_640.jpg",
        "src1280": "https://cdn.pixabay.com/photo/2017/02/08/21/14/girl-2050099_1280.jpg"
    },
    {
        "id": "3991070",
        "src640": "https://cdn.pixabay.com/photo/2019/02/12/00/44/birdhouse-3991070_640.jpg",
        "src1280": "https://cdn.pixabay.com/photo/2019/02/12/00/44/birdhouse-3991070_1280.jpg"
    },
    {
        "id": "5852268",
        "src640": "https://cdn.pixabay.com/photo/2020/12/22/13/35/snow-5852268_640.jpg",
        "src1280": "https://cdn.pixabay.com/photo/2020/12/22/13/35/snow-5852268_1280.jpg"
    },
    {
        "id": "2889937",
        "src640": "https://cdn.pixabay.com/photo/2017/10/26/02/17/outdoor-2889937_640.jpg",
        "src1280": "https://cdn.pixabay.com/photo/2017/10/26/02/17/outdoor-2889937_1280.jpg"
    },
    {
        "id": "702384",
        "src640": "https://cdn.pixabay.com/photo/2015/04/01/12/42/park-702384_640.jpg",
        "src1280": "https://cdn.pixabay.com/photo/2015/04/01/12/42/park-702384_1280.jpg"
    },
    {
        "id": "5862984",
        "src640": "https://cdn.pixabay.com/photo/2020/12/27/04/49/candles-5862984_640.jpg",
        "src1280": "https://cdn.pixabay.com/photo/2020/12/27/04/49/candles-5862984_1280.jpg"
    },
    {
        "id": "6887954",
        "src640": "https://cdn.pixabay.com/photo/2021/12/22/17/08/countryside-6887954_640.jpg",
        "src1280": "https://cdn.pixabay.com/photo/2021/12/22/17/08/countryside-6887954_1280.jpg"
    },
    {
        "id": "252388",
        "src640": "https://cdn.pixabay.com/photo/2014/01/26/17/38/scarf-252388_640.jpg",
        "src1280": "https://cdn.pixabay.com/photo/2014/01/26/17/38/scarf-252388_1280.jpg"
    },
    {
        "id": "2133947",
        "src640": "https://cdn.pixabay.com/photo/2017/03/10/22/55/web-spider-2133947_640.jpg",
        "src1280": "https://cdn.pixabay.com/photo/2017/03/10/22/55/web-spider-2133947_1280.jpg"
    },
    {
        "id": "3119091",
        "src640": "https://cdn.pixabay.com/photo/2018/01/30/16/31/tree-3119091_640.jpg",
        "src1280": "https://cdn.pixabay.com/photo/2018/01/30/16/31/tree-3119091_1280.jpg"
    },
    {
        "id": "7123650",
        "src640": "https://cdn.pixabay.com/photo/2022/04/10/16/01/flower-7123650_640.jpg",
        "src1280": "https://cdn.pixabay.com/photo/2022/04/10/16/01/flower-7123650_1280.jpg"
    },
    {
        "id": "3250939",
        "src640": "https://cdn.pixabay.com/photo/2018/03/22/16/17/landscape-3250939_640.jpg",
        "src1280": "https://cdn.pixabay.com/photo/2018/03/22/16/17/landscape-3250939_1280.jpg"
    },
    {
        "id": "2849389",
        "src640": "https://cdn.pixabay.com/photo/2017/10/13/23/55/nature-2849389_640.jpg",
        "src1280": "https://cdn.pixabay.com/photo/2017/10/13/23/55/nature-2849389_1280.jpg"
    },
    {
        "id": "3602874",
        "src640": "https://cdn.pixabay.com/photo/2018/08/13/12/40/aspens-3602874_640.jpg",
        "src1280": "https://cdn.pixabay.com/photo/2018/08/13/12/40/aspens-3602874_1280.jpg"
    },
    {
        "id": "6009353",
        "src640": "https://cdn.pixabay.com/photo/2021/02/12/19/05/castle-6009353_640.jpg",
        "src1280": "https://cdn.pixabay.com/photo/2021/02/12/19/05/castle-6009353_1280.jpg"
    },
    {
        "id": "563321",
        "src640": "https://cdn.pixabay.com/photo/2014/12/10/19/05/winter-563321_640.jpg",
        "src1280": "https://cdn.pixabay.com/photo/2014/12/10/19/05/winter-563321_1280.jpg"
    },
    {
        "id": "5864536",
        "src640": "https://cdn.pixabay.com/photo/2020/12/27/16/13/tiny-butterfly-eggs-on-a-leaf-5864536_640.jpg",
        "src1280": "https://cdn.pixabay.com/photo/2020/12/27/16/13/tiny-butterfly-eggs-on-a-leaf-5864536_1280.jpg"
    },
    {
        "id": "4440036",
        "src640": "https://cdn.pixabay.com/photo/2019/08/29/21/53/sunset-4440036_640.jpg",
        "src1280": "https://cdn.pixabay.com/photo/2019/08/29/21/53/sunset-4440036_1280.jpg"
    },
    {
        "id": "6813404",
        "src640": "https://cdn.pixabay.com/photo/2021/11/21/07/45/christmas-6813404_640.jpg",
        "src1280": "https://cdn.pixabay.com/photo/2021/11/21/07/45/christmas-6813404_1280.jpg"
    },
    {
        "id": "1949823",
        "src640": "https://cdn.pixabay.com/photo/2017/01/03/16/02/frost-1949823_640.jpg",
        "src1280": "https://cdn.pixabay.com/photo/2017/01/03/16/02/frost-1949823_1280.jpg"
    },
    {
        "id": "6014720",
        "src640": "https://cdn.pixabay.com/photo/2021/02/14/14/47/newfoundland-6014720_640.jpg",
        "src1280": "https://cdn.pixabay.com/photo/2021/02/14/14/47/newfoundland-6014720_1280.jpg"
    },
    {
        "id": "4841511",
        "src640": "https://cdn.pixabay.com/photo/2020/02/12/02/55/sunrise-4841511_640.jpg",
        "src1280": "https://cdn.pixabay.com/photo/2020/02/12/02/55/sunrise-4841511_1280.jpg"
    },
    {
        "id": "5902556",
        "src640": "https://cdn.pixabay.com/photo/2021/01/09/15/06/countryside-5902556_640.jpg",
        "src1280": "https://cdn.pixabay.com/photo/2021/01/09/15/06/countryside-5902556_1280.jpg"
    },
    {
        "id": "7668706",
        "src640": "https://cdn.pixabay.com/photo/2022/12/20/21/07/duck-7668706_640.jpg",
        "src1280": "https://cdn.pixabay.com/photo/2022/12/20/21/07/duck-7668706_1280.jpg"
    },
    {
        "id": "585709",
        "src640": "https://cdn.pixabay.com/photo/2015/01/01/15/11/landscape-585709_640.jpg",
        "src1280": "https://cdn.pixabay.com/photo/2015/01/01/15/11/landscape-585709_1280.jpg"
    },
    {
        "id": "4777170",
        "src640": "https://cdn.pixabay.com/photo/2020/01/19/09/10/flowers-4777170_640.jpg",
        "src1280": "https://cdn.pixabay.com/photo/2020/01/19/09/10/flowers-4777170_1280.jpg"
    },
    {
        "id": "6904063",
        "src640": "https://cdn.pixabay.com/photo/2021/12/30/15/05/ski-resort-6904063_640.jpg",
        "src1280": "https://cdn.pixabay.com/photo/2021/12/30/15/05/ski-resort-6904063_1280.jpg"
    },
    {
        "id": "1158687",
        "src640": "https://cdn.pixabay.com/photo/2016/01/24/11/10/snow-1158687_640.jpg",
        "src1280": "https://cdn.pixabay.com/photo/2016/01/24/11/10/snow-1158687_1280.jpg"
    },
    {
        "id": "5995690",
        "src640": "https://cdn.pixabay.com/photo/2021/02/08/17/28/corgi-5995690_640.jpg",
        "src1280": "https://cdn.pixabay.com/photo/2021/02/08/17/28/corgi-5995690_1280.jpg"
    },
    {
        "id": "1058067",
        "src640": "https://cdn.pixabay.com/photo/2015/11/23/10/00/child-1058067_640.jpg",
        "src1280": "https://cdn.pixabay.com/photo/2015/11/23/10/00/child-1058067_1280.jpg"
    },
    {
        "id": "4838876",
        "src640": "https://cdn.pixabay.com/photo/2020/02/11/09/28/easter-4838876_640.jpg",
        "src1280": "https://cdn.pixabay.com/photo/2020/02/11/09/28/easter-4838876_1280.jpg"
    },
    {
        "id": "2068758",
        "src640": "https://cdn.pixabay.com/photo/2017/02/15/14/10/park-2068758_640.jpg",
        "src1280": "https://cdn.pixabay.com/photo/2017/02/15/14/10/park-2068758_1280.jpg"
    },
    {
        "id": "3898105",
        "src640": "https://cdn.pixabay.com/photo/2018/12/27/18/15/cobweb-3898105_640.jpg",
        "src1280": "https://cdn.pixabay.com/photo/2018/12/27/18/15/cobweb-3898105_1280.jpg"
    },
    {
        "id": "6130704",
        "src640": "https://cdn.pixabay.com/photo/2021/03/28/09/10/winter-6130704_640.jpg",
        "src1280": "https://cdn.pixabay.com/photo/2021/03/28/09/10/winter-6130704_1280.jpg"
    },
    {
        "id": "6833248",
        "src640": "https://cdn.pixabay.com/photo/2021/11/29/17/57/burdock-6833248_640.jpg",
        "src1280": "https://cdn.pixabay.com/photo/2021/11/29/17/57/burdock-6833248_1280.jpg"
    },
    {
        "id": "5262944",
        "src640": "https://cdn.pixabay.com/photo/2020/06/05/11/45/tree-5262944_640.jpg",
        "src1280": "https://cdn.pixabay.com/photo/2020/06/05/11/45/tree-5262944_1280.jpg"
    },
    {
        "id": "447768",
        "src640": "https://cdn.pixabay.com/photo/2014/09/16/02/41/christmas-447768_640.jpg",
        "src1280": "https://cdn.pixabay.com/photo/2014/09/16/02/41/christmas-447768_1280.jpg"
    },
    {
        "id": "605810",
        "src640": "https://cdn.pixabay.com/photo/2015/01/20/18/55/snow-605810_640.jpg",
        "src1280": "https://cdn.pixabay.com/photo/2015/01/20/18/55/snow-605810_1280.jpg"
    },
    {
        "id": "370753",
        "src640": "https://cdn.pixabay.com/photo/2014/06/17/21/36/icicle-370753_640.jpg",
        "src1280": "https://cdn.pixabay.com/photo/2014/06/17/21/36/icicle-370753_1280.jpg"
    },
    {
        "id": "7005335",
        "src640": "https://cdn.pixabay.com/photo/2022/02/10/13/38/door-7005335_640.jpg",
        "src1280": "https://cdn.pixabay.com/photo/2022/02/10/13/38/door-7005335_1280.jpg"
    },
    {
        "id": "5031110",
        "src640": "https://cdn.pixabay.com/photo/2020/04/11/16/25/mountains-5031110_640.jpg",
        "src1280": "https://cdn.pixabay.com/photo/2020/04/11/16/25/mountains-5031110_1280.jpg"
    },
    {
        "id": "6477276",
        "src640": "https://cdn.pixabay.com/photo/2021/07/19/05/40/road-6477276_640.jpg",
        "src1280": "https://cdn.pixabay.com/photo/2021/07/19/05/40/road-6477276_1280.jpg"
    },
    {
        "id": "5824433",
        "src640": "https://cdn.pixabay.com/photo/2020/12/12/04/01/trees-5824433_640.jpg",
        "src1280": "https://cdn.pixabay.com/photo/2020/12/12/04/01/trees-5824433_1280.jpg"
    },
    {
        "id": "6561523",
        "src640": "https://cdn.pixabay.com/photo/2021/08/21/00/37/woman-6561523_640.jpg",
        "src1280": "https://cdn.pixabay.com/photo/2021/08/21/00/37/woman-6561523_1280.jpg"
    },
    {
        "id": "6047231",
        "src640": "https://cdn.pixabay.com/photo/2021/02/24/18/45/romania-6047231_640.jpg",
        "src1280": "https://cdn.pixabay.com/photo/2021/02/24/18/45/romania-6047231_1280.jpg"
    },
    {
        "id": "4802021",
        "src640": "https://cdn.pixabay.com/photo/2020/01/29/09/59/group-4802021_640.jpg",
        "src1280": "https://cdn.pixabay.com/photo/2020/01/29/09/59/group-4802021_1280.jpg"
    },
    {
        "id": "4009128",
        "src640": "https://cdn.pixabay.com/photo/2019/02/20/12/48/mushrooms-4009128_640.jpg",
        "src1280": "https://cdn.pixabay.com/photo/2019/02/20/12/48/mushrooms-4009128_1280.jpg"
    },
    {
        "id": "1211375",
        "src640": "https://cdn.pixabay.com/photo/2016/02/20/00/01/winter-1211375_640.jpg",
        "src1280": "https://cdn.pixabay.com/photo/2016/02/20/00/01/winter-1211375_1280.jpg"
    },
    {
        "id": "6195715",
        "src640": "https://cdn.pixabay.com/photo/2021/04/21/08/07/train-6195715_640.jpg",
        "src1280": "https://cdn.pixabay.com/photo/2021/04/21/08/07/train-6195715_1280.jpg"
    },
    {
        "id": "4713569",
        "src640": "https://cdn.pixabay.com/photo/2019/12/23/00/43/snowman-4713569_640.jpg",
        "src1280": "https://cdn.pixabay.com/photo/2019/12/23/00/43/snowman-4713569_1280.jpg"
    },
    {
        "id": "4345693",
        "src640": "https://cdn.pixabay.com/photo/2019/07/18/07/23/winter-4345693_640.jpg",
        "src1280": "https://cdn.pixabay.com/photo/2019/07/18/07/23/winter-4345693_1280.jpg"
    },
    {
        "id": "4990249",
        "src640": "https://cdn.pixabay.com/photo/2020/04/01/07/19/winter-4990249_640.jpg",
        "src1280": "https://cdn.pixabay.com/photo/2020/04/01/07/19/winter-4990249_1280.jpg"
    },
    {
        "id": "6286378",
        "src640": "https://cdn.pixabay.com/photo/2021/05/26/20/59/seeds-6286378_640.jpg",
        "src1280": "https://cdn.pixabay.com/photo/2021/05/26/20/59/seeds-6286378_1280.jpg"
    },
    {
        "id": "4715558",
        "src640": "https://cdn.pixabay.com/photo/2019/12/23/22/31/snowman-4715558_640.jpg",
        "src1280": "https://cdn.pixabay.com/photo/2019/12/23/22/31/snowman-4715558_1280.jpg"
    },
    {
        "id": "4557402",
        "src640": "https://cdn.pixabay.com/photo/2019/10/17/17/30/winter-4557402_640.jpg",
        "src1280": "https://cdn.pixabay.com/photo/2019/10/17/17/30/winter-4557402_1280.jpg"
    },
    {
        "id": "4394801",
        "src640": "https://cdn.pixabay.com/photo/2019/08/09/10/28/slovakia-4394801_640.jpg",
        "src1280": "https://cdn.pixabay.com/photo/2019/08/09/10/28/slovakia-4394801_1280.jpg"
    },
    {
        "id": "7482291",
        "src640": "https://cdn.pixabay.com/photo/2022/09/27/07/50/sunset-7482291_640.jpg",
        "src1280": "https://cdn.pixabay.com/photo/2022/09/27/07/50/sunset-7482291_1280.jpg"
    },
    {
        "id": "1149254",
        "src640": "https://cdn.pixabay.com/photo/2016/01/19/15/28/snowshoes-1149254_640.jpg",
        "src1280": "https://cdn.pixabay.com/photo/2016/01/19/15/28/snowshoes-1149254_1280.jpg"
    },
    {
        "id": "5384484",
        "src640": "https://cdn.pixabay.com/photo/2020/07/08/16/52/dog-5384484_640.jpg",
        "src1280": "https://cdn.pixabay.com/photo/2020/07/08/16/52/dog-5384484_1280.jpg"
    },
    {
        "id": "1357110",
        "src640": "https://cdn.pixabay.com/photo/2016/04/27/17/26/alps-1357110_640.jpg",
        "src1280": "https://cdn.pixabay.com/photo/2016/04/27/17/26/alps-1357110_1280.jpg"
    },
    {
        "id": "1943386",
        "src640": "https://cdn.pixabay.com/photo/2016/12/31/17/20/autumn-1943386_640.jpg",
        "src1280": "https://cdn.pixabay.com/photo/2016/12/31/17/20/autumn-1943386_1280.jpg"
    },
    {
        "id": "3359684",
        "src640": "https://cdn.pixabay.com/photo/2018/04/29/11/27/winter-3359684_640.jpg",
        "src1280": "https://cdn.pixabay.com/photo/2018/04/29/11/27/winter-3359684_1280.jpg"
    },
    {
        "id": "1229310",
        "src640": "https://cdn.pixabay.com/photo/2016/02/29/21/55/crown-1229310_640.jpg",
        "src1280": "https://cdn.pixabay.com/photo/2016/02/29/21/55/crown-1229310_1280.jpg"
    },
    {
        "id": "3921805",
        "src640": "https://cdn.pixabay.com/photo/2019/01/08/18/31/snow-3921805_640.jpg",
        "src1280": "https://cdn.pixabay.com/photo/2019/01/08/18/31/snow-3921805_1280.jpg"
    },
    {
        "id": "1154462",
        "src640": "https://cdn.pixabay.com/photo/2016/01/21/18/50/branch-1154462_640.jpg",
        "src1280": "https://cdn.pixabay.com/photo/2016/01/21/18/50/branch-1154462_1280.jpg"
    },
    {
        "id": "7650086",
        "src640": "https://cdn.pixabay.com/photo/2022/12/12/03/36/snow-7650086_640.jpg",
        "src1280": "https://cdn.pixabay.com/photo/2022/12/12/03/36/snow-7650086_1280.jpg"
    },
    {
        "id": "7761398",
        "src640": "https://cdn.pixabay.com/photo/2023/02/01/22/10/tree-7761398_640.jpg",
        "src1280": "https://cdn.pixabay.com/photo/2023/02/01/22/10/tree-7761398_1280.jpg"
    },
    {
        "id": "6847535",
        "src640": "https://cdn.pixabay.com/photo/2021/12/05/12/07/twilight-6847535_640.jpg",
        "src1280": "https://cdn.pixabay.com/photo/2021/12/05/12/07/twilight-6847535_1280.jpg"
    },
    {
        "id": "6307894",
        "src640": "https://cdn.pixabay.com/photo/2021/06/03/18/48/window-6307894_640.jpg",
        "src1280": "https://cdn.pixabay.com/photo/2021/06/03/18/48/window-6307894_1280.jpg"
    },
    {
        "id": "64236",
        "src640": "https://cdn.pixabay.com/photo/2012/11/06/01/54/trees-64236_640.jpg",
        "src1280": "https://cdn.pixabay.com/photo/2012/11/06/01/54/trees-64236_1280.jpg"
    },
    {
        "id": "1660373",
        "src640": "https://cdn.pixabay.com/photo/2016/09/10/23/27/winter-1660373_640.jpg",
        "src1280": "https://cdn.pixabay.com/photo/2016/09/10/23/27/winter-1660373_1280.jpg"
    },
    {
        "id": "4237528",
        "src640": "https://cdn.pixabay.com/photo/2019/05/29/13/16/winter-4237528_640.jpg",
        "src1280": "https://cdn.pixabay.com/photo/2019/05/29/13/16/winter-4237528_1280.jpg"
    },
    {
        "id": "6209503",
        "src640": "https://cdn.pixabay.com/photo/2021/04/26/16/50/wrabness-6209503_640.jpg",
        "src1280": "https://cdn.pixabay.com/photo/2021/04/26/16/50/wrabness-6209503_1280.jpg"
    },
    {
        "id": "5207651",
        "src640": "https://cdn.pixabay.com/photo/2020/05/23/01/11/city-5207651_640.jpg",
        "src1280": "https://cdn.pixabay.com/photo/2020/05/23/01/11/city-5207651_1280.jpg"
    },
    {
        "id": "2736969",
        "src640": "https://cdn.pixabay.com/photo/2017/09/10/20/49/forest-2736969_640.jpg",
        "src1280": "https://cdn.pixabay.com/photo/2017/09/10/20/49/forest-2736969_1280.jpg"
    },
    {
        "id": "3894190",
        "src640": "https://cdn.pixabay.com/photo/2018/12/25/12/29/winter-3894190_640.jpg",
        "src1280": "https://cdn.pixabay.com/photo/2018/12/25/12/29/winter-3894190_1280.jpg"
    },
    {
        "id": "1830640",
        "src640": "https://cdn.pixabay.com/photo/2016/11/17/03/24/snow-1830640_640.jpg",
        "src1280": "https://cdn.pixabay.com/photo/2016/11/17/03/24/snow-1830640_1280.jpg"
    },
    {
        "id": "6950563",
        "src640": "https://cdn.pixabay.com/photo/2022/01/19/17/27/trees-6950563_640.jpg",
        "src1280": "https://cdn.pixabay.com/photo/2022/01/19/17/27/trees-6950563_1280.jpg"
    },
    {
        "id": "2407743",
        "src640": "https://cdn.pixabay.com/photo/2017/06/16/04/42/snow-2407743_640.jpg",
        "src1280": "https://cdn.pixabay.com/photo/2017/06/16/04/42/snow-2407743_1280.jpg"
    },
    {
        "id": "1444197",
        "src640": "https://cdn.pixabay.com/photo/2016/06/08/17/51/lamp-1444197_640.jpg",
        "src1280": "https://cdn.pixabay.com/photo/2016/06/08/17/51/lamp-1444197_1280.jpg"
    },
    {
        "id": "1995844",
        "src640": "https://cdn.pixabay.com/photo/2017/01/20/20/21/aletschgletscher-1995844_640.jpg",
        "src1280": "https://cdn.pixabay.com/photo/2017/01/20/20/21/aletschgletscher-1995844_1280.jpg"
    },
    {
        "id": "2082321",
        "src640": "https://cdn.pixabay.com/photo/2017/02/20/12/17/snow-2082321_640.jpg",
        "src1280": "https://cdn.pixabay.com/photo/2017/02/20/12/17/snow-2082321_1280.jpg"
    },
    {
        "id": "1133844",
        "src640": "https://cdn.pixabay.com/photo/2016/01/11/16/03/winter-1133844_640.jpg",
        "src1280": "https://cdn.pixabay.com/photo/2016/01/11/16/03/winter-1133844_1280.jpg"
    },
    {
        "id": "2999630",
        "src640": "https://cdn.pixabay.com/photo/2017/12/05/16/11/black-tea-2999630_640.jpg",
        "src1280": "https://cdn.pixabay.com/photo/2017/12/05/16/11/black-tea-2999630_1280.jpg"
    },
    {
        "id": "2140145",
        "src640": "https://cdn.pixabay.com/photo/2017/03/13/15/34/snow-2140145_640.jpg",
        "src1280": "https://cdn.pixabay.com/photo/2017/03/13/15/34/snow-2140145_1280.jpg"
    },
    {
        "id": "3298470",
        "src640": "https://cdn.pixabay.com/photo/2018/04/07/13/16/tree-3298470_640.jpg",
        "src1280": "https://cdn.pixabay.com/photo/2018/04/07/13/16/tree-3298470_1280.jpg"
    },
    {
        "id": "7683774",
        "src640": "https://cdn.pixabay.com/photo/2022/12/28/20/40/is-7683774_640.jpg",
        "src1280": "https://cdn.pixabay.com/photo/2022/12/28/20/40/is-7683774_1280.jpg"
    },
    {
        "id": "919887",
        "src640": "https://cdn.pixabay.com/photo/2015/09/03/00/08/bamboo-919887_640.jpg",
        "src1280": "https://cdn.pixabay.com/photo/2015/09/03/00/08/bamboo-919887_1280.jpg"
    },
    {
        "id": "87173",
        "src640": "https://cdn.pixabay.com/photo/2013/03/01/17/53/bike-87173_640.jpg",
        "src1280": "https://cdn.pixabay.com/photo/2013/03/01/17/53/bike-87173_1280.jpg"
    }
]