[
    {
        "id": "7655342",
        "src640": "https://cdn.pixabay.com/photo/2022/12/14/12/52/winter-7655342_640.jpg",
        "src1280": "https://cdn.pixabay.com/photo/2022/12/14/12/52/winter-7655342_1280.jpg"
    },
    {
        "id": "1146632",
        "src640": "https://cdn.pixabay.com/photo/2016/01/18/14/33/trace-1146632_640.jpg",
        "src1280": "https://cdn.pixabay.com/photo/2016/01/18/14/33/trace-1146632_1280.jpg"
    },
    {
        "id": "235179",
        "src640": "https://cdn.pixabay.com/photo/2013/12/29/13/29/firs-235179_640.jpg",
        "src1280": "https://cdn.pixabay.com/photo/2013/12/29/13/29/firs-235179_1280.jpg"
    },
    {
        "id": "7577393",
        "src640": "https://cdn.pixabay.com/photo/2022/11/07/23/42/woman-7577393_640.jpg",
        "src1280": "https://cdn.pixabay.com/photo/2022/11/07/23/42/woman-7577393_1280.jpg"
    },
    {
        "id": "7719502",
        "src640": "https://cdn.pixabay.com/photo/2023/01/15/05/50/ice-7719502_640.jpg",
        "src1280": "https://cdn.pixabay.com/photo/2023/01/15/05/50/ice-7719502_1280.jpg"
    },
    {
        "id": "4013217",
        "src640": "https://cdn.pixabay.com/photo/2019/02/22/10/21/wintry-4013217_640.jpg",
        "src1280": "https://cdn.pixabay.com/photo/2019/02/22/10/21/wintry-4013217_1280.jpg"
    },
    {
        "id": "7577395",
        "src640": "https://cdn.pixabay.com/photo/2022/11/07/23/43/woman-7577395_640.jpg",
        "src1280": "https://cdn.pixabay.com/photo/2022/11/07/23/43/woman-7577395_1280.jpg"
    },
    {
        "id": "4830414",
        "src640": "https://cdn.pixabay.com/photo/2020/02/08/15/52/christian-roses-4830414_640.jpg",
        "src1280": "https://cdn.pixabay.com/photo/2020/02/08/15/52/christian-roses-4830414_1280.jpg"
    },
    {
        "id": "3877510",
        "src640": "https://cdn.pixabay.com/photo/2018/12/15/19/36/fashion-3877510_640.jpg",
        "src1280": "https://cdn.pixabay.com/photo/2018/12/15/19/36/fashion-3877510_1280.jpg"
    },
    {
        "id": "3523469",
        "src640": "https://cdn.pixabay.com/photo/2018/07/08/08/50/wolf-3523469_640.jpg",
        "src1280": "https://cdn.pixabay.com/photo/2018/07/08/08/50/wolf-3523469_1280.jpg"
    },
    {
        "id": "4792429",
        "src640": "https://cdn.pixabay.com/photo/2020/01/25/12/22/lake-4792429_640.jpg",
        "src1280": "https://cdn.pixabay.com/photo/2020/01/25/12/22/lake-4792429_1280.jpg"
    },
    {
        "id": "4295",
        "src640": "https://cdn.pixabay.com/photo/2011/01/01/16/58/eisapfen-4295_640.jpg",
        "src1280": "https://cdn.pixabay.com/photo/2011/01/01/16/58/eisapfen-4295_1280.jpg"
    },
    {
        "id": "79832",
        "src640": "https://cdn.pixabay.com/photo/2013/02/09/23/58/arctic-79832_640.jpg",
        "src1280": "https://cdn.pixabay.com/photo/2013/02/09/23/58/arctic-79832_1280.jpg"
    },
    {
        "id": "890779",
        "src640": "https://cdn.pixabay.com/photo/2015/08/16/11/05/thermometer-890779_640.jpg",
        "src1280": "https://cdn.pixabay.com/photo/2015/08/16/11/05/thermometer-890779_1280.jpg"
    },
    {
        "id": "3819887",
        "src640": "https://cdn.pixabay.com/photo/2018/11/16/17/26/diya-3819887_640.jpg",
        "src1280": "https://cdn.pixabay.com/photo/2018/11/16/17/26/diya-3819887_1280.jpg"
    },
    {
        "id": "251544",
        "src640": "https://cdn.pixabay.com/photo/2014/01/25/15/18/animal-251544_640.jpg",
        "src1280": "https://cdn.pixabay.com/photo/2014/01/25/15/18/animal-251544_1280.jpg"
    },
    {
        "id": "6927085",
        "src640": "https://cdn.pixabay.com/photo/2022/01/09/22/15/winter-6927085_640.jpg",
        "src1280": "https://cdn.pixabay.com/photo/2022/01/09/22/15/winter-6927085_1280.jpg"
    },
    {
        "id": "5114815",
        "src640": "https://cdn.pixabay.com/photo/2020/04/30/22/16/lake-louise-5114815_640.jpg",
        "src1280": "https://cdn.pixabay.com/photo/2020/04/30/22/16/lake-louise-5114815_1280.jpg"
    },
    {
        "id": "7458212",
        "src640": "https://cdn.pixabay.com/photo/2022/09/16/09/13/bench-7458212_640.jpg",
        "src1280": "https://cdn.pixabay.com/photo/2022/09/16/09/13/bench-7458212_1280.jpg"
    },
    {
        "id": "6872354",
        "src640": "https://cdn.pixabay.com/photo/2021/12/15/11/42/animal-6872354_640.jpg",
        "src1280": "https://cdn.pixabay.com/photo/2021/12/15/11/42/animal-6872354_1280.jpg"
    },
    {
        "id": "6084455",
        "src640": "https://cdn.pixabay.com/photo/2021/03/10/12/28/flowers-6084455_640.jpg",
        "src1280": "https://cdn.pixabay.com/photo/2021/03/10/12/28/flowers-6084455_1280.jpg"
    },
    {
        "id": "4086034",
        "src640": "https://cdn.pixabay.com/photo/2019/03/27/22/17/fashion-4086034_640.jpg",
        "src1280": "https://cdn.pixabay.com/photo/2019/03/27/22/17/fashion-4086034_1280.jpg"
    },
    {
        "id": "5128618",
        "src640": "https://cdn.pixabay.com/photo/2020/05/04/10/34/london-5128618_640.jpg",
        "src1280": "https://cdn.pixabay.com/photo/2020/05/04/10/34/london-5128618_1280.jpg"
    },
    {
        "id": "3037466",
        "src640": "https://cdn.pixabay.com/photo/2017/12/24/18/43/tit-3037466_640.jpg",
        "src1280": "https://cdn.pixabay.com/photo/2017/12/24/18/43/tit-3037466_1280.jpg"
    },
    {
        "id": "3866221",
        "src640": "https://cdn.pixabay.com/photo/2018/12/10/04/59/happiness-3866221_640.jpg",
        "src1280": "https://cdn.pixabay.com/photo/2018/12/10/04/59/happiness-3866221_1280.jpg"
    },
    {
        "id": "992913",
        "src640": "https://cdn.pixabay.com/photo/2015/10/17/17/38/winter-992913_640.jpg",
        "src1280": "https://cdn.pixabay.com/photo/2015/10/17/17/38/winter-992913_1280.jpg"
    },
    {
        "id": "2611387",
        "src640": "https://cdn.pixabay.com/photo/2017/08/08/13/19/river-2611387_640.jpg",
        "src1280": "https://cdn.pixabay.com/photo/2017/08/08/13/19/river-2611387_1280.jpg"
    },
    {
        "id": "7653431",
        "src640": "https://cdn.pixabay.com/photo/2022/12/13/13/50/tree-7653431_640.jpg",
        "src1280": "https://cdn.pixabay.com/photo/2022/12/13/13/50/tree-7653431_1280.jpg"
    },
    {
        "id": "3959186",
        "src640": "https://cdn.pixabay.com/photo/2019/01/27/22/24/berries-3959186_640.jpg",
        "src1280": "https://cdn.pixabay.com/photo/2019/01/27/22/24/berries-3959186_1280.jpg"
    },
    {
        "id": "7452727",
        "src640": "https://cdn.pixabay.com/photo/2022/09/13/19/34/woman-7452727_640.jpg",
        "src1280": "https://cdn.pixabay.com/photo/2022/09/13/19/34/woman-7452727_1280.jpg"
    },
    {
        "id": "235172",
        "src640": "https://cdn.pixabay.com/photo/2013/12/29/13/12/firs-235172_640.jpg",
        "src1280": "https://cdn.pixabay.com/photo/2013/12/29/13/12/firs-235172_1280.jpg"
    },
    {
        "id": "4487106",
        "src640": "https://cdn.pixabay.com/photo/2019/09/18/16/34/tuscan-morning-4487106_640.jpg",
        "src1280": "https://cdn.pixabay.com/photo/2019/09/18/16/34/tuscan-morning-4487106_1280.jpg"
    },
    {
        "id": "2005074",
        "src640": "https://cdn.pixabay.com/photo/2017/01/24/10/59/bird-2005074_640.jpg",
        "src1280": "https://cdn.pixabay.com/photo/2017/01/24/10/59/bird-2005074_1280.jpg"
    },
    {
        "id": "6953930",
        "src640": "https://cdn.pixabay.com/photo/2022/01/21/04/51/cardinal-bird-6953930_640.jpg",
        "src1280": "https://cdn.pixabay.com/photo/2022/01/21/04/51/cardinal-bird-6953930_1280.jpg"
    },
    {
        "id": "5955211",
        "src640": "https://cdn.pixabay.com/photo/2021/01/27/15/17/woman-5955211_640.jpg",
        "src1280": "https://cdn.pixabay.com/photo/2021/01/27/15/17/woman-5955211_1280.jpg"
    },
    {
        "id": "7257999",
        "src640": "https://cdn.pixabay.com/photo/2022/06/12/13/02/mountain-7257999_640.jpg",
        "src1280": "https://cdn.pixabay.com/photo/2022/06/12/13/02/mountain-7257999_1280.jpg"
    },
    {
        "id": "4303",
        "src640": "https://cdn.pixabay.com/photo/2011/01/01/17/05/rose-hip-4303_640.jpg",
        "src1280": "https://cdn.pixabay.com/photo/2011/01/01/17/05/rose-hip-4303_1280.jpg"
    },
    {
        "id": "4284",
        "src640": "https://cdn.pixabay.com/photo/2011/01/01/16/54/winter-4284_640.jpg",
        "src1280": "https://cdn.pixabay.com/photo/2011/01/01/16/54/winter-4284_1280.jpg"
    },
    {
        "id": "5257252",
        "src640": "https://cdn.pixabay.com/photo/2020/06/04/05/24/winter-5257252_640.jpg",
        "src1280": "https://cdn.pixabay.com/photo/2020/06/04/05/24/winter-5257252_1280.jpg"
    },
    {
        "id": "671024",
        "src640": "https://cdn.pixabay.com/photo/2015/03/13/00/49/birch-trees-671024_640.jpg",
        "src1280": "https://cdn.pixabay.com/photo/2015/03/13/00/49/birch-trees-671024_1280.jpg"
    },
    {
        "id": "3877309",
        "src640": "https://cdn.pixabay.com/photo/2018/12/15/17/47/fashion-3877309_640.jpg",
        "src1280": "https://cdn.pixabay.com/photo/2018/12/15/17/47/fashion-3877309_1280.jpg"
    },
    {
        "id": "4727770",
        "src640": "https://cdn.pixabay.com/photo/2019/12/29/18/12/snow-4727770_640.jpg",
        "src1280": "https://cdn.pixabay.com/photo/2019/12/29/18/12/snow-4727770_1280.jpg"
    },
    {
        "id": "2539854",
        "src640": "https://cdn.pixabay.com/photo/2017/07/25/22/59/branch-2539854_640.jpg",
        "src1280": "https://cdn.pixabay.com/photo/2017/07/25/22/59/branch-2539854_1280.jpg"
    },
    {
        "id": "95179",
        "src640": "https://cdn.pixabay.com/photo/2013/03/20/13/11/dustbin-95179_640.jpg",
        "src1280": "https://cdn.pixabay.com/photo/2013/03/20/13/11/dustbin-95179_1280.jpg"
    },
    {
        "id": "7489983",
        "src640": "https://cdn.pixabay.com/photo/2022/09/30/18/02/coffee-7489983_640.jpg",
        "src1280": "https://cdn.pixabay.com/photo/2022/09/30/18/02/coffee-7489983_1280.jpg"
    },
    {
        "id": "2618466",
        "src640": "https://cdn.pixabay.com/photo/2017/08/10/05/12/tree-2618466_640.jpg",
        "src1280": "https://cdn.pixabay.com/photo/2017/08/10/05/12/tree-2618466_1280.jpg"
    },
    {
        "id": "6875637",
        "src640": "https://cdn.pixabay.com/photo/2021/12/17/05/08/pine-tree-6875637_640.jpg",
        "src1280": "https://cdn.pixabay.com/photo/2021/12/17/05/08/pine-tree-6875637_1280.jpg"
    },
    {
        "id": "3187167",
        "src640": "https://cdn.pixabay.com/photo/2018/02/28/03/55/will-shine-3187167_640.jpg",
        "src1280": "https://cdn.pixabay.com/photo/2018/02/28/03/55/will-shine-3187167_1280.jpg"
    },
    {
        "id": "7630837",
        "src640": "https://cdn.pixabay.com/photo/2022/12/02/13/08/winter-7630837_640.jpg",
        "src1280": "https://cdn.pixabay.com/photo/2022/12/02/13/08/winter-7630837_1280.jpg"
    },
    {
        "id": "7686789",
        "src640": "https://cdn.pixabay.com/photo/2022/12/30/11/57/winter-7686789_640.jpg",
        "src1280": "https://cdn.pixabay.com/photo/2022/12/30/11/57/winter-7686789_1280.jpg"
    },
    {
        "id": "4645982",
        "src640": "https://cdn.pixabay.com/photo/2019/11/23/00/11/snow-4645982_640.jpg",
        "src1280": "https://cdn.pixabay.com/photo/2019/11/23/00/11/snow-4645982_1280.jpg"
    },
    {
        "id": "4822535",
        "src640": "https://cdn.pixabay.com/photo/2020/02/05/22/16/boy-4822535_640.jpg",
        "src1280": "https://cdn.pixabay.com/photo/2020/02/05/22/16/boy-4822535_1280.jpg"
    },
    {
        "id": "3173016",
        "src640": "https://cdn.pixabay.com/photo/2018/02/22/13/16/ice-floe-3173016_640.jpg",
        "src1280": "https://cdn.pixabay.com/photo/2018/02/22/13/16/ice-floe-3173016_1280.jpg"
    },
    {
        "id": "93783",
        "src640": "https://cdn.pixabay.com/photo/2013/03/14/21/59/fir-tree-93783_640.jpg",
        "src1280": "https://cdn.pixabay.com/photo/2013/03/14/21/59/fir-tree-93783_1280.jpg"
    },
    {
        "id": "970210",
        "src640": "https://cdn.pixabay.com/photo/2015/10/03/19/07/bird-970210_640.jpg",
        "src1280": "https://cdn.pixabay.com/photo/2015/10/03/19/07/bird-970210_1280.jpg"
    },
    {
        "id": "1167611",
        "src640": "https://cdn.pixabay.com/photo/2016/01/29/09/55/girl-1167611_640.jpg",
        "src1280": "https://cdn.pixabay.com/photo/2016/01/29/09/55/girl-1167611_1280.jpg"
    },
    {
        "id": "3183033",
        "src640": "https://cdn.pixabay.com/photo/2018/02/26/13/13/winter-3183033_640.jpg",
        "src1280": "https://cdn.pixabay.com/photo/2018/02/26/13/13/winter-3183033_1280.jpg"
    },
    {
        "id": "4043302",
        "src640": "https://cdn.pixabay.com/photo/2019/03/08/21/59/winter-4043302_640.jpg",
        "src1280": "https://cdn.pixabay.com/photo/2019/03/08/21/59/winter-4043302_1280.jpg"
    },
    {
        "id": "722664",
        "src640": "https://cdn.pixabay.com/photo/2015/04/14/19/57/winter-722664_640.jpg",
        "src1280": "https://cdn.pixabay.com/photo/2015/04/14/19/57/winter-722664_1280.jpg"
    },
    {
        "id": "6851152",
        "src640": "https://cdn.pixabay.com/photo/2021/12/06/18/00/woman-6851152_640.jpg",
        "src1280": "https://cdn.pixabay.com/photo/2021/12/06/18/00/woman-6851152_1280.jpg"
    },
    {
        "id": "4909574",
        "src640": "https://cdn.pixabay.com/photo/2020/03/07/12/16/brook-4909574_640.jpg",
        "src1280": "https://cdn.pixabay.com/photo/2020/03/07/12/16/brook-4909574_1280.jpg"
    },
    {
        "id": "3906659",
        "src640": "https://cdn.pixabay.com/photo/2019/01/01/12/48/sunrise-3906659_640.jpg",
        "src1280": "https://cdn.pixabay.com/photo/2019/01/01/12/48/sunrise-3906659_1280.jpg"
    },
    {
        "id": "7676612",
        "src640": "https://cdn.pixabay.com/photo/2022/12/25/00/33/christmas-card-7676612_640.jpg",
        "src1280": "https://cdn.pixabay.com/photo/2022/12/25/00/33/christmas-card-7676612_1280.jpg"
    },
    {
        "id": "6951139",
        "src640": "https://cdn.pixabay.com/photo/2022/01/19/22/55/winter-6951139_640.jpg",
        "src1280": "https://cdn.pixabay.com/photo/2022/01/19/22/55/winter-6951139_1280.jpg"
    },
    {
        "id": "6932312",
        "src640": "https://cdn.pixabay.com/photo/2022/01/12/09/08/leaves-6932312_640.jpg",
        "src1280": "https://cdn.pixabay.com/photo/2022/01/12/09/08/leaves-6932312_1280.jpg"
    },
    {
        "id": "7047892",
        "src640": "https://cdn.pixabay.com/photo/2022/03/04/19/00/nature-7047892_640.jpg",
        "src1280": "https://cdn.pixabay.com/photo/2022/03/04/19/00/nature-7047892_1280.jpg"
    },
    {
        "id": "6885759",
        "src640": "https://cdn.pixabay.com/photo/2021/12/21/17/58/lake-6885759_640.jpg",
        "src1280": "https://cdn.pixabay.com/photo/2021/12/21/17/58/lake-6885759_1280.jpg"
    },
    {
        "id": "6915190",
        "src640": "https://cdn.pixabay.com/photo/2022/01/04/14/18/reed-6915190_640.jpg",
        "src1280": "https://cdn.pixabay.com/photo/2022/01/04/14/18/reed-6915190_1280.jpg"
    },
    {
        "id": "6972765",
        "src640": "https://cdn.pixabay.com/photo/2022/01/27/17/57/tree-6972765_640.jpg",
        "src1280": "https://cdn.pixabay.com/photo/2022/01/27/17/57/tree-6972765_1280.jpg"
    },
    {
        "id": "100495",
        "src640": "https://cdn.pixabay.com/photo/2013/04/04/18/35/hot-100495_640.jpg",
        "src1280": "https://cdn.pixabay.com/photo/2013/04/04/18/35/hot-100495_1280.jpg"
    },
    {
        "id": "7663889",
        "src640": "https://cdn.pixabay.com/photo/2022/12/18/17/10/plant-7663889_640.jpg",
        "src1280": "https://cdn.pixabay.com/photo/2022/12/18/17/10/plant-7663889_1280.jpg"
    },
    {
        "id": "4652184",
        "src640": "https://cdn.pixabay.com/photo/2019/11/25/14/25/photography-4652184_640.jpg",
        "src1280": "https://cdn.pixabay.com/photo/2019/11/25/14/25/photography-4652184_1280.jpg"
    },
    {
        "id": "3658299",
        "src640": "https://cdn.pixabay.com/photo/2018/09/06/13/29/dog-3658299_640.jpg",
        "src1280": "https://cdn.pixabay.com/photo/2018/09/06/13/29/dog-3658299_1280.jpg"
    },
    {
        "id": "4795007",
        "src640": "https://cdn.pixabay.com/photo/2020/01/26/16/08/face-art-4795007_640.jpg",
        "src1280": "https://cdn.pixabay.com/photo/2020/01/26/16/08/face-art-4795007_1280.jpg"
    },
    {
        "id": "5905780",
        "src640": "https://cdn.pixabay.com/photo/2021/01/10/17/21/winter-5905780_640.jpg",
        "src1280": "https://cdn.pixabay.com/photo/2021/01/10/17/21/winter-5905780_1280.jpg"
    },
    {
        "id": "7755475",
        "src640": "https://cdn.pixabay.com/photo/2023/01/30/11/57/maine-coon-7755475_640.jpg",
        "src1280": "https://cdn.pixabay.com/photo/2023/01/30/11/57/maine-coon-7755475_1280.jpg"
    },
    {
        "id": "3089379",
        "src640": "https://cdn.pixabay.com/photo/2018/01/18/01/40/winter-3089379_640.jpg",
        "src1280": "https://cdn.pixabay.com/photo/2018/01/18/01/40/winter-3089379_1280.jpg"
    },
    {
        "id": "5048046",
        "src640": "https://cdn.pixabay.com/photo/2020/04/15/20/09/snow-5048046_640.jpg",
        "src1280": "https://cdn.pixabay.com/photo/2020/04/15/20/09/snow-5048046_1280.jpg"
    },
    {
        "id": "1242199",
        "src640": "https://cdn.pixabay.com/photo/2016/03/07/13/50/dog-1242199_640.jpg",
        "src1280": "https://cdn.pixabay.com/photo/2016/03/07/13/50/dog-1242199_1280.jpg"
    },
    {
        "id": "1159622",
        "src640": "https://cdn.pixabay.com/photo/2016/01/24/21/09/lavender-1159622_640.jpg",
        "src1280": "https://cdn.pixabay.com/photo/2016/01/24/21/09/lavender-1159622_1280.jpg"
    },
    {
        "id": "2594429",
        "src640": "https://cdn.pixabay.com/photo/2017/08/06/17/27/people-2594429_640.jpg",
        "src1280": "https://cdn.pixabay.com/photo/2017/08/06/17/27/people-2594429_1280.jpg"
    },
    {
        "id": "2444967",
        "src640": "https://cdn.pixabay.com/photo/2017/06/26/19/48/distance-2444967_640.jpg",
        "src1280": "https://cdn.pixabay.com/photo/2017/06/26/19/48/distance-2444967_1280.jpg"
    },
    {
        "id": "6867164",
        "src640": "https://cdn.pixabay.com/photo/2021/12/12/22/54/winter-6867164_640.jpg",
        "src1280": "https://cdn.pixabay.com/photo/2021/12/12/22/54/winter-6867164_1280.jpg"
    },
    {
        "id": "69334",
        "src640": "https://cdn.pixabay.com/photo/2012/12/11/15/20/winter-69334_640.jpg",
        "src1280": "https://cdn.pixabay.com/photo/2012/12/11/15/20/winter-69334_1280.jpg"
    },
    {
        "id": "4023292",
        "src640": "https://cdn.pixabay.com/photo/2019/02/27/02/30/hem-fir-4023292_640.jpg",
        "src1280": "https://cdn.pixabay.com/photo/2019/02/27/02/30/hem-fir-4023292_1280.jpg"
    },
    {
        "id": "22112",
        "src640": "https://cdn.pixabay.com/photo/2012/03/04/00/51/angel-22112_640.jpg",
        "src1280": "https://cdn.pixabay.com/photo/2012/03/04/00/51/angel-22112_1280.jpg"
    },
    {
        "id": "522513",
        "src640": "https://cdn.pixabay.com/photo/2014/11/08/17/48/hoarfrost-522513_640.jpg",
        "src1280": "https://cdn.pixabay.com/photo/2014/11/08/17/48/hoarfrost-522513_1280.jpg"
    },
    {
        "id": "6899635",
        "src640": "https://cdn.pixabay.com/photo/2021/12/28/16/08/blackbird-6899635_640.jpg",
        "src1280": "https://cdn.pixabay.com/photo/2021/12/28/16/08/blackbird-6899635_1280.jpg"
    },
    {
        "id": "3172490",
        "src640": "https://cdn.pixabay.com/photo/2018/02/22/09/09/nature-3172490_640.jpg",
        "src1280": "https://cdn.pixabay.com/photo/2018/02/22/09/09/nature-3172490_1280.jpg"
    },
    {
        "id": "6889104",
        "src640": "https://cdn.pixabay.com/photo/2021/12/23/09/56/winter-6889104_640.jpg",
        "src1280": "https://cdn.pixabay.com/photo/2021/12/23/09/56/winter-6889104_1280.jpg"
    },
    {
        "id": "4579068",
        "src640": "https://cdn.pixabay.com/photo/2019/10/26/09/50/shoes-4579068_640.jpg",
        "src1280": "https://cdn.pixabay.com/photo/2019/10/26/09/50/shoes-4579068_1280.jpg"
    },
    {
        "id": "7114207",
        "src640": "https://cdn.pixabay.com/photo/2022/04/05/18/28/river-7114207_640.jpg",
        "src1280": "https://cdn.pixabay.com/photo/2022/04/05/18/28/river-7114207_1280.jpg"
    },
    {
        "id": "6561555",
        "src640": "https://cdn.pixabay.com/photo/2021/08/21/01/09/winter-6561555_640.jpg",
        "src1280": "https://cdn.pixabay.com/photo/2021/08/21/01/09/winter-6561555_1280.jpg"
    },
    {
        "id": "6811420",
        "src640": "https://cdn.pixabay.com/photo/2021/11/20/10/42/husky-6811420_640.jpg",
        "src1280": "https://cdn.pixabay.com/photo/2021/11/20/10/42/husky-6811420_1280.jpg"
    },
    {
        "id": "6927084",
        "src640": "https://cdn.pixabay.com/photo/2022/01/09/22/15/winter-6927084_640.jpg",
        "src1280": "https://cdn.pixabay.com/photo/2022/01/09/22/15/winter-6927084_1280.jpg"
    }
]