[
    {
        "id": "7099634",
        "src640": "https://cdn.pixabay.com/photo/2022/03/29/15/39/cow-7099634_640.jpg",
        "src1280": "https://cdn.pixabay.com/photo/2022/03/29/15/39/cow-7099634_1280.jpg"
    },
    {
        "id": "5147202",
        "src640": "https://cdn.pixabay.com/photo/2020/05/08/20/13/mountain-5147202_640.jpg",
        "src1280": "https://cdn.pixabay.com/photo/2020/05/08/20/13/mountain-5147202_1280.jpg"
    },
    {
        "id": "1872379",
        "src640": "https://cdn.pixabay.com/photo/2016/11/30/10/03/whisky-1872379_640.jpg",
        "src1280": "https://cdn.pixabay.com/photo/2016/11/30/10/03/whisky-1872379_1280.jpg"
    },
    {
        "id": "6999003",
        "src640": "https://cdn.pixabay.com/photo/2022/02/07/09/58/leaves-6999003_640.jpg",
        "src1280": "https://cdn.pixabay.com/photo/2022/02/07/09/58/leaves-6999003_1280.jpg"
    },
    {
        "id": "4817765",
        "src640": "https://cdn.pixabay.com/photo/2020/02/04/09/50/snow-4817765_640.jpg",
        "src1280": "https://cdn.pixabay.com/photo/2020/02/04/09/50/snow-4817765_1280.jpg"
    },
    {
        "id": "6925562",
        "src640": "https://cdn.pixabay.com/photo/2022/01/09/08/48/winter-6925562_640.jpg",
        "src1280": "https://cdn.pixabay.com/photo/2022/01/09/08/48/winter-6925562_1280.jpg"
    },
    {
        "id": "6991205",
        "src640": "https://cdn.pixabay.com/photo/2022/02/03/19/31/rottweiler-6991205_640.jpg",
        "src1280": "https://cdn.pixabay.com/photo/2022/02/03/19/31/rottweiler-6991205_1280.jpg"
    },
    {
        "id": "6885447",
        "src640": "https://cdn.pixabay.com/photo/2021/12/21/14/47/sheet-6885447_640.jpg",
        "src1280": "https://cdn.pixabay.com/photo/2021/12/21/14/47/sheet-6885447_1280.jpg"
    },
    {
        "id": "7736107",
        "src640": "https://cdn.pixabay.com/photo/2023/01/22/11/18/amaryllis-7736107_640.jpg",
        "src1280": "https://cdn.pixabay.com/photo/2023/01/22/11/18/amaryllis-7736107_1280.jpg"
    },
    {
        "id": "2403",
        "src640": "https://cdn.pixabay.com/photo/2010/12/13/10/10/box-2403_640.jpg",
        "src1280": "https://cdn.pixabay.com/photo/2010/12/13/10/10/box-2403_1280.jpg"
    },
    {
        "id": "7538581",
        "src640": "https://cdn.pixabay.com/photo/2022/10/22/07/16/winter-7538581_640.jpg",
        "src1280": "https://cdn.pixabay.com/photo/2022/10/22/07/16/winter-7538581_1280.jpg"
    },
    {
        "id": "7776875",
        "src640": "https://cdn.pixabay.com/photo/2023/02/08/15/17/duck-7776875_640.jpg",
        "src1280": "https://cdn.pixabay.com/photo/2023/02/08/15/17/duck-7776875_1280.jpg"
    },
    {
        "id": "3061014",
        "src640": "https://cdn.pixabay.com/photo/2018/01/04/16/03/snowy-owl-3061014_640.jpg",
        "src1280": "https://cdn.pixabay.com/photo/2018/01/04/16/03/snowy-owl-3061014_1280.jpg"
    },
    {
        "id": "2590329",
        "src640": "https://cdn.pixabay.com/photo/2017/08/06/08/36/mountain-2590329_640.jpg",
        "src1280": "https://cdn.pixabay.com/photo/2017/08/06/08/36/mountain-2590329_1280.jpg"
    },
    {
        "id": "7779355",
        "src640": "https://cdn.pixabay.com/photo/2023/02/09/17/28/bird-7779355_640.jpg",
        "src1280": "https://cdn.pixabay.com/photo/2023/02/09/17/28/bird-7779355_1280.jpg"
    },
    {
        "id": "15805",
        "src640": "https://cdn.pixabay.com/photo/2012/02/23/08/50/tree-15805_640.jpg",
        "src1280": "https://cdn.pixabay.com/photo/2012/02/23/08/50/tree-15805_1280.jpg"
    },
    {
        "id": "6956272",
        "src640": "https://cdn.pixabay.com/photo/2022/01/22/05/37/cat-6956272_640.jpg",
        "src1280": "https://cdn.pixabay.com/photo/2022/01/22/05/37/cat-6956272_1280.jpg"
    },
    {
        "id": "1934591",
        "src640": "https://cdn.pixabay.com/photo/2016/12/27/19/16/ice-sculptures-1934591_640.jpg",
        "src1280": "https://cdn.pixabay.com/photo/2016/12/27/19/16/ice-sculptures-1934591_1280.jpg"
    },
    {
        "id": "4857817",
        "src640": "https://cdn.pixabay.com/photo/2020/02/17/20/41/cat-4857817_640.jpg",
        "src1280": "https://cdn.pixabay.com/photo/2020/02/17/20/41/cat-4857817_1280.jpg"
    },
    {
        "id": "8464248",
        "src640": "https://cdn.pixabay.com/photo/2023/12/22/19/16/moon-8464248_640.jpg",
        "src1280": "https://cdn.pixabay.com/photo/2023/12/22/19/16/moon-8464248_1280.jpg"
    },
    {
        "id": "2798707",
        "src640": "https://cdn.pixabay.com/photo/2017/09/29/11/19/wood-2798707_640.jpg",
        "src1280": "https://cdn.pixabay.com/photo/2017/09/29/11/19/wood-2798707_1280.jpg"
    },
    {
        "id": "1113009",
        "src640": "https://cdn.pixabay.com/photo/2015/12/29/16/03/legs-1113009_640.jpg",
        "src1280": "https://cdn.pixabay.com/photo/2015/12/29/16/03/legs-1113009_1280.jpg"
    },
    {
        "id": "4763004",
        "src640": "https://cdn.pixabay.com/photo/2020/01/13/17/11/winter-4763004_640.jpg",
        "src1280": "https://cdn.pixabay.com/photo/2020/01/13/17/11/winter-4763004_1280.jpg"
    },
    {
        "id": "7823862",
        "src640": "https://cdn.pixabay.com/photo/2023/03/01/19/04/boat-7823862_640.jpg",
        "src1280": "https://cdn.pixabay.com/photo/2023/03/01/19/04/boat-7823862_1280.jpg"
    },
    {
        "id": "4700363",
        "src640": "https://cdn.pixabay.com/photo/2019/12/16/21/50/mountains-4700363_640.jpg",
        "src1280": "https://cdn.pixabay.com/photo/2019/12/16/21/50/mountains-4700363_1280.jpg"
    },
    {
        "id": "6943996",
        "src640": "https://cdn.pixabay.com/photo/2022/01/17/06/51/winter-6943996_640.jpg",
        "src1280": "https://cdn.pixabay.com/photo/2022/01/17/06/51/winter-6943996_1280.jpg"
    },
    {
        "id": "6934177",
        "src640": "https://cdn.pixabay.com/photo/2022/01/13/00/07/austria-6934177_640.jpg",
        "src1280": "https://cdn.pixabay.com/photo/2022/01/13/00/07/austria-6934177_1280.jpg"
    },
    {
        "id": "4699095",
        "src640": "https://cdn.pixabay.com/photo/2019/12/16/10/49/wooden-4699095_640.jpg",
        "src1280": "https://cdn.pixabay.com/photo/2019/12/16/10/49/wooden-4699095_1280.jpg"
    },
    {
        "id": "4848042",
        "src640": "https://cdn.pixabay.com/photo/2020/02/14/10/09/great-tit-4848042_640.jpg",
        "src1280": "https://cdn.pixabay.com/photo/2020/02/14/10/09/great-tit-4848042_1280.jpg"
    },
    {
        "id": "4039709",
        "src640": "https://cdn.pixabay.com/photo/2019/03/07/08/24/landscape-4039709_640.jpg",
        "src1280": "https://cdn.pixabay.com/photo/2019/03/07/08/24/landscape-4039709_1280.jpg"
    },
    {
        "id": "6925772",
        "src640": "https://cdn.pixabay.com/photo/2022/01/09/11/17/winter-6925772_640.jpg",
        "src1280": "https://cdn.pixabay.com/photo/2022/01/09/11/17/winter-6925772_1280.jpg"
    },
    {
        "id": "7217683",
        "src640": "https://cdn.pixabay.com/photo/2022/05/24/06/04/girl-7217683_640.jpg",
        "src1280": "https://cdn.pixabay.com/photo/2022/05/24/06/04/girl-7217683_1280.jpg"
    },
    {
        "id": "3392643",
        "src640": "https://cdn.pixabay.com/photo/2018/05/12/08/01/nature-3392643_640.jpg",
        "src1280": "https://cdn.pixabay.com/photo/2018/05/12/08/01/nature-3392643_1280.jpg"
    },
    {
        "id": "5271293",
        "src640": "https://cdn.pixabay.com/photo/2020/06/07/17/20/garden-5271293_640.jpg",
        "src1280": "https://cdn.pixabay.com/photo/2020/06/07/17/20/garden-5271293_1280.jpg"
    },
    {
        "id": "8406443",
        "src640": "https://cdn.pixabay.com/photo/2023/11/22/21/04/ai-generated-8406443_640.jpg",
        "src1280": "https://cdn.pixabay.com/photo/2023/11/22/21/04/ai-generated-8406443_1280.jpg"
    },
    {
        "id": "4790780",
        "src640": "https://cdn.pixabay.com/photo/2020/01/24/17/17/face-art-4790780_640.jpg",
        "src1280": "https://cdn.pixabay.com/photo/2020/01/24/17/17/face-art-4790780_1280.jpg"
    },
    {
        "id": "3891408",
        "src640": "https://cdn.pixabay.com/photo/2018/12/23/16/11/rudolph-3891408_640.jpg",
        "src1280": "https://cdn.pixabay.com/photo/2018/12/23/16/11/rudolph-3891408_1280.jpg"
    },
    {
        "id": "2603897",
        "src640": "https://cdn.pixabay.com/photo/2017/08/07/13/36/people-2603897_640.jpg",
        "src1280": "https://cdn.pixabay.com/photo/2017/08/07/13/36/people-2603897_1280.jpg"
    },
    {
        "id": "1935192",
        "src640": "https://cdn.pixabay.com/photo/2016/12/28/01/12/large-candy-cane-1935192_640.jpg",
        "src1280": "https://cdn.pixabay.com/photo/2016/12/28/01/12/large-candy-cane-1935192_1280.jpg"
    },
    {
        "id": "320695",
        "src640": "https://cdn.pixabay.com/photo/2014/04/10/04/19/winter-320695_640.jpg",
        "src1280": "https://cdn.pixabay.com/photo/2014/04/10/04/19/winter-320695_1280.jpg"
    },
    {
        "id": "996219",
        "src640": "https://cdn.pixabay.com/photo/2015/10/19/15/17/alps-996219_640.jpg",
        "src1280": "https://cdn.pixabay.com/photo/2015/10/19/15/17/alps-996219_1280.jpg"
    },
    {
        "id": "8216616",
        "src640": "https://cdn.pixabay.com/photo/2023/08/27/10/25/swiss-alps-8216616_640.jpg",
        "src1280": "https://cdn.pixabay.com/photo/2023/08/27/10/25/swiss-alps-8216616_1280.jpg"
    },
    {
        "id": "4838253",
        "src640": "https://cdn.pixabay.com/photo/2020/02/11/04/02/nature-4838253_640.jpg",
        "src1280": "https://cdn.pixabay.com/photo/2020/02/11/04/02/nature-4838253_1280.jpg"
    },
    {
        "id": "6860580",
        "src640": "https://cdn.pixabay.com/photo/2021/12/10/13/59/roadway-6860580_640.jpg",
        "src1280": "https://cdn.pixabay.com/photo/2021/12/10/13/59/roadway-6860580_1280.jpg"
    },
    {
        "id": "2603443",
        "src640": "https://cdn.pixabay.com/photo/2017/08/07/12/40/ice-2603443_640.jpg",
        "src1280": "https://cdn.pixabay.com/photo/2017/08/07/12/40/ice-2603443_1280.jpg"
    },
    {
        "id": "4712670",
        "src640": "https://cdn.pixabay.com/photo/2019/12/22/14/24/lark-4712670_640.jpg",
        "src1280": "https://cdn.pixabay.com/photo/2019/12/22/14/24/lark-4712670_1280.jpg"
    },
    {
        "id": "7548282",
        "src640": "https://cdn.pixabay.com/photo/2022/10/26/12/14/nature-7548282_640.jpg",
        "src1280": "https://cdn.pixabay.com/photo/2022/10/26/12/14/nature-7548282_1280.jpg"
    },
    {
        "id": "2787577",
        "src640": "https://cdn.pixabay.com/photo/2017/09/26/03/08/volcano-2787577_640.jpg",
        "src1280": "https://cdn.pixabay.com/photo/2017/09/26/03/08/volcano-2787577_1280.jpg"
    },
    {
        "id": "298102",
        "src640": "https://cdn.pixabay.com/photo/2014/03/25/21/37/fire-298102_640.jpg",
        "src1280": "https://cdn.pixabay.com/photo/2014/03/25/21/37/fire-298102_1280.jpg"
    },
    {
        "id": "4886658",
        "src640": "https://cdn.pixabay.com/photo/2020/02/28/07/14/couple-4886658_640.jpg",
        "src1280": "https://cdn.pixabay.com/photo/2020/02/28/07/14/couple-4886658_1280.jpg"
    },
    {
        "id": "4349230",
        "src640": "https://cdn.pixabay.com/photo/2019/07/19/17/08/norway-4349230_640.jpg",
        "src1280": "https://cdn.pixabay.com/photo/2019/07/19/17/08/norway-4349230_1280.jpg"
    },
    {
        "id": "7651198",
        "src640": "https://cdn.pixabay.com/photo/2022/12/12/15/06/woman-7651198_640.jpg",
        "src1280": "https://cdn.pixabay.com/photo/2022/12/12/15/06/woman-7651198_1280.jpg"
    },
    {
        "id": "6770007",
        "src640": "https://cdn.pixabay.com/photo/2021/11/05/01/52/snow-6770007_640.jpg",
        "src1280": "https://cdn.pixabay.com/photo/2021/11/05/01/52/snow-6770007_1280.jpg"
    },
    {
        "id": "4750342",
        "src640": "https://cdn.pixabay.com/photo/2020/01/08/15/16/winter-4750342_640.jpg",
        "src1280": "https://cdn.pixabay.com/photo/2020/01/08/15/16/winter-4750342_1280.jpg"
    },
    {
        "id": "3979993",
        "src640": "https://cdn.pixabay.com/photo/2019/02/06/20/57/dog-3979993_640.jpg",
        "src1280": "https://cdn.pixabay.com/photo/2019/02/06/20/57/dog-3979993_1280.jpg"
    },
    {
        "id": "8446886",
        "src640": "https://cdn.pixabay.com/photo/2023/12/13/13/10/reindeer-8446886_640.jpg",
        "src1280": "https://cdn.pixabay.com/photo/2023/12/13/13/10/reindeer-8446886_1280.jpg"
    },
    {
        "id": "4730703",
        "src640": "https://cdn.pixabay.com/photo/2019/12/30/21/46/ammersee-4730703_640.jpg",
        "src1280": "https://cdn.pixabay.com/photo/2019/12/30/21/46/ammersee-4730703_1280.jpg"
    },
    {
        "id": "1811885",
        "src640": "https://cdn.pixabay.com/photo/2016/11/09/14/35/girl-1811885_640.jpg",
        "src1280": "https://cdn.pixabay.com/photo/2016/11/09/14/35/girl-1811885_1280.jpg"
    },
    {
        "id": "2768831",
        "src640": "https://cdn.pixabay.com/photo/2017/09/20/14/58/woman-2768831_640.jpg",
        "src1280": "https://cdn.pixabay.com/photo/2017/09/20/14/58/woman-2768831_1280.jpg"
    },
    {
        "id": "6888006",
        "src640": "https://cdn.pixabay.com/photo/2021/12/22/17/56/christmas-6888006_640.jpg",
        "src1280": "https://cdn.pixabay.com/photo/2021/12/22/17/56/christmas-6888006_1280.jpg"
    },
    {
        "id": "2592760",
        "src640": "https://cdn.pixabay.com/photo/2017/08/06/13/59/snow-2592760_640.jpg",
        "src1280": "https://cdn.pixabay.com/photo/2017/08/06/13/59/snow-2592760_1280.jpg"
    },
    {
        "id": "2583725",
        "src640": "https://cdn.pixabay.com/photo/2017/08/05/13/48/mountain-2583725_640.jpg",
        "src1280": "https://cdn.pixabay.com/photo/2017/08/05/13/48/mountain-2583725_1280.jpg"
    },
    {
        "id": "2575088",
        "src640": "https://cdn.pixabay.com/photo/2017/08/03/08/51/church-2575088_640.jpg",
        "src1280": "https://cdn.pixabay.com/photo/2017/08/03/08/51/church-2575088_1280.jpg"
    },
    {
        "id": "7435609",
        "src640": "https://cdn.pixabay.com/photo/2022/09/06/03/10/fantasy-7435609_640.jpg",
        "src1280": "https://cdn.pixabay.com/photo/2022/09/06/03/10/fantasy-7435609_1280.jpg"
    },
    {
        "id": "7573990",
        "src640": "https://cdn.pixabay.com/photo/2022/11/06/13/23/winter-7573990_640.jpg",
        "src1280": "https://cdn.pixabay.com/photo/2022/11/06/13/23/winter-7573990_1280.jpg"
    },
    {
        "id": "1201470",
        "src640": "https://cdn.pixabay.com/photo/2016/02/15/16/31/pair-1201470_640.jpg",
        "src1280": "https://cdn.pixabay.com/photo/2016/02/15/16/31/pair-1201470_1280.jpg"
    },
    {
        "id": "5258562",
        "src640": "https://cdn.pixabay.com/photo/2020/06/04/12/47/the-windmill-5258562_640.jpg",
        "src1280": "https://cdn.pixabay.com/photo/2020/06/04/12/47/the-windmill-5258562_1280.jpg"
    },
    {
        "id": "4758166",
        "src640": "https://cdn.pixabay.com/photo/2020/01/11/17/10/mountains-4758166_640.jpg",
        "src1280": "https://cdn.pixabay.com/photo/2020/01/11/17/10/mountains-4758166_1280.jpg"
    },
    {
        "id": "1927449",
        "src640": "https://cdn.pixabay.com/photo/2016/12/23/15/08/little-girl-1927449_640.jpg",
        "src1280": "https://cdn.pixabay.com/photo/2016/12/23/15/08/little-girl-1927449_1280.jpg"
    },
    {
        "id": "5988656",
        "src640": "https://cdn.pixabay.com/photo/2021/02/06/16/29/great-tit-5988656_640.jpg",
        "src1280": "https://cdn.pixabay.com/photo/2021/02/06/16/29/great-tit-5988656_1280.jpg"
    },
    {
        "id": "16366",
        "src640": "https://cdn.pixabay.com/photo/2012/02/23/21/37/molehill-16366_640.jpg",
        "src1280": "https://cdn.pixabay.com/photo/2012/02/23/21/37/molehill-16366_1280.jpg"
    },
    {
        "id": "1137641",
        "src640": "https://cdn.pixabay.com/photo/2016/01/13/11/53/hot-chocolate-1137641_640.jpg",
        "src1280": "https://cdn.pixabay.com/photo/2016/01/13/11/53/hot-chocolate-1137641_1280.jpg"
    },
    {
        "id": "4802807",
        "src640": "https://cdn.pixabay.com/photo/2020/01/29/15/28/forest-christmas-4802807_640.jpg",
        "src1280": "https://cdn.pixabay.com/photo/2020/01/29/15/28/forest-christmas-4802807_1280.jpg"
    },
    {
        "id": "6929821",
        "src640": "https://cdn.pixabay.com/photo/2022/01/11/06/12/flower-6929821_640.jpg",
        "src1280": "https://cdn.pixabay.com/photo/2022/01/11/06/12/flower-6929821_1280.jpg"
    },
    {
        "id": "4930517",
        "src640": "https://cdn.pixabay.com/photo/2020/03/14/12/46/satellite-station-4930517_640.jpg",
        "src1280": "https://cdn.pixabay.com/photo/2020/03/14/12/46/satellite-station-4930517_1280.jpg"
    },
    {
        "id": "4992693",
        "src640": "https://cdn.pixabay.com/photo/2020/04/01/20/46/winter-4992693_640.jpg",
        "src1280": "https://cdn.pixabay.com/photo/2020/04/01/20/46/winter-4992693_1280.jpg"
    },
    {
        "id": "4757706",
        "src640": "https://cdn.pixabay.com/photo/2020/01/11/14/36/winter-4757706_640.jpg",
        "src1280": "https://cdn.pixabay.com/photo/2020/01/11/14/36/winter-4757706_1280.jpg"
    },
    {
        "id": "4625622",
        "src640": "https://cdn.pixabay.com/photo/2019/11/14/08/31/winter-4625622_640.jpg",
        "src1280": "https://cdn.pixabay.com/photo/2019/11/14/08/31/winter-4625622_1280.jpg"
    },
    {
        "id": "7696043",
        "src640": "https://cdn.pixabay.com/photo/2023/01/04/07/51/woman-7696043_640.jpg",
        "src1280": "https://cdn.pixabay.com/photo/2023/01/04/07/51/woman-7696043_1280.jpg"
    },
    {
        "id": "7917553",
        "src640": "https://cdn.pixabay.com/photo/2023/04/11/15/36/trees-7917553_640.jpg",
        "src1280": "https://cdn.pixabay.com/photo/2023/04/11/15/36/trees-7917553_1280.jpg"
    },
    {
        "id": "6924606",
        "src640": "https://cdn.pixabay.com/photo/2022/01/08/18/47/mushroom-6924606_640.jpg",
        "src1280": "https://cdn.pixabay.com/photo/2022/01/08/18/47/mushroom-6924606_1280.jpg"
    },
    {
        "id": "7459034",
        "src640": "https://cdn.pixabay.com/photo/2022/09/16/16/26/path-7459034_640.jpg",
        "src1280": "https://cdn.pixabay.com/photo/2022/09/16/16/26/path-7459034_1280.jpg"
    },
    {
        "id": "2719528",
        "src640": "https://cdn.pixabay.com/photo/2017/09/05/22/55/dog-2719528_640.jpg",
        "src1280": "https://cdn.pixabay.com/photo/2017/09/05/22/55/dog-2719528_1280.jpg"
    },
    {
        "id": "1661253",
        "src640": "https://cdn.pixabay.com/photo/2016/09/11/12/31/foliage-1661253_640.jpg",
        "src1280": "https://cdn.pixabay.com/photo/2016/09/11/12/31/foliage-1661253_1280.jpg"
    },
    {
        "id": "79564",
        "src640": "https://cdn.pixabay.com/photo/2013/02/09/01/31/ski-79564_640.jpg",
        "src1280": "https://cdn.pixabay.com/photo/2013/02/09/01/31/ski-79564_1280.jpg"
    },
    {
        "id": "5905897",
        "src640": "https://cdn.pixabay.com/photo/2021/01/10/18/00/pine-5905897_640.jpg",
        "src1280": "https://cdn.pixabay.com/photo/2021/01/10/18/00/pine-5905897_1280.jpg"
    },
    {
        "id": "6934403",
        "src640": "https://cdn.pixabay.com/photo/2022/01/13/05/28/trees-6934403_640.jpg",
        "src1280": "https://cdn.pixabay.com/photo/2022/01/13/05/28/trees-6934403_1280.jpg"
    },
    {
        "id": "19526",
        "src640": "https://cdn.pixabay.com/photo/2012/03/01/00/22/blue-19526_640.jpg",
        "src1280": "https://cdn.pixabay.com/photo/2012/03/01/00/22/blue-19526_1280.jpg"
    },
    {
        "id": "4910918",
        "src640": "https://cdn.pixabay.com/photo/2020/03/07/21/01/road-4910918_640.jpg",
        "src1280": "https://cdn.pixabay.com/photo/2020/03/07/21/01/road-4910918_1280.jpg"
    },
    {
        "id": "6835832",
        "src640": "https://cdn.pixabay.com/photo/2021/11/30/17/07/snow-6835832_640.jpg",
        "src1280": "https://cdn.pixabay.com/photo/2021/11/30/17/07/snow-6835832_1280.jpg"
    }
]