[
    {
        "id": "5902165",
        "src640": "https://cdn.pixabay.com/photo/2021/01/09/12/13/frost-5902165_640.jpg",
        "src1280": "https://cdn.pixabay.com/photo/2021/01/09/12/13/frost-5902165_1280.jpg"
    },
    {
        "id": "5900870",
        "src640": "https://cdn.pixabay.com/photo/2021/01/08/21/28/dirt-road-5900870_640.jpg",
        "src1280": "https://cdn.pixabay.com/photo/2021/01/08/21/28/dirt-road-5900870_1280.jpg"
    },
    {
        "id": "7003217",
        "src640": "https://cdn.pixabay.com/photo/2022/02/09/11/42/winter-7003217_640.jpg",
        "src1280": "https://cdn.pixabay.com/photo/2022/02/09/11/42/winter-7003217_1280.jpg"
    },
    {
        "id": "7570101",
        "src640": "https://cdn.pixabay.com/photo/2022/11/04/15/04/ai-generated-7570101_640.jpg",
        "src1280": "https://cdn.pixabay.com/photo/2022/11/04/15/04/ai-generated-7570101_1280.jpg"
    },
    {
        "id": "6806802",
        "src640": "https://cdn.pixabay.com/photo/2021/11/18/16/33/field-6806802_640.jpg",
        "src1280": "https://cdn.pixabay.com/photo/2021/11/18/16/33/field-6806802_1280.jpg"
    },
    {
        "id": "6835749",
        "src640": "https://cdn.pixabay.com/photo/2021/11/30/16/31/banff-6835749_640.jpg",
        "src1280": "https://cdn.pixabay.com/photo/2021/11/30/16/31/banff-6835749_1280.jpg"
    },
    {
        "id": "7635917",
        "src640": "https://cdn.pixabay.com/photo/2022/12/05/04/27/artwork-7635917_640.jpg",
        "src1280": "https://cdn.pixabay.com/photo/2022/12/05/04/27/artwork-7635917_1280.jpg"
    },
    {
        "id": "6702411",
        "src640": "https://cdn.pixabay.com/photo/2021/10/12/05/14/st-catherines-church-6702411_640.jpg",
        "src1280": "https://cdn.pixabay.com/photo/2021/10/12/05/14/st-catherines-church-6702411_1280.jpg"
    },
    {
        "id": "4840348",
        "src640": "https://cdn.pixabay.com/photo/2020/02/11/17/07/winter-4840348_640.jpg",
        "src1280": "https://cdn.pixabay.com/photo/2020/02/11/17/07/winter-4840348_1280.jpg"
    },
    {
        "id": "5934817",
        "src640": "https://cdn.pixabay.com/photo/2021/01/20/16/16/dog-5934817_640.jpg",
        "src1280": "https://cdn.pixabay.com/photo/2021/01/20/16/16/dog-5934817_1280.jpg"
    },
    {
        "id": "3877304",
        "src640": "https://cdn.pixabay.com/photo/2018/12/15/17/42/fashion-3877304_640.jpg",
        "src1280": "https://cdn.pixabay.com/photo/2018/12/15/17/42/fashion-3877304_1280.jpg"
    },
    {
        "id": "3831815",
        "src640": "https://cdn.pixabay.com/photo/2018/11/22/12/46/clothing-3831815_640.jpg",
        "src1280": "https://cdn.pixabay.com/photo/2018/11/22/12/46/clothing-3831815_1280.jpg"
    },
    {
        "id": "215160",
        "src640": "https://cdn.pixabay.com/photo/2013/11/21/17/07/huge-215160_640.jpg",
        "src1280": "https://cdn.pixabay.com/photo/2013/11/21/17/07/huge-215160_1280.jpg"
    },
    {
        "id": "6807813",
        "src640": "https://cdn.pixabay.com/photo/2021/11/19/00/45/winter-6807813_640.jpg",
        "src1280": "https://cdn.pixabay.com/photo/2021/11/19/00/45/winter-6807813_1280.jpg"
    },
    {
        "id": "107407",
        "src640": "https://cdn.pixabay.com/photo/2013/04/27/10/01/directory-107407_640.jpg",
        "src1280": "https://cdn.pixabay.com/photo/2013/04/27/10/01/directory-107407_1280.jpg"
    },
    {
        "id": "4806253",
        "src640": "https://cdn.pixabay.com/photo/2020/01/30/18/57/winter-4806253_640.jpg",
        "src1280": "https://cdn.pixabay.com/photo/2020/01/30/18/57/winter-4806253_1280.jpg"
    },
    {
        "id": "6524909",
        "src640": "https://cdn.pixabay.com/photo/2021/08/05/21/00/frost-6524909_640.jpg",
        "src1280": "https://cdn.pixabay.com/photo/2021/08/05/21/00/frost-6524909_1280.jpg"
    },
    {
        "id": "1178287",
        "src640": "https://cdn.pixabay.com/photo/2016/02/03/22/32/snow-1178287_640.jpg",
        "src1280": "https://cdn.pixabay.com/photo/2016/02/03/22/32/snow-1178287_1280.jpg"
    },
    {
        "id": "7653588",
        "src640": "https://cdn.pixabay.com/photo/2022/12/13/15/12/coffee-7653588_640.jpg",
        "src1280": "https://cdn.pixabay.com/photo/2022/12/13/15/12/coffee-7653588_1280.jpg"
    },
    {
        "id": "4758222",
        "src640": "https://cdn.pixabay.com/photo/2020/01/11/17/25/mountains-4758222_640.jpg",
        "src1280": "https://cdn.pixabay.com/photo/2020/01/11/17/25/mountains-4758222_1280.jpg"
    },
    {
        "id": "4826363",
        "src640": "https://cdn.pixabay.com/photo/2020/02/07/07/02/austria-4826363_640.jpg",
        "src1280": "https://cdn.pixabay.com/photo/2020/02/07/07/02/austria-4826363_1280.jpg"
    },
    {
        "id": "5803523",
        "src640": "https://cdn.pixabay.com/photo/2020/12/04/15/26/snow-5803523_640.jpg",
        "src1280": "https://cdn.pixabay.com/photo/2020/12/04/15/26/snow-5803523_1280.jpg"
    },
    {
        "id": "2600346",
        "src640": "https://cdn.pixabay.com/photo/2017/08/07/05/42/dog-2600346_640.jpg",
        "src1280": "https://cdn.pixabay.com/photo/2017/08/07/05/42/dog-2600346_1280.jpg"
    },
    {
        "id": "6860580",
        "src640": "https://cdn.pixabay.com/photo/2021/12/10/13/59/roadway-6860580_640.jpg",
        "src1280": "https://cdn.pixabay.com/photo/2021/12/10/13/59/roadway-6860580_1280.jpg"
    },
    {
        "id": "4754798",
        "src640": "https://cdn.pixabay.com/photo/2020/01/10/08/55/winter-4754798_640.jpg",
        "src1280": "https://cdn.pixabay.com/photo/2020/01/10/08/55/winter-4754798_1280.jpg"
    },
    {
        "id": "6597771",
        "src640": "https://cdn.pixabay.com/photo/2021/09/04/13/08/boy-6597771_640.jpg",
        "src1280": "https://cdn.pixabay.com/photo/2021/09/04/13/08/boy-6597771_1280.jpg"
    },
    {
        "id": "7723114",
        "src640": "https://cdn.pixabay.com/photo/2023/01/16/19/02/dog-7723114_640.jpg",
        "src1280": "https://cdn.pixabay.com/photo/2023/01/16/19/02/dog-7723114_1280.jpg"
    },
    {
        "id": "6929821",
        "src640": "https://cdn.pixabay.com/photo/2022/01/11/06/12/flower-6929821_640.jpg",
        "src1280": "https://cdn.pixabay.com/photo/2022/01/11/06/12/flower-6929821_1280.jpg"
    },
    {
        "id": "6925772",
        "src640": "https://cdn.pixabay.com/photo/2022/01/09/11/17/winter-6925772_640.jpg",
        "src1280": "https://cdn.pixabay.com/photo/2022/01/09/11/17/winter-6925772_1280.jpg"
    },
    {
        "id": "6870218",
        "src640": "https://cdn.pixabay.com/photo/2021/12/14/09/54/man-6870218_640.jpg",
        "src1280": "https://cdn.pixabay.com/photo/2021/12/14/09/54/man-6870218_1280.jpg"
    },
    {
        "id": "6769919",
        "src640": "https://cdn.pixabay.com/photo/2021/11/05/01/28/winter-6769919_640.jpg",
        "src1280": "https://cdn.pixabay.com/photo/2021/11/05/01/28/winter-6769919_1280.jpg"
    },
    {
        "id": "16496",
        "src640": "https://cdn.pixabay.com/photo/2012/02/24/13/18/footprint-16496_640.jpg",
        "src1280": "https://cdn.pixabay.com/photo/2012/02/24/13/18/footprint-16496_1280.jpg"
    },
    {
        "id": "5826238",
        "src640": "https://cdn.pixabay.com/photo/2020/12/12/18/47/snowman-5826238_640.jpg",
        "src1280": "https://cdn.pixabay.com/photo/2020/12/12/18/47/snowman-5826238_1280.jpg"
    },
    {
        "id": "6972955",
        "src640": "https://cdn.pixabay.com/photo/2022/01/27/19/49/istanbul-6972955_640.jpg",
        "src1280": "https://cdn.pixabay.com/photo/2022/01/27/19/49/istanbul-6972955_1280.jpg"
    },
    {
        "id": "7656769",
        "src640": "https://cdn.pixabay.com/photo/2022/12/15/03/44/christmas-tree-7656769_640.jpg",
        "src1280": "https://cdn.pixabay.com/photo/2022/12/15/03/44/christmas-tree-7656769_1280.jpg"
    },
    {
        "id": "5906271",
        "src640": "https://cdn.pixabay.com/photo/2021/01/10/20/07/peacocks-5906271_640.jpg",
        "src1280": "https://cdn.pixabay.com/photo/2021/01/10/20/07/peacocks-5906271_1280.jpg"
    },
    {
        "id": "7644210",
        "src640": "https://cdn.pixabay.com/photo/2022/12/08/23/15/ai-generated-7644210_640.jpg",
        "src1280": "https://cdn.pixabay.com/photo/2022/12/08/23/15/ai-generated-7644210_1280.jpg"
    },
    {
        "id": "4085797",
        "src640": "https://cdn.pixabay.com/photo/2019/03/27/20/28/snowdrop-4085797_640.jpg",
        "src1280": "https://cdn.pixabay.com/photo/2019/03/27/20/28/snowdrop-4085797_1280.jpg"
    },
    {
        "id": "7459034",
        "src640": "https://cdn.pixabay.com/photo/2022/09/16/16/26/path-7459034_640.jpg",
        "src1280": "https://cdn.pixabay.com/photo/2022/09/16/16/26/path-7459034_1280.jpg"
    },
    {
        "id": "7105695",
        "src640": "https://cdn.pixabay.com/photo/2022/04/01/21/29/girl-7105695_640.jpg",
        "src1280": "https://cdn.pixabay.com/photo/2022/04/01/21/29/girl-7105695_1280.jpg"
    },
    {
        "id": "4857817",
        "src640": "https://cdn.pixabay.com/photo/2020/02/17/20/41/cat-4857817_640.jpg",
        "src1280": "https://cdn.pixabay.com/photo/2020/02/17/20/41/cat-4857817_1280.jpg"
    },
    {
        "id": "2094033",
        "src640": "https://cdn.pixabay.com/photo/2017/02/24/06/06/park-2094033_640.jpg",
        "src1280": "https://cdn.pixabay.com/photo/2017/02/24/06/06/park-2094033_1280.jpg"
    },
    {
        "id": "6956272",
        "src640": "https://cdn.pixabay.com/photo/2022/01/22/05/37/cat-6956272_640.jpg",
        "src1280": "https://cdn.pixabay.com/photo/2022/01/22/05/37/cat-6956272_1280.jpg"
    },
    {
        "id": "2582135",
        "src640": "https://cdn.pixabay.com/photo/2017/08/05/03/01/el-2582135_640.jpg",
        "src1280": "https://cdn.pixabay.com/photo/2017/08/05/03/01/el-2582135_1280.jpg"
    },
    {
        "id": "6953933",
        "src640": "https://cdn.pixabay.com/photo/2022/01/21/04/53/cardinal-bird-6953933_640.jpg",
        "src1280": "https://cdn.pixabay.com/photo/2022/01/21/04/53/cardinal-bird-6953933_1280.jpg"
    },
    {
        "id": "4724325",
        "src640": "https://cdn.pixabay.com/photo/2019/12/28/11/09/branch-4724325_640.jpg",
        "src1280": "https://cdn.pixabay.com/photo/2019/12/28/11/09/branch-4724325_1280.jpg"
    },
    {
        "id": "5117475",
        "src640": "https://cdn.pixabay.com/photo/2020/05/01/14/49/austria-5117475_640.jpg",
        "src1280": "https://cdn.pixabay.com/photo/2020/05/01/14/49/austria-5117475_1280.jpg"
    },
    {
        "id": "4700363",
        "src640": "https://cdn.pixabay.com/photo/2019/12/16/21/50/mountains-4700363_640.jpg",
        "src1280": "https://cdn.pixabay.com/photo/2019/12/16/21/50/mountains-4700363_1280.jpg"
    },
    {
        "id": "6901428",
        "src640": "https://cdn.pixabay.com/photo/2021/12/29/11/31/winter-6901428_640.jpg",
        "src1280": "https://cdn.pixabay.com/photo/2021/12/29/11/31/winter-6901428_1280.jpg"
    },
    {
        "id": "3639612",
        "src640": "https://cdn.pixabay.com/photo/2018/08/29/10/43/plant-3639612_640.jpg",
        "src1280": "https://cdn.pixabay.com/photo/2018/08/29/10/43/plant-3639612_1280.jpg"
    },
    {
        "id": "232780",
        "src640": "https://cdn.pixabay.com/photo/2013/12/23/01/17/ice-bough-232780_640.jpg",
        "src1280": "https://cdn.pixabay.com/photo/2013/12/23/01/17/ice-bough-232780_1280.jpg"
    },
    {
        "id": "4514914",
        "src640": "https://cdn.pixabay.com/photo/2019/09/30/06/07/fashion-4514914_640.jpg",
        "src1280": "https://cdn.pixabay.com/photo/2019/09/30/06/07/fashion-4514914_1280.jpg"
    },
    {
        "id": "7538581",
        "src640": "https://cdn.pixabay.com/photo/2022/10/22/07/16/winter-7538581_640.jpg",
        "src1280": "https://cdn.pixabay.com/photo/2022/10/22/07/16/winter-7538581_1280.jpg"
    },
    {
        "id": "6916988",
        "src640": "https://cdn.pixabay.com/photo/2022/01/05/12/02/trees-6916988_640.jpg",
        "src1280": "https://cdn.pixabay.com/photo/2022/01/05/12/02/trees-6916988_1280.jpg"
    },
    {
        "id": "7738099",
        "src640": "https://cdn.pixabay.com/photo/2023/01/23/08/33/winter-7738099_640.jpg",
        "src1280": "https://cdn.pixabay.com/photo/2023/01/23/08/33/winter-7738099_1280.jpg"
    },
    {
        "id": "6685815",
        "src640": "https://cdn.pixabay.com/photo/2021/10/06/13/15/san-pellegrino-pass-6685815_640.jpg",
        "src1280": "https://cdn.pixabay.com/photo/2021/10/06/13/15/san-pellegrino-pass-6685815_1280.jpg"
    },
    {
        "id": "5988655",
        "src640": "https://cdn.pixabay.com/photo/2021/02/06/16/29/great-tit-5988655_640.jpg",
        "src1280": "https://cdn.pixabay.com/photo/2021/02/06/16/29/great-tit-5988655_1280.jpg"
    },
    {
        "id": "5942674",
        "src640": "https://cdn.pixabay.com/photo/2021/01/23/14/39/rose-5942674_640.jpg",
        "src1280": "https://cdn.pixabay.com/photo/2021/01/23/14/39/rose-5942674_1280.jpg"
    },
    {
        "id": "6934400",
        "src640": "https://cdn.pixabay.com/photo/2022/01/13/05/28/forest-6934400_640.jpg",
        "src1280": "https://cdn.pixabay.com/photo/2022/01/13/05/28/forest-6934400_1280.jpg"
    },
    {
        "id": "5100011",
        "src640": "https://cdn.pixabay.com/photo/2020/04/27/14/04/iceberg-5100011_640.jpg",
        "src1280": "https://cdn.pixabay.com/photo/2020/04/27/14/04/iceberg-5100011_1280.jpg"
    },
    {
        "id": "4929186",
        "src640": "https://cdn.pixabay.com/photo/2020/03/13/21/24/tree-4929186_640.jpg",
        "src1280": "https://cdn.pixabay.com/photo/2020/03/13/21/24/tree-4929186_1280.jpg"
    },
    {
        "id": "3944121",
        "src640": "https://cdn.pixabay.com/photo/2019/01/20/16/24/sunset-3944121_640.jpg",
        "src1280": "https://cdn.pixabay.com/photo/2019/01/20/16/24/sunset-3944121_1280.jpg"
    },
    {
        "id": "1204240",
        "src640": "https://cdn.pixabay.com/photo/2016/02/16/23/18/winter-1204240_640.jpg",
        "src1280": "https://cdn.pixabay.com/photo/2016/02/16/23/18/winter-1204240_1280.jpg"
    },
    {
        "id": "5905897",
        "src640": "https://cdn.pixabay.com/photo/2021/01/10/18/00/pine-5905897_640.jpg",
        "src1280": "https://cdn.pixabay.com/photo/2021/01/10/18/00/pine-5905897_1280.jpg"
    },
    {
        "id": "3849753",
        "src640": "https://cdn.pixabay.com/photo/2018/12/01/16/14/dog-3849753_640.jpg",
        "src1280": "https://cdn.pixabay.com/photo/2018/12/01/16/14/dog-3849753_1280.jpg"
    },
    {
        "id": "16330",
        "src640": "https://cdn.pixabay.com/photo/2012/02/23/20/56/snowfall-16330_640.jpg",
        "src1280": "https://cdn.pixabay.com/photo/2012/02/23/20/56/snowfall-16330_1280.jpg"
    },
    {
        "id": "7141485",
        "src640": "https://cdn.pixabay.com/photo/2022/04/18/19/52/mountain-7141485_640.jpg",
        "src1280": "https://cdn.pixabay.com/photo/2022/04/18/19/52/mountain-7141485_1280.jpg"
    },
    {
        "id": "7546824",
        "src640": "https://cdn.pixabay.com/photo/2022/10/25/20/22/glacier-7546824_640.jpg",
        "src1280": "https://cdn.pixabay.com/photo/2022/10/25/20/22/glacier-7546824_1280.jpg"
    },
    {
        "id": "16255",
        "src640": "https://cdn.pixabay.com/photo/2012/02/23/15/41/skiing-16255_640.jpg",
        "src1280": "https://cdn.pixabay.com/photo/2012/02/23/15/41/skiing-16255_1280.jpg"
    },
    {
        "id": "4122035",
        "src640": "https://cdn.pixabay.com/photo/2019/04/12/12/29/fashion-4122035_640.jpg",
        "src1280": "https://cdn.pixabay.com/photo/2019/04/12/12/29/fashion-4122035_1280.jpg"
    },
    {
        "id": "7110737",
        "src640": "https://cdn.pixabay.com/photo/2022/04/04/09/30/man-7110737_640.jpg",
        "src1280": "https://cdn.pixabay.com/photo/2022/04/04/09/30/man-7110737_1280.jpg"
    },
    {
        "id": "6835832",
        "src640": "https://cdn.pixabay.com/photo/2021/11/30/17/07/snow-6835832_640.jpg",
        "src1280": "https://cdn.pixabay.com/photo/2021/11/30/17/07/snow-6835832_1280.jpg"
    },
    {
        "id": "2491590",
        "src640": "https://cdn.pixabay.com/photo/2017/07/10/21/16/yukon-2491590_640.jpg",
        "src1280": "https://cdn.pixabay.com/photo/2017/07/10/21/16/yukon-2491590_1280.jpg"
    },
    {
        "id": "5872930",
        "src640": "https://cdn.pixabay.com/photo/2020/12/30/09/18/desert-5872930_640.jpg",
        "src1280": "https://cdn.pixabay.com/photo/2020/12/30/09/18/desert-5872930_1280.jpg"
    },
    {
        "id": "7731754",
        "src640": "https://cdn.pixabay.com/photo/2023/01/20/13/41/winter-7731754_640.jpg",
        "src1280": "https://cdn.pixabay.com/photo/2023/01/20/13/41/winter-7731754_1280.jpg"
    },
    {
        "id": "3831814",
        "src640": "https://cdn.pixabay.com/photo/2018/11/22/12/46/clothing-3831814_640.jpg",
        "src1280": "https://cdn.pixabay.com/photo/2018/11/22/12/46/clothing-3831814_1280.jpg"
    },
    {
        "id": "6009337",
        "src640": "https://cdn.pixabay.com/photo/2021/02/12/18/53/girl-6009337_640.jpg",
        "src1280": "https://cdn.pixabay.com/photo/2021/02/12/18/53/girl-6009337_1280.jpg"
    },
    {
        "id": "6886992",
        "src640": "https://cdn.pixabay.com/photo/2021/12/22/08/49/everest-6886992_640.jpg",
        "src1280": "https://cdn.pixabay.com/photo/2021/12/22/08/49/everest-6886992_1280.jpg"
    },
    {
        "id": "5280532",
        "src640": "https://cdn.pixabay.com/photo/2020/06/10/00/54/mountain-5280532_640.jpg",
        "src1280": "https://cdn.pixabay.com/photo/2020/06/10/00/54/mountain-5280532_1280.jpg"
    },
    {
        "id": "7796882",
        "src640": "https://cdn.pixabay.com/photo/2023/02/17/20/36/winter-7796882_640.jpg",
        "src1280": "https://cdn.pixabay.com/photo/2023/02/17/20/36/winter-7796882_1280.jpg"
    },
    {
        "id": "7027361",
        "src640": "https://cdn.pixabay.com/photo/2022/02/21/18/25/nature-7027361_640.jpg",
        "src1280": "https://cdn.pixabay.com/photo/2022/02/21/18/25/nature-7027361_1280.jpg"
    },
    {
        "id": "1110299",
        "src640": "https://cdn.pixabay.com/photo/2015/12/27/19/39/cattails-1110299_640.jpg",
        "src1280": "https://cdn.pixabay.com/photo/2015/12/27/19/39/cattails-1110299_1280.jpg"
    },
    {
        "id": "7124075",
        "src640": "https://cdn.pixabay.com/photo/2022/04/10/19/06/balkan-anemone-7124075_640.jpg",
        "src1280": "https://cdn.pixabay.com/photo/2022/04/10/19/06/balkan-anemone-7124075_1280.jpg"
    },
    {
        "id": "3746610",
        "src640": "https://cdn.pixabay.com/photo/2018/10/14/14/36/ixora-3746610_640.jpg",
        "src1280": "https://cdn.pixabay.com/photo/2018/10/14/14/36/ixora-3746610_1280.jpg"
    },
    {
        "id": "7590118",
        "src640": "https://cdn.pixabay.com/photo/2022/11/13/20/13/santa-claus-7590118_640.jpg",
        "src1280": "https://cdn.pixabay.com/photo/2022/11/13/20/13/santa-claus-7590118_1280.jpg"
    },
    {
        "id": "6864573",
        "src640": "https://cdn.pixabay.com/photo/2021/12/12/08/49/kitsune-6864573_640.jpg",
        "src1280": "https://cdn.pixabay.com/photo/2021/12/12/08/49/kitsune-6864573_1280.jpg"
    },
    {
        "id": "4782639",
        "src640": "https://cdn.pixabay.com/photo/2020/01/21/11/16/earth-hour-4782639_640.jpg",
        "src1280": "https://cdn.pixabay.com/photo/2020/01/21/11/16/earth-hour-4782639_1280.jpg"
    },
    {
        "id": "6597775",
        "src640": "https://cdn.pixabay.com/photo/2021/09/04/13/08/boy-6597775_640.jpg",
        "src1280": "https://cdn.pixabay.com/photo/2021/09/04/13/08/boy-6597775_1280.jpg"
    },
    {
        "id": "5196727",
        "src640": "https://cdn.pixabay.com/photo/2020/05/20/14/21/mountain-5196727_640.jpg",
        "src1280": "https://cdn.pixabay.com/photo/2020/05/20/14/21/mountain-5196727_1280.jpg"
    },
    {
        "id": "6934403",
        "src640": "https://cdn.pixabay.com/photo/2022/01/13/05/28/trees-6934403_640.jpg",
        "src1280": "https://cdn.pixabay.com/photo/2022/01/13/05/28/trees-6934403_1280.jpg"
    },
    {
        "id": "3964052",
        "src640": "https://cdn.pixabay.com/photo/2019/01/30/08/32/hydrangea-3964052_640.jpg",
        "src1280": "https://cdn.pixabay.com/photo/2019/01/30/08/32/hydrangea-3964052_1280.jpg"
    },
    {
        "id": "3198896",
        "src640": "https://cdn.pixabay.com/photo/2018/03/04/18/58/shadow-3198896_640.jpg",
        "src1280": "https://cdn.pixabay.com/photo/2018/03/04/18/58/shadow-3198896_1280.jpg"
    },
    {
        "id": "5975059",
        "src640": "https://cdn.pixabay.com/photo/2021/02/02/19/32/wooden-tower-5975059_640.jpg",
        "src1280": "https://cdn.pixabay.com/photo/2021/02/02/19/32/wooden-tower-5975059_1280.jpg"
    },
    {
        "id": "3959694",
        "src640": "https://cdn.pixabay.com/photo/2019/01/28/06/03/winter-3959694_640.jpg",
        "src1280": "https://cdn.pixabay.com/photo/2019/01/28/06/03/winter-3959694_1280.jpg"
    },
    {
        "id": "4910918",
        "src640": "https://cdn.pixabay.com/photo/2020/03/07/21/01/road-4910918_640.jpg",
        "src1280": "https://cdn.pixabay.com/photo/2020/03/07/21/01/road-4910918_1280.jpg"
    },
    {
        "id": "283844",
        "src640": "https://cdn.pixabay.com/photo/2014/03/09/17/00/mature-283844_640.jpg",
        "src1280": "https://cdn.pixabay.com/photo/2014/03/09/17/00/mature-283844_1280.jpg"
    }
]