[
    {
        "id": "6604749",
        "src640": "https://cdn.pixabay.com/photo/2021/09/07/19/20/icicle-6604749_640.jpg",
        "src1280": "https://cdn.pixabay.com/photo/2021/09/07/19/20/icicle-6604749_1280.jpg"
    },
    {
        "id": "1780692",
        "src640": "https://cdn.pixabay.com/photo/2016/10/29/13/48/tree-1780692_640.jpg",
        "src1280": "https://cdn.pixabay.com/photo/2016/10/29/13/48/tree-1780692_1280.jpg"
    },
    {
        "id": "4882173",
        "src640": "https://cdn.pixabay.com/photo/2020/02/26/16/12/window-4882173_640.jpg",
        "src1280": "https://cdn.pixabay.com/photo/2020/02/26/16/12/window-4882173_1280.jpg"
    },
    {
        "id": "6999783",
        "src640": "https://cdn.pixabay.com/photo/2022/02/07/16/31/wilted-flower-6999783_640.jpg",
        "src1280": "https://cdn.pixabay.com/photo/2022/02/07/16/31/wilted-flower-6999783_1280.jpg"
    },
    {
        "id": "5236171",
        "src640": "https://cdn.pixabay.com/photo/2020/05/29/18/32/sun-5236171_640.jpg",
        "src1280": "https://cdn.pixabay.com/photo/2020/05/29/18/32/sun-5236171_1280.jpg"
    },
    {
        "id": "4736081",
        "src640": "https://cdn.pixabay.com/photo/2020/01/02/15/23/tree-4736081_640.jpg",
        "src1280": "https://cdn.pixabay.com/photo/2020/01/02/15/23/tree-4736081_1280.jpg"
    },
    {
        "id": "4785390",
        "src640": "https://cdn.pixabay.com/photo/2020/01/22/14/22/forest-4785390_640.jpg",
        "src1280": "https://cdn.pixabay.com/photo/2020/01/22/14/22/forest-4785390_1280.jpg"
    },
    {
        "id": "4692240",
        "src640": "https://cdn.pixabay.com/photo/2019/12/13/05/45/ripe-4692240_640.jpg",
        "src1280": "https://cdn.pixabay.com/photo/2019/12/13/05/45/ripe-4692240_1280.jpg"
    },
    {
        "id": "4665771",
        "src640": "https://cdn.pixabay.com/photo/2019/12/01/15/59/north-4665771_640.jpg",
        "src1280": "https://cdn.pixabay.com/photo/2019/12/01/15/59/north-4665771_1280.jpg"
    },
    {
        "id": "16587",
        "src640": "https://cdn.pixabay.com/photo/2012/02/24/14/49/branches-16587_640.jpg",
        "src1280": "https://cdn.pixabay.com/photo/2012/02/24/14/49/branches-16587_1280.jpg"
    },
    {
        "id": "4793566",
        "src640": "https://cdn.pixabay.com/photo/2020/01/25/23/20/waterfall-4793566_640.jpg",
        "src1280": "https://cdn.pixabay.com/photo/2020/01/25/23/20/waterfall-4793566_1280.jpg"
    },
    {
        "id": "5366549",
        "src640": "https://cdn.pixabay.com/photo/2020/07/03/14/37/ice-5366549_640.jpg",
        "src1280": "https://cdn.pixabay.com/photo/2020/07/03/14/37/ice-5366549_1280.jpg"
    },
    {
        "id": "5136135",
        "src640": "https://cdn.pixabay.com/photo/2020/05/06/05/12/happiness-5136135_640.jpg",
        "src1280": "https://cdn.pixabay.com/photo/2020/05/06/05/12/happiness-5136135_1280.jpg"
    },
    {
        "id": "7738474",
        "src640": "https://cdn.pixabay.com/photo/2023/01/23/11/35/sheep-7738474_640.jpg",
        "src1280": "https://cdn.pixabay.com/photo/2023/01/23/11/35/sheep-7738474_1280.jpg"
    },
    {
        "id": "5302105",
        "src640": "https://cdn.pixabay.com/photo/2020/06/15/14/33/tree-5302105_640.jpg",
        "src1280": "https://cdn.pixabay.com/photo/2020/06/15/14/33/tree-5302105_1280.jpg"
    },
    {
        "id": "3557803",
        "src640": "https://cdn.pixabay.com/photo/2018/07/23/20/16/berlin-3557803_640.jpg",
        "src1280": "https://cdn.pixabay.com/photo/2018/07/23/20/16/berlin-3557803_1280.jpg"
    },
    {
        "id": "4514918",
        "src640": "https://cdn.pixabay.com/photo/2019/09/30/06/08/fashion-4514918_640.jpg",
        "src1280": "https://cdn.pixabay.com/photo/2019/09/30/06/08/fashion-4514918_1280.jpg"
    },
    {
        "id": "4792225",
        "src640": "https://cdn.pixabay.com/photo/2020/01/25/11/06/jacket-4792225_640.jpg",
        "src1280": "https://cdn.pixabay.com/photo/2020/01/25/11/06/jacket-4792225_1280.jpg"
    },
    {
        "id": "3833807",
        "src640": "https://cdn.pixabay.com/photo/2018/11/23/12/26/coffee-3833807_640.jpg",
        "src1280": "https://cdn.pixabay.com/photo/2018/11/23/12/26/coffee-3833807_1280.jpg"
    },
    {
        "id": "3086843",
        "src640": "https://cdn.pixabay.com/photo/2018/01/16/20/54/nature-3086843_640.jpg",
        "src1280": "https://cdn.pixabay.com/photo/2018/01/16/20/54/nature-3086843_1280.jpg"
    },
    {
        "id": "8308342",
        "src640": "https://cdn.pixabay.com/photo/2023/10/11/11/02/girl-8308342_640.jpg",
        "src1280": "https://cdn.pixabay.com/photo/2023/10/11/11/02/girl-8308342_1280.jpg"
    },
    {
        "id": "1110297",
        "src640": "https://cdn.pixabay.com/photo/2015/12/27/19/37/cattails-1110297_640.jpg",
        "src1280": "https://cdn.pixabay.com/photo/2015/12/27/19/37/cattails-1110297_1280.jpg"
    },
    {
        "id": "4185854",
        "src640": "https://cdn.pixabay.com/photo/2019/05/07/12/25/girl-4185854_640.jpg",
        "src1280": "https://cdn.pixabay.com/photo/2019/05/07/12/25/girl-4185854_1280.jpg"
    },
    {
        "id": "2757692",
        "src640": "https://cdn.pixabay.com/photo/2017/09/17/07/08/waterfall-2757692_640.jpg",
        "src1280": "https://cdn.pixabay.com/photo/2017/09/17/07/08/waterfall-2757692_1280.jpg"
    },
    {
        "id": "4745365",
        "src640": "https://cdn.pixabay.com/photo/2020/01/06/13/34/nou-barris-4745365_640.jpg",
        "src1280": "https://cdn.pixabay.com/photo/2020/01/06/13/34/nou-barris-4745365_1280.jpg"
    },
    {
        "id": "4871171",
        "src640": "https://cdn.pixabay.com/photo/2020/02/22/17/18/branches-4871171_640.jpg",
        "src1280": "https://cdn.pixabay.com/photo/2020/02/22/17/18/branches-4871171_1280.jpg"
    },
    {
        "id": "209205",
        "src640": "https://cdn.pixabay.com/photo/2013/11/12/06/55/advent-209205_640.jpg",
        "src1280": "https://cdn.pixabay.com/photo/2013/11/12/06/55/advent-209205_1280.jpg"
    },
    {
        "id": "16412",
        "src640": "https://cdn.pixabay.com/photo/2012/02/24/10/39/icicle-16412_640.jpg",
        "src1280": "https://cdn.pixabay.com/photo/2012/02/24/10/39/icicle-16412_1280.jpg"
    },
    {
        "id": "4881550",
        "src640": "https://cdn.pixabay.com/photo/2020/02/26/12/13/girl-4881550_640.jpg",
        "src1280": "https://cdn.pixabay.com/photo/2020/02/26/12/13/girl-4881550_1280.jpg"
    },
    {
        "id": "4464085",
        "src640": "https://cdn.pixabay.com/photo/2019/09/09/16/51/snow-4464085_640.jpg",
        "src1280": "https://cdn.pixabay.com/photo/2019/09/09/16/51/snow-4464085_1280.jpg"
    },
    {
        "id": "3641960",
        "src640": "https://cdn.pixabay.com/photo/2018/08/30/11/42/forest-3641960_640.jpg",
        "src1280": "https://cdn.pixabay.com/photo/2018/08/30/11/42/forest-3641960_1280.jpg"
    },
    {
        "id": "4971465",
        "src640": "https://cdn.pixabay.com/photo/2020/03/26/18/59/iceland-4971465_640.jpg",
        "src1280": "https://cdn.pixabay.com/photo/2020/03/26/18/59/iceland-4971465_1280.jpg"
    },
    {
        "id": "6597774",
        "src640": "https://cdn.pixabay.com/photo/2021/09/04/13/08/to-ski-6597774_640.jpg",
        "src1280": "https://cdn.pixabay.com/photo/2021/09/04/13/08/to-ski-6597774_1280.jpg"
    },
    {
        "id": "4820529",
        "src640": "https://cdn.pixabay.com/photo/2020/02/05/09/11/city-4820529_640.jpg",
        "src1280": "https://cdn.pixabay.com/photo/2020/02/05/09/11/city-4820529_1280.jpg"
    },
    {
        "id": "4916228",
        "src640": "https://cdn.pixabay.com/photo/2020/03/09/16/21/sky-4916228_640.jpg",
        "src1280": "https://cdn.pixabay.com/photo/2020/03/09/16/21/sky-4916228_1280.jpg"
    },
    {
        "id": "4840346",
        "src640": "https://cdn.pixabay.com/photo/2020/02/11/17/06/winter-4840346_640.jpg",
        "src1280": "https://cdn.pixabay.com/photo/2020/02/11/17/06/winter-4840346_1280.jpg"
    },
    {
        "id": "3182680",
        "src640": "https://cdn.pixabay.com/photo/2018/02/26/10/11/winter-3182680_640.jpg",
        "src1280": "https://cdn.pixabay.com/photo/2018/02/26/10/11/winter-3182680_1280.jpg"
    },
    {
        "id": "4896875",
        "src640": "https://cdn.pixabay.com/photo/2020/03/02/20/41/snow-4896875_640.jpg",
        "src1280": "https://cdn.pixabay.com/photo/2020/03/02/20/41/snow-4896875_1280.jpg"
    },
    {
        "id": "4994740",
        "src640": "https://cdn.pixabay.com/photo/2020/04/02/11/48/icicle-4994740_640.jpg",
        "src1280": "https://cdn.pixabay.com/photo/2020/04/02/11/48/icicle-4994740_1280.jpg"
    },
    {
        "id": "4713061",
        "src640": "https://cdn.pixabay.com/photo/2019/12/22/17/58/robin-4713061_640.jpg",
        "src1280": "https://cdn.pixabay.com/photo/2019/12/22/17/58/robin-4713061_1280.jpg"
    },
    {
        "id": "4645165",
        "src640": "https://cdn.pixabay.com/photo/2019/11/22/16/04/winter-4645165_640.jpg",
        "src1280": "https://cdn.pixabay.com/photo/2019/11/22/16/04/winter-4645165_1280.jpg"
    },
    {
        "id": "1556794",
        "src640": "https://cdn.pixabay.com/photo/2016/07/30/10/38/funkensonntag-1556794_640.jpg",
        "src1280": "https://cdn.pixabay.com/photo/2016/07/30/10/38/funkensonntag-1556794_1280.jpg"
    },
    {
        "id": "6981616",
        "src640": "https://cdn.pixabay.com/photo/2022/01/30/16/36/berries-6981616_640.jpg",
        "src1280": "https://cdn.pixabay.com/photo/2022/01/30/16/36/berries-6981616_1280.jpg"
    },
    {
        "id": "4779060",
        "src640": "https://cdn.pixabay.com/photo/2020/01/19/21/35/winter-4779060_640.jpg",
        "src1280": "https://cdn.pixabay.com/photo/2020/01/19/21/35/winter-4779060_1280.jpg"
    },
    {
        "id": "4748859",
        "src640": "https://cdn.pixabay.com/photo/2020/01/07/22/43/snowman-4748859_640.jpg",
        "src1280": "https://cdn.pixabay.com/photo/2020/01/07/22/43/snowman-4748859_1280.jpg"
    },
    {
        "id": "5910957",
        "src640": "https://cdn.pixabay.com/photo/2021/01/12/10/00/girl-5910957_640.jpg",
        "src1280": "https://cdn.pixabay.com/photo/2021/01/12/10/00/girl-5910957_1280.jpg"
    },
    {
        "id": "315662",
        "src640": "https://cdn.pixabay.com/photo/2014/04/05/11/27/christmas-315662_640.jpg",
        "src1280": "https://cdn.pixabay.com/photo/2014/04/05/11/27/christmas-315662_1280.jpg"
    },
    {
        "id": "5217840",
        "src640": "https://cdn.pixabay.com/photo/2020/05/25/09/32/winter-5217840_640.jpg",
        "src1280": "https://cdn.pixabay.com/photo/2020/05/25/09/32/winter-5217840_1280.jpg"
    },
    {
        "id": "2583357",
        "src640": "https://cdn.pixabay.com/photo/2017/08/05/12/55/snow-2583357_640.jpg",
        "src1280": "https://cdn.pixabay.com/photo/2017/08/05/12/55/snow-2583357_1280.jpg"
    },
    {
        "id": "114744",
        "src640": "https://cdn.pixabay.com/photo/2013/05/30/16/33/chairlift-114744_640.jpg",
        "src1280": "https://cdn.pixabay.com/photo/2013/05/30/16/33/chairlift-114744_1280.jpg"
    },
    {
        "id": "6895135",
        "src640": "https://cdn.pixabay.com/photo/2021/12/26/13/18/happy-6895135_640.jpg",
        "src1280": "https://cdn.pixabay.com/photo/2021/12/26/13/18/happy-6895135_1280.jpg"
    },
    {
        "id": "2694729",
        "src640": "https://cdn.pixabay.com/photo/2017/08/29/20/07/grass-2694729_640.jpg",
        "src1280": "https://cdn.pixabay.com/photo/2017/08/29/20/07/grass-2694729_1280.jpg"
    },
    {
        "id": "4204998",
        "src640": "https://cdn.pixabay.com/photo/2019/05/15/13/20/winter-4204998_640.jpg",
        "src1280": "https://cdn.pixabay.com/photo/2019/05/15/13/20/winter-4204998_1280.jpg"
    },
    {
        "id": "6002845",
        "src640": "https://cdn.pixabay.com/photo/2021/02/10/17/18/bicycle-6002845_640.jpg",
        "src1280": "https://cdn.pixabay.com/photo/2021/02/10/17/18/bicycle-6002845_1280.jpg"
    },
    {
        "id": "4830216",
        "src640": "https://cdn.pixabay.com/photo/2020/02/08/14/13/hut-4830216_640.jpg",
        "src1280": "https://cdn.pixabay.com/photo/2020/02/08/14/13/hut-4830216_1280.jpg"
    },
    {
        "id": "2905365",
        "src640": "https://cdn.pixabay.com/photo/2017/10/31/13/59/grapes-in-syrup-2905365_640.jpg",
        "src1280": "https://cdn.pixabay.com/photo/2017/10/31/13/59/grapes-in-syrup-2905365_1280.jpg"
    },
    {
        "id": "16590",
        "src640": "https://cdn.pixabay.com/photo/2012/02/24/14/52/eiskristalle-16590_640.jpg",
        "src1280": "https://cdn.pixabay.com/photo/2012/02/24/14/52/eiskristalle-16590_1280.jpg"
    },
    {
        "id": "4682811",
        "src640": "https://cdn.pixabay.com/photo/2019/12/09/06/48/frost-4682811_640.jpg",
        "src1280": "https://cdn.pixabay.com/photo/2019/12/09/06/48/frost-4682811_1280.jpg"
    },
    {
        "id": "4766921",
        "src640": "https://cdn.pixabay.com/photo/2020/01/15/05/42/winter-4766921_640.jpg",
        "src1280": "https://cdn.pixabay.com/photo/2020/01/15/05/42/winter-4766921_1280.jpg"
    },
    {
        "id": "1843100",
        "src640": "https://cdn.pixabay.com/photo/2016/11/20/15/54/freiburg-1843100_640.jpg",
        "src1280": "https://cdn.pixabay.com/photo/2016/11/20/15/54/freiburg-1843100_1280.jpg"
    },
    {
        "id": "5366547",
        "src640": "https://cdn.pixabay.com/photo/2020/07/03/14/36/mountain-5366547_640.jpg",
        "src1280": "https://cdn.pixabay.com/photo/2020/07/03/14/36/mountain-5366547_1280.jpg"
    },
    {
        "id": "260836",
        "src640": "https://cdn.pixabay.com/photo/2014/02/07/10/31/winter-260836_640.jpg",
        "src1280": "https://cdn.pixabay.com/photo/2014/02/07/10/31/winter-260836_1280.jpg"
    },
    {
        "id": "7487772",
        "src640": "https://cdn.pixabay.com/photo/2022/09/29/18/20/pinecone-7487772_640.jpg",
        "src1280": "https://cdn.pixabay.com/photo/2022/09/29/18/20/pinecone-7487772_1280.jpg"
    },
    {
        "id": "7558853",
        "src640": "https://cdn.pixabay.com/photo/2022/10/31/04/31/tree-7558853_640.jpg",
        "src1280": "https://cdn.pixabay.com/photo/2022/10/31/04/31/tree-7558853_1280.jpg"
    },
    {
        "id": "4848206",
        "src640": "https://cdn.pixabay.com/photo/2020/02/14/10/53/christmas-4848206_640.jpg",
        "src1280": "https://cdn.pixabay.com/photo/2020/02/14/10/53/christmas-4848206_1280.jpg"
    },
    {
        "id": "4468728",
        "src640": "https://cdn.pixabay.com/photo/2019/09/11/13/29/happy-4468728_640.jpg",
        "src1280": "https://cdn.pixabay.com/photo/2019/09/11/13/29/happy-4468728_1280.jpg"
    },
    {
        "id": "4886193",
        "src640": "https://cdn.pixabay.com/photo/2020/02/28/00/16/forest-4886193_640.jpg",
        "src1280": "https://cdn.pixabay.com/photo/2020/02/28/00/16/forest-4886193_1280.jpg"
    },
    {
        "id": "4126322",
        "src640": "https://cdn.pixabay.com/photo/2019/04/14/08/49/grass-4126322_640.jpg",
        "src1280": "https://cdn.pixabay.com/photo/2019/04/14/08/49/grass-4126322_1280.jpg"
    },
    {
        "id": "7751669",
        "src640": "https://cdn.pixabay.com/photo/2023/01/28/20/17/horse-7751669_640.jpg",
        "src1280": "https://cdn.pixabay.com/photo/2023/01/28/20/17/horse-7751669_1280.jpg"
    },
    {
        "id": "4080848",
        "src640": "https://cdn.pixabay.com/photo/2019/03/25/17/46/tree-4080848_640.jpg",
        "src1280": "https://cdn.pixabay.com/photo/2019/03/25/17/46/tree-4080848_1280.jpg"
    },
    {
        "id": "4789853",
        "src640": "https://cdn.pixabay.com/photo/2020/01/24/10/23/footprints-4789853_640.jpg",
        "src1280": "https://cdn.pixabay.com/photo/2020/01/24/10/23/footprints-4789853_1280.jpg"
    },
    {
        "id": "1934421",
        "src640": "https://cdn.pixabay.com/photo/2016/12/27/18/23/cold-1934421_640.jpg",
        "src1280": "https://cdn.pixabay.com/photo/2016/12/27/18/23/cold-1934421_1280.jpg"
    },
    {
        "id": "6899650",
        "src640": "https://cdn.pixabay.com/photo/2021/12/28/16/12/plants-6899650_640.jpg",
        "src1280": "https://cdn.pixabay.com/photo/2021/12/28/16/12/plants-6899650_1280.jpg"
    },
    {
        "id": "2593162",
        "src640": "https://cdn.pixabay.com/photo/2017/08/06/14/45/winter-2593162_640.jpg",
        "src1280": "https://cdn.pixabay.com/photo/2017/08/06/14/45/winter-2593162_1280.jpg"
    },
    {
        "id": "6945667",
        "src640": "https://cdn.pixabay.com/photo/2022/01/17/19/53/boat-6945667_640.jpg",
        "src1280": "https://cdn.pixabay.com/photo/2022/01/17/19/53/boat-6945667_1280.jpg"
    },
    {
        "id": "96010",
        "src640": "https://cdn.pixabay.com/photo/2013/03/22/22/44/ice-96010_640.jpg",
        "src1280": "https://cdn.pixabay.com/photo/2013/03/22/22/44/ice-96010_1280.jpg"
    },
    {
        "id": "5970854",
        "src640": "https://cdn.pixabay.com/photo/2021/02/01/14/39/christmas-ball-5970854_640.jpg",
        "src1280": "https://cdn.pixabay.com/photo/2021/02/01/14/39/christmas-ball-5970854_1280.jpg"
    },
    {
        "id": "8004268",
        "src640": "https://cdn.pixabay.com/photo/2023/05/19/11/02/animal-8004268_640.jpg",
        "src1280": "https://cdn.pixabay.com/photo/2023/05/19/11/02/animal-8004268_1280.jpg"
    },
    {
        "id": "7616075",
        "src640": "https://cdn.pixabay.com/photo/2022/11/25/11/53/winter-7616075_640.jpg",
        "src1280": "https://cdn.pixabay.com/photo/2022/11/25/11/53/winter-7616075_1280.jpg"
    },
    {
        "id": "97101",
        "src640": "https://cdn.pixabay.com/photo/2013/03/27/14/19/plant-97101_640.jpg",
        "src1280": "https://cdn.pixabay.com/photo/2013/03/27/14/19/plant-97101_1280.jpg"
    },
    {
        "id": "4755793",
        "src640": "https://cdn.pixabay.com/photo/2020/01/10/17/32/pine-4755793_640.jpg",
        "src1280": "https://cdn.pixabay.com/photo/2020/01/10/17/32/pine-4755793_1280.jpg"
    },
    {
        "id": "5056928",
        "src640": "https://cdn.pixabay.com/photo/2020/04/17/21/08/butterfly-5056928_640.jpg",
        "src1280": "https://cdn.pixabay.com/photo/2020/04/17/21/08/butterfly-5056928_1280.jpg"
    },
    {
        "id": "8339156",
        "src640": "https://cdn.pixabay.com/photo/2023/10/24/21/39/winter-8339156_640.jpg",
        "src1280": "https://cdn.pixabay.com/photo/2023/10/24/21/39/winter-8339156_1280.jpg"
    },
    {
        "id": "7741635",
        "src640": "https://cdn.pixabay.com/photo/2023/01/24/16/56/viburnum-7741635_640.jpg",
        "src1280": "https://cdn.pixabay.com/photo/2023/01/24/16/56/viburnum-7741635_1280.jpg"
    },
    {
        "id": "2090339",
        "src640": "https://cdn.pixabay.com/photo/2017/02/22/19/06/path-2090339_640.jpg",
        "src1280": "https://cdn.pixabay.com/photo/2017/02/22/19/06/path-2090339_1280.jpg"
    },
    {
        "id": "4751305",
        "src640": "https://cdn.pixabay.com/photo/2020/01/08/21/26/tree-4751305_640.jpg",
        "src1280": "https://cdn.pixabay.com/photo/2020/01/08/21/26/tree-4751305_1280.jpg"
    },
    {
        "id": "3053364",
        "src640": "https://cdn.pixabay.com/photo/2018/01/01/00/38/nature-3053364_640.jpg",
        "src1280": "https://cdn.pixabay.com/photo/2018/01/01/00/38/nature-3053364_1280.jpg"
    },
    {
        "id": "4791943",
        "src640": "https://cdn.pixabay.com/photo/2020/01/25/08/03/mountain-4791943_640.jpg",
        "src1280": "https://cdn.pixabay.com/photo/2020/01/25/08/03/mountain-4791943_1280.jpg"
    },
    {
        "id": "5137737",
        "src640": "https://cdn.pixabay.com/photo/2020/05/06/14/10/mountain-5137737_640.jpg",
        "src1280": "https://cdn.pixabay.com/photo/2020/05/06/14/10/mountain-5137737_1280.jpg"
    },
    {
        "id": "4861672",
        "src640": "https://cdn.pixabay.com/photo/2020/02/19/08/12/landscape-4861672_640.jpg",
        "src1280": "https://cdn.pixabay.com/photo/2020/02/19/08/12/landscape-4861672_1280.jpg"
    },
    {
        "id": "1934391",
        "src640": "https://cdn.pixabay.com/photo/2016/12/27/18/09/cold-1934391_640.jpg",
        "src1280": "https://cdn.pixabay.com/photo/2016/12/27/18/09/cold-1934391_1280.jpg"
    },
    {
        "id": "5197253",
        "src640": "https://cdn.pixabay.com/photo/2020/05/20/16/45/sky-5197253_640.jpg",
        "src1280": "https://cdn.pixabay.com/photo/2020/05/20/16/45/sky-5197253_1280.jpg"
    },
    {
        "id": "7676418",
        "src640": "https://cdn.pixabay.com/photo/2022/12/24/20/08/christmas-7676418_640.jpg",
        "src1280": "https://cdn.pixabay.com/photo/2022/12/24/20/08/christmas-7676418_1280.jpg"
    },
    {
        "id": "4685129",
        "src640": "https://cdn.pixabay.com/photo/2019/12/10/06/32/winter-4685129_640.jpg",
        "src1280": "https://cdn.pixabay.com/photo/2019/12/10/06/32/winter-4685129_1280.jpg"
    },
    {
        "id": "6785302",
        "src640": "https://cdn.pixabay.com/photo/2021/11/11/03/31/pine-cone-6785302_640.jpg",
        "src1280": "https://cdn.pixabay.com/photo/2021/11/11/03/31/pine-cone-6785302_1280.jpg"
    },
    {
        "id": "183125",
        "src640": "https://cdn.pixabay.com/photo/2013/09/17/04/52/snow-183125_640.jpg",
        "src1280": "https://cdn.pixabay.com/photo/2013/09/17/04/52/snow-183125_1280.jpg"
    },
    {
        "id": "6769807",
        "src640": "https://cdn.pixabay.com/photo/2021/11/05/01/10/winter-6769807_640.jpg",
        "src1280": "https://cdn.pixabay.com/photo/2021/11/05/01/10/winter-6769807_1280.jpg"
    },
    {
        "id": "4686377",
        "src640": "https://cdn.pixabay.com/photo/2019/12/10/18/06/russkaya-krasavica-4686377_640.jpg",
        "src1280": "https://cdn.pixabay.com/photo/2019/12/10/18/06/russkaya-krasavica-4686377_1280.jpg"
    }
]