[
    {
        "id": "3212762",
        "src640": "https://cdn.pixabay.com/photo/2018/03/09/22/05/outdoors-3212762_640.jpg",
        "src1280": "https://cdn.pixabay.com/photo/2018/03/09/22/05/outdoors-3212762_1280.jpg"
    },
    {
        "id": "4854480",
        "src640": "https://cdn.pixabay.com/photo/2020/02/16/18/41/europe-4854480_640.jpg",
        "src1280": "https://cdn.pixabay.com/photo/2020/02/16/18/41/europe-4854480_1280.jpg"
    },
    {
        "id": "7727718",
        "src640": "https://cdn.pixabay.com/photo/2023/01/18/19/59/sheet-7727718_640.jpg",
        "src1280": "https://cdn.pixabay.com/photo/2023/01/18/19/59/sheet-7727718_1280.jpg"
    },
    {
        "id": "2539451",
        "src640": "https://cdn.pixabay.com/photo/2017/07/25/20/23/nature-2539451_640.jpg",
        "src1280": "https://cdn.pixabay.com/photo/2017/07/25/20/23/nature-2539451_1280.jpg"
    },
    {
        "id": "5969801",
        "src640": "https://cdn.pixabay.com/photo/2021/02/01/08/47/church-5969801_640.jpg",
        "src1280": "https://cdn.pixabay.com/photo/2021/02/01/08/47/church-5969801_1280.jpg"
    },
    {
        "id": "624930",
        "src640": "https://cdn.pixabay.com/photo/2015/02/05/12/16/bush-624930_640.jpg",
        "src1280": "https://cdn.pixabay.com/photo/2015/02/05/12/16/bush-624930_1280.jpg"
    },
    {
        "id": "275902",
        "src640": "https://cdn.pixabay.com/photo/2014/02/27/15/36/winter-275902_640.jpg",
        "src1280": "https://cdn.pixabay.com/photo/2014/02/27/15/36/winter-275902_1280.jpg"
    },
    {
        "id": "21255",
        "src640": "https://cdn.pixabay.com/photo/2012/03/02/12/43/frost-21255_640.jpg",
        "src1280": "https://cdn.pixabay.com/photo/2012/03/02/12/43/frost-21255_1280.jpg"
    },
    {
        "id": "2787577",
        "src640": "https://cdn.pixabay.com/photo/2017/09/26/03/08/volcano-2787577_640.jpg",
        "src1280": "https://cdn.pixabay.com/photo/2017/09/26/03/08/volcano-2787577_1280.jpg"
    },
    {
        "id": "78601",
        "src640": "https://cdn.pixabay.com/photo/2013/02/06/16/33/winter-78601_640.jpg",
        "src1280": "https://cdn.pixabay.com/photo/2013/02/06/16/33/winter-78601_1280.jpg"
    },
    {
        "id": "1598945",
        "src640": "https://cdn.pixabay.com/photo/2016/08/16/20/55/kristine-srigley-1598945_640.jpg",
        "src1280": "https://cdn.pixabay.com/photo/2016/08/16/20/55/kristine-srigley-1598945_1280.jpg"
    },
    {
        "id": "5919967",
        "src640": "https://cdn.pixabay.com/photo/2021/01/15/17/32/church-5919967_640.jpg",
        "src1280": "https://cdn.pixabay.com/photo/2021/01/15/17/32/church-5919967_1280.jpg"
    },
    {
        "id": "1882205",
        "src640": "https://cdn.pixabay.com/photo/2016/12/04/18/14/soap-bubble-1882205_640.jpg",
        "src1280": "https://cdn.pixabay.com/photo/2016/12/04/18/14/soap-bubble-1882205_1280.jpg"
    },
    {
        "id": "6827932",
        "src640": "https://cdn.pixabay.com/photo/2021/11/27/12/41/schockel-6827932_640.jpg",
        "src1280": "https://cdn.pixabay.com/photo/2021/11/27/12/41/schockel-6827932_1280.jpg"
    },
    {
        "id": "5970923",
        "src640": "https://cdn.pixabay.com/photo/2021/02/01/14/56/winter-5970923_640.jpg",
        "src1280": "https://cdn.pixabay.com/photo/2021/02/01/14/56/winter-5970923_1280.jpg"
    },
    {
        "id": "5096686",
        "src640": "https://cdn.pixabay.com/photo/2020/04/26/18/51/winter-5096686_640.jpg",
        "src1280": "https://cdn.pixabay.com/photo/2020/04/26/18/51/winter-5096686_1280.jpg"
    },
    {
        "id": "7433516",
        "src640": "https://cdn.pixabay.com/photo/2022/09/05/07/43/winter-7433516_640.jpg",
        "src1280": "https://cdn.pixabay.com/photo/2022/09/05/07/43/winter-7433516_1280.jpg"
    },
    {
        "id": "881768",
        "src640": "https://cdn.pixabay.com/photo/2015/08/09/15/24/nadelhorn-881768_640.jpg",
        "src1280": "https://cdn.pixabay.com/photo/2015/08/09/15/24/nadelhorn-881768_1280.jpg"
    },
    {
        "id": "7800251",
        "src640": "https://cdn.pixabay.com/photo/2023/02/19/14/15/church-7800251_640.jpg",
        "src1280": "https://cdn.pixabay.com/photo/2023/02/19/14/15/church-7800251_1280.jpg"
    },
    {
        "id": "7538592",
        "src640": "https://cdn.pixabay.com/photo/2022/10/22/07/22/winter-7538592_640.jpg",
        "src1280": "https://cdn.pixabay.com/photo/2022/10/22/07/22/winter-7538592_1280.jpg"
    },
    {
        "id": "6932186",
        "src640": "https://cdn.pixabay.com/photo/2022/01/12/07/32/mountain-6932186_640.jpg",
        "src1280": "https://cdn.pixabay.com/photo/2022/01/12/07/32/mountain-6932186_1280.jpg"
    },
    {
        "id": "7666987",
        "src640": "https://cdn.pixabay.com/photo/2022/12/20/02/42/ai-generated-7666987_640.jpg",
        "src1280": "https://cdn.pixabay.com/photo/2022/12/20/02/42/ai-generated-7666987_1280.jpg"
    },
    {
        "id": "4762359",
        "src640": "https://cdn.pixabay.com/photo/2020/01/13/13/11/lights-4762359_640.jpg",
        "src1280": "https://cdn.pixabay.com/photo/2020/01/13/13/11/lights-4762359_1280.jpg"
    },
    {
        "id": "7700365",
        "src640": "https://cdn.pixabay.com/photo/2023/01/06/04/31/sunrise-7700365_640.jpg",
        "src1280": "https://cdn.pixabay.com/photo/2023/01/06/04/31/sunrise-7700365_1280.jpg"
    },
    {
        "id": "7755341",
        "src640": "https://cdn.pixabay.com/photo/2023/01/30/10/39/continental-bulldog-7755341_640.jpg",
        "src1280": "https://cdn.pixabay.com/photo/2023/01/30/10/39/continental-bulldog-7755341_1280.jpg"
    },
    {
        "id": "4767701",
        "src640": "https://cdn.pixabay.com/photo/2020/01/15/11/18/cow-4767701_640.jpg",
        "src1280": "https://cdn.pixabay.com/photo/2020/01/15/11/18/cow-4767701_1280.jpg"
    },
    {
        "id": "82328",
        "src640": "https://cdn.pixabay.com/photo/2013/02/16/19/28/winter-82328_640.jpg",
        "src1280": "https://cdn.pixabay.com/photo/2013/02/16/19/28/winter-82328_1280.jpg"
    },
    {
        "id": "5348924",
        "src640": "https://cdn.pixabay.com/photo/2020/06/28/11/04/mountain-5348924_640.jpg",
        "src1280": "https://cdn.pixabay.com/photo/2020/06/28/11/04/mountain-5348924_1280.jpg"
    },
    {
        "id": "312832",
        "src640": "https://cdn.pixabay.com/photo/2014/04/03/15/46/water-312832_640.jpg",
        "src1280": "https://cdn.pixabay.com/photo/2014/04/03/15/46/water-312832_1280.jpg"
    },
    {
        "id": "6881869",
        "src640": "https://cdn.pixabay.com/photo/2021/12/19/20/08/christmas-6881869_640.jpg",
        "src1280": "https://cdn.pixabay.com/photo/2021/12/19/20/08/christmas-6881869_1280.jpg"
    },
    {
        "id": "986940",
        "src640": "https://cdn.pixabay.com/photo/2015/10/13/22/31/snow-986940_640.jpg",
        "src1280": "https://cdn.pixabay.com/photo/2015/10/13/22/31/snow-986940_1280.jpg"
    },
    {
        "id": "1787790",
        "src640": "https://cdn.pixabay.com/photo/2016/11/01/09/59/train-1787790_640.jpg",
        "src1280": "https://cdn.pixabay.com/photo/2016/11/01/09/59/train-1787790_1280.jpg"
    },
    {
        "id": "16228",
        "src640": "https://cdn.pixabay.com/photo/2012/02/23/14/23/tree-16228_640.jpg",
        "src1280": "https://cdn.pixabay.com/photo/2012/02/23/14/23/tree-16228_1280.jpg"
    },
    {
        "id": "7694658",
        "src640": "https://cdn.pixabay.com/photo/2023/01/03/15/46/family-7694658_640.jpg",
        "src1280": "https://cdn.pixabay.com/photo/2023/01/03/15/46/family-7694658_1280.jpg"
    },
    {
        "id": "5106501",
        "src640": "https://cdn.pixabay.com/photo/2020/04/28/22/10/forest-5106501_640.jpg",
        "src1280": "https://cdn.pixabay.com/photo/2020/04/28/22/10/forest-5106501_1280.jpg"
    },
    {
        "id": "4446580",
        "src640": "https://cdn.pixabay.com/photo/2019/09/02/05/52/fashion-4446580_640.jpg",
        "src1280": "https://cdn.pixabay.com/photo/2019/09/02/05/52/fashion-4446580_1280.jpg"
    },
    {
        "id": "5977830",
        "src640": "https://cdn.pixabay.com/photo/2021/02/03/12/41/trees-5977830_640.jpg",
        "src1280": "https://cdn.pixabay.com/photo/2021/02/03/12/41/trees-5977830_1280.jpg"
    },
    {
        "id": "5819608",
        "src640": "https://cdn.pixabay.com/photo/2020/12/10/08/08/drink-5819608_640.jpg",
        "src1280": "https://cdn.pixabay.com/photo/2020/12/10/08/08/drink-5819608_1280.jpg"
    },
    {
        "id": "1959194",
        "src640": "https://cdn.pixabay.com/photo/2017/01/06/22/57/hoarfrost-1959194_640.jpg",
        "src1280": "https://cdn.pixabay.com/photo/2017/01/06/22/57/hoarfrost-1959194_1280.jpg"
    },
    {
        "id": "6837131",
        "src640": "https://cdn.pixabay.com/photo/2021/12/01/09/47/forest-6837131_640.jpg",
        "src1280": "https://cdn.pixabay.com/photo/2021/12/01/09/47/forest-6837131_1280.jpg"
    },
    {
        "id": "7701777",
        "src640": "https://cdn.pixabay.com/photo/2023/01/06/17/42/padlock-7701777_640.jpg",
        "src1280": "https://cdn.pixabay.com/photo/2023/01/06/17/42/padlock-7701777_1280.jpg"
    },
    {
        "id": "6894530",
        "src640": "https://cdn.pixabay.com/photo/2021/12/26/08/46/forest-6894530_640.jpg",
        "src1280": "https://cdn.pixabay.com/photo/2021/12/26/08/46/forest-6894530_1280.jpg"
    },
    {
        "id": "7034595",
        "src640": "https://cdn.pixabay.com/photo/2022/02/25/18/03/ski-lift-7034595_640.jpg",
        "src1280": "https://cdn.pixabay.com/photo/2022/02/25/18/03/ski-lift-7034595_1280.jpg"
    },
    {
        "id": "4514919",
        "src640": "https://cdn.pixabay.com/photo/2019/09/30/06/08/fashion-4514919_640.jpg",
        "src1280": "https://cdn.pixabay.com/photo/2019/09/30/06/08/fashion-4514919_1280.jpg"
    },
    {
        "id": "4784461",
        "src640": "https://cdn.pixabay.com/photo/2020/01/22/04/59/winter-4784461_640.jpg",
        "src1280": "https://cdn.pixabay.com/photo/2020/01/22/04/59/winter-4784461_1280.jpg"
    },
    {
        "id": "16162",
        "src640": "https://cdn.pixabay.com/photo/2012/02/23/13/13/trace-16162_640.jpg",
        "src1280": "https://cdn.pixabay.com/photo/2012/02/23/13/13/trace-16162_1280.jpg"
    },
    {
        "id": "2140560",
        "src640": "https://cdn.pixabay.com/photo/2017/03/13/17/18/leaves-2140560_640.jpg",
        "src1280": "https://cdn.pixabay.com/photo/2017/03/13/17/18/leaves-2140560_1280.jpg"
    },
    {
        "id": "5189578",
        "src640": "https://cdn.pixabay.com/photo/2020/05/19/07/19/flower-5189578_640.jpg",
        "src1280": "https://cdn.pixabay.com/photo/2020/05/19/07/19/flower-5189578_1280.jpg"
    },
    {
        "id": "226672",
        "src640": "https://cdn.pixabay.com/photo/2013/12/10/22/42/tree-226672_640.jpg",
        "src1280": "https://cdn.pixabay.com/photo/2013/12/10/22/42/tree-226672_1280.jpg"
    },
    {
        "id": "1154225",
        "src640": "https://cdn.pixabay.com/photo/2016/01/21/17/19/apple-1154225_640.jpg",
        "src1280": "https://cdn.pixabay.com/photo/2016/01/21/17/19/apple-1154225_1280.jpg"
    },
    {
        "id": "6769848",
        "src640": "https://cdn.pixabay.com/photo/2021/11/05/01/14/winter-6769848_640.jpg",
        "src1280": "https://cdn.pixabay.com/photo/2021/11/05/01/14/winter-6769848_1280.jpg"
    },
    {
        "id": "753160",
        "src640": "https://cdn.pixabay.com/photo/2015/05/04/22/21/silver-coloured-groundsel-753160_640.jpg",
        "src1280": "https://cdn.pixabay.com/photo/2015/05/04/22/21/silver-coloured-groundsel-753160_1280.jpg"
    },
    {
        "id": "7012956",
        "src640": "https://cdn.pixabay.com/photo/2022/02/14/11/37/tree-7012956_640.jpg",
        "src1280": "https://cdn.pixabay.com/photo/2022/02/14/11/37/tree-7012956_1280.jpg"
    },
    {
        "id": "21141",
        "src640": "https://cdn.pixabay.com/photo/2012/03/02/11/08/celebration-21141_640.jpg",
        "src1280": "https://cdn.pixabay.com/photo/2012/03/02/11/08/celebration-21141_1280.jpg"
    },
    {
        "id": "3784863",
        "src640": "https://cdn.pixabay.com/photo/2018/10/30/23/02/elbe-3784863_640.jpg",
        "src1280": "https://cdn.pixabay.com/photo/2018/10/30/23/02/elbe-3784863_1280.jpg"
    },
    {
        "id": "7649870",
        "src640": "https://cdn.pixabay.com/photo/2022/12/11/22/54/skates-7649870_640.jpg",
        "src1280": "https://cdn.pixabay.com/photo/2022/12/11/22/54/skates-7649870_1280.jpg"
    },
    {
        "id": "16544",
        "src640": "https://cdn.pixabay.com/photo/2012/02/24/14/09/block-of-ice-16544_640.jpg",
        "src1280": "https://cdn.pixabay.com/photo/2012/02/24/14/09/block-of-ice-16544_1280.jpg"
    },
    {
        "id": "4799231",
        "src640": "https://cdn.pixabay.com/photo/2020/01/28/08/59/leather-4799231_640.jpg",
        "src1280": "https://cdn.pixabay.com/photo/2020/01/28/08/59/leather-4799231_1280.jpg"
    },
    {
        "id": "4678968",
        "src640": "https://cdn.pixabay.com/photo/2019/12/07/09/27/hoarfrost-4678968_640.jpg",
        "src1280": "https://cdn.pixabay.com/photo/2019/12/07/09/27/hoarfrost-4678968_1280.jpg"
    },
    {
        "id": "4718448",
        "src640": "https://cdn.pixabay.com/photo/2019/12/25/12/12/winter-4718448_640.jpg",
        "src1280": "https://cdn.pixabay.com/photo/2019/12/25/12/12/winter-4718448_1280.jpg"
    },
    {
        "id": "7668486",
        "src640": "https://cdn.pixabay.com/photo/2022/12/20/18/53/woman-7668486_640.jpg",
        "src1280": "https://cdn.pixabay.com/photo/2022/12/20/18/53/woman-7668486_1280.jpg"
    },
    {
        "id": "7451860",
        "src640": "https://cdn.pixabay.com/photo/2022/09/13/12/59/blossoms-7451860_640.jpg",
        "src1280": "https://cdn.pixabay.com/photo/2022/09/13/12/59/blossoms-7451860_1280.jpg"
    },
    {
        "id": "5917886",
        "src640": "https://cdn.pixabay.com/photo/2021/01/14/20/41/leaves-5917886_640.jpg",
        "src1280": "https://cdn.pixabay.com/photo/2021/01/14/20/41/leaves-5917886_1280.jpg"
    },
    {
        "id": "4940995",
        "src640": "https://cdn.pixabay.com/photo/2020/03/17/16/18/forest-4940995_640.jpg",
        "src1280": "https://cdn.pixabay.com/photo/2020/03/17/16/18/forest-4940995_1280.jpg"
    },
    {
        "id": "6908757",
        "src640": "https://cdn.pixabay.com/photo/2022/01/01/19/27/snow-tracks-6908757_640.jpg",
        "src1280": "https://cdn.pixabay.com/photo/2022/01/01/19/27/snow-tracks-6908757_1280.jpg"
    },
    {
        "id": "6096848",
        "src640": "https://cdn.pixabay.com/photo/2021/03/15/11/42/lake-6096848_640.jpg",
        "src1280": "https://cdn.pixabay.com/photo/2021/03/15/11/42/lake-6096848_1280.jpg"
    },
    {
        "id": "2178672",
        "src640": "https://cdn.pixabay.com/photo/2017/03/27/13/19/bench-2178672_640.jpg",
        "src1280": "https://cdn.pixabay.com/photo/2017/03/27/13/19/bench-2178672_1280.jpg"
    },
    {
        "id": "4961784",
        "src640": "https://cdn.pixabay.com/photo/2020/03/23/19/06/pine-4961784_640.jpg",
        "src1280": "https://cdn.pixabay.com/photo/2020/03/23/19/06/pine-4961784_1280.jpg"
    },
    {
        "id": "6933082",
        "src640": "https://cdn.pixabay.com/photo/2022/01/12/14/56/flower-6933082_640.jpg",
        "src1280": "https://cdn.pixabay.com/photo/2022/01/12/14/56/flower-6933082_1280.jpg"
    },
    {
        "id": "7398046",
        "src640": "https://cdn.pixabay.com/photo/2022/08/20/02/15/ferns-7398046_640.jpg",
        "src1280": "https://cdn.pixabay.com/photo/2022/08/20/02/15/ferns-7398046_1280.jpg"
    },
    {
        "id": "5023",
        "src640": "https://cdn.pixabay.com/photo/2011/02/23/02/41/winter-5023_640.jpg",
        "src1280": "https://cdn.pixabay.com/photo/2011/02/23/02/41/winter-5023_1280.jpg"
    },
    {
        "id": "4536502",
        "src640": "https://cdn.pixabay.com/photo/2019/10/09/05/57/russia-4536502_640.jpg",
        "src1280": "https://cdn.pixabay.com/photo/2019/10/09/05/57/russia-4536502_1280.jpg"
    },
    {
        "id": "829621",
        "src640": "https://cdn.pixabay.com/photo/2015/07/02/21/14/lamp-829621_640.jpg",
        "src1280": "https://cdn.pixabay.com/photo/2015/07/02/21/14/lamp-829621_1280.jpg"
    },
    {
        "id": "649919",
        "src640": "https://cdn.pixabay.com/photo/2015/02/26/05/09/winter-649919_640.jpg",
        "src1280": "https://cdn.pixabay.com/photo/2015/02/26/05/09/winter-649919_1280.jpg"
    },
    {
        "id": "2674587",
        "src640": "https://cdn.pixabay.com/photo/2017/08/23/22/28/berry-2674587_640.jpg",
        "src1280": "https://cdn.pixabay.com/photo/2017/08/23/22/28/berry-2674587_1280.jpg"
    },
    {
        "id": "22105",
        "src640": "https://cdn.pixabay.com/photo/2012/03/04/00/51/celebration-22105_640.jpg",
        "src1280": "https://cdn.pixabay.com/photo/2012/03/04/00/51/celebration-22105_1280.jpg"
    },
    {
        "id": "4732847",
        "src640": "https://cdn.pixabay.com/photo/2020/01/01/00/37/sunset-4732847_640.jpg",
        "src1280": "https://cdn.pixabay.com/photo/2020/01/01/00/37/sunset-4732847_1280.jpg"
    },
    {
        "id": "5161893",
        "src640": "https://cdn.pixabay.com/photo/2020/05/12/08/54/nature-5161893_640.jpg",
        "src1280": "https://cdn.pixabay.com/photo/2020/05/12/08/54/nature-5161893_1280.jpg"
    },
    {
        "id": "1971686",
        "src640": "https://cdn.pixabay.com/photo/2017/01/11/12/28/leaves-1971686_640.jpg",
        "src1280": "https://cdn.pixabay.com/photo/2017/01/11/12/28/leaves-1971686_1280.jpg"
    },
    {
        "id": "3882142",
        "src640": "https://cdn.pixabay.com/photo/2018/12/18/11/18/lighthouse-timmendorf-3882142_640.jpg",
        "src1280": "https://cdn.pixabay.com/photo/2018/12/18/11/18/lighthouse-timmendorf-3882142_1280.jpg"
    },
    {
        "id": "5988847",
        "src640": "https://cdn.pixabay.com/photo/2021/02/06/17/52/pine-5988847_640.jpg",
        "src1280": "https://cdn.pixabay.com/photo/2021/02/06/17/52/pine-5988847_1280.jpg"
    },
    {
        "id": "5007413",
        "src640": "https://cdn.pixabay.com/photo/2020/04/05/19/02/cold-5007413_640.jpg",
        "src1280": "https://cdn.pixabay.com/photo/2020/04/05/19/02/cold-5007413_1280.jpg"
    },
    {
        "id": "5979276",
        "src640": "https://cdn.pixabay.com/photo/2021/02/03/20/35/cactus-5979276_640.jpg",
        "src1280": "https://cdn.pixabay.com/photo/2021/02/03/20/35/cactus-5979276_1280.jpg"
    },
    {
        "id": "6853799",
        "src640": "https://cdn.pixabay.com/photo/2021/12/07/18/04/hut-6853799_640.jpg",
        "src1280": "https://cdn.pixabay.com/photo/2021/12/07/18/04/hut-6853799_1280.jpg"
    },
    {
        "id": "101840",
        "src640": "https://cdn.pixabay.com/photo/2013/04/08/15/30/tree-101840_640.jpg",
        "src1280": "https://cdn.pixabay.com/photo/2013/04/08/15/30/tree-101840_1280.jpg"
    },
    {
        "id": "5992383",
        "src640": "https://cdn.pixabay.com/photo/2021/02/07/19/10/leaves-5992383_640.jpg",
        "src1280": "https://cdn.pixabay.com/photo/2021/02/07/19/10/leaves-5992383_1280.jpg"
    },
    {
        "id": "7635872",
        "src640": "https://cdn.pixabay.com/photo/2022/12/05/04/10/pine-tree-7635872_640.jpg",
        "src1280": "https://cdn.pixabay.com/photo/2022/12/05/04/10/pine-tree-7635872_1280.jpg"
    },
    {
        "id": "4783170",
        "src640": "https://cdn.pixabay.com/photo/2020/01/21/15/43/frost-4783170_640.jpg",
        "src1280": "https://cdn.pixabay.com/photo/2020/01/21/15/43/frost-4783170_1280.jpg"
    },
    {
        "id": "7739927",
        "src640": "https://cdn.pixabay.com/photo/2023/01/24/00/01/berry-7739927_640.jpg",
        "src1280": "https://cdn.pixabay.com/photo/2023/01/24/00/01/berry-7739927_1280.jpg"
    },
    {
        "id": "7213677",
        "src640": "https://cdn.pixabay.com/photo/2022/05/22/15/48/winter-7213677_640.jpg",
        "src1280": "https://cdn.pixabay.com/photo/2022/05/22/15/48/winter-7213677_1280.jpg"
    },
    {
        "id": "4890285",
        "src640": "https://cdn.pixabay.com/photo/2020/02/29/14/39/snow-4890285_640.jpg",
        "src1280": "https://cdn.pixabay.com/photo/2020/02/29/14/39/snow-4890285_1280.jpg"
    },
    {
        "id": "4721285",
        "src640": "https://cdn.pixabay.com/photo/2019/12/26/21/32/snowman-4721285_640.jpg",
        "src1280": "https://cdn.pixabay.com/photo/2019/12/26/21/32/snowman-4721285_1280.jpg"
    },
    {
        "id": "3281087",
        "src640": "https://cdn.pixabay.com/photo/2018/04/01/14/22/nature-3281087_640.jpg",
        "src1280": "https://cdn.pixabay.com/photo/2018/04/01/14/22/nature-3281087_1280.jpg"
    },
    {
        "id": "7647535",
        "src640": "https://cdn.pixabay.com/photo/2022/12/10/18/37/winter-7647535_640.jpg",
        "src1280": "https://cdn.pixabay.com/photo/2022/12/10/18/37/winter-7647535_1280.jpg"
    },
    {
        "id": "2791851",
        "src640": "https://cdn.pixabay.com/photo/2017/09/27/12/07/winter-2791851_640.jpg",
        "src1280": "https://cdn.pixabay.com/photo/2017/09/27/12/07/winter-2791851_1280.jpg"
    },
    {
        "id": "4862925",
        "src640": "https://cdn.pixabay.com/photo/2020/02/19/18/52/seiser-alm-4862925_640.jpg",
        "src1280": "https://cdn.pixabay.com/photo/2020/02/19/18/52/seiser-alm-4862925_1280.jpg"
    },
    {
        "id": "7086748",
        "src640": "https://cdn.pixabay.com/photo/2022/03/23/09/06/trees-7086748_640.jpg",
        "src1280": "https://cdn.pixabay.com/photo/2022/03/23/09/06/trees-7086748_1280.jpg"
    }
]