[
    {
        "id": "4043589",
        "src640": "https://cdn.pixabay.com/photo/2019/03/09/03/06/snow-4043589_640.jpg",
        "src1280": "https://cdn.pixabay.com/photo/2019/03/09/03/06/snow-4043589_1280.jpg"
    },
    {
        "id": "946210",
        "src640": "https://cdn.pixabay.com/photo/2015/09/18/19/54/forest-946210_640.jpg",
        "src1280": "https://cdn.pixabay.com/photo/2015/09/18/19/54/forest-946210_1280.jpg"
    },
    {
        "id": "3281083",
        "src640": "https://cdn.pixabay.com/photo/2018/04/01/14/22/winter-3281083_640.jpg",
        "src1280": "https://cdn.pixabay.com/photo/2018/04/01/14/22/winter-3281083_1280.jpg"
    },
    {
        "id": "5870697",
        "src640": "https://cdn.pixabay.com/photo/2020/12/29/14/33/snow-5870697_640.jpg",
        "src1280": "https://cdn.pixabay.com/photo/2020/12/29/14/33/snow-5870697_1280.jpg"
    },
    {
        "id": "4511887",
        "src640": "https://cdn.pixabay.com/photo/2019/09/28/22/03/winter-4511887_640.jpg",
        "src1280": "https://cdn.pixabay.com/photo/2019/09/28/22/03/winter-4511887_1280.jpg"
    },
    {
        "id": "7616576",
        "src640": "https://cdn.pixabay.com/photo/2022/11/25/17/32/christmas-aesthetic-7616576_640.jpg",
        "src1280": "https://cdn.pixabay.com/photo/2022/11/25/17/32/christmas-aesthetic-7616576_1280.jpg"
    },
    {
        "id": "6027620",
        "src640": "https://cdn.pixabay.com/photo/2021/02/18/16/24/snow-6027620_640.jpg",
        "src1280": "https://cdn.pixabay.com/photo/2021/02/18/16/24/snow-6027620_1280.jpg"
    },
    {
        "id": "2850167",
        "src640": "https://cdn.pixabay.com/photo/2017/10/14/10/44/nature-2850167_640.jpg",
        "src1280": "https://cdn.pixabay.com/photo/2017/10/14/10/44/nature-2850167_1280.jpg"
    },
    {
        "id": "4853955",
        "src640": "https://cdn.pixabay.com/photo/2020/02/16/15/56/man-4853955_640.jpg",
        "src1280": "https://cdn.pixabay.com/photo/2020/02/16/15/56/man-4853955_1280.jpg"
    },
    {
        "id": "81157",
        "src640": "https://cdn.pixabay.com/photo/2013/02/12/23/47/traces-81157_640.jpg",
        "src1280": "https://cdn.pixabay.com/photo/2013/02/12/23/47/traces-81157_1280.jpg"
    },
    {
        "id": "6884824",
        "src640": "https://cdn.pixabay.com/photo/2021/12/21/08/52/winter-6884824_640.jpg",
        "src1280": "https://cdn.pixabay.com/photo/2021/12/21/08/52/winter-6884824_1280.jpg"
    },
    {
        "id": "5974195",
        "src640": "https://cdn.pixabay.com/photo/2021/02/02/14/12/snow-5974195_640.jpg",
        "src1280": "https://cdn.pixabay.com/photo/2021/02/02/14/12/snow-5974195_1280.jpg"
    },
    {
        "id": "946099",
        "src640": "https://cdn.pixabay.com/photo/2015/09/18/19/03/snow-946099_640.jpg",
        "src1280": "https://cdn.pixabay.com/photo/2015/09/18/19/03/snow-946099_1280.jpg"
    },
    {
        "id": "4761711",
        "src640": "https://cdn.pixabay.com/photo/2020/01/13/05/44/tree-4761711_640.jpg",
        "src1280": "https://cdn.pixabay.com/photo/2020/01/13/05/44/tree-4761711_1280.jpg"
    },
    {
        "id": "2595414",
        "src640": "https://cdn.pixabay.com/photo/2017/08/06/19/16/snow-2595414_640.jpg",
        "src1280": "https://cdn.pixabay.com/photo/2017/08/06/19/16/snow-2595414_1280.jpg"
    },
    {
        "id": "3909931",
        "src640": "https://cdn.pixabay.com/photo/2019/01/02/23/43/mountain-3909931_640.jpg",
        "src1280": "https://cdn.pixabay.com/photo/2019/01/02/23/43/mountain-3909931_1280.jpg"
    },
    {
        "id": "2597295",
        "src640": "https://cdn.pixabay.com/photo/2017/08/06/23/03/cliff-2597295_640.jpg",
        "src1280": "https://cdn.pixabay.com/photo/2017/08/06/23/03/cliff-2597295_1280.jpg"
    },
    {
        "id": "4735560",
        "src640": "https://cdn.pixabay.com/photo/2020/01/02/11/07/bratislava-4735560_640.jpg",
        "src1280": "https://cdn.pixabay.com/photo/2020/01/02/11/07/bratislava-4735560_1280.jpg"
    },
    {
        "id": "6770001",
        "src640": "https://cdn.pixabay.com/photo/2021/11/05/01/51/dog-6770001_640.jpg",
        "src1280": "https://cdn.pixabay.com/photo/2021/11/05/01/51/dog-6770001_1280.jpg"
    },
    {
        "id": "4725013",
        "src640": "https://cdn.pixabay.com/photo/2019/12/28/15/52/christmas-woman-4725013_640.jpg",
        "src1280": "https://cdn.pixabay.com/photo/2019/12/28/15/52/christmas-woman-4725013_1280.jpg"
    },
    {
        "id": "7062239",
        "src640": "https://cdn.pixabay.com/photo/2022/03/11/13/32/mountains-7062239_640.jpg",
        "src1280": "https://cdn.pixabay.com/photo/2022/03/11/13/32/mountains-7062239_1280.jpg"
    },
    {
        "id": "4936670",
        "src640": "https://cdn.pixabay.com/photo/2020/03/16/11/10/horse-4936670_640.jpg",
        "src1280": "https://cdn.pixabay.com/photo/2020/03/16/11/10/horse-4936670_1280.jpg"
    },
    {
        "id": "4625623",
        "src640": "https://cdn.pixabay.com/photo/2019/11/14/08/31/frost-4625623_640.jpg",
        "src1280": "https://cdn.pixabay.com/photo/2019/11/14/08/31/frost-4625623_1280.jpg"
    },
    {
        "id": "4444518",
        "src640": "https://cdn.pixabay.com/photo/2019/09/01/07/46/dog-4444518_640.jpg",
        "src1280": "https://cdn.pixabay.com/photo/2019/09/01/07/46/dog-4444518_1280.jpg"
    },
    {
        "id": "4034563",
        "src640": "https://cdn.pixabay.com/photo/2019/03/04/16/31/roe-deer-4034563_640.jpg",
        "src1280": "https://cdn.pixabay.com/photo/2019/03/04/16/31/roe-deer-4034563_1280.jpg"
    },
    {
        "id": "5822427",
        "src640": "https://cdn.pixabay.com/photo/2020/12/11/10/24/snow-5822427_640.jpg",
        "src1280": "https://cdn.pixabay.com/photo/2020/12/11/10/24/snow-5822427_1280.jpg"
    },
    {
        "id": "2082712",
        "src640": "https://cdn.pixabay.com/photo/2017/02/20/14/30/star-2082712_640.jpg",
        "src1280": "https://cdn.pixabay.com/photo/2017/02/20/14/30/star-2082712_1280.jpg"
    },
    {
        "id": "5893615",
        "src640": "https://cdn.pixabay.com/photo/2021/01/06/08/44/sprig-5893615_640.jpg",
        "src1280": "https://cdn.pixabay.com/photo/2021/01/06/08/44/sprig-5893615_1280.jpg"
    },
    {
        "id": "3243335",
        "src640": "https://cdn.pixabay.com/photo/2018/03/20/13/48/snow-3243335_640.jpg",
        "src1280": "https://cdn.pixabay.com/photo/2018/03/20/13/48/snow-3243335_1280.jpg"
    },
    {
        "id": "7056583",
        "src640": "https://cdn.pixabay.com/photo/2022/03/08/21/17/cable-cars-7056583_640.jpg",
        "src1280": "https://cdn.pixabay.com/photo/2022/03/08/21/17/cable-cars-7056583_1280.jpg"
    },
    {
        "id": "5894005",
        "src640": "https://cdn.pixabay.com/photo/2021/01/06/10/47/temple-5894005_640.jpg",
        "src1280": "https://cdn.pixabay.com/photo/2021/01/06/10/47/temple-5894005_1280.jpg"
    },
    {
        "id": "188399",
        "src640": "https://cdn.pixabay.com/photo/2013/09/29/21/48/coast-188399_640.jpg",
        "src1280": "https://cdn.pixabay.com/photo/2013/09/29/21/48/coast-188399_1280.jpg"
    },
    {
        "id": "5191663",
        "src640": "https://cdn.pixabay.com/photo/2020/05/19/16/49/swan-5191663_640.jpg",
        "src1280": "https://cdn.pixabay.com/photo/2020/05/19/16/49/swan-5191663_1280.jpg"
    },
    {
        "id": "16331",
        "src640": "https://cdn.pixabay.com/photo/2012/02/23/20/58/snowfall-16331_640.jpg",
        "src1280": "https://cdn.pixabay.com/photo/2012/02/23/20/58/snowfall-16331_1280.jpg"
    },
    {
        "id": "4743230",
        "src640": "https://cdn.pixabay.com/photo/2020/01/05/13/55/refrigerator-4743230_640.jpg",
        "src1280": "https://cdn.pixabay.com/photo/2020/01/05/13/55/refrigerator-4743230_1280.jpg"
    },
    {
        "id": "2588004",
        "src640": "https://cdn.pixabay.com/photo/2017/08/06/02/42/snow-2588004_640.jpg",
        "src1280": "https://cdn.pixabay.com/photo/2017/08/06/02/42/snow-2588004_1280.jpg"
    },
    {
        "id": "4745419",
        "src640": "https://cdn.pixabay.com/photo/2020/01/06/13/52/architecture-4745419_640.jpg",
        "src1280": "https://cdn.pixabay.com/photo/2020/01/06/13/52/architecture-4745419_1280.jpg"
    },
    {
        "id": "6107627",
        "src640": "https://cdn.pixabay.com/photo/2021/03/19/13/56/trees-6107627_640.jpg",
        "src1280": "https://cdn.pixabay.com/photo/2021/03/19/13/56/trees-6107627_1280.jpg"
    },
    {
        "id": "5836715",
        "src640": "https://cdn.pixabay.com/photo/2020/12/16/13/46/building-5836715_640.jpg",
        "src1280": "https://cdn.pixabay.com/photo/2020/12/16/13/46/building-5836715_1280.jpg"
    },
    {
        "id": "1201749",
        "src640": "https://cdn.pixabay.com/photo/2016/02/15/18/34/teddy-bear-1201749_640.jpg",
        "src1280": "https://cdn.pixabay.com/photo/2016/02/15/18/34/teddy-bear-1201749_1280.jpg"
    },
    {
        "id": "5289452",
        "src640": "https://cdn.pixabay.com/photo/2020/06/12/07/14/jul-5289452_640.jpg",
        "src1280": "https://cdn.pixabay.com/photo/2020/06/12/07/14/jul-5289452_1280.jpg"
    },
    {
        "id": "3828168",
        "src640": "https://cdn.pixabay.com/photo/2018/11/20/19/58/glamour-3828168_640.jpg",
        "src1280": "https://cdn.pixabay.com/photo/2018/11/20/19/58/glamour-3828168_1280.jpg"
    },
    {
        "id": "4728041",
        "src640": "https://cdn.pixabay.com/photo/2019/12/29/20/06/winter-4728041_640.jpg",
        "src1280": "https://cdn.pixabay.com/photo/2019/12/29/20/06/winter-4728041_1280.jpg"
    },
    {
        "id": "6913155",
        "src640": "https://cdn.pixabay.com/photo/2022/01/03/17/01/tree-6913155_640.jpg",
        "src1280": "https://cdn.pixabay.com/photo/2022/01/03/17/01/tree-6913155_1280.jpg"
    },
    {
        "id": "4725004",
        "src640": "https://cdn.pixabay.com/photo/2019/12/28/15/51/christmas-woman-4725004_640.jpg",
        "src1280": "https://cdn.pixabay.com/photo/2019/12/28/15/51/christmas-woman-4725004_1280.jpg"
    },
    {
        "id": "2454580",
        "src640": "https://cdn.pixabay.com/photo/2017/06/29/15/39/light-2454580_640.jpg",
        "src1280": "https://cdn.pixabay.com/photo/2017/06/29/15/39/light-2454580_1280.jpg"
    },
    {
        "id": "4669753",
        "src640": "https://cdn.pixabay.com/photo/2019/12/03/11/01/leaves-4669753_640.jpg",
        "src1280": "https://cdn.pixabay.com/photo/2019/12/03/11/01/leaves-4669753_1280.jpg"
    },
    {
        "id": "5055100",
        "src640": "https://cdn.pixabay.com/photo/2020/04/17/12/58/city-5055100_640.jpg",
        "src1280": "https://cdn.pixabay.com/photo/2020/04/17/12/58/city-5055100_1280.jpg"
    },
    {
        "id": "2587088",
        "src640": "https://cdn.pixabay.com/photo/2017/08/06/00/30/snow-2587088_640.jpg",
        "src1280": "https://cdn.pixabay.com/photo/2017/08/06/00/30/snow-2587088_1280.jpg"
    },
    {
        "id": "5917887",
        "src640": "https://cdn.pixabay.com/photo/2021/01/14/20/41/leaves-5917887_640.jpg",
        "src1280": "https://cdn.pixabay.com/photo/2021/01/14/20/41/leaves-5917887_1280.jpg"
    },
    {
        "id": "5937406",
        "src640": "https://cdn.pixabay.com/photo/2021/01/21/13/12/flower-5937406_640.jpg",
        "src1280": "https://cdn.pixabay.com/photo/2021/01/21/13/12/flower-5937406_1280.jpg"
    },
    {
        "id": "5691789",
        "src640": "https://cdn.pixabay.com/photo/2020/10/27/20/16/winter-5691789_640.jpg",
        "src1280": "https://cdn.pixabay.com/photo/2020/10/27/20/16/winter-5691789_1280.jpg"
    },
    {
        "id": "5022628",
        "src640": "https://cdn.pixabay.com/photo/2020/04/09/18/33/forest-5022628_640.jpg",
        "src1280": "https://cdn.pixabay.com/photo/2020/04/09/18/33/forest-5022628_1280.jpg"
    },
    {
        "id": "5607474",
        "src640": "https://cdn.pixabay.com/photo/2020/09/27/18/27/winter-5607474_640.jpg",
        "src1280": "https://cdn.pixabay.com/photo/2020/09/27/18/27/winter-5607474_1280.jpg"
    },
    {
        "id": "819229",
        "src640": "https://cdn.pixabay.com/photo/2015/06/23/22/22/fruit-819229_640.jpg",
        "src1280": "https://cdn.pixabay.com/photo/2015/06/23/22/22/fruit-819229_1280.jpg"
    },
    {
        "id": "5898594",
        "src640": "https://cdn.pixabay.com/photo/2021/01/07/22/44/plants-5898594_640.jpg",
        "src1280": "https://cdn.pixabay.com/photo/2021/01/07/22/44/plants-5898594_1280.jpg"
    },
    {
        "id": "4731465",
        "src640": "https://cdn.pixabay.com/photo/2019/12/31/08/39/sledding-4731465_640.jpg",
        "src1280": "https://cdn.pixabay.com/photo/2019/12/31/08/39/sledding-4731465_1280.jpg"
    },
    {
        "id": "634996",
        "src640": "https://cdn.pixabay.com/photo/2015/02/13/11/16/bud-634996_640.jpg",
        "src1280": "https://cdn.pixabay.com/photo/2015/02/13/11/16/bud-634996_1280.jpg"
    },
    {
        "id": "5898596",
        "src640": "https://cdn.pixabay.com/photo/2021/01/07/22/44/plants-5898596_640.jpg",
        "src1280": "https://cdn.pixabay.com/photo/2021/01/07/22/44/plants-5898596_1280.jpg"
    },
    {
        "id": "6874722",
        "src640": "https://cdn.pixabay.com/photo/2021/12/16/15/30/cedar-6874722_640.jpg",
        "src1280": "https://cdn.pixabay.com/photo/2021/12/16/15/30/cedar-6874722_1280.jpg"
    },
    {
        "id": "2552024",
        "src640": "https://cdn.pixabay.com/photo/2017/07/29/16/43/dock-2552024_640.jpg",
        "src1280": "https://cdn.pixabay.com/photo/2017/07/29/16/43/dock-2552024_1280.jpg"
    },
    {
        "id": "205206",
        "src640": "https://cdn.pixabay.com/photo/2013/11/04/09/38/snow-205206_640.jpg",
        "src1280": "https://cdn.pixabay.com/photo/2013/11/04/09/38/snow-205206_1280.jpg"
    },
    {
        "id": "6942975",
        "src640": "https://cdn.pixabay.com/photo/2022/01/16/19/25/skier-6942975_640.jpg",
        "src1280": "https://cdn.pixabay.com/photo/2022/01/16/19/25/skier-6942975_1280.jpg"
    },
    {
        "id": "6997085",
        "src640": "https://cdn.pixabay.com/photo/2022/02/06/13/27/mountains-6997085_640.jpg",
        "src1280": "https://cdn.pixabay.com/photo/2022/02/06/13/27/mountains-6997085_1280.jpg"
    },
    {
        "id": "4514900",
        "src640": "https://cdn.pixabay.com/photo/2019/09/30/06/04/fashion-4514900_640.jpg",
        "src1280": "https://cdn.pixabay.com/photo/2019/09/30/06/04/fashion-4514900_1280.jpg"
    },
    {
        "id": "4761712",
        "src640": "https://cdn.pixabay.com/photo/2020/01/13/05/44/tree-4761712_640.jpg",
        "src1280": "https://cdn.pixabay.com/photo/2020/01/13/05/44/tree-4761712_1280.jpg"
    },
    {
        "id": "6919594",
        "src640": "https://cdn.pixabay.com/photo/2022/01/06/14/24/pine-6919594_640.jpg",
        "src1280": "https://cdn.pixabay.com/photo/2022/01/06/14/24/pine-6919594_1280.jpg"
    },
    {
        "id": "1971892",
        "src640": "https://cdn.pixabay.com/photo/2017/01/11/14/22/winter-1971892_640.jpg",
        "src1280": "https://cdn.pixabay.com/photo/2017/01/11/14/22/winter-1971892_1280.jpg"
    },
    {
        "id": "6945666",
        "src640": "https://cdn.pixabay.com/photo/2022/01/17/19/52/boat-6945666_640.jpg",
        "src1280": "https://cdn.pixabay.com/photo/2022/01/17/19/52/boat-6945666_1280.jpg"
    },
    {
        "id": "4725014",
        "src640": "https://cdn.pixabay.com/photo/2019/12/28/15/52/christmas-woman-4725014_640.jpg",
        "src1280": "https://cdn.pixabay.com/photo/2019/12/28/15/52/christmas-woman-4725014_1280.jpg"
    },
    {
        "id": "2785465",
        "src640": "https://cdn.pixabay.com/photo/2017/09/25/15/20/volcano-2785465_640.jpg",
        "src1280": "https://cdn.pixabay.com/photo/2017/09/25/15/20/volcano-2785465_1280.jpg"
    },
    {
        "id": "4743616",
        "src640": "https://cdn.pixabay.com/photo/2020/01/05/17/09/winter-4743616_640.jpg",
        "src1280": "https://cdn.pixabay.com/photo/2020/01/05/17/09/winter-4743616_1280.jpg"
    },
    {
        "id": "3847209",
        "src640": "https://cdn.pixabay.com/photo/2018/11/30/07/51/woman-3847209_640.jpg",
        "src1280": "https://cdn.pixabay.com/photo/2018/11/30/07/51/woman-3847209_1280.jpg"
    },
    {
        "id": "7092224",
        "src640": "https://cdn.pixabay.com/photo/2022/03/26/05/12/winter-7092224_640.jpg",
        "src1280": "https://cdn.pixabay.com/photo/2022/03/26/05/12/winter-7092224_1280.jpg"
    },
    {
        "id": "3363243",
        "src640": "https://cdn.pixabay.com/photo/2018/04/30/16/51/nature-3363243_640.jpg",
        "src1280": "https://cdn.pixabay.com/photo/2018/04/30/16/51/nature-3363243_1280.jpg"
    },
    {
        "id": "5905802",
        "src640": "https://cdn.pixabay.com/photo/2021/01/10/17/30/road-5905802_640.jpg",
        "src1280": "https://cdn.pixabay.com/photo/2021/01/10/17/30/road-5905802_1280.jpg"
    },
    {
        "id": "6976230",
        "src640": "https://cdn.pixabay.com/photo/2022/01/29/02/44/cat-6976230_640.jpg",
        "src1280": "https://cdn.pixabay.com/photo/2022/01/29/02/44/cat-6976230_1280.jpg"
    },
    {
        "id": "2594013",
        "src640": "https://cdn.pixabay.com/photo/2017/08/06/16/42/snow-2594013_640.jpg",
        "src1280": "https://cdn.pixabay.com/photo/2017/08/06/16/42/snow-2594013_1280.jpg"
    },
    {
        "id": "5387413",
        "src640": "https://cdn.pixabay.com/photo/2020/07/09/13/50/asia-5387413_640.jpg",
        "src1280": "https://cdn.pixabay.com/photo/2020/07/09/13/50/asia-5387413_1280.jpg"
    },
    {
        "id": "6002887",
        "src640": "https://cdn.pixabay.com/photo/2021/02/10/17/24/bicycle-6002887_640.jpg",
        "src1280": "https://cdn.pixabay.com/photo/2021/02/10/17/24/bicycle-6002887_1280.jpg"
    },
    {
        "id": "5390569",
        "src640": "https://cdn.pixabay.com/photo/2020/07/10/12/40/ice-5390569_640.jpg",
        "src1280": "https://cdn.pixabay.com/photo/2020/07/10/12/40/ice-5390569_1280.jpg"
    },
    {
        "id": "6968801",
        "src640": "https://cdn.pixabay.com/photo/2022/01/26/12/47/winter-6968801_640.jpg",
        "src1280": "https://cdn.pixabay.com/photo/2022/01/26/12/47/winter-6968801_1280.jpg"
    },
    {
        "id": "5900890",
        "src640": "https://cdn.pixabay.com/photo/2021/01/08/21/33/alton-water-5900890_640.jpg",
        "src1280": "https://cdn.pixabay.com/photo/2021/01/08/21/33/alton-water-5900890_1280.jpg"
    },
    {
        "id": "4446578",
        "src640": "https://cdn.pixabay.com/photo/2019/09/02/05/51/fashion-4446578_640.jpg",
        "src1280": "https://cdn.pixabay.com/photo/2019/09/02/05/51/fashion-4446578_1280.jpg"
    },
    {
        "id": "1801052",
        "src640": "https://cdn.pixabay.com/photo/2016/11/05/19/35/snow-1801052_640.jpg",
        "src1280": "https://cdn.pixabay.com/photo/2016/11/05/19/35/snow-1801052_1280.jpg"
    },
    {
        "id": "4745420",
        "src640": "https://cdn.pixabay.com/photo/2020/01/06/13/53/architecture-4745420_640.jpg",
        "src1280": "https://cdn.pixabay.com/photo/2020/01/06/13/53/architecture-4745420_1280.jpg"
    },
    {
        "id": "6878740",
        "src640": "https://cdn.pixabay.com/photo/2021/12/18/13/21/girl-6878740_640.jpg",
        "src1280": "https://cdn.pixabay.com/photo/2021/12/18/13/21/girl-6878740_1280.jpg"
    },
    {
        "id": "7738097",
        "src640": "https://cdn.pixabay.com/photo/2023/01/23/08/33/man-7738097_640.jpg",
        "src1280": "https://cdn.pixabay.com/photo/2023/01/23/08/33/man-7738097_1280.jpg"
    },
    {
        "id": "4599330",
        "src640": "https://cdn.pixabay.com/photo/2019/11/03/18/14/ski-4599330_640.jpg",
        "src1280": "https://cdn.pixabay.com/photo/2019/11/03/18/14/ski-4599330_1280.jpg"
    },
    {
        "id": "4792222",
        "src640": "https://cdn.pixabay.com/photo/2020/01/25/11/05/woman-4792222_640.jpg",
        "src1280": "https://cdn.pixabay.com/photo/2020/01/25/11/05/woman-4792222_1280.jpg"
    },
    {
        "id": "16322",
        "src640": "https://cdn.pixabay.com/photo/2012/02/23/20/47/snowfall-16322_640.jpg",
        "src1280": "https://cdn.pixabay.com/photo/2012/02/23/20/47/snowfall-16322_1280.jpg"
    },
    {
        "id": "5339810",
        "src640": "https://cdn.pixabay.com/photo/2020/06/25/14/10/aspen-5339810_640.jpg",
        "src1280": "https://cdn.pixabay.com/photo/2020/06/25/14/10/aspen-5339810_1280.jpg"
    },
    {
        "id": "4725007",
        "src640": "https://cdn.pixabay.com/photo/2019/12/28/15/52/christmas-woman-4725007_640.jpg",
        "src1280": "https://cdn.pixabay.com/photo/2019/12/28/15/52/christmas-woman-4725007_1280.jpg"
    },
    {
        "id": "4866005",
        "src640": "https://cdn.pixabay.com/photo/2020/02/20/21/51/winter-4866005_640.jpg",
        "src1280": "https://cdn.pixabay.com/photo/2020/02/20/21/51/winter-4866005_1280.jpg"
    },
    {
        "id": "7005506",
        "src640": "https://cdn.pixabay.com/photo/2022/02/10/15/18/winter-7005506_640.jpg",
        "src1280": "https://cdn.pixabay.com/photo/2022/02/10/15/18/winter-7005506_1280.jpg"
    },
    {
        "id": "4685258",
        "src640": "https://cdn.pixabay.com/photo/2019/12/10/07/39/prague-4685258_640.jpg",
        "src1280": "https://cdn.pixabay.com/photo/2019/12/10/07/39/prague-4685258_1280.jpg"
    },
    {
        "id": "5999781",
        "src640": "https://cdn.pixabay.com/photo/2021/02/09/19/55/tree-5999781_640.jpg",
        "src1280": "https://cdn.pixabay.com/photo/2021/02/09/19/55/tree-5999781_1280.jpg"
    },
    {
        "id": "4728044",
        "src640": "https://cdn.pixabay.com/photo/2019/12/29/20/06/winter-4728044_640.jpg",
        "src1280": "https://cdn.pixabay.com/photo/2019/12/29/20/06/winter-4728044_1280.jpg"
    },
    {
        "id": "5029757",
        "src640": "https://cdn.pixabay.com/photo/2020/04/11/10/10/winter-jasmine-5029757_640.jpg",
        "src1280": "https://cdn.pixabay.com/photo/2020/04/11/10/10/winter-jasmine-5029757_1280.jpg"
    }
]