[
    {
        "id": "7011761",
        "src640": "https://cdn.pixabay.com/photo/2022/02/13/18/18/firetruck-7011761_640.jpg",
        "src1280": "https://cdn.pixabay.com/photo/2022/02/13/18/18/firetruck-7011761_1280.jpg"
    },
    {
        "id": "5907900",
        "src640": "https://cdn.pixabay.com/photo/2021/01/11/10/50/woods-5907900_640.jpg",
        "src1280": "https://cdn.pixabay.com/photo/2021/01/11/10/50/woods-5907900_1280.jpg"
    },
    {
        "id": "4685138",
        "src640": "https://cdn.pixabay.com/photo/2019/12/10/06/33/winter-4685138_640.jpg",
        "src1280": "https://cdn.pixabay.com/photo/2019/12/10/06/33/winter-4685138_1280.jpg"
    },
    {
        "id": "6995675",
        "src640": "https://cdn.pixabay.com/photo/2022/02/05/20/06/ground-6995675_640.jpg",
        "src1280": "https://cdn.pixabay.com/photo/2022/02/05/20/06/ground-6995675_1280.jpg"
    },
    {
        "id": "2591776",
        "src640": "https://cdn.pixabay.com/photo/2017/08/06/11/52/snow-2591776_640.jpg",
        "src1280": "https://cdn.pixabay.com/photo/2017/08/06/11/52/snow-2591776_1280.jpg"
    },
    {
        "id": "7683610",
        "src640": "https://cdn.pixabay.com/photo/2022/12/28/18/54/auto-7683610_640.jpg",
        "src1280": "https://cdn.pixabay.com/photo/2022/12/28/18/54/auto-7683610_1280.jpg"
    },
    {
        "id": "6999076",
        "src640": "https://cdn.pixabay.com/photo/2022/02/07/10/29/river-6999076_640.jpg",
        "src1280": "https://cdn.pixabay.com/photo/2022/02/07/10/29/river-6999076_1280.jpg"
    },
    {
        "id": "4756589",
        "src640": "https://cdn.pixabay.com/photo/2020/01/11/03/52/dandelion-4756589_640.jpg",
        "src1280": "https://cdn.pixabay.com/photo/2020/01/11/03/52/dandelion-4756589_1280.jpg"
    },
    {
        "id": "2599072",
        "src640": "https://cdn.pixabay.com/photo/2017/08/07/03/00/mountain-2599072_640.jpg",
        "src1280": "https://cdn.pixabay.com/photo/2017/08/07/03/00/mountain-2599072_1280.jpg"
    },
    {
        "id": "7666855",
        "src640": "https://cdn.pixabay.com/photo/2022/12/20/00/32/reindeer-7666855_640.jpg",
        "src1280": "https://cdn.pixabay.com/photo/2022/12/20/00/32/reindeer-7666855_1280.jpg"
    },
    {
        "id": "4444522",
        "src640": "https://cdn.pixabay.com/photo/2019/09/01/07/46/dog-4444522_640.jpg",
        "src1280": "https://cdn.pixabay.com/photo/2019/09/01/07/46/dog-4444522_1280.jpg"
    },
    {
        "id": "7357851",
        "src640": "https://cdn.pixabay.com/photo/2022/08/01/10/23/winter-7357851_640.jpg",
        "src1280": "https://cdn.pixabay.com/photo/2022/08/01/10/23/winter-7357851_1280.jpg"
    },
    {
        "id": "5918909",
        "src640": "https://cdn.pixabay.com/photo/2021/01/15/09/52/ice-5918909_640.jpg",
        "src1280": "https://cdn.pixabay.com/photo/2021/01/15/09/52/ice-5918909_1280.jpg"
    },
    {
        "id": "4879767",
        "src640": "https://cdn.pixabay.com/photo/2020/02/25/19/07/forest-4879767_640.jpg",
        "src1280": "https://cdn.pixabay.com/photo/2020/02/25/19/07/forest-4879767_1280.jpg"
    },
    {
        "id": "5967424",
        "src640": "https://cdn.pixabay.com/photo/2021/01/31/15/13/ice-5967424_640.jpg",
        "src1280": "https://cdn.pixabay.com/photo/2021/01/31/15/13/ice-5967424_1280.jpg"
    },
    {
        "id": "250672",
        "src640": "https://cdn.pixabay.com/photo/2014/01/23/19/43/fire-hydrant-250672_640.jpg",
        "src1280": "https://cdn.pixabay.com/photo/2014/01/23/19/43/fire-hydrant-250672_1280.jpg"
    },
    {
        "id": "7036031",
        "src640": "https://cdn.pixabay.com/photo/2022/02/26/16/56/church-7036031_640.jpg",
        "src1280": "https://cdn.pixabay.com/photo/2022/02/26/16/56/church-7036031_1280.jpg"
    },
    {
        "id": "6891071",
        "src640": "https://cdn.pixabay.com/photo/2021/12/24/13/06/forest-6891071_640.jpg",
        "src1280": "https://cdn.pixabay.com/photo/2021/12/24/13/06/forest-6891071_1280.jpg"
    },
    {
        "id": "5475313",
        "src640": "https://cdn.pixabay.com/photo/2020/08/09/11/45/tree-5475313_640.jpg",
        "src1280": "https://cdn.pixabay.com/photo/2020/08/09/11/45/tree-5475313_1280.jpg"
    },
    {
        "id": "6897320",
        "src640": "https://cdn.pixabay.com/photo/2021/12/27/14/33/animals-6897320_640.jpg",
        "src1280": "https://cdn.pixabay.com/photo/2021/12/27/14/33/animals-6897320_1280.jpg"
    },
    {
        "id": "5691784",
        "src640": "https://cdn.pixabay.com/photo/2020/10/27/20/16/winter-5691784_640.jpg",
        "src1280": "https://cdn.pixabay.com/photo/2020/10/27/20/16/winter-5691784_1280.jpg"
    },
    {
        "id": "221065",
        "src640": "https://cdn.pixabay.com/photo/2013/11/29/10/48/tit-rings-221065_640.jpg",
        "src1280": "https://cdn.pixabay.com/photo/2013/11/29/10/48/tit-rings-221065_1280.jpg"
    },
    {
        "id": "946636",
        "src640": "https://cdn.pixabay.com/photo/2015/09/19/00/08/lariat-rope-946636_640.jpg",
        "src1280": "https://cdn.pixabay.com/photo/2015/09/19/00/08/lariat-rope-946636_1280.jpg"
    },
    {
        "id": "4768706",
        "src640": "https://cdn.pixabay.com/photo/2020/01/15/19/18/winter-4768706_640.jpg",
        "src1280": "https://cdn.pixabay.com/photo/2020/01/15/19/18/winter-4768706_1280.jpg"
    },
    {
        "id": "84886",
        "src640": "https://cdn.pixabay.com/photo/2013/02/22/09/17/lampion-84886_640.jpg",
        "src1280": "https://cdn.pixabay.com/photo/2013/02/22/09/17/lampion-84886_1280.jpg"
    },
    {
        "id": "4867600",
        "src640": "https://cdn.pixabay.com/photo/2020/02/21/13/57/bike-4867600_640.jpg",
        "src1280": "https://cdn.pixabay.com/photo/2020/02/21/13/57/bike-4867600_1280.jpg"
    },
    {
        "id": "16355",
        "src640": "https://cdn.pixabay.com/photo/2012/02/23/21/24/ice-16355_640.jpg",
        "src1280": "https://cdn.pixabay.com/photo/2012/02/23/21/24/ice-16355_1280.jpg"
    },
    {
        "id": "2583318",
        "src640": "https://cdn.pixabay.com/photo/2017/08/05/12/49/mountain-2583318_640.jpg",
        "src1280": "https://cdn.pixabay.com/photo/2017/08/05/12/49/mountain-2583318_1280.jpg"
    },
    {
        "id": "6920124",
        "src640": "https://cdn.pixabay.com/photo/2022/01/06/19/02/rose-hips-6920124_640.jpg",
        "src1280": "https://cdn.pixabay.com/photo/2022/01/06/19/02/rose-hips-6920124_1280.jpg"
    },
    {
        "id": "7751127",
        "src640": "https://cdn.pixabay.com/photo/2023/01/28/14/45/tree-7751127_640.jpg",
        "src1280": "https://cdn.pixabay.com/photo/2023/01/28/14/45/tree-7751127_1280.jpg"
    },
    {
        "id": "2566734",
        "src640": "https://cdn.pixabay.com/photo/2017/08/01/17/10/mountain-2566734_640.jpg",
        "src1280": "https://cdn.pixabay.com/photo/2017/08/01/17/10/mountain-2566734_1280.jpg"
    },
    {
        "id": "6891072",
        "src640": "https://cdn.pixabay.com/photo/2021/12/24/13/06/spruce-6891072_640.jpg",
        "src1280": "https://cdn.pixabay.com/photo/2021/12/24/13/06/spruce-6891072_1280.jpg"
    },
    {
        "id": "6963298",
        "src640": "https://cdn.pixabay.com/photo/2022/01/24/12/15/snow-6963298_640.jpg",
        "src1280": "https://cdn.pixabay.com/photo/2022/01/24/12/15/snow-6963298_1280.jpg"
    },
    {
        "id": "976013",
        "src640": "https://cdn.pixabay.com/photo/2015/10/07/11/14/ski-976013_640.jpg",
        "src1280": "https://cdn.pixabay.com/photo/2015/10/07/11/14/ski-976013_1280.jpg"
    },
    {
        "id": "3047985",
        "src640": "https://cdn.pixabay.com/photo/2017/12/29/16/30/snow-3047985_640.jpg",
        "src1280": "https://cdn.pixabay.com/photo/2017/12/29/16/30/snow-3047985_1280.jpg"
    },
    {
        "id": "5043325",
        "src640": "https://cdn.pixabay.com/photo/2020/04/14/16/10/saint-petersburg-5043325_640.jpg",
        "src1280": "https://cdn.pixabay.com/photo/2020/04/14/16/10/saint-petersburg-5043325_1280.jpg"
    },
    {
        "id": "4953495",
        "src640": "https://cdn.pixabay.com/photo/2020/03/21/11/22/plum-4953495_640.jpg",
        "src1280": "https://cdn.pixabay.com/photo/2020/03/21/11/22/plum-4953495_1280.jpg"
    },
    {
        "id": "6699151",
        "src640": "https://cdn.pixabay.com/photo/2021/10/11/02/38/mountains-6699151_640.jpg",
        "src1280": "https://cdn.pixabay.com/photo/2021/10/11/02/38/mountains-6699151_1280.jpg"
    },
    {
        "id": "3144848",
        "src640": "https://cdn.pixabay.com/photo/2018/02/10/23/59/water-3144848_640.jpg",
        "src1280": "https://cdn.pixabay.com/photo/2018/02/10/23/59/water-3144848_1280.jpg"
    },
    {
        "id": "7671547",
        "src640": "https://cdn.pixabay.com/photo/2022/12/22/06/06/boots-7671547_640.jpg",
        "src1280": "https://cdn.pixabay.com/photo/2022/12/22/06/06/boots-7671547_1280.jpg"
    },
    {
        "id": "5830587",
        "src640": "https://cdn.pixabay.com/photo/2020/12/14/10/40/power-line-5830587_640.jpg",
        "src1280": "https://cdn.pixabay.com/photo/2020/12/14/10/40/power-line-5830587_1280.jpg"
    },
    {
        "id": "7666424",
        "src640": "https://cdn.pixabay.com/photo/2022/12/19/19/37/winter-7666424_640.jpg",
        "src1280": "https://cdn.pixabay.com/photo/2022/12/19/19/37/winter-7666424_1280.jpg"
    },
    {
        "id": "4725012",
        "src640": "https://cdn.pixabay.com/photo/2019/12/28/15/52/christmas-woman-4725012_640.jpg",
        "src1280": "https://cdn.pixabay.com/photo/2019/12/28/15/52/christmas-woman-4725012_1280.jpg"
    },
    {
        "id": "167377",
        "src640": "https://cdn.pixabay.com/photo/2013/07/26/04/13/fat-balls-167377_640.jpg",
        "src1280": "https://cdn.pixabay.com/photo/2013/07/26/04/13/fat-balls-167377_1280.jpg"
    },
    {
        "id": "16356",
        "src640": "https://cdn.pixabay.com/photo/2012/02/23/21/25/ice-16356_640.jpg",
        "src1280": "https://cdn.pixabay.com/photo/2012/02/23/21/25/ice-16356_1280.jpg"
    },
    {
        "id": "4763004",
        "src640": "https://cdn.pixabay.com/photo/2020/01/13/17/11/winter-4763004_640.jpg",
        "src1280": "https://cdn.pixabay.com/photo/2020/01/13/17/11/winter-4763004_1280.jpg"
    },
    {
        "id": "2158674",
        "src640": "https://cdn.pixabay.com/photo/2017/03/20/10/17/icicle-2158674_640.jpg",
        "src1280": "https://cdn.pixabay.com/photo/2017/03/20/10/17/icicle-2158674_1280.jpg"
    },
    {
        "id": "2261095",
        "src640": "https://cdn.pixabay.com/photo/2017/04/25/22/59/skiing-2261095_640.jpg",
        "src1280": "https://cdn.pixabay.com/photo/2017/04/25/22/59/skiing-2261095_1280.jpg"
    },
    {
        "id": "4835684",
        "src640": "https://cdn.pixabay.com/photo/2020/02/10/08/15/frost-4835684_640.jpg",
        "src1280": "https://cdn.pixabay.com/photo/2020/02/10/08/15/frost-4835684_1280.jpg"
    },
    {
        "id": "779849",
        "src640": "https://cdn.pixabay.com/photo/2015/05/22/21/22/tree-779849_640.jpg",
        "src1280": "https://cdn.pixabay.com/photo/2015/05/22/21/22/tree-779849_1280.jpg"
    },
    {
        "id": "6811556",
        "src640": "https://cdn.pixabay.com/photo/2021/11/20/11/14/snow-6811556_640.jpg",
        "src1280": "https://cdn.pixabay.com/photo/2021/11/20/11/14/snow-6811556_1280.jpg"
    },
    {
        "id": "2978996",
        "src640": "https://cdn.pixabay.com/photo/2017/11/26/14/40/winter-2978996_640.jpg",
        "src1280": "https://cdn.pixabay.com/photo/2017/11/26/14/40/winter-2978996_1280.jpg"
    },
    {
        "id": "6919810",
        "src640": "https://cdn.pixabay.com/photo/2022/01/06/16/32/mountains-6919810_640.jpg",
        "src1280": "https://cdn.pixabay.com/photo/2022/01/06/16/32/mountains-6919810_1280.jpg"
    },
    {
        "id": "6745240",
        "src640": "https://cdn.pixabay.com/photo/2021/10/26/22/13/park-6745240_640.jpg",
        "src1280": "https://cdn.pixabay.com/photo/2021/10/26/22/13/park-6745240_1280.jpg"
    },
    {
        "id": "6839135",
        "src640": "https://cdn.pixabay.com/photo/2021/12/01/21/06/winter-6839135_640.jpg",
        "src1280": "https://cdn.pixabay.com/photo/2021/12/01/21/06/winter-6839135_1280.jpg"
    },
    {
        "id": "2590869",
        "src640": "https://cdn.pixabay.com/photo/2017/08/06/10/01/snow-2590869_640.jpg",
        "src1280": "https://cdn.pixabay.com/photo/2017/08/06/10/01/snow-2590869_1280.jpg"
    },
    {
        "id": "6955511",
        "src640": "https://cdn.pixabay.com/photo/2022/01/21/19/04/hunters-stand-6955511_640.jpg",
        "src1280": "https://cdn.pixabay.com/photo/2022/01/21/19/04/hunters-stand-6955511_1280.jpg"
    },
    {
        "id": "7864657",
        "src640": "https://cdn.pixabay.com/photo/2023/03/20/12/48/dog-7864657_640.jpg",
        "src1280": "https://cdn.pixabay.com/photo/2023/03/20/12/48/dog-7864657_1280.jpg"
    },
    {
        "id": "7787849",
        "src640": "https://cdn.pixabay.com/photo/2023/02/13/17/29/street-7787849_640.jpg",
        "src1280": "https://cdn.pixabay.com/photo/2023/02/13/17/29/street-7787849_1280.jpg"
    },
    {
        "id": "996301",
        "src640": "https://cdn.pixabay.com/photo/2015/10/19/16/24/hare-996301_640.jpg",
        "src1280": "https://cdn.pixabay.com/photo/2015/10/19/16/24/hare-996301_1280.jpg"
    },
    {
        "id": "7363089",
        "src640": "https://cdn.pixabay.com/photo/2022/08/03/17/21/snow-7363089_640.jpg",
        "src1280": "https://cdn.pixabay.com/photo/2022/08/03/17/21/snow-7363089_1280.jpg"
    },
    {
        "id": "4713180",
        "src640": "https://cdn.pixabay.com/photo/2019/12/22/19/15/christmas-4713180_640.jpg",
        "src1280": "https://cdn.pixabay.com/photo/2019/12/22/19/15/christmas-4713180_1280.jpg"
    },
    {
        "id": "7664166",
        "src640": "https://cdn.pixabay.com/photo/2022/12/18/20/07/leaves-7664166_640.jpg",
        "src1280": "https://cdn.pixabay.com/photo/2022/12/18/20/07/leaves-7664166_1280.jpg"
    },
    {
        "id": "7545064",
        "src640": "https://cdn.pixabay.com/photo/2022/10/25/07/11/greenland-7545064_640.jpg",
        "src1280": "https://cdn.pixabay.com/photo/2022/10/25/07/11/greenland-7545064_1280.jpg"
    },
    {
        "id": "7665102",
        "src640": "https://cdn.pixabay.com/photo/2022/12/19/09/57/tree-7665102_640.jpg",
        "src1280": "https://cdn.pixabay.com/photo/2022/12/19/09/57/tree-7665102_1280.jpg"
    },
    {
        "id": "4446579",
        "src640": "https://cdn.pixabay.com/photo/2019/09/02/05/51/fashion-4446579_640.jpg",
        "src1280": "https://cdn.pixabay.com/photo/2019/09/02/05/51/fashion-4446579_1280.jpg"
    },
    {
        "id": "4979774",
        "src640": "https://cdn.pixabay.com/photo/2020/03/29/08/29/winter-4979774_640.jpg",
        "src1280": "https://cdn.pixabay.com/photo/2020/03/29/08/29/winter-4979774_1280.jpg"
    },
    {
        "id": "2944186",
        "src640": "https://cdn.pixabay.com/photo/2017/11/12/23/34/ice-storm-2944186_640.jpg",
        "src1280": "https://cdn.pixabay.com/photo/2017/11/12/23/34/ice-storm-2944186_1280.jpg"
    },
    {
        "id": "3000038",
        "src640": "https://cdn.pixabay.com/photo/2017/12/05/18/42/castle-mountain-3000038_640.jpg",
        "src1280": "https://cdn.pixabay.com/photo/2017/12/05/18/42/castle-mountain-3000038_1280.jpg"
    },
    {
        "id": "2938273",
        "src640": "https://cdn.pixabay.com/photo/2017/11/11/03/16/children-2938273_640.jpg",
        "src1280": "https://cdn.pixabay.com/photo/2017/11/11/03/16/children-2938273_1280.jpg"
    },
    {
        "id": "4782323",
        "src640": "https://cdn.pixabay.com/photo/2020/01/21/08/12/winter-4782323_640.jpg",
        "src1280": "https://cdn.pixabay.com/photo/2020/01/21/08/12/winter-4782323_1280.jpg"
    },
    {
        "id": "6891070",
        "src640": "https://cdn.pixabay.com/photo/2021/12/24/13/06/trees-6891070_640.jpg",
        "src1280": "https://cdn.pixabay.com/photo/2021/12/24/13/06/trees-6891070_1280.jpg"
    },
    {
        "id": "6988885",
        "src640": "https://cdn.pixabay.com/photo/2022/02/02/16/38/trees-6988885_640.jpg",
        "src1280": "https://cdn.pixabay.com/photo/2022/02/02/16/38/trees-6988885_1280.jpg"
    },
    {
        "id": "1206466",
        "src640": "https://cdn.pixabay.com/photo/2016/02/18/02/57/frost-1206466_640.jpg",
        "src1280": "https://cdn.pixabay.com/photo/2016/02/18/02/57/frost-1206466_1280.jpg"
    },
    {
        "id": "6971621",
        "src640": "https://cdn.pixabay.com/photo/2022/01/27/08/48/snow-6971621_640.jpg",
        "src1280": "https://cdn.pixabay.com/photo/2022/01/27/08/48/snow-6971621_1280.jpg"
    },
    {
        "id": "2677351",
        "src640": "https://cdn.pixabay.com/photo/2017/08/24/16/02/sky-2677351_640.jpg",
        "src1280": "https://cdn.pixabay.com/photo/2017/08/24/16/02/sky-2677351_1280.jpg"
    },
    {
        "id": "6855838",
        "src640": "https://cdn.pixabay.com/photo/2021/12/08/14/34/bird-6855838_640.jpg",
        "src1280": "https://cdn.pixabay.com/photo/2021/12/08/14/34/bird-6855838_1280.jpg"
    },
    {
        "id": "2692186",
        "src640": "https://cdn.pixabay.com/photo/2017/08/29/05/35/winter-2692186_640.jpg",
        "src1280": "https://cdn.pixabay.com/photo/2017/08/29/05/35/winter-2692186_1280.jpg"
    },
    {
        "id": "4674891",
        "src640": "https://cdn.pixabay.com/photo/2019/12/05/11/30/frost-4674891_640.jpg",
        "src1280": "https://cdn.pixabay.com/photo/2019/12/05/11/30/frost-4674891_1280.jpg"
    },
    {
        "id": "4792221",
        "src640": "https://cdn.pixabay.com/photo/2020/01/25/11/05/woman-4792221_640.jpg",
        "src1280": "https://cdn.pixabay.com/photo/2020/01/25/11/05/woman-4792221_1280.jpg"
    },
    {
        "id": "2260983",
        "src640": "https://cdn.pixabay.com/photo/2017/04/25/22/17/snow-2260983_640.jpg",
        "src1280": "https://cdn.pixabay.com/photo/2017/04/25/22/17/snow-2260983_1280.jpg"
    },
    {
        "id": "4940172",
        "src640": "https://cdn.pixabay.com/photo/2020/03/17/12/22/winter-4940172_640.jpg",
        "src1280": "https://cdn.pixabay.com/photo/2020/03/17/12/22/winter-4940172_1280.jpg"
    },
    {
        "id": "4713163",
        "src640": "https://cdn.pixabay.com/photo/2019/12/22/19/12/christmas-4713163_640.jpg",
        "src1280": "https://cdn.pixabay.com/photo/2019/12/22/19/12/christmas-4713163_1280.jpg"
    },
    {
        "id": "4645823",
        "src640": "https://cdn.pixabay.com/photo/2019/11/22/21/35/frost-4645823_640.jpg",
        "src1280": "https://cdn.pixabay.com/photo/2019/11/22/21/35/frost-4645823_1280.jpg"
    },
    {
        "id": "3095738",
        "src640": "https://cdn.pixabay.com/photo/2018/01/21/02/06/tree-3095738_640.jpg",
        "src1280": "https://cdn.pixabay.com/photo/2018/01/21/02/06/tree-3095738_1280.jpg"
    },
    {
        "id": "2765829",
        "src640": "https://cdn.pixabay.com/photo/2017/09/19/16/49/gorge-2765829_640.jpg",
        "src1280": "https://cdn.pixabay.com/photo/2017/09/19/16/49/gorge-2765829_1280.jpg"
    },
    {
        "id": "2575463",
        "src640": "https://cdn.pixabay.com/photo/2017/08/03/10/33/architecture-2575463_640.jpg",
        "src1280": "https://cdn.pixabay.com/photo/2017/08/03/10/33/architecture-2575463_1280.jpg"
    },
    {
        "id": "4046442",
        "src640": "https://cdn.pixabay.com/photo/2019/03/10/15/56/winter-4046442_640.jpg",
        "src1280": "https://cdn.pixabay.com/photo/2019/03/10/15/56/winter-4046442_1280.jpg"
    },
    {
        "id": "5967372",
        "src640": "https://cdn.pixabay.com/photo/2021/01/31/15/02/bridge-5967372_640.jpg",
        "src1280": "https://cdn.pixabay.com/photo/2021/01/31/15/02/bridge-5967372_1280.jpg"
    },
    {
        "id": "2908547",
        "src640": "https://cdn.pixabay.com/photo/2017/11/01/16/22/blue-sky-2908547_640.jpg",
        "src1280": "https://cdn.pixabay.com/photo/2017/11/01/16/22/blue-sky-2908547_1280.jpg"
    },
    {
        "id": "6995674",
        "src640": "https://cdn.pixabay.com/photo/2022/02/05/20/06/playground-6995674_640.jpg",
        "src1280": "https://cdn.pixabay.com/photo/2022/02/05/20/06/playground-6995674_1280.jpg"
    },
    {
        "id": "7791446",
        "src640": "https://cdn.pixabay.com/photo/2023/02/15/10/28/woman-7791446_640.jpg",
        "src1280": "https://cdn.pixabay.com/photo/2023/02/15/10/28/woman-7791446_1280.jpg"
    },
    {
        "id": "7184870",
        "src640": "https://cdn.pixabay.com/photo/2022/05/09/16/25/lantern-7184870_640.jpg",
        "src1280": "https://cdn.pixabay.com/photo/2022/05/09/16/25/lantern-7184870_1280.jpg"
    },
    {
        "id": "6826569",
        "src640": "https://cdn.pixabay.com/photo/2021/11/26/19/34/winter-6826569_640.jpg",
        "src1280": "https://cdn.pixabay.com/photo/2021/11/26/19/34/winter-6826569_1280.jpg"
    },
    {
        "id": "5933363",
        "src640": "https://cdn.pixabay.com/photo/2021/01/20/07/56/trees-5933363_640.jpg",
        "src1280": "https://cdn.pixabay.com/photo/2021/01/20/07/56/trees-5933363_1280.jpg"
    },
    {
        "id": "6925553",
        "src640": "https://cdn.pixabay.com/photo/2022/01/09/08/46/allgau-6925553_640.jpg",
        "src1280": "https://cdn.pixabay.com/photo/2022/01/09/08/46/allgau-6925553_1280.jpg"
    },
    {
        "id": "1638642",
        "src640": "https://cdn.pixabay.com/photo/2016/09/02/08/47/pond-1638642_640.jpg",
        "src1280": "https://cdn.pixabay.com/photo/2016/09/02/08/47/pond-1638642_1280.jpg"
    },
    {
        "id": "4940972",
        "src640": "https://cdn.pixabay.com/photo/2020/03/17/16/12/forest-4940972_640.jpg",
        "src1280": "https://cdn.pixabay.com/photo/2020/03/17/16/12/forest-4940972_1280.jpg"
    },
    {
        "id": "7077817",
        "src640": "https://cdn.pixabay.com/photo/2022/03/19/03/31/snow-7077817_640.jpg",
        "src1280": "https://cdn.pixabay.com/photo/2022/03/19/03/31/snow-7077817_1280.jpg"
    }
]