[
    {
        "id": "4015957",
        "src640": "https://cdn.pixabay.com/photo/2019/02/23/16/31/forest-4015957_640.jpg",
        "src1280": "https://cdn.pixabay.com/photo/2019/02/23/16/31/forest-4015957_1280.jpg"
    },
    {
        "id": "4788539",
        "src640": "https://cdn.pixabay.com/photo/2020/01/23/19/11/helgeroa-4788539_640.jpg",
        "src1280": "https://cdn.pixabay.com/photo/2020/01/23/19/11/helgeroa-4788539_1280.jpg"
    },
    {
        "id": "6948067",
        "src640": "https://cdn.pixabay.com/photo/2022/01/18/20/08/avenue-6948067_640.jpg",
        "src1280": "https://cdn.pixabay.com/photo/2022/01/18/20/08/avenue-6948067_1280.jpg"
    },
    {
        "id": "628958",
        "src640": "https://cdn.pixabay.com/photo/2015/02/08/19/04/ice-628958_640.jpg",
        "src1280": "https://cdn.pixabay.com/photo/2015/02/08/19/04/ice-628958_1280.jpg"
    },
    {
        "id": "2481632",
        "src640": "https://cdn.pixabay.com/photo/2017/07/07/14/41/snow-2481632_640.jpg",
        "src1280": "https://cdn.pixabay.com/photo/2017/07/07/14/41/snow-2481632_1280.jpg"
    },
    {
        "id": "5938445",
        "src640": "https://cdn.pixabay.com/photo/2021/01/21/20/20/road-5938445_640.jpg",
        "src1280": "https://cdn.pixabay.com/photo/2021/01/21/20/20/road-5938445_1280.jpg"
    },
    {
        "id": "5969504",
        "src640": "https://cdn.pixabay.com/photo/2021/02/01/06/42/lake-5969504_640.jpg",
        "src1280": "https://cdn.pixabay.com/photo/2021/02/01/06/42/lake-5969504_1280.jpg"
    },
    {
        "id": "3847147",
        "src640": "https://cdn.pixabay.com/photo/2018/11/30/07/15/woman-3847147_640.jpg",
        "src1280": "https://cdn.pixabay.com/photo/2018/11/30/07/15/woman-3847147_1280.jpg"
    },
    {
        "id": "3902609",
        "src640": "https://cdn.pixabay.com/photo/2018/12/30/04/11/clothes-3902609_640.jpg",
        "src1280": "https://cdn.pixabay.com/photo/2018/12/30/04/11/clothes-3902609_1280.jpg"
    },
    {
        "id": "6770010",
        "src640": "https://cdn.pixabay.com/photo/2021/11/05/01/52/snow-6770010_640.jpg",
        "src1280": "https://cdn.pixabay.com/photo/2021/11/05/01/52/snow-6770010_1280.jpg"
    },
    {
        "id": "622981",
        "src640": "https://cdn.pixabay.com/photo/2015/02/03/20/50/traffic-sign-622981_640.jpg",
        "src1280": "https://cdn.pixabay.com/photo/2015/02/03/20/50/traffic-sign-622981_1280.jpg"
    },
    {
        "id": "7519178",
        "src640": "https://cdn.pixabay.com/photo/2022/10/13/13/56/winter-7519178_640.jpg",
        "src1280": "https://cdn.pixabay.com/photo/2022/10/13/13/56/winter-7519178_1280.jpg"
    },
    {
        "id": "6999079",
        "src640": "https://cdn.pixabay.com/photo/2022/02/07/10/30/river-6999079_640.jpg",
        "src1280": "https://cdn.pixabay.com/photo/2022/02/07/10/30/river-6999079_1280.jpg"
    },
    {
        "id": "4758182",
        "src640": "https://cdn.pixabay.com/photo/2020/01/11/17/13/mountains-4758182_640.jpg",
        "src1280": "https://cdn.pixabay.com/photo/2020/01/11/17/13/mountains-4758182_1280.jpg"
    },
    {
        "id": "5009864",
        "src640": "https://cdn.pixabay.com/photo/2020/04/06/14/13/village-5009864_640.jpg",
        "src1280": "https://cdn.pixabay.com/photo/2020/04/06/14/13/village-5009864_1280.jpg"
    },
    {
        "id": "6956600",
        "src640": "https://cdn.pixabay.com/photo/2022/01/22/09/09/sunset-6956600_640.jpg",
        "src1280": "https://cdn.pixabay.com/photo/2022/01/22/09/09/sunset-6956600_1280.jpg"
    },
    {
        "id": "6012066",
        "src640": "https://cdn.pixabay.com/photo/2021/02/13/16/30/forest-6012066_640.jpg",
        "src1280": "https://cdn.pixabay.com/photo/2021/02/13/16/30/forest-6012066_1280.jpg"
    },
    {
        "id": "5925253",
        "src640": "https://cdn.pixabay.com/photo/2021/01/17/14/03/snow-5925253_640.jpg",
        "src1280": "https://cdn.pixabay.com/photo/2021/01/17/14/03/snow-5925253_1280.jpg"
    },
    {
        "id": "6770009",
        "src640": "https://cdn.pixabay.com/photo/2021/11/05/01/52/snow-6770009_640.jpg",
        "src1280": "https://cdn.pixabay.com/photo/2021/11/05/01/52/snow-6770009_1280.jpg"
    },
    {
        "id": "7254253",
        "src640": "https://cdn.pixabay.com/photo/2022/06/10/10/12/wood-7254253_640.jpg",
        "src1280": "https://cdn.pixabay.com/photo/2022/06/10/10/12/wood-7254253_1280.jpg"
    },
    {
        "id": "6694484",
        "src640": "https://cdn.pixabay.com/photo/2021/10/09/15/44/groundcherry-6694484_640.jpg",
        "src1280": "https://cdn.pixabay.com/photo/2021/10/09/15/44/groundcherry-6694484_1280.jpg"
    },
    {
        "id": "7062233",
        "src640": "https://cdn.pixabay.com/photo/2022/03/11/13/32/mountain-7062233_640.jpg",
        "src1280": "https://cdn.pixabay.com/photo/2022/03/11/13/32/mountain-7062233_1280.jpg"
    },
    {
        "id": "6951140",
        "src640": "https://cdn.pixabay.com/photo/2022/01/19/22/55/winter-6951140_640.jpg",
        "src1280": "https://cdn.pixabay.com/photo/2022/01/19/22/55/winter-6951140_1280.jpg"
    },
    {
        "id": "5254086",
        "src640": "https://cdn.pixabay.com/photo/2020/06/03/08/48/branches-5254086_640.jpg",
        "src1280": "https://cdn.pixabay.com/photo/2020/06/03/08/48/branches-5254086_1280.jpg"
    },
    {
        "id": "3984793",
        "src640": "https://cdn.pixabay.com/photo/2019/02/09/10/29/speedway-3984793_640.jpg",
        "src1280": "https://cdn.pixabay.com/photo/2019/02/09/10/29/speedway-3984793_1280.jpg"
    },
    {
        "id": "16146",
        "src640": "https://cdn.pixabay.com/photo/2012/02/23/12/56/traces-16146_640.jpg",
        "src1280": "https://cdn.pixabay.com/photo/2012/02/23/12/56/traces-16146_1280.jpg"
    },
    {
        "id": "5489518",
        "src640": "https://cdn.pixabay.com/photo/2020/08/15/03/08/winter-5489518_640.jpg",
        "src1280": "https://cdn.pixabay.com/photo/2020/08/15/03/08/winter-5489518_1280.jpg"
    },
    {
        "id": "6798218",
        "src640": "https://cdn.pixabay.com/photo/2021/11/15/13/52/ski-6798218_640.jpg",
        "src1280": "https://cdn.pixabay.com/photo/2021/11/15/13/52/ski-6798218_1280.jpg"
    },
    {
        "id": "5977653",
        "src640": "https://cdn.pixabay.com/photo/2021/02/03/11/56/trees-5977653_640.jpg",
        "src1280": "https://cdn.pixabay.com/photo/2021/02/03/11/56/trees-5977653_1280.jpg"
    },
    {
        "id": "6946156",
        "src640": "https://cdn.pixabay.com/photo/2022/01/18/03/52/mushroom-6946156_640.jpg",
        "src1280": "https://cdn.pixabay.com/photo/2022/01/18/03/52/mushroom-6946156_1280.jpg"
    },
    {
        "id": "91908",
        "src640": "https://cdn.pixabay.com/photo/2013/03/09/15/36/blizzard-91908_640.jpg",
        "src1280": "https://cdn.pixabay.com/photo/2013/03/09/15/36/blizzard-91908_1280.jpg"
    },
    {
        "id": "7015151",
        "src640": "https://cdn.pixabay.com/photo/2022/02/15/15/24/tree-7015151_640.jpg",
        "src1280": "https://cdn.pixabay.com/photo/2022/02/15/15/24/tree-7015151_1280.jpg"
    },
    {
        "id": "6361948",
        "src640": "https://cdn.pixabay.com/photo/2021/06/24/17/43/mountains-6361948_640.jpg",
        "src1280": "https://cdn.pixabay.com/photo/2021/06/24/17/43/mountains-6361948_1280.jpg"
    },
    {
        "id": "7018633",
        "src640": "https://cdn.pixabay.com/photo/2022/02/17/11/51/trees-7018633_640.jpg",
        "src1280": "https://cdn.pixabay.com/photo/2022/02/17/11/51/trees-7018633_1280.jpg"
    },
    {
        "id": "7664016",
        "src640": "https://cdn.pixabay.com/photo/2022/12/18/18/15/sunset-7664016_640.jpg",
        "src1280": "https://cdn.pixabay.com/photo/2022/12/18/18/15/sunset-7664016_1280.jpg"
    },
    {
        "id": "4758266",
        "src640": "https://cdn.pixabay.com/photo/2020/01/11/17/37/mountains-4758266_640.jpg",
        "src1280": "https://cdn.pixabay.com/photo/2020/01/11/17/37/mountains-4758266_1280.jpg"
    },
    {
        "id": "6989432",
        "src640": "https://cdn.pixabay.com/photo/2022/02/02/21/37/tree-6989432_640.jpg",
        "src1280": "https://cdn.pixabay.com/photo/2022/02/02/21/37/tree-6989432_1280.jpg"
    },
    {
        "id": "6956601",
        "src640": "https://cdn.pixabay.com/photo/2022/01/22/09/09/sunset-6956601_640.jpg",
        "src1280": "https://cdn.pixabay.com/photo/2022/01/22/09/09/sunset-6956601_1280.jpg"
    },
    {
        "id": "4877874",
        "src640": "https://cdn.pixabay.com/photo/2020/02/25/04/01/winter-4877874_640.jpg",
        "src1280": "https://cdn.pixabay.com/photo/2020/02/25/04/01/winter-4877874_1280.jpg"
    },
    {
        "id": "6891066",
        "src640": "https://cdn.pixabay.com/photo/2021/12/24/13/05/forest-6891066_640.jpg",
        "src1280": "https://cdn.pixabay.com/photo/2021/12/24/13/05/forest-6891066_1280.jpg"
    },
    {
        "id": "6926449",
        "src640": "https://cdn.pixabay.com/photo/2022/01/09/17/03/winter-6926449_640.jpg",
        "src1280": "https://cdn.pixabay.com/photo/2022/01/09/17/03/winter-6926449_1280.jpg"
    },
    {
        "id": "7003740",
        "src640": "https://cdn.pixabay.com/photo/2022/02/09/16/23/road-7003740_640.jpg",
        "src1280": "https://cdn.pixabay.com/photo/2022/02/09/16/23/road-7003740_1280.jpg"
    },
    {
        "id": "6571535",
        "src640": "https://cdn.pixabay.com/photo/2021/08/24/19/13/trees-6571535_640.jpg",
        "src1280": "https://cdn.pixabay.com/photo/2021/08/24/19/13/trees-6571535_1280.jpg"
    },
    {
        "id": "4837757",
        "src640": "https://cdn.pixabay.com/photo/2020/02/10/21/28/winter-4837757_640.jpg",
        "src1280": "https://cdn.pixabay.com/photo/2020/02/10/21/28/winter-4837757_1280.jpg"
    },
    {
        "id": "5178678",
        "src640": "https://cdn.pixabay.com/photo/2020/05/16/18/38/tree-5178678_640.jpg",
        "src1280": "https://cdn.pixabay.com/photo/2020/05/16/18/38/tree-5178678_1280.jpg"
    },
    {
        "id": "767520",
        "src640": "https://cdn.pixabay.com/photo/2015/05/14/21/53/leaves-767520_640.jpg",
        "src1280": "https://cdn.pixabay.com/photo/2015/05/14/21/53/leaves-767520_1280.jpg"
    },
    {
        "id": "7217824",
        "src640": "https://cdn.pixabay.com/photo/2022/05/24/07/38/kufri-7217824_640.jpg",
        "src1280": "https://cdn.pixabay.com/photo/2022/05/24/07/38/kufri-7217824_1280.jpg"
    },
    {
        "id": "4920376",
        "src640": "https://cdn.pixabay.com/photo/2020/03/10/21/44/frost-4920376_640.jpg",
        "src1280": "https://cdn.pixabay.com/photo/2020/03/10/21/44/frost-4920376_1280.jpg"
    },
    {
        "id": "4728444",
        "src640": "https://cdn.pixabay.com/photo/2019/12/29/23/30/leaves-4728444_640.jpg",
        "src1280": "https://cdn.pixabay.com/photo/2019/12/29/23/30/leaves-4728444_1280.jpg"
    },
    {
        "id": "6802737",
        "src640": "https://cdn.pixabay.com/photo/2021/11/17/07/34/winter-6802737_640.jpg",
        "src1280": "https://cdn.pixabay.com/photo/2021/11/17/07/34/winter-6802737_1280.jpg"
    },
    {
        "id": "6854081",
        "src640": "https://cdn.pixabay.com/photo/2021/12/07/21/11/old-tree-6854081_640.jpg",
        "src1280": "https://cdn.pixabay.com/photo/2021/12/07/21/11/old-tree-6854081_1280.jpg"
    },
    {
        "id": "55572",
        "src640": "https://cdn.pixabay.com/photo/2012/09/02/00/13/snow-55572_640.jpg",
        "src1280": "https://cdn.pixabay.com/photo/2012/09/02/00/13/snow-55572_1280.jpg"
    },
    {
        "id": "383209",
        "src640": "https://cdn.pixabay.com/photo/2014/07/03/20/33/chairlift-383209_640.jpg",
        "src1280": "https://cdn.pixabay.com/photo/2014/07/03/20/33/chairlift-383209_1280.jpg"
    },
    {
        "id": "91909",
        "src640": "https://cdn.pixabay.com/photo/2013/03/09/15/36/blizzard-91909_640.jpg",
        "src1280": "https://cdn.pixabay.com/photo/2013/03/09/15/36/blizzard-91909_1280.jpg"
    },
    {
        "id": "6919916",
        "src640": "https://cdn.pixabay.com/photo/2022/01/06/17/17/christmas-6919916_640.jpg",
        "src1280": "https://cdn.pixabay.com/photo/2022/01/06/17/17/christmas-6919916_1280.jpg"
    },
    {
        "id": "3847123",
        "src640": "https://cdn.pixabay.com/photo/2018/11/30/07/07/woman-3847123_640.jpg",
        "src1280": "https://cdn.pixabay.com/photo/2018/11/30/07/07/woman-3847123_1280.jpg"
    },
    {
        "id": "4755790",
        "src640": "https://cdn.pixabay.com/photo/2020/01/10/17/31/ice-4755790_640.jpg",
        "src1280": "https://cdn.pixabay.com/photo/2020/01/10/17/31/ice-4755790_1280.jpg"
    },
    {
        "id": "5904388",
        "src640": "https://cdn.pixabay.com/photo/2021/01/10/08/38/man-5904388_640.jpg",
        "src1280": "https://cdn.pixabay.com/photo/2021/01/10/08/38/man-5904388_1280.jpg"
    },
    {
        "id": "3847117",
        "src640": "https://cdn.pixabay.com/photo/2018/11/30/07/05/woman-3847117_640.jpg",
        "src1280": "https://cdn.pixabay.com/photo/2018/11/30/07/05/woman-3847117_1280.jpg"
    },
    {
        "id": "7047366",
        "src640": "https://cdn.pixabay.com/photo/2022/03/04/13/18/trees-7047366_640.jpg",
        "src1280": "https://cdn.pixabay.com/photo/2022/03/04/13/18/trees-7047366_1280.jpg"
    },
    {
        "id": "6715150",
        "src640": "https://cdn.pixabay.com/photo/2021/10/16/14/05/lake-6715150_640.jpg",
        "src1280": "https://cdn.pixabay.com/photo/2021/10/16/14/05/lake-6715150_1280.jpg"
    },
    {
        "id": "7009226",
        "src640": "https://cdn.pixabay.com/photo/2022/02/12/15/43/mountains-7009226_640.jpg",
        "src1280": "https://cdn.pixabay.com/photo/2022/02/12/15/43/mountains-7009226_1280.jpg"
    },
    {
        "id": "6955518",
        "src640": "https://cdn.pixabay.com/photo/2022/01/21/19/06/winter-6955518_640.jpg",
        "src1280": "https://cdn.pixabay.com/photo/2022/01/21/19/06/winter-6955518_1280.jpg"
    },
    {
        "id": "6865647",
        "src640": "https://cdn.pixabay.com/photo/2021/12/12/17/34/winter-6865647_640.jpg",
        "src1280": "https://cdn.pixabay.com/photo/2021/12/12/17/34/winter-6865647_1280.jpg"
    },
    {
        "id": "6854474",
        "src640": "https://cdn.pixabay.com/photo/2021/12/08/02/44/river-6854474_640.jpg",
        "src1280": "https://cdn.pixabay.com/photo/2021/12/08/02/44/river-6854474_1280.jpg"
    },
    {
        "id": "1473542",
        "src640": "https://cdn.pixabay.com/photo/2016/06/22/17/32/hotel-1473542_640.jpg",
        "src1280": "https://cdn.pixabay.com/photo/2016/06/22/17/32/hotel-1473542_1280.jpg"
    },
    {
        "id": "7033751",
        "src640": "https://cdn.pixabay.com/photo/2022/02/25/08/26/forest-7033751_640.jpg",
        "src1280": "https://cdn.pixabay.com/photo/2022/02/25/08/26/forest-7033751_1280.jpg"
    },
    {
        "id": "5767877",
        "src640": "https://cdn.pixabay.com/photo/2020/11/22/20/20/mountains-5767877_640.jpg",
        "src1280": "https://cdn.pixabay.com/photo/2020/11/22/20/20/mountains-5767877_1280.jpg"
    },
    {
        "id": "7631114",
        "src640": "https://cdn.pixabay.com/photo/2022/12/02/15/36/winter-7631114_640.jpg",
        "src1280": "https://cdn.pixabay.com/photo/2022/12/02/15/36/winter-7631114_1280.jpg"
    },
    {
        "id": "6997950",
        "src640": "https://cdn.pixabay.com/photo/2022/02/06/19/44/flowers-6997950_640.jpg",
        "src1280": "https://cdn.pixabay.com/photo/2022/02/06/19/44/flowers-6997950_1280.jpg"
    },
    {
        "id": "7047349",
        "src640": "https://cdn.pixabay.com/photo/2022/03/04/13/10/woman-7047349_640.jpg",
        "src1280": "https://cdn.pixabay.com/photo/2022/03/04/13/10/woman-7047349_1280.jpg"
    },
    {
        "id": "4840090",
        "src640": "https://cdn.pixabay.com/photo/2020/02/11/16/27/green-4840090_640.jpg",
        "src1280": "https://cdn.pixabay.com/photo/2020/02/11/16/27/green-4840090_1280.jpg"
    },
    {
        "id": "4743158",
        "src640": "https://cdn.pixabay.com/photo/2020/01/05/13/24/winter-4743158_640.jpg",
        "src1280": "https://cdn.pixabay.com/photo/2020/01/05/13/24/winter-4743158_1280.jpg"
    },
    {
        "id": "1789499",
        "src640": "https://cdn.pixabay.com/photo/2016/11/01/20/27/frost-1789499_640.jpg",
        "src1280": "https://cdn.pixabay.com/photo/2016/11/01/20/27/frost-1789499_1280.jpg"
    },
    {
        "id": "6829064",
        "src640": "https://cdn.pixabay.com/photo/2021/11/27/23/00/winter-6829064_640.jpg",
        "src1280": "https://cdn.pixabay.com/photo/2021/11/27/23/00/winter-6829064_1280.jpg"
    },
    {
        "id": "81143",
        "src640": "https://cdn.pixabay.com/photo/2013/02/12/23/30/traces-81143_640.jpg",
        "src1280": "https://cdn.pixabay.com/photo/2013/02/12/23/30/traces-81143_1280.jpg"
    },
    {
        "id": "6885461",
        "src640": "https://cdn.pixabay.com/photo/2021/12/21/15/01/mountains-6885461_640.jpg",
        "src1280": "https://cdn.pixabay.com/photo/2021/12/21/15/01/mountains-6885461_1280.jpg"
    },
    {
        "id": "6948066",
        "src640": "https://cdn.pixabay.com/photo/2022/01/18/20/07/avenue-6948066_640.jpg",
        "src1280": "https://cdn.pixabay.com/photo/2022/01/18/20/07/avenue-6948066_1280.jpg"
    },
    {
        "id": "3847187",
        "src640": "https://cdn.pixabay.com/photo/2018/11/30/07/39/woman-3847187_640.jpg",
        "src1280": "https://cdn.pixabay.com/photo/2018/11/30/07/39/woman-3847187_1280.jpg"
    },
    {
        "id": "6888110",
        "src640": "https://cdn.pixabay.com/photo/2021/12/22/19/37/winter-6888110_640.jpg",
        "src1280": "https://cdn.pixabay.com/photo/2021/12/22/19/37/winter-6888110_1280.jpg"
    },
    {
        "id": "407564",
        "src640": "https://cdn.pixabay.com/photo/2014/08/01/12/07/daisy-407564_640.jpg",
        "src1280": "https://cdn.pixabay.com/photo/2014/08/01/12/07/daisy-407564_1280.jpg"
    },
    {
        "id": "7513679",
        "src640": "https://cdn.pixabay.com/photo/2022/10/11/07/51/man-7513679_640.jpg",
        "src1280": "https://cdn.pixabay.com/photo/2022/10/11/07/51/man-7513679_1280.jpg"
    },
    {
        "id": "6995673",
        "src640": "https://cdn.pixabay.com/photo/2022/02/05/20/06/suspension-bridge-6995673_640.jpg",
        "src1280": "https://cdn.pixabay.com/photo/2022/02/05/20/06/suspension-bridge-6995673_1280.jpg"
    },
    {
        "id": "6769940",
        "src640": "https://cdn.pixabay.com/photo/2021/11/05/01/29/snow-6769940_640.jpg",
        "src1280": "https://cdn.pixabay.com/photo/2021/11/05/01/29/snow-6769940_1280.jpg"
    },
    {
        "id": "4758261",
        "src640": "https://cdn.pixabay.com/photo/2020/01/11/17/34/mountains-4758261_640.jpg",
        "src1280": "https://cdn.pixabay.com/photo/2020/01/11/17/34/mountains-4758261_1280.jpg"
    },
    {
        "id": "6885319",
        "src640": "https://cdn.pixabay.com/photo/2021/12/21/13/56/tree-6885319_640.jpg",
        "src1280": "https://cdn.pixabay.com/photo/2021/12/21/13/56/tree-6885319_1280.jpg"
    },
    {
        "id": "6868903",
        "src640": "https://cdn.pixabay.com/photo/2021/12/13/18/58/spruce-6868903_640.jpg",
        "src1280": "https://cdn.pixabay.com/photo/2021/12/13/18/58/spruce-6868903_1280.jpg"
    },
    {
        "id": "6940811",
        "src640": "https://cdn.pixabay.com/photo/2022/01/15/21/39/snow-6940811_640.jpg",
        "src1280": "https://cdn.pixabay.com/photo/2022/01/15/21/39/snow-6940811_1280.jpg"
    },
    {
        "id": "7616936",
        "src640": "https://cdn.pixabay.com/photo/2022/11/25/22/23/winter-7616936_640.jpg",
        "src1280": "https://cdn.pixabay.com/photo/2022/11/25/22/23/winter-7616936_1280.jpg"
    },
    {
        "id": "6885235",
        "src640": "https://cdn.pixabay.com/photo/2021/12/21/13/11/mountains-6885235_640.jpg",
        "src1280": "https://cdn.pixabay.com/photo/2021/12/21/13/11/mountains-6885235_1280.jpg"
    },
    {
        "id": "6201796",
        "src640": "https://cdn.pixabay.com/photo/2021/04/23/14/02/man-6201796_640.jpg",
        "src1280": "https://cdn.pixabay.com/photo/2021/04/23/14/02/man-6201796_1280.jpg"
    },
    {
        "id": "817153",
        "src640": "https://cdn.pixabay.com/photo/2015/06/21/23/46/mountain-817153_640.jpg",
        "src1280": "https://cdn.pixabay.com/photo/2015/06/21/23/46/mountain-817153_1280.jpg"
    },
    {
        "id": "5978922",
        "src640": "https://cdn.pixabay.com/photo/2021/02/03/18/58/binding-5978922_640.jpg",
        "src1280": "https://cdn.pixabay.com/photo/2021/02/03/18/58/binding-5978922_1280.jpg"
    },
    {
        "id": "5898176",
        "src640": "https://cdn.pixabay.com/photo/2021/01/07/18/49/bmwe-46-5898176_640.jpg",
        "src1280": "https://cdn.pixabay.com/photo/2021/01/07/18/49/bmwe-46-5898176_1280.jpg"
    },
    {
        "id": "6943997",
        "src640": "https://cdn.pixabay.com/photo/2022/01/17/06/51/winter-6943997_640.jpg",
        "src1280": "https://cdn.pixabay.com/photo/2022/01/17/06/51/winter-6943997_1280.jpg"
    },
    {
        "id": "7031247",
        "src640": "https://cdn.pixabay.com/photo/2022/02/23/18/59/icicle-7031247_640.jpg",
        "src1280": "https://cdn.pixabay.com/photo/2022/02/23/18/59/icicle-7031247_1280.jpg"
    },
    {
        "id": "7105145",
        "src640": "https://cdn.pixabay.com/photo/2022/04/01/16/08/flowers-7105145_640.jpg",
        "src1280": "https://cdn.pixabay.com/photo/2022/04/01/16/08/flowers-7105145_1280.jpg"
    },
    {
        "id": "7077694",
        "src640": "https://cdn.pixabay.com/photo/2022/03/19/01/44/man-7077694_640.jpg",
        "src1280": "https://cdn.pixabay.com/photo/2022/03/19/01/44/man-7077694_1280.jpg"
    }
]