[
    {
        "id": "8364590",
        "src640": "https://cdn.pixabay.com/photo/2023/11/04/10/05/ai-generated-8364590_640.jpg",
        "src1280": "https://cdn.pixabay.com/photo/2023/11/04/10/05/ai-generated-8364590_1280.jpg"
    },
    {
        "id": "4698953",
        "src640": "https://cdn.pixabay.com/photo/2019/12/16/09/26/christmas-4698953_640.jpg",
        "src1280": "https://cdn.pixabay.com/photo/2019/12/16/09/26/christmas-4698953_1280.jpg"
    },
    {
        "id": "3902338",
        "src640": "https://cdn.pixabay.com/photo/2018/12/29/23/04/owl-3902338_640.jpg",
        "src1280": "https://cdn.pixabay.com/photo/2018/12/29/23/04/owl-3902338_1280.jpg"
    },
    {
        "id": "1846087",
        "src640": "https://cdn.pixabay.com/photo/2016/11/21/15/53/cold-1846087_640.jpg",
        "src1280": "https://cdn.pixabay.com/photo/2016/11/21/15/53/cold-1846087_1280.jpg"
    },
    {
        "id": "3333689",
        "src640": "https://cdn.pixabay.com/photo/2018/04/19/17/11/trees-3333689_640.jpg",
        "src1280": "https://cdn.pixabay.com/photo/2018/04/19/17/11/trees-3333689_1280.jpg"
    },
    {
        "id": "5749920",
        "src640": "https://cdn.pixabay.com/photo/2020/11/16/18/21/girl-5749920_640.jpg",
        "src1280": "https://cdn.pixabay.com/photo/2020/11/16/18/21/girl-5749920_1280.jpg"
    },
    {
        "id": "8449361",
        "src640": "https://cdn.pixabay.com/photo/2023/12/14/17/55/ai-generated-8449361_640.jpg",
        "src1280": "https://cdn.pixabay.com/photo/2023/12/14/17/55/ai-generated-8449361_1280.jpg"
    },
    {
        "id": "7583432",
        "src640": "https://cdn.pixabay.com/photo/2022/11/10/18/41/dog-7583432_640.jpg",
        "src1280": "https://cdn.pixabay.com/photo/2022/11/10/18/41/dog-7583432_1280.jpg"
    },
    {
        "id": "8406385",
        "src640": "https://cdn.pixabay.com/photo/2023/11/22/20/31/snowmen-8406385_640.jpg",
        "src1280": "https://cdn.pixabay.com/photo/2023/11/22/20/31/snowmen-8406385_1280.jpg"
    },
    {
        "id": "5990715",
        "src640": "https://cdn.pixabay.com/photo/2021/02/07/10/40/frozen-waterfall-5990715_640.jpg",
        "src1280": "https://cdn.pixabay.com/photo/2021/02/07/10/40/frozen-waterfall-5990715_1280.jpg"
    },
    {
        "id": "1148047",
        "src640": "https://cdn.pixabay.com/photo/2016/01/19/07/51/person-1148047_640.jpg",
        "src1280": "https://cdn.pixabay.com/photo/2016/01/19/07/51/person-1148047_1280.jpg"
    },
    {
        "id": "2035928",
        "src640": "https://cdn.pixabay.com/photo/2017/02/03/19/00/window-2035928_640.jpg",
        "src1280": "https://cdn.pixabay.com/photo/2017/02/03/19/00/window-2035928_1280.jpg"
    },
    {
        "id": "4733134",
        "src640": "https://cdn.pixabay.com/photo/2020/01/01/08/29/new-years-eve-4733134_640.jpg",
        "src1280": "https://cdn.pixabay.com/photo/2020/01/01/08/29/new-years-eve-4733134_1280.jpg"
    },
    {
        "id": "67676",
        "src640": "https://cdn.pixabay.com/photo/2012/11/28/10/58/scandinavia-67676_640.jpg",
        "src1280": "https://cdn.pixabay.com/photo/2012/11/28/10/58/scandinavia-67676_1280.jpg"
    },
    {
        "id": "8420108",
        "src640": "https://cdn.pixabay.com/photo/2023/11/29/18/05/christmas-motif-8420108_640.jpg",
        "src1280": "https://cdn.pixabay.com/photo/2023/11/29/18/05/christmas-motif-8420108_1280.jpg"
    },
    {
        "id": "3084928",
        "src640": "https://cdn.pixabay.com/photo/2018/01/15/22/10/portrait-3084928_640.jpg",
        "src1280": "https://cdn.pixabay.com/photo/2018/01/15/22/10/portrait-3084928_1280.jpg"
    },
    {
        "id": "1291525",
        "src640": "https://cdn.pixabay.com/photo/2016/03/30/20/49/person-1291525_640.jpg",
        "src1280": "https://cdn.pixabay.com/photo/2016/03/30/20/49/person-1291525_1280.jpg"
    },
    {
        "id": "8462033",
        "src640": "https://cdn.pixabay.com/photo/2023/12/21/15/30/christmas-tree-8462033_640.jpg",
        "src1280": "https://cdn.pixabay.com/photo/2023/12/21/15/30/christmas-tree-8462033_1280.jpg"
    },
    {
        "id": "7602451",
        "src640": "https://cdn.pixabay.com/photo/2022/11/19/16/00/pinecone-7602451_640.jpg",
        "src1280": "https://cdn.pixabay.com/photo/2022/11/19/16/00/pinecone-7602451_1280.jpg"
    },
    {
        "id": "3190504",
        "src640": "https://cdn.pixabay.com/photo/2018/03/01/11/54/dog-3190504_640.jpg",
        "src1280": "https://cdn.pixabay.com/photo/2018/03/01/11/54/dog-3190504_1280.jpg"
    },
    {
        "id": "4898674",
        "src640": "https://cdn.pixabay.com/photo/2020/03/03/12/45/girl-4898674_640.jpg",
        "src1280": "https://cdn.pixabay.com/photo/2020/03/03/12/45/girl-4898674_1280.jpg"
    },
    {
        "id": "3139341",
        "src640": "https://cdn.pixabay.com/photo/2018/02/08/12/12/winter-3139341_640.jpg",
        "src1280": "https://cdn.pixabay.com/photo/2018/02/08/12/12/winter-3139341_1280.jpg"
    },
    {
        "id": "4819414",
        "src640": "https://cdn.pixabay.com/photo/2020/02/04/21/37/watercolour-4819414_640.jpg",
        "src1280": "https://cdn.pixabay.com/photo/2020/02/04/21/37/watercolour-4819414_1280.jpg"
    },
    {
        "id": "3851409",
        "src640": "https://cdn.pixabay.com/photo/2018/12/02/15/21/winter-wonderland-3851409_640.jpg",
        "src1280": "https://cdn.pixabay.com/photo/2018/12/02/15/21/winter-wonderland-3851409_1280.jpg"
    },
    {
        "id": "2091025",
        "src640": "https://cdn.pixabay.com/photo/2017/02/23/00/23/winter-landscape-2091025_640.jpg",
        "src1280": "https://cdn.pixabay.com/photo/2017/02/23/00/23/winter-landscape-2091025_1280.jpg"
    },
    {
        "id": "239139",
        "src640": "https://cdn.pixabay.com/photo/2014/01/05/13/16/bridal-veil-falls-239139_640.jpg",
        "src1280": "https://cdn.pixabay.com/photo/2014/01/05/13/16/bridal-veil-falls-239139_1280.jpg"
    },
    {
        "id": "974641",
        "src640": "https://cdn.pixabay.com/photo/2015/10/06/15/13/winter-974641_640.jpg",
        "src1280": "https://cdn.pixabay.com/photo/2015/10/06/15/13/winter-974641_1280.jpg"
    },
    {
        "id": "2338577",
        "src640": "https://cdn.pixabay.com/photo/2017/05/23/20/59/winter-2338577_640.jpg",
        "src1280": "https://cdn.pixabay.com/photo/2017/05/23/20/59/winter-2338577_1280.jpg"
    },
    {
        "id": "1736901",
        "src640": "https://cdn.pixabay.com/photo/2016/10/13/06/22/coffe-1736901_640.jpg",
        "src1280": "https://cdn.pixabay.com/photo/2016/10/13/06/22/coffe-1736901_1280.jpg"
    },
    {
        "id": "247414",
        "src640": "https://cdn.pixabay.com/photo/2014/01/18/11/25/moss-spores-247414_640.jpg",
        "src1280": "https://cdn.pixabay.com/photo/2014/01/18/11/25/moss-spores-247414_1280.jpg"
    },
    {
        "id": "1939471",
        "src640": "https://cdn.pixabay.com/photo/2016/12/29/22/31/leopard-1939471_640.jpg",
        "src1280": "https://cdn.pixabay.com/photo/2016/12/29/22/31/leopard-1939471_1280.jpg"
    },
    {
        "id": "70891",
        "src640": "https://cdn.pixabay.com/photo/2012/12/19/14/31/roses-70891_640.jpg",
        "src1280": "https://cdn.pixabay.com/photo/2012/12/19/14/31/roses-70891_1280.jpg"
    },
    {
        "id": "7641509",
        "src640": "https://cdn.pixabay.com/photo/2022/12/07/16/01/christmas-7641509_640.jpg",
        "src1280": "https://cdn.pixabay.com/photo/2022/12/07/16/01/christmas-7641509_1280.jpg"
    },
    {
        "id": "8474500",
        "src640": "https://cdn.pixabay.com/photo/2023/12/28/16/44/ai-generated-8474500_640.jpg",
        "src1280": "https://cdn.pixabay.com/photo/2023/12/28/16/44/ai-generated-8474500_1280.jpg"
    },
    {
        "id": "7512723",
        "src640": "https://cdn.pixabay.com/photo/2022/10/10/21/02/gnome-7512723_640.jpg",
        "src1280": "https://cdn.pixabay.com/photo/2022/10/10/21/02/gnome-7512723_1280.jpg"
    },
    {
        "id": "2321290",
        "src640": "https://cdn.pixabay.com/photo/2017/05/17/16/26/animal-2321290_640.jpg",
        "src1280": "https://cdn.pixabay.com/photo/2017/05/17/16/26/animal-2321290_1280.jpg"
    },
    {
        "id": "6893955",
        "src640": "https://cdn.pixabay.com/photo/2021/12/25/22/58/nature-6893955_640.jpg",
        "src1280": "https://cdn.pixabay.com/photo/2021/12/25/22/58/nature-6893955_1280.jpg"
    },
    {
        "id": "7377985",
        "src640": "https://cdn.pixabay.com/photo/2022/08/10/19/15/berries-7377985_640.jpg",
        "src1280": "https://cdn.pixabay.com/photo/2022/08/10/19/15/berries-7377985_1280.jpg"
    },
    {
        "id": "78600",
        "src640": "https://cdn.pixabay.com/photo/2013/02/06/16/32/winter-78600_640.jpg",
        "src1280": "https://cdn.pixabay.com/photo/2013/02/06/16/32/winter-78600_1280.jpg"
    },
    {
        "id": "4610610",
        "src640": "https://cdn.pixabay.com/photo/2019/11/08/07/00/christ-the-savior-cathedral-4610610_640.jpg",
        "src1280": "https://cdn.pixabay.com/photo/2019/11/08/07/00/christ-the-savior-cathedral-4610610_1280.jpg"
    },
    {
        "id": "8451043",
        "src640": "https://cdn.pixabay.com/photo/2023/12/15/17/12/ai-generated-8451043_640.jpg",
        "src1280": "https://cdn.pixabay.com/photo/2023/12/15/17/12/ai-generated-8451043_1280.jpg"
    },
    {
        "id": "7512250",
        "src640": "https://cdn.pixabay.com/photo/2022/10/10/17/21/gnome-7512250_640.jpg",
        "src1280": "https://cdn.pixabay.com/photo/2022/10/10/17/21/gnome-7512250_1280.jpg"
    },
    {
        "id": "5900903",
        "src640": "https://cdn.pixabay.com/photo/2021/01/08/21/44/trees-5900903_640.jpg",
        "src1280": "https://cdn.pixabay.com/photo/2021/01/08/21/44/trees-5900903_1280.jpg"
    },
    {
        "id": "1875870",
        "src640": "https://cdn.pixabay.com/photo/2016/12/01/18/43/hot-chocolate-1875870_640.jpg",
        "src1280": "https://cdn.pixabay.com/photo/2016/12/01/18/43/hot-chocolate-1875870_1280.jpg"
    },
    {
        "id": "990434",
        "src640": "https://cdn.pixabay.com/photo/2015/10/16/01/53/snow-990434_640.jpg",
        "src1280": "https://cdn.pixabay.com/photo/2015/10/16/01/53/snow-990434_1280.jpg"
    },
    {
        "id": "2459962",
        "src640": "https://cdn.pixabay.com/photo/2017/06/30/22/00/bird-2459962_640.jpg",
        "src1280": "https://cdn.pixabay.com/photo/2017/06/30/22/00/bird-2459962_1280.jpg"
    },
    {
        "id": "238551",
        "src640": "https://cdn.pixabay.com/photo/2014/01/04/14/30/tree-238551_640.jpg",
        "src1280": "https://cdn.pixabay.com/photo/2014/01/04/14/30/tree-238551_1280.jpg"
    },
    {
        "id": "15452",
        "src640": "https://cdn.pixabay.com/photo/2012/02/22/19/31/christmas-tree-15452_640.jpg",
        "src1280": "https://cdn.pixabay.com/photo/2012/02/22/19/31/christmas-tree-15452_1280.jpg"
    },
    {
        "id": "1236617",
        "src640": "https://cdn.pixabay.com/photo/2016/03/04/19/51/christmas-1236617_640.jpg",
        "src1280": "https://cdn.pixabay.com/photo/2016/03/04/19/51/christmas-1236617_1280.jpg"
    },
    {
        "id": "2162406",
        "src640": "https://cdn.pixabay.com/photo/2017/03/21/15/07/child-2162406_640.jpg",
        "src1280": "https://cdn.pixabay.com/photo/2017/03/21/15/07/child-2162406_1280.jpg"
    },
    {
        "id": "1032656",
        "src640": "https://cdn.pixabay.com/photo/2015/11/07/21/00/train-1032656_640.jpg",
        "src1280": "https://cdn.pixabay.com/photo/2015/11/07/21/00/train-1032656_1280.jpg"
    },
    {
        "id": "7773984",
        "src640": "https://cdn.pixabay.com/photo/2023/02/07/12/13/tit-7773984_640.jpg",
        "src1280": "https://cdn.pixabay.com/photo/2023/02/07/12/13/tit-7773984_1280.jpg"
    },
    {
        "id": "3172672",
        "src640": "https://cdn.pixabay.com/photo/2018/02/22/10/55/winter-3172672_640.jpg",
        "src1280": "https://cdn.pixabay.com/photo/2018/02/22/10/55/winter-3172672_1280.jpg"
    },
    {
        "id": "1148171",
        "src640": "https://cdn.pixabay.com/photo/2016/01/19/09/42/portrait-1148171_640.jpg",
        "src1280": "https://cdn.pixabay.com/photo/2016/01/19/09/42/portrait-1148171_1280.jpg"
    },
    {
        "id": "581824",
        "src640": "https://cdn.pixabay.com/photo/2014/12/28/12/31/candle-581824_640.jpg",
        "src1280": "https://cdn.pixabay.com/photo/2014/12/28/12/31/candle-581824_1280.jpg"
    },
    {
        "id": "206362",
        "src640": "https://cdn.pixabay.com/photo/2013/11/06/09/59/christmas-206362_640.jpg",
        "src1280": "https://cdn.pixabay.com/photo/2013/11/06/09/59/christmas-206362_1280.jpg"
    },
    {
        "id": "2932",
        "src640": "https://cdn.pixabay.com/photo/2010/12/13/10/34/star-2932_640.jpg",
        "src1280": "https://cdn.pixabay.com/photo/2010/12/13/10/34/star-2932_1280.jpg"
    },
    {
        "id": "1003371",
        "src640": "https://cdn.pixabay.com/photo/2015/10/23/17/49/winter-1003371_640.jpg",
        "src1280": "https://cdn.pixabay.com/photo/2015/10/23/17/49/winter-1003371_1280.jpg"
    },
    {
        "id": "2111833",
        "src640": "https://cdn.pixabay.com/photo/2017/03/02/16/59/winter-2111833_640.jpg",
        "src1280": "https://cdn.pixabay.com/photo/2017/03/02/16/59/winter-2111833_1280.jpg"
    },
    {
        "id": "2324155",
        "src640": "https://cdn.pixabay.com/photo/2017/05/18/17/04/christmas-2324155_640.jpg",
        "src1280": "https://cdn.pixabay.com/photo/2017/05/18/17/04/christmas-2324155_1280.jpg"
    },
    {
        "id": "2255040",
        "src640": "https://cdn.pixabay.com/photo/2017/04/23/20/59/husky-2255040_640.jpg",
        "src1280": "https://cdn.pixabay.com/photo/2017/04/23/20/59/husky-2255040_1280.jpg"
    },
    {
        "id": "1866854",
        "src640": "https://cdn.pixabay.com/photo/2016/11/29/02/27/aurora-borealis-1866854_640.jpg",
        "src1280": "https://cdn.pixabay.com/photo/2016/11/29/02/27/aurora-borealis-1866854_1280.jpg"
    },
    {
        "id": "2828865",
        "src640": "https://cdn.pixabay.com/photo/2017/10/08/04/35/girl-2828865_640.jpg",
        "src1280": "https://cdn.pixabay.com/photo/2017/10/08/04/35/girl-2828865_1280.jpg"
    },
    {
        "id": "70890",
        "src640": "https://cdn.pixabay.com/photo/2012/12/19/14/31/roses-70890_640.jpg",
        "src1280": "https://cdn.pixabay.com/photo/2012/12/19/14/31/roses-70890_1280.jpg"
    },
    {
        "id": "1769238",
        "src640": "https://cdn.pixabay.com/photo/2016/10/25/16/00/winter-1769238_640.jpg",
        "src1280": "https://cdn.pixabay.com/photo/2016/10/25/16/00/winter-1769238_1280.jpg"
    },
    {
        "id": "7652184",
        "src640": "https://cdn.pixabay.com/photo/2022/12/13/00/08/snow-7652184_640.jpg",
        "src1280": "https://cdn.pixabay.com/photo/2022/12/13/00/08/snow-7652184_1280.jpg"
    },
    {
        "id": "1439672",
        "src640": "https://cdn.pixabay.com/photo/2016/06/06/15/43/winter-1439672_640.jpg",
        "src1280": "https://cdn.pixabay.com/photo/2016/06/06/15/43/winter-1439672_1280.jpg"
    },
    {
        "id": "1148062",
        "src640": "https://cdn.pixabay.com/photo/2016/01/19/08/15/person-1148062_640.jpg",
        "src1280": "https://cdn.pixabay.com/photo/2016/01/19/08/15/person-1148062_1280.jpg"
    },
    {
        "id": "1982034",
        "src640": "https://cdn.pixabay.com/photo/2017/01/15/16/26/baby-1982034_640.jpg",
        "src1280": "https://cdn.pixabay.com/photo/2017/01/15/16/26/baby-1982034_1280.jpg"
    },
    {
        "id": "1867615",
        "src640": "https://cdn.pixabay.com/photo/2016/11/29/05/45/sunrise-1867615_640.jpg",
        "src1280": "https://cdn.pixabay.com/photo/2016/11/29/05/45/sunrise-1867615_1280.jpg"
    },
    {
        "id": "2984833",
        "src640": "https://cdn.pixabay.com/photo/2017/11/28/22/27/lapland-2984833_640.jpg",
        "src1280": "https://cdn.pixabay.com/photo/2017/11/28/22/27/lapland-2984833_1280.jpg"
    },
    {
        "id": "8487036",
        "src640": "https://cdn.pixabay.com/photo/2024/01/04/10/06/ai-generated-8487036_640.jpg",
        "src1280": "https://cdn.pixabay.com/photo/2024/01/04/10/06/ai-generated-8487036_1280.jpg"
    },
    {
        "id": "8415123",
        "src640": "https://cdn.pixabay.com/photo/2023/11/27/10/52/ai-generated-8415123_640.jpg",
        "src1280": "https://cdn.pixabay.com/photo/2023/11/27/10/52/ai-generated-8415123_1280.jpg"
    },
    {
        "id": "8421832",
        "src640": "https://cdn.pixabay.com/photo/2023/11/30/14/31/deer-8421832_640.jpg",
        "src1280": "https://cdn.pixabay.com/photo/2023/11/30/14/31/deer-8421832_1280.jpg"
    },
    {
        "id": "4698954",
        "src640": "https://cdn.pixabay.com/photo/2019/12/16/09/26/christmas-4698954_640.jpg",
        "src1280": "https://cdn.pixabay.com/photo/2019/12/16/09/26/christmas-4698954_1280.jpg"
    },
    {
        "id": "235170",
        "src640": "https://cdn.pixabay.com/photo/2013/12/29/13/10/firs-235170_640.jpg",
        "src1280": "https://cdn.pixabay.com/photo/2013/12/29/13/10/firs-235170_1280.jpg"
    },
    {
        "id": "5853394",
        "src640": "https://cdn.pixabay.com/photo/2020/12/22/22/04/tree-5853394_640.jpg",
        "src1280": "https://cdn.pixabay.com/photo/2020/12/22/22/04/tree-5853394_1280.jpg"
    }
]