[
    {
        "id": "7668754",
        "src640": "https://cdn.pixabay.com/photo/2022/12/20/21/24/ai-generated-7668754_640.jpg",
        "src1280": "https://cdn.pixabay.com/photo/2022/12/20/21/24/ai-generated-7668754_1280.jpg"
    },
    {
        "id": "7731825",
        "src640": "https://cdn.pixabay.com/photo/2023/01/20/14/33/mallard-7731825_640.jpg",
        "src1280": "https://cdn.pixabay.com/photo/2023/01/20/14/33/mallard-7731825_1280.jpg"
    },
    {
        "id": "7635914",
        "src640": "https://cdn.pixabay.com/photo/2022/12/05/04/26/ai-generated-7635914_640.jpg",
        "src1280": "https://cdn.pixabay.com/photo/2022/12/05/04/26/ai-generated-7635914_1280.jpg"
    },
    {
        "id": "8182677",
        "src640": "https://cdn.pixabay.com/photo/2023/08/11/01/59/ai-generated-8182677_640.jpg",
        "src1280": "https://cdn.pixabay.com/photo/2023/08/11/01/59/ai-generated-8182677_1280.jpg"
    },
    {
        "id": "8064727",
        "src640": "https://cdn.pixabay.com/photo/2023/06/15/07/44/ai-generated-8064727_640.jpg",
        "src1280": "https://cdn.pixabay.com/photo/2023/06/15/07/44/ai-generated-8064727_1280.jpg"
    },
    {
        "id": "8300939",
        "src640": "https://cdn.pixabay.com/photo/2023/10/07/21/32/twirl-8300939_640.jpg",
        "src1280": "https://cdn.pixabay.com/photo/2023/10/07/21/32/twirl-8300939_1280.jpg"
    },
    {
        "id": "3057863",
        "src640": "https://cdn.pixabay.com/photo/2018/01/03/08/39/architecture-3057863_640.jpg",
        "src1280": "https://cdn.pixabay.com/photo/2018/01/03/08/39/architecture-3057863_1280.jpg"
    },
    {
        "id": "7345432",
        "src640": "https://cdn.pixabay.com/photo/2022/07/26/09/28/background-7345432_640.jpg",
        "src1280": "https://cdn.pixabay.com/photo/2022/07/26/09/28/background-7345432_1280.jpg"
    },
    {
        "id": "2556286",
        "src640": "https://cdn.pixabay.com/photo/2017/07/31/03/13/animal-print-2556286_640.jpg",
        "src1280": "https://cdn.pixabay.com/photo/2017/07/31/03/13/animal-print-2556286_1280.jpg"
    },
    {
        "id": "8256307",
        "src640": "https://cdn.pixabay.com/photo/2023/09/16/09/28/ai-generated-8256307_640.jpg",
        "src1280": "https://cdn.pixabay.com/photo/2023/09/16/09/28/ai-generated-8256307_1280.jpg"
    },
    {
        "id": "7904424",
        "src640": "https://cdn.pixabay.com/photo/2023/04/06/15/57/ai-generated-7904424_640.jpg",
        "src1280": "https://cdn.pixabay.com/photo/2023/04/06/15/57/ai-generated-7904424_1280.jpg"
    },
    {
        "id": "829127",
        "src640": "https://cdn.pixabay.com/photo/2015/07/02/13/16/iris-829127_640.jpg",
        "src1280": "https://cdn.pixabay.com/photo/2015/07/02/13/16/iris-829127_1280.jpg"
    },
    {
        "id": "7747369",
        "src640": "https://cdn.pixabay.com/photo/2023/01/26/22/29/ai-generated-7747369_640.jpg",
        "src1280": "https://cdn.pixabay.com/photo/2023/01/26/22/29/ai-generated-7747369_1280.jpg"
    },
    {
        "id": "7591378",
        "src640": "https://cdn.pixabay.com/photo/2022/11/14/11/24/heather-7591378_640.jpg",
        "src1280": "https://cdn.pixabay.com/photo/2022/11/14/11/24/heather-7591378_1280.jpg"
    },
    {
        "id": "8422323",
        "src640": "https://cdn.pixabay.com/photo/2023/11/30/19/49/rose-8422323_640.jpg",
        "src1280": "https://cdn.pixabay.com/photo/2023/11/30/19/49/rose-8422323_1280.jpg"
    },
    {
        "id": "2567165",
        "src640": "https://cdn.pixabay.com/photo/2017/08/01/18/30/green-2567165_640.jpg",
        "src1280": "https://cdn.pixabay.com/photo/2017/08/01/18/30/green-2567165_1280.jpg"
    },
    {
        "id": "2207206",
        "src640": "https://cdn.pixabay.com/photo/2017/04/06/05/12/bouquet-2207206_640.jpg",
        "src1280": "https://cdn.pixabay.com/photo/2017/04/06/05/12/bouquet-2207206_1280.jpg"
    },
    {
        "id": "8071510",
        "src640": "https://cdn.pixabay.com/photo/2023/06/18/08/04/echarlens-8071510_640.jpg",
        "src1280": "https://cdn.pixabay.com/photo/2023/06/18/08/04/echarlens-8071510_1280.jpg"
    },
    {
        "id": "7826326",
        "src640": "https://cdn.pixabay.com/photo/2023/03/02/20/00/ai-generated-7826326_640.jpg",
        "src1280": "https://cdn.pixabay.com/photo/2023/03/02/20/00/ai-generated-7826326_1280.jpg"
    },
    {
        "id": "7403641",
        "src640": "https://cdn.pixabay.com/photo/2022/08/22/13/08/flowers-7403641_640.jpg",
        "src1280": "https://cdn.pixabay.com/photo/2022/08/22/13/08/flowers-7403641_1280.jpg"
    },
    {
        "id": "2248773",
        "src640": "https://cdn.pixabay.com/photo/2017/04/21/14/14/blue-glitter-2248773_640.jpg",
        "src1280": "https://cdn.pixabay.com/photo/2017/04/21/14/14/blue-glitter-2248773_1280.jpg"
    },
    {
        "id": "7660959",
        "src640": "https://cdn.pixabay.com/photo/2022/12/17/04/32/ai-generated-7660959_640.jpg",
        "src1280": "https://cdn.pixabay.com/photo/2022/12/17/04/32/ai-generated-7660959_1280.jpg"
    },
    {
        "id": "1554185",
        "src640": "https://cdn.pixabay.com/photo/2016/07/29/15/42/popcorn-1554185_640.jpg",
        "src1280": "https://cdn.pixabay.com/photo/2016/07/29/15/42/popcorn-1554185_1280.jpg"
    },
    {
        "id": "8129176",
        "src640": "https://cdn.pixabay.com/photo/2023/07/15/16/04/art-8129176_640.jpg",
        "src1280": "https://cdn.pixabay.com/photo/2023/07/15/16/04/art-8129176_1280.jpg"
    },
    {
        "id": "979425",
        "src640": "https://cdn.pixabay.com/photo/2015/10/09/14/57/roses-979425_640.jpg",
        "src1280": "https://cdn.pixabay.com/photo/2015/10/09/14/57/roses-979425_1280.jpg"
    },
    {
        "id": "8088695",
        "src640": "https://cdn.pixabay.com/photo/2023/06/26/04/43/ai-generated-8088695_640.jpg",
        "src1280": "https://cdn.pixabay.com/photo/2023/06/26/04/43/ai-generated-8088695_1280.jpg"
    },
    {
        "id": "8111579",
        "src640": "https://cdn.pixabay.com/photo/2023/07/07/03/43/ai-generated-8111579_640.jpg",
        "src1280": "https://cdn.pixabay.com/photo/2023/07/07/03/43/ai-generated-8111579_1280.jpg"
    },
    {
        "id": "8128803",
        "src640": "https://cdn.pixabay.com/photo/2023/07/15/12/59/sunflower-8128803_640.jpg",
        "src1280": "https://cdn.pixabay.com/photo/2023/07/15/12/59/sunflower-8128803_1280.jpg"
    },
    {
        "id": "7826348",
        "src640": "https://cdn.pixabay.com/photo/2023/03/02/20/04/ai-generated-7826348_640.jpg",
        "src1280": "https://cdn.pixabay.com/photo/2023/03/02/20/04/ai-generated-7826348_1280.jpg"
    },
    {
        "id": "7635859",
        "src640": "https://cdn.pixabay.com/photo/2022/12/05/03/59/woman-7635859_640.jpg",
        "src1280": "https://cdn.pixabay.com/photo/2022/12/05/03/59/woman-7635859_1280.jpg"
    },
    {
        "id": "7557773",
        "src640": "https://cdn.pixabay.com/photo/2022/10/30/16/00/flowers-7557773_640.jpg",
        "src1280": "https://cdn.pixabay.com/photo/2022/10/30/16/00/flowers-7557773_1280.jpg"
    },
    {
        "id": "7160652",
        "src640": "https://cdn.pixabay.com/photo/2022/04/27/16/06/portrait-7160652_640.jpg",
        "src1280": "https://cdn.pixabay.com/photo/2022/04/27/16/06/portrait-7160652_1280.jpg"
    },
    {
        "id": "7926141",
        "src640": "https://cdn.pixabay.com/photo/2023/04/14/21/42/wallpaper-7926141_640.jpg",
        "src1280": "https://cdn.pixabay.com/photo/2023/04/14/21/42/wallpaper-7926141_1280.jpg"
    },
    {
        "id": "7826375",
        "src640": "https://cdn.pixabay.com/photo/2023/03/02/20/07/ai-generated-7826375_640.jpg",
        "src1280": "https://cdn.pixabay.com/photo/2023/03/02/20/07/ai-generated-7826375_1280.jpg"
    },
    {
        "id": "7826327",
        "src640": "https://cdn.pixabay.com/photo/2023/03/02/20/00/ai-generated-7826327_640.jpg",
        "src1280": "https://cdn.pixabay.com/photo/2023/03/02/20/00/ai-generated-7826327_1280.jpg"
    },
    {
        "id": "7282275",
        "src640": "https://cdn.pixabay.com/photo/2022/06/24/18/44/thistle-7282275_640.jpg",
        "src1280": "https://cdn.pixabay.com/photo/2022/06/24/18/44/thistle-7282275_1280.jpg"
    },
    {
        "id": "8423769",
        "src640": "https://cdn.pixabay.com/photo/2023/12/01/13/34/butterfly-8423769_640.jpg",
        "src1280": "https://cdn.pixabay.com/photo/2023/12/01/13/34/butterfly-8423769_1280.jpg"
    },
    {
        "id": "3401671",
        "src640": "https://cdn.pixabay.com/photo/2018/05/14/21/36/flower-3401671_640.jpg",
        "src1280": "https://cdn.pixabay.com/photo/2018/05/14/21/36/flower-3401671_1280.jpg"
    },
    {
        "id": "7937839",
        "src640": "https://cdn.pixabay.com/photo/2023/04/19/13/51/ai-generated-7937839_640.jpg",
        "src1280": "https://cdn.pixabay.com/photo/2023/04/19/13/51/ai-generated-7937839_1280.jpg"
    },
    {
        "id": "5434093",
        "src640": "https://cdn.pixabay.com/photo/2020/07/24/14/11/flowers-5434093_640.jpg",
        "src1280": "https://cdn.pixabay.com/photo/2020/07/24/14/11/flowers-5434093_1280.jpg"
    },
    {
        "id": "7826321",
        "src640": "https://cdn.pixabay.com/photo/2023/03/02/19/59/ai-generated-7826321_640.jpg",
        "src1280": "https://cdn.pixabay.com/photo/2023/03/02/19/59/ai-generated-7826321_1280.jpg"
    },
    {
        "id": "7897192",
        "src640": "https://cdn.pixabay.com/photo/2023/04/03/16/13/tulips-7897192_640.jpg",
        "src1280": "https://cdn.pixabay.com/photo/2023/04/03/16/13/tulips-7897192_1280.jpg"
    },
    {
        "id": "8467465",
        "src640": "https://cdn.pixabay.com/photo/2023/12/24/16/31/headphones-8467465_640.jpg",
        "src1280": "https://cdn.pixabay.com/photo/2023/12/24/16/31/headphones-8467465_1280.jpg"
    },
    {
        "id": "8146574",
        "src640": "https://cdn.pixabay.com/photo/2023/07/24/08/34/ai-generated-8146574_640.jpg",
        "src1280": "https://cdn.pixabay.com/photo/2023/07/24/08/34/ai-generated-8146574_1280.jpg"
    },
    {
        "id": "7668763",
        "src640": "https://cdn.pixabay.com/photo/2022/12/20/21/31/buildings-7668763_640.jpg",
        "src1280": "https://cdn.pixabay.com/photo/2022/12/20/21/31/buildings-7668763_1280.jpg"
    },
    {
        "id": "7467849",
        "src640": "https://cdn.pixabay.com/photo/2022/09/20/12/44/watercolor-7467849_640.jpg",
        "src1280": "https://cdn.pixabay.com/photo/2022/09/20/12/44/watercolor-7467849_1280.jpg"
    },
    {
        "id": "8277501",
        "src640": "https://cdn.pixabay.com/photo/2023/09/26/13/30/flowers-8277501_640.jpg",
        "src1280": "https://cdn.pixabay.com/photo/2023/09/26/13/30/flowers-8277501_1280.jpg"
    },
    {
        "id": "825734",
        "src640": "https://cdn.pixabay.com/photo/2015/06/29/16/59/yellow-bench-825734_640.jpg",
        "src1280": "https://cdn.pixabay.com/photo/2015/06/29/16/59/yellow-bench-825734_1280.jpg"
    },
    {
        "id": "8422458",
        "src640": "https://cdn.pixabay.com/photo/2023/11/30/20/48/ai-generated-8422458_640.jpg",
        "src1280": "https://cdn.pixabay.com/photo/2023/11/30/20/48/ai-generated-8422458_1280.jpg"
    },
    {
        "id": "7635910",
        "src640": "https://cdn.pixabay.com/photo/2022/12/05/04/21/ai-generated-7635910_640.jpg",
        "src1280": "https://cdn.pixabay.com/photo/2022/12/05/04/21/ai-generated-7635910_1280.jpg"
    },
    {
        "id": "7966184",
        "src640": "https://cdn.pixabay.com/photo/2023/05/02/21/30/tulip-7966184_640.jpg",
        "src1280": "https://cdn.pixabay.com/photo/2023/05/02/21/30/tulip-7966184_1280.jpg"
    },
    {
        "id": "2566097",
        "src640": "https://cdn.pixabay.com/photo/2017/08/01/15/01/display-2566097_640.jpg",
        "src1280": "https://cdn.pixabay.com/photo/2017/08/01/15/01/display-2566097_1280.jpg"
    },
    {
        "id": "7551675",
        "src640": "https://cdn.pixabay.com/photo/2022/10/27/20/04/skull-7551675_640.jpg",
        "src1280": "https://cdn.pixabay.com/photo/2022/10/27/20/04/skull-7551675_1280.jpg"
    },
    {
        "id": "7340246",
        "src640": "https://cdn.pixabay.com/photo/2022/07/23/16/40/wesley-chapel-7340246_640.jpg",
        "src1280": "https://cdn.pixabay.com/photo/2022/07/23/16/40/wesley-chapel-7340246_1280.jpg"
    },
    {
        "id": "7051101",
        "src640": "https://cdn.pixabay.com/photo/2022/03/06/08/35/back-to-school-7051101_640.jpg",
        "src1280": "https://cdn.pixabay.com/photo/2022/03/06/08/35/back-to-school-7051101_1280.jpg"
    },
    {
        "id": "4074198",
        "src640": "https://cdn.pixabay.com/photo/2019/03/22/21/10/tulip-4074198_640.jpg",
        "src1280": "https://cdn.pixabay.com/photo/2019/03/22/21/10/tulip-4074198_1280.jpg"
    },
    {
        "id": "7904425",
        "src640": "https://cdn.pixabay.com/photo/2023/04/06/15/57/ai-generated-7904425_640.jpg",
        "src1280": "https://cdn.pixabay.com/photo/2023/04/06/15/57/ai-generated-7904425_1280.jpg"
    },
    {
        "id": "7826263",
        "src640": "https://cdn.pixabay.com/photo/2023/03/02/19/47/ai-generated-7826263_640.jpg",
        "src1280": "https://cdn.pixabay.com/photo/2023/03/02/19/47/ai-generated-7826263_1280.jpg"
    },
    {
        "id": "2472607",
        "src640": "https://cdn.pixabay.com/photo/2017/07/04/20/52/pink-2472607_640.jpg",
        "src1280": "https://cdn.pixabay.com/photo/2017/07/04/20/52/pink-2472607_1280.jpg"
    },
    {
        "id": "4081795",
        "src640": "https://cdn.pixabay.com/photo/2019/03/26/03/14/wedding-4081795_640.jpg",
        "src1280": "https://cdn.pixabay.com/photo/2019/03/26/03/14/wedding-4081795_1280.jpg"
    },
    {
        "id": "7826325",
        "src640": "https://cdn.pixabay.com/photo/2023/03/02/19/59/ai-generated-7826325_640.jpg",
        "src1280": "https://cdn.pixabay.com/photo/2023/03/02/19/59/ai-generated-7826325_1280.jpg"
    },
    {
        "id": "5172772",
        "src640": "https://cdn.pixabay.com/photo/2020/05/15/08/11/iphone-5172772_640.jpg",
        "src1280": "https://cdn.pixabay.com/photo/2020/05/15/08/11/iphone-5172772_1280.jpg"
    },
    {
        "id": "7573025",
        "src640": "https://cdn.pixabay.com/photo/2022/11/06/00/16/skull-7573025_640.jpg",
        "src1280": "https://cdn.pixabay.com/photo/2022/11/06/00/16/skull-7573025_1280.jpg"
    },
    {
        "id": "3121972",
        "src640": "https://cdn.pixabay.com/photo/2018/01/31/21/14/flower-3121972_640.jpg",
        "src1280": "https://cdn.pixabay.com/photo/2018/01/31/21/14/flower-3121972_1280.jpg"
    },
    {
        "id": "1082067",
        "src640": "https://cdn.pixabay.com/photo/2015/12/08/00/49/macro-1082067_640.jpg",
        "src1280": "https://cdn.pixabay.com/photo/2015/12/08/00/49/macro-1082067_1280.jpg"
    },
    {
        "id": "7848755",
        "src640": "https://cdn.pixabay.com/photo/2023/03/13/05/24/ai-generated-7848755_640.jpg",
        "src1280": "https://cdn.pixabay.com/photo/2023/03/13/05/24/ai-generated-7848755_1280.jpg"
    },
    {
        "id": "3477382",
        "src640": "https://cdn.pixabay.com/photo/2018/06/15/18/17/plant-3477382_640.jpg",
        "src1280": "https://cdn.pixabay.com/photo/2018/06/15/18/17/plant-3477382_1280.jpg"
    },
    {
        "id": "7058092",
        "src640": "https://cdn.pixabay.com/photo/2022/03/09/15/36/flowers-7058092_640.jpg",
        "src1280": "https://cdn.pixabay.com/photo/2022/03/09/15/36/flowers-7058092_1280.jpg"
    },
    {
        "id": "7492492",
        "src640": "https://cdn.pixabay.com/photo/2022/10/02/00/46/woods-7492492_640.jpg",
        "src1280": "https://cdn.pixabay.com/photo/2022/10/02/00/46/woods-7492492_1280.jpg"
    },
    {
        "id": "7479684",
        "src640": "https://cdn.pixabay.com/photo/2022/09/26/05/06/control-panel-7479684_640.jpg",
        "src1280": "https://cdn.pixabay.com/photo/2022/09/26/05/06/control-panel-7479684_1280.jpg"
    },
    {
        "id": "8320139",
        "src640": "https://cdn.pixabay.com/photo/2023/10/16/21/49/girl-8320139_640.jpg",
        "src1280": "https://cdn.pixabay.com/photo/2023/10/16/21/49/girl-8320139_1280.jpg"
    },
    {
        "id": "8195314",
        "src640": "https://cdn.pixabay.com/photo/2023/08/17/02/19/ai-generated-8195314_640.jpg",
        "src1280": "https://cdn.pixabay.com/photo/2023/08/17/02/19/ai-generated-8195314_1280.jpg"
    },
    {
        "id": "1056313",
        "src640": "https://cdn.pixabay.com/photo/2015/11/22/14/27/autumn-1056313_640.jpg",
        "src1280": "https://cdn.pixabay.com/photo/2015/11/22/14/27/autumn-1056313_1280.jpg"
    },
    {
        "id": "1719120",
        "src640": "https://cdn.pixabay.com/photo/2016/10/06/14/08/sunflowers-1719120_640.jpg",
        "src1280": "https://cdn.pixabay.com/photo/2016/10/06/14/08/sunflowers-1719120_1280.jpg"
    },
    {
        "id": "8133142",
        "src640": "https://cdn.pixabay.com/photo/2023/07/17/17/36/butterfly-8133142_640.jpg",
        "src1280": "https://cdn.pixabay.com/photo/2023/07/17/17/36/butterfly-8133142_1280.jpg"
    },
    {
        "id": "6093893",
        "src640": "https://cdn.pixabay.com/photo/2021/03/14/10/55/butterfly-6093893_640.jpg",
        "src1280": "https://cdn.pixabay.com/photo/2021/03/14/10/55/butterfly-6093893_1280.jpg"
    },
    {
        "id": "7907390",
        "src640": "https://cdn.pixabay.com/photo/2023/04/07/17/03/dog-7907390_640.jpg",
        "src1280": "https://cdn.pixabay.com/photo/2023/04/07/17/03/dog-7907390_1280.jpg"
    },
    {
        "id": "7278104",
        "src640": "https://cdn.pixabay.com/photo/2022/06/22/15/05/art-7278104_640.jpg",
        "src1280": "https://cdn.pixabay.com/photo/2022/06/22/15/05/art-7278104_1280.jpg"
    }
]