[
    {
        "id": "1551431",
        "src640": "https://cdn.pixabay.com/photo/2016/07/29/08/47/crumpled-paper-1551431_640.jpg",
        "src1280": "https://cdn.pixabay.com/photo/2016/07/29/08/47/crumpled-paper-1551431_1280.jpg"
    },
    {
        "id": "3349068",
        "src640": "https://cdn.pixabay.com/photo/2018/04/25/09/22/image-manipulation-3349068_640.jpg",
        "src1280": "https://cdn.pixabay.com/photo/2018/04/25/09/22/image-manipulation-3349068_1280.jpg"
    },
    {
        "id": "15809",
        "src640": "https://cdn.pixabay.com/photo/2012/02/23/08/51/abstract-15809_640.jpg",
        "src1280": "https://cdn.pixabay.com/photo/2012/02/23/08/51/abstract-15809_1280.jpg"
    },
    {
        "id": "220494",
        "src640": "https://cdn.pixabay.com/photo/2013/11/28/12/15/dog-220494_640.jpg",
        "src1280": "https://cdn.pixabay.com/photo/2013/11/28/12/15/dog-220494_1280.jpg"
    },
    {
        "id": "4245867",
        "src640": "https://cdn.pixabay.com/photo/2019/06/02/08/32/flowers-4245867_640.jpg",
        "src1280": "https://cdn.pixabay.com/photo/2019/06/02/08/32/flowers-4245867_1280.jpg"
    },
    {
        "id": "1205295",
        "src640": "https://cdn.pixabay.com/photo/2016/02/17/16/09/vertical-1205295_640.jpg",
        "src1280": "https://cdn.pixabay.com/photo/2016/02/17/16/09/vertical-1205295_1280.jpg"
    },
    {
        "id": "186551",
        "src640": "https://cdn.pixabay.com/photo/2013/09/26/00/21/swan-186551_640.jpg",
        "src1280": "https://cdn.pixabay.com/photo/2013/09/26/00/21/swan-186551_1280.jpg"
    },
    {
        "id": "1707408",
        "src640": "https://cdn.pixabay.com/photo/2016/10/01/12/32/fractal-1707408_640.jpg",
        "src1280": "https://cdn.pixabay.com/photo/2016/10/01/12/32/fractal-1707408_1280.jpg"
    },
    {
        "id": "3523161",
        "src640": "https://cdn.pixabay.com/photo/2018/07/08/01/45/ramsau-3523161_640.jpg",
        "src1280": "https://cdn.pixabay.com/photo/2018/07/08/01/45/ramsau-3523161_1280.jpg"
    },
    {
        "id": "8045508",
        "src640": "https://cdn.pixabay.com/photo/2023/06/06/19/46/couple-8045508_640.jpg",
        "src1280": "https://cdn.pixabay.com/photo/2023/06/06/19/46/couple-8045508_1280.jpg"
    },
    {
        "id": "596941",
        "src640": "https://cdn.pixabay.com/photo/2015/01/12/01/06/pink-596941_640.jpg",
        "src1280": "https://cdn.pixabay.com/photo/2015/01/12/01/06/pink-596941_1280.jpg"
    },
    {
        "id": "103374",
        "src640": "https://cdn.pixabay.com/photo/2013/04/13/16/15/forest-103374_640.jpg",
        "src1280": "https://cdn.pixabay.com/photo/2013/04/13/16/15/forest-103374_1280.jpg"
    },
    {
        "id": "1716675",
        "src640": "https://cdn.pixabay.com/photo/2016/10/05/13/25/glass-1716675_640.jpg",
        "src1280": "https://cdn.pixabay.com/photo/2016/10/05/13/25/glass-1716675_1280.jpg"
    },
    {
        "id": "6341416",
        "src640": "https://cdn.pixabay.com/photo/2021/06/16/14/29/trees-6341416_640.jpg",
        "src1280": "https://cdn.pixabay.com/photo/2021/06/16/14/29/trees-6341416_1280.jpg"
    },
    {
        "id": "4244756",
        "src640": "https://cdn.pixabay.com/photo/2019/06/01/18/55/flowers-4244756_640.jpg",
        "src1280": "https://cdn.pixabay.com/photo/2019/06/01/18/55/flowers-4244756_1280.jpg"
    },
    {
        "id": "4701266",
        "src640": "https://cdn.pixabay.com/photo/2019/12/17/09/51/abstract-4701266_640.jpg",
        "src1280": "https://cdn.pixabay.com/photo/2019/12/17/09/51/abstract-4701266_1280.jpg"
    },
    {
        "id": "2721777",
        "src640": "https://cdn.pixabay.com/photo/2017/09/06/14/48/triangle-2721777_640.jpg",
        "src1280": "https://cdn.pixabay.com/photo/2017/09/06/14/48/triangle-2721777_1280.jpg"
    },
    {
        "id": "2700416",
        "src640": "https://cdn.pixabay.com/photo/2017/08/31/11/39/beautiful-2700416_640.jpg",
        "src1280": "https://cdn.pixabay.com/photo/2017/08/31/11/39/beautiful-2700416_1280.jpg"
    },
    {
        "id": "1814030",
        "src640": "https://cdn.pixabay.com/photo/2016/11/10/11/08/san-francisco-1814030_640.jpg",
        "src1280": "https://cdn.pixabay.com/photo/2016/11/10/11/08/san-francisco-1814030_1280.jpg"
    },
    {
        "id": "776106",
        "src640": "https://cdn.pixabay.com/photo/2015/05/20/20/24/heart-776106_640.jpg",
        "src1280": "https://cdn.pixabay.com/photo/2015/05/20/20/24/heart-776106_1280.jpg"
    },
    {
        "id": "7172623",
        "src640": "https://cdn.pixabay.com/photo/2022/05/03/20/22/robot-7172623_640.jpg",
        "src1280": "https://cdn.pixabay.com/photo/2022/05/03/20/22/robot-7172623_1280.jpg"
    },
    {
        "id": "1124690",
        "src640": "https://cdn.pixabay.com/photo/2016/01/06/17/32/gold-1124690_640.jpg",
        "src1280": "https://cdn.pixabay.com/photo/2016/01/06/17/32/gold-1124690_1280.jpg"
    },
    {
        "id": "21890",
        "src640": "https://cdn.pixabay.com/photo/2012/03/04/00/21/abstract-21890_640.jpg",
        "src1280": "https://cdn.pixabay.com/photo/2012/03/04/00/21/abstract-21890_1280.jpg"
    },
    {
        "id": "4157544",
        "src640": "https://cdn.pixabay.com/photo/2019/04/26/13/50/background-4157544_640.jpg",
        "src1280": "https://cdn.pixabay.com/photo/2019/04/26/13/50/background-4157544_1280.jpg"
    },
    {
        "id": "821498",
        "src640": "https://cdn.pixabay.com/photo/2015/06/25/16/53/fashion-821498_640.jpg",
        "src1280": "https://cdn.pixabay.com/photo/2015/06/25/16/53/fashion-821498_1280.jpg"
    },
    {
        "id": "6346999",
        "src640": "https://cdn.pixabay.com/photo/2021/06/18/19/08/christmas-6346999_640.jpg",
        "src1280": "https://cdn.pixabay.com/photo/2021/06/18/19/08/christmas-6346999_1280.jpg"
    },
    {
        "id": "3871381",
        "src640": "https://cdn.pixabay.com/photo/2018/12/12/18/18/bach-3871381_640.jpg",
        "src1280": "https://cdn.pixabay.com/photo/2018/12/12/18/18/bach-3871381_1280.jpg"
    },
    {
        "id": "8045083",
        "src640": "https://cdn.pixabay.com/photo/2023/06/06/16/30/flowers-8045083_640.jpg",
        "src1280": "https://cdn.pixabay.com/photo/2023/06/06/16/30/flowers-8045083_1280.jpg"
    },
    {
        "id": "3048420",
        "src640": "https://cdn.pixabay.com/photo/2017/12/29/19/30/man-3048420_640.jpg",
        "src1280": "https://cdn.pixabay.com/photo/2017/12/29/19/30/man-3048420_1280.jpg"
    },
    {
        "id": "207798",
        "src640": "https://cdn.pixabay.com/photo/2013/11/09/10/55/bow-tie-207798_640.jpg",
        "src1280": "https://cdn.pixabay.com/photo/2013/11/09/10/55/bow-tie-207798_1280.jpg"
    },
    {
        "id": "5970900",
        "src640": "https://cdn.pixabay.com/photo/2021/02/01/14/48/cards-5970900_640.jpg",
        "src1280": "https://cdn.pixabay.com/photo/2021/02/01/14/48/cards-5970900_1280.jpg"
    },
    {
        "id": "1725192",
        "src640": "https://cdn.pixabay.com/photo/2016/10/09/05/48/ballet-pose-1725192_640.jpg",
        "src1280": "https://cdn.pixabay.com/photo/2016/10/09/05/48/ballet-pose-1725192_1280.jpg"
    },
    {
        "id": "248932",
        "src640": "https://cdn.pixabay.com/photo/2014/01/21/06/40/paint-248932_640.jpg",
        "src1280": "https://cdn.pixabay.com/photo/2014/01/21/06/40/paint-248932_1280.jpg"
    },
    {
        "id": "1787544",
        "src640": "https://cdn.pixabay.com/photo/2016/11/01/07/15/wedding-dresses-1787544_640.jpg",
        "src1280": "https://cdn.pixabay.com/photo/2016/11/01/07/15/wedding-dresses-1787544_1280.jpg"
    },
    {
        "id": "4106985",
        "src640": "https://cdn.pixabay.com/photo/2019/04/06/08/44/woman-4106985_640.jpg",
        "src1280": "https://cdn.pixabay.com/photo/2019/04/06/08/44/woman-4106985_1280.jpg"
    },
    {
        "id": "1492436",
        "src640": "https://cdn.pixabay.com/photo/2016/07/02/04/40/coffee-1492436_640.jpg",
        "src1280": "https://cdn.pixabay.com/photo/2016/07/02/04/40/coffee-1492436_1280.jpg"
    },
    {
        "id": "4901921",
        "src640": "https://cdn.pixabay.com/photo/2020/03/04/15/47/flying-4901921_640.jpg",
        "src1280": "https://cdn.pixabay.com/photo/2020/03/04/15/47/flying-4901921_1280.jpg"
    },
    {
        "id": "1020980",
        "src640": "https://cdn.pixabay.com/photo/2015/11/03/15/07/colorful-1020980_640.jpg",
        "src1280": "https://cdn.pixabay.com/photo/2015/11/03/15/07/colorful-1020980_1280.jpg"
    },
    {
        "id": "2471013",
        "src640": "https://cdn.pixabay.com/photo/2017/07/04/12/55/ballet-2471013_640.jpg",
        "src1280": "https://cdn.pixabay.com/photo/2017/07/04/12/55/ballet-2471013_1280.jpg"
    },
    {
        "id": "1487263",
        "src640": "https://cdn.pixabay.com/photo/2016/06/29/16/46/abstract-1487263_640.jpg",
        "src1280": "https://cdn.pixabay.com/photo/2016/06/29/16/46/abstract-1487263_1280.jpg"
    },
    {
        "id": "6279539",
        "src640": "https://cdn.pixabay.com/photo/2021/05/24/15/01/background-6279539_640.jpg",
        "src1280": "https://cdn.pixabay.com/photo/2021/05/24/15/01/background-6279539_1280.jpg"
    },
    {
        "id": "1248952",
        "src640": "https://cdn.pixabay.com/photo/2016/03/10/18/44/top-view-1248952_640.jpg",
        "src1280": "https://cdn.pixabay.com/photo/2016/03/10/18/44/top-view-1248952_1280.jpg"
    },
    {
        "id": "1239034",
        "src640": "https://cdn.pixabay.com/photo/2016/03/05/21/39/background-1239034_640.jpg",
        "src1280": "https://cdn.pixabay.com/photo/2016/03/05/21/39/background-1239034_1280.jpg"
    },
    {
        "id": "3295462",
        "src640": "https://cdn.pixabay.com/photo/2018/04/06/10/33/people-3295462_640.jpg",
        "src1280": "https://cdn.pixabay.com/photo/2018/04/06/10/33/people-3295462_1280.jpg"
    },
    {
        "id": "2150559",
        "src640": "https://cdn.pixabay.com/photo/2017/03/16/23/33/spring-2150559_640.jpg",
        "src1280": "https://cdn.pixabay.com/photo/2017/03/16/23/33/spring-2150559_1280.jpg"
    },
    {
        "id": "3789005",
        "src640": "https://cdn.pixabay.com/photo/2018/11/01/20/24/break-3789005_640.jpg",
        "src1280": "https://cdn.pixabay.com/photo/2018/11/01/20/24/break-3789005_1280.jpg"
    },
    {
        "id": "4436024",
        "src640": "https://cdn.pixabay.com/photo/2019/08/28/07/43/nature-4436024_640.jpg",
        "src1280": "https://cdn.pixabay.com/photo/2019/08/28/07/43/nature-4436024_1280.jpg"
    },
    {
        "id": "185094",
        "src640": "https://cdn.pixabay.com/photo/2013/09/22/19/39/sky-185094_640.jpg",
        "src1280": "https://cdn.pixabay.com/photo/2013/09/22/19/39/sky-185094_1280.jpg"
    },
    {
        "id": "3108312",
        "src640": "https://cdn.pixabay.com/photo/2018/01/26/10/26/man-3108312_640.jpg",
        "src1280": "https://cdn.pixabay.com/photo/2018/01/26/10/26/man-3108312_1280.jpg"
    },
    {
        "id": "934546",
        "src640": "https://cdn.pixabay.com/photo/2015/09/10/15/04/texture-934546_640.jpg",
        "src1280": "https://cdn.pixabay.com/photo/2015/09/10/15/04/texture-934546_1280.jpg"
    },
    {
        "id": "7290676",
        "src640": "https://cdn.pixabay.com/photo/2022/06/28/23/40/climber-7290676_640.jpg",
        "src1280": "https://cdn.pixabay.com/photo/2022/06/28/23/40/climber-7290676_1280.jpg"
    },
    {
        "id": "5596507",
        "src640": "https://cdn.pixabay.com/photo/2020/09/23/16/42/roses-5596507_640.jpg",
        "src1280": "https://cdn.pixabay.com/photo/2020/09/23/16/42/roses-5596507_1280.jpg"
    },
    {
        "id": "2061780",
        "src640": "https://cdn.pixabay.com/photo/2017/02/13/04/49/background-2061780_640.jpg",
        "src1280": "https://cdn.pixabay.com/photo/2017/02/13/04/49/background-2061780_1280.jpg"
    },
    {
        "id": "762791",
        "src640": "https://cdn.pixabay.com/photo/2015/05/11/17/37/background-image-762791_640.jpg",
        "src1280": "https://cdn.pixabay.com/photo/2015/05/11/17/37/background-image-762791_1280.jpg"
    },
    {
        "id": "1829818",
        "src640": "https://cdn.pixabay.com/photo/2016/11/16/19/40/background-1829818_640.jpg",
        "src1280": "https://cdn.pixabay.com/photo/2016/11/16/19/40/background-1829818_1280.jpg"
    },
    {
        "id": "4052347",
        "src640": "https://cdn.pixabay.com/photo/2019/03/13/07/10/boys-4052347_640.jpg",
        "src1280": "https://cdn.pixabay.com/photo/2019/03/13/07/10/boys-4052347_1280.jpg"
    },
    {
        "id": "5728923",
        "src640": "https://cdn.pixabay.com/photo/2020/11/10/08/44/family-5728923_640.jpg",
        "src1280": "https://cdn.pixabay.com/photo/2020/11/10/08/44/family-5728923_1280.jpg"
    },
    {
        "id": "3909212",
        "src640": "https://cdn.pixabay.com/photo/2019/01/02/17/13/vintage-3909212_640.jpg",
        "src1280": "https://cdn.pixabay.com/photo/2019/01/02/17/13/vintage-3909212_1280.jpg"
    },
    {
        "id": "5846037",
        "src640": "https://cdn.pixabay.com/photo/2020/12/20/03/59/hope-5846037_640.jpg",
        "src1280": "https://cdn.pixabay.com/photo/2020/12/20/03/59/hope-5846037_1280.jpg"
    },
    {
        "id": "4002932",
        "src640": "https://cdn.pixabay.com/photo/2019/02/17/19/07/grass-4002932_640.jpg",
        "src1280": "https://cdn.pixabay.com/photo/2019/02/17/19/07/grass-4002932_1280.jpg"
    },
    {
        "id": "1183343",
        "src640": "https://cdn.pixabay.com/photo/2016/02/06/17/54/rainbow-flag-1183343_640.jpg",
        "src1280": "https://cdn.pixabay.com/photo/2016/02/06/17/54/rainbow-flag-1183343_1280.jpg"
    },
    {
        "id": "1141892",
        "src640": "https://cdn.pixabay.com/photo/2016/01/15/15/19/background-1141892_640.jpg",
        "src1280": "https://cdn.pixabay.com/photo/2016/01/15/15/19/background-1141892_1280.jpg"
    },
    {
        "id": "1507099",
        "src640": "https://cdn.pixabay.com/photo/2016/07/10/00/20/background-1507099_640.jpg",
        "src1280": "https://cdn.pixabay.com/photo/2016/07/10/00/20/background-1507099_1280.jpg"
    },
    {
        "id": "220298",
        "src640": "https://cdn.pixabay.com/photo/2013/11/28/11/31/eiffel-tower-220298_640.jpg",
        "src1280": "https://cdn.pixabay.com/photo/2013/11/28/11/31/eiffel-tower-220298_1280.jpg"
    },
    {
        "id": "4261571",
        "src640": "https://cdn.pixabay.com/photo/2019/06/09/07/02/background-4261571_640.jpg",
        "src1280": "https://cdn.pixabay.com/photo/2019/06/09/07/02/background-4261571_1280.jpg"
    },
    {
        "id": "4668705",
        "src640": "https://cdn.pixabay.com/photo/2019/12/02/21/13/drip-4668705_640.jpg",
        "src1280": "https://cdn.pixabay.com/photo/2019/12/02/21/13/drip-4668705_1280.jpg"
    },
    {
        "id": "2050394",
        "src640": "https://cdn.pixabay.com/photo/2017/02/08/22/40/background-2050394_640.jpg",
        "src1280": "https://cdn.pixabay.com/photo/2017/02/08/22/40/background-2050394_1280.jpg"
    },
    {
        "id": "97473",
        "src640": "https://cdn.pixabay.com/photo/2013/03/29/11/18/old-97473_640.jpg",
        "src1280": "https://cdn.pixabay.com/photo/2013/03/29/11/18/old-97473_1280.jpg"
    },
    {
        "id": "5231741",
        "src640": "https://cdn.pixabay.com/photo/2020/05/28/16/31/frame-5231741_640.jpg",
        "src1280": "https://cdn.pixabay.com/photo/2020/05/28/16/31/frame-5231741_1280.jpg"
    },
    {
        "id": "77423",
        "src640": "https://cdn.pixabay.com/photo/2013/02/02/18/50/giraffe-plush-toy-77423_640.jpg",
        "src1280": "https://cdn.pixabay.com/photo/2013/02/02/18/50/giraffe-plush-toy-77423_1280.jpg"
    },
    {
        "id": "4820118",
        "src640": "https://cdn.pixabay.com/photo/2020/02/05/04/54/watercolour-4820118_640.jpg",
        "src1280": "https://cdn.pixabay.com/photo/2020/02/05/04/54/watercolour-4820118_1280.jpg"
    },
    {
        "id": "1076750",
        "src640": "https://cdn.pixabay.com/photo/2015/12/04/16/52/background-image-1076750_640.jpg",
        "src1280": "https://cdn.pixabay.com/photo/2015/12/04/16/52/background-image-1076750_1280.jpg"
    },
    {
        "id": "1742994",
        "src640": "https://cdn.pixabay.com/photo/2016/10/15/17/18/watercolour-1742994_640.jpg",
        "src1280": "https://cdn.pixabay.com/photo/2016/10/15/17/18/watercolour-1742994_1280.jpg"
    }
]