[
    {
        "id": "1604582",
        "src640": "https://cdn.pixabay.com/photo/2016/08/19/05/31/fractal-1604582_640.jpg",
        "src1280": "https://cdn.pixabay.com/photo/2016/08/19/05/31/fractal-1604582_1280.jpg"
    },
    {
        "id": "625672",
        "src640": "https://cdn.pixabay.com/photo/2015/02/06/02/51/leather-625672_640.jpg",
        "src1280": "https://cdn.pixabay.com/photo/2015/02/06/02/51/leather-625672_1280.jpg"
    },
    {
        "id": "1989357",
        "src640": "https://cdn.pixabay.com/photo/2017/01/18/10/07/background-1989357_640.jpg",
        "src1280": "https://cdn.pixabay.com/photo/2017/01/18/10/07/background-1989357_1280.jpg"
    },
    {
        "id": "2299660",
        "src640": "https://cdn.pixabay.com/photo/2017/05/10/01/26/caribbean-2299660_640.jpg",
        "src1280": "https://cdn.pixabay.com/photo/2017/05/10/01/26/caribbean-2299660_1280.jpg"
    },
    {
        "id": "3602769",
        "src640": "https://cdn.pixabay.com/photo/2018/08/13/11/38/photo-background-3602769_640.jpg",
        "src1280": "https://cdn.pixabay.com/photo/2018/08/13/11/38/photo-background-3602769_1280.jpg"
    },
    {
        "id": "1562162",
        "src640": "https://cdn.pixabay.com/photo/2016/08/01/21/08/texture-1562162_640.jpg",
        "src1280": "https://cdn.pixabay.com/photo/2016/08/01/21/08/texture-1562162_1280.jpg"
    },
    {
        "id": "6901479",
        "src640": "https://cdn.pixabay.com/photo/2021/12/29/12/08/line-art-6901479_640.jpg",
        "src1280": "https://cdn.pixabay.com/photo/2021/12/29/12/08/line-art-6901479_1280.jpg"
    },
    {
        "id": "6493118",
        "src640": "https://cdn.pixabay.com/photo/2021/07/26/01/28/mansion-6493118_640.jpg",
        "src1280": "https://cdn.pixabay.com/photo/2021/07/26/01/28/mansion-6493118_1280.jpg"
    },
    {
        "id": "6725836",
        "src640": "https://cdn.pixabay.com/photo/2021/10/20/12/17/window-6725836_640.jpg",
        "src1280": "https://cdn.pixabay.com/photo/2021/10/20/12/17/window-6725836_1280.jpg"
    },
    {
        "id": "2193793",
        "src640": "https://cdn.pixabay.com/photo/2017/04/01/14/45/wood-2193793_640.jpg",
        "src1280": "https://cdn.pixabay.com/photo/2017/04/01/14/45/wood-2193793_1280.jpg"
    },
    {
        "id": "3843773",
        "src640": "https://cdn.pixabay.com/photo/2018/11/28/14/09/illustration-3843773_640.jpg",
        "src1280": "https://cdn.pixabay.com/photo/2018/11/28/14/09/illustration-3843773_1280.jpg"
    },
    {
        "id": "2371841",
        "src640": "https://cdn.pixabay.com/photo/2017/06/04/18/40/black-and-white-2371841_640.jpg",
        "src1280": "https://cdn.pixabay.com/photo/2017/06/04/18/40/black-and-white-2371841_1280.jpg"
    },
    {
        "id": "6163978",
        "src640": "https://cdn.pixabay.com/photo/2021/04/09/10/09/care-bears-6163978_640.jpg",
        "src1280": "https://cdn.pixabay.com/photo/2021/04/09/10/09/care-bears-6163978_1280.jpg"
    },
    {
        "id": "164064",
        "src640": "https://cdn.pixabay.com/photo/2013/07/18/14/57/sneakers-164064_640.jpg",
        "src1280": "https://cdn.pixabay.com/photo/2013/07/18/14/57/sneakers-164064_1280.jpg"
    },
    {
        "id": "4947765",
        "src640": "https://cdn.pixabay.com/photo/2020/03/19/15/24/art-4947765_640.jpg",
        "src1280": "https://cdn.pixabay.com/photo/2020/03/19/15/24/art-4947765_1280.jpg"
    },
    {
        "id": "799929",
        "src640": "https://cdn.pixabay.com/photo/2015/06/06/22/16/texture-799929_640.jpg",
        "src1280": "https://cdn.pixabay.com/photo/2015/06/06/22/16/texture-799929_1280.jpg"
    },
    {
        "id": "4964752",
        "src640": "https://cdn.pixabay.com/photo/2020/03/24/17/16/art-4964752_640.jpg",
        "src1280": "https://cdn.pixabay.com/photo/2020/03/24/17/16/art-4964752_1280.jpg"
    },
    {
        "id": "6136141",
        "src640": "https://cdn.pixabay.com/photo/2021/03/30/07/32/girl-6136141_640.jpg",
        "src1280": "https://cdn.pixabay.com/photo/2021/03/30/07/32/girl-6136141_1280.jpg"
    },
    {
        "id": "2554015",
        "src640": "https://cdn.pixabay.com/photo/2017/07/30/11/04/spring-2554015_640.jpg",
        "src1280": "https://cdn.pixabay.com/photo/2017/07/30/11/04/spring-2554015_1280.jpg"
    },
    {
        "id": "983325",
        "src640": "https://cdn.pixabay.com/photo/2015/10/12/01/07/rust-983325_640.jpg",
        "src1280": "https://cdn.pixabay.com/photo/2015/10/12/01/07/rust-983325_1280.jpg"
    },
    {
        "id": "6136127",
        "src640": "https://cdn.pixabay.com/photo/2021/03/30/07/30/cat-6136127_640.jpg",
        "src1280": "https://cdn.pixabay.com/photo/2021/03/30/07/30/cat-6136127_1280.jpg"
    },
    {
        "id": "316931",
        "src640": "https://cdn.pixabay.com/photo/2014/04/05/12/20/chicken-316931_640.jpg",
        "src1280": "https://cdn.pixabay.com/photo/2014/04/05/12/20/chicken-316931_1280.jpg"
    },
    {
        "id": "832781",
        "src640": "https://cdn.pixabay.com/photo/2015/07/05/21/18/dress-832781_640.jpg",
        "src1280": "https://cdn.pixabay.com/photo/2015/07/05/21/18/dress-832781_1280.jpg"
    },
    {
        "id": "316117",
        "src640": "https://cdn.pixabay.com/photo/2014/04/05/11/31/male-316117_640.jpg",
        "src1280": "https://cdn.pixabay.com/photo/2014/04/05/11/31/male-316117_1280.jpg"
    },
    {
        "id": "316869",
        "src640": "https://cdn.pixabay.com/photo/2014/04/05/12/19/grapes-316869_640.jpg",
        "src1280": "https://cdn.pixabay.com/photo/2014/04/05/12/19/grapes-316869_1280.jpg"
    },
    {
        "id": "3216947",
        "src640": "https://cdn.pixabay.com/photo/2018/03/11/14/47/background-3216947_640.jpg",
        "src1280": "https://cdn.pixabay.com/photo/2018/03/11/14/47/background-3216947_1280.jpg"
    },
    {
        "id": "3561695",
        "src640": "https://cdn.pixabay.com/photo/2018/07/25/15/57/design-3561695_640.jpg",
        "src1280": "https://cdn.pixabay.com/photo/2018/07/25/15/57/design-3561695_1280.jpg"
    },
    {
        "id": "6144171",
        "src640": "https://cdn.pixabay.com/photo/2021/04/02/07/41/chicken-6144171_640.jpg",
        "src1280": "https://cdn.pixabay.com/photo/2021/04/02/07/41/chicken-6144171_1280.jpg"
    },
    {
        "id": "1153258",
        "src640": "https://cdn.pixabay.com/photo/2016/01/21/09/23/wallpapers-1153258_640.jpg",
        "src1280": "https://cdn.pixabay.com/photo/2016/01/21/09/23/wallpapers-1153258_1280.jpg"
    },
    {
        "id": "1191002",
        "src640": "https://cdn.pixabay.com/photo/2016/02/10/03/50/stripes-1191002_640.jpg",
        "src1280": "https://cdn.pixabay.com/photo/2016/02/10/03/50/stripes-1191002_1280.jpg"
    },
    {
        "id": "3899676",
        "src640": "https://cdn.pixabay.com/photo/2018/12/28/14/25/black-and-white-3899676_640.jpg",
        "src1280": "https://cdn.pixabay.com/photo/2018/12/28/14/25/black-and-white-3899676_1280.jpg"
    },
    {
        "id": "6722242",
        "src640": "https://cdn.pixabay.com/photo/2021/10/18/22/10/tunnel-6722242_640.jpg",
        "src1280": "https://cdn.pixabay.com/photo/2021/10/18/22/10/tunnel-6722242_1280.jpg"
    },
    {
        "id": "1672143",
        "src640": "https://cdn.pixabay.com/photo/2016/09/15/17/11/hand-1672143_640.jpg",
        "src1280": "https://cdn.pixabay.com/photo/2016/09/15/17/11/hand-1672143_1280.jpg"
    },
    {
        "id": "1802824",
        "src640": "https://cdn.pixabay.com/photo/2016/11/06/12/05/ornament-1802824_640.jpg",
        "src1280": "https://cdn.pixabay.com/photo/2016/11/06/12/05/ornament-1802824_1280.jpg"
    },
    {
        "id": "292149",
        "src640": "https://cdn.pixabay.com/photo/2014/03/21/16/17/texture-292149_640.jpg",
        "src1280": "https://cdn.pixabay.com/photo/2014/03/21/16/17/texture-292149_1280.jpg"
    },
    {
        "id": "404457",
        "src640": "https://cdn.pixabay.com/photo/2014/07/29/10/38/fractal-404457_640.jpg",
        "src1280": "https://cdn.pixabay.com/photo/2014/07/29/10/38/fractal-404457_1280.jpg"
    },
    {
        "id": "6524520",
        "src640": "https://cdn.pixabay.com/photo/2021/08/05/17/44/antlers-6524520_640.jpg",
        "src1280": "https://cdn.pixabay.com/photo/2021/08/05/17/44/antlers-6524520_1280.jpg"
    },
    {
        "id": "1182544",
        "src640": "https://cdn.pixabay.com/photo/2016/02/06/05/17/geometric-1182544_640.jpg",
        "src1280": "https://cdn.pixabay.com/photo/2016/02/06/05/17/geometric-1182544_1280.jpg"
    },
    {
        "id": "5304681",
        "src640": "https://cdn.pixabay.com/photo/2020/06/16/08/09/background-5304681_640.jpg",
        "src1280": "https://cdn.pixabay.com/photo/2020/06/16/08/09/background-5304681_1280.jpg"
    },
    {
        "id": "220438",
        "src640": "https://cdn.pixabay.com/photo/2013/11/28/12/06/tulip-220438_640.jpg",
        "src1280": "https://cdn.pixabay.com/photo/2013/11/28/12/06/tulip-220438_1280.jpg"
    },
    {
        "id": "3894451",
        "src640": "https://cdn.pixabay.com/photo/2018/12/25/16/02/moon-3894451_640.jpg",
        "src1280": "https://cdn.pixabay.com/photo/2018/12/25/16/02/moon-3894451_1280.jpg"
    },
    {
        "id": "916428",
        "src640": "https://cdn.pixabay.com/photo/2015/09/01/04/28/fabric-916428_640.jpg",
        "src1280": "https://cdn.pixabay.com/photo/2015/09/01/04/28/fabric-916428_1280.jpg"
    },
    {
        "id": "18067",
        "src640": "https://cdn.pixabay.com/photo/2012/02/28/10/17/marbled-18067_640.jpg",
        "src1280": "https://cdn.pixabay.com/photo/2012/02/28/10/17/marbled-18067_1280.jpg"
    },
    {
        "id": "316901",
        "src640": "https://cdn.pixabay.com/photo/2014/04/05/12/20/gecko-316901_640.jpg",
        "src1280": "https://cdn.pixabay.com/photo/2014/04/05/12/20/gecko-316901_1280.jpg"
    },
    {
        "id": "4964751",
        "src640": "https://cdn.pixabay.com/photo/2020/03/24/17/16/art-4964751_640.jpg",
        "src1280": "https://cdn.pixabay.com/photo/2020/03/24/17/16/art-4964751_1280.jpg"
    },
    {
        "id": "1802981",
        "src640": "https://cdn.pixabay.com/photo/2016/11/06/14/00/blazing-dreams-1802981_640.jpg",
        "src1280": "https://cdn.pixabay.com/photo/2016/11/06/14/00/blazing-dreams-1802981_1280.jpg"
    },
    {
        "id": "6203158",
        "src640": "https://cdn.pixabay.com/photo/2021/04/24/03/32/background-6203158_640.jpg",
        "src1280": "https://cdn.pixabay.com/photo/2021/04/24/03/32/background-6203158_1280.jpg"
    },
    {
        "id": "18064",
        "src640": "https://cdn.pixabay.com/photo/2012/02/28/10/17/marbled-18064_640.jpg",
        "src1280": "https://cdn.pixabay.com/photo/2012/02/28/10/17/marbled-18064_1280.jpg"
    },
    {
        "id": "316802",
        "src640": "https://cdn.pixabay.com/photo/2014/04/05/12/19/herringbone-316802_640.jpg",
        "src1280": "https://cdn.pixabay.com/photo/2014/04/05/12/19/herringbone-316802_1280.jpg"
    },
    {
        "id": "1642484",
        "src640": "https://cdn.pixabay.com/photo/2016/09/03/18/58/cave-1642484_640.jpg",
        "src1280": "https://cdn.pixabay.com/photo/2016/09/03/18/58/cave-1642484_1280.jpg"
    },
    {
        "id": "220372",
        "src640": "https://cdn.pixabay.com/photo/2013/11/28/12/03/flower-220372_640.jpg",
        "src1280": "https://cdn.pixabay.com/photo/2013/11/28/12/03/flower-220372_1280.jpg"
    },
    {
        "id": "898548",
        "src640": "https://cdn.pixabay.com/photo/2015/08/21/07/51/snowflakes-898548_640.jpg",
        "src1280": "https://cdn.pixabay.com/photo/2015/08/21/07/51/snowflakes-898548_1280.jpg"
    },
    {
        "id": "4332206",
        "src640": "https://cdn.pixabay.com/photo/2019/07/12/07/50/leaves-4332206_640.jpg",
        "src1280": "https://cdn.pixabay.com/photo/2019/07/12/07/50/leaves-4332206_1280.jpg"
    },
    {
        "id": "3251195",
        "src640": "https://cdn.pixabay.com/photo/2018/03/22/17/31/woods-3251195_640.jpg",
        "src1280": "https://cdn.pixabay.com/photo/2018/03/22/17/31/woods-3251195_1280.jpg"
    },
    {
        "id": "2071616",
        "src640": "https://cdn.pixabay.com/photo/2017/02/16/14/33/tiles-2071616_640.jpg",
        "src1280": "https://cdn.pixabay.com/photo/2017/02/16/14/33/tiles-2071616_1280.jpg"
    },
    {
        "id": "5766235",
        "src640": "https://cdn.pixabay.com/photo/2020/11/22/11/01/santa-claus-5766235_640.jpg",
        "src1280": "https://cdn.pixabay.com/photo/2020/11/22/11/01/santa-claus-5766235_1280.jpg"
    },
    {
        "id": "5960137",
        "src640": "https://cdn.pixabay.com/photo/2021/01/29/08/13/background-5960137_640.jpg",
        "src1280": "https://cdn.pixabay.com/photo/2021/01/29/08/13/background-5960137_1280.jpg"
    },
    {
        "id": "2496164",
        "src640": "https://cdn.pixabay.com/photo/2017/07/12/08/21/marble-2496164_640.jpg",
        "src1280": "https://cdn.pixabay.com/photo/2017/07/12/08/21/marble-2496164_1280.jpg"
    },
    {
        "id": "734168",
        "src640": "https://cdn.pixabay.com/photo/2015/04/22/01/50/background-734168_640.jpg",
        "src1280": "https://cdn.pixabay.com/photo/2015/04/22/01/50/background-734168_1280.jpg"
    },
    {
        "id": "1551581",
        "src640": "https://cdn.pixabay.com/photo/2016/07/29/08/56/chalk-1551581_640.jpg",
        "src1280": "https://cdn.pixabay.com/photo/2016/07/29/08/56/chalk-1551581_1280.jpg"
    },
    {
        "id": "439142",
        "src640": "https://cdn.pixabay.com/photo/2014/09/08/12/35/abstract-439142_640.jpg",
        "src1280": "https://cdn.pixabay.com/photo/2014/09/08/12/35/abstract-439142_1280.jpg"
    },
    {
        "id": "316864",
        "src640": "https://cdn.pixabay.com/photo/2014/04/05/12/19/holly-316864_640.jpg",
        "src1280": "https://cdn.pixabay.com/photo/2014/04/05/12/19/holly-316864_1280.jpg"
    },
    {
        "id": "5503993",
        "src640": "https://cdn.pixabay.com/photo/2020/08/20/16/42/abstract-5503993_640.jpg",
        "src1280": "https://cdn.pixabay.com/photo/2020/08/20/16/42/abstract-5503993_1280.jpg"
    },
    {
        "id": "5799794",
        "src640": "https://cdn.pixabay.com/photo/2020/12/03/07/52/tree-5799794_640.jpg",
        "src1280": "https://cdn.pixabay.com/photo/2020/12/03/07/52/tree-5799794_1280.jpg"
    },
    {
        "id": "313369",
        "src640": "https://cdn.pixabay.com/photo/2014/04/04/14/55/paper-313369_640.jpg",
        "src1280": "https://cdn.pixabay.com/photo/2014/04/04/14/55/paper-313369_1280.jpg"
    },
    {
        "id": "916922",
        "src640": "https://cdn.pixabay.com/photo/2015/09/01/13/47/background-916922_640.jpg",
        "src1280": "https://cdn.pixabay.com/photo/2015/09/01/13/47/background-916922_1280.jpg"
    },
    {
        "id": "313610",
        "src640": "https://cdn.pixabay.com/photo/2014/04/04/14/57/silhouette-313610_640.jpg",
        "src1280": "https://cdn.pixabay.com/photo/2014/04/04/14/57/silhouette-313610_1280.jpg"
    },
    {
        "id": "3483783",
        "src640": "https://cdn.pixabay.com/photo/2018/06/19/02/33/balloons-3483783_640.jpg",
        "src1280": "https://cdn.pixabay.com/photo/2018/06/19/02/33/balloons-3483783_1280.jpg"
    },
    {
        "id": "3472298",
        "src640": "https://cdn.pixabay.com/photo/2018/06/13/09/32/technology-3472298_640.jpg",
        "src1280": "https://cdn.pixabay.com/photo/2018/06/13/09/32/technology-3472298_1280.jpg"
    },
    {
        "id": "2342705",
        "src640": "https://cdn.pixabay.com/photo/2017/05/25/09/22/background-2342705_640.jpg",
        "src1280": "https://cdn.pixabay.com/photo/2017/05/25/09/22/background-2342705_1280.jpg"
    },
    {
        "id": "446742",
        "src640": "https://cdn.pixabay.com/photo/2014/09/15/10/31/aesthetic-446742_640.jpg",
        "src1280": "https://cdn.pixabay.com/photo/2014/09/15/10/31/aesthetic-446742_1280.jpg"
    },
    {
        "id": "5987463",
        "src640": "https://cdn.pixabay.com/photo/2021/02/06/09/04/background-5987463_640.jpg",
        "src1280": "https://cdn.pixabay.com/photo/2021/02/06/09/04/background-5987463_1280.jpg"
    },
    {
        "id": "3424360",
        "src640": "https://cdn.pixabay.com/photo/2018/05/23/15/41/background-3424360_640.jpg",
        "src1280": "https://cdn.pixabay.com/photo/2018/05/23/15/41/background-3424360_1280.jpg"
    },
    {
        "id": "2092503",
        "src640": "https://cdn.pixabay.com/photo/2017/02/23/15/41/abstract-2092503_640.jpg",
        "src1280": "https://cdn.pixabay.com/photo/2017/02/23/15/41/abstract-2092503_1280.jpg"
    },
    {
        "id": "1506996",
        "src640": "https://cdn.pixabay.com/photo/2016/07/09/22/48/background-1506996_640.jpg",
        "src1280": "https://cdn.pixabay.com/photo/2016/07/09/22/48/background-1506996_1280.jpg"
    },
    {
        "id": "164141",
        "src640": "https://cdn.pixabay.com/photo/2013/07/18/14/58/helmet-164141_640.jpg",
        "src1280": "https://cdn.pixabay.com/photo/2013/07/18/14/58/helmet-164141_1280.jpg"
    },
    {
        "id": "4674613",
        "src640": "https://cdn.pixabay.com/photo/2019/12/05/09/19/abstract-4674613_640.jpg",
        "src1280": "https://cdn.pixabay.com/photo/2019/12/05/09/19/abstract-4674613_1280.jpg"
    },
    {
        "id": "5480345",
        "src640": "https://cdn.pixabay.com/photo/2020/08/11/16/01/window-5480345_640.jpg",
        "src1280": "https://cdn.pixabay.com/photo/2020/08/11/16/01/window-5480345_1280.jpg"
    },
    {
        "id": "1941268",
        "src640": "https://cdn.pixabay.com/photo/2016/12/30/18/54/background-1941268_640.jpg",
        "src1280": "https://cdn.pixabay.com/photo/2016/12/30/18/54/background-1941268_1280.jpg"
    },
    {
        "id": "1269962",
        "src640": "https://cdn.pixabay.com/photo/2016/03/21/03/37/abstract-background-1269962_640.jpg",
        "src1280": "https://cdn.pixabay.com/photo/2016/03/21/03/37/abstract-background-1269962_1280.jpg"
    }
]