[
    {
        "id": "5863445",
        "src640": "https://cdn.pixabay.com/photo/2020/12/27/09/35/lion-5863445_640.jpg",
        "src1280": "https://cdn.pixabay.com/photo/2020/12/27/09/35/lion-5863445_1280.jpg"
    },
    {
        "id": "2460842",
        "src640": "https://cdn.pixabay.com/photo/2017/07/01/08/20/design-2460842_640.jpg",
        "src1280": "https://cdn.pixabay.com/photo/2017/07/01/08/20/design-2460842_1280.jpg"
    },
    {
        "id": "3374610",
        "src640": "https://cdn.pixabay.com/photo/2018/05/04/18/18/astronomy-3374610_640.jpg",
        "src1280": "https://cdn.pixabay.com/photo/2018/05/04/18/18/astronomy-3374610_1280.jpg"
    },
    {
        "id": "3520011",
        "src640": "https://cdn.pixabay.com/photo/2018/07/06/09/03/mosaic-3520011_640.jpg",
        "src1280": "https://cdn.pixabay.com/photo/2018/07/06/09/03/mosaic-3520011_1280.jpg"
    },
    {
        "id": "3520109",
        "src640": "https://cdn.pixabay.com/photo/2018/07/06/10/18/number-3520109_640.jpg",
        "src1280": "https://cdn.pixabay.com/photo/2018/07/06/10/18/number-3520109_1280.jpg"
    },
    {
        "id": "633778",
        "src640": "https://cdn.pixabay.com/photo/2015/02/12/14/08/fiber-glass-633778_640.jpg",
        "src1280": "https://cdn.pixabay.com/photo/2015/02/12/14/08/fiber-glass-633778_1280.jpg"
    },
    {
        "id": "2797174",
        "src640": "https://cdn.pixabay.com/photo/2017/09/28/21/56/western-2797174_640.jpg",
        "src1280": "https://cdn.pixabay.com/photo/2017/09/28/21/56/western-2797174_1280.jpg"
    },
    {
        "id": "6602832",
        "src640": "https://cdn.pixabay.com/photo/2021/09/07/03/39/owl-6602832_640.jpg",
        "src1280": "https://cdn.pixabay.com/photo/2021/09/07/03/39/owl-6602832_1280.jpg"
    },
    {
        "id": "3863998",
        "src640": "https://cdn.pixabay.com/photo/2018/12/08/20/45/wallpaper-3863998_640.jpg",
        "src1280": "https://cdn.pixabay.com/photo/2018/12/08/20/45/wallpaper-3863998_1280.jpg"
    },
    {
        "id": "510234",
        "src640": "https://cdn.pixabay.com/photo/2014/10/31/03/41/pattern-510234_640.jpg",
        "src1280": "https://cdn.pixabay.com/photo/2014/10/31/03/41/pattern-510234_1280.jpg"
    },
    {
        "id": "13351",
        "src640": "https://cdn.pixabay.com/photo/2012/02/16/12/07/background-13351_640.jpg",
        "src1280": "https://cdn.pixabay.com/photo/2012/02/16/12/07/background-13351_1280.jpg"
    },
    {
        "id": "2956616",
        "src640": "https://cdn.pixabay.com/photo/2017/11/17/05/53/rock-2956616_640.jpg",
        "src1280": "https://cdn.pixabay.com/photo/2017/11/17/05/53/rock-2956616_1280.jpg"
    },
    {
        "id": "313552",
        "src640": "https://cdn.pixabay.com/photo/2014/04/04/14/57/background-313552_640.jpg",
        "src1280": "https://cdn.pixabay.com/photo/2014/04/04/14/57/background-313552_1280.jpg"
    },
    {
        "id": "3415936",
        "src640": "https://cdn.pixabay.com/photo/2018/05/20/14/32/people-3415936_640.jpg",
        "src1280": "https://cdn.pixabay.com/photo/2018/05/20/14/32/people-3415936_1280.jpg"
    },
    {
        "id": "548945",
        "src640": "https://cdn.pixabay.com/photo/2014/11/28/15/14/eggs-548945_640.jpg",
        "src1280": "https://cdn.pixabay.com/photo/2014/11/28/15/14/eggs-548945_1280.jpg"
    },
    {
        "id": "1407229",
        "src640": "https://cdn.pixabay.com/photo/2016/05/21/19/01/lure-1407229_640.jpg",
        "src1280": "https://cdn.pixabay.com/photo/2016/05/21/19/01/lure-1407229_1280.jpg"
    },
    {
        "id": "1181664",
        "src640": "https://cdn.pixabay.com/photo/2016/02/05/17/59/vintage-1181664_640.jpg",
        "src1280": "https://cdn.pixabay.com/photo/2016/02/05/17/59/vintage-1181664_1280.jpg"
    },
    {
        "id": "5297638",
        "src640": "https://cdn.pixabay.com/photo/2020/06/14/12/20/christmas-5297638_640.jpg",
        "src1280": "https://cdn.pixabay.com/photo/2020/06/14/12/20/christmas-5297638_1280.jpg"
    },
    {
        "id": "3091396",
        "src640": "https://cdn.pixabay.com/photo/2018/01/18/22/47/flower-3091396_640.jpg",
        "src1280": "https://cdn.pixabay.com/photo/2018/01/18/22/47/flower-3091396_1280.jpg"
    },
    {
        "id": "1848680",
        "src640": "https://cdn.pixabay.com/photo/2016/11/22/08/47/red-1848680_640.jpg",
        "src1280": "https://cdn.pixabay.com/photo/2016/11/22/08/47/red-1848680_1280.jpg"
    },
    {
        "id": "3566475",
        "src640": "https://cdn.pixabay.com/photo/2018/07/27/17/44/lime-3566475_640.jpg",
        "src1280": "https://cdn.pixabay.com/photo/2018/07/27/17/44/lime-3566475_1280.jpg"
    },
    {
        "id": "4688840",
        "src640": "https://cdn.pixabay.com/photo/2019/12/11/17/34/flat-lay-4688840_640.jpg",
        "src1280": "https://cdn.pixabay.com/photo/2019/12/11/17/34/flat-lay-4688840_1280.jpg"
    },
    {
        "id": "4277988",
        "src640": "https://cdn.pixabay.com/photo/2019/06/16/15/01/chinoiserie-4277988_640.jpg",
        "src1280": "https://cdn.pixabay.com/photo/2019/06/16/15/01/chinoiserie-4277988_1280.jpg"
    },
    {
        "id": "3400126",
        "src640": "https://cdn.pixabay.com/photo/2018/05/14/14/15/background-3400126_640.jpg",
        "src1280": "https://cdn.pixabay.com/photo/2018/05/14/14/15/background-3400126_1280.jpg"
    },
    {
        "id": "72180",
        "src640": "https://cdn.pixabay.com/photo/2012/12/24/08/39/wedding-72180_640.jpg",
        "src1280": "https://cdn.pixabay.com/photo/2012/12/24/08/39/wedding-72180_1280.jpg"
    },
    {
        "id": "3500839",
        "src640": "https://cdn.pixabay.com/photo/2018/06/27/05/32/color-3500839_640.jpg",
        "src1280": "https://cdn.pixabay.com/photo/2018/06/27/05/32/color-3500839_1280.jpg"
    },
    {
        "id": "3351230",
        "src640": "https://cdn.pixabay.com/photo/2018/04/26/06/28/pattern-3351230_640.jpg",
        "src1280": "https://cdn.pixabay.com/photo/2018/04/26/06/28/pattern-3351230_1280.jpg"
    },
    {
        "id": "2499405",
        "src640": "https://cdn.pixabay.com/photo/2017/07/13/06/32/background-2499405_640.jpg",
        "src1280": "https://cdn.pixabay.com/photo/2017/07/13/06/32/background-2499405_1280.jpg"
    },
    {
        "id": "3920656",
        "src640": "https://cdn.pixabay.com/photo/2019/01/08/08/57/rose-3920656_640.jpg",
        "src1280": "https://cdn.pixabay.com/photo/2019/01/08/08/57/rose-3920656_1280.jpg"
    },
    {
        "id": "2395471",
        "src640": "https://cdn.pixabay.com/photo/2017/06/12/12/42/application-2395471_640.jpg",
        "src1280": "https://cdn.pixabay.com/photo/2017/06/12/12/42/application-2395471_1280.jpg"
    },
    {
        "id": "715574",
        "src640": "https://cdn.pixabay.com/photo/2015/04/10/01/29/background-715574_640.jpg",
        "src1280": "https://cdn.pixabay.com/photo/2015/04/10/01/29/background-715574_1280.jpg"
    },
    {
        "id": "3464983",
        "src640": "https://cdn.pixabay.com/photo/2018/06/09/19/37/sky-3464983_640.jpg",
        "src1280": "https://cdn.pixabay.com/photo/2018/06/09/19/37/sky-3464983_1280.jpg"
    },
    {
        "id": "3902289",
        "src640": "https://cdn.pixabay.com/photo/2018/12/29/22/18/sun-3902289_640.jpg",
        "src1280": "https://cdn.pixabay.com/photo/2018/12/29/22/18/sun-3902289_1280.jpg"
    },
    {
        "id": "3710589",
        "src640": "https://cdn.pixabay.com/photo/2018/09/29/01/12/sea-3710589_640.jpg",
        "src1280": "https://cdn.pixabay.com/photo/2018/09/29/01/12/sea-3710589_1280.jpg"
    },
    {
        "id": "607784",
        "src640": "https://cdn.pixabay.com/photo/2015/01/22/14/39/blue-607784_640.jpg",
        "src1280": "https://cdn.pixabay.com/photo/2015/01/22/14/39/blue-607784_1280.jpg"
    },
    {
        "id": "4820510",
        "src640": "https://cdn.pixabay.com/photo/2020/02/05/09/05/dinosaur-4820510_640.jpg",
        "src1280": "https://cdn.pixabay.com/photo/2020/02/05/09/05/dinosaur-4820510_1280.jpg"
    },
    {
        "id": "5159632",
        "src640": "https://cdn.pixabay.com/photo/2020/05/11/18/21/art-5159632_640.jpg",
        "src1280": "https://cdn.pixabay.com/photo/2020/05/11/18/21/art-5159632_1280.jpg"
    },
    {
        "id": "518440",
        "src640": "https://cdn.pixabay.com/photo/2014/11/05/21/58/wood-518440_640.jpg",
        "src1280": "https://cdn.pixabay.com/photo/2014/11/05/21/58/wood-518440_1280.jpg"
    },
    {
        "id": "5840161",
        "src640": "https://cdn.pixabay.com/photo/2020/12/17/18/33/cross-5840161_640.jpg",
        "src1280": "https://cdn.pixabay.com/photo/2020/12/17/18/33/cross-5840161_1280.jpg"
    },
    {
        "id": "1021968",
        "src640": "https://cdn.pixabay.com/photo/2015/11/04/06/32/christmas-1021968_640.jpg",
        "src1280": "https://cdn.pixabay.com/photo/2015/11/04/06/32/christmas-1021968_1280.jpg"
    },
    {
        "id": "3516118",
        "src640": "https://cdn.pixabay.com/photo/2018/07/04/13/12/number-3516118_640.jpg",
        "src1280": "https://cdn.pixabay.com/photo/2018/07/04/13/12/number-3516118_1280.jpg"
    },
    {
        "id": "1246807",
        "src640": "https://cdn.pixabay.com/photo/2016/03/09/16/26/frame-1246807_640.jpg",
        "src1280": "https://cdn.pixabay.com/photo/2016/03/09/16/26/frame-1246807_1280.jpg"
    },
    {
        "id": "3462432",
        "src640": "https://cdn.pixabay.com/photo/2018/06/08/14/35/maruyama-3462432_640.jpg",
        "src1280": "https://cdn.pixabay.com/photo/2018/06/08/14/35/maruyama-3462432_1280.jpg"
    },
    {
        "id": "316905",
        "src640": "https://cdn.pixabay.com/photo/2014/04/05/12/20/horse-316905_640.jpg",
        "src1280": "https://cdn.pixabay.com/photo/2014/04/05/12/20/horse-316905_1280.jpg"
    },
    {
        "id": "316920",
        "src640": "https://cdn.pixabay.com/photo/2014/04/05/12/20/boy-scout-316920_640.jpg",
        "src1280": "https://cdn.pixabay.com/photo/2014/04/05/12/20/boy-scout-316920_1280.jpg"
    },
    {
        "id": "3142155",
        "src640": "https://cdn.pixabay.com/photo/2018/02/09/18/27/framework-3142155_640.jpg",
        "src1280": "https://cdn.pixabay.com/photo/2018/02/09/18/27/framework-3142155_1280.jpg"
    },
    {
        "id": "3502669",
        "src640": "https://cdn.pixabay.com/photo/2018/06/27/21/45/old-3502669_640.jpg",
        "src1280": "https://cdn.pixabay.com/photo/2018/06/27/21/45/old-3502669_1280.jpg"
    },
    {
        "id": "317014",
        "src640": "https://cdn.pixabay.com/photo/2014/04/05/12/24/dog-317014_640.jpg",
        "src1280": "https://cdn.pixabay.com/photo/2014/04/05/12/24/dog-317014_1280.jpg"
    },
    {
        "id": "6875036",
        "src640": "https://cdn.pixabay.com/photo/2021/12/16/18/42/background-6875036_640.jpg",
        "src1280": "https://cdn.pixabay.com/photo/2021/12/16/18/42/background-6875036_1280.jpg"
    },
    {
        "id": "316930",
        "src640": "https://cdn.pixabay.com/photo/2014/04/05/12/20/dog-316930_640.jpg",
        "src1280": "https://cdn.pixabay.com/photo/2014/04/05/12/20/dog-316930_1280.jpg"
    },
    {
        "id": "3516114",
        "src640": "https://cdn.pixabay.com/photo/2018/07/04/13/10/number-3516114_640.jpg",
        "src1280": "https://cdn.pixabay.com/photo/2018/07/04/13/10/number-3516114_1280.jpg"
    },
    {
        "id": "3335627",
        "src640": "https://cdn.pixabay.com/photo/2018/04/20/10/11/a4-3335627_640.jpg",
        "src1280": "https://cdn.pixabay.com/photo/2018/04/20/10/11/a4-3335627_1280.jpg"
    },
    {
        "id": "3695056",
        "src640": "https://cdn.pixabay.com/photo/2018/09/22/11/30/christmas-3695056_640.jpg",
        "src1280": "https://cdn.pixabay.com/photo/2018/09/22/11/30/christmas-3695056_1280.jpg"
    },
    {
        "id": "1162822",
        "src640": "https://cdn.pixabay.com/photo/2016/01/26/16/23/background-1162822_640.jpg",
        "src1280": "https://cdn.pixabay.com/photo/2016/01/26/16/23/background-1162822_1280.jpg"
    },
    {
        "id": "70774",
        "src640": "https://cdn.pixabay.com/photo/2012/12/18/18/03/tunnel-70774_640.jpg",
        "src1280": "https://cdn.pixabay.com/photo/2012/12/18/18/03/tunnel-70774_1280.jpg"
    },
    {
        "id": "3872488",
        "src640": "https://cdn.pixabay.com/photo/2018/12/13/09/38/coffee-3872488_640.jpg",
        "src1280": "https://cdn.pixabay.com/photo/2018/12/13/09/38/coffee-3872488_1280.jpg"
    },
    {
        "id": "850028",
        "src640": "https://cdn.pixabay.com/photo/2015/07/18/05/07/cotton-850028_640.jpg",
        "src1280": "https://cdn.pixabay.com/photo/2015/07/18/05/07/cotton-850028_1280.jpg"
    },
    {
        "id": "2138477",
        "src640": "https://cdn.pixabay.com/photo/2017/03/13/00/12/texture-2138477_640.jpg",
        "src1280": "https://cdn.pixabay.com/photo/2017/03/13/00/12/texture-2138477_1280.jpg"
    },
    {
        "id": "3677923",
        "src640": "https://cdn.pixabay.com/photo/2018/09/14/19/04/eiffel-tower-3677923_640.jpg",
        "src1280": "https://cdn.pixabay.com/photo/2018/09/14/19/04/eiffel-tower-3677923_1280.jpg"
    },
    {
        "id": "1164935",
        "src640": "https://cdn.pixabay.com/photo/2016/01/27/17/12/texture-1164935_640.jpg",
        "src1280": "https://cdn.pixabay.com/photo/2016/01/27/17/12/texture-1164935_1280.jpg"
    },
    {
        "id": "5180350",
        "src640": "https://cdn.pixabay.com/photo/2020/05/17/07/01/iphone-wallpapers-5180350_640.jpg",
        "src1280": "https://cdn.pixabay.com/photo/2020/05/17/07/01/iphone-wallpapers-5180350_1280.jpg"
    },
    {
        "id": "7243908",
        "src640": "https://cdn.pixabay.com/photo/2022/06/05/12/26/botanical-photography-7243908_640.jpg",
        "src1280": "https://cdn.pixabay.com/photo/2022/06/05/12/26/botanical-photography-7243908_1280.jpg"
    },
    {
        "id": "6190635",
        "src640": "https://cdn.pixabay.com/photo/2021/04/19/07/38/hello-kitty-6190635_640.jpg",
        "src1280": "https://cdn.pixabay.com/photo/2021/04/19/07/38/hello-kitty-6190635_1280.jpg"
    },
    {
        "id": "82927",
        "src640": "https://cdn.pixabay.com/photo/2013/02/18/18/34/christmas-82927_640.jpg",
        "src1280": "https://cdn.pixabay.com/photo/2013/02/18/18/34/christmas-82927_1280.jpg"
    },
    {
        "id": "2974166",
        "src640": "https://cdn.pixabay.com/photo/2017/11/24/06/16/background-2974166_640.jpg",
        "src1280": "https://cdn.pixabay.com/photo/2017/11/24/06/16/background-2974166_1280.jpg"
    },
    {
        "id": "1230124",
        "src640": "https://cdn.pixabay.com/photo/2016/03/01/11/33/wood-1230124_640.jpg",
        "src1280": "https://cdn.pixabay.com/photo/2016/03/01/11/33/wood-1230124_1280.jpg"
    },
    {
        "id": "5253916",
        "src640": "https://cdn.pixabay.com/photo/2020/06/03/08/10/flower-5253916_640.jpg",
        "src1280": "https://cdn.pixabay.com/photo/2020/06/03/08/10/flower-5253916_1280.jpg"
    },
    {
        "id": "3153031",
        "src640": "https://cdn.pixabay.com/photo/2018/02/14/13/59/menu-3153031_640.jpg",
        "src1280": "https://cdn.pixabay.com/photo/2018/02/14/13/59/menu-3153031_1280.jpg"
    },
    {
        "id": "2649908",
        "src640": "https://cdn.pixabay.com/photo/2017/08/17/03/23/heart-2649908_640.jpg",
        "src1280": "https://cdn.pixabay.com/photo/2017/08/17/03/23/heart-2649908_1280.jpg"
    },
    {
        "id": "6793309",
        "src640": "https://cdn.pixabay.com/photo/2021/11/14/06/51/watercolor-background-6793309_640.jpg",
        "src1280": "https://cdn.pixabay.com/photo/2021/11/14/06/51/watercolor-background-6793309_1280.jpg"
    },
    {
        "id": "6793556",
        "src640": "https://cdn.pixabay.com/photo/2021/11/14/07/28/watercolor-background-6793556_640.jpg",
        "src1280": "https://cdn.pixabay.com/photo/2021/11/14/07/28/watercolor-background-6793556_1280.jpg"
    },
    {
        "id": "1492520",
        "src640": "https://cdn.pixabay.com/photo/2016/07/02/06/25/rainbow-1492520_640.jpg",
        "src1280": "https://cdn.pixabay.com/photo/2016/07/02/06/25/rainbow-1492520_1280.jpg"
    },
    {
        "id": "6190631",
        "src640": "https://cdn.pixabay.com/photo/2021/04/19/07/36/hello-kitty-6190631_640.jpg",
        "src1280": "https://cdn.pixabay.com/photo/2021/04/19/07/36/hello-kitty-6190631_1280.jpg"
    },
    {
        "id": "5067815",
        "src640": "https://cdn.pixabay.com/photo/2020/04/20/10/50/art-5067815_640.jpg",
        "src1280": "https://cdn.pixabay.com/photo/2020/04/20/10/50/art-5067815_1280.jpg"
    },
    {
        "id": "1336531",
        "src640": "https://cdn.pixabay.com/photo/2016/04/18/14/13/engineering-1336531_640.jpg",
        "src1280": "https://cdn.pixabay.com/photo/2016/04/18/14/13/engineering-1336531_1280.jpg"
    },
    {
        "id": "3288255",
        "src640": "https://cdn.pixabay.com/photo/2018/04/03/22/13/immersed-3288255_640.jpg",
        "src1280": "https://cdn.pixabay.com/photo/2018/04/03/22/13/immersed-3288255_1280.jpg"
    },
    {
        "id": "6136142",
        "src640": "https://cdn.pixabay.com/photo/2021/03/30/07/32/bear-6136142_640.jpg",
        "src1280": "https://cdn.pixabay.com/photo/2021/03/30/07/32/bear-6136142_1280.jpg"
    },
    {
        "id": "2969268",
        "src640": "https://cdn.pixabay.com/photo/2017/11/21/21/31/blossom-2969268_640.jpg",
        "src1280": "https://cdn.pixabay.com/photo/2017/11/21/21/31/blossom-2969268_1280.jpg"
    },
    {
        "id": "1963427",
        "src640": "https://cdn.pixabay.com/photo/2017/01/08/17/08/texture-1963427_640.jpg",
        "src1280": "https://cdn.pixabay.com/photo/2017/01/08/17/08/texture-1963427_1280.jpg"
    },
    {
        "id": "4068257",
        "src640": "https://cdn.pixabay.com/photo/2019/03/20/11/36/weeping-willow-4068257_640.jpg",
        "src1280": "https://cdn.pixabay.com/photo/2019/03/20/11/36/weeping-willow-4068257_1280.jpg"
    },
    {
        "id": "3938629",
        "src640": "https://cdn.pixabay.com/photo/2019/01/17/20/46/seattle-3938629_640.jpg",
        "src1280": "https://cdn.pixabay.com/photo/2019/01/17/20/46/seattle-3938629_1280.jpg"
    },
    {
        "id": "73352",
        "src640": "https://cdn.pixabay.com/photo/2013/01/02/18/05/wall-73352_640.jpg",
        "src1280": "https://cdn.pixabay.com/photo/2013/01/02/18/05/wall-73352_1280.jpg"
    },
    {
        "id": "6193356",
        "src640": "https://cdn.pixabay.com/photo/2021/04/20/10/03/acrylic-6193356_640.jpg",
        "src1280": "https://cdn.pixabay.com/photo/2021/04/20/10/03/acrylic-6193356_1280.jpg"
    },
    {
        "id": "6204792",
        "src640": "https://cdn.pixabay.com/photo/2021/04/24/18/52/background-6204792_640.jpg",
        "src1280": "https://cdn.pixabay.com/photo/2021/04/24/18/52/background-6204792_1280.jpg"
    },
    {
        "id": "3018695",
        "src640": "https://cdn.pixabay.com/photo/2017/12/14/10/12/colorful-3018695_640.jpg",
        "src1280": "https://cdn.pixabay.com/photo/2017/12/14/10/12/colorful-3018695_1280.jpg"
    },
    {
        "id": "5260099",
        "src640": "https://cdn.pixabay.com/photo/2020/06/04/19/00/ice-cream-5260099_640.jpg",
        "src1280": "https://cdn.pixabay.com/photo/2020/06/04/19/00/ice-cream-5260099_1280.jpg"
    },
    {
        "id": "951476",
        "src640": "https://cdn.pixabay.com/photo/2015/09/22/12/09/best-951476_640.jpg",
        "src1280": "https://cdn.pixabay.com/photo/2015/09/22/12/09/best-951476_1280.jpg"
    },
    {
        "id": "1183159",
        "src640": "https://cdn.pixabay.com/photo/2016/02/06/16/28/geometric-1183159_640.jpg",
        "src1280": "https://cdn.pixabay.com/photo/2016/02/06/16/28/geometric-1183159_1280.jpg"
    },
    {
        "id": "1168260",
        "src640": "https://cdn.pixabay.com/photo/2016/01/29/16/22/fiber-1168260_640.jpg",
        "src1280": "https://cdn.pixabay.com/photo/2016/01/29/16/22/fiber-1168260_1280.jpg"
    },
    {
        "id": "316972",
        "src640": "https://cdn.pixabay.com/photo/2014/04/05/12/24/beach-hut-316972_640.jpg",
        "src1280": "https://cdn.pixabay.com/photo/2014/04/05/12/24/beach-hut-316972_1280.jpg"
    }
]