[
    {
        "id": "2868742",
        "src640": "https://cdn.pixabay.com/photo/2017/10/19/18/31/nature-2868742_640.jpg",
        "src1280": "https://cdn.pixabay.com/photo/2017/10/19/18/31/nature-2868742_1280.jpg"
    },
    {
        "id": "5954427",
        "src640": "https://cdn.pixabay.com/photo/2021/01/27/09/41/shellfish-5954427_640.jpg",
        "src1280": "https://cdn.pixabay.com/photo/2021/01/27/09/41/shellfish-5954427_1280.jpg"
    },
    {
        "id": "314561",
        "src640": "https://cdn.pixabay.com/photo/2014/04/05/11/07/flower-314561_640.jpg",
        "src1280": "https://cdn.pixabay.com/photo/2014/04/05/11/07/flower-314561_1280.jpg"
    },
    {
        "id": "6333833",
        "src640": "https://cdn.pixabay.com/photo/2021/06/13/16/52/background-6333833_640.jpg",
        "src1280": "https://cdn.pixabay.com/photo/2021/06/13/16/52/background-6333833_1280.jpg"
    },
    {
        "id": "1359638",
        "src640": "https://cdn.pixabay.com/photo/2016/04/28/20/34/lichen-1359638_640.jpg",
        "src1280": "https://cdn.pixabay.com/photo/2016/04/28/20/34/lichen-1359638_1280.jpg"
    },
    {
        "id": "6190637",
        "src640": "https://cdn.pixabay.com/photo/2021/04/19/07/38/daisy-duck-6190637_640.jpg",
        "src1280": "https://cdn.pixabay.com/photo/2021/04/19/07/38/daisy-duck-6190637_1280.jpg"
    },
    {
        "id": "3942187",
        "src640": "https://cdn.pixabay.com/photo/2019/01/19/17/52/headshots-3942187_640.jpg",
        "src1280": "https://cdn.pixabay.com/photo/2019/01/19/17/52/headshots-3942187_1280.jpg"
    },
    {
        "id": "661771",
        "src640": "https://cdn.pixabay.com/photo/2015/03/06/14/26/cloud-661771_640.jpg",
        "src1280": "https://cdn.pixabay.com/photo/2015/03/06/14/26/cloud-661771_1280.jpg"
    },
    {
        "id": "1659521",
        "src640": "https://cdn.pixabay.com/photo/2016/09/10/16/12/background-1659521_640.jpg",
        "src1280": "https://cdn.pixabay.com/photo/2016/09/10/16/12/background-1659521_1280.jpg"
    },
    {
        "id": "2877166",
        "src640": "https://cdn.pixabay.com/photo/2017/10/22/09/09/lotus-2877166_640.jpg",
        "src1280": "https://cdn.pixabay.com/photo/2017/10/22/09/09/lotus-2877166_1280.jpg"
    },
    {
        "id": "2198449",
        "src640": "https://cdn.pixabay.com/photo/2017/04/03/13/59/watercolor-2198449_640.jpg",
        "src1280": "https://cdn.pixabay.com/photo/2017/04/03/13/59/watercolor-2198449_1280.jpg"
    },
    {
        "id": "1127216",
        "src640": "https://cdn.pixabay.com/photo/2016/01/08/06/37/charcoal-texture-1127216_640.jpg",
        "src1280": "https://cdn.pixabay.com/photo/2016/01/08/06/37/charcoal-texture-1127216_1280.jpg"
    },
    {
        "id": "1526072",
        "src640": "https://cdn.pixabay.com/photo/2016/07/18/14/48/ladies-1526072_640.jpg",
        "src1280": "https://cdn.pixabay.com/photo/2016/07/18/14/48/ladies-1526072_1280.jpg"
    },
    {
        "id": "6466115",
        "src640": "https://cdn.pixabay.com/photo/2021/07/14/13/44/newspaper-6466115_640.jpg",
        "src1280": "https://cdn.pixabay.com/photo/2021/07/14/13/44/newspaper-6466115_1280.jpg"
    },
    {
        "id": "1925992",
        "src640": "https://cdn.pixabay.com/photo/2016/12/22/18/43/tulip-1925992_640.jpg",
        "src1280": "https://cdn.pixabay.com/photo/2016/12/22/18/43/tulip-1925992_1280.jpg"
    },
    {
        "id": "970901",
        "src640": "https://cdn.pixabay.com/photo/2015/10/04/11/23/snow-970901_640.jpg",
        "src1280": "https://cdn.pixabay.com/photo/2015/10/04/11/23/snow-970901_1280.jpg"
    },
    {
        "id": "5692196",
        "src640": "https://cdn.pixabay.com/photo/2020/10/28/00/26/chevron-5692196_640.jpg",
        "src1280": "https://cdn.pixabay.com/photo/2020/10/28/00/26/chevron-5692196_1280.jpg"
    },
    {
        "id": "803219",
        "src640": "https://cdn.pixabay.com/photo/2015/06/09/09/49/girl-803219_640.jpg",
        "src1280": "https://cdn.pixabay.com/photo/2015/06/09/09/49/girl-803219_1280.jpg"
    },
    {
        "id": "4397338",
        "src640": "https://cdn.pixabay.com/photo/2019/08/10/17/06/vine-4397338_640.jpg",
        "src1280": "https://cdn.pixabay.com/photo/2019/08/10/17/06/vine-4397338_1280.jpg"
    },
    {
        "id": "5388226",
        "src640": "https://cdn.pixabay.com/photo/2020/07/09/18/02/flamingo-5388226_640.jpg",
        "src1280": "https://cdn.pixabay.com/photo/2020/07/09/18/02/flamingo-5388226_1280.jpg"
    },
    {
        "id": "6144172",
        "src640": "https://cdn.pixabay.com/photo/2021/04/02/07/41/girl-6144172_640.jpg",
        "src1280": "https://cdn.pixabay.com/photo/2021/04/02/07/41/girl-6144172_1280.jpg"
    },
    {
        "id": "853519",
        "src640": "https://cdn.pixabay.com/photo/2015/07/21/02/37/coarse-853519_640.jpg",
        "src1280": "https://cdn.pixabay.com/photo/2015/07/21/02/37/coarse-853519_1280.jpg"
    },
    {
        "id": "3424457",
        "src640": "https://cdn.pixabay.com/photo/2018/05/23/16/23/flower-3424457_640.jpg",
        "src1280": "https://cdn.pixabay.com/photo/2018/05/23/16/23/flower-3424457_1280.jpg"
    },
    {
        "id": "2394703",
        "src640": "https://cdn.pixabay.com/photo/2017/06/12/08/03/womens-2394703_640.jpg",
        "src1280": "https://cdn.pixabay.com/photo/2017/06/12/08/03/womens-2394703_1280.jpg"
    },
    {
        "id": "4077300",
        "src640": "https://cdn.pixabay.com/photo/2019/03/24/10/48/usa-4077300_640.jpg",
        "src1280": "https://cdn.pixabay.com/photo/2019/03/24/10/48/usa-4077300_1280.jpg"
    },
    {
        "id": "313615",
        "src640": "https://cdn.pixabay.com/photo/2014/04/04/14/57/tulips-313615_640.jpg",
        "src1280": "https://cdn.pixabay.com/photo/2014/04/04/14/57/tulips-313615_1280.jpg"
    },
    {
        "id": "7246300",
        "src640": "https://cdn.pixabay.com/photo/2022/06/06/15/32/dart-board-7246300_640.jpg",
        "src1280": "https://cdn.pixabay.com/photo/2022/06/06/15/32/dart-board-7246300_1280.jpg"
    },
    {
        "id": "5822813",
        "src640": "https://cdn.pixabay.com/photo/2020/12/11/13/05/stationery-5822813_640.jpg",
        "src1280": "https://cdn.pixabay.com/photo/2020/12/11/13/05/stationery-5822813_1280.jpg"
    },
    {
        "id": "4501806",
        "src640": "https://cdn.pixabay.com/photo/2019/09/24/17/08/forest-4501806_640.jpg",
        "src1280": "https://cdn.pixabay.com/photo/2019/09/24/17/08/forest-4501806_1280.jpg"
    },
    {
        "id": "5372938",
        "src640": "https://cdn.pixabay.com/photo/2020/07/05/13/07/flowers-5372938_640.jpg",
        "src1280": "https://cdn.pixabay.com/photo/2020/07/05/13/07/flowers-5372938_1280.jpg"
    },
    {
        "id": "1551580",
        "src640": "https://cdn.pixabay.com/photo/2016/07/29/08/56/chalk-1551580_640.jpg",
        "src1280": "https://cdn.pixabay.com/photo/2016/07/29/08/56/chalk-1551580_1280.jpg"
    },
    {
        "id": "2485075",
        "src640": "https://cdn.pixabay.com/photo/2017/07/08/17/49/anna-pavlova-2485075_640.jpg",
        "src1280": "https://cdn.pixabay.com/photo/2017/07/08/17/49/anna-pavlova-2485075_1280.jpg"
    },
    {
        "id": "2333197",
        "src640": "https://cdn.pixabay.com/photo/2017/05/22/06/11/background-2333197_640.jpg",
        "src1280": "https://cdn.pixabay.com/photo/2017/05/22/06/11/background-2333197_1280.jpg"
    },
    {
        "id": "17969",
        "src640": "https://cdn.pixabay.com/photo/2012/02/28/10/12/marbled-17969_640.jpg",
        "src1280": "https://cdn.pixabay.com/photo/2012/02/28/10/12/marbled-17969_1280.jpg"
    },
    {
        "id": "428573",
        "src640": "https://cdn.pixabay.com/photo/2014/08/26/21/41/material-428573_640.jpg",
        "src1280": "https://cdn.pixabay.com/photo/2014/08/26/21/41/material-428573_1280.jpg"
    },
    {
        "id": "6670238",
        "src640": "https://cdn.pixabay.com/photo/2021/09/30/14/40/backgroundgirl-6670238_640.jpg",
        "src1280": "https://cdn.pixabay.com/photo/2021/09/30/14/40/backgroundgirl-6670238_1280.jpg"
    },
    {
        "id": "3521042",
        "src640": "https://cdn.pixabay.com/photo/2018/07/06/19/31/background-3521042_640.jpg",
        "src1280": "https://cdn.pixabay.com/photo/2018/07/06/19/31/background-3521042_1280.jpg"
    },
    {
        "id": "2334085",
        "src640": "https://cdn.pixabay.com/photo/2017/05/22/12/57/tow-away-2334085_640.jpg",
        "src1280": "https://cdn.pixabay.com/photo/2017/05/22/12/57/tow-away-2334085_1280.jpg"
    },
    {
        "id": "6773767",
        "src640": "https://cdn.pixabay.com/photo/2021/11/06/16/33/writing-paper-6773767_640.jpg",
        "src1280": "https://cdn.pixabay.com/photo/2021/11/06/16/33/writing-paper-6773767_1280.jpg"
    },
    {
        "id": "3338700",
        "src640": "https://cdn.pixabay.com/photo/2018/04/21/15/26/portrait-3338700_640.jpg",
        "src1280": "https://cdn.pixabay.com/photo/2018/04/21/15/26/portrait-3338700_1280.jpg"
    },
    {
        "id": "949044",
        "src640": "https://cdn.pixabay.com/photo/2015/09/20/23/33/fabric-949044_640.jpg",
        "src1280": "https://cdn.pixabay.com/photo/2015/09/20/23/33/fabric-949044_1280.jpg"
    },
    {
        "id": "3664474",
        "src640": "https://cdn.pixabay.com/photo/2018/09/09/12/35/bark-3664474_640.jpg",
        "src1280": "https://cdn.pixabay.com/photo/2018/09/09/12/35/bark-3664474_1280.jpg"
    },
    {
        "id": "3426930",
        "src640": "https://cdn.pixabay.com/photo/2018/05/24/15/35/blossom-3426930_640.jpg",
        "src1280": "https://cdn.pixabay.com/photo/2018/05/24/15/35/blossom-3426930_1280.jpg"
    },
    {
        "id": "4731317",
        "src640": "https://cdn.pixabay.com/photo/2019/12/31/06/26/flower-4731317_640.jpg",
        "src1280": "https://cdn.pixabay.com/photo/2019/12/31/06/26/flower-4731317_1280.jpg"
    },
    {
        "id": "938300",
        "src640": "https://cdn.pixabay.com/photo/2015/09/13/15/44/roses-938300_640.jpg",
        "src1280": "https://cdn.pixabay.com/photo/2015/09/13/15/44/roses-938300_1280.jpg"
    },
    {
        "id": "1828047",
        "src640": "https://cdn.pixabay.com/photo/2016/11/16/02/39/background-1828047_640.jpg",
        "src1280": "https://cdn.pixabay.com/photo/2016/11/16/02/39/background-1828047_1280.jpg"
    },
    {
        "id": "1729155",
        "src640": "https://cdn.pixabay.com/photo/2016/10/10/16/48/moon-1729155_640.jpg",
        "src1280": "https://cdn.pixabay.com/photo/2016/10/10/16/48/moon-1729155_1280.jpg"
    },
    {
        "id": "5896697",
        "src640": "https://cdn.pixabay.com/photo/2021/01/07/09/53/background-5896697_640.jpg",
        "src1280": "https://cdn.pixabay.com/photo/2021/01/07/09/53/background-5896697_1280.jpg"
    },
    {
        "id": "5930805",
        "src640": "https://cdn.pixabay.com/photo/2021/01/19/10/37/converse-5930805_640.jpg",
        "src1280": "https://cdn.pixabay.com/photo/2021/01/19/10/37/converse-5930805_1280.jpg"
    },
    {
        "id": "3298618",
        "src640": "https://cdn.pixabay.com/photo/2018/04/07/14/27/leaf-3298618_640.jpg",
        "src1280": "https://cdn.pixabay.com/photo/2018/04/07/14/27/leaf-3298618_1280.jpg"
    },
    {
        "id": "5308690",
        "src640": "https://cdn.pixabay.com/photo/2020/06/17/08/47/night-5308690_640.jpg",
        "src1280": "https://cdn.pixabay.com/photo/2020/06/17/08/47/night-5308690_1280.jpg"
    },
    {
        "id": "4446593",
        "src640": "https://cdn.pixabay.com/photo/2019/09/02/05/54/landscape-4446593_640.jpg",
        "src1280": "https://cdn.pixabay.com/photo/2019/09/02/05/54/landscape-4446593_1280.jpg"
    },
    {
        "id": "6558943",
        "src640": "https://cdn.pixabay.com/photo/2021/08/19/20/36/triangle-6558943_640.jpg",
        "src1280": "https://cdn.pixabay.com/photo/2021/08/19/20/36/triangle-6558943_1280.jpg"
    },
    {
        "id": "3845054",
        "src640": "https://cdn.pixabay.com/photo/2018/11/29/05/52/city-3845054_640.jpg",
        "src1280": "https://cdn.pixabay.com/photo/2018/11/29/05/52/city-3845054_1280.jpg"
    },
    {
        "id": "6139736",
        "src640": "https://cdn.pixabay.com/photo/2021/03/31/15/06/plant-6139736_640.jpg",
        "src1280": "https://cdn.pixabay.com/photo/2021/03/31/15/06/plant-6139736_1280.jpg"
    },
    {
        "id": "4844013",
        "src640": "https://cdn.pixabay.com/photo/2020/02/12/21/54/golden-star-4844013_640.jpg",
        "src1280": "https://cdn.pixabay.com/photo/2020/02/12/21/54/golden-star-4844013_1280.jpg"
    },
    {
        "id": "1724605",
        "src640": "https://cdn.pixabay.com/photo/2016/10/08/20/47/fabric-1724605_640.jpg",
        "src1280": "https://cdn.pixabay.com/photo/2016/10/08/20/47/fabric-1724605_1280.jpg"
    },
    {
        "id": "1303177",
        "src640": "https://cdn.pixabay.com/photo/2016/04/02/16/47/background-1303177_640.jpg",
        "src1280": "https://cdn.pixabay.com/photo/2016/04/02/16/47/background-1303177_1280.jpg"
    },
    {
        "id": "3347915",
        "src640": "https://cdn.pixabay.com/photo/2018/04/24/20/19/wood-3347915_640.jpg",
        "src1280": "https://cdn.pixabay.com/photo/2018/04/24/20/19/wood-3347915_1280.jpg"
    },
    {
        "id": "6806994",
        "src640": "https://cdn.pixabay.com/photo/2021/11/18/18/05/nature-6806994_640.jpg",
        "src1280": "https://cdn.pixabay.com/photo/2021/11/18/18/05/nature-6806994_1280.jpg"
    },
    {
        "id": "6337047",
        "src640": "https://cdn.pixabay.com/photo/2021/06/14/23/01/circles-6337047_640.jpg",
        "src1280": "https://cdn.pixabay.com/photo/2021/06/14/23/01/circles-6337047_1280.jpg"
    },
    {
        "id": "6316952",
        "src640": "https://cdn.pixabay.com/photo/2021/06/07/05/00/speak-balloons-6316952_640.jpg",
        "src1280": "https://cdn.pixabay.com/photo/2021/06/07/05/00/speak-balloons-6316952_1280.jpg"
    },
    {
        "id": "917231",
        "src640": "https://cdn.pixabay.com/photo/2015/09/01/17/00/cotton-917231_640.jpg",
        "src1280": "https://cdn.pixabay.com/photo/2015/09/01/17/00/cotton-917231_1280.jpg"
    },
    {
        "id": "797279",
        "src640": "https://cdn.pixabay.com/photo/2015/06/04/09/14/geometric-797279_640.jpg",
        "src1280": "https://cdn.pixabay.com/photo/2015/06/04/09/14/geometric-797279_1280.jpg"
    },
    {
        "id": "6093884",
        "src640": "https://cdn.pixabay.com/photo/2021/03/14/10/54/sprig-6093884_640.jpg",
        "src1280": "https://cdn.pixabay.com/photo/2021/03/14/10/54/sprig-6093884_1280.jpg"
    },
    {
        "id": "592032",
        "src640": "https://cdn.pixabay.com/photo/2015/01/07/21/54/snow-man-592032_640.jpg",
        "src1280": "https://cdn.pixabay.com/photo/2015/01/07/21/54/snow-man-592032_1280.jpg"
    },
    {
        "id": "8029179",
        "src640": "https://cdn.pixabay.com/photo/2023/05/30/17/09/colorful-8029179_640.jpg",
        "src1280": "https://cdn.pixabay.com/photo/2023/05/30/17/09/colorful-8029179_1280.jpg"
    },
    {
        "id": "3306867",
        "src640": "https://cdn.pixabay.com/photo/2018/04/10/09/52/young-3306867_640.jpg",
        "src1280": "https://cdn.pixabay.com/photo/2018/04/10/09/52/young-3306867_1280.jpg"
    },
    {
        "id": "3068190",
        "src640": "https://cdn.pixabay.com/photo/2018/01/07/19/57/background-3068190_640.jpg",
        "src1280": "https://cdn.pixabay.com/photo/2018/01/07/19/57/background-3068190_1280.jpg"
    },
    {
        "id": "4430226",
        "src640": "https://cdn.pixabay.com/photo/2019/08/25/20/05/ciel-4430226_640.jpg",
        "src1280": "https://cdn.pixabay.com/photo/2019/08/25/20/05/ciel-4430226_1280.jpg"
    },
    {
        "id": "368145",
        "src640": "https://cdn.pixabay.com/photo/2014/06/13/09/58/fractal-368145_640.jpg",
        "src1280": "https://cdn.pixabay.com/photo/2014/06/13/09/58/fractal-368145_1280.jpg"
    },
    {
        "id": "3074151",
        "src640": "https://cdn.pixabay.com/photo/2018/01/10/16/08/background-3074151_640.jpg",
        "src1280": "https://cdn.pixabay.com/photo/2018/01/10/16/08/background-3074151_1280.jpg"
    },
    {
        "id": "5982983",
        "src640": "https://cdn.pixabay.com/photo/2021/02/05/00/27/girl-5982983_640.jpg",
        "src1280": "https://cdn.pixabay.com/photo/2021/02/05/00/27/girl-5982983_1280.jpg"
    },
    {
        "id": "15885",
        "src640": "https://cdn.pixabay.com/photo/2012/02/23/09/07/ivy-15885_640.jpg",
        "src1280": "https://cdn.pixabay.com/photo/2012/02/23/09/07/ivy-15885_1280.jpg"
    },
    {
        "id": "3736187",
        "src640": "https://cdn.pixabay.com/photo/2018/10/10/00/05/butterfly-3736187_640.jpg",
        "src1280": "https://cdn.pixabay.com/photo/2018/10/10/00/05/butterfly-3736187_1280.jpg"
    },
    {
        "id": "2279180",
        "src640": "https://cdn.pixabay.com/photo/2017/05/02/19/38/apple-2279180_640.jpg",
        "src1280": "https://cdn.pixabay.com/photo/2017/05/02/19/38/apple-2279180_1280.jpg"
    },
    {
        "id": "814987",
        "src640": "https://cdn.pixabay.com/photo/2015/06/19/14/34/audi-814987_640.jpg",
        "src1280": "https://cdn.pixabay.com/photo/2015/06/19/14/34/audi-814987_1280.jpg"
    },
    {
        "id": "3495247",
        "src640": "https://cdn.pixabay.com/photo/2018/06/24/19/01/scary-3495247_640.jpg",
        "src1280": "https://cdn.pixabay.com/photo/2018/06/24/19/01/scary-3495247_1280.jpg"
    },
    {
        "id": "3086310",
        "src640": "https://cdn.pixabay.com/photo/2018/01/16/16/52/background-3086310_640.jpg",
        "src1280": "https://cdn.pixabay.com/photo/2018/01/16/16/52/background-3086310_1280.jpg"
    },
    {
        "id": "1728287",
        "src640": "https://cdn.pixabay.com/photo/2016/10/10/12/41/birthday-card-1728287_640.jpg",
        "src1280": "https://cdn.pixabay.com/photo/2016/10/10/12/41/birthday-card-1728287_1280.jpg"
    },
    {
        "id": "6558076",
        "src640": "https://cdn.pixabay.com/photo/2021/08/19/13/30/ladder-6558076_640.jpg",
        "src1280": "https://cdn.pixabay.com/photo/2021/08/19/13/30/ladder-6558076_1280.jpg"
    },
    {
        "id": "6863856",
        "src640": "https://cdn.pixabay.com/photo/2021/12/12/00/05/art-6863856_640.jpg",
        "src1280": "https://cdn.pixabay.com/photo/2021/12/12/00/05/art-6863856_1280.jpg"
    },
    {
        "id": "6163984",
        "src640": "https://cdn.pixabay.com/photo/2021/04/09/10/10/hello-kitty-6163984_640.jpg",
        "src1280": "https://cdn.pixabay.com/photo/2021/04/09/10/10/hello-kitty-6163984_1280.jpg"
    },
    {
        "id": "6062571",
        "src640": "https://cdn.pixabay.com/photo/2021/03/02/14/02/insect-6062571_640.jpg",
        "src1280": "https://cdn.pixabay.com/photo/2021/03/02/14/02/insect-6062571_1280.jpg"
    },
    {
        "id": "6384407",
        "src640": "https://cdn.pixabay.com/photo/2021/07/03/16/28/peonies-6384407_640.jpg",
        "src1280": "https://cdn.pixabay.com/photo/2021/07/03/16/28/peonies-6384407_1280.jpg"
    },
    {
        "id": "5264221",
        "src640": "https://cdn.pixabay.com/photo/2020/06/05/19/25/klatschmohn-5264221_640.jpg",
        "src1280": "https://cdn.pixabay.com/photo/2020/06/05/19/25/klatschmohn-5264221_1280.jpg"
    },
    {
        "id": "6859754",
        "src640": "https://cdn.pixabay.com/photo/2021/12/10/04/32/background-6859754_640.jpg",
        "src1280": "https://cdn.pixabay.com/photo/2021/12/10/04/32/background-6859754_1280.jpg"
    }
]