[
    {
        "id": "369349",
        "src640": "https://cdn.pixabay.com/photo/2014/06/15/15/20/young-369349_640.jpg",
        "src1280": "https://cdn.pixabay.com/photo/2014/06/15/15/20/young-369349_1280.jpg"
    },
    {
        "id": "2862974",
        "src640": "https://cdn.pixabay.com/photo/2017/10/18/05/12/pattern-2862974_640.jpg",
        "src1280": "https://cdn.pixabay.com/photo/2017/10/18/05/12/pattern-2862974_1280.jpg"
    },
    {
        "id": "3534939",
        "src640": "https://cdn.pixabay.com/photo/2018/07/13/04/51/marble-3534939_640.jpg",
        "src1280": "https://cdn.pixabay.com/photo/2018/07/13/04/51/marble-3534939_1280.jpg"
    },
    {
        "id": "1109994",
        "src640": "https://cdn.pixabay.com/photo/2015/12/27/16/32/wood-1109994_640.jpg",
        "src1280": "https://cdn.pixabay.com/photo/2015/12/27/16/32/wood-1109994_1280.jpg"
    },
    {
        "id": "2604390",
        "src640": "https://cdn.pixabay.com/photo/2017/08/07/14/27/art-2604390_640.jpg",
        "src1280": "https://cdn.pixabay.com/photo/2017/08/07/14/27/art-2604390_1280.jpg"
    },
    {
        "id": "82942",
        "src640": "https://cdn.pixabay.com/photo/2013/02/18/18/34/stone-82942_640.jpg",
        "src1280": "https://cdn.pixabay.com/photo/2013/02/18/18/34/stone-82942_1280.jpg"
    },
    {
        "id": "5513731",
        "src640": "https://cdn.pixabay.com/photo/2020/08/24/11/59/2-5513731_640.jpg",
        "src1280": "https://cdn.pixabay.com/photo/2020/08/24/11/59/2-5513731_1280.jpg"
    },
    {
        "id": "6188647",
        "src640": "https://cdn.pixabay.com/photo/2021/04/18/14/49/brain-6188647_640.jpg",
        "src1280": "https://cdn.pixabay.com/photo/2021/04/18/14/49/brain-6188647_1280.jpg"
    },
    {
        "id": "6858658",
        "src640": "https://cdn.pixabay.com/photo/2021/12/09/16/58/dark-background-6858658_640.jpg",
        "src1280": "https://cdn.pixabay.com/photo/2021/12/09/16/58/dark-background-6858658_1280.jpg"
    },
    {
        "id": "4481780",
        "src640": "https://cdn.pixabay.com/photo/2019/09/16/19/00/heart-4481780_640.jpg",
        "src1280": "https://cdn.pixabay.com/photo/2019/09/16/19/00/heart-4481780_1280.jpg"
    },
    {
        "id": "880397",
        "src640": "https://cdn.pixabay.com/photo/2015/08/08/12/43/brick-880397_640.jpg",
        "src1280": "https://cdn.pixabay.com/photo/2015/08/08/12/43/brick-880397_1280.jpg"
    },
    {
        "id": "4801262",
        "src640": "https://cdn.pixabay.com/photo/2020/01/28/23/14/clouds-4801262_640.jpg",
        "src1280": "https://cdn.pixabay.com/photo/2020/01/28/23/14/clouds-4801262_1280.jpg"
    },
    {
        "id": "6478989",
        "src640": "https://cdn.pixabay.com/photo/2021/07/19/19/54/background-6478989_640.jpg",
        "src1280": "https://cdn.pixabay.com/photo/2021/07/19/19/54/background-6478989_1280.jpg"
    },
    {
        "id": "3648276",
        "src640": "https://cdn.pixabay.com/photo/2018/09/02/07/30/girl-3648276_640.jpg",
        "src1280": "https://cdn.pixabay.com/photo/2018/09/02/07/30/girl-3648276_1280.jpg"
    },
    {
        "id": "6790101",
        "src640": "https://cdn.pixabay.com/photo/2021/11/12/21/45/wall-6790101_640.jpg",
        "src1280": "https://cdn.pixabay.com/photo/2021/11/12/21/45/wall-6790101_1280.jpg"
    },
    {
        "id": "1119989",
        "src640": "https://cdn.pixabay.com/photo/2016/01/03/19/52/braided-fence-1119989_640.jpg",
        "src1280": "https://cdn.pixabay.com/photo/2016/01/03/19/52/braided-fence-1119989_1280.jpg"
    },
    {
        "id": "6024111",
        "src640": "https://cdn.pixabay.com/photo/2021/02/17/12/58/vase-6024111_640.jpg",
        "src1280": "https://cdn.pixabay.com/photo/2021/02/17/12/58/vase-6024111_1280.jpg"
    },
    {
        "id": "6817907",
        "src640": "https://cdn.pixabay.com/photo/2021/11/23/04/45/flower-6817907_640.jpg",
        "src1280": "https://cdn.pixabay.com/photo/2021/11/23/04/45/flower-6817907_1280.jpg"
    },
    {
        "id": "6568373",
        "src640": "https://cdn.pixabay.com/photo/2021/08/23/17/41/stones-6568373_640.jpg",
        "src1280": "https://cdn.pixabay.com/photo/2021/08/23/17/41/stones-6568373_1280.jpg"
    },
    {
        "id": "803251",
        "src640": "https://cdn.pixabay.com/photo/2015/06/09/09/50/girl-803251_640.jpg",
        "src1280": "https://cdn.pixabay.com/photo/2015/06/09/09/50/girl-803251_1280.jpg"
    },
    {
        "id": "3892934",
        "src640": "https://cdn.pixabay.com/photo/2018/12/24/13/36/ring-3892934_640.jpg",
        "src1280": "https://cdn.pixabay.com/photo/2018/12/24/13/36/ring-3892934_1280.jpg"
    },
    {
        "id": "6249379",
        "src640": "https://cdn.pixabay.com/photo/2021/05/12/21/28/gifts-6249379_640.jpg",
        "src1280": "https://cdn.pixabay.com/photo/2021/05/12/21/28/gifts-6249379_1280.jpg"
    },
    {
        "id": "2680585",
        "src640": "https://cdn.pixabay.com/photo/2017/08/25/16/14/accessories-2680585_640.jpg",
        "src1280": "https://cdn.pixabay.com/photo/2017/08/25/16/14/accessories-2680585_1280.jpg"
    },
    {
        "id": "6742562",
        "src640": "https://cdn.pixabay.com/photo/2021/10/26/05/17/baby-photography-6742562_640.jpg",
        "src1280": "https://cdn.pixabay.com/photo/2021/10/26/05/17/baby-photography-6742562_1280.jpg"
    },
    {
        "id": "6775553",
        "src640": "https://cdn.pixabay.com/photo/2021/11/07/11/23/painting-6775553_640.jpg",
        "src1280": "https://cdn.pixabay.com/photo/2021/11/07/11/23/painting-6775553_1280.jpg"
    },
    {
        "id": "6517891",
        "src640": "https://cdn.pixabay.com/photo/2021/08/02/21/25/christian-cross-6517891_640.jpg",
        "src1280": "https://cdn.pixabay.com/photo/2021/08/02/21/25/christian-cross-6517891_1280.jpg"
    },
    {
        "id": "4358509",
        "src640": "https://cdn.pixabay.com/photo/2019/07/23/19/52/wood-4358509_640.jpg",
        "src1280": "https://cdn.pixabay.com/photo/2019/07/23/19/52/wood-4358509_1280.jpg"
    },
    {
        "id": "3861264",
        "src640": "https://cdn.pixabay.com/photo/2018/12/07/07/56/fir-3861264_640.jpg",
        "src1280": "https://cdn.pixabay.com/photo/2018/12/07/07/56/fir-3861264_1280.jpg"
    },
    {
        "id": "6934651",
        "src640": "https://cdn.pixabay.com/photo/2022/01/13/07/58/painting-6934651_640.jpg",
        "src1280": "https://cdn.pixabay.com/photo/2022/01/13/07/58/painting-6934651_1280.jpg"
    },
    {
        "id": "4378697",
        "src640": "https://cdn.pixabay.com/photo/2019/08/02/04/34/indian-4378697_640.jpg",
        "src1280": "https://cdn.pixabay.com/photo/2019/08/02/04/34/indian-4378697_1280.jpg"
    },
    {
        "id": "5210957",
        "src640": "https://cdn.pixabay.com/photo/2020/05/23/18/33/flowering-crabapple-5210957_640.jpg",
        "src1280": "https://cdn.pixabay.com/photo/2020/05/23/18/33/flowering-crabapple-5210957_1280.jpg"
    },
    {
        "id": "6463940",
        "src640": "https://cdn.pixabay.com/photo/2021/07/13/16/05/flower-6463940_640.jpg",
        "src1280": "https://cdn.pixabay.com/photo/2021/07/13/16/05/flower-6463940_1280.jpg"
    },
    {
        "id": "6353535",
        "src640": "https://cdn.pixabay.com/photo/2021/06/21/12/33/abstract-6353535_640.jpg",
        "src1280": "https://cdn.pixabay.com/photo/2021/06/21/12/33/abstract-6353535_1280.jpg"
    },
    {
        "id": "5847054",
        "src640": "https://cdn.pixabay.com/photo/2020/12/20/13/45/winter-5847054_640.jpg",
        "src1280": "https://cdn.pixabay.com/photo/2020/12/20/13/45/winter-5847054_1280.jpg"
    },
    {
        "id": "6307332",
        "src640": "https://cdn.pixabay.com/photo/2021/06/03/15/41/biewer-yorkshire-terrier-6307332_640.jpg",
        "src1280": "https://cdn.pixabay.com/photo/2021/06/03/15/41/biewer-yorkshire-terrier-6307332_1280.jpg"
    },
    {
        "id": "1647906",
        "src640": "https://cdn.pixabay.com/photo/2016/09/05/22/31/red-sunflower-1647906_640.jpg",
        "src1280": "https://cdn.pixabay.com/photo/2016/09/05/22/31/red-sunflower-1647906_1280.jpg"
    },
    {
        "id": "4910206",
        "src640": "https://cdn.pixabay.com/photo/2020/03/07/16/11/easter-4910206_640.jpg",
        "src1280": "https://cdn.pixabay.com/photo/2020/03/07/16/11/easter-4910206_1280.jpg"
    },
    {
        "id": "2141231",
        "src640": "https://cdn.pixabay.com/photo/2017/03/13/21/28/cardboard-2141231_640.jpg",
        "src1280": "https://cdn.pixabay.com/photo/2017/03/13/21/28/cardboard-2141231_1280.jpg"
    },
    {
        "id": "644317",
        "src640": "https://cdn.pixabay.com/photo/2015/02/21/15/14/fishing-644317_640.jpg",
        "src1280": "https://cdn.pixabay.com/photo/2015/02/21/15/14/fishing-644317_1280.jpg"
    },
    {
        "id": "6533797",
        "src640": "https://cdn.pixabay.com/photo/2021/08/09/16/40/abstract-6533797_640.jpg",
        "src1280": "https://cdn.pixabay.com/photo/2021/08/09/16/40/abstract-6533797_1280.jpg"
    },
    {
        "id": "4993082",
        "src640": "https://cdn.pixabay.com/photo/2020/04/02/00/57/united-states-dollar-4993082_640.jpg",
        "src1280": "https://cdn.pixabay.com/photo/2020/04/02/00/57/united-states-dollar-4993082_1280.jpg"
    },
    {
        "id": "1005292",
        "src640": "https://cdn.pixabay.com/photo/2015/10/25/02/23/australian-1005292_640.jpg",
        "src1280": "https://cdn.pixabay.com/photo/2015/10/25/02/23/australian-1005292_1280.jpg"
    },
    {
        "id": "4705177",
        "src640": "https://cdn.pixabay.com/photo/2019/12/19/01/16/christmas-4705177_640.jpg",
        "src1280": "https://cdn.pixabay.com/photo/2019/12/19/01/16/christmas-4705177_1280.jpg"
    },
    {
        "id": "4781511",
        "src640": "https://cdn.pixabay.com/photo/2020/01/20/21/44/sunrise-4781511_640.jpg",
        "src1280": "https://cdn.pixabay.com/photo/2020/01/20/21/44/sunrise-4781511_1280.jpg"
    },
    {
        "id": "2877167",
        "src640": "https://cdn.pixabay.com/photo/2017/10/22/09/09/nice-curve-2877167_640.jpg",
        "src1280": "https://cdn.pixabay.com/photo/2017/10/22/09/09/nice-curve-2877167_1280.jpg"
    },
    {
        "id": "3024486",
        "src640": "https://cdn.pixabay.com/photo/2017/12/17/16/06/leaves-3024486_640.jpg",
        "src1280": "https://cdn.pixabay.com/photo/2017/12/17/16/06/leaves-3024486_1280.jpg"
    },
    {
        "id": "3207032",
        "src640": "https://cdn.pixabay.com/photo/2018/03/07/20/19/wood-3207032_640.jpg",
        "src1280": "https://cdn.pixabay.com/photo/2018/03/07/20/19/wood-3207032_1280.jpg"
    },
    {
        "id": "2501340",
        "src640": "https://cdn.pixabay.com/photo/2017/07/13/18/20/abstract-2501340_640.jpg",
        "src1280": "https://cdn.pixabay.com/photo/2017/07/13/18/20/abstract-2501340_1280.jpg"
    },
    {
        "id": "1731209",
        "src640": "https://cdn.pixabay.com/photo/2016/10/11/11/37/concrete-1731209_640.jpg",
        "src1280": "https://cdn.pixabay.com/photo/2016/10/11/11/37/concrete-1731209_1280.jpg"
    },
    {
        "id": "6630611",
        "src640": "https://cdn.pixabay.com/photo/2021/09/16/17/17/september-6630611_640.jpg",
        "src1280": "https://cdn.pixabay.com/photo/2021/09/16/17/17/september-6630611_1280.jpg"
    },
    {
        "id": "4077124",
        "src640": "https://cdn.pixabay.com/photo/2019/03/24/09/14/night-4077124_640.jpg",
        "src1280": "https://cdn.pixabay.com/photo/2019/03/24/09/14/night-4077124_1280.jpg"
    },
    {
        "id": "2985292",
        "src640": "https://cdn.pixabay.com/photo/2017/11/29/05/47/birch-2985292_640.jpg",
        "src1280": "https://cdn.pixabay.com/photo/2017/11/29/05/47/birch-2985292_1280.jpg"
    },
    {
        "id": "1020986",
        "src640": "https://cdn.pixabay.com/photo/2015/11/03/15/08/colorful-1020986_640.jpg",
        "src1280": "https://cdn.pixabay.com/photo/2015/11/03/15/08/colorful-1020986_1280.jpg"
    },
    {
        "id": "6207228",
        "src640": "https://cdn.pixabay.com/photo/2021/04/25/18/25/rose-6207228_640.jpg",
        "src1280": "https://cdn.pixabay.com/photo/2021/04/25/18/25/rose-6207228_1280.jpg"
    },
    {
        "id": "1572758",
        "src640": "https://cdn.pixabay.com/photo/2016/08/05/17/36/peacock-1572758_640.jpg",
        "src1280": "https://cdn.pixabay.com/photo/2016/08/05/17/36/peacock-1572758_1280.jpg"
    },
    {
        "id": "2922314",
        "src640": "https://cdn.pixabay.com/photo/2017/11/06/00/35/curtain-2922314_640.jpg",
        "src1280": "https://cdn.pixabay.com/photo/2017/11/06/00/35/curtain-2922314_1280.jpg"
    },
    {
        "id": "3702165",
        "src640": "https://cdn.pixabay.com/photo/2018/09/25/12/44/boat-3702165_640.jpg",
        "src1280": "https://cdn.pixabay.com/photo/2018/09/25/12/44/boat-3702165_1280.jpg"
    },
    {
        "id": "315411",
        "src640": "https://cdn.pixabay.com/photo/2014/04/05/11/21/green-315411_640.jpg",
        "src1280": "https://cdn.pixabay.com/photo/2014/04/05/11/21/green-315411_1280.jpg"
    },
    {
        "id": "5496958",
        "src640": "https://cdn.pixabay.com/photo/2020/08/18/03/08/element-5496958_640.jpg",
        "src1280": "https://cdn.pixabay.com/photo/2020/08/18/03/08/element-5496958_1280.jpg"
    },
    {
        "id": "6000095",
        "src640": "https://cdn.pixabay.com/photo/2021/02/09/21/54/ice-6000095_640.jpg",
        "src1280": "https://cdn.pixabay.com/photo/2021/02/09/21/54/ice-6000095_1280.jpg"
    },
    {
        "id": "6036262",
        "src640": "https://cdn.pixabay.com/photo/2021/02/21/12/48/girl-portrait-6036262_640.jpg",
        "src1280": "https://cdn.pixabay.com/photo/2021/02/21/12/48/girl-portrait-6036262_1280.jpg"
    },
    {
        "id": "6072903",
        "src640": "https://cdn.pixabay.com/photo/2021/03/06/06/02/label-6072903_640.jpg",
        "src1280": "https://cdn.pixabay.com/photo/2021/03/06/06/02/label-6072903_1280.jpg"
    },
    {
        "id": "521368",
        "src640": "https://cdn.pixabay.com/photo/2014/11/07/22/34/vitamins-521368_640.jpg",
        "src1280": "https://cdn.pixabay.com/photo/2014/11/07/22/34/vitamins-521368_1280.jpg"
    },
    {
        "id": "3661237",
        "src640": "https://cdn.pixabay.com/photo/2018/09/07/18/39/autumn-3661237_640.jpg",
        "src1280": "https://cdn.pixabay.com/photo/2018/09/07/18/39/autumn-3661237_1280.jpg"
    },
    {
        "id": "314513",
        "src640": "https://cdn.pixabay.com/photo/2014/04/05/11/07/cowboy-314513_640.jpg",
        "src1280": "https://cdn.pixabay.com/photo/2014/04/05/11/07/cowboy-314513_1280.jpg"
    },
    {
        "id": "5548133",
        "src640": "https://cdn.pixabay.com/photo/2020/09/06/06/42/bungalows-5548133_640.jpg",
        "src1280": "https://cdn.pixabay.com/photo/2020/09/06/06/42/bungalows-5548133_1280.jpg"
    },
    {
        "id": "4969588",
        "src640": "https://cdn.pixabay.com/photo/2020/03/26/08/41/background-4969588_640.jpg",
        "src1280": "https://cdn.pixabay.com/photo/2020/03/26/08/41/background-4969588_1280.jpg"
    },
    {
        "id": "2891315",
        "src640": "https://cdn.pixabay.com/photo/2017/10/26/14/47/socks-2891315_640.jpg",
        "src1280": "https://cdn.pixabay.com/photo/2017/10/26/14/47/socks-2891315_1280.jpg"
    },
    {
        "id": "6297931",
        "src640": "https://cdn.pixabay.com/photo/2021/05/31/06/38/leaf-6297931_640.jpg",
        "src1280": "https://cdn.pixabay.com/photo/2021/05/31/06/38/leaf-6297931_1280.jpg"
    },
    {
        "id": "6937494",
        "src640": "https://cdn.pixabay.com/photo/2022/01/14/14/41/vietnam-6937494_640.jpg",
        "src1280": "https://cdn.pixabay.com/photo/2022/01/14/14/41/vietnam-6937494_1280.jpg"
    },
    {
        "id": "3516463",
        "src640": "https://cdn.pixabay.com/photo/2018/07/04/16/40/leaves-3516463_640.jpg",
        "src1280": "https://cdn.pixabay.com/photo/2018/07/04/16/40/leaves-3516463_1280.jpg"
    },
    {
        "id": "1280565",
        "src640": "https://cdn.pixabay.com/photo/2016/03/26/13/18/adorable-1280565_640.jpg",
        "src1280": "https://cdn.pixabay.com/photo/2016/03/26/13/18/adorable-1280565_1280.jpg"
    },
    {
        "id": "3295973",
        "src640": "https://cdn.pixabay.com/photo/2018/04/06/14/38/woman-3295973_640.jpg",
        "src1280": "https://cdn.pixabay.com/photo/2018/04/06/14/38/woman-3295973_1280.jpg"
    },
    {
        "id": "1028471",
        "src640": "https://cdn.pixabay.com/photo/2015/11/06/14/38/new-years-eve-1028471_640.jpg",
        "src1280": "https://cdn.pixabay.com/photo/2015/11/06/14/38/new-years-eve-1028471_1280.jpg"
    },
    {
        "id": "6482246",
        "src640": "https://cdn.pixabay.com/photo/2021/07/21/05/11/lights-6482246_640.jpg",
        "src1280": "https://cdn.pixabay.com/photo/2021/07/21/05/11/lights-6482246_1280.jpg"
    },
    {
        "id": "1498787",
        "src640": "https://cdn.pixabay.com/photo/2016/07/05/14/44/glass-1498787_640.jpg",
        "src1280": "https://cdn.pixabay.com/photo/2016/07/05/14/44/glass-1498787_1280.jpg"
    },
    {
        "id": "183988",
        "src640": "https://cdn.pixabay.com/photo/2013/09/19/18/24/football-183988_640.jpg",
        "src1280": "https://cdn.pixabay.com/photo/2013/09/19/18/24/football-183988_1280.jpg"
    },
    {
        "id": "6494995",
        "src640": "https://cdn.pixabay.com/photo/2021/07/26/18/56/flowers-6494995_640.jpg",
        "src1280": "https://cdn.pixabay.com/photo/2021/07/26/18/56/flowers-6494995_1280.jpg"
    },
    {
        "id": "826008",
        "src640": "https://cdn.pixabay.com/photo/2015/06/29/21/28/fabric-826008_640.jpg",
        "src1280": "https://cdn.pixabay.com/photo/2015/06/29/21/28/fabric-826008_1280.jpg"
    },
    {
        "id": "5116767",
        "src640": "https://cdn.pixabay.com/photo/2020/05/01/12/16/flower-5116767_640.jpg",
        "src1280": "https://cdn.pixabay.com/photo/2020/05/01/12/16/flower-5116767_1280.jpg"
    },
    {
        "id": "3167830",
        "src640": "https://cdn.pixabay.com/photo/2018/02/20/14/40/stones-garden-3167830_640.jpg",
        "src1280": "https://cdn.pixabay.com/photo/2018/02/20/14/40/stones-garden-3167830_1280.jpg"
    },
    {
        "id": "2781043",
        "src640": "https://cdn.pixabay.com/photo/2017/09/24/06/54/dalat-2781043_640.jpg",
        "src1280": "https://cdn.pixabay.com/photo/2017/09/24/06/54/dalat-2781043_1280.jpg"
    },
    {
        "id": "1467035",
        "src640": "https://cdn.pixabay.com/photo/2016/06/19/15/59/fire-1467035_640.jpg",
        "src1280": "https://cdn.pixabay.com/photo/2016/06/19/15/59/fire-1467035_1280.jpg"
    },
    {
        "id": "2842475",
        "src640": "https://cdn.pixabay.com/photo/2017/10/11/21/12/texture-2842475_640.jpg",
        "src1280": "https://cdn.pixabay.com/photo/2017/10/11/21/12/texture-2842475_1280.jpg"
    },
    {
        "id": "738199",
        "src640": "https://cdn.pixabay.com/photo/2015/04/24/19/43/background-738199_640.jpg",
        "src1280": "https://cdn.pixabay.com/photo/2015/04/24/19/43/background-738199_1280.jpg"
    },
    {
        "id": "1123639",
        "src640": "https://cdn.pixabay.com/photo/2016/01/06/05/47/heart-1123639_640.jpg",
        "src1280": "https://cdn.pixabay.com/photo/2016/01/06/05/47/heart-1123639_1280.jpg"
    },
    {
        "id": "6093888",
        "src640": "https://cdn.pixabay.com/photo/2021/03/14/10/55/blotter-6093888_640.jpg",
        "src1280": "https://cdn.pixabay.com/photo/2021/03/14/10/55/blotter-6093888_1280.jpg"
    },
    {
        "id": "5009069",
        "src640": "https://cdn.pixabay.com/photo/2020/04/06/10/08/clouds-5009069_640.jpg",
        "src1280": "https://cdn.pixabay.com/photo/2020/04/06/10/08/clouds-5009069_1280.jpg"
    }
]