[
    {
        "id": "5839402",
        "src640": "https://cdn.pixabay.com/photo/2020/12/17/13/43/woman-5839402_640.jpg",
        "src1280": "https://cdn.pixabay.com/photo/2020/12/17/13/43/woman-5839402_1280.jpg"
    },
    {
        "id": "362303",
        "src640": "https://cdn.pixabay.com/photo/2014/06/04/19/40/poppy-362303_640.jpg",
        "src1280": "https://cdn.pixabay.com/photo/2014/06/04/19/40/poppy-362303_1280.jpg"
    },
    {
        "id": "8443593",
        "src640": "https://cdn.pixabay.com/photo/2023/12/11/13/10/woman-8443593_640.jpg",
        "src1280": "https://cdn.pixabay.com/photo/2023/12/11/13/10/woman-8443593_1280.jpg"
    },
    {
        "id": "4154928",
        "src640": "https://cdn.pixabay.com/photo/2019/04/25/13/55/flower-4154928_640.jpg",
        "src1280": "https://cdn.pixabay.com/photo/2019/04/25/13/55/flower-4154928_1280.jpg"
    },
    {
        "id": "3303048",
        "src640": "https://cdn.pixabay.com/photo/2018/04/09/02/06/flowers-3303048_640.jpg",
        "src1280": "https://cdn.pixabay.com/photo/2018/04/09/02/06/flowers-3303048_1280.jpg"
    },
    {
        "id": "361388",
        "src640": "https://cdn.pixabay.com/photo/2014/06/03/17/50/geranium-361388_640.jpg",
        "src1280": "https://cdn.pixabay.com/photo/2014/06/03/17/50/geranium-361388_1280.jpg"
    },
    {
        "id": "4100079",
        "src640": "https://cdn.pixabay.com/photo/2019/04/03/11/08/tulip-4100079_640.jpg",
        "src1280": "https://cdn.pixabay.com/photo/2019/04/03/11/08/tulip-4100079_1280.jpg"
    },
    {
        "id": "3907424",
        "src640": "https://cdn.pixabay.com/photo/2019/01/01/19/31/bee-3907424_640.jpg",
        "src1280": "https://cdn.pixabay.com/photo/2019/01/01/19/31/bee-3907424_1280.jpg"
    },
    {
        "id": "7335076",
        "src640": "https://cdn.pixabay.com/photo/2022/07/20/23/05/waves-7335076_640.jpg",
        "src1280": "https://cdn.pixabay.com/photo/2022/07/20/23/05/waves-7335076_1280.jpg"
    },
    {
        "id": "4616699",
        "src640": "https://cdn.pixabay.com/photo/2019/11/10/20/39/poppy-4616699_640.jpg",
        "src1280": "https://cdn.pixabay.com/photo/2019/11/10/20/39/poppy-4616699_1280.jpg"
    },
    {
        "id": "5173937",
        "src640": "https://cdn.pixabay.com/photo/2020/05/15/15/21/white-5173937_640.jpg",
        "src1280": "https://cdn.pixabay.com/photo/2020/05/15/15/21/white-5173937_1280.jpg"
    },
    {
        "id": "3642386",
        "src640": "https://cdn.pixabay.com/photo/2018/08/30/14/49/nature-3642386_640.jpg",
        "src1280": "https://cdn.pixabay.com/photo/2018/08/30/14/49/nature-3642386_1280.jpg"
    },
    {
        "id": "4232414",
        "src640": "https://cdn.pixabay.com/photo/2019/05/27/10/51/rockery-4232414_640.jpg",
        "src1280": "https://cdn.pixabay.com/photo/2019/05/27/10/51/rockery-4232414_1280.jpg"
    },
    {
        "id": "7946132",
        "src640": "https://cdn.pixabay.com/photo/2023/04/23/16/22/flowers-7946132_640.jpg",
        "src1280": "https://cdn.pixabay.com/photo/2023/04/23/16/22/flowers-7946132_1280.jpg"
    },
    {
        "id": "3348092",
        "src640": "https://cdn.pixabay.com/photo/2018/04/24/21/05/flower-3348092_640.jpg",
        "src1280": "https://cdn.pixabay.com/photo/2018/04/24/21/05/flower-3348092_1280.jpg"
    },
    {
        "id": "7899918",
        "src640": "https://cdn.pixabay.com/photo/2023/04/04/17/16/wild-plant-7899918_640.jpg",
        "src1280": "https://cdn.pixabay.com/photo/2023/04/04/17/16/wild-plant-7899918_1280.jpg"
    },
    {
        "id": "3499658",
        "src640": "https://cdn.pixabay.com/photo/2018/06/26/15/44/ladybug-3499658_640.jpg",
        "src1280": "https://cdn.pixabay.com/photo/2018/06/26/15/44/ladybug-3499658_1280.jpg"
    },
    {
        "id": "3169032",
        "src640": "https://cdn.pixabay.com/photo/2018/02/20/22/22/flower-3169032_640.jpg",
        "src1280": "https://cdn.pixabay.com/photo/2018/02/20/22/22/flower-3169032_1280.jpg"
    },
    {
        "id": "7525083",
        "src640": "https://cdn.pixabay.com/photo/2022/10/16/13/13/skull-7525083_640.jpg",
        "src1280": "https://cdn.pixabay.com/photo/2022/10/16/13/13/skull-7525083_1280.jpg"
    },
    {
        "id": "2392119",
        "src640": "https://cdn.pixabay.com/photo/2017/06/11/11/31/snowdrop-2392119_640.jpg",
        "src1280": "https://cdn.pixabay.com/photo/2017/06/11/11/31/snowdrop-2392119_1280.jpg"
    },
    {
        "id": "3247442",
        "src640": "https://cdn.pixabay.com/photo/2018/03/21/17/08/flower-3247442_640.jpg",
        "src1280": "https://cdn.pixabay.com/photo/2018/03/21/17/08/flower-3247442_1280.jpg"
    },
    {
        "id": "7133220",
        "src640": "https://cdn.pixabay.com/photo/2022/04/14/20/33/crocuses-7133220_640.jpg",
        "src1280": "https://cdn.pixabay.com/photo/2022/04/14/20/33/crocuses-7133220_1280.jpg"
    },
    {
        "id": "7735384",
        "src640": "https://cdn.pixabay.com/photo/2023/01/22/01/00/ai-generated-7735384_640.jpg",
        "src1280": "https://cdn.pixabay.com/photo/2023/01/22/01/00/ai-generated-7735384_1280.jpg"
    },
    {
        "id": "5655464",
        "src640": "https://cdn.pixabay.com/photo/2020/10/14/20/54/flower-5655464_640.jpg",
        "src1280": "https://cdn.pixabay.com/photo/2020/10/14/20/54/flower-5655464_1280.jpg"
    },
    {
        "id": "3544126",
        "src640": "https://cdn.pixabay.com/photo/2018/07/17/13/13/butterfly-3544126_640.jpg",
        "src1280": "https://cdn.pixabay.com/photo/2018/07/17/13/13/butterfly-3544126_1280.jpg"
    },
    {
        "id": "8060021",
        "src640": "https://cdn.pixabay.com/photo/2023/06/13/05/59/lotus-8060021_640.jpg",
        "src1280": "https://cdn.pixabay.com/photo/2023/06/13/05/59/lotus-8060021_1280.jpg"
    },
    {
        "id": "5209698",
        "src640": "https://cdn.pixabay.com/photo/2020/05/23/13/45/wild-bee-5209698_640.jpg",
        "src1280": "https://cdn.pixabay.com/photo/2020/05/23/13/45/wild-bee-5209698_1280.jpg"
    },
    {
        "id": "5178563",
        "src640": "https://cdn.pixabay.com/photo/2020/05/16/18/10/flowers-5178563_640.jpg",
        "src1280": "https://cdn.pixabay.com/photo/2020/05/16/18/10/flowers-5178563_1280.jpg"
    },
    {
        "id": "5124334",
        "src640": "https://cdn.pixabay.com/photo/2020/05/03/09/06/tulip-5124334_640.jpg",
        "src1280": "https://cdn.pixabay.com/photo/2020/05/03/09/06/tulip-5124334_1280.jpg"
    },
    {
        "id": "6385028",
        "src640": "https://cdn.pixabay.com/photo/2021/07/03/23/17/flower-6385028_640.jpg",
        "src1280": "https://cdn.pixabay.com/photo/2021/07/03/23/17/flower-6385028_1280.jpg"
    },
    {
        "id": "7245258",
        "src640": "https://cdn.pixabay.com/photo/2022/06/06/04/21/bluebells-7245258_640.jpg",
        "src1280": "https://cdn.pixabay.com/photo/2022/06/06/04/21/bluebells-7245258_1280.jpg"
    },
    {
        "id": "7848881",
        "src640": "https://cdn.pixabay.com/photo/2023/03/13/05/34/ai-generated-7848881_640.jpg",
        "src1280": "https://cdn.pixabay.com/photo/2023/03/13/05/34/ai-generated-7848881_1280.jpg"
    },
    {
        "id": "105337",
        "src640": "https://cdn.pixabay.com/photo/2013/04/17/21/31/mandulavirag-105337_640.jpg",
        "src1280": "https://cdn.pixabay.com/photo/2013/04/17/21/31/mandulavirag-105337_1280.jpg"
    },
    {
        "id": "3565663",
        "src640": "https://cdn.pixabay.com/photo/2018/07/27/10/10/rose-3565663_640.jpg",
        "src1280": "https://cdn.pixabay.com/photo/2018/07/27/10/10/rose-3565663_1280.jpg"
    },
    {
        "id": "3975558",
        "src640": "https://cdn.pixabay.com/photo/2019/02/04/20/07/garden-3975558_640.jpg",
        "src1280": "https://cdn.pixabay.com/photo/2019/02/04/20/07/garden-3975558_1280.jpg"
    },
    {
        "id": "7207906",
        "src640": "https://cdn.pixabay.com/photo/2022/05/19/18/14/flower-buds-7207906_640.jpg",
        "src1280": "https://cdn.pixabay.com/photo/2022/05/19/18/14/flower-buds-7207906_1280.jpg"
    },
    {
        "id": "3320564",
        "src640": "https://cdn.pixabay.com/photo/2018/04/15/00/21/orchid-3320564_640.jpg",
        "src1280": "https://cdn.pixabay.com/photo/2018/04/15/00/21/orchid-3320564_1280.jpg"
    },
    {
        "id": "8203321",
        "src640": "https://cdn.pixabay.com/photo/2023/08/20/23/15/flower-8203321_640.jpg",
        "src1280": "https://cdn.pixabay.com/photo/2023/08/20/23/15/flower-8203321_1280.jpg"
    },
    {
        "id": "3175529",
        "src640": "https://cdn.pixabay.com/photo/2018/02/23/13/22/wild-flower-3175529_640.jpg",
        "src1280": "https://cdn.pixabay.com/photo/2018/02/23/13/22/wild-flower-3175529_1280.jpg"
    },
    {
        "id": "3523065",
        "src640": "https://cdn.pixabay.com/photo/2018/07/08/00/02/flower-3523065_640.jpg",
        "src1280": "https://cdn.pixabay.com/photo/2018/07/08/00/02/flower-3523065_1280.jpg"
    },
    {
        "id": "7406331",
        "src640": "https://cdn.pixabay.com/photo/2022/08/23/18/53/flowers-7406331_640.jpg",
        "src1280": "https://cdn.pixabay.com/photo/2022/08/23/18/53/flowers-7406331_1280.jpg"
    },
    {
        "id": "267728",
        "src640": "https://cdn.pixabay.com/photo/2014/02/16/23/14/flower-267728_640.jpg",
        "src1280": "https://cdn.pixabay.com/photo/2014/02/16/23/14/flower-267728_1280.jpg"
    },
    {
        "id": "7323660",
        "src640": "https://cdn.pixabay.com/photo/2022/07/15/18/06/pink-woodsorrel-7323660_640.jpg",
        "src1280": "https://cdn.pixabay.com/photo/2022/07/15/18/06/pink-woodsorrel-7323660_1280.jpg"
    },
    {
        "id": "7148464",
        "src640": "https://cdn.pixabay.com/photo/2022/04/21/22/35/flower-7148464_640.jpg",
        "src1280": "https://cdn.pixabay.com/photo/2022/04/21/22/35/flower-7148464_1280.jpg"
    },
    {
        "id": "3383984",
        "src640": "https://cdn.pixabay.com/photo/2018/05/08/21/20/cap-3383984_640.jpg",
        "src1280": "https://cdn.pixabay.com/photo/2018/05/08/21/20/cap-3383984_1280.jpg"
    },
    {
        "id": "8342449",
        "src640": "https://cdn.pixabay.com/photo/2023/10/26/11/17/flower-8342449_640.jpg",
        "src1280": "https://cdn.pixabay.com/photo/2023/10/26/11/17/flower-8342449_1280.jpg"
    },
    {
        "id": "987358",
        "src640": "https://cdn.pixabay.com/photo/2015/10/14/09/27/anthurium-987358_640.jpg",
        "src1280": "https://cdn.pixabay.com/photo/2015/10/14/09/27/anthurium-987358_1280.jpg"
    },
    {
        "id": "7937599",
        "src640": "https://cdn.pixabay.com/photo/2023/04/19/12/18/flower-7937599_640.jpg",
        "src1280": "https://cdn.pixabay.com/photo/2023/04/19/12/18/flower-7937599_1280.jpg"
    },
    {
        "id": "1758696",
        "src640": "https://cdn.pixabay.com/photo/2016/10/21/18/20/tulips-1758696_640.jpg",
        "src1280": "https://cdn.pixabay.com/photo/2016/10/21/18/20/tulips-1758696_1280.jpg"
    },
    {
        "id": "3682687",
        "src640": "https://cdn.pixabay.com/photo/2018/09/16/23/57/host-3682687_640.jpg",
        "src1280": "https://cdn.pixabay.com/photo/2018/09/16/23/57/host-3682687_1280.jpg"
    },
    {
        "id": "8210503",
        "src640": "https://cdn.pixabay.com/photo/2023/08/24/11/34/ai-generated-8210503_640.jpg",
        "src1280": "https://cdn.pixabay.com/photo/2023/08/24/11/34/ai-generated-8210503_1280.jpg"
    },
    {
        "id": "4242309",
        "src640": "https://cdn.pixabay.com/photo/2019/05/31/14/25/iris-4242309_640.jpg",
        "src1280": "https://cdn.pixabay.com/photo/2019/05/31/14/25/iris-4242309_1280.jpg"
    },
    {
        "id": "2585310",
        "src640": "https://cdn.pixabay.com/photo/2017/08/05/20/25/lamp-2585310_640.jpg",
        "src1280": "https://cdn.pixabay.com/photo/2017/08/05/20/25/lamp-2585310_1280.jpg"
    },
    {
        "id": "3850638",
        "src640": "https://cdn.pixabay.com/photo/2018/12/02/03/39/pink-rose-3850638_640.jpg",
        "src1280": "https://cdn.pixabay.com/photo/2018/12/02/03/39/pink-rose-3850638_1280.jpg"
    },
    {
        "id": "4143626",
        "src640": "https://cdn.pixabay.com/photo/2019/04/21/08/36/tulip-4143626_640.jpg",
        "src1280": "https://cdn.pixabay.com/photo/2019/04/21/08/36/tulip-4143626_1280.jpg"
    },
    {
        "id": "3647454",
        "src640": "https://cdn.pixabay.com/photo/2018/09/01/19/40/dahlia-3647454_640.jpg",
        "src1280": "https://cdn.pixabay.com/photo/2018/09/01/19/40/dahlia-3647454_1280.jpg"
    },
    {
        "id": "8233440",
        "src640": "https://cdn.pixabay.com/photo/2023/09/04/18/34/autumn-8233440_640.jpg",
        "src1280": "https://cdn.pixabay.com/photo/2023/09/04/18/34/autumn-8233440_1280.jpg"
    },
    {
        "id": "2703253",
        "src640": "https://cdn.pixabay.com/photo/2017/09/01/07/01/china-2703253_640.jpg",
        "src1280": "https://cdn.pixabay.com/photo/2017/09/01/07/01/china-2703253_1280.jpg"
    },
    {
        "id": "3994962",
        "src640": "https://cdn.pixabay.com/photo/2019/02/13/18/41/france-3994962_640.jpg",
        "src1280": "https://cdn.pixabay.com/photo/2019/02/13/18/41/france-3994962_1280.jpg"
    },
    {
        "id": "4882477",
        "src640": "https://cdn.pixabay.com/photo/2020/02/26/18/26/flower-4882477_640.jpg",
        "src1280": "https://cdn.pixabay.com/photo/2020/02/26/18/26/flower-4882477_1280.jpg"
    },
    {
        "id": "4735897",
        "src640": "https://cdn.pixabay.com/photo/2020/01/02/14/03/flower-4735897_640.jpg",
        "src1280": "https://cdn.pixabay.com/photo/2020/01/02/14/03/flower-4735897_1280.jpg"
    },
    {
        "id": "7078366",
        "src640": "https://cdn.pixabay.com/photo/2022/03/19/11/41/almond-blossom-7078366_640.jpg",
        "src1280": "https://cdn.pixabay.com/photo/2022/03/19/11/41/almond-blossom-7078366_1280.jpg"
    },
    {
        "id": "3645429",
        "src640": "https://cdn.pixabay.com/photo/2018/08/31/19/49/flower-3645429_640.jpg",
        "src1280": "https://cdn.pixabay.com/photo/2018/08/31/19/49/flower-3645429_1280.jpg"
    },
    {
        "id": "7051664",
        "src640": "https://cdn.pixabay.com/photo/2022/03/06/13/14/aurora-butterfly-7051664_640.jpg",
        "src1280": "https://cdn.pixabay.com/photo/2022/03/06/13/14/aurora-butterfly-7051664_1280.jpg"
    },
    {
        "id": "55251",
        "src640": "https://cdn.pixabay.com/photo/2012/08/29/07/31/poppy-55251_640.jpg",
        "src1280": "https://cdn.pixabay.com/photo/2012/08/29/07/31/poppy-55251_1280.jpg"
    },
    {
        "id": "3402629",
        "src640": "https://cdn.pixabay.com/photo/2018/05/15/10/19/tulip-3402629_640.jpg",
        "src1280": "https://cdn.pixabay.com/photo/2018/05/15/10/19/tulip-3402629_1280.jpg"
    },
    {
        "id": "7194037",
        "src640": "https://cdn.pixabay.com/photo/2022/05/13/15/46/flower-7194037_640.jpg",
        "src1280": "https://cdn.pixabay.com/photo/2022/05/13/15/46/flower-7194037_1280.jpg"
    },
    {
        "id": "7321696",
        "src640": "https://cdn.pixabay.com/photo/2022/07/14/17/47/anemone-7321696_640.jpg",
        "src1280": "https://cdn.pixabay.com/photo/2022/07/14/17/47/anemone-7321696_1280.jpg"
    },
    {
        "id": "7539912",
        "src640": "https://cdn.pixabay.com/photo/2022/10/22/19/11/flowers-7539912_640.jpg",
        "src1280": "https://cdn.pixabay.com/photo/2022/10/22/19/11/flowers-7539912_1280.jpg"
    },
    {
        "id": "141389",
        "src640": "https://cdn.pixabay.com/photo/2013/06/26/11/39/flower-141389_640.jpg",
        "src1280": "https://cdn.pixabay.com/photo/2013/06/26/11/39/flower-141389_1280.jpg"
    },
    {
        "id": "7643904",
        "src640": "https://cdn.pixabay.com/photo/2022/12/08/18/50/soldier-7643904_640.jpg",
        "src1280": "https://cdn.pixabay.com/photo/2022/12/08/18/50/soldier-7643904_1280.jpg"
    },
    {
        "id": "5046569",
        "src640": "https://cdn.pixabay.com/photo/2020/04/15/13/12/lotus-5046569_640.jpg",
        "src1280": "https://cdn.pixabay.com/photo/2020/04/15/13/12/lotus-5046569_1280.jpg"
    },
    {
        "id": "7273946",
        "src640": "https://cdn.pixabay.com/photo/2022/06/20/14/47/butterfly-7273946_640.jpg",
        "src1280": "https://cdn.pixabay.com/photo/2022/06/20/14/47/butterfly-7273946_1280.jpg"
    },
    {
        "id": "7229461",
        "src640": "https://cdn.pixabay.com/photo/2022/05/29/16/21/tulips-7229461_640.jpg",
        "src1280": "https://cdn.pixabay.com/photo/2022/05/29/16/21/tulips-7229461_1280.jpg"
    },
    {
        "id": "1725250",
        "src640": "https://cdn.pixabay.com/photo/2016/10/09/06/21/portrait-1725250_640.jpg",
        "src1280": "https://cdn.pixabay.com/photo/2016/10/09/06/21/portrait-1725250_1280.jpg"
    },
    {
        "id": "3607085",
        "src640": "https://cdn.pixabay.com/photo/2018/08/15/02/18/pink-3607085_640.jpg",
        "src1280": "https://cdn.pixabay.com/photo/2018/08/15/02/18/pink-3607085_1280.jpg"
    },
    {
        "id": "7327470",
        "src640": "https://cdn.pixabay.com/photo/2022/07/17/13/47/plant-7327470_640.jpg",
        "src1280": "https://cdn.pixabay.com/photo/2022/07/17/13/47/plant-7327470_1280.jpg"
    },
    {
        "id": "3155986",
        "src640": "https://cdn.pixabay.com/photo/2018/02/15/18/32/nature-3155986_640.jpg",
        "src1280": "https://cdn.pixabay.com/photo/2018/02/15/18/32/nature-3155986_1280.jpg"
    },
    {
        "id": "6414665",
        "src640": "https://cdn.pixabay.com/photo/2021/07/12/18/04/phacelias-6414665_640.jpg",
        "src1280": "https://cdn.pixabay.com/photo/2021/07/12/18/04/phacelias-6414665_1280.jpg"
    },
    {
        "id": "1462401",
        "src640": "https://cdn.pixabay.com/photo/2016/06/17/00/40/macro-1462401_640.jpg",
        "src1280": "https://cdn.pixabay.com/photo/2016/06/17/00/40/macro-1462401_1280.jpg"
    },
    {
        "id": "7995524",
        "src640": "https://cdn.pixabay.com/photo/2023/05/15/16/51/mountain-7995524_640.jpg",
        "src1280": "https://cdn.pixabay.com/photo/2023/05/15/16/51/mountain-7995524_1280.jpg"
    }
]