[
    {
        "id": "2402990",
        "src640": "https://cdn.pixabay.com/photo/2017/06/14/18/48/medicine-2402990_640.jpg",
        "src1280": "https://cdn.pixabay.com/photo/2017/06/14/18/48/medicine-2402990_1280.jpg"
    },
    {
        "id": "4943290",
        "src640": "https://cdn.pixabay.com/photo/2020/03/18/08/45/palma-4943290_640.jpg",
        "src1280": "https://cdn.pixabay.com/photo/2020/03/18/08/45/palma-4943290_1280.jpg"
    },
    {
        "id": "3967628",
        "src640": "https://cdn.pixabay.com/photo/2019/01/31/18/14/scenic-3967628_640.jpg",
        "src1280": "https://cdn.pixabay.com/photo/2019/01/31/18/14/scenic-3967628_1280.jpg"
    },
    {
        "id": "956910",
        "src640": "https://cdn.pixabay.com/photo/2015/09/25/09/14/wave-pattern-956910_640.jpg",
        "src1280": "https://cdn.pixabay.com/photo/2015/09/25/09/14/wave-pattern-956910_1280.jpg"
    },
    {
        "id": "688684",
        "src640": "https://cdn.pixabay.com/photo/2015/03/25/09/01/lotus-688684_640.jpg",
        "src1280": "https://cdn.pixabay.com/photo/2015/03/25/09/01/lotus-688684_1280.jpg"
    },
    {
        "id": "2856903",
        "src640": "https://cdn.pixabay.com/photo/2017/10/16/10/53/autumn-2856903_640.jpg",
        "src1280": "https://cdn.pixabay.com/photo/2017/10/16/10/53/autumn-2856903_1280.jpg"
    },
    {
        "id": "607549",
        "src640": "https://cdn.pixabay.com/photo/2015/01/22/09/06/wine-607549_640.jpg",
        "src1280": "https://cdn.pixabay.com/photo/2015/01/22/09/06/wine-607549_1280.jpg"
    },
    {
        "id": "3356794",
        "src640": "https://cdn.pixabay.com/photo/2018/04/28/08/11/tape-3356794_640.jpg",
        "src1280": "https://cdn.pixabay.com/photo/2018/04/28/08/11/tape-3356794_1280.jpg"
    },
    {
        "id": "5266852",
        "src640": "https://cdn.pixabay.com/photo/2020/06/06/14/52/stone-bricks-5266852_640.jpg",
        "src1280": "https://cdn.pixabay.com/photo/2020/06/06/14/52/stone-bricks-5266852_1280.jpg"
    },
    {
        "id": "1633794",
        "src640": "https://cdn.pixabay.com/photo/2016/08/31/15/07/rosa-1633794_640.jpg",
        "src1280": "https://cdn.pixabay.com/photo/2016/08/31/15/07/rosa-1633794_1280.jpg"
    },
    {
        "id": "1571356",
        "src640": "https://cdn.pixabay.com/photo/2016/08/05/01/36/cat-1571356_640.jpg",
        "src1280": "https://cdn.pixabay.com/photo/2016/08/05/01/36/cat-1571356_1280.jpg"
    },
    {
        "id": "3493771",
        "src640": "https://cdn.pixabay.com/photo/2018/06/23/23/58/flower-3493771_640.jpg",
        "src1280": "https://cdn.pixabay.com/photo/2018/06/23/23/58/flower-3493771_1280.jpg"
    },
    {
        "id": "1772958",
        "src640": "https://cdn.pixabay.com/photo/2016/10/26/23/19/horned-basket-1772958_640.jpg",
        "src1280": "https://cdn.pixabay.com/photo/2016/10/26/23/19/horned-basket-1772958_1280.jpg"
    },
    {
        "id": "536814",
        "src640": "https://cdn.pixabay.com/photo/2014/11/18/23/38/bokeh-536814_640.jpg",
        "src1280": "https://cdn.pixabay.com/photo/2014/11/18/23/38/bokeh-536814_1280.jpg"
    },
    {
        "id": "1798980",
        "src640": "https://cdn.pixabay.com/photo/2016/11/04/21/23/hazelnuts-1798980_640.jpg",
        "src1280": "https://cdn.pixabay.com/photo/2016/11/04/21/23/hazelnuts-1798980_1280.jpg"
    },
    {
        "id": "369790",
        "src640": "https://cdn.pixabay.com/photo/2014/06/16/13/52/abstraction-369790_640.jpg",
        "src1280": "https://cdn.pixabay.com/photo/2014/06/16/13/52/abstraction-369790_1280.jpg"
    },
    {
        "id": "3422950",
        "src640": "https://cdn.pixabay.com/photo/2018/05/23/00/32/background-3422950_640.jpg",
        "src1280": "https://cdn.pixabay.com/photo/2018/05/23/00/32/background-3422950_1280.jpg"
    },
    {
        "id": "3838177",
        "src640": "https://cdn.pixabay.com/photo/2018/11/25/19/46/mystical-3838177_640.jpg",
        "src1280": "https://cdn.pixabay.com/photo/2018/11/25/19/46/mystical-3838177_1280.jpg"
    },
    {
        "id": "3337059",
        "src640": "https://cdn.pixabay.com/photo/2018/04/20/21/23/wood-pile-3337059_640.jpg",
        "src1280": "https://cdn.pixabay.com/photo/2018/04/20/21/23/wood-pile-3337059_1280.jpg"
    },
    {
        "id": "981915",
        "src640": "https://cdn.pixabay.com/photo/2015/10/11/07/54/tree-981915_640.jpg",
        "src1280": "https://cdn.pixabay.com/photo/2015/10/11/07/54/tree-981915_1280.jpg"
    },
    {
        "id": "5929667",
        "src640": "https://cdn.pixabay.com/photo/2021/01/18/23/00/horse-5929667_640.jpg",
        "src1280": "https://cdn.pixabay.com/photo/2021/01/18/23/00/horse-5929667_1280.jpg"
    },
    {
        "id": "6840187",
        "src640": "https://cdn.pixabay.com/photo/2021/12/02/10/20/art-6840187_640.jpg",
        "src1280": "https://cdn.pixabay.com/photo/2021/12/02/10/20/art-6840187_1280.jpg"
    },
    {
        "id": "216929",
        "src640": "https://cdn.pixabay.com/photo/2013/11/24/10/41/amusement-216929_640.jpg",
        "src1280": "https://cdn.pixabay.com/photo/2013/11/24/10/41/amusement-216929_1280.jpg"
    },
    {
        "id": "4799996",
        "src640": "https://cdn.pixabay.com/photo/2020/01/28/15/14/purple-4799996_640.jpg",
        "src1280": "https://cdn.pixabay.com/photo/2020/01/28/15/14/purple-4799996_1280.jpg"
    },
    {
        "id": "210231",
        "src640": "https://cdn.pixabay.com/photo/2013/11/13/21/29/doll-210231_640.jpg",
        "src1280": "https://cdn.pixabay.com/photo/2013/11/13/21/29/doll-210231_1280.jpg"
    },
    {
        "id": "71128",
        "src640": "https://cdn.pixabay.com/photo/2012/12/19/18/14/flowers-71128_640.jpg",
        "src1280": "https://cdn.pixabay.com/photo/2012/12/19/18/14/flowers-71128_1280.jpg"
    },
    {
        "id": "1425957",
        "src640": "https://cdn.pixabay.com/photo/2016/05/30/22/56/stone-background-1425957_640.jpg",
        "src1280": "https://cdn.pixabay.com/photo/2016/05/30/22/56/stone-background-1425957_1280.jpg"
    },
    {
        "id": "2728800",
        "src640": "https://cdn.pixabay.com/photo/2017/09/08/13/36/stones-2728800_640.jpg",
        "src1280": "https://cdn.pixabay.com/photo/2017/09/08/13/36/stones-2728800_1280.jpg"
    },
    {
        "id": "4523059",
        "src640": "https://cdn.pixabay.com/photo/2019/10/03/11/56/necklace-4523059_640.jpg",
        "src1280": "https://cdn.pixabay.com/photo/2019/10/03/11/56/necklace-4523059_1280.jpg"
    },
    {
        "id": "3894524",
        "src640": "https://cdn.pixabay.com/photo/2018/12/25/17/00/statue-3894524_640.jpg",
        "src1280": "https://cdn.pixabay.com/photo/2018/12/25/17/00/statue-3894524_1280.jpg"
    },
    {
        "id": "1729137",
        "src640": "https://cdn.pixabay.com/photo/2016/10/10/16/45/moon-1729137_640.jpg",
        "src1280": "https://cdn.pixabay.com/photo/2016/10/10/16/45/moon-1729137_1280.jpg"
    },
    {
        "id": "2880078",
        "src640": "https://cdn.pixabay.com/photo/2017/10/23/03/25/texture-2880078_640.jpg",
        "src1280": "https://cdn.pixabay.com/photo/2017/10/23/03/25/texture-2880078_1280.jpg"
    },
    {
        "id": "6724485",
        "src640": "https://cdn.pixabay.com/photo/2021/10/19/20/04/halloween-6724485_640.jpg",
        "src1280": "https://cdn.pixabay.com/photo/2021/10/19/20/04/halloween-6724485_1280.jpg"
    },
    {
        "id": "3029433",
        "src640": "https://cdn.pixabay.com/photo/2017/12/20/07/55/abstract-3029433_640.jpg",
        "src1280": "https://cdn.pixabay.com/photo/2017/12/20/07/55/abstract-3029433_1280.jpg"
    },
    {
        "id": "2853729",
        "src640": "https://cdn.pixabay.com/photo/2017/10/15/13/43/flower-2853729_640.jpg",
        "src1280": "https://cdn.pixabay.com/photo/2017/10/15/13/43/flower-2853729_1280.jpg"
    },
    {
        "id": "6033089",
        "src640": "https://cdn.pixabay.com/photo/2021/02/20/11/41/animal-6033089_640.jpg",
        "src1280": "https://cdn.pixabay.com/photo/2021/02/20/11/41/animal-6033089_1280.jpg"
    },
    {
        "id": "6840179",
        "src640": "https://cdn.pixabay.com/photo/2021/12/02/10/19/art-6840179_640.jpg",
        "src1280": "https://cdn.pixabay.com/photo/2021/12/02/10/19/art-6840179_1280.jpg"
    },
    {
        "id": "6917819",
        "src640": "https://cdn.pixabay.com/photo/2022/01/05/19/07/background-6917819_640.jpg",
        "src1280": "https://cdn.pixabay.com/photo/2022/01/05/19/07/background-6917819_1280.jpg"
    },
    {
        "id": "3675975",
        "src640": "https://cdn.pixabay.com/photo/2018/09/13/23/18/background-3675975_640.jpg",
        "src1280": "https://cdn.pixabay.com/photo/2018/09/13/23/18/background-3675975_1280.jpg"
    },
    {
        "id": "1469876",
        "src640": "https://cdn.pixabay.com/photo/2016/06/20/20/47/migration-1469876_640.jpg",
        "src1280": "https://cdn.pixabay.com/photo/2016/06/20/20/47/migration-1469876_1280.jpg"
    },
    {
        "id": "6720989",
        "src640": "https://cdn.pixabay.com/photo/2021/10/18/13/15/abstract-6720989_640.jpg",
        "src1280": "https://cdn.pixabay.com/photo/2021/10/18/13/15/abstract-6720989_1280.jpg"
    },
    {
        "id": "2969413",
        "src640": "https://cdn.pixabay.com/photo/2017/11/21/22/46/stinging-nettle-2969413_640.jpg",
        "src1280": "https://cdn.pixabay.com/photo/2017/11/21/22/46/stinging-nettle-2969413_1280.jpg"
    },
    {
        "id": "6840189",
        "src640": "https://cdn.pixabay.com/photo/2021/12/02/10/20/art-6840189_640.jpg",
        "src1280": "https://cdn.pixabay.com/photo/2021/12/02/10/20/art-6840189_1280.jpg"
    },
    {
        "id": "3916732",
        "src640": "https://cdn.pixabay.com/photo/2019/01/06/10/11/water-3916732_640.jpg",
        "src1280": "https://cdn.pixabay.com/photo/2019/01/06/10/11/water-3916732_1280.jpg"
    },
    {
        "id": "2957716",
        "src640": "https://cdn.pixabay.com/photo/2017/11/17/15/26/art-2957716_640.jpg",
        "src1280": "https://cdn.pixabay.com/photo/2017/11/17/15/26/art-2957716_1280.jpg"
    },
    {
        "id": "3368007",
        "src640": "https://cdn.pixabay.com/photo/2018/05/02/08/54/nature-3368007_640.jpg",
        "src1280": "https://cdn.pixabay.com/photo/2018/05/02/08/54/nature-3368007_1280.jpg"
    },
    {
        "id": "5852255",
        "src640": "https://cdn.pixabay.com/photo/2020/12/22/13/31/background-5852255_640.jpg",
        "src1280": "https://cdn.pixabay.com/photo/2020/12/22/13/31/background-5852255_1280.jpg"
    },
    {
        "id": "3269529",
        "src640": "https://cdn.pixabay.com/photo/2018/03/28/15/19/background-3269529_640.jpg",
        "src1280": "https://cdn.pixabay.com/photo/2018/03/28/15/19/background-3269529_1280.jpg"
    },
    {
        "id": "3396846",
        "src640": "https://cdn.pixabay.com/photo/2018/05/13/15/38/rape-3396846_640.jpg",
        "src1280": "https://cdn.pixabay.com/photo/2018/05/13/15/38/rape-3396846_1280.jpg"
    },
    {
        "id": "6811504",
        "src640": "https://cdn.pixabay.com/photo/2021/11/20/11/11/background-6811504_640.jpg",
        "src1280": "https://cdn.pixabay.com/photo/2021/11/20/11/11/background-6811504_1280.jpg"
    },
    {
        "id": "6808963",
        "src640": "https://cdn.pixabay.com/photo/2021/11/19/11/39/art-6808963_640.jpg",
        "src1280": "https://cdn.pixabay.com/photo/2021/11/19/11/39/art-6808963_1280.jpg"
    },
    {
        "id": "3316468",
        "src640": "https://cdn.pixabay.com/photo/2018/04/13/12/55/stone-3316468_640.jpg",
        "src1280": "https://cdn.pixabay.com/photo/2018/04/13/12/55/stone-3316468_1280.jpg"
    },
    {
        "id": "6207218",
        "src640": "https://cdn.pixabay.com/photo/2021/04/25/18/22/white-6207218_640.jpg",
        "src1280": "https://cdn.pixabay.com/photo/2021/04/25/18/22/white-6207218_1280.jpg"
    },
    {
        "id": "3805957",
        "src640": "https://cdn.pixabay.com/photo/2018/11/10/04/30/contrast-3805957_640.jpg",
        "src1280": "https://cdn.pixabay.com/photo/2018/11/10/04/30/contrast-3805957_1280.jpg"
    },
    {
        "id": "6163977",
        "src640": "https://cdn.pixabay.com/photo/2021/04/09/10/08/my-melody-6163977_640.jpg",
        "src1280": "https://cdn.pixabay.com/photo/2021/04/09/10/08/my-melody-6163977_1280.jpg"
    },
    {
        "id": "2388288",
        "src640": "https://cdn.pixabay.com/photo/2017/06/09/21/30/mosaic-2388288_640.jpg",
        "src1280": "https://cdn.pixabay.com/photo/2017/06/09/21/30/mosaic-2388288_1280.jpg"
    },
    {
        "id": "2358566",
        "src640": "https://cdn.pixabay.com/photo/2017/05/30/23/22/mood-2358566_640.jpg",
        "src1280": "https://cdn.pixabay.com/photo/2017/05/30/23/22/mood-2358566_1280.jpg"
    },
    {
        "id": "3221917",
        "src640": "https://cdn.pixabay.com/photo/2018/03/13/08/17/fashion-3221917_640.jpg",
        "src1280": "https://cdn.pixabay.com/photo/2018/03/13/08/17/fashion-3221917_1280.jpg"
    },
    {
        "id": "14871",
        "src640": "https://cdn.pixabay.com/photo/2012/02/19/10/49/background-14871_640.jpg",
        "src1280": "https://cdn.pixabay.com/photo/2012/02/19/10/49/background-14871_1280.jpg"
    },
    {
        "id": "2137384",
        "src640": "https://cdn.pixabay.com/photo/2017/03/12/16/25/structure-2137384_640.jpg",
        "src1280": "https://cdn.pixabay.com/photo/2017/03/12/16/25/structure-2137384_1280.jpg"
    },
    {
        "id": "7067200",
        "src640": "https://cdn.pixabay.com/photo/2022/03/14/02/31/kite-7067200_640.jpg",
        "src1280": "https://cdn.pixabay.com/photo/2022/03/14/02/31/kite-7067200_1280.jpg"
    },
    {
        "id": "737946",
        "src640": "https://cdn.pixabay.com/photo/2015/04/24/16/58/texture-737946_640.jpg",
        "src1280": "https://cdn.pixabay.com/photo/2015/04/24/16/58/texture-737946_1280.jpg"
    },
    {
        "id": "1813732",
        "src640": "https://cdn.pixabay.com/photo/2016/11/10/08/15/fountain-1813732_640.jpg",
        "src1280": "https://cdn.pixabay.com/photo/2016/11/10/08/15/fountain-1813732_1280.jpg"
    },
    {
        "id": "6703256",
        "src640": "https://cdn.pixabay.com/photo/2021/10/12/11/23/rosette-6703256_640.jpg",
        "src1280": "https://cdn.pixabay.com/photo/2021/10/12/11/23/rosette-6703256_1280.jpg"
    },
    {
        "id": "2342669",
        "src640": "https://cdn.pixabay.com/photo/2017/05/25/09/07/sky-2342669_640.jpg",
        "src1280": "https://cdn.pixabay.com/photo/2017/05/25/09/07/sky-2342669_1280.jpg"
    },
    {
        "id": "5862520",
        "src640": "https://cdn.pixabay.com/photo/2020/12/26/22/12/fantasy-5862520_640.jpg",
        "src1280": "https://cdn.pixabay.com/photo/2020/12/26/22/12/fantasy-5862520_1280.jpg"
    },
    {
        "id": "6155036",
        "src640": "https://cdn.pixabay.com/photo/2021/04/06/01/53/animals-6155036_640.jpg",
        "src1280": "https://cdn.pixabay.com/photo/2021/04/06/01/53/animals-6155036_1280.jpg"
    },
    {
        "id": "5140776",
        "src640": "https://cdn.pixabay.com/photo/2020/05/07/09/16/art-5140776_640.jpg",
        "src1280": "https://cdn.pixabay.com/photo/2020/05/07/09/16/art-5140776_1280.jpg"
    },
    {
        "id": "6017659",
        "src640": "https://cdn.pixabay.com/photo/2021/02/15/12/27/leaf-6017659_640.jpg",
        "src1280": "https://cdn.pixabay.com/photo/2021/02/15/12/27/leaf-6017659_1280.jpg"
    },
    {
        "id": "6128266",
        "src640": "https://cdn.pixabay.com/photo/2021/03/27/11/39/splash-6128266_640.jpg",
        "src1280": "https://cdn.pixabay.com/photo/2021/03/27/11/39/splash-6128266_1280.jpg"
    },
    {
        "id": "4960593",
        "src640": "https://cdn.pixabay.com/photo/2020/03/23/11/39/spring-4960593_640.jpg",
        "src1280": "https://cdn.pixabay.com/photo/2020/03/23/11/39/spring-4960593_1280.jpg"
    },
    {
        "id": "183366",
        "src640": "https://cdn.pixabay.com/photo/2013/09/18/07/32/folder-back-183366_640.jpg",
        "src1280": "https://cdn.pixabay.com/photo/2013/09/18/07/32/folder-back-183366_1280.jpg"
    },
    {
        "id": "1319840",
        "src640": "https://cdn.pixabay.com/photo/2016/04/10/13/10/texture-1319840_640.jpg",
        "src1280": "https://cdn.pixabay.com/photo/2016/04/10/13/10/texture-1319840_1280.jpg"
    },
    {
        "id": "5214489",
        "src640": "https://cdn.pixabay.com/photo/2020/05/24/14/23/roses-5214489_640.jpg",
        "src1280": "https://cdn.pixabay.com/photo/2020/05/24/14/23/roses-5214489_1280.jpg"
    },
    {
        "id": "2825315",
        "src640": "https://cdn.pixabay.com/photo/2017/10/07/02/53/blue-2825315_640.jpg",
        "src1280": "https://cdn.pixabay.com/photo/2017/10/07/02/53/blue-2825315_1280.jpg"
    },
    {
        "id": "1767105",
        "src640": "https://cdn.pixabay.com/photo/2016/10/24/19/53/autumn-1767105_640.jpg",
        "src1280": "https://cdn.pixabay.com/photo/2016/10/24/19/53/autumn-1767105_1280.jpg"
    },
    {
        "id": "4329277",
        "src640": "https://cdn.pixabay.com/photo/2019/07/10/18/57/chestnut-4329277_640.jpg",
        "src1280": "https://cdn.pixabay.com/photo/2019/07/10/18/57/chestnut-4329277_1280.jpg"
    },
    {
        "id": "5907554",
        "src640": "https://cdn.pixabay.com/photo/2021/01/11/08/33/oranges-5907554_640.jpg",
        "src1280": "https://cdn.pixabay.com/photo/2021/01/11/08/33/oranges-5907554_1280.jpg"
    },
    {
        "id": "3155536",
        "src640": "https://cdn.pixabay.com/photo/2018/02/15/15/32/street-3155536_640.jpg",
        "src1280": "https://cdn.pixabay.com/photo/2018/02/15/15/32/street-3155536_1280.jpg"
    },
    {
        "id": "6770586",
        "src640": "https://cdn.pixabay.com/photo/2021/11/05/08/11/mandala-6770586_640.jpg",
        "src1280": "https://cdn.pixabay.com/photo/2021/11/05/08/11/mandala-6770586_1280.jpg"
    },
    {
        "id": "713221",
        "src640": "https://cdn.pixabay.com/photo/2015/04/08/18/58/paper-713221_640.jpg",
        "src1280": "https://cdn.pixabay.com/photo/2015/04/08/18/58/paper-713221_1280.jpg"
    },
    {
        "id": "6294465",
        "src640": "https://cdn.pixabay.com/photo/2021/05/29/23/57/plank-6294465_640.jpg",
        "src1280": "https://cdn.pixabay.com/photo/2021/05/29/23/57/plank-6294465_1280.jpg"
    },
    {
        "id": "7067198",
        "src640": "https://cdn.pixabay.com/photo/2022/03/14/02/30/bird-7067198_640.jpg",
        "src1280": "https://cdn.pixabay.com/photo/2022/03/14/02/30/bird-7067198_1280.jpg"
    },
    {
        "id": "3308577",
        "src640": "https://cdn.pixabay.com/photo/2018/04/10/19/54/wood-3308577_640.jpg",
        "src1280": "https://cdn.pixabay.com/photo/2018/04/10/19/54/wood-3308577_1280.jpg"
    },
    {
        "id": "2263592",
        "src640": "https://cdn.pixabay.com/photo/2017/04/26/20/00/shadow-2263592_640.jpg",
        "src1280": "https://cdn.pixabay.com/photo/2017/04/26/20/00/shadow-2263592_1280.jpg"
    },
    {
        "id": "3675972",
        "src640": "https://cdn.pixabay.com/photo/2018/09/13/23/17/background-3675972_640.jpg",
        "src1280": "https://cdn.pixabay.com/photo/2018/09/13/23/17/background-3675972_1280.jpg"
    },
    {
        "id": "1981811",
        "src640": "https://cdn.pixabay.com/photo/2017/01/15/15/24/ppt-backgrounds-1981811_640.jpg",
        "src1280": "https://cdn.pixabay.com/photo/2017/01/15/15/24/ppt-backgrounds-1981811_1280.jpg"
    },
    {
        "id": "3649228",
        "src640": "https://cdn.pixabay.com/photo/2018/09/02/17/05/tree-bark-3649228_640.jpg",
        "src1280": "https://cdn.pixabay.com/photo/2018/09/02/17/05/tree-bark-3649228_1280.jpg"
    },
    {
        "id": "6677922",
        "src640": "https://cdn.pixabay.com/photo/2021/10/03/13/05/background-6677922_640.jpg",
        "src1280": "https://cdn.pixabay.com/photo/2021/10/03/13/05/background-6677922_1280.jpg"
    },
    {
        "id": "1206514",
        "src640": "https://cdn.pixabay.com/photo/2016/02/18/03/52/rainbow-1206514_640.jpg",
        "src1280": "https://cdn.pixabay.com/photo/2016/02/18/03/52/rainbow-1206514_1280.jpg"
    },
    {
        "id": "3292030",
        "src640": "https://cdn.pixabay.com/photo/2018/04/05/07/08/puzzle-3292030_640.jpg",
        "src1280": "https://cdn.pixabay.com/photo/2018/04/05/07/08/puzzle-3292030_1280.jpg"
    },
    {
        "id": "6209574",
        "src640": "https://cdn.pixabay.com/photo/2021/04/26/17/24/hearts-6209574_640.jpg",
        "src1280": "https://cdn.pixabay.com/photo/2021/04/26/17/24/hearts-6209574_1280.jpg"
    },
    {
        "id": "1549445",
        "src640": "https://cdn.pixabay.com/photo/2016/07/28/20/03/lotus-1549445_640.jpg",
        "src1280": "https://cdn.pixabay.com/photo/2016/07/28/20/03/lotus-1549445_1280.jpg"
    },
    {
        "id": "930621",
        "src640": "https://cdn.pixabay.com/photo/2015/09/08/19/55/background-930621_640.jpg",
        "src1280": "https://cdn.pixabay.com/photo/2015/09/08/19/55/background-930621_1280.jpg"
    }
]