[
    {
        "id": "6558265",
        "src640": "https://cdn.pixabay.com/photo/2021/08/19/15/11/yellow-6558265_640.jpg",
        "src1280": "https://cdn.pixabay.com/photo/2021/08/19/15/11/yellow-6558265_1280.jpg"
    },
    {
        "id": "4969578",
        "src640": "https://cdn.pixabay.com/photo/2020/03/26/08/41/ruler-4969578_640.jpg",
        "src1280": "https://cdn.pixabay.com/photo/2020/03/26/08/41/ruler-4969578_1280.jpg"
    },
    {
        "id": "1385463",
        "src640": "https://cdn.pixabay.com/photo/2016/05/11/10/36/tree-bark-1385463_640.jpg",
        "src1280": "https://cdn.pixabay.com/photo/2016/05/11/10/36/tree-bark-1385463_1280.jpg"
    },
    {
        "id": "2425621",
        "src640": "https://cdn.pixabay.com/photo/2017/06/21/00/55/tree-2425621_640.jpg",
        "src1280": "https://cdn.pixabay.com/photo/2017/06/21/00/55/tree-2425621_1280.jpg"
    },
    {
        "id": "4500914",
        "src640": "https://cdn.pixabay.com/photo/2019/09/24/10/05/flame-4500914_640.jpg",
        "src1280": "https://cdn.pixabay.com/photo/2019/09/24/10/05/flame-4500914_1280.jpg"
    },
    {
        "id": "2203596",
        "src640": "https://cdn.pixabay.com/photo/2017/04/05/00/44/dandelion-2203596_640.jpg",
        "src1280": "https://cdn.pixabay.com/photo/2017/04/05/00/44/dandelion-2203596_1280.jpg"
    },
    {
        "id": "3390154",
        "src640": "https://cdn.pixabay.com/photo/2018/05/11/10/46/abstract-3390154_640.jpg",
        "src1280": "https://cdn.pixabay.com/photo/2018/05/11/10/46/abstract-3390154_1280.jpg"
    },
    {
        "id": "6511339",
        "src640": "https://cdn.pixabay.com/photo/2021/07/31/07/09/flower-6511339_640.jpg",
        "src1280": "https://cdn.pixabay.com/photo/2021/07/31/07/09/flower-6511339_1280.jpg"
    },
    {
        "id": "4436533",
        "src640": "https://cdn.pixabay.com/photo/2019/08/28/11/23/carpet-4436533_640.jpg",
        "src1280": "https://cdn.pixabay.com/photo/2019/08/28/11/23/carpet-4436533_1280.jpg"
    },
    {
        "id": "2865760",
        "src640": "https://cdn.pixabay.com/photo/2017/10/18/22/29/church-2865760_640.jpg",
        "src1280": "https://cdn.pixabay.com/photo/2017/10/18/22/29/church-2865760_1280.jpg"
    },
    {
        "id": "6575682",
        "src640": "https://cdn.pixabay.com/photo/2021/08/26/09/31/stones-6575682_640.jpg",
        "src1280": "https://cdn.pixabay.com/photo/2021/08/26/09/31/stones-6575682_1280.jpg"
    },
    {
        "id": "6833676",
        "src640": "https://cdn.pixabay.com/photo/2021/11/29/19/58/art-6833676_640.jpg",
        "src1280": "https://cdn.pixabay.com/photo/2021/11/29/19/58/art-6833676_1280.jpg"
    },
    {
        "id": "6838918",
        "src640": "https://cdn.pixabay.com/photo/2021/12/01/18/44/vintage-poster-6838918_640.jpg",
        "src1280": "https://cdn.pixabay.com/photo/2021/12/01/18/44/vintage-poster-6838918_1280.jpg"
    },
    {
        "id": "189322",
        "src640": "https://cdn.pixabay.com/photo/2013/10/01/19/15/flower-189322_640.jpg",
        "src1280": "https://cdn.pixabay.com/photo/2013/10/01/19/15/flower-189322_1280.jpg"
    },
    {
        "id": "6840176",
        "src640": "https://cdn.pixabay.com/photo/2021/12/02/10/19/art-6840176_640.jpg",
        "src1280": "https://cdn.pixabay.com/photo/2021/12/02/10/19/art-6840176_1280.jpg"
    },
    {
        "id": "4481159",
        "src640": "https://cdn.pixabay.com/photo/2019/09/16/14/41/drops-4481159_640.jpg",
        "src1280": "https://cdn.pixabay.com/photo/2019/09/16/14/41/drops-4481159_1280.jpg"
    },
    {
        "id": "5192222",
        "src640": "https://cdn.pixabay.com/photo/2020/05/19/19/00/tree-bark-5192222_640.jpg",
        "src1280": "https://cdn.pixabay.com/photo/2020/05/19/19/00/tree-bark-5192222_1280.jpg"
    },
    {
        "id": "6840168",
        "src640": "https://cdn.pixabay.com/photo/2021/12/02/10/18/art-6840168_640.jpg",
        "src1280": "https://cdn.pixabay.com/photo/2021/12/02/10/18/art-6840168_1280.jpg"
    },
    {
        "id": "5917770",
        "src640": "https://cdn.pixabay.com/photo/2021/01/14/19/58/blue-sky-5917770_640.jpg",
        "src1280": "https://cdn.pixabay.com/photo/2021/01/14/19/58/blue-sky-5917770_1280.jpg"
    },
    {
        "id": "3691717",
        "src640": "https://cdn.pixabay.com/photo/2018/09/20/19/53/ice-cream-3691717_640.jpg",
        "src1280": "https://cdn.pixabay.com/photo/2018/09/20/19/53/ice-cream-3691717_1280.jpg"
    },
    {
        "id": "6294464",
        "src640": "https://cdn.pixabay.com/photo/2021/05/29/23/56/lantern-6294464_640.jpg",
        "src1280": "https://cdn.pixabay.com/photo/2021/05/29/23/56/lantern-6294464_1280.jpg"
    },
    {
        "id": "3324801",
        "src640": "https://cdn.pixabay.com/photo/2018/04/16/14/25/woods-3324801_640.jpg",
        "src1280": "https://cdn.pixabay.com/photo/2018/04/16/14/25/woods-3324801_1280.jpg"
    },
    {
        "id": "4391084",
        "src640": "https://cdn.pixabay.com/photo/2019/08/07/16/13/green-4391084_640.jpg",
        "src1280": "https://cdn.pixabay.com/photo/2019/08/07/16/13/green-4391084_1280.jpg"
    },
    {
        "id": "5996716",
        "src640": "https://cdn.pixabay.com/photo/2021/02/08/22/13/plain-background-5996716_640.jpg",
        "src1280": "https://cdn.pixabay.com/photo/2021/02/08/22/13/plain-background-5996716_1280.jpg"
    },
    {
        "id": "4585923",
        "src640": "https://cdn.pixabay.com/photo/2019/10/28/23/55/wood-4585923_640.jpg",
        "src1280": "https://cdn.pixabay.com/photo/2019/10/28/23/55/wood-4585923_1280.jpg"
    },
    {
        "id": "5127612",
        "src640": "https://cdn.pixabay.com/photo/2020/05/04/03/52/animal-5127612_640.jpg",
        "src1280": "https://cdn.pixabay.com/photo/2020/05/04/03/52/animal-5127612_1280.jpg"
    },
    {
        "id": "4468853",
        "src640": "https://cdn.pixabay.com/photo/2019/09/11/14/36/texture-4468853_640.jpg",
        "src1280": "https://cdn.pixabay.com/photo/2019/09/11/14/36/texture-4468853_1280.jpg"
    },
    {
        "id": "4384864",
        "src640": "https://cdn.pixabay.com/photo/2019/08/04/22/49/paving-stone-4384864_640.jpg",
        "src1280": "https://cdn.pixabay.com/photo/2019/08/04/22/49/paving-stone-4384864_1280.jpg"
    },
    {
        "id": "6464969",
        "src640": "https://cdn.pixabay.com/photo/2021/07/14/03/00/subscribe-6464969_640.jpg",
        "src1280": "https://cdn.pixabay.com/photo/2021/07/14/03/00/subscribe-6464969_1280.jpg"
    },
    {
        "id": "4716899",
        "src640": "https://cdn.pixabay.com/photo/2019/12/24/14/41/christmas-woman-4716899_640.jpg",
        "src1280": "https://cdn.pixabay.com/photo/2019/12/24/14/41/christmas-woman-4716899_1280.jpg"
    },
    {
        "id": "6671518",
        "src640": "https://cdn.pixabay.com/photo/2021/10/01/06/38/rosette-6671518_640.jpg",
        "src1280": "https://cdn.pixabay.com/photo/2021/10/01/06/38/rosette-6671518_1280.jpg"
    },
    {
        "id": "198395",
        "src640": "https://cdn.pixabay.com/photo/2013/10/20/14/58/graffiti-198395_640.jpg",
        "src1280": "https://cdn.pixabay.com/photo/2013/10/20/14/58/graffiti-198395_1280.jpg"
    },
    {
        "id": "732551",
        "src640": "https://cdn.pixabay.com/photo/2015/04/21/02/41/flower-732551_640.jpg",
        "src1280": "https://cdn.pixabay.com/photo/2015/04/21/02/41/flower-732551_1280.jpg"
    },
    {
        "id": "6671511",
        "src640": "https://cdn.pixabay.com/photo/2021/10/01/06/38/rosette-6671511_640.jpg",
        "src1280": "https://cdn.pixabay.com/photo/2021/10/01/06/38/rosette-6671511_1280.jpg"
    },
    {
        "id": "5912402",
        "src640": "https://cdn.pixabay.com/photo/2021/01/12/19/20/butterfly-5912402_640.jpg",
        "src1280": "https://cdn.pixabay.com/photo/2021/01/12/19/20/butterfly-5912402_1280.jpg"
    },
    {
        "id": "1688328",
        "src640": "https://cdn.pixabay.com/photo/2016/09/22/21/03/sweet-1688328_640.jpg",
        "src1280": "https://cdn.pixabay.com/photo/2016/09/22/21/03/sweet-1688328_1280.jpg"
    },
    {
        "id": "5483671",
        "src640": "https://cdn.pixabay.com/photo/2020/08/12/20/57/ant-5483671_640.jpg",
        "src1280": "https://cdn.pixabay.com/photo/2020/08/12/20/57/ant-5483671_1280.jpg"
    },
    {
        "id": "6840172",
        "src640": "https://cdn.pixabay.com/photo/2021/12/02/10/18/art-6840172_640.jpg",
        "src1280": "https://cdn.pixabay.com/photo/2021/12/02/10/18/art-6840172_1280.jpg"
    },
    {
        "id": "6013255",
        "src640": "https://cdn.pixabay.com/photo/2021/02/14/02/13/heart-6013255_640.jpg",
        "src1280": "https://cdn.pixabay.com/photo/2021/02/14/02/13/heart-6013255_1280.jpg"
    },
    {
        "id": "467012",
        "src640": "https://cdn.pixabay.com/photo/2014/09/30/09/31/shadow-play-467012_640.jpg",
        "src1280": "https://cdn.pixabay.com/photo/2014/09/30/09/31/shadow-play-467012_1280.jpg"
    },
    {
        "id": "1552981",
        "src640": "https://cdn.pixabay.com/photo/2016/07/29/11/58/spider-1552981_640.jpg",
        "src1280": "https://cdn.pixabay.com/photo/2016/07/29/11/58/spider-1552981_1280.jpg"
    },
    {
        "id": "1751914",
        "src640": "https://cdn.pixabay.com/photo/2016/10/19/01/01/clouds-1751914_640.jpg",
        "src1280": "https://cdn.pixabay.com/photo/2016/10/19/01/01/clouds-1751914_1280.jpg"
    },
    {
        "id": "6621073",
        "src640": "https://cdn.pixabay.com/photo/2021/09/13/11/34/nature-6621073_640.jpg",
        "src1280": "https://cdn.pixabay.com/photo/2021/09/13/11/34/nature-6621073_1280.jpg"
    },
    {
        "id": "5208791",
        "src640": "https://cdn.pixabay.com/photo/2020/05/23/09/33/sky-5208791_640.jpg",
        "src1280": "https://cdn.pixabay.com/photo/2020/05/23/09/33/sky-5208791_1280.jpg"
    },
    {
        "id": "6770585",
        "src640": "https://cdn.pixabay.com/photo/2021/11/05/08/11/mandala-6770585_640.jpg",
        "src1280": "https://cdn.pixabay.com/photo/2021/11/05/08/11/mandala-6770585_1280.jpg"
    },
    {
        "id": "726783",
        "src640": "https://cdn.pixabay.com/photo/2015/04/17/06/36/reflection-726783_640.jpg",
        "src1280": "https://cdn.pixabay.com/photo/2015/04/17/06/36/reflection-726783_1280.jpg"
    },
    {
        "id": "6901879",
        "src640": "https://cdn.pixabay.com/photo/2021/12/29/15/19/abstract-6901879_640.jpg",
        "src1280": "https://cdn.pixabay.com/photo/2021/12/29/15/19/abstract-6901879_1280.jpg"
    },
    {
        "id": "4735649",
        "src640": "https://cdn.pixabay.com/photo/2020/01/02/12/07/entrance-4735649_640.jpg",
        "src1280": "https://cdn.pixabay.com/photo/2020/01/02/12/07/entrance-4735649_1280.jpg"
    },
    {
        "id": "5950036",
        "src640": "https://cdn.pixabay.com/photo/2021/01/26/00/25/flower-5950036_640.jpg",
        "src1280": "https://cdn.pixabay.com/photo/2021/01/26/00/25/flower-5950036_1280.jpg"
    },
    {
        "id": "6884274",
        "src640": "https://cdn.pixabay.com/photo/2021/12/21/01/15/floral-6884274_640.jpg",
        "src1280": "https://cdn.pixabay.com/photo/2021/12/21/01/15/floral-6884274_1280.jpg"
    },
    {
        "id": "4955861",
        "src640": "https://cdn.pixabay.com/photo/2020/03/22/05/03/alone-4955861_640.jpg",
        "src1280": "https://cdn.pixabay.com/photo/2020/03/22/05/03/alone-4955861_1280.jpg"
    },
    {
        "id": "4523472",
        "src640": "https://cdn.pixabay.com/photo/2019/10/03/14/25/knob-4523472_640.jpg",
        "src1280": "https://cdn.pixabay.com/photo/2019/10/03/14/25/knob-4523472_1280.jpg"
    },
    {
        "id": "3306967",
        "src640": "https://cdn.pixabay.com/photo/2018/04/10/10/15/sports-3306967_640.jpg",
        "src1280": "https://cdn.pixabay.com/photo/2018/04/10/10/15/sports-3306967_1280.jpg"
    },
    {
        "id": "5413709",
        "src640": "https://cdn.pixabay.com/photo/2020/07/17/10/41/grass-5413709_640.jpg",
        "src1280": "https://cdn.pixabay.com/photo/2020/07/17/10/41/grass-5413709_1280.jpg"
    },
    {
        "id": "6480442",
        "src640": "https://cdn.pixabay.com/photo/2021/07/20/11/13/leaves-6480442_640.jpg",
        "src1280": "https://cdn.pixabay.com/photo/2021/07/20/11/13/leaves-6480442_1280.jpg"
    },
    {
        "id": "3865321",
        "src640": "https://cdn.pixabay.com/photo/2018/12/09/17/39/autumn-leaves-3865321_640.jpg",
        "src1280": "https://cdn.pixabay.com/photo/2018/12/09/17/39/autumn-leaves-3865321_1280.jpg"
    },
    {
        "id": "608332",
        "src640": "https://cdn.pixabay.com/photo/2015/01/22/20/48/screwdriver-608332_640.jpg",
        "src1280": "https://cdn.pixabay.com/photo/2015/01/22/20/48/screwdriver-608332_1280.jpg"
    },
    {
        "id": "989411",
        "src640": "https://cdn.pixabay.com/photo/2015/10/15/14/00/stone-989411_640.jpg",
        "src1280": "https://cdn.pixabay.com/photo/2015/10/15/14/00/stone-989411_1280.jpg"
    },
    {
        "id": "4236339",
        "src640": "https://cdn.pixabay.com/photo/2019/05/28/23/21/wood-4236339_640.jpg",
        "src1280": "https://cdn.pixabay.com/photo/2019/05/28/23/21/wood-4236339_1280.jpg"
    },
    {
        "id": "3989276",
        "src640": "https://cdn.pixabay.com/photo/2019/02/11/10/50/clouds-3989276_640.jpg",
        "src1280": "https://cdn.pixabay.com/photo/2019/02/11/10/50/clouds-3989276_1280.jpg"
    },
    {
        "id": "5934822",
        "src640": "https://cdn.pixabay.com/photo/2021/01/20/16/16/winter-5934822_640.jpg",
        "src1280": "https://cdn.pixabay.com/photo/2021/01/20/16/16/winter-5934822_1280.jpg"
    },
    {
        "id": "5968111",
        "src640": "https://cdn.pixabay.com/photo/2021/01/31/18/28/background-5968111_640.jpg",
        "src1280": "https://cdn.pixabay.com/photo/2021/01/31/18/28/background-5968111_1280.jpg"
    },
    {
        "id": "4992280",
        "src640": "https://cdn.pixabay.com/photo/2020/04/01/19/01/bee-4992280_640.jpg",
        "src1280": "https://cdn.pixabay.com/photo/2020/04/01/19/01/bee-4992280_1280.jpg"
    },
    {
        "id": "5240725",
        "src640": "https://cdn.pixabay.com/photo/2020/05/30/23/23/feather-5240725_640.jpg",
        "src1280": "https://cdn.pixabay.com/photo/2020/05/30/23/23/feather-5240725_1280.jpg"
    },
    {
        "id": "6875544",
        "src640": "https://cdn.pixabay.com/photo/2021/12/17/02/54/green-6875544_640.jpg",
        "src1280": "https://cdn.pixabay.com/photo/2021/12/17/02/54/green-6875544_1280.jpg"
    },
    {
        "id": "6720636",
        "src640": "https://cdn.pixabay.com/photo/2021/10/18/10/02/background-6720636_640.jpg",
        "src1280": "https://cdn.pixabay.com/photo/2021/10/18/10/02/background-6720636_1280.jpg"
    },
    {
        "id": "3055837",
        "src640": "https://cdn.pixabay.com/photo/2018/01/02/09/45/olive-tree-3055837_640.jpg",
        "src1280": "https://cdn.pixabay.com/photo/2018/01/02/09/45/olive-tree-3055837_1280.jpg"
    },
    {
        "id": "5300832",
        "src640": "https://cdn.pixabay.com/photo/2020/06/15/08/26/flowers-5300832_640.jpg",
        "src1280": "https://cdn.pixabay.com/photo/2020/06/15/08/26/flowers-5300832_1280.jpg"
    },
    {
        "id": "3309599",
        "src640": "https://cdn.pixabay.com/photo/2018/04/11/05/38/natural-3309599_640.jpg",
        "src1280": "https://cdn.pixabay.com/photo/2018/04/11/05/38/natural-3309599_1280.jpg"
    },
    {
        "id": "1587720",
        "src640": "https://cdn.pixabay.com/photo/2016/08/12/05/34/buddha-1587720_640.jpg",
        "src1280": "https://cdn.pixabay.com/photo/2016/08/12/05/34/buddha-1587720_1280.jpg"
    },
    {
        "id": "3231088",
        "src640": "https://cdn.pixabay.com/photo/2018/03/16/12/25/skin-3231088_640.jpg",
        "src1280": "https://cdn.pixabay.com/photo/2018/03/16/12/25/skin-3231088_1280.jpg"
    },
    {
        "id": "6770589",
        "src640": "https://cdn.pixabay.com/photo/2021/11/05/08/12/mandala-6770589_640.jpg",
        "src1280": "https://cdn.pixabay.com/photo/2021/11/05/08/12/mandala-6770589_1280.jpg"
    },
    {
        "id": "6657356",
        "src640": "https://cdn.pixabay.com/photo/2021/09/26/11/46/campfire-6657356_640.jpg",
        "src1280": "https://cdn.pixabay.com/photo/2021/09/26/11/46/campfire-6657356_1280.jpg"
    },
    {
        "id": "711950",
        "src640": "https://cdn.pixabay.com/photo/2015/04/07/22/29/road-711950_640.jpg",
        "src1280": "https://cdn.pixabay.com/photo/2015/04/07/22/29/road-711950_1280.jpg"
    },
    {
        "id": "6245502",
        "src640": "https://cdn.pixabay.com/photo/2021/05/11/10/40/bamboo-6245502_640.jpg",
        "src1280": "https://cdn.pixabay.com/photo/2021/05/11/10/40/bamboo-6245502_1280.jpg"
    },
    {
        "id": "2484533",
        "src640": "https://cdn.pixabay.com/photo/2017/07/08/14/34/background-2484533_640.jpg",
        "src1280": "https://cdn.pixabay.com/photo/2017/07/08/14/34/background-2484533_1280.jpg"
    },
    {
        "id": "2685990",
        "src640": "https://cdn.pixabay.com/photo/2017/08/27/13/07/zebra-2685990_640.jpg",
        "src1280": "https://cdn.pixabay.com/photo/2017/08/27/13/07/zebra-2685990_1280.jpg"
    },
    {
        "id": "5031884",
        "src640": "https://cdn.pixabay.com/photo/2020/04/11/20/18/tree-5031884_640.jpg",
        "src1280": "https://cdn.pixabay.com/photo/2020/04/11/20/18/tree-5031884_1280.jpg"
    },
    {
        "id": "6833697",
        "src640": "https://cdn.pixabay.com/photo/2021/11/29/20/03/art-6833697_640.jpg",
        "src1280": "https://cdn.pixabay.com/photo/2021/11/29/20/03/art-6833697_1280.jpg"
    },
    {
        "id": "2362844",
        "src640": "https://cdn.pixabay.com/photo/2017/06/01/08/46/texture-2362844_640.jpg",
        "src1280": "https://cdn.pixabay.com/photo/2017/06/01/08/46/texture-2362844_1280.jpg"
    },
    {
        "id": "2734720",
        "src640": "https://cdn.pixabay.com/photo/2017/09/10/08/37/graphic-2734720_640.jpg",
        "src1280": "https://cdn.pixabay.com/photo/2017/09/10/08/37/graphic-2734720_1280.jpg"
    },
    {
        "id": "5387166",
        "src640": "https://cdn.pixabay.com/photo/2020/07/09/12/44/monster-5387166_640.jpg",
        "src1280": "https://cdn.pixabay.com/photo/2020/07/09/12/44/monster-5387166_1280.jpg"
    },
    {
        "id": "2499408",
        "src640": "https://cdn.pixabay.com/photo/2017/07/13/06/32/background-2499408_640.jpg",
        "src1280": "https://cdn.pixabay.com/photo/2017/07/13/06/32/background-2499408_1280.jpg"
    },
    {
        "id": "2299256",
        "src640": "https://cdn.pixabay.com/photo/2017/05/09/21/14/train-tracks-2299256_640.jpg",
        "src1280": "https://cdn.pixabay.com/photo/2017/05/09/21/14/train-tracks-2299256_1280.jpg"
    },
    {
        "id": "907810",
        "src640": "https://cdn.pixabay.com/photo/2015/08/25/22/38/zen-907810_640.jpg",
        "src1280": "https://cdn.pixabay.com/photo/2015/08/25/22/38/zen-907810_1280.jpg"
    },
    {
        "id": "1919742",
        "src640": "https://cdn.pixabay.com/photo/2016/12/20/05/48/wall-1919742_640.jpg",
        "src1280": "https://cdn.pixabay.com/photo/2016/12/20/05/48/wall-1919742_1280.jpg"
    },
    {
        "id": "1361099",
        "src640": "https://cdn.pixabay.com/photo/2016/04/29/15/04/flower-1361099_640.jpg",
        "src1280": "https://cdn.pixabay.com/photo/2016/04/29/15/04/flower-1361099_1280.jpg"
    },
    {
        "id": "5779707",
        "src640": "https://cdn.pixabay.com/photo/2020/11/26/17/27/iron-5779707_640.jpg",
        "src1280": "https://cdn.pixabay.com/photo/2020/11/26/17/27/iron-5779707_1280.jpg"
    },
    {
        "id": "6770573",
        "src640": "https://cdn.pixabay.com/photo/2021/11/05/08/11/mandala-6770573_640.jpg",
        "src1280": "https://cdn.pixabay.com/photo/2021/11/05/08/11/mandala-6770573_1280.jpg"
    },
    {
        "id": "4623768",
        "src640": "https://cdn.pixabay.com/photo/2019/11/13/13/47/water-4623768_640.jpg",
        "src1280": "https://cdn.pixabay.com/photo/2019/11/13/13/47/water-4623768_1280.jpg"
    },
    {
        "id": "6840174",
        "src640": "https://cdn.pixabay.com/photo/2021/12/02/10/18/art-6840174_640.jpg",
        "src1280": "https://cdn.pixabay.com/photo/2021/12/02/10/18/art-6840174_1280.jpg"
    },
    {
        "id": "2776159",
        "src640": "https://cdn.pixabay.com/photo/2017/09/22/16/09/stone-2776159_640.jpg",
        "src1280": "https://cdn.pixabay.com/photo/2017/09/22/16/09/stone-2776159_1280.jpg"
    },
    {
        "id": "5047310",
        "src640": "https://cdn.pixabay.com/photo/2020/04/15/16/13/italy-5047310_640.jpg",
        "src1280": "https://cdn.pixabay.com/photo/2020/04/15/16/13/italy-5047310_1280.jpg"
    },
    {
        "id": "732857",
        "src640": "https://cdn.pixabay.com/photo/2015/04/21/07/57/real-shot-flower-732857_640.jpg",
        "src1280": "https://cdn.pixabay.com/photo/2015/04/21/07/57/real-shot-flower-732857_1280.jpg"
    },
    {
        "id": "6671512",
        "src640": "https://cdn.pixabay.com/photo/2021/10/01/06/38/rosette-6671512_640.jpg",
        "src1280": "https://cdn.pixabay.com/photo/2021/10/01/06/38/rosette-6671512_1280.jpg"
    },
    {
        "id": "6703257",
        "src640": "https://cdn.pixabay.com/photo/2021/10/12/11/23/rosette-6703257_640.jpg",
        "src1280": "https://cdn.pixabay.com/photo/2021/10/12/11/23/rosette-6703257_1280.jpg"
    },
    {
        "id": "6840196",
        "src640": "https://cdn.pixabay.com/photo/2021/12/02/10/21/art-6840196_640.jpg",
        "src1280": "https://cdn.pixabay.com/photo/2021/12/02/10/21/art-6840196_1280.jpg"
    }
]