[
    {
        "id": "6908218",
        "src640": "https://cdn.pixabay.com/photo/2022/01/01/16/30/ceramic-6908218_640.jpg",
        "src1280": "https://cdn.pixabay.com/photo/2022/01/01/16/30/ceramic-6908218_1280.jpg"
    },
    {
        "id": "6005365",
        "src640": "https://cdn.pixabay.com/photo/2021/02/11/13/37/background-6005365_640.jpg",
        "src1280": "https://cdn.pixabay.com/photo/2021/02/11/13/37/background-6005365_1280.jpg"
    },
    {
        "id": "2883372",
        "src640": "https://cdn.pixabay.com/photo/2017/10/24/04/18/texture-2883372_640.jpg",
        "src1280": "https://cdn.pixabay.com/photo/2017/10/24/04/18/texture-2883372_1280.jpg"
    },
    {
        "id": "2973418",
        "src640": "https://cdn.pixabay.com/photo/2017/11/23/18/25/nature-2973418_640.jpg",
        "src1280": "https://cdn.pixabay.com/photo/2017/11/23/18/25/nature-2973418_1280.jpg"
    },
    {
        "id": "4463603",
        "src640": "https://cdn.pixabay.com/photo/2019/09/09/13/25/zebra-4463603_640.jpg",
        "src1280": "https://cdn.pixabay.com/photo/2019/09/09/13/25/zebra-4463603_1280.jpg"
    },
    {
        "id": "2396947",
        "src640": "https://cdn.pixabay.com/photo/2017/06/12/21/44/begonias-2396947_640.jpg",
        "src1280": "https://cdn.pixabay.com/photo/2017/06/12/21/44/begonias-2396947_1280.jpg"
    },
    {
        "id": "5005954",
        "src640": "https://cdn.pixabay.com/photo/2020/04/05/12/32/travel-5005954_640.jpg",
        "src1280": "https://cdn.pixabay.com/photo/2020/04/05/12/32/travel-5005954_1280.jpg"
    },
    {
        "id": "4327953",
        "src640": "https://cdn.pixabay.com/photo/2019/07/10/05/53/blueberry-4327953_640.jpg",
        "src1280": "https://cdn.pixabay.com/photo/2019/07/10/05/53/blueberry-4327953_1280.jpg"
    },
    {
        "id": "6798234",
        "src640": "https://cdn.pixabay.com/photo/2021/11/15/13/55/blue-background-6798234_640.jpg",
        "src1280": "https://cdn.pixabay.com/photo/2021/11/15/13/55/blue-background-6798234_1280.jpg"
    },
    {
        "id": "1064085",
        "src640": "https://cdn.pixabay.com/photo/2015/11/26/15/30/colors-1064085_640.jpg",
        "src1280": "https://cdn.pixabay.com/photo/2015/11/26/15/30/colors-1064085_1280.jpg"
    },
    {
        "id": "689518",
        "src640": "https://cdn.pixabay.com/photo/2015/03/25/21/37/ladder-689518_640.jpg",
        "src1280": "https://cdn.pixabay.com/photo/2015/03/25/21/37/ladder-689518_1280.jpg"
    },
    {
        "id": "943172",
        "src640": "https://cdn.pixabay.com/photo/2015/09/16/19/09/blossom-943172_640.jpg",
        "src1280": "https://cdn.pixabay.com/photo/2015/09/16/19/09/blossom-943172_1280.jpg"
    },
    {
        "id": "527579",
        "src640": "https://cdn.pixabay.com/photo/2014/11/11/21/32/bark-527579_640.jpg",
        "src1280": "https://cdn.pixabay.com/photo/2014/11/11/21/32/bark-527579_1280.jpg"
    },
    {
        "id": "1173965",
        "src640": "https://cdn.pixabay.com/photo/2016/02/01/17/04/the-bowl-1173965_640.jpg",
        "src1280": "https://cdn.pixabay.com/photo/2016/02/01/17/04/the-bowl-1173965_1280.jpg"
    },
    {
        "id": "5021662",
        "src640": "https://cdn.pixabay.com/photo/2020/04/09/14/16/background-5021662_640.jpg",
        "src1280": "https://cdn.pixabay.com/photo/2020/04/09/14/16/background-5021662_1280.jpg"
    },
    {
        "id": "7063577",
        "src640": "https://cdn.pixabay.com/photo/2022/03/12/07/48/elk-7063577_640.jpg",
        "src1280": "https://cdn.pixabay.com/photo/2022/03/12/07/48/elk-7063577_1280.jpg"
    },
    {
        "id": "4732008",
        "src640": "https://cdn.pixabay.com/photo/2019/12/31/14/31/frost-4732008_640.jpg",
        "src1280": "https://cdn.pixabay.com/photo/2019/12/31/14/31/frost-4732008_1280.jpg"
    },
    {
        "id": "3070268",
        "src640": "https://cdn.pixabay.com/photo/2018/01/08/20/48/nature-3070268_640.jpg",
        "src1280": "https://cdn.pixabay.com/photo/2018/01/08/20/48/nature-3070268_1280.jpg"
    },
    {
        "id": "4991486",
        "src640": "https://cdn.pixabay.com/photo/2020/04/01/14/58/macro-4991486_640.jpg",
        "src1280": "https://cdn.pixabay.com/photo/2020/04/01/14/58/macro-4991486_1280.jpg"
    },
    {
        "id": "4795335",
        "src640": "https://cdn.pixabay.com/photo/2020/01/26/17/42/flower-4795335_640.jpg",
        "src1280": "https://cdn.pixabay.com/photo/2020/01/26/17/42/flower-4795335_1280.jpg"
    },
    {
        "id": "6637137",
        "src640": "https://cdn.pixabay.com/photo/2021/09/19/08/02/man-6637137_640.jpg",
        "src1280": "https://cdn.pixabay.com/photo/2021/09/19/08/02/man-6637137_1280.jpg"
    },
    {
        "id": "515350",
        "src640": "https://cdn.pixabay.com/photo/2014/11/03/15/54/monument-515350_640.jpg",
        "src1280": "https://cdn.pixabay.com/photo/2014/11/03/15/54/monument-515350_1280.jpg"
    },
    {
        "id": "3340111",
        "src640": "https://cdn.pixabay.com/photo/2018/04/22/04/06/wood-3340111_640.jpg",
        "src1280": "https://cdn.pixabay.com/photo/2018/04/22/04/06/wood-3340111_1280.jpg"
    },
    {
        "id": "5281875",
        "src640": "https://cdn.pixabay.com/photo/2020/06/10/08/51/background-5281875_640.jpg",
        "src1280": "https://cdn.pixabay.com/photo/2020/06/10/08/51/background-5281875_1280.jpg"
    },
    {
        "id": "3842912",
        "src640": "https://cdn.pixabay.com/photo/2018/11/28/03/48/washignton-dc-3842912_640.jpg",
        "src1280": "https://cdn.pixabay.com/photo/2018/11/28/03/48/washignton-dc-3842912_1280.jpg"
    },
    {
        "id": "2177423",
        "src640": "https://cdn.pixabay.com/photo/2017/03/27/05/25/flower-2177423_640.jpg",
        "src1280": "https://cdn.pixabay.com/photo/2017/03/27/05/25/flower-2177423_1280.jpg"
    },
    {
        "id": "3466387",
        "src640": "https://cdn.pixabay.com/photo/2018/06/10/12/46/flower-3466387_640.jpg",
        "src1280": "https://cdn.pixabay.com/photo/2018/06/10/12/46/flower-3466387_1280.jpg"
    },
    {
        "id": "355962",
        "src640": "https://cdn.pixabay.com/photo/2014/05/27/21/34/field-355962_640.jpg",
        "src1280": "https://cdn.pixabay.com/photo/2014/05/27/21/34/field-355962_1280.jpg"
    },
    {
        "id": "3822989",
        "src640": "https://cdn.pixabay.com/photo/2018/11/18/11/58/forest-3822989_640.jpg",
        "src1280": "https://cdn.pixabay.com/photo/2018/11/18/11/58/forest-3822989_1280.jpg"
    },
    {
        "id": "1081275",
        "src640": "https://cdn.pixabay.com/photo/2015/12/07/19/39/palm-tree-1081275_640.jpg",
        "src1280": "https://cdn.pixabay.com/photo/2015/12/07/19/39/palm-tree-1081275_1280.jpg"
    },
    {
        "id": "1729257",
        "src640": "https://cdn.pixabay.com/photo/2016/10/10/17/08/table-1729257_640.jpg",
        "src1280": "https://cdn.pixabay.com/photo/2016/10/10/17/08/table-1729257_1280.jpg"
    },
    {
        "id": "6036920",
        "src640": "https://cdn.pixabay.com/photo/2021/02/21/16/27/closeup-6036920_640.jpg",
        "src1280": "https://cdn.pixabay.com/photo/2021/02/21/16/27/closeup-6036920_1280.jpg"
    },
    {
        "id": "250190",
        "src640": "https://cdn.pixabay.com/photo/2014/01/23/04/35/face-250190_640.jpg",
        "src1280": "https://cdn.pixabay.com/photo/2014/01/23/04/35/face-250190_1280.jpg"
    },
    {
        "id": "741535",
        "src640": "https://cdn.pixabay.com/photo/2015/04/27/07/25/magnolia-741535_640.jpg",
        "src1280": "https://cdn.pixabay.com/photo/2015/04/27/07/25/magnolia-741535_1280.jpg"
    },
    {
        "id": "3521152",
        "src640": "https://cdn.pixabay.com/photo/2018/07/06/21/16/door-3521152_640.jpg",
        "src1280": "https://cdn.pixabay.com/photo/2018/07/06/21/16/door-3521152_1280.jpg"
    },
    {
        "id": "14363",
        "src640": "https://cdn.pixabay.com/photo/2012/02/17/15/22/girl-14363_640.jpg",
        "src1280": "https://cdn.pixabay.com/photo/2012/02/17/15/22/girl-14363_1280.jpg"
    },
    {
        "id": "6862458",
        "src640": "https://cdn.pixabay.com/photo/2021/12/11/10/22/art-6862458_640.jpg",
        "src1280": "https://cdn.pixabay.com/photo/2021/12/11/10/22/art-6862458_1280.jpg"
    },
    {
        "id": "6775544",
        "src640": "https://cdn.pixabay.com/photo/2021/11/07/11/23/background-6775544_640.jpg",
        "src1280": "https://cdn.pixabay.com/photo/2021/11/07/11/23/background-6775544_1280.jpg"
    },
    {
        "id": "6131363",
        "src640": "https://cdn.pixabay.com/photo/2021/03/28/13/44/cat-6131363_640.jpg",
        "src1280": "https://cdn.pixabay.com/photo/2021/03/28/13/44/cat-6131363_1280.jpg"
    },
    {
        "id": "6878957",
        "src640": "https://cdn.pixabay.com/photo/2021/12/18/15/05/background-6878957_640.jpg",
        "src1280": "https://cdn.pixabay.com/photo/2021/12/18/15/05/background-6878957_1280.jpg"
    },
    {
        "id": "2785812",
        "src640": "https://cdn.pixabay.com/photo/2017/09/25/16/56/cathedral-2785812_640.jpg",
        "src1280": "https://cdn.pixabay.com/photo/2017/09/25/16/56/cathedral-2785812_1280.jpg"
    },
    {
        "id": "6940143",
        "src640": "https://cdn.pixabay.com/photo/2022/01/15/17/00/leaf-buds-6940143_640.jpg",
        "src1280": "https://cdn.pixabay.com/photo/2022/01/15/17/00/leaf-buds-6940143_1280.jpg"
    },
    {
        "id": "3319842",
        "src640": "https://cdn.pixabay.com/photo/2018/04/14/19/25/nature-3319842_640.jpg",
        "src1280": "https://cdn.pixabay.com/photo/2018/04/14/19/25/nature-3319842_1280.jpg"
    },
    {
        "id": "6278550",
        "src640": "https://cdn.pixabay.com/photo/2021/05/24/10/11/cloud-6278550_640.jpg",
        "src1280": "https://cdn.pixabay.com/photo/2021/05/24/10/11/cloud-6278550_1280.jpg"
    },
    {
        "id": "6640555",
        "src640": "https://cdn.pixabay.com/photo/2021/09/20/10/57/metal-6640555_640.jpg",
        "src1280": "https://cdn.pixabay.com/photo/2021/09/20/10/57/metal-6640555_1280.jpg"
    },
    {
        "id": "4713179",
        "src640": "https://cdn.pixabay.com/photo/2019/12/22/19/15/christmas-4713179_640.jpg",
        "src1280": "https://cdn.pixabay.com/photo/2019/12/22/19/15/christmas-4713179_1280.jpg"
    },
    {
        "id": "979421",
        "src640": "https://cdn.pixabay.com/photo/2015/10/09/14/57/sunset-979421_640.jpg",
        "src1280": "https://cdn.pixabay.com/photo/2015/10/09/14/57/sunset-979421_1280.jpg"
    },
    {
        "id": "5964954",
        "src640": "https://cdn.pixabay.com/photo/2021/01/30/18/42/sad-5964954_640.jpg",
        "src1280": "https://cdn.pixabay.com/photo/2021/01/30/18/42/sad-5964954_1280.jpg"
    },
    {
        "id": "5830064",
        "src640": "https://cdn.pixabay.com/photo/2020/12/14/06/06/party-5830064_640.jpg",
        "src1280": "https://cdn.pixabay.com/photo/2020/12/14/06/06/party-5830064_1280.jpg"
    },
    {
        "id": "1587719",
        "src640": "https://cdn.pixabay.com/photo/2016/08/12/05/34/buddha-1587719_640.jpg",
        "src1280": "https://cdn.pixabay.com/photo/2016/08/12/05/34/buddha-1587719_1280.jpg"
    },
    {
        "id": "1850538",
        "src640": "https://cdn.pixabay.com/photo/2016/11/22/20/43/background-1850538_640.jpg",
        "src1280": "https://cdn.pixabay.com/photo/2016/11/22/20/43/background-1850538_1280.jpg"
    },
    {
        "id": "2036848",
        "src640": "https://cdn.pixabay.com/photo/2017/02/04/08/12/maple-2036848_640.jpg",
        "src1280": "https://cdn.pixabay.com/photo/2017/02/04/08/12/maple-2036848_1280.jpg"
    },
    {
        "id": "5852775",
        "src640": "https://cdn.pixabay.com/photo/2020/12/22/17/02/background-5852775_640.jpg",
        "src1280": "https://cdn.pixabay.com/photo/2020/12/22/17/02/background-5852775_1280.jpg"
    },
    {
        "id": "5419797",
        "src640": "https://cdn.pixabay.com/photo/2020/07/19/12/04/flowers-5419797_640.jpg",
        "src1280": "https://cdn.pixabay.com/photo/2020/07/19/12/04/flowers-5419797_1280.jpg"
    },
    {
        "id": "2079056",
        "src640": "https://cdn.pixabay.com/photo/2017/02/19/07/20/iris-2079056_640.jpg",
        "src1280": "https://cdn.pixabay.com/photo/2017/02/19/07/20/iris-2079056_1280.jpg"
    },
    {
        "id": "3383196",
        "src640": "https://cdn.pixabay.com/photo/2018/05/08/14/47/brick-3383196_640.jpg",
        "src1280": "https://cdn.pixabay.com/photo/2018/05/08/14/47/brick-3383196_1280.jpg"
    },
    {
        "id": "2293902",
        "src640": "https://cdn.pixabay.com/photo/2017/05/07/22/46/bark-2293902_640.jpg",
        "src1280": "https://cdn.pixabay.com/photo/2017/05/07/22/46/bark-2293902_1280.jpg"
    },
    {
        "id": "71145",
        "src640": "https://cdn.pixabay.com/photo/2012/12/19/18/14/red-71145_640.jpg",
        "src1280": "https://cdn.pixabay.com/photo/2012/12/19/18/14/red-71145_1280.jpg"
    },
    {
        "id": "1153590",
        "src640": "https://cdn.pixabay.com/photo/2016/01/21/11/06/textures-1153590_640.jpg",
        "src1280": "https://cdn.pixabay.com/photo/2016/01/21/11/06/textures-1153590_1280.jpg"
    },
    {
        "id": "6827926",
        "src640": "https://cdn.pixabay.com/photo/2021/11/27/12/40/rose-6827926_640.jpg",
        "src1280": "https://cdn.pixabay.com/photo/2021/11/27/12/40/rose-6827926_1280.jpg"
    },
    {
        "id": "4067698",
        "src640": "https://cdn.pixabay.com/photo/2019/03/20/05/36/alcohol-4067698_640.jpg",
        "src1280": "https://cdn.pixabay.com/photo/2019/03/20/05/36/alcohol-4067698_1280.jpg"
    },
    {
        "id": "5864664",
        "src640": "https://cdn.pixabay.com/photo/2020/12/27/16/50/hand-5864664_640.jpg",
        "src1280": "https://cdn.pixabay.com/photo/2020/12/27/16/50/hand-5864664_1280.jpg"
    },
    {
        "id": "6297930",
        "src640": "https://cdn.pixabay.com/photo/2021/05/31/06/37/nature-6297930_640.jpg",
        "src1280": "https://cdn.pixabay.com/photo/2021/05/31/06/37/nature-6297930_1280.jpg"
    },
    {
        "id": "4143481",
        "src640": "https://cdn.pixabay.com/photo/2019/04/21/06/13/god-4143481_640.jpg",
        "src1280": "https://cdn.pixabay.com/photo/2019/04/21/06/13/god-4143481_1280.jpg"
    },
    {
        "id": "6578410",
        "src640": "https://cdn.pixabay.com/photo/2021/08/27/10/52/countryside-6578410_640.jpg",
        "src1280": "https://cdn.pixabay.com/photo/2021/08/27/10/52/countryside-6578410_1280.jpg"
    },
    {
        "id": "5192259",
        "src640": "https://cdn.pixabay.com/photo/2020/05/19/19/06/forest-5192259_640.jpg",
        "src1280": "https://cdn.pixabay.com/photo/2020/05/19/19/06/forest-5192259_1280.jpg"
    },
    {
        "id": "1432506",
        "src640": "https://cdn.pixabay.com/photo/2016/06/02/23/49/foto-1432506_640.jpg",
        "src1280": "https://cdn.pixabay.com/photo/2016/06/02/23/49/foto-1432506_1280.jpg"
    },
    {
        "id": "857388",
        "src640": "https://cdn.pixabay.com/photo/2015/07/23/19/21/bricks-857388_640.jpg",
        "src1280": "https://cdn.pixabay.com/photo/2015/07/23/19/21/bricks-857388_1280.jpg"
    },
    {
        "id": "5512190",
        "src640": "https://cdn.pixabay.com/photo/2020/08/23/22/39/flower-5512190_640.jpg",
        "src1280": "https://cdn.pixabay.com/photo/2020/08/23/22/39/flower-5512190_1280.jpg"
    },
    {
        "id": "4508541",
        "src640": "https://cdn.pixabay.com/photo/2019/09/27/13/42/castle-4508541_640.jpg",
        "src1280": "https://cdn.pixabay.com/photo/2019/09/27/13/42/castle-4508541_1280.jpg"
    },
    {
        "id": "1957024",
        "src640": "https://cdn.pixabay.com/photo/2017/01/06/05/01/wood-1957024_640.jpg",
        "src1280": "https://cdn.pixabay.com/photo/2017/01/06/05/01/wood-1957024_1280.jpg"
    },
    {
        "id": "2250614",
        "src640": "https://cdn.pixabay.com/photo/2017/04/22/03/59/cherry-blossoms-2250614_640.jpg",
        "src1280": "https://cdn.pixabay.com/photo/2017/04/22/03/59/cherry-blossoms-2250614_1280.jpg"
    },
    {
        "id": "2955007",
        "src640": "https://cdn.pixabay.com/photo/2017/11/16/16/07/autumn-2955007_640.jpg",
        "src1280": "https://cdn.pixabay.com/photo/2017/11/16/16/07/autumn-2955007_1280.jpg"
    },
    {
        "id": "3149475",
        "src640": "https://cdn.pixabay.com/photo/2018/02/13/00/01/white-rose-3149475_640.jpg",
        "src1280": "https://cdn.pixabay.com/photo/2018/02/13/00/01/white-rose-3149475_1280.jpg"
    },
    {
        "id": "1840009",
        "src640": "https://cdn.pixabay.com/photo/2016/11/19/15/50/background-1840009_640.jpg",
        "src1280": "https://cdn.pixabay.com/photo/2016/11/19/15/50/background-1840009_1280.jpg"
    },
    {
        "id": "6048332",
        "src640": "https://cdn.pixabay.com/photo/2021/02/25/07/22/dog-6048332_640.jpg",
        "src1280": "https://cdn.pixabay.com/photo/2021/02/25/07/22/dog-6048332_1280.jpg"
    },
    {
        "id": "799945",
        "src640": "https://cdn.pixabay.com/photo/2015/06/06/22/26/onions-799945_640.jpg",
        "src1280": "https://cdn.pixabay.com/photo/2015/06/06/22/26/onions-799945_1280.jpg"
    },
    {
        "id": "6765449",
        "src640": "https://cdn.pixabay.com/photo/2021/11/03/11/18/lighthouse-6765449_640.jpg",
        "src1280": "https://cdn.pixabay.com/photo/2021/11/03/11/18/lighthouse-6765449_1280.jpg"
    },
    {
        "id": "2095742",
        "src640": "https://cdn.pixabay.com/photo/2017/02/24/17/42/barren-trees-2095742_640.jpg",
        "src1280": "https://cdn.pixabay.com/photo/2017/02/24/17/42/barren-trees-2095742_1280.jpg"
    },
    {
        "id": "2739262",
        "src640": "https://cdn.pixabay.com/photo/2017/09/11/15/01/bark-2739262_640.jpg",
        "src1280": "https://cdn.pixabay.com/photo/2017/09/11/15/01/bark-2739262_1280.jpg"
    },
    {
        "id": "1042899",
        "src640": "https://cdn.pixabay.com/photo/2015/11/14/09/49/grasses-1042899_640.jpg",
        "src1280": "https://cdn.pixabay.com/photo/2015/11/14/09/49/grasses-1042899_1280.jpg"
    },
    {
        "id": "3888790",
        "src640": "https://cdn.pixabay.com/photo/2018/12/21/21/18/azmi-3888790_640.jpg",
        "src1280": "https://cdn.pixabay.com/photo/2018/12/21/21/18/azmi-3888790_1280.jpg"
    },
    {
        "id": "224535",
        "src640": "https://cdn.pixabay.com/photo/2013/12/07/12/39/tiles-224535_640.jpg",
        "src1280": "https://cdn.pixabay.com/photo/2013/12/07/12/39/tiles-224535_1280.jpg"
    },
    {
        "id": "65964",
        "src640": "https://cdn.pixabay.com/photo/2012/11/13/19/42/tree-65964_640.jpg",
        "src1280": "https://cdn.pixabay.com/photo/2012/11/13/19/42/tree-65964_1280.jpg"
    },
    {
        "id": "2382241",
        "src640": "https://cdn.pixabay.com/photo/2017/06/08/02/20/background-2382241_640.jpg",
        "src1280": "https://cdn.pixabay.com/photo/2017/06/08/02/20/background-2382241_1280.jpg"
    },
    {
        "id": "2676384",
        "src640": "https://cdn.pixabay.com/photo/2017/08/24/11/10/beach-2676384_640.jpg",
        "src1280": "https://cdn.pixabay.com/photo/2017/08/24/11/10/beach-2676384_1280.jpg"
    },
    {
        "id": "3294457",
        "src640": "https://cdn.pixabay.com/photo/2018/04/05/22/50/statue-3294457_640.jpg",
        "src1280": "https://cdn.pixabay.com/photo/2018/04/05/22/50/statue-3294457_1280.jpg"
    },
    {
        "id": "3055858",
        "src640": "https://cdn.pixabay.com/photo/2018/01/02/10/15/pattern-3055858_640.jpg",
        "src1280": "https://cdn.pixabay.com/photo/2018/01/02/10/15/pattern-3055858_1280.jpg"
    },
    {
        "id": "2396818",
        "src640": "https://cdn.pixabay.com/photo/2017/06/12/21/10/texture-2396818_640.jpg",
        "src1280": "https://cdn.pixabay.com/photo/2017/06/12/21/10/texture-2396818_1280.jpg"
    },
    {
        "id": "5850800",
        "src640": "https://cdn.pixabay.com/photo/2020/12/21/20/21/tree-5850800_640.jpg",
        "src1280": "https://cdn.pixabay.com/photo/2020/12/21/20/21/tree-5850800_1280.jpg"
    },
    {
        "id": "6080968",
        "src640": "https://cdn.pixabay.com/photo/2021/03/09/06/09/rose-6080968_640.jpg",
        "src1280": "https://cdn.pixabay.com/photo/2021/03/09/06/09/rose-6080968_1280.jpg"
    },
    {
        "id": "3865893",
        "src640": "https://cdn.pixabay.com/photo/2018/12/09/22/19/water-3865893_640.jpg",
        "src1280": "https://cdn.pixabay.com/photo/2018/12/09/22/19/water-3865893_1280.jpg"
    },
    {
        "id": "6915544",
        "src640": "https://cdn.pixabay.com/photo/2022/01/04/17/39/sky-6915544_640.jpg",
        "src1280": "https://cdn.pixabay.com/photo/2022/01/04/17/39/sky-6915544_1280.jpg"
    }
]