[
    {
        "id": "5122684",
        "src640": "https://cdn.pixabay.com/photo/2020/05/02/19/04/background-5122684_640.jpg",
        "src1280": "https://cdn.pixabay.com/photo/2020/05/02/19/04/background-5122684_1280.jpg"
    },
    {
        "id": "91540",
        "src640": "https://cdn.pixabay.com/photo/2013/03/08/14/21/cloth-91540_640.jpg",
        "src1280": "https://cdn.pixabay.com/photo/2013/03/08/14/21/cloth-91540_1280.jpg"
    },
    {
        "id": "2604804",
        "src640": "https://cdn.pixabay.com/photo/2017/08/07/15/12/shorts-2604804_640.jpg",
        "src1280": "https://cdn.pixabay.com/photo/2017/08/07/15/12/shorts-2604804_1280.jpg"
    },
    {
        "id": "1564001",
        "src640": "https://cdn.pixabay.com/photo/2016/08/02/16/33/woman-1564001_640.jpg",
        "src1280": "https://cdn.pixabay.com/photo/2016/08/02/16/33/woman-1564001_1280.jpg"
    },
    {
        "id": "968365",
        "src640": "https://cdn.pixabay.com/photo/2015/10/02/10/53/the-background-968365_640.jpg",
        "src1280": "https://cdn.pixabay.com/photo/2015/10/02/10/53/the-background-968365_1280.jpg"
    },
    {
        "id": "1252223",
        "src640": "https://cdn.pixabay.com/photo/2016/03/12/15/33/plants-1252223_640.jpg",
        "src1280": "https://cdn.pixabay.com/photo/2016/03/12/15/33/plants-1252223_1280.jpg"
    },
    {
        "id": "2001001",
        "src640": "https://cdn.pixabay.com/photo/2017/01/22/21/25/cracks-2001001_640.jpg",
        "src1280": "https://cdn.pixabay.com/photo/2017/01/22/21/25/cracks-2001001_1280.jpg"
    },
    {
        "id": "5242957",
        "src640": "https://cdn.pixabay.com/photo/2020/05/31/15/27/butterfly-5242957_640.jpg",
        "src1280": "https://cdn.pixabay.com/photo/2020/05/31/15/27/butterfly-5242957_1280.jpg"
    },
    {
        "id": "5971651",
        "src640": "https://cdn.pixabay.com/photo/2021/02/01/19/11/vintage-5971651_640.jpg",
        "src1280": "https://cdn.pixabay.com/photo/2021/02/01/19/11/vintage-5971651_1280.jpg"
    },
    {
        "id": "6855997",
        "src640": "https://cdn.pixabay.com/photo/2021/12/08/15/20/christmas-6855997_640.jpg",
        "src1280": "https://cdn.pixabay.com/photo/2021/12/08/15/20/christmas-6855997_1280.jpg"
    },
    {
        "id": "2106954",
        "src640": "https://cdn.pixabay.com/photo/2017/02/28/22/01/dusky-pink-2106954_640.jpg",
        "src1280": "https://cdn.pixabay.com/photo/2017/02/28/22/01/dusky-pink-2106954_1280.jpg"
    },
    {
        "id": "4605810",
        "src640": "https://cdn.pixabay.com/photo/2019/11/06/10/43/fire-4605810_640.jpg",
        "src1280": "https://cdn.pixabay.com/photo/2019/11/06/10/43/fire-4605810_1280.jpg"
    },
    {
        "id": "1142198",
        "src640": "https://cdn.pixabay.com/photo/2016/01/15/18/37/retro-1142198_640.jpg",
        "src1280": "https://cdn.pixabay.com/photo/2016/01/15/18/37/retro-1142198_1280.jpg"
    },
    {
        "id": "5505966",
        "src640": "https://cdn.pixabay.com/photo/2020/08/21/12/13/butterfly-5505966_640.jpg",
        "src1280": "https://cdn.pixabay.com/photo/2020/08/21/12/13/butterfly-5505966_1280.jpg"
    },
    {
        "id": "2071620",
        "src640": "https://cdn.pixabay.com/photo/2017/02/16/14/36/croton-plant-2071620_640.jpg",
        "src1280": "https://cdn.pixabay.com/photo/2017/02/16/14/36/croton-plant-2071620_1280.jpg"
    },
    {
        "id": "21973",
        "src640": "https://cdn.pixabay.com/photo/2012/03/04/00/36/aroma-21973_640.jpg",
        "src1280": "https://cdn.pixabay.com/photo/2012/03/04/00/36/aroma-21973_1280.jpg"
    },
    {
        "id": "5341599",
        "src640": "https://cdn.pixabay.com/photo/2020/06/26/04/08/sky-5341599_640.jpg",
        "src1280": "https://cdn.pixabay.com/photo/2020/06/26/04/08/sky-5341599_1280.jpg"
    },
    {
        "id": "670515",
        "src640": "https://cdn.pixabay.com/photo/2015/03/12/17/24/nature-670515_640.jpg",
        "src1280": "https://cdn.pixabay.com/photo/2015/03/12/17/24/nature-670515_1280.jpg"
    },
    {
        "id": "3188705",
        "src640": "https://cdn.pixabay.com/photo/2018/02/28/18/45/nature-3188705_640.jpg",
        "src1280": "https://cdn.pixabay.com/photo/2018/02/28/18/45/nature-3188705_1280.jpg"
    },
    {
        "id": "4783736",
        "src640": "https://cdn.pixabay.com/photo/2020/01/21/19/11/couple-4783736_640.jpg",
        "src1280": "https://cdn.pixabay.com/photo/2020/01/21/19/11/couple-4783736_1280.jpg"
    },
    {
        "id": "2952753",
        "src640": "https://cdn.pixabay.com/photo/2017/11/15/22/12/background-2952753_640.jpg",
        "src1280": "https://cdn.pixabay.com/photo/2017/11/15/22/12/background-2952753_1280.jpg"
    },
    {
        "id": "2660903",
        "src640": "https://cdn.pixabay.com/photo/2017/08/20/09/04/dolphin-2660903_640.jpg",
        "src1280": "https://cdn.pixabay.com/photo/2017/08/20/09/04/dolphin-2660903_1280.jpg"
    },
    {
        "id": "912024",
        "src640": "https://cdn.pixabay.com/photo/2015/08/28/15/23/pattern-912024_640.jpg",
        "src1280": "https://cdn.pixabay.com/photo/2015/08/28/15/23/pattern-912024_1280.jpg"
    },
    {
        "id": "89339",
        "src640": "https://cdn.pixabay.com/photo/2013/03/02/16/21/flowers-89339_640.jpg",
        "src1280": "https://cdn.pixabay.com/photo/2013/03/02/16/21/flowers-89339_1280.jpg"
    },
    {
        "id": "1098691",
        "src640": "https://cdn.pixabay.com/photo/2015/12/18/15/44/new-years-1098691_640.jpg",
        "src1280": "https://cdn.pixabay.com/photo/2015/12/18/15/44/new-years-1098691_1280.jpg"
    },
    {
        "id": "1162083",
        "src640": "https://cdn.pixabay.com/photo/2016/01/26/09/10/work-1162083_640.jpg",
        "src1280": "https://cdn.pixabay.com/photo/2016/01/26/09/10/work-1162083_1280.jpg"
    },
    {
        "id": "815388",
        "src640": "https://cdn.pixabay.com/photo/2015/06/19/23/10/chinese-815388_640.jpg",
        "src1280": "https://cdn.pixabay.com/photo/2015/06/19/23/10/chinese-815388_1280.jpg"
    },
    {
        "id": "1810529",
        "src640": "https://cdn.pixabay.com/photo/2016/11/09/08/38/flower-1810529_640.jpg",
        "src1280": "https://cdn.pixabay.com/photo/2016/11/09/08/38/flower-1810529_1280.jpg"
    },
    {
        "id": "2808637",
        "src640": "https://cdn.pixabay.com/photo/2017/10/02/12/12/women-2808637_640.jpg",
        "src1280": "https://cdn.pixabay.com/photo/2017/10/02/12/12/women-2808637_1280.jpg"
    },
    {
        "id": "1209479",
        "src640": "https://cdn.pixabay.com/photo/2016/02/19/10/54/raw-1209479_640.jpg",
        "src1280": "https://cdn.pixabay.com/photo/2016/02/19/10/54/raw-1209479_1280.jpg"
    },
    {
        "id": "6369442",
        "src640": "https://cdn.pixabay.com/photo/2021/06/27/17/00/background-6369442_640.jpg",
        "src1280": "https://cdn.pixabay.com/photo/2021/06/27/17/00/background-6369442_1280.jpg"
    },
    {
        "id": "7225766",
        "src640": "https://cdn.pixabay.com/photo/2022/05/27/18/17/water-jet-7225766_640.jpg",
        "src1280": "https://cdn.pixabay.com/photo/2022/05/27/18/17/water-jet-7225766_1280.jpg"
    },
    {
        "id": "7141596",
        "src640": "https://cdn.pixabay.com/photo/2022/04/18/21/24/flower-7141596_640.jpg",
        "src1280": "https://cdn.pixabay.com/photo/2022/04/18/21/24/flower-7141596_1280.jpg"
    },
    {
        "id": "1238298",
        "src640": "https://cdn.pixabay.com/photo/2016/03/05/19/11/background-1238298_640.jpg",
        "src1280": "https://cdn.pixabay.com/photo/2016/03/05/19/11/background-1238298_1280.jpg"
    },
    {
        "id": "5333328",
        "src640": "https://cdn.pixabay.com/photo/2020/06/23/18/13/flower-5333328_640.jpg",
        "src1280": "https://cdn.pixabay.com/photo/2020/06/23/18/13/flower-5333328_1280.jpg"
    },
    {
        "id": "8013771",
        "src640": "https://cdn.pixabay.com/photo/2023/05/24/00/38/frame-8013771_640.jpg",
        "src1280": "https://cdn.pixabay.com/photo/2023/05/24/00/38/frame-8013771_1280.jpg"
    },
    {
        "id": "670849",
        "src640": "https://cdn.pixabay.com/photo/2015/03/12/20/56/leaves-670849_640.jpg",
        "src1280": "https://cdn.pixabay.com/photo/2015/03/12/20/56/leaves-670849_1280.jpg"
    },
    {
        "id": "1551159",
        "src640": "https://cdn.pixabay.com/photo/2016/07/29/08/18/sky-1551159_640.jpg",
        "src1280": "https://cdn.pixabay.com/photo/2016/07/29/08/18/sky-1551159_1280.jpg"
    },
    {
        "id": "3993920",
        "src640": "https://cdn.pixabay.com/photo/2019/02/13/08/57/tape-recorder-3993920_640.jpg",
        "src1280": "https://cdn.pixabay.com/photo/2019/02/13/08/57/tape-recorder-3993920_1280.jpg"
    },
    {
        "id": "1487203",
        "src640": "https://cdn.pixabay.com/photo/2016/06/29/16/26/chevron-1487203_640.jpg",
        "src1280": "https://cdn.pixabay.com/photo/2016/06/29/16/26/chevron-1487203_1280.jpg"
    },
    {
        "id": "2432372",
        "src640": "https://cdn.pixabay.com/photo/2017/06/22/20/22/green-2432372_640.jpg",
        "src1280": "https://cdn.pixabay.com/photo/2017/06/22/20/22/green-2432372_1280.jpg"
    },
    {
        "id": "5459487",
        "src640": "https://cdn.pixabay.com/photo/2020/08/03/08/08/butterfly-5459487_640.jpg",
        "src1280": "https://cdn.pixabay.com/photo/2020/08/03/08/08/butterfly-5459487_1280.jpg"
    },
    {
        "id": "5426757",
        "src640": "https://cdn.pixabay.com/photo/2020/07/21/16/25/epi-5426757_640.jpg",
        "src1280": "https://cdn.pixabay.com/photo/2020/07/21/16/25/epi-5426757_1280.jpg"
    },
    {
        "id": "4482541",
        "src640": "https://cdn.pixabay.com/photo/2019/09/17/05/42/red-rose-4482541_640.jpg",
        "src1280": "https://cdn.pixabay.com/photo/2019/09/17/05/42/red-rose-4482541_1280.jpg"
    },
    {
        "id": "1792929",
        "src640": "https://cdn.pixabay.com/photo/2016/11/02/22/34/background-1792929_640.jpg",
        "src1280": "https://cdn.pixabay.com/photo/2016/11/02/22/34/background-1792929_1280.jpg"
    },
    {
        "id": "968714",
        "src640": "https://cdn.pixabay.com/photo/2015/10/02/16/48/vintage-968714_640.jpg",
        "src1280": "https://cdn.pixabay.com/photo/2015/10/02/16/48/vintage-968714_1280.jpg"
    },
    {
        "id": "672455",
        "src640": "https://cdn.pixabay.com/photo/2015/03/13/23/48/background-image-672455_640.jpg",
        "src1280": "https://cdn.pixabay.com/photo/2015/03/13/23/48/background-image-672455_1280.jpg"
    },
    {
        "id": "5971166",
        "src640": "https://cdn.pixabay.com/photo/2021/02/01/16/14/ink-5971166_640.jpg",
        "src1280": "https://cdn.pixabay.com/photo/2021/02/01/16/14/ink-5971166_1280.jpg"
    },
    {
        "id": "7623223",
        "src640": "https://cdn.pixabay.com/photo/2022/11/28/21/43/cat-7623223_640.jpg",
        "src1280": "https://cdn.pixabay.com/photo/2022/11/28/21/43/cat-7623223_1280.jpg"
    },
    {
        "id": "21807",
        "src640": "https://cdn.pixabay.com/photo/2012/03/04/00/12/abstract-21807_640.jpg",
        "src1280": "https://cdn.pixabay.com/photo/2012/03/04/00/12/abstract-21807_1280.jpg"
    },
    {
        "id": "4423709",
        "src640": "https://cdn.pixabay.com/photo/2019/08/22/14/37/kristin-4423709_640.jpg",
        "src1280": "https://cdn.pixabay.com/photo/2019/08/22/14/37/kristin-4423709_1280.jpg"
    },
    {
        "id": "1729034",
        "src640": "https://cdn.pixabay.com/photo/2016/10/10/16/22/gies-jug-1729034_640.jpg",
        "src1280": "https://cdn.pixabay.com/photo/2016/10/10/16/22/gies-jug-1729034_1280.jpg"
    },
    {
        "id": "219663",
        "src640": "https://cdn.pixabay.com/photo/2013/11/28/09/50/gates-219663_640.jpg",
        "src1280": "https://cdn.pixabay.com/photo/2013/11/28/09/50/gates-219663_1280.jpg"
    },
    {
        "id": "5341589",
        "src640": "https://cdn.pixabay.com/photo/2020/06/26/04/01/sky-5341589_640.jpg",
        "src1280": "https://cdn.pixabay.com/photo/2020/06/26/04/01/sky-5341589_1280.jpg"
    },
    {
        "id": "7602768",
        "src640": "https://cdn.pixabay.com/photo/2022/11/19/18/06/mobile-wallpaper-7602768_640.jpg",
        "src1280": "https://cdn.pixabay.com/photo/2022/11/19/18/06/mobile-wallpaper-7602768_1280.jpg"
    },
    {
        "id": "1981688",
        "src640": "https://cdn.pixabay.com/photo/2017/01/15/14/33/greeting-card-1981688_640.jpg",
        "src1280": "https://cdn.pixabay.com/photo/2017/01/15/14/33/greeting-card-1981688_1280.jpg"
    },
    {
        "id": "5235245",
        "src640": "https://cdn.pixabay.com/photo/2020/05/29/13/51/arch-5235245_640.jpg",
        "src1280": "https://cdn.pixabay.com/photo/2020/05/29/13/51/arch-5235245_1280.jpg"
    },
    {
        "id": "4712075",
        "src640": "https://cdn.pixabay.com/photo/2019/12/22/08/33/cosmos-4712075_640.jpg",
        "src1280": "https://cdn.pixabay.com/photo/2019/12/22/08/33/cosmos-4712075_1280.jpg"
    },
    {
        "id": "3153032",
        "src640": "https://cdn.pixabay.com/photo/2018/02/14/13/59/menu-3153032_640.jpg",
        "src1280": "https://cdn.pixabay.com/photo/2018/02/14/13/59/menu-3153032_1280.jpg"
    },
    {
        "id": "1549324",
        "src640": "https://cdn.pixabay.com/photo/2016/07/28/19/57/spaghetti-1549324_640.jpg",
        "src1280": "https://cdn.pixabay.com/photo/2016/07/28/19/57/spaghetti-1549324_1280.jpg"
    },
    {
        "id": "4686591",
        "src640": "https://cdn.pixabay.com/photo/2019/12/10/19/15/new-years-eve-4686591_640.jpg",
        "src1280": "https://cdn.pixabay.com/photo/2019/12/10/19/15/new-years-eve-4686591_1280.jpg"
    },
    {
        "id": "4382321",
        "src640": "https://cdn.pixabay.com/photo/2019/08/03/18/24/bird-4382321_640.jpg",
        "src1280": "https://cdn.pixabay.com/photo/2019/08/03/18/24/bird-4382321_1280.jpg"
    },
    {
        "id": "5380775",
        "src640": "https://cdn.pixabay.com/photo/2020/07/07/14/39/background-5380775_640.jpg",
        "src1280": "https://cdn.pixabay.com/photo/2020/07/07/14/39/background-5380775_1280.jpg"
    },
    {
        "id": "2425417",
        "src640": "https://cdn.pixabay.com/photo/2017/06/20/23/47/rope-2425417_640.jpg",
        "src1280": "https://cdn.pixabay.com/photo/2017/06/20/23/47/rope-2425417_1280.jpg"
    },
    {
        "id": "2456705",
        "src640": "https://cdn.pixabay.com/photo/2017/06/29/23/54/wood-2456705_640.jpg",
        "src1280": "https://cdn.pixabay.com/photo/2017/06/29/23/54/wood-2456705_1280.jpg"
    }
]