[
    {
        "id": "163698",
        "src640": "https://cdn.pixabay.com/photo/2013/07/18/10/59/girl-163698_640.jpg",
        "src1280": "https://cdn.pixabay.com/photo/2013/07/18/10/59/girl-163698_1280.jpg"
    },
    {
        "id": "3335359",
        "src640": "https://cdn.pixabay.com/photo/2018/04/20/08/31/young-3335359_640.jpg",
        "src1280": "https://cdn.pixabay.com/photo/2018/04/20/08/31/young-3335359_1280.jpg"
    },
    {
        "id": "4399394",
        "src640": "https://cdn.pixabay.com/photo/2019/08/11/17/04/material-4399394_640.jpg",
        "src1280": "https://cdn.pixabay.com/photo/2019/08/11/17/04/material-4399394_1280.jpg"
    },
    {
        "id": "2960163",
        "src640": "https://cdn.pixabay.com/photo/2017/11/18/14/50/girl-2960163_640.jpg",
        "src1280": "https://cdn.pixabay.com/photo/2017/11/18/14/50/girl-2960163_1280.jpg"
    },
    {
        "id": "4967496",
        "src640": "https://cdn.pixabay.com/photo/2020/03/25/14/24/blue-4967496_640.jpg",
        "src1280": "https://cdn.pixabay.com/photo/2020/03/25/14/24/blue-4967496_1280.jpg"
    },
    {
        "id": "220448",
        "src640": "https://cdn.pixabay.com/photo/2013/11/28/12/14/cross-220448_640.jpg",
        "src1280": "https://cdn.pixabay.com/photo/2013/11/28/12/14/cross-220448_1280.jpg"
    },
    {
        "id": "3162423",
        "src640": "https://cdn.pixabay.com/photo/2018/02/18/14/38/blank-3162423_640.jpg",
        "src1280": "https://cdn.pixabay.com/photo/2018/02/18/14/38/blank-3162423_1280.jpg"
    },
    {
        "id": "5869817",
        "src640": "https://cdn.pixabay.com/photo/2020/12/29/08/31/flowers-5869817_640.jpg",
        "src1280": "https://cdn.pixabay.com/photo/2020/12/29/08/31/flowers-5869817_1280.jpg"
    },
    {
        "id": "1771544",
        "src640": "https://cdn.pixabay.com/photo/2016/10/26/13/56/architecture-1771544_640.jpg",
        "src1280": "https://cdn.pixabay.com/photo/2016/10/26/13/56/architecture-1771544_1280.jpg"
    },
    {
        "id": "6889242",
        "src640": "https://cdn.pixabay.com/photo/2021/12/23/12/21/snow-6889242_640.jpg",
        "src1280": "https://cdn.pixabay.com/photo/2021/12/23/12/21/snow-6889242_1280.jpg"
    },
    {
        "id": "3283970",
        "src640": "https://cdn.pixabay.com/photo/2018/04/02/14/10/planet-3283970_640.jpg",
        "src1280": "https://cdn.pixabay.com/photo/2018/04/02/14/10/planet-3283970_1280.jpg"
    },
    {
        "id": "6075988",
        "src640": "https://cdn.pixabay.com/photo/2021/03/07/11/55/abstract-6075988_640.jpg",
        "src1280": "https://cdn.pixabay.com/photo/2021/03/07/11/55/abstract-6075988_1280.jpg"
    },
    {
        "id": "2763066",
        "src640": "https://cdn.pixabay.com/photo/2017/09/18/20/10/paris-2763066_640.jpg",
        "src1280": "https://cdn.pixabay.com/photo/2017/09/18/20/10/paris-2763066_1280.jpg"
    },
    {
        "id": "7306014",
        "src640": "https://cdn.pixabay.com/photo/2022/07/06/20/56/landscape-7306014_640.jpg",
        "src1280": "https://cdn.pixabay.com/photo/2022/07/06/20/56/landscape-7306014_1280.jpg"
    },
    {
        "id": "84464",
        "src640": "https://cdn.pixabay.com/photo/2013/02/21/19/01/advert-84464_640.jpg",
        "src1280": "https://cdn.pixabay.com/photo/2013/02/21/19/01/advert-84464_1280.jpg"
    },
    {
        "id": "4772344",
        "src640": "https://cdn.pixabay.com/photo/2020/01/17/06/21/door-4772344_640.jpg",
        "src1280": "https://cdn.pixabay.com/photo/2020/01/17/06/21/door-4772344_1280.jpg"
    },
    {
        "id": "4571254",
        "src640": "https://cdn.pixabay.com/photo/2019/10/23/10/59/fractals-4571254_640.jpg",
        "src1280": "https://cdn.pixabay.com/photo/2019/10/23/10/59/fractals-4571254_1280.jpg"
    },
    {
        "id": "7852481",
        "src640": "https://cdn.pixabay.com/photo/2023/03/14/14/43/elephant-7852481_640.jpg",
        "src1280": "https://cdn.pixabay.com/photo/2023/03/14/14/43/elephant-7852481_1280.jpg"
    },
    {
        "id": "5711050",
        "src640": "https://cdn.pixabay.com/photo/2020/11/03/22/28/cobweb-5711050_640.jpg",
        "src1280": "https://cdn.pixabay.com/photo/2020/11/03/22/28/cobweb-5711050_1280.jpg"
    },
    {
        "id": "7093588",
        "src640": "https://cdn.pixabay.com/photo/2022/03/26/19/56/cat-7093588_640.jpg",
        "src1280": "https://cdn.pixabay.com/photo/2022/03/26/19/56/cat-7093588_1280.jpg"
    },
    {
        "id": "4882231",
        "src640": "https://cdn.pixabay.com/photo/2020/02/26/16/31/butterfly-4882231_640.jpg",
        "src1280": "https://cdn.pixabay.com/photo/2020/02/26/16/31/butterfly-4882231_1280.jpg"
    },
    {
        "id": "2895451",
        "src640": "https://cdn.pixabay.com/photo/2017/10/27/20/26/blue-2895451_640.jpg",
        "src1280": "https://cdn.pixabay.com/photo/2017/10/27/20/26/blue-2895451_1280.jpg"
    },
    {
        "id": "2711314",
        "src640": "https://cdn.pixabay.com/photo/2017/09/03/17/37/pink-rose-2711314_640.jpg",
        "src1280": "https://cdn.pixabay.com/photo/2017/09/03/17/37/pink-rose-2711314_1280.jpg"
    },
    {
        "id": "259378",
        "src640": "https://cdn.pixabay.com/photo/2014/02/05/19/04/wood-259378_640.jpg",
        "src1280": "https://cdn.pixabay.com/photo/2014/02/05/19/04/wood-259378_1280.jpg"
    },
    {
        "id": "917431",
        "src640": "https://cdn.pixabay.com/photo/2015/09/01/18/57/skull-917431_640.jpg",
        "src1280": "https://cdn.pixabay.com/photo/2015/09/01/18/57/skull-917431_1280.jpg"
    },
    {
        "id": "5213281",
        "src640": "https://cdn.pixabay.com/photo/2020/05/24/09/19/nature-5213281_640.jpg",
        "src1280": "https://cdn.pixabay.com/photo/2020/05/24/09/19/nature-5213281_1280.jpg"
    },
    {
        "id": "8413995",
        "src640": "https://cdn.pixabay.com/photo/2023/11/26/17/27/cookie-8413995_640.jpg",
        "src1280": "https://cdn.pixabay.com/photo/2023/11/26/17/27/cookie-8413995_1280.jpg"
    },
    {
        "id": "8102940",
        "src640": "https://cdn.pixabay.com/photo/2023/07/02/20/14/flower-8102940_640.jpg",
        "src1280": "https://cdn.pixabay.com/photo/2023/07/02/20/14/flower-8102940_1280.jpg"
    },
    {
        "id": "1332229",
        "src640": "https://cdn.pixabay.com/photo/2016/04/15/23/35/pattern-1332229_640.jpg",
        "src1280": "https://cdn.pixabay.com/photo/2016/04/15/23/35/pattern-1332229_1280.jpg"
    },
    {
        "id": "2009149",
        "src640": "https://cdn.pixabay.com/photo/2017/01/25/21/57/background-2009149_640.jpg",
        "src1280": "https://cdn.pixabay.com/photo/2017/01/25/21/57/background-2009149_1280.jpg"
    },
    {
        "id": "1367667",
        "src640": "https://cdn.pixabay.com/photo/2016/05/02/17/00/paper-1367667_640.jpg",
        "src1280": "https://cdn.pixabay.com/photo/2016/05/02/17/00/paper-1367667_1280.jpg"
    },
    {
        "id": "7144089",
        "src640": "https://cdn.pixabay.com/photo/2022/04/20/02/10/truck-7144089_640.jpg",
        "src1280": "https://cdn.pixabay.com/photo/2022/04/20/02/10/truck-7144089_1280.jpg"
    },
    {
        "id": "1222296",
        "src640": "https://cdn.pixabay.com/photo/2016/02/25/14/56/water-1222296_640.jpg",
        "src1280": "https://cdn.pixabay.com/photo/2016/02/25/14/56/water-1222296_1280.jpg"
    },
    {
        "id": "2940945",
        "src640": "https://cdn.pixabay.com/photo/2017/11/11/23/21/surface-2940945_640.jpg",
        "src1280": "https://cdn.pixabay.com/photo/2017/11/11/23/21/surface-2940945_1280.jpg"
    },
    {
        "id": "6508618",
        "src640": "https://cdn.pixabay.com/photo/2021/07/30/04/17/orange-6508618_640.jpg",
        "src1280": "https://cdn.pixabay.com/photo/2021/07/30/04/17/orange-6508618_1280.jpg"
    },
    {
        "id": "5239103",
        "src640": "https://cdn.pixabay.com/photo/2020/05/30/14/15/flower-5239103_640.jpg",
        "src1280": "https://cdn.pixabay.com/photo/2020/05/30/14/15/flower-5239103_1280.jpg"
    },
    {
        "id": "4916556",
        "src640": "https://cdn.pixabay.com/photo/2020/03/09/17/46/flowers-4916556_640.jpg",
        "src1280": "https://cdn.pixabay.com/photo/2020/03/09/17/46/flowers-4916556_1280.jpg"
    },
    {
        "id": "6253814",
        "src640": "https://cdn.pixabay.com/photo/2021/05/14/15/52/hibiscus-6253814_640.jpg",
        "src1280": "https://cdn.pixabay.com/photo/2021/05/14/15/52/hibiscus-6253814_1280.jpg"
    },
    {
        "id": "6934256",
        "src640": "https://cdn.pixabay.com/photo/2022/01/13/02/54/water-6934256_640.jpg",
        "src1280": "https://cdn.pixabay.com/photo/2022/01/13/02/54/water-6934256_1280.jpg"
    },
    {
        "id": "8040132",
        "src640": "https://cdn.pixabay.com/photo/2023/06/04/15/51/mountains-8040132_640.jpg",
        "src1280": "https://cdn.pixabay.com/photo/2023/06/04/15/51/mountains-8040132_1280.jpg"
    },
    {
        "id": "5866004",
        "src640": "https://cdn.pixabay.com/photo/2020/12/28/06/17/flower-5866004_640.jpg",
        "src1280": "https://cdn.pixabay.com/photo/2020/12/28/06/17/flower-5866004_1280.jpg"
    },
    {
        "id": "95365",
        "src640": "https://cdn.pixabay.com/photo/2013/03/20/23/21/butterfly-95365_640.jpg",
        "src1280": "https://cdn.pixabay.com/photo/2013/03/20/23/21/butterfly-95365_1280.jpg"
    },
    {
        "id": "5550764",
        "src640": "https://cdn.pixabay.com/photo/2020/09/07/04/57/universe-5550764_640.jpg",
        "src1280": "https://cdn.pixabay.com/photo/2020/09/07/04/57/universe-5550764_1280.jpg"
    },
    {
        "id": "14178",
        "src640": "https://cdn.pixabay.com/photo/2012/02/17/14/54/grunge-14178_640.jpg",
        "src1280": "https://cdn.pixabay.com/photo/2012/02/17/14/54/grunge-14178_1280.jpg"
    },
    {
        "id": "3264147",
        "src640": "https://cdn.pixabay.com/photo/2018/03/26/21/19/black-3264147_640.jpg",
        "src1280": "https://cdn.pixabay.com/photo/2018/03/26/21/19/black-3264147_1280.jpg"
    },
    {
        "id": "2934390",
        "src640": "https://cdn.pixabay.com/photo/2017/11/09/19/27/wood-2934390_640.jpg",
        "src1280": "https://cdn.pixabay.com/photo/2017/11/09/19/27/wood-2934390_1280.jpg"
    },
    {
        "id": "3681981",
        "src640": "https://cdn.pixabay.com/photo/2018/09/16/17/27/bouquet-3681981_640.jpg",
        "src1280": "https://cdn.pixabay.com/photo/2018/09/16/17/27/bouquet-3681981_1280.jpg"
    },
    {
        "id": "2016082",
        "src640": "https://cdn.pixabay.com/photo/2017/01/28/18/00/birthday-2016082_640.jpg",
        "src1280": "https://cdn.pixabay.com/photo/2017/01/28/18/00/birthday-2016082_1280.jpg"
    },
    {
        "id": "990302",
        "src640": "https://cdn.pixabay.com/photo/2015/10/16/01/08/diamond-990302_640.jpg",
        "src1280": "https://cdn.pixabay.com/photo/2015/10/16/01/08/diamond-990302_1280.jpg"
    },
    {
        "id": "15886",
        "src640": "https://cdn.pixabay.com/photo/2012/02/23/09/07/christmas-15886_640.jpg",
        "src1280": "https://cdn.pixabay.com/photo/2012/02/23/09/07/christmas-15886_1280.jpg"
    },
    {
        "id": "1196697",
        "src640": "https://cdn.pixabay.com/photo/2016/02/12/19/38/phone-1196697_640.jpg",
        "src1280": "https://cdn.pixabay.com/photo/2016/02/12/19/38/phone-1196697_1280.jpg"
    },
    {
        "id": "7452043",
        "src640": "https://cdn.pixabay.com/photo/2022/09/13/14/39/turkey-7452043_640.jpg",
        "src1280": "https://cdn.pixabay.com/photo/2022/09/13/14/39/turkey-7452043_1280.jpg"
    },
    {
        "id": "220259",
        "src640": "https://cdn.pixabay.com/photo/2013/11/28/11/30/man-220259_640.jpg",
        "src1280": "https://cdn.pixabay.com/photo/2013/11/28/11/30/man-220259_1280.jpg"
    },
    {
        "id": "4675335",
        "src640": "https://cdn.pixabay.com/photo/2019/12/05/14/31/hdr-4675335_640.jpg",
        "src1280": "https://cdn.pixabay.com/photo/2019/12/05/14/31/hdr-4675335_1280.jpg"
    },
    {
        "id": "6887407",
        "src640": "https://cdn.pixabay.com/photo/2021/12/22/13/00/dog-6887407_640.jpg",
        "src1280": "https://cdn.pixabay.com/photo/2021/12/22/13/00/dog-6887407_1280.jpg"
    },
    {
        "id": "8083009",
        "src640": "https://cdn.pixabay.com/photo/2023/06/23/08/27/building-8083009_640.jpg",
        "src1280": "https://cdn.pixabay.com/photo/2023/06/23/08/27/building-8083009_1280.jpg"
    },
    {
        "id": "5459488",
        "src640": "https://cdn.pixabay.com/photo/2020/08/03/08/08/butterfly-5459488_640.jpg",
        "src1280": "https://cdn.pixabay.com/photo/2020/08/03/08/08/butterfly-5459488_1280.jpg"
    },
    {
        "id": "3512541",
        "src640": "https://cdn.pixabay.com/photo/2018/07/02/21/29/daylily-3512541_640.jpg",
        "src1280": "https://cdn.pixabay.com/photo/2018/07/02/21/29/daylily-3512541_1280.jpg"
    },
    {
        "id": "5354790",
        "src640": "https://cdn.pixabay.com/photo/2020/06/30/00/18/nature-5354790_640.jpg",
        "src1280": "https://cdn.pixabay.com/photo/2020/06/30/00/18/nature-5354790_1280.jpg"
    },
    {
        "id": "5404538",
        "src640": "https://cdn.pixabay.com/photo/2020/07/14/14/59/butterfly-5404538_640.jpg",
        "src1280": "https://cdn.pixabay.com/photo/2020/07/14/14/59/butterfly-5404538_1280.jpg"
    },
    {
        "id": "3335939",
        "src640": "https://cdn.pixabay.com/photo/2018/04/20/12/59/fruit-3335939_640.jpg",
        "src1280": "https://cdn.pixabay.com/photo/2018/04/20/12/59/fruit-3335939_1280.jpg"
    },
    {
        "id": "2933185",
        "src640": "https://cdn.pixabay.com/photo/2017/11/09/11/43/frame-2933185_640.jpg",
        "src1280": "https://cdn.pixabay.com/photo/2017/11/09/11/43/frame-2933185_1280.jpg"
    },
    {
        "id": "5992398",
        "src640": "https://cdn.pixabay.com/photo/2021/02/07/19/14/flowers-5992398_640.jpg",
        "src1280": "https://cdn.pixabay.com/photo/2021/02/07/19/14/flowers-5992398_1280.jpg"
    },
    {
        "id": "8300205",
        "src640": "https://cdn.pixabay.com/photo/2023/10/07/13/51/ai-generated-8300205_640.jpg",
        "src1280": "https://cdn.pixabay.com/photo/2023/10/07/13/51/ai-generated-8300205_1280.jpg"
    },
    {
        "id": "2102871",
        "src640": "https://cdn.pixabay.com/photo/2017/02/27/11/03/man-2102871_640.jpg",
        "src1280": "https://cdn.pixabay.com/photo/2017/02/27/11/03/man-2102871_1280.jpg"
    },
    {
        "id": "6814481",
        "src640": "https://cdn.pixabay.com/photo/2021/11/21/15/29/autumn-6814481_640.jpg",
        "src1280": "https://cdn.pixabay.com/photo/2021/11/21/15/29/autumn-6814481_1280.jpg"
    },
    {
        "id": "2339777",
        "src640": "https://cdn.pixabay.com/photo/2017/05/24/07/53/wheel-2339777_640.jpg",
        "src1280": "https://cdn.pixabay.com/photo/2017/05/24/07/53/wheel-2339777_1280.jpg"
    },
    {
        "id": "2876886",
        "src640": "https://cdn.pixabay.com/photo/2017/10/22/06/40/heart-2876886_640.jpg",
        "src1280": "https://cdn.pixabay.com/photo/2017/10/22/06/40/heart-2876886_1280.jpg"
    },
    {
        "id": "3388180",
        "src640": "https://cdn.pixabay.com/photo/2018/05/10/17/55/poppy-3388180_640.jpg",
        "src1280": "https://cdn.pixabay.com/photo/2018/05/10/17/55/poppy-3388180_1280.jpg"
    },
    {
        "id": "7423518",
        "src640": "https://cdn.pixabay.com/photo/2022/08/31/14/45/bird-7423518_640.jpg",
        "src1280": "https://cdn.pixabay.com/photo/2022/08/31/14/45/bird-7423518_1280.jpg"
    },
    {
        "id": "4015583",
        "src640": "https://cdn.pixabay.com/photo/2019/02/23/13/38/plant-4015583_640.jpg",
        "src1280": "https://cdn.pixabay.com/photo/2019/02/23/13/38/plant-4015583_1280.jpg"
    },
    {
        "id": "5058989",
        "src640": "https://cdn.pixabay.com/photo/2020/04/18/12/02/shoes-5058989_640.jpg",
        "src1280": "https://cdn.pixabay.com/photo/2020/04/18/12/02/shoes-5058989_1280.jpg"
    },
    {
        "id": "3336663",
        "src640": "https://cdn.pixabay.com/photo/2018/04/20/18/05/boy-3336663_640.jpg",
        "src1280": "https://cdn.pixabay.com/photo/2018/04/20/18/05/boy-3336663_1280.jpg"
    },
    {
        "id": "5088880",
        "src640": "https://cdn.pixabay.com/photo/2020/04/24/22/38/candlelight-5088880_640.jpg",
        "src1280": "https://cdn.pixabay.com/photo/2020/04/24/22/38/candlelight-5088880_1280.jpg"
    },
    {
        "id": "2866528",
        "src640": "https://cdn.pixabay.com/photo/2017/10/19/05/19/birch-2866528_640.jpg",
        "src1280": "https://cdn.pixabay.com/photo/2017/10/19/05/19/birch-2866528_1280.jpg"
    },
    {
        "id": "7721014",
        "src640": "https://cdn.pixabay.com/photo/2023/01/15/20/53/white-7721014_640.jpg",
        "src1280": "https://cdn.pixabay.com/photo/2023/01/15/20/53/white-7721014_1280.jpg"
    },
    {
        "id": "7349992",
        "src640": "https://cdn.pixabay.com/photo/2022/07/28/14/43/sky-7349992_640.jpg",
        "src1280": "https://cdn.pixabay.com/photo/2022/07/28/14/43/sky-7349992_1280.jpg"
    },
    {
        "id": "5019895",
        "src640": "https://cdn.pixabay.com/photo/2020/04/09/06/24/girl-5019895_640.jpg",
        "src1280": "https://cdn.pixabay.com/photo/2020/04/09/06/24/girl-5019895_1280.jpg"
    },
    {
        "id": "1904688",
        "src640": "https://cdn.pixabay.com/photo/2016/12/13/17/29/fashion-design-1904688_640.jpg",
        "src1280": "https://cdn.pixabay.com/photo/2016/12/13/17/29/fashion-design-1904688_1280.jpg"
    }
]