[
    {
        "id": "6827505",
        "src640": "https://cdn.pixabay.com/photo/2021/11/27/08/37/autumn-6827505_640.jpg",
        "src1280": "https://cdn.pixabay.com/photo/2021/11/27/08/37/autumn-6827505_1280.jpg"
    },
    {
        "id": "2591549",
        "src640": "https://cdn.pixabay.com/photo/2017/08/06/11/28/texture-2591549_640.jpg",
        "src1280": "https://cdn.pixabay.com/photo/2017/08/06/11/28/texture-2591549_1280.jpg"
    },
    {
        "id": "3359719",
        "src640": "https://cdn.pixabay.com/photo/2018/04/29/11/39/palm-3359719_640.jpg",
        "src1280": "https://cdn.pixabay.com/photo/2018/04/29/11/39/palm-3359719_1280.jpg"
    },
    {
        "id": "1340220",
        "src640": "https://cdn.pixabay.com/photo/2016/04/20/00/47/sparlampe-1340220_640.jpg",
        "src1280": "https://cdn.pixabay.com/photo/2016/04/20/00/47/sparlampe-1340220_1280.jpg"
    },
    {
        "id": "3709883",
        "src640": "https://cdn.pixabay.com/photo/2018/09/28/18/20/vegetables-3709883_640.jpg",
        "src1280": "https://cdn.pixabay.com/photo/2018/09/28/18/20/vegetables-3709883_1280.jpg"
    },
    {
        "id": "219921",
        "src640": "https://cdn.pixabay.com/photo/2013/11/28/10/02/wood-219921_640.jpg",
        "src1280": "https://cdn.pixabay.com/photo/2013/11/28/10/02/wood-219921_1280.jpg"
    },
    {
        "id": "4078691",
        "src640": "https://cdn.pixabay.com/photo/2019/03/24/21/11/blossom-4078691_640.jpg",
        "src1280": "https://cdn.pixabay.com/photo/2019/03/24/21/11/blossom-4078691_1280.jpg"
    },
    {
        "id": "1798148",
        "src640": "https://cdn.pixabay.com/photo/2016/11/04/15/48/background-1798148_640.jpg",
        "src1280": "https://cdn.pixabay.com/photo/2016/11/04/15/48/background-1798148_1280.jpg"
    },
    {
        "id": "2333306",
        "src640": "https://cdn.pixabay.com/photo/2017/05/22/07/15/boat-2333306_640.jpg",
        "src1280": "https://cdn.pixabay.com/photo/2017/05/22/07/15/boat-2333306_1280.jpg"
    },
    {
        "id": "5979799",
        "src640": "https://cdn.pixabay.com/photo/2021/02/03/23/57/pink-5979799_640.jpg",
        "src1280": "https://cdn.pixabay.com/photo/2021/02/03/23/57/pink-5979799_1280.jpg"
    },
    {
        "id": "5336156",
        "src640": "https://cdn.pixabay.com/photo/2020/06/24/13/13/flower-5336156_640.jpg",
        "src1280": "https://cdn.pixabay.com/photo/2020/06/24/13/13/flower-5336156_1280.jpg"
    },
    {
        "id": "6657361",
        "src640": "https://cdn.pixabay.com/photo/2021/09/26/11/46/zebra-6657361_640.jpg",
        "src1280": "https://cdn.pixabay.com/photo/2021/09/26/11/46/zebra-6657361_1280.jpg"
    },
    {
        "id": "7006243",
        "src640": "https://cdn.pixabay.com/photo/2022/02/10/22/14/art-7006243_640.jpg",
        "src1280": "https://cdn.pixabay.com/photo/2022/02/10/22/14/art-7006243_1280.jpg"
    },
    {
        "id": "4981765",
        "src640": "https://cdn.pixabay.com/photo/2020/03/29/18/33/glass-4981765_640.jpg",
        "src1280": "https://cdn.pixabay.com/photo/2020/03/29/18/33/glass-4981765_1280.jpg"
    },
    {
        "id": "3675574",
        "src640": "https://cdn.pixabay.com/photo/2018/09/13/19/14/sycamore-3675574_640.jpg",
        "src1280": "https://cdn.pixabay.com/photo/2018/09/13/19/14/sycamore-3675574_1280.jpg"
    },
    {
        "id": "5355306",
        "src640": "https://cdn.pixabay.com/photo/2020/06/30/06/51/diving-5355306_640.jpg",
        "src1280": "https://cdn.pixabay.com/photo/2020/06/30/06/51/diving-5355306_1280.jpg"
    },
    {
        "id": "6862301",
        "src640": "https://cdn.pixabay.com/photo/2021/12/11/09/20/daemon-6862301_640.jpg",
        "src1280": "https://cdn.pixabay.com/photo/2021/12/11/09/20/daemon-6862301_1280.jpg"
    },
    {
        "id": "5864828",
        "src640": "https://cdn.pixabay.com/photo/2020/12/27/17/54/border-5864828_640.jpg",
        "src1280": "https://cdn.pixabay.com/photo/2020/12/27/17/54/border-5864828_1280.jpg"
    },
    {
        "id": "7053263",
        "src640": "https://cdn.pixabay.com/photo/2022/03/07/09/50/building-7053263_640.jpg",
        "src1280": "https://cdn.pixabay.com/photo/2022/03/07/09/50/building-7053263_1280.jpg"
    },
    {
        "id": "5900904",
        "src640": "https://cdn.pixabay.com/photo/2021/01/08/21/45/frame-5900904_640.jpg",
        "src1280": "https://cdn.pixabay.com/photo/2021/01/08/21/45/frame-5900904_1280.jpg"
    },
    {
        "id": "4783756",
        "src640": "https://cdn.pixabay.com/photo/2020/01/21/19/27/conversation-hearts-4783756_640.jpg",
        "src1280": "https://cdn.pixabay.com/photo/2020/01/21/19/27/conversation-hearts-4783756_1280.jpg"
    },
    {
        "id": "5370354",
        "src640": "https://cdn.pixabay.com/photo/2020/07/04/17/29/butterfly-5370354_640.jpg",
        "src1280": "https://cdn.pixabay.com/photo/2020/07/04/17/29/butterfly-5370354_1280.jpg"
    },
    {
        "id": "5197593",
        "src640": "https://cdn.pixabay.com/photo/2020/05/20/17/59/flower-5197593_640.jpg",
        "src1280": "https://cdn.pixabay.com/photo/2020/05/20/17/59/flower-5197593_1280.jpg"
    },
    {
        "id": "4465357",
        "src640": "https://cdn.pixabay.com/photo/2019/09/10/06/35/clay-pots-4465357_640.jpg",
        "src1280": "https://cdn.pixabay.com/photo/2019/09/10/06/35/clay-pots-4465357_1280.jpg"
    },
    {
        "id": "3839692",
        "src640": "https://cdn.pixabay.com/photo/2018/11/26/15/48/flower-3839692_640.jpg",
        "src1280": "https://cdn.pixabay.com/photo/2018/11/26/15/48/flower-3839692_1280.jpg"
    },
    {
        "id": "13827",
        "src640": "https://cdn.pixabay.com/photo/2012/02/17/09/01/flowers-13827_640.jpg",
        "src1280": "https://cdn.pixabay.com/photo/2012/02/17/09/01/flowers-13827_1280.jpg"
    },
    {
        "id": "1529139",
        "src640": "https://cdn.pixabay.com/photo/2016/07/19/22/42/sunset-1529139_640.jpg",
        "src1280": "https://cdn.pixabay.com/photo/2016/07/19/22/42/sunset-1529139_1280.jpg"
    },
    {
        "id": "3102647",
        "src640": "https://cdn.pixabay.com/photo/2018/01/23/22/41/texture-3102647_640.jpg",
        "src1280": "https://cdn.pixabay.com/photo/2018/01/23/22/41/texture-3102647_1280.jpg"
    },
    {
        "id": "5356942",
        "src640": "https://cdn.pixabay.com/photo/2020/06/30/16/39/butterfly-5356942_640.jpg",
        "src1280": "https://cdn.pixabay.com/photo/2020/06/30/16/39/butterfly-5356942_1280.jpg"
    },
    {
        "id": "7852722",
        "src640": "https://cdn.pixabay.com/photo/2023/03/14/16/52/butterfly-7852722_640.jpg",
        "src1280": "https://cdn.pixabay.com/photo/2023/03/14/16/52/butterfly-7852722_1280.jpg"
    },
    {
        "id": "6233908",
        "src640": "https://cdn.pixabay.com/photo/2021/05/06/16/31/flowers-6233908_640.jpg",
        "src1280": "https://cdn.pixabay.com/photo/2021/05/06/16/31/flowers-6233908_1280.jpg"
    },
    {
        "id": "4964334",
        "src640": "https://cdn.pixabay.com/photo/2020/03/24/14/56/virus-4964334_640.jpg",
        "src1280": "https://cdn.pixabay.com/photo/2020/03/24/14/56/virus-4964334_1280.jpg"
    },
    {
        "id": "6610502",
        "src640": "https://cdn.pixabay.com/photo/2021/09/09/12/43/girl-6610502_640.jpg",
        "src1280": "https://cdn.pixabay.com/photo/2021/09/09/12/43/girl-6610502_1280.jpg"
    },
    {
        "id": "6770581",
        "src640": "https://cdn.pixabay.com/photo/2021/11/05/08/11/rosette-6770581_640.jpg",
        "src1280": "https://cdn.pixabay.com/photo/2021/11/05/08/11/rosette-6770581_1280.jpg"
    },
    {
        "id": "3277466",
        "src640": "https://cdn.pixabay.com/photo/2018/03/31/07/37/background-3277466_640.jpg",
        "src1280": "https://cdn.pixabay.com/photo/2018/03/31/07/37/background-3277466_1280.jpg"
    },
    {
        "id": "6770578",
        "src640": "https://cdn.pixabay.com/photo/2021/11/05/08/11/rosette-6770578_640.jpg",
        "src1280": "https://cdn.pixabay.com/photo/2021/11/05/08/11/rosette-6770578_1280.jpg"
    },
    {
        "id": "3251593",
        "src640": "https://cdn.pixabay.com/photo/2018/03/22/19/28/tulips-3251593_640.jpg",
        "src1280": "https://cdn.pixabay.com/photo/2018/03/22/19/28/tulips-3251593_1280.jpg"
    },
    {
        "id": "5286624",
        "src640": "https://cdn.pixabay.com/photo/2020/06/11/12/48/flower-5286624_640.jpg",
        "src1280": "https://cdn.pixabay.com/photo/2020/06/11/12/48/flower-5286624_1280.jpg"
    },
    {
        "id": "7423145",
        "src640": "https://cdn.pixabay.com/photo/2022/08/31/11/57/flower-7423145_640.jpg",
        "src1280": "https://cdn.pixabay.com/photo/2022/08/31/11/57/flower-7423145_1280.jpg"
    },
    {
        "id": "3181945",
        "src640": "https://cdn.pixabay.com/photo/2018/02/25/22/36/wood-3181945_640.jpg",
        "src1280": "https://cdn.pixabay.com/photo/2018/02/25/22/36/wood-3181945_1280.jpg"
    },
    {
        "id": "770483",
        "src640": "https://cdn.pixabay.com/photo/2015/05/17/02/33/wall-770483_640.jpg",
        "src1280": "https://cdn.pixabay.com/photo/2015/05/17/02/33/wall-770483_1280.jpg"
    },
    {
        "id": "5559354",
        "src640": "https://cdn.pixabay.com/photo/2020/09/10/05/46/parchment-5559354_640.jpg",
        "src1280": "https://cdn.pixabay.com/photo/2020/09/10/05/46/parchment-5559354_1280.jpg"
    },
    {
        "id": "7286462",
        "src640": "https://cdn.pixabay.com/photo/2022/06/26/23/59/guitar-7286462_640.jpg",
        "src1280": "https://cdn.pixabay.com/photo/2022/06/26/23/59/guitar-7286462_1280.jpg"
    },
    {
        "id": "75217",
        "src640": "https://cdn.pixabay.com/photo/2013/01/17/17/02/city-75217_640.jpg",
        "src1280": "https://cdn.pixabay.com/photo/2013/01/17/17/02/city-75217_1280.jpg"
    },
    {
        "id": "1598301",
        "src640": "https://cdn.pixabay.com/photo/2016/08/16/16/15/feather-1598301_640.jpg",
        "src1280": "https://cdn.pixabay.com/photo/2016/08/16/16/15/feather-1598301_1280.jpg"
    },
    {
        "id": "5219449",
        "src640": "https://cdn.pixabay.com/photo/2020/05/25/16/49/flower-5219449_640.jpg",
        "src1280": "https://cdn.pixabay.com/photo/2020/05/25/16/49/flower-5219449_1280.jpg"
    },
    {
        "id": "6950633",
        "src640": "https://cdn.pixabay.com/photo/2022/01/19/18/04/woman-6950633_640.jpg",
        "src1280": "https://cdn.pixabay.com/photo/2022/01/19/18/04/woman-6950633_1280.jpg"
    },
    {
        "id": "7951265",
        "src640": "https://cdn.pixabay.com/photo/2023/04/26/00/32/greeting-card-7951265_640.jpg",
        "src1280": "https://cdn.pixabay.com/photo/2023/04/26/00/32/greeting-card-7951265_1280.jpg"
    },
    {
        "id": "1400248",
        "src640": "https://cdn.pixabay.com/photo/2016/05/18/11/03/design-1400248_640.jpg",
        "src1280": "https://cdn.pixabay.com/photo/2016/05/18/11/03/design-1400248_1280.jpg"
    },
    {
        "id": "5451914",
        "src640": "https://cdn.pixabay.com/photo/2020/07/31/04/02/water-drop-5451914_640.jpg",
        "src1280": "https://cdn.pixabay.com/photo/2020/07/31/04/02/water-drop-5451914_1280.jpg"
    },
    {
        "id": "7280504",
        "src640": "https://cdn.pixabay.com/photo/2022/06/23/19/45/nature-7280504_640.jpg",
        "src1280": "https://cdn.pixabay.com/photo/2022/06/23/19/45/nature-7280504_1280.jpg"
    },
    {
        "id": "5002482",
        "src640": "https://cdn.pixabay.com/photo/2020/04/04/14/25/archaeology-5002482_640.jpg",
        "src1280": "https://cdn.pixabay.com/photo/2020/04/04/14/25/archaeology-5002482_1280.jpg"
    },
    {
        "id": "1131583",
        "src640": "https://cdn.pixabay.com/photo/2016/01/10/08/33/girls-1131583_640.jpg",
        "src1280": "https://cdn.pixabay.com/photo/2016/01/10/08/33/girls-1131583_1280.jpg"
    },
    {
        "id": "2536381",
        "src640": "https://cdn.pixabay.com/photo/2017/07/24/23/05/flowers-2536381_640.jpg",
        "src1280": "https://cdn.pixabay.com/photo/2017/07/24/23/05/flowers-2536381_1280.jpg"
    },
    {
        "id": "1802814",
        "src640": "https://cdn.pixabay.com/photo/2016/11/06/11/54/antique-1802814_640.jpg",
        "src1280": "https://cdn.pixabay.com/photo/2016/11/06/11/54/antique-1802814_1280.jpg"
    },
    {
        "id": "7082208",
        "src640": "https://cdn.pixabay.com/photo/2022/03/21/03/39/tomato-7082208_640.jpg",
        "src1280": "https://cdn.pixabay.com/photo/2022/03/21/03/39/tomato-7082208_1280.jpg"
    },
    {
        "id": "2426531",
        "src640": "https://cdn.pixabay.com/photo/2017/06/21/08/42/cami-2426531_640.jpg",
        "src1280": "https://cdn.pixabay.com/photo/2017/06/21/08/42/cami-2426531_1280.jpg"
    },
    {
        "id": "5083066",
        "src640": "https://cdn.pixabay.com/photo/2020/04/23/15/53/butterfly-5083066_640.jpg",
        "src1280": "https://cdn.pixabay.com/photo/2020/04/23/15/53/butterfly-5083066_1280.jpg"
    },
    {
        "id": "5790604",
        "src640": "https://cdn.pixabay.com/photo/2020/11/30/10/57/rose-5790604_640.jpg",
        "src1280": "https://cdn.pixabay.com/photo/2020/11/30/10/57/rose-5790604_1280.jpg"
    },
    {
        "id": "4552899",
        "src640": "https://cdn.pixabay.com/photo/2019/10/15/20/53/wood-4552899_640.jpg",
        "src1280": "https://cdn.pixabay.com/photo/2019/10/15/20/53/wood-4552899_1280.jpg"
    },
    {
        "id": "2579966",
        "src640": "https://cdn.pixabay.com/photo/2017/08/04/12/08/lamp-2579966_640.jpg",
        "src1280": "https://cdn.pixabay.com/photo/2017/08/04/12/08/lamp-2579966_1280.jpg"
    },
    {
        "id": "7200131",
        "src640": "https://cdn.pixabay.com/photo/2022/05/16/11/25/lake-7200131_640.jpg",
        "src1280": "https://cdn.pixabay.com/photo/2022/05/16/11/25/lake-7200131_1280.jpg"
    },
    {
        "id": "20141",
        "src640": "https://cdn.pixabay.com/photo/2012/03/01/01/19/color-20141_640.jpg",
        "src1280": "https://cdn.pixabay.com/photo/2012/03/01/01/19/color-20141_1280.jpg"
    },
    {
        "id": "4329992",
        "src640": "https://cdn.pixabay.com/photo/2019/07/11/04/05/natural-4329992_640.jpg",
        "src1280": "https://cdn.pixabay.com/photo/2019/07/11/04/05/natural-4329992_1280.jpg"
    },
    {
        "id": "8004020",
        "src640": "https://cdn.pixabay.com/photo/2023/05/19/09/07/coffee-8004020_640.jpg",
        "src1280": "https://cdn.pixabay.com/photo/2023/05/19/09/07/coffee-8004020_1280.jpg"
    },
    {
        "id": "6853154",
        "src640": "https://cdn.pixabay.com/photo/2021/12/07/12/34/autumn-6853154_640.jpg",
        "src1280": "https://cdn.pixabay.com/photo/2021/12/07/12/34/autumn-6853154_1280.jpg"
    },
    {
        "id": "6770571",
        "src640": "https://cdn.pixabay.com/photo/2021/11/05/08/10/rosette-6770571_640.jpg",
        "src1280": "https://cdn.pixabay.com/photo/2021/11/05/08/10/rosette-6770571_1280.jpg"
    },
    {
        "id": "2732789",
        "src640": "https://cdn.pixabay.com/photo/2017/09/09/17/38/background-2732789_640.jpg",
        "src1280": "https://cdn.pixabay.com/photo/2017/09/09/17/38/background-2732789_1280.jpg"
    },
    {
        "id": "2654584",
        "src640": "https://cdn.pixabay.com/photo/2017/08/18/11/24/leaf-2654584_640.jpg",
        "src1280": "https://cdn.pixabay.com/photo/2017/08/18/11/24/leaf-2654584_1280.jpg"
    },
    {
        "id": "7291702",
        "src640": "https://cdn.pixabay.com/photo/2022/06/29/12/54/bridge-7291702_640.jpg",
        "src1280": "https://cdn.pixabay.com/photo/2022/06/29/12/54/bridge-7291702_1280.jpg"
    },
    {
        "id": "5869819",
        "src640": "https://cdn.pixabay.com/photo/2020/12/29/08/31/barberry-5869819_640.jpg",
        "src1280": "https://cdn.pixabay.com/photo/2020/12/29/08/31/barberry-5869819_1280.jpg"
    },
    {
        "id": "8177051",
        "src640": "https://cdn.pixabay.com/photo/2023/08/08/10/50/hot-wheels-8177051_640.jpg",
        "src1280": "https://cdn.pixabay.com/photo/2023/08/08/10/50/hot-wheels-8177051_1280.jpg"
    },
    {
        "id": "4640313",
        "src640": "https://cdn.pixabay.com/photo/2019/11/20/15/16/love-4640313_640.jpg",
        "src1280": "https://cdn.pixabay.com/photo/2019/11/20/15/16/love-4640313_1280.jpg"
    },
    {
        "id": "65839",
        "src640": "https://cdn.pixabay.com/photo/2012/11/13/06/40/confetti-65839_640.jpg",
        "src1280": "https://cdn.pixabay.com/photo/2012/11/13/06/40/confetti-65839_1280.jpg"
    },
    {
        "id": "1535859",
        "src640": "https://cdn.pixabay.com/photo/2016/07/22/21/40/girl-1535859_640.jpg",
        "src1280": "https://cdn.pixabay.com/photo/2016/07/22/21/40/girl-1535859_1280.jpg"
    },
    {
        "id": "1397131",
        "src640": "https://cdn.pixabay.com/photo/2016/05/16/23/22/noodles-1397131_640.jpg",
        "src1280": "https://cdn.pixabay.com/photo/2016/05/16/23/22/noodles-1397131_1280.jpg"
    },
    {
        "id": "3271485",
        "src640": "https://cdn.pixabay.com/photo/2018/03/29/06/27/vase-3271485_640.jpg",
        "src1280": "https://cdn.pixabay.com/photo/2018/03/29/06/27/vase-3271485_1280.jpg"
    },
    {
        "id": "4928812",
        "src640": "https://cdn.pixabay.com/photo/2020/03/13/18/30/flower-4928812_640.jpg",
        "src1280": "https://cdn.pixabay.com/photo/2020/03/13/18/30/flower-4928812_1280.jpg"
    },
    {
        "id": "16858",
        "src640": "https://cdn.pixabay.com/photo/2012/02/25/18/46/arrangement-16858_640.jpg",
        "src1280": "https://cdn.pixabay.com/photo/2012/02/25/18/46/arrangement-16858_1280.jpg"
    },
    {
        "id": "2710506",
        "src640": "https://cdn.pixabay.com/photo/2017/09/03/14/33/flower-2710506_640.jpg",
        "src1280": "https://cdn.pixabay.com/photo/2017/09/03/14/33/flower-2710506_1280.jpg"
    },
    {
        "id": "4639250",
        "src640": "https://cdn.pixabay.com/photo/2019/11/20/06/16/macro-4639250_640.jpg",
        "src1280": "https://cdn.pixabay.com/photo/2019/11/20/06/16/macro-4639250_1280.jpg"
    },
    {
        "id": "4015708",
        "src640": "https://cdn.pixabay.com/photo/2019/02/23/14/28/autumn-4015708_640.jpg",
        "src1280": "https://cdn.pixabay.com/photo/2019/02/23/14/28/autumn-4015708_1280.jpg"
    },
    {
        "id": "220263",
        "src640": "https://cdn.pixabay.com/photo/2013/11/28/11/30/child-220263_640.jpg",
        "src1280": "https://cdn.pixabay.com/photo/2013/11/28/11/30/child-220263_1280.jpg"
    },
    {
        "id": "2731680",
        "src640": "https://cdn.pixabay.com/photo/2017/09/09/10/54/the-sea-2731680_640.jpg",
        "src1280": "https://cdn.pixabay.com/photo/2017/09/09/10/54/the-sea-2731680_1280.jpg"
    },
    {
        "id": "5206551",
        "src640": "https://cdn.pixabay.com/photo/2020/05/22/18/33/lemon-5206551_640.jpg",
        "src1280": "https://cdn.pixabay.com/photo/2020/05/22/18/33/lemon-5206551_1280.jpg"
    },
    {
        "id": "4826480",
        "src640": "https://cdn.pixabay.com/photo/2020/02/07/08/02/new-year-4826480_640.jpg",
        "src1280": "https://cdn.pixabay.com/photo/2020/02/07/08/02/new-year-4826480_1280.jpg"
    },
    {
        "id": "7718261",
        "src640": "https://cdn.pixabay.com/photo/2023/01/14/13/40/building-7718261_640.jpg",
        "src1280": "https://cdn.pixabay.com/photo/2023/01/14/13/40/building-7718261_1280.jpg"
    },
    {
        "id": "5347785",
        "src640": "https://cdn.pixabay.com/photo/2020/06/28/04/06/mountains-5347785_640.jpg",
        "src1280": "https://cdn.pixabay.com/photo/2020/06/28/04/06/mountains-5347785_1280.jpg"
    }
]