[
    {
        "id": "5692936",
        "src640": "https://cdn.pixabay.com/photo/2020/10/28/10/02/painting-5692936_640.jpg",
        "src1280": "https://cdn.pixabay.com/photo/2020/10/28/10/02/painting-5692936_1280.jpg"
    },
    {
        "id": "608575",
        "src640": "https://cdn.pixabay.com/photo/2015/01/22/23/59/purple-608575_640.jpg",
        "src1280": "https://cdn.pixabay.com/photo/2015/01/22/23/59/purple-608575_1280.jpg"
    },
    {
        "id": "1162241",
        "src640": "https://cdn.pixabay.com/photo/2016/01/26/11/09/design-1162241_640.jpg",
        "src1280": "https://cdn.pixabay.com/photo/2016/01/26/11/09/design-1162241_1280.jpg"
    },
    {
        "id": "8430339",
        "src640": "https://cdn.pixabay.com/photo/2023/12/04/20/44/heron-8430339_640.jpg",
        "src1280": "https://cdn.pixabay.com/photo/2023/12/04/20/44/heron-8430339_1280.jpg"
    },
    {
        "id": "92968",
        "src640": "https://cdn.pixabay.com/photo/2013/03/12/17/54/hurricane-92968_640.jpg",
        "src1280": "https://cdn.pixabay.com/photo/2013/03/12/17/54/hurricane-92968_1280.jpg"
    },
    {
        "id": "2293351",
        "src640": "https://cdn.pixabay.com/photo/2017/05/07/19/36/portrait-2293351_640.jpg",
        "src1280": "https://cdn.pixabay.com/photo/2017/05/07/19/36/portrait-2293351_1280.jpg"
    },
    {
        "id": "1869996",
        "src640": "https://cdn.pixabay.com/photo/2016/11/29/13/51/abstract-1869996_640.jpg",
        "src1280": "https://cdn.pixabay.com/photo/2016/11/29/13/51/abstract-1869996_1280.jpg"
    },
    {
        "id": "1565986",
        "src640": "https://cdn.pixabay.com/photo/2016/08/03/06/22/space-1565986_640.jpg",
        "src1280": "https://cdn.pixabay.com/photo/2016/08/03/06/22/space-1565986_1280.jpg"
    },
    {
        "id": "938615",
        "src640": "https://cdn.pixabay.com/photo/2015/09/13/19/26/stripes-938615_640.jpg",
        "src1280": "https://cdn.pixabay.com/photo/2015/09/13/19/26/stripes-938615_1280.jpg"
    },
    {
        "id": "520423",
        "src640": "https://cdn.pixabay.com/photo/2014/11/07/10/25/recycling-520423_640.jpg",
        "src1280": "https://cdn.pixabay.com/photo/2014/11/07/10/25/recycling-520423_1280.jpg"
    },
    {
        "id": "1390840",
        "src640": "https://cdn.pixabay.com/photo/2016/05/13/20/24/girl-in-blue-dress-1390840_640.jpg",
        "src1280": "https://cdn.pixabay.com/photo/2016/05/13/20/24/girl-in-blue-dress-1390840_1280.jpg"
    },
    {
        "id": "1938677",
        "src640": "https://cdn.pixabay.com/photo/2016/12/29/15/00/hourglass-1938677_640.jpg",
        "src1280": "https://cdn.pixabay.com/photo/2016/12/29/15/00/hourglass-1938677_1280.jpg"
    },
    {
        "id": "2068211",
        "src640": "https://cdn.pixabay.com/photo/2017/02/15/10/38/background-2068211_640.jpg",
        "src1280": "https://cdn.pixabay.com/photo/2017/02/15/10/38/background-2068211_1280.jpg"
    },
    {
        "id": "4076555",
        "src640": "https://cdn.pixabay.com/photo/2019/03/23/22/30/bill-quince-4076555_640.jpg",
        "src1280": "https://cdn.pixabay.com/photo/2019/03/23/22/30/bill-quince-4076555_1280.jpg"
    },
    {
        "id": "1661823",
        "src640": "https://cdn.pixabay.com/photo/2016/09/11/17/11/digital-1661823_640.jpg",
        "src1280": "https://cdn.pixabay.com/photo/2016/09/11/17/11/digital-1661823_1280.jpg"
    },
    {
        "id": "1325398",
        "src640": "https://cdn.pixabay.com/photo/2016/04/12/20/49/apocalypse-1325398_640.jpg",
        "src1280": "https://cdn.pixabay.com/photo/2016/04/12/20/49/apocalypse-1325398_1280.jpg"
    },
    {
        "id": "2017957",
        "src640": "https://cdn.pixabay.com/photo/2017/01/29/13/11/scrapbook-2017957_640.jpg",
        "src1280": "https://cdn.pixabay.com/photo/2017/01/29/13/11/scrapbook-2017957_1280.jpg"
    },
    {
        "id": "990115",
        "src640": "https://cdn.pixabay.com/photo/2015/10/15/21/44/texture-990115_640.jpg",
        "src1280": "https://cdn.pixabay.com/photo/2015/10/15/21/44/texture-990115_1280.jpg"
    },
    {
        "id": "2012066",
        "src640": "https://cdn.pixabay.com/photo/2017/01/27/00/57/paper-2012066_640.jpg",
        "src1280": "https://cdn.pixabay.com/photo/2017/01/27/00/57/paper-2012066_1280.jpg"
    },
    {
        "id": "1225041",
        "src640": "https://cdn.pixabay.com/photo/2016/02/27/01/50/ground-1225041_640.jpg",
        "src1280": "https://cdn.pixabay.com/photo/2016/02/27/01/50/ground-1225041_1280.jpg"
    },
    {
        "id": "898260",
        "src640": "https://cdn.pixabay.com/photo/2015/08/20/22/38/stripes-898260_640.jpg",
        "src1280": "https://cdn.pixabay.com/photo/2015/08/20/22/38/stripes-898260_1280.jpg"
    },
    {
        "id": "8467161",
        "src640": "https://cdn.pixabay.com/photo/2023/12/24/14/22/christmas-ball-8467161_640.jpg",
        "src1280": "https://cdn.pixabay.com/photo/2023/12/24/14/22/christmas-ball-8467161_1280.jpg"
    },
    {
        "id": "3891184",
        "src640": "https://cdn.pixabay.com/photo/2018/12/23/13/39/steampunk-3891184_640.jpg",
        "src1280": "https://cdn.pixabay.com/photo/2018/12/23/13/39/steampunk-3891184_1280.jpg"
    },
    {
        "id": "2681021",
        "src640": "https://cdn.pixabay.com/photo/2017/08/25/18/43/abstract-2681021_640.jpg",
        "src1280": "https://cdn.pixabay.com/photo/2017/08/25/18/43/abstract-2681021_1280.jpg"
    },
    {
        "id": "4746967",
        "src640": "https://cdn.pixabay.com/photo/2020/01/07/07/38/gothic-4746967_640.jpg",
        "src1280": "https://cdn.pixabay.com/photo/2020/01/07/07/38/gothic-4746967_1280.jpg"
    },
    {
        "id": "744226",
        "src640": "https://cdn.pixabay.com/photo/2015/04/28/19/34/watercolor-744226_640.jpg",
        "src1280": "https://cdn.pixabay.com/photo/2015/04/28/19/34/watercolor-744226_1280.jpg"
    },
    {
        "id": "2300103",
        "src640": "https://cdn.pixabay.com/photo/2017/05/10/07/38/couple-2300103_640.jpg",
        "src1280": "https://cdn.pixabay.com/photo/2017/05/10/07/38/couple-2300103_1280.jpg"
    },
    {
        "id": "1783918",
        "src640": "https://cdn.pixabay.com/photo/2016/10/30/18/25/heart-1783918_640.jpg",
        "src1280": "https://cdn.pixabay.com/photo/2016/10/30/18/25/heart-1783918_1280.jpg"
    },
    {
        "id": "1772583",
        "src640": "https://cdn.pixabay.com/photo/2016/10/26/20/35/vintage-1772583_640.jpg",
        "src1280": "https://cdn.pixabay.com/photo/2016/10/26/20/35/vintage-1772583_1280.jpg"
    },
    {
        "id": "2449970",
        "src640": "https://cdn.pixabay.com/photo/2017/06/28/07/11/princess-2449970_640.jpg",
        "src1280": "https://cdn.pixabay.com/photo/2017/06/28/07/11/princess-2449970_1280.jpg"
    },
    {
        "id": "3059999",
        "src640": "https://cdn.pixabay.com/photo/2018/01/04/07/08/background-3059999_640.jpg",
        "src1280": "https://cdn.pixabay.com/photo/2018/01/04/07/08/background-3059999_1280.jpg"
    },
    {
        "id": "909253",
        "src640": "https://cdn.pixabay.com/photo/2015/08/27/00/13/argyle-909253_640.jpg",
        "src1280": "https://cdn.pixabay.com/photo/2015/08/27/00/13/argyle-909253_1280.jpg"
    },
    {
        "id": "84686",
        "src640": "https://cdn.pixabay.com/photo/2013/02/21/19/12/baby-84686_640.jpg",
        "src1280": "https://cdn.pixabay.com/photo/2013/02/21/19/12/baby-84686_1280.jpg"
    },
    {
        "id": "437966",
        "src640": "https://cdn.pixabay.com/photo/2014/09/07/16/53/silhouette-437966_640.jpg",
        "src1280": "https://cdn.pixabay.com/photo/2014/09/07/16/53/silhouette-437966_1280.jpg"
    },
    {
        "id": "316705",
        "src640": "https://cdn.pixabay.com/photo/2014/04/05/11/40/female-316705_640.jpg",
        "src1280": "https://cdn.pixabay.com/photo/2014/04/05/11/40/female-316705_1280.jpg"
    },
    {
        "id": "938427",
        "src640": "https://cdn.pixabay.com/photo/2015/09/13/16/46/polka-dots-938427_640.jpg",
        "src1280": "https://cdn.pixabay.com/photo/2015/09/13/16/46/polka-dots-938427_1280.jpg"
    },
    {
        "id": "4530751",
        "src640": "https://cdn.pixabay.com/photo/2019/10/06/17/04/bouquet-4530751_640.jpg",
        "src1280": "https://cdn.pixabay.com/photo/2019/10/06/17/04/bouquet-4530751_1280.jpg"
    },
    {
        "id": "2970949",
        "src640": "https://cdn.pixabay.com/photo/2017/11/22/17/09/christmas-background-2970949_640.jpg",
        "src1280": "https://cdn.pixabay.com/photo/2017/11/22/17/09/christmas-background-2970949_1280.jpg"
    },
    {
        "id": "2168113",
        "src640": "https://cdn.pixabay.com/photo/2017/03/23/11/45/leaf-2168113_640.jpg",
        "src1280": "https://cdn.pixabay.com/photo/2017/03/23/11/45/leaf-2168113_1280.jpg"
    },
    {
        "id": "1359416",
        "src640": "https://cdn.pixabay.com/photo/2016/04/28/18/25/perforated-sheet-1359416_640.jpg",
        "src1280": "https://cdn.pixabay.com/photo/2016/04/28/18/25/perforated-sheet-1359416_1280.jpg"
    },
    {
        "id": "3256694",
        "src640": "https://cdn.pixabay.com/photo/2018/03/24/13/59/art-3256694_640.jpg",
        "src1280": "https://cdn.pixabay.com/photo/2018/03/24/13/59/art-3256694_1280.jpg"
    },
    {
        "id": "909097",
        "src640": "https://cdn.pixabay.com/photo/2015/08/26/21/24/pineapple-909097_640.jpg",
        "src1280": "https://cdn.pixabay.com/photo/2015/08/26/21/24/pineapple-909097_1280.jpg"
    },
    {
        "id": "3263623",
        "src640": "https://cdn.pixabay.com/photo/2018/03/26/18/59/nature-3263623_640.jpg",
        "src1280": "https://cdn.pixabay.com/photo/2018/03/26/18/59/nature-3263623_1280.jpg"
    },
    {
        "id": "1382708",
        "src640": "https://cdn.pixabay.com/photo/2016/05/09/22/37/lady-1382708_640.jpg",
        "src1280": "https://cdn.pixabay.com/photo/2016/05/09/22/37/lady-1382708_1280.jpg"
    },
    {
        "id": "4740077",
        "src640": "https://cdn.pixabay.com/photo/2020/01/04/09/20/forest-4740077_640.jpg",
        "src1280": "https://cdn.pixabay.com/photo/2020/01/04/09/20/forest-4740077_1280.jpg"
    },
    {
        "id": "4720725",
        "src640": "https://cdn.pixabay.com/photo/2019/12/26/16/15/gothic-4720725_640.jpg",
        "src1280": "https://cdn.pixabay.com/photo/2019/12/26/16/15/gothic-4720725_1280.jpg"
    },
    {
        "id": "5212365",
        "src640": "https://cdn.pixabay.com/photo/2020/05/24/04/17/husky-5212365_640.jpg",
        "src1280": "https://cdn.pixabay.com/photo/2020/05/24/04/17/husky-5212365_1280.jpg"
    },
    {
        "id": "3915624",
        "src640": "https://cdn.pixabay.com/photo/2019/01/05/18/24/fantasy-3915624_640.jpg",
        "src1280": "https://cdn.pixabay.com/photo/2019/01/05/18/24/fantasy-3915624_1280.jpg"
    },
    {
        "id": "2904098",
        "src640": "https://cdn.pixabay.com/photo/2017/10/31/02/35/fantasy-2904098_640.jpg",
        "src1280": "https://cdn.pixabay.com/photo/2017/10/31/02/35/fantasy-2904098_1280.jpg"
    },
    {
        "id": "3681378",
        "src640": "https://cdn.pixabay.com/photo/2018/09/16/12/19/dresden-3681378_640.jpg",
        "src1280": "https://cdn.pixabay.com/photo/2018/09/16/12/19/dresden-3681378_1280.jpg"
    },
    {
        "id": "682125",
        "src640": "https://cdn.pixabay.com/photo/2015/03/20/12/11/star-682125_640.jpg",
        "src1280": "https://cdn.pixabay.com/photo/2015/03/20/12/11/star-682125_1280.jpg"
    },
    {
        "id": "2926896",
        "src640": "https://cdn.pixabay.com/photo/2017/11/07/13/15/christmas-background-2926896_640.jpg",
        "src1280": "https://cdn.pixabay.com/photo/2017/11/07/13/15/christmas-background-2926896_1280.jpg"
    },
    {
        "id": "805064",
        "src640": "https://cdn.pixabay.com/photo/2015/06/10/19/19/flower-805064_640.jpg",
        "src1280": "https://cdn.pixabay.com/photo/2015/06/10/19/19/flower-805064_1280.jpg"
    },
    {
        "id": "5998379",
        "src640": "https://cdn.pixabay.com/photo/2021/02/09/12/28/moon-5998379_640.jpg",
        "src1280": "https://cdn.pixabay.com/photo/2021/02/09/12/28/moon-5998379_1280.jpg"
    },
    {
        "id": "3169877",
        "src640": "https://cdn.pixabay.com/photo/2018/02/21/09/35/steampunk-3169877_640.jpg",
        "src1280": "https://cdn.pixabay.com/photo/2018/02/21/09/35/steampunk-3169877_1280.jpg"
    },
    {
        "id": "1347673",
        "src640": "https://cdn.pixabay.com/photo/2016/04/23/14/53/mural-1347673_640.jpg",
        "src1280": "https://cdn.pixabay.com/photo/2016/04/23/14/53/mural-1347673_1280.jpg"
    },
    {
        "id": "163532",
        "src640": "https://cdn.pixabay.com/photo/2013/07/18/10/56/background-163532_640.jpg",
        "src1280": "https://cdn.pixabay.com/photo/2013/07/18/10/56/background-163532_1280.jpg"
    },
    {
        "id": "3647834",
        "src640": "https://cdn.pixabay.com/photo/2018/09/01/22/49/wallpaper-3647834_640.jpg",
        "src1280": "https://cdn.pixabay.com/photo/2018/09/01/22/49/wallpaper-3647834_1280.jpg"
    },
    {
        "id": "4807350",
        "src640": "https://cdn.pixabay.com/photo/2020/01/31/07/34/man-4807350_640.jpg",
        "src1280": "https://cdn.pixabay.com/photo/2020/01/31/07/34/man-4807350_1280.jpg"
    },
    {
        "id": "844902",
        "src640": "https://cdn.pixabay.com/photo/2015/07/14/13/54/abstract-background-844902_640.jpg",
        "src1280": "https://cdn.pixabay.com/photo/2015/07/14/13/54/abstract-background-844902_1280.jpg"
    },
    {
        "id": "2484170",
        "src640": "https://cdn.pixabay.com/photo/2017/07/08/11/46/maroon-2484170_640.jpg",
        "src1280": "https://cdn.pixabay.com/photo/2017/07/08/11/46/maroon-2484170_1280.jpg"
    },
    {
        "id": "83661",
        "src640": "https://cdn.pixabay.com/photo/2013/02/20/10/32/kitten-83661_640.jpg",
        "src1280": "https://cdn.pixabay.com/photo/2013/02/20/10/32/kitten-83661_1280.jpg"
    },
    {
        "id": "1089349",
        "src640": "https://cdn.pixabay.com/photo/2015/12/12/11/01/flowers-1089349_640.jpg",
        "src1280": "https://cdn.pixabay.com/photo/2015/12/12/11/01/flowers-1089349_1280.jpg"
    },
    {
        "id": "5834899",
        "src640": "https://cdn.pixabay.com/photo/2020/12/15/20/49/christmas-5834899_640.jpg",
        "src1280": "https://cdn.pixabay.com/photo/2020/12/15/20/49/christmas-5834899_1280.jpg"
    },
    {
        "id": "1185877",
        "src640": "https://cdn.pixabay.com/photo/2016/02/08/00/04/aurora-1185877_640.jpg",
        "src1280": "https://cdn.pixabay.com/photo/2016/02/08/00/04/aurora-1185877_1280.jpg"
    },
    {
        "id": "3602447",
        "src640": "https://cdn.pixabay.com/photo/2018/08/13/07/23/frame-3602447_640.jpg",
        "src1280": "https://cdn.pixabay.com/photo/2018/08/13/07/23/frame-3602447_1280.jpg"
    },
    {
        "id": "1395534",
        "src640": "https://cdn.pixabay.com/photo/2016/05/16/12/19/ivy-1395534_640.jpg",
        "src1280": "https://cdn.pixabay.com/photo/2016/05/16/12/19/ivy-1395534_1280.jpg"
    },
    {
        "id": "1033117",
        "src640": "https://cdn.pixabay.com/photo/2015/11/08/05/58/scroll-1033117_640.jpg",
        "src1280": "https://cdn.pixabay.com/photo/2015/11/08/05/58/scroll-1033117_1280.jpg"
    },
    {
        "id": "593912",
        "src640": "https://cdn.pixabay.com/photo/2015/01/09/10/14/clef-593912_640.jpg",
        "src1280": "https://cdn.pixabay.com/photo/2015/01/09/10/14/clef-593912_1280.jpg"
    },
    {
        "id": "2369669",
        "src640": "https://cdn.pixabay.com/photo/2017/06/03/20/15/abstract-2369669_640.jpg",
        "src1280": "https://cdn.pixabay.com/photo/2017/06/03/20/15/abstract-2369669_1280.jpg"
    },
    {
        "id": "2345397",
        "src640": "https://cdn.pixabay.com/photo/2017/05/26/07/21/man-2345397_640.jpg",
        "src1280": "https://cdn.pixabay.com/photo/2017/05/26/07/21/man-2345397_1280.jpg"
    },
    {
        "id": "2501117",
        "src640": "https://cdn.pixabay.com/photo/2017/07/13/17/07/abstract-2501117_640.jpg",
        "src1280": "https://cdn.pixabay.com/photo/2017/07/13/17/07/abstract-2501117_1280.jpg"
    },
    {
        "id": "1251716",
        "src640": "https://cdn.pixabay.com/photo/2016/03/12/09/21/textile-1251716_640.jpg",
        "src1280": "https://cdn.pixabay.com/photo/2016/03/12/09/21/textile-1251716_1280.jpg"
    },
    {
        "id": "4455415",
        "src640": "https://cdn.pixabay.com/photo/2019/09/06/04/18/orange-4455415_640.jpg",
        "src1280": "https://cdn.pixabay.com/photo/2019/09/06/04/18/orange-4455415_1280.jpg"
    },
    {
        "id": "1275436",
        "src640": "https://cdn.pixabay.com/photo/2016/03/23/19/31/background-1275436_640.jpg",
        "src1280": "https://cdn.pixabay.com/photo/2016/03/23/19/31/background-1275436_1280.jpg"
    },
    {
        "id": "889515",
        "src640": "https://cdn.pixabay.com/photo/2015/08/15/13/27/el-salvador-dali-889515_640.jpg",
        "src1280": "https://cdn.pixabay.com/photo/2015/08/15/13/27/el-salvador-dali-889515_1280.jpg"
    },
    {
        "id": "1251764",
        "src640": "https://cdn.pixabay.com/photo/2016/03/12/09/49/leather-1251764_640.jpg",
        "src1280": "https://cdn.pixabay.com/photo/2016/03/12/09/49/leather-1251764_1280.jpg"
    },
    {
        "id": "1963820",
        "src640": "https://cdn.pixabay.com/photo/2017/01/08/20/00/abstract-1963820_640.jpg",
        "src1280": "https://cdn.pixabay.com/photo/2017/01/08/20/00/abstract-1963820_1280.jpg"
    },
    {
        "id": "1283395",
        "src640": "https://cdn.pixabay.com/photo/2016/03/27/18/19/vintage-1283395_640.jpg",
        "src1280": "https://cdn.pixabay.com/photo/2016/03/27/18/19/vintage-1283395_1280.jpg"
    },
    {
        "id": "5237592",
        "src640": "https://cdn.pixabay.com/photo/2020/05/30/04/28/sea-5237592_640.jpg",
        "src1280": "https://cdn.pixabay.com/photo/2020/05/30/04/28/sea-5237592_1280.jpg"
    },
    {
        "id": "473630",
        "src640": "https://cdn.pixabay.com/photo/2014/10/04/15/29/paper-473630_640.jpg",
        "src1280": "https://cdn.pixabay.com/photo/2014/10/04/15/29/paper-473630_1280.jpg"
    }
]