[
    {
        "id": "511562",
        "src640": "https://cdn.pixabay.com/photo/2014/11/01/04/50/meditation-511562_640.jpg",
        "src1280": "https://cdn.pixabay.com/photo/2014/11/01/04/50/meditation-511562_1280.jpg"
    },
    {
        "id": "670685",
        "src640": "https://cdn.pixabay.com/photo/2015/03/12/19/24/autumn-670685_640.jpg",
        "src1280": "https://cdn.pixabay.com/photo/2015/03/12/19/24/autumn-670685_1280.jpg"
    },
    {
        "id": "5570050",
        "src640": "https://cdn.pixabay.com/photo/2020/09/14/06/09/lake-5570050_640.jpg",
        "src1280": "https://cdn.pixabay.com/photo/2020/09/14/06/09/lake-5570050_1280.jpg"
    },
    {
        "id": "6987271",
        "src640": "https://cdn.pixabay.com/photo/2022/02/01/23/43/desert-6987271_640.jpg",
        "src1280": "https://cdn.pixabay.com/photo/2022/02/01/23/43/desert-6987271_1280.jpg"
    },
    {
        "id": "4024403",
        "src640": "https://cdn.pixabay.com/photo/2019/02/27/16/20/tulip-4024403_640.jpg",
        "src1280": "https://cdn.pixabay.com/photo/2019/02/27/16/20/tulip-4024403_1280.jpg"
    },
    {
        "id": "4146668",
        "src640": "https://cdn.pixabay.com/photo/2019/04/22/14/34/guitar-4146668_640.jpg",
        "src1280": "https://cdn.pixabay.com/photo/2019/04/22/14/34/guitar-4146668_1280.jpg"
    },
    {
        "id": "5196063",
        "src640": "https://cdn.pixabay.com/photo/2020/05/20/11/44/pigeon-5196063_640.jpg",
        "src1280": "https://cdn.pixabay.com/photo/2020/05/20/11/44/pigeon-5196063_1280.jpg"
    },
    {
        "id": "4069320",
        "src640": "https://cdn.pixabay.com/photo/2019/03/20/19/22/rose-4069320_640.jpg",
        "src1280": "https://cdn.pixabay.com/photo/2019/03/20/19/22/rose-4069320_1280.jpg"
    },
    {
        "id": "2373341",
        "src640": "https://cdn.pixabay.com/photo/2017/06/05/08/53/wire-2373341_640.jpg",
        "src1280": "https://cdn.pixabay.com/photo/2017/06/05/08/53/wire-2373341_1280.jpg"
    },
    {
        "id": "1099525",
        "src640": "https://cdn.pixabay.com/photo/2015/12/19/09/20/abstract-1099525_640.jpg",
        "src1280": "https://cdn.pixabay.com/photo/2015/12/19/09/20/abstract-1099525_1280.jpg"
    },
    {
        "id": "3386713",
        "src640": "https://cdn.pixabay.com/photo/2018/05/10/03/03/shoes-3386713_640.jpg",
        "src1280": "https://cdn.pixabay.com/photo/2018/05/10/03/03/shoes-3386713_1280.jpg"
    },
    {
        "id": "163436",
        "src640": "https://cdn.pixabay.com/photo/2013/07/18/10/55/spoon-163436_640.jpg",
        "src1280": "https://cdn.pixabay.com/photo/2013/07/18/10/55/spoon-163436_1280.jpg"
    },
    {
        "id": "2250943",
        "src640": "https://cdn.pixabay.com/photo/2017/04/22/09/59/cloud-2250943_640.jpg",
        "src1280": "https://cdn.pixabay.com/photo/2017/04/22/09/59/cloud-2250943_1280.jpg"
    },
    {
        "id": "3417780",
        "src640": "https://cdn.pixabay.com/photo/2018/05/21/09/51/tennis-3417780_640.jpg",
        "src1280": "https://cdn.pixabay.com/photo/2018/05/21/09/51/tennis-3417780_1280.jpg"
    },
    {
        "id": "4713500",
        "src640": "https://cdn.pixabay.com/photo/2019/12/22/23/24/scrapbook-paper-4713500_640.jpg",
        "src1280": "https://cdn.pixabay.com/photo/2019/12/22/23/24/scrapbook-paper-4713500_1280.jpg"
    },
    {
        "id": "4431341",
        "src640": "https://cdn.pixabay.com/photo/2019/08/26/10/27/money-4431341_640.jpg",
        "src1280": "https://cdn.pixabay.com/photo/2019/08/26/10/27/money-4431341_1280.jpg"
    },
    {
        "id": "3602054",
        "src640": "https://cdn.pixabay.com/photo/2018/08/12/23/28/print-3602054_640.jpg",
        "src1280": "https://cdn.pixabay.com/photo/2018/08/12/23/28/print-3602054_1280.jpg"
    },
    {
        "id": "1396844",
        "src640": "https://cdn.pixabay.com/photo/2016/05/16/21/34/design-1396844_640.jpg",
        "src1280": "https://cdn.pixabay.com/photo/2016/05/16/21/34/design-1396844_1280.jpg"
    },
    {
        "id": "5047878",
        "src640": "https://cdn.pixabay.com/photo/2020/04/15/19/13/black-background-5047878_640.jpg",
        "src1280": "https://cdn.pixabay.com/photo/2020/04/15/19/13/black-background-5047878_1280.jpg"
    },
    {
        "id": "4796153",
        "src640": "https://cdn.pixabay.com/photo/2020/01/26/23/41/antelope-canyon-4796153_640.jpg",
        "src1280": "https://cdn.pixabay.com/photo/2020/01/26/23/41/antelope-canyon-4796153_1280.jpg"
    },
    {
        "id": "5019895",
        "src640": "https://cdn.pixabay.com/photo/2020/04/09/06/24/girl-5019895_640.jpg",
        "src1280": "https://cdn.pixabay.com/photo/2020/04/09/06/24/girl-5019895_1280.jpg"
    },
    {
        "id": "4808333",
        "src640": "https://cdn.pixabay.com/photo/2020/01/31/15/06/model-4808333_640.jpg",
        "src1280": "https://cdn.pixabay.com/photo/2020/01/31/15/06/model-4808333_1280.jpg"
    },
    {
        "id": "4197345",
        "src640": "https://cdn.pixabay.com/photo/2019/05/12/07/55/deco-4197345_640.jpg",
        "src1280": "https://cdn.pixabay.com/photo/2019/05/12/07/55/deco-4197345_1280.jpg"
    },
    {
        "id": "4851684",
        "src640": "https://cdn.pixabay.com/photo/2020/02/15/18/29/wine-4851684_640.jpg",
        "src1280": "https://cdn.pixabay.com/photo/2020/02/15/18/29/wine-4851684_1280.jpg"
    },
    {
        "id": "2871976",
        "src640": "https://cdn.pixabay.com/photo/2017/10/20/17/05/pressure-2871976_640.jpg",
        "src1280": "https://cdn.pixabay.com/photo/2017/10/20/17/05/pressure-2871976_1280.jpg"
    },
    {
        "id": "3187263",
        "src640": "https://cdn.pixabay.com/photo/2018/02/28/05/39/in-full-growth-3187263_640.jpg",
        "src1280": "https://cdn.pixabay.com/photo/2018/02/28/05/39/in-full-growth-3187263_1280.jpg"
    },
    {
        "id": "214196",
        "src640": "https://cdn.pixabay.com/photo/2013/11/20/23/00/wall-214196_640.jpg",
        "src1280": "https://cdn.pixabay.com/photo/2013/11/20/23/00/wall-214196_1280.jpg"
    },
    {
        "id": "14296",
        "src640": "https://cdn.pixabay.com/photo/2012/02/17/14/56/stone-14296_640.jpg",
        "src1280": "https://cdn.pixabay.com/photo/2012/02/17/14/56/stone-14296_1280.jpg"
    },
    {
        "id": "2945478",
        "src640": "https://cdn.pixabay.com/photo/2017/11/13/12/21/pizza-2945478_640.jpg",
        "src1280": "https://cdn.pixabay.com/photo/2017/11/13/12/21/pizza-2945478_1280.jpg"
    },
    {
        "id": "2366835",
        "src640": "https://cdn.pixabay.com/photo/2017/06/02/16/56/rose-2366835_640.jpg",
        "src1280": "https://cdn.pixabay.com/photo/2017/06/02/16/56/rose-2366835_1280.jpg"
    },
    {
        "id": "1909738",
        "src640": "https://cdn.pixabay.com/photo/2016/12/15/18/32/pattern-1909738_640.jpg",
        "src1280": "https://cdn.pixabay.com/photo/2016/12/15/18/32/pattern-1909738_1280.jpg"
    },
    {
        "id": "2933375",
        "src640": "https://cdn.pixabay.com/photo/2017/11/09/12/47/playing-cards-2933375_640.jpg",
        "src1280": "https://cdn.pixabay.com/photo/2017/11/09/12/47/playing-cards-2933375_1280.jpg"
    },
    {
        "id": "4668448",
        "src640": "https://cdn.pixabay.com/photo/2019/12/02/18/42/fantasy-4668448_640.jpg",
        "src1280": "https://cdn.pixabay.com/photo/2019/12/02/18/42/fantasy-4668448_1280.jpg"
    },
    {
        "id": "4196483",
        "src640": "https://cdn.pixabay.com/photo/2019/05/11/19/53/deco-4196483_640.jpg",
        "src1280": "https://cdn.pixabay.com/photo/2019/05/11/19/53/deco-4196483_1280.jpg"
    },
    {
        "id": "5338743",
        "src640": "https://cdn.pixabay.com/photo/2020/06/25/06/39/thunder-5338743_640.jpg",
        "src1280": "https://cdn.pixabay.com/photo/2020/06/25/06/39/thunder-5338743_1280.jpg"
    },
    {
        "id": "5971251",
        "src640": "https://cdn.pixabay.com/photo/2021/02/01/16/29/ink-5971251_640.jpg",
        "src1280": "https://cdn.pixabay.com/photo/2021/02/01/16/29/ink-5971251_1280.jpg"
    },
    {
        "id": "5313585",
        "src640": "https://cdn.pixabay.com/photo/2020/06/18/13/43/building-5313585_640.jpg",
        "src1280": "https://cdn.pixabay.com/photo/2020/06/18/13/43/building-5313585_1280.jpg"
    },
    {
        "id": "341971",
        "src640": "https://cdn.pixabay.com/photo/2014/05/11/14/23/fractal-341971_640.jpg",
        "src1280": "https://cdn.pixabay.com/photo/2014/05/11/14/23/fractal-341971_1280.jpg"
    },
    {
        "id": "1842471",
        "src640": "https://cdn.pixabay.com/photo/2016/11/20/10/45/art-1842471_640.jpg",
        "src1280": "https://cdn.pixabay.com/photo/2016/11/20/10/45/art-1842471_1280.jpg"
    },
    {
        "id": "650790",
        "src640": "https://cdn.pixabay.com/photo/2015/02/26/18/09/model-650790_640.jpg",
        "src1280": "https://cdn.pixabay.com/photo/2015/02/26/18/09/model-650790_1280.jpg"
    },
    {
        "id": "1398228",
        "src640": "https://cdn.pixabay.com/photo/2016/05/17/14/47/design-1398228_640.jpg",
        "src1280": "https://cdn.pixabay.com/photo/2016/05/17/14/47/design-1398228_1280.jpg"
    },
    {
        "id": "6726466",
        "src640": "https://cdn.pixabay.com/photo/2021/10/20/15/52/japan-6726466_640.jpg",
        "src1280": "https://cdn.pixabay.com/photo/2021/10/20/15/52/japan-6726466_1280.jpg"
    },
    {
        "id": "5362869",
        "src640": "https://cdn.pixabay.com/photo/2020/07/02/12/41/goku-5362869_640.jpg",
        "src1280": "https://cdn.pixabay.com/photo/2020/07/02/12/41/goku-5362869_1280.jpg"
    },
    {
        "id": "5354790",
        "src640": "https://cdn.pixabay.com/photo/2020/06/30/00/18/nature-5354790_640.jpg",
        "src1280": "https://cdn.pixabay.com/photo/2020/06/30/00/18/nature-5354790_1280.jpg"
    },
    {
        "id": "7932312",
        "src640": "https://cdn.pixabay.com/photo/2023/04/17/12/20/cat-7932312_640.jpg",
        "src1280": "https://cdn.pixabay.com/photo/2023/04/17/12/20/cat-7932312_1280.jpg"
    },
    {
        "id": "70641",
        "src640": "https://cdn.pixabay.com/photo/2012/12/18/18/02/daffodils-70641_640.jpg",
        "src1280": "https://cdn.pixabay.com/photo/2012/12/18/18/02/daffodils-70641_1280.jpg"
    },
    {
        "id": "3920681",
        "src640": "https://cdn.pixabay.com/photo/2019/01/08/09/01/red-3920681_640.jpg",
        "src1280": "https://cdn.pixabay.com/photo/2019/01/08/09/01/red-3920681_1280.jpg"
    },
    {
        "id": "6265109",
        "src640": "https://cdn.pixabay.com/photo/2021/05/19/06/36/hornbill-6265109_640.jpg",
        "src1280": "https://cdn.pixabay.com/photo/2021/05/19/06/36/hornbill-6265109_1280.jpg"
    },
    {
        "id": "2433297",
        "src640": "https://cdn.pixabay.com/photo/2017/06/23/02/35/fractal-2433297_640.jpg",
        "src1280": "https://cdn.pixabay.com/photo/2017/06/23/02/35/fractal-2433297_1280.jpg"
    },
    {
        "id": "2250237",
        "src640": "https://cdn.pixabay.com/photo/2017/04/21/23/27/ship-2250237_640.jpg",
        "src1280": "https://cdn.pixabay.com/photo/2017/04/21/23/27/ship-2250237_1280.jpg"
    },
    {
        "id": "1789351",
        "src640": "https://cdn.pixabay.com/photo/2016/11/01/19/43/christmas-1789351_640.jpg",
        "src1280": "https://cdn.pixabay.com/photo/2016/11/01/19/43/christmas-1789351_1280.jpg"
    },
    {
        "id": "4833921",
        "src640": "https://cdn.pixabay.com/photo/2020/02/09/17/27/butterfly-4833921_640.jpg",
        "src1280": "https://cdn.pixabay.com/photo/2020/02/09/17/27/butterfly-4833921_1280.jpg"
    },
    {
        "id": "2317989",
        "src640": "https://cdn.pixabay.com/photo/2017/05/16/14/55/background-2317989_640.jpg",
        "src1280": "https://cdn.pixabay.com/photo/2017/05/16/14/55/background-2317989_1280.jpg"
    },
    {
        "id": "4787148",
        "src640": "https://cdn.pixabay.com/photo/2020/01/23/08/14/mobile-4787148_640.jpg",
        "src1280": "https://cdn.pixabay.com/photo/2020/01/23/08/14/mobile-4787148_1280.jpg"
    },
    {
        "id": "1150081",
        "src640": "https://cdn.pixabay.com/photo/2016/01/19/18/07/abstract-1150081_640.jpg",
        "src1280": "https://cdn.pixabay.com/photo/2016/01/19/18/07/abstract-1150081_1280.jpg"
    },
    {
        "id": "3240235",
        "src640": "https://cdn.pixabay.com/photo/2018/03/19/15/12/fashion-3240235_640.jpg",
        "src1280": "https://cdn.pixabay.com/photo/2018/03/19/15/12/fashion-3240235_1280.jpg"
    },
    {
        "id": "1695044",
        "src640": "https://cdn.pixabay.com/photo/2016/09/26/01/03/flowers-1695044_640.jpg",
        "src1280": "https://cdn.pixabay.com/photo/2016/09/26/01/03/flowers-1695044_1280.jpg"
    },
    {
        "id": "5073826",
        "src640": "https://cdn.pixabay.com/photo/2020/04/21/16/42/page-5073826_640.jpg",
        "src1280": "https://cdn.pixabay.com/photo/2020/04/21/16/42/page-5073826_1280.jpg"
    },
    {
        "id": "1493964",
        "src640": "https://cdn.pixabay.com/photo/2016/07/02/23/21/allium-1493964_640.jpg",
        "src1280": "https://cdn.pixabay.com/photo/2016/07/02/23/21/allium-1493964_1280.jpg"
    },
    {
        "id": "4387182",
        "src640": "https://cdn.pixabay.com/photo/2019/08/06/01/43/wedding-4387182_640.jpg",
        "src1280": "https://cdn.pixabay.com/photo/2019/08/06/01/43/wedding-4387182_1280.jpg"
    },
    {
        "id": "3808036",
        "src640": "https://cdn.pixabay.com/photo/2018/11/11/04/40/background-image-3808036_640.jpg",
        "src1280": "https://cdn.pixabay.com/photo/2018/11/11/04/40/background-image-3808036_1280.jpg"
    },
    {
        "id": "2411838",
        "src640": "https://cdn.pixabay.com/photo/2017/06/17/10/45/rose-2411838_640.jpg",
        "src1280": "https://cdn.pixabay.com/photo/2017/06/17/10/45/rose-2411838_1280.jpg"
    },
    {
        "id": "6556386",
        "src640": "https://cdn.pixabay.com/photo/2021/08/18/19/21/background-6556386_640.jpg",
        "src1280": "https://cdn.pixabay.com/photo/2021/08/18/19/21/background-6556386_1280.jpg"
    },
    {
        "id": "8285162",
        "src640": "https://cdn.pixabay.com/photo/2023/09/30/08/33/woman-8285162_640.jpg",
        "src1280": "https://cdn.pixabay.com/photo/2023/09/30/08/33/woman-8285162_1280.jpg"
    },
    {
        "id": "3915127",
        "src640": "https://cdn.pixabay.com/photo/2019/01/05/14/16/rose-3915127_640.jpg",
        "src1280": "https://cdn.pixabay.com/photo/2019/01/05/14/16/rose-3915127_1280.jpg"
    },
    {
        "id": "4967492",
        "src640": "https://cdn.pixabay.com/photo/2020/03/25/14/23/red-4967492_640.jpg",
        "src1280": "https://cdn.pixabay.com/photo/2020/03/25/14/23/red-4967492_1280.jpg"
    },
    {
        "id": "4907299",
        "src640": "https://cdn.pixabay.com/photo/2020/03/06/14/59/snowdrop-4907299_640.jpg",
        "src1280": "https://cdn.pixabay.com/photo/2020/03/06/14/59/snowdrop-4907299_1280.jpg"
    },
    {
        "id": "7903388",
        "src640": "https://cdn.pixabay.com/photo/2023/04/06/08/50/train-7903388_640.jpg",
        "src1280": "https://cdn.pixabay.com/photo/2023/04/06/08/50/train-7903388_1280.jpg"
    },
    {
        "id": "4061409",
        "src640": "https://cdn.pixabay.com/photo/2019/03/17/16/56/tulips-4061409_640.jpg",
        "src1280": "https://cdn.pixabay.com/photo/2019/03/17/16/56/tulips-4061409_1280.jpg"
    },
    {
        "id": "5138309",
        "src640": "https://cdn.pixabay.com/photo/2020/05/06/16/59/fashion-5138309_640.jpg",
        "src1280": "https://cdn.pixabay.com/photo/2020/05/06/16/59/fashion-5138309_1280.jpg"
    },
    {
        "id": "4880661",
        "src640": "https://cdn.pixabay.com/photo/2020/02/26/05/34/background-4880661_640.jpg",
        "src1280": "https://cdn.pixabay.com/photo/2020/02/26/05/34/background-4880661_1280.jpg"
    },
    {
        "id": "2289462",
        "src640": "https://cdn.pixabay.com/photo/2017/05/06/10/36/tea-2289462_640.jpg",
        "src1280": "https://cdn.pixabay.com/photo/2017/05/06/10/36/tea-2289462_1280.jpg"
    },
    {
        "id": "2818756",
        "src640": "https://cdn.pixabay.com/photo/2017/10/05/09/10/cup-of-coffee-2818756_640.jpg",
        "src1280": "https://cdn.pixabay.com/photo/2017/10/05/09/10/cup-of-coffee-2818756_1280.jpg"
    },
    {
        "id": "2842853",
        "src640": "https://cdn.pixabay.com/photo/2017/10/11/23/03/facade-2842853_640.jpg",
        "src1280": "https://cdn.pixabay.com/photo/2017/10/11/23/03/facade-2842853_1280.jpg"
    },
    {
        "id": "392550",
        "src640": "https://cdn.pixabay.com/photo/2014/07/13/15/44/paper-392550_640.jpg",
        "src1280": "https://cdn.pixabay.com/photo/2014/07/13/15/44/paper-392550_1280.jpg"
    },
    {
        "id": "2604757",
        "src640": "https://cdn.pixabay.com/photo/2017/08/07/15/06/shirt-2604757_640.jpg",
        "src1280": "https://cdn.pixabay.com/photo/2017/08/07/15/06/shirt-2604757_1280.jpg"
    },
    {
        "id": "3297019",
        "src640": "https://cdn.pixabay.com/photo/2018/04/06/21/25/tableware-3297019_640.jpg",
        "src1280": "https://cdn.pixabay.com/photo/2018/04/06/21/25/tableware-3297019_1280.jpg"
    },
    {
        "id": "2737419",
        "src640": "https://cdn.pixabay.com/photo/2017/09/11/00/03/pattern-2737419_640.jpg",
        "src1280": "https://cdn.pixabay.com/photo/2017/09/11/00/03/pattern-2737419_1280.jpg"
    },
    {
        "id": "3831823",
        "src640": "https://cdn.pixabay.com/photo/2018/11/22/12/48/clothing-3831823_640.jpg",
        "src1280": "https://cdn.pixabay.com/photo/2018/11/22/12/48/clothing-3831823_1280.jpg"
    },
    {
        "id": "4556597",
        "src640": "https://cdn.pixabay.com/photo/2019/10/17/10/32/owl-4556597_640.jpg",
        "src1280": "https://cdn.pixabay.com/photo/2019/10/17/10/32/owl-4556597_1280.jpg"
    },
    {
        "id": "6748084",
        "src640": "https://cdn.pixabay.com/photo/2021/10/27/18/14/minimal-background-6748084_640.jpg",
        "src1280": "https://cdn.pixabay.com/photo/2021/10/27/18/14/minimal-background-6748084_1280.jpg"
    },
    {
        "id": "2732670",
        "src640": "https://cdn.pixabay.com/photo/2017/09/09/17/05/pattern-2732670_640.jpg",
        "src1280": "https://cdn.pixabay.com/photo/2017/09/09/17/05/pattern-2732670_1280.jpg"
    },
    {
        "id": "214443",
        "src640": "https://cdn.pixabay.com/photo/2013/11/21/07/29/background-214443_640.jpg",
        "src1280": "https://cdn.pixabay.com/photo/2013/11/21/07/29/background-214443_1280.jpg"
    },
    {
        "id": "1116846",
        "src640": "https://cdn.pixabay.com/photo/2016/01/01/18/13/tree-1116846_640.jpg",
        "src1280": "https://cdn.pixabay.com/photo/2016/01/01/18/13/tree-1116846_1280.jpg"
    },
    {
        "id": "6372318",
        "src640": "https://cdn.pixabay.com/photo/2021/06/28/17/59/ferris-wheel-6372318_640.jpg",
        "src1280": "https://cdn.pixabay.com/photo/2021/06/28/17/59/ferris-wheel-6372318_1280.jpg"
    },
    {
        "id": "4931922",
        "src640": "https://cdn.pixabay.com/photo/2020/03/14/21/56/wine-4931922_640.jpg",
        "src1280": "https://cdn.pixabay.com/photo/2020/03/14/21/56/wine-4931922_1280.jpg"
    },
    {
        "id": "1504334",
        "src640": "https://cdn.pixabay.com/photo/2016/07/08/13/25/fire-1504334_640.jpg",
        "src1280": "https://cdn.pixabay.com/photo/2016/07/08/13/25/fire-1504334_1280.jpg"
    },
    {
        "id": "222770",
        "src640": "https://cdn.pixabay.com/photo/2013/12/03/05/35/snow-222770_640.jpg",
        "src1280": "https://cdn.pixabay.com/photo/2013/12/03/05/35/snow-222770_1280.jpg"
    }
]