[
    {
        "id": "5066130",
        "src640": "https://cdn.pixabay.com/photo/2020/04/20/02/22/rice-5066130_640.jpg",
        "src1280": "https://cdn.pixabay.com/photo/2020/04/20/02/22/rice-5066130_1280.jpg"
    },
    {
        "id": "1141891",
        "src640": "https://cdn.pixabay.com/photo/2016/01/15/15/19/background-1141891_640.jpg",
        "src1280": "https://cdn.pixabay.com/photo/2016/01/15/15/19/background-1141891_1280.jpg"
    },
    {
        "id": "1232063",
        "src640": "https://cdn.pixabay.com/photo/2016/03/02/10/37/allrounder-1232063_640.jpg",
        "src1280": "https://cdn.pixabay.com/photo/2016/03/02/10/37/allrounder-1232063_1280.jpg"
    },
    {
        "id": "6578302",
        "src640": "https://cdn.pixabay.com/photo/2021/08/27/09/48/dahlia-6578302_640.jpg",
        "src1280": "https://cdn.pixabay.com/photo/2021/08/27/09/48/dahlia-6578302_1280.jpg"
    },
    {
        "id": "5137397",
        "src640": "https://cdn.pixabay.com/photo/2020/05/06/12/53/vase-5137397_640.jpg",
        "src1280": "https://cdn.pixabay.com/photo/2020/05/06/12/53/vase-5137397_1280.jpg"
    },
    {
        "id": "4058911",
        "src640": "https://cdn.pixabay.com/photo/2019/03/16/12/24/tulips-4058911_640.jpg",
        "src1280": "https://cdn.pixabay.com/photo/2019/03/16/12/24/tulips-4058911_1280.jpg"
    },
    {
        "id": "6912807",
        "src640": "https://cdn.pixabay.com/photo/2022/01/03/13/36/summer-6912807_640.jpg",
        "src1280": "https://cdn.pixabay.com/photo/2022/01/03/13/36/summer-6912807_1280.jpg"
    },
    {
        "id": "5241664",
        "src640": "https://cdn.pixabay.com/photo/2020/05/31/07/55/gold-5241664_640.jpg",
        "src1280": "https://cdn.pixabay.com/photo/2020/05/31/07/55/gold-5241664_1280.jpg"
    },
    {
        "id": "3648587",
        "src640": "https://cdn.pixabay.com/photo/2018/09/02/11/28/rope-3648587_640.jpg",
        "src1280": "https://cdn.pixabay.com/photo/2018/09/02/11/28/rope-3648587_1280.jpg"
    },
    {
        "id": "5040987",
        "src640": "https://cdn.pixabay.com/photo/2020/04/14/05/36/chair-5040987_640.jpg",
        "src1280": "https://cdn.pixabay.com/photo/2020/04/14/05/36/chair-5040987_1280.jpg"
    },
    {
        "id": "3359693",
        "src640": "https://cdn.pixabay.com/photo/2018/04/29/11/31/water-3359693_640.jpg",
        "src1280": "https://cdn.pixabay.com/photo/2018/04/29/11/31/water-3359693_1280.jpg"
    },
    {
        "id": "21669",
        "src640": "https://cdn.pixabay.com/photo/2012/03/03/23/54/alternative-21669_640.jpg",
        "src1280": "https://cdn.pixabay.com/photo/2012/03/03/23/54/alternative-21669_1280.jpg"
    },
    {
        "id": "3756180",
        "src640": "https://cdn.pixabay.com/photo/2018/10/18/11/49/log-3756180_640.jpg",
        "src1280": "https://cdn.pixabay.com/photo/2018/10/18/11/49/log-3756180_1280.jpg"
    },
    {
        "id": "912083",
        "src640": "https://cdn.pixabay.com/photo/2015/08/28/15/55/pattern-912083_640.jpg",
        "src1280": "https://cdn.pixabay.com/photo/2015/08/28/15/55/pattern-912083_1280.jpg"
    },
    {
        "id": "6705694",
        "src640": "https://cdn.pixabay.com/photo/2021/10/13/07/43/couple-6705694_640.jpg",
        "src1280": "https://cdn.pixabay.com/photo/2021/10/13/07/43/couple-6705694_1280.jpg"
    },
    {
        "id": "4541628",
        "src640": "https://cdn.pixabay.com/photo/2019/10/11/10/55/bokeh-4541628_640.jpg",
        "src1280": "https://cdn.pixabay.com/photo/2019/10/11/10/55/bokeh-4541628_1280.jpg"
    },
    {
        "id": "5257231",
        "src640": "https://cdn.pixabay.com/photo/2020/06/04/05/20/dahlia-5257231_640.jpg",
        "src1280": "https://cdn.pixabay.com/photo/2020/06/04/05/20/dahlia-5257231_1280.jpg"
    },
    {
        "id": "1867381",
        "src640": "https://cdn.pixabay.com/photo/2016/11/29/04/45/aged-1867381_640.jpg",
        "src1280": "https://cdn.pixabay.com/photo/2016/11/29/04/45/aged-1867381_1280.jpg"
    },
    {
        "id": "814127",
        "src640": "https://cdn.pixabay.com/photo/2015/06/18/21/02/mushroom-814127_640.jpg",
        "src1280": "https://cdn.pixabay.com/photo/2015/06/18/21/02/mushroom-814127_1280.jpg"
    },
    {
        "id": "1678260",
        "src640": "https://cdn.pixabay.com/photo/2016/09/18/13/53/elephant-1678260_640.jpg",
        "src1280": "https://cdn.pixabay.com/photo/2016/09/18/13/53/elephant-1678260_1280.jpg"
    },
    {
        "id": "6902701",
        "src640": "https://cdn.pixabay.com/photo/2021/12/29/20/34/wallpaper-6902701_640.jpg",
        "src1280": "https://cdn.pixabay.com/photo/2021/12/29/20/34/wallpaper-6902701_1280.jpg"
    },
    {
        "id": "6881730",
        "src640": "https://cdn.pixabay.com/photo/2021/12/19/18/50/dream-catcher-6881730_640.jpg",
        "src1280": "https://cdn.pixabay.com/photo/2021/12/19/18/50/dream-catcher-6881730_1280.jpg"
    },
    {
        "id": "6819033",
        "src640": "https://cdn.pixabay.com/photo/2021/11/23/15/41/car-6819033_640.jpg",
        "src1280": "https://cdn.pixabay.com/photo/2021/11/23/15/41/car-6819033_1280.jpg"
    },
    {
        "id": "7170405",
        "src640": "https://cdn.pixabay.com/photo/2022/05/02/20/37/dandelion-7170405_640.jpg",
        "src1280": "https://cdn.pixabay.com/photo/2022/05/02/20/37/dandelion-7170405_1280.jpg"
    },
    {
        "id": "2016078",
        "src640": "https://cdn.pixabay.com/photo/2017/01/28/18/00/birthday-2016078_640.jpg",
        "src1280": "https://cdn.pixabay.com/photo/2017/01/28/18/00/birthday-2016078_1280.jpg"
    },
    {
        "id": "3462436",
        "src640": "https://cdn.pixabay.com/photo/2018/06/08/14/36/hydrangea-3462436_640.jpg",
        "src1280": "https://cdn.pixabay.com/photo/2018/06/08/14/36/hydrangea-3462436_1280.jpg"
    },
    {
        "id": "4442840",
        "src640": "https://cdn.pixabay.com/photo/2019/08/31/05/52/fashion-4442840_640.jpg",
        "src1280": "https://cdn.pixabay.com/photo/2019/08/31/05/52/fashion-4442840_1280.jpg"
    },
    {
        "id": "4514921",
        "src640": "https://cdn.pixabay.com/photo/2019/09/30/06/08/fashion-4514921_640.jpg",
        "src1280": "https://cdn.pixabay.com/photo/2019/09/30/06/08/fashion-4514921_1280.jpg"
    },
    {
        "id": "7887620",
        "src640": "https://cdn.pixabay.com/photo/2023/03/30/12/03/clock-7887620_640.jpg",
        "src1280": "https://cdn.pixabay.com/photo/2023/03/30/12/03/clock-7887620_1280.jpg"
    },
    {
        "id": "2819490",
        "src640": "https://cdn.pixabay.com/photo/2017/10/05/13/53/woman-2819490_640.jpg",
        "src1280": "https://cdn.pixabay.com/photo/2017/10/05/13/53/woman-2819490_1280.jpg"
    },
    {
        "id": "7275875",
        "src640": "https://cdn.pixabay.com/photo/2022/06/21/13/50/flowers-7275875_640.jpg",
        "src1280": "https://cdn.pixabay.com/photo/2022/06/21/13/50/flowers-7275875_1280.jpg"
    },
    {
        "id": "2011097",
        "src640": "https://cdn.pixabay.com/photo/2017/01/26/17/09/leaves-2011097_640.jpg",
        "src1280": "https://cdn.pixabay.com/photo/2017/01/26/17/09/leaves-2011097_1280.jpg"
    },
    {
        "id": "5032503",
        "src640": "https://cdn.pixabay.com/photo/2020/04/12/02/26/easter-5032503_640.jpg",
        "src1280": "https://cdn.pixabay.com/photo/2020/04/12/02/26/easter-5032503_1280.jpg"
    },
    {
        "id": "5832273",
        "src640": "https://cdn.pixabay.com/photo/2020/12/14/23/18/full-hd-wallpaper-5832273_640.jpg",
        "src1280": "https://cdn.pixabay.com/photo/2020/12/14/23/18/full-hd-wallpaper-5832273_1280.jpg"
    },
    {
        "id": "7640062",
        "src640": "https://cdn.pixabay.com/photo/2022/12/07/02/51/colorful-7640062_640.jpg",
        "src1280": "https://cdn.pixabay.com/photo/2022/12/07/02/51/colorful-7640062_1280.jpg"
    },
    {
        "id": "5146217",
        "src640": "https://cdn.pixabay.com/photo/2020/05/08/15/33/bottle-5146217_640.jpg",
        "src1280": "https://cdn.pixabay.com/photo/2020/05/08/15/33/bottle-5146217_1280.jpg"
    },
    {
        "id": "650806",
        "src640": "https://cdn.pixabay.com/photo/2015/02/26/18/17/model-650806_640.jpg",
        "src1280": "https://cdn.pixabay.com/photo/2015/02/26/18/17/model-650806_1280.jpg"
    },
    {
        "id": "4784015",
        "src640": "https://cdn.pixabay.com/photo/2020/01/21/21/24/rum-4784015_640.jpg",
        "src1280": "https://cdn.pixabay.com/photo/2020/01/21/21/24/rum-4784015_1280.jpg"
    },
    {
        "id": "5308742",
        "src640": "https://cdn.pixabay.com/photo/2020/06/17/09/00/lavender-5308742_640.jpg",
        "src1280": "https://cdn.pixabay.com/photo/2020/06/17/09/00/lavender-5308742_1280.jpg"
    },
    {
        "id": "5687523",
        "src640": "https://cdn.pixabay.com/photo/2020/10/26/14/37/baby-5687523_640.jpg",
        "src1280": "https://cdn.pixabay.com/photo/2020/10/26/14/37/baby-5687523_1280.jpg"
    },
    {
        "id": "2667364",
        "src640": "https://cdn.pixabay.com/photo/2017/08/21/23/43/rope-2667364_640.jpg",
        "src1280": "https://cdn.pixabay.com/photo/2017/08/21/23/43/rope-2667364_1280.jpg"
    },
    {
        "id": "3339046",
        "src640": "https://cdn.pixabay.com/photo/2018/04/21/18/05/boy-model-3339046_640.jpg",
        "src1280": "https://cdn.pixabay.com/photo/2018/04/21/18/05/boy-model-3339046_1280.jpg"
    },
    {
        "id": "1551213",
        "src640": "https://cdn.pixabay.com/photo/2016/07/29/08/21/leaf-1551213_640.jpg",
        "src1280": "https://cdn.pixabay.com/photo/2016/07/29/08/21/leaf-1551213_1280.jpg"
    },
    {
        "id": "219923",
        "src640": "https://cdn.pixabay.com/photo/2013/11/28/10/02/wood-219923_640.jpg",
        "src1280": "https://cdn.pixabay.com/photo/2013/11/28/10/02/wood-219923_1280.jpg"
    },
    {
        "id": "3231254",
        "src640": "https://cdn.pixabay.com/photo/2018/03/16/13/33/decoration-3231254_640.jpg",
        "src1280": "https://cdn.pixabay.com/photo/2018/03/16/13/33/decoration-3231254_1280.jpg"
    },
    {
        "id": "3741702",
        "src640": "https://cdn.pixabay.com/photo/2018/10/12/08/31/wood-fibre-boards-3741702_640.jpg",
        "src1280": "https://cdn.pixabay.com/photo/2018/10/12/08/31/wood-fibre-boards-3741702_1280.jpg"
    },
    {
        "id": "5025662",
        "src640": "https://cdn.pixabay.com/photo/2020/04/10/12/48/long-legs-5025662_640.jpg",
        "src1280": "https://cdn.pixabay.com/photo/2020/04/10/12/48/long-legs-5025662_1280.jpg"
    },
    {
        "id": "1985471",
        "src640": "https://cdn.pixabay.com/photo/2017/01/16/22/49/rose-1985471_640.jpg",
        "src1280": "https://cdn.pixabay.com/photo/2017/01/16/22/49/rose-1985471_1280.jpg"
    },
    {
        "id": "5219450",
        "src640": "https://cdn.pixabay.com/photo/2020/05/25/16/49/flower-5219450_640.jpg",
        "src1280": "https://cdn.pixabay.com/photo/2020/05/25/16/49/flower-5219450_1280.jpg"
    },
    {
        "id": "5054081",
        "src640": "https://cdn.pixabay.com/photo/2020/04/17/09/56/tulips-5054081_640.jpg",
        "src1280": "https://cdn.pixabay.com/photo/2020/04/17/09/56/tulips-5054081_1280.jpg"
    },
    {
        "id": "7607202",
        "src640": "https://cdn.pixabay.com/photo/2022/11/21/14/44/good-day-7607202_640.jpg",
        "src1280": "https://cdn.pixabay.com/photo/2022/11/21/14/44/good-day-7607202_1280.jpg"
    },
    {
        "id": "4762270",
        "src640": "https://cdn.pixabay.com/photo/2020/01/13/12/27/donuts-4762270_640.jpg",
        "src1280": "https://cdn.pixabay.com/photo/2020/01/13/12/27/donuts-4762270_1280.jpg"
    },
    {
        "id": "6295982",
        "src640": "https://cdn.pixabay.com/photo/2021/05/30/14/06/bernese-mountain-dog-6295982_640.jpg",
        "src1280": "https://cdn.pixabay.com/photo/2021/05/30/14/06/bernese-mountain-dog-6295982_1280.jpg"
    },
    {
        "id": "1889452",
        "src640": "https://cdn.pixabay.com/photo/2016/12/07/13/21/seamless-1889452_640.jpg",
        "src1280": "https://cdn.pixabay.com/photo/2016/12/07/13/21/seamless-1889452_1280.jpg"
    },
    {
        "id": "4280796",
        "src640": "https://cdn.pixabay.com/photo/2019/06/17/19/58/stones-4280796_640.jpg",
        "src1280": "https://cdn.pixabay.com/photo/2019/06/17/19/58/stones-4280796_1280.jpg"
    },
    {
        "id": "66312",
        "src640": "https://cdn.pixabay.com/photo/2012/11/16/08/14/meadow-66312_640.jpg",
        "src1280": "https://cdn.pixabay.com/photo/2012/11/16/08/14/meadow-66312_1280.jpg"
    },
    {
        "id": "1609123",
        "src640": "https://cdn.pixabay.com/photo/2016/08/21/08/08/grass-1609123_640.jpg",
        "src1280": "https://cdn.pixabay.com/photo/2016/08/21/08/08/grass-1609123_1280.jpg"
    },
    {
        "id": "4021340",
        "src640": "https://cdn.pixabay.com/photo/2019/02/26/07/51/vegetarian-4021340_640.jpg",
        "src1280": "https://cdn.pixabay.com/photo/2019/02/26/07/51/vegetarian-4021340_1280.jpg"
    },
    {
        "id": "2507623",
        "src640": "https://cdn.pixabay.com/photo/2017/07/15/20/28/wall-2507623_640.jpg",
        "src1280": "https://cdn.pixabay.com/photo/2017/07/15/20/28/wall-2507623_1280.jpg"
    },
    {
        "id": "6775461",
        "src640": "https://cdn.pixabay.com/photo/2021/11/07/11/09/flowers-6775461_640.jpg",
        "src1280": "https://cdn.pixabay.com/photo/2021/11/07/11/09/flowers-6775461_1280.jpg"
    },
    {
        "id": "938697",
        "src640": "https://cdn.pixabay.com/photo/2015/09/13/20/27/bark-938697_640.jpg",
        "src1280": "https://cdn.pixabay.com/photo/2015/09/13/20/27/bark-938697_1280.jpg"
    },
    {
        "id": "3942478",
        "src640": "https://cdn.pixabay.com/photo/2019/01/19/19/54/elephant-3942478_640.jpg",
        "src1280": "https://cdn.pixabay.com/photo/2019/01/19/19/54/elephant-3942478_1280.jpg"
    },
    {
        "id": "2098129",
        "src640": "https://cdn.pixabay.com/photo/2017/02/25/15/51/flowers-2098129_640.jpg",
        "src1280": "https://cdn.pixabay.com/photo/2017/02/25/15/51/flowers-2098129_1280.jpg"
    },
    {
        "id": "4851697",
        "src640": "https://cdn.pixabay.com/photo/2020/02/15/18/30/wine-4851697_640.jpg",
        "src1280": "https://cdn.pixabay.com/photo/2020/02/15/18/30/wine-4851697_1280.jpg"
    },
    {
        "id": "7660694",
        "src640": "https://cdn.pixabay.com/photo/2022/12/17/00/03/angel-7660694_640.jpg",
        "src1280": "https://cdn.pixabay.com/photo/2022/12/17/00/03/angel-7660694_1280.jpg"
    },
    {
        "id": "21525",
        "src640": "https://cdn.pixabay.com/photo/2012/03/03/23/04/background-21525_640.jpg",
        "src1280": "https://cdn.pixabay.com/photo/2012/03/03/23/04/background-21525_1280.jpg"
    },
    {
        "id": "6946694",
        "src640": "https://cdn.pixabay.com/photo/2022/01/18/09/43/lightning-6946694_640.jpg",
        "src1280": "https://cdn.pixabay.com/photo/2022/01/18/09/43/lightning-6946694_1280.jpg"
    },
    {
        "id": "4953636",
        "src640": "https://cdn.pixabay.com/photo/2020/03/21/12/00/tower-4953636_640.jpg",
        "src1280": "https://cdn.pixabay.com/photo/2020/03/21/12/00/tower-4953636_1280.jpg"
    },
    {
        "id": "6896627",
        "src640": "https://cdn.pixabay.com/photo/2021/12/27/09/22/nature-6896627_640.jpg",
        "src1280": "https://cdn.pixabay.com/photo/2021/12/27/09/22/nature-6896627_1280.jpg"
    },
    {
        "id": "6950223",
        "src640": "https://cdn.pixabay.com/photo/2022/01/19/15/43/tree-6950223_640.jpg",
        "src1280": "https://cdn.pixabay.com/photo/2022/01/19/15/43/tree-6950223_1280.jpg"
    },
    {
        "id": "4617461",
        "src640": "https://cdn.pixabay.com/photo/2019/11/11/07/38/wellness-4617461_640.jpg",
        "src1280": "https://cdn.pixabay.com/photo/2019/11/11/07/38/wellness-4617461_1280.jpg"
    },
    {
        "id": "4063349",
        "src640": "https://cdn.pixabay.com/photo/2019/03/18/15/26/purple-4063349_640.jpg",
        "src1280": "https://cdn.pixabay.com/photo/2019/03/18/15/26/purple-4063349_1280.jpg"
    },
    {
        "id": "5911792",
        "src640": "https://cdn.pixabay.com/photo/2021/01/12/15/50/santa-claus-5911792_640.jpg",
        "src1280": "https://cdn.pixabay.com/photo/2021/01/12/15/50/santa-claus-5911792_1280.jpg"
    },
    {
        "id": "1225035",
        "src640": "https://cdn.pixabay.com/photo/2016/02/27/01/48/concrete-1225035_640.jpg",
        "src1280": "https://cdn.pixabay.com/photo/2016/02/27/01/48/concrete-1225035_1280.jpg"
    },
    {
        "id": "5255275",
        "src640": "https://cdn.pixabay.com/photo/2020/06/03/15/07/wire-mesh-5255275_640.jpg",
        "src1280": "https://cdn.pixabay.com/photo/2020/06/03/15/07/wire-mesh-5255275_1280.jpg"
    },
    {
        "id": "4967495",
        "src640": "https://cdn.pixabay.com/photo/2020/03/25/14/24/fashion-4967495_640.jpg",
        "src1280": "https://cdn.pixabay.com/photo/2020/03/25/14/24/fashion-4967495_1280.jpg"
    },
    {
        "id": "7300251",
        "src640": "https://cdn.pixabay.com/photo/2022/07/04/03/00/lotus-7300251_640.jpg",
        "src1280": "https://cdn.pixabay.com/photo/2022/07/04/03/00/lotus-7300251_1280.jpg"
    },
    {
        "id": "1071355",
        "src640": "https://cdn.pixabay.com/photo/2015/11/30/23/32/eve-1071355_640.jpg",
        "src1280": "https://cdn.pixabay.com/photo/2015/11/30/23/32/eve-1071355_1280.jpg"
    },
    {
        "id": "8257236",
        "src640": "https://cdn.pixabay.com/photo/2023/09/16/17/31/thistle-8257236_640.jpg",
        "src1280": "https://cdn.pixabay.com/photo/2023/09/16/17/31/thistle-8257236_1280.jpg"
    },
    {
        "id": "5901142",
        "src640": "https://cdn.pixabay.com/photo/2021/01/09/01/49/leaves-5901142_640.jpg",
        "src1280": "https://cdn.pixabay.com/photo/2021/01/09/01/49/leaves-5901142_1280.jpg"
    },
    {
        "id": "7573743",
        "src640": "https://cdn.pixabay.com/photo/2022/11/06/10/58/pot-7573743_640.jpg",
        "src1280": "https://cdn.pixabay.com/photo/2022/11/06/10/58/pot-7573743_1280.jpg"
    },
    {
        "id": "7375227",
        "src640": "https://cdn.pixabay.com/photo/2022/08/09/15/15/hummingbird-7375227_640.jpg",
        "src1280": "https://cdn.pixabay.com/photo/2022/08/09/15/15/hummingbird-7375227_1280.jpg"
    },
    {
        "id": "2577479",
        "src640": "https://cdn.pixabay.com/photo/2017/08/03/17/22/corrugated-board-2577479_640.jpg",
        "src1280": "https://cdn.pixabay.com/photo/2017/08/03/17/22/corrugated-board-2577479_1280.jpg"
    },
    {
        "id": "4106265",
        "src640": "https://cdn.pixabay.com/photo/2019/04/05/22/42/mandarin-oranges-4106265_640.jpg",
        "src1280": "https://cdn.pixabay.com/photo/2019/04/05/22/42/mandarin-oranges-4106265_1280.jpg"
    },
    {
        "id": "20434",
        "src640": "https://cdn.pixabay.com/photo/2012/03/01/15/45/background-20434_640.jpg",
        "src1280": "https://cdn.pixabay.com/photo/2012/03/01/15/45/background-20434_1280.jpg"
    },
    {
        "id": "4797104",
        "src640": "https://cdn.pixabay.com/photo/2020/01/27/12/27/cat-4797104_640.jpg",
        "src1280": "https://cdn.pixabay.com/photo/2020/01/27/12/27/cat-4797104_1280.jpg"
    },
    {
        "id": "2649910",
        "src640": "https://cdn.pixabay.com/photo/2017/08/17/03/24/love-you-2649910_640.jpg",
        "src1280": "https://cdn.pixabay.com/photo/2017/08/17/03/24/love-you-2649910_1280.jpg"
    },
    {
        "id": "4928350",
        "src640": "https://cdn.pixabay.com/photo/2020/03/13/15/59/flower-4928350_640.jpg",
        "src1280": "https://cdn.pixabay.com/photo/2020/03/13/15/59/flower-4928350_1280.jpg"
    },
    {
        "id": "4116651",
        "src640": "https://cdn.pixabay.com/photo/2019/04/10/10/17/paper-4116651_640.jpg",
        "src1280": "https://cdn.pixabay.com/photo/2019/04/10/10/17/paper-4116651_1280.jpg"
    }
]