[
    {
        "id": "1130264",
        "src640": "https://cdn.pixabay.com/photo/2016/01/09/14/04/wheels-1130264_640.jpg",
        "src1280": "https://cdn.pixabay.com/photo/2016/01/09/14/04/wheels-1130264_1280.jpg"
    },
    {
        "id": "1008952",
        "src640": "https://cdn.pixabay.com/photo/2015/10/27/12/28/old-iron-fence-1008952_640.jpg",
        "src1280": "https://cdn.pixabay.com/photo/2015/10/27/12/28/old-iron-fence-1008952_1280.jpg"
    },
    {
        "id": "4928334",
        "src640": "https://cdn.pixabay.com/photo/2020/03/13/15/57/flower-4928334_640.jpg",
        "src1280": "https://cdn.pixabay.com/photo/2020/03/13/15/57/flower-4928334_1280.jpg"
    },
    {
        "id": "4697328",
        "src640": "https://cdn.pixabay.com/photo/2019/12/15/15/10/apple-4697328_640.jpg",
        "src1280": "https://cdn.pixabay.com/photo/2019/12/15/15/10/apple-4697328_1280.jpg"
    },
    {
        "id": "3332010",
        "src640": "https://cdn.pixabay.com/photo/2018/04/19/00/05/drink-3332010_640.jpg",
        "src1280": "https://cdn.pixabay.com/photo/2018/04/19/00/05/drink-3332010_1280.jpg"
    },
    {
        "id": "771867",
        "src640": "https://cdn.pixabay.com/photo/2015/05/18/03/48/girl-771867_640.jpg",
        "src1280": "https://cdn.pixabay.com/photo/2015/05/18/03/48/girl-771867_1280.jpg"
    },
    {
        "id": "2314064",
        "src640": "https://cdn.pixabay.com/photo/2017/05/15/08/32/coffee-2314064_640.jpg",
        "src1280": "https://cdn.pixabay.com/photo/2017/05/15/08/32/coffee-2314064_1280.jpg"
    },
    {
        "id": "4590124",
        "src640": "https://cdn.pixabay.com/photo/2019/10/30/17/27/flower-4590124_640.jpg",
        "src1280": "https://cdn.pixabay.com/photo/2019/10/30/17/27/flower-4590124_1280.jpg"
    },
    {
        "id": "1626453",
        "src640": "https://cdn.pixabay.com/photo/2016/08/28/17/24/sunset-1626453_640.jpg",
        "src1280": "https://cdn.pixabay.com/photo/2016/08/28/17/24/sunset-1626453_1280.jpg"
    },
    {
        "id": "2453267",
        "src640": "https://cdn.pixabay.com/photo/2017/06/29/07/21/obelisk-2453267_640.jpg",
        "src1280": "https://cdn.pixabay.com/photo/2017/06/29/07/21/obelisk-2453267_1280.jpg"
    },
    {
        "id": "2510996",
        "src640": "https://cdn.pixabay.com/photo/2017/07/17/00/01/boat-2510996_640.jpg",
        "src1280": "https://cdn.pixabay.com/photo/2017/07/17/00/01/boat-2510996_1280.jpg"
    },
    {
        "id": "5231763",
        "src640": "https://cdn.pixabay.com/photo/2020/05/28/16/37/tree-5231763_640.jpg",
        "src1280": "https://cdn.pixabay.com/photo/2020/05/28/16/37/tree-5231763_1280.jpg"
    },
    {
        "id": "7181865",
        "src640": "https://cdn.pixabay.com/photo/2022/05/08/10/43/woman-7181865_640.jpg",
        "src1280": "https://cdn.pixabay.com/photo/2022/05/08/10/43/woman-7181865_1280.jpg"
    },
    {
        "id": "1062370",
        "src640": "https://cdn.pixabay.com/photo/2015/11/25/15/44/background-1062370_640.jpg",
        "src1280": "https://cdn.pixabay.com/photo/2015/11/25/15/44/background-1062370_1280.jpg"
    },
    {
        "id": "3065748",
        "src640": "https://cdn.pixabay.com/photo/2018/01/06/19/45/desktop-background-3065748_640.jpg",
        "src1280": "https://cdn.pixabay.com/photo/2018/01/06/19/45/desktop-background-3065748_1280.jpg"
    },
    {
        "id": "5245324",
        "src640": "https://cdn.pixabay.com/photo/2020/06/01/06/10/buildings-5245324_640.jpg",
        "src1280": "https://cdn.pixabay.com/photo/2020/06/01/06/10/buildings-5245324_1280.jpg"
    },
    {
        "id": "2733855",
        "src640": "https://cdn.pixabay.com/photo/2017/09/09/23/16/pattern-2733855_640.jpg",
        "src1280": "https://cdn.pixabay.com/photo/2017/09/09/23/16/pattern-2733855_1280.jpg"
    },
    {
        "id": "6873956",
        "src640": "https://cdn.pixabay.com/photo/2021/12/16/07/31/christmas-6873956_640.jpg",
        "src1280": "https://cdn.pixabay.com/photo/2021/12/16/07/31/christmas-6873956_1280.jpg"
    },
    {
        "id": "5829042",
        "src640": "https://cdn.pixabay.com/photo/2020/12/13/18/38/portrait-5829042_640.jpg",
        "src1280": "https://cdn.pixabay.com/photo/2020/12/13/18/38/portrait-5829042_1280.jpg"
    },
    {
        "id": "2904607",
        "src640": "https://cdn.pixabay.com/photo/2017/10/31/08/30/alder-2904607_640.jpg",
        "src1280": "https://cdn.pixabay.com/photo/2017/10/31/08/30/alder-2904607_1280.jpg"
    },
    {
        "id": "1397128",
        "src640": "https://cdn.pixabay.com/photo/2016/05/16/23/22/noodles-1397128_640.jpg",
        "src1280": "https://cdn.pixabay.com/photo/2016/05/16/23/22/noodles-1397128_1280.jpg"
    },
    {
        "id": "1073790",
        "src640": "https://cdn.pixabay.com/photo/2015/12/03/06/20/background-flowers-1073790_640.jpg",
        "src1280": "https://cdn.pixabay.com/photo/2015/12/03/06/20/background-flowers-1073790_1280.jpg"
    },
    {
        "id": "1462158",
        "src640": "https://cdn.pixabay.com/photo/2016/06/16/21/00/mini-pineapple-1462158_640.jpg",
        "src1280": "https://cdn.pixabay.com/photo/2016/06/16/21/00/mini-pineapple-1462158_1280.jpg"
    },
    {
        "id": "7705585",
        "src640": "https://cdn.pixabay.com/photo/2023/01/08/15/44/rome-7705585_640.jpg",
        "src1280": "https://cdn.pixabay.com/photo/2023/01/08/15/44/rome-7705585_1280.jpg"
    },
    {
        "id": "6032148",
        "src640": "https://cdn.pixabay.com/photo/2021/02/20/03/04/success-6032148_640.jpg",
        "src1280": "https://cdn.pixabay.com/photo/2021/02/20/03/04/success-6032148_1280.jpg"
    },
    {
        "id": "4882230",
        "src640": "https://cdn.pixabay.com/photo/2020/02/26/16/31/butterfly-4882230_640.jpg",
        "src1280": "https://cdn.pixabay.com/photo/2020/02/26/16/31/butterfly-4882230_1280.jpg"
    },
    {
        "id": "7404521",
        "src640": "https://cdn.pixabay.com/photo/2022/08/22/20/37/hummingbird-7404521_640.jpg",
        "src1280": "https://cdn.pixabay.com/photo/2022/08/22/20/37/hummingbird-7404521_1280.jpg"
    },
    {
        "id": "736645",
        "src640": "https://cdn.pixabay.com/photo/2015/04/23/20/27/girl-736645_640.jpg",
        "src1280": "https://cdn.pixabay.com/photo/2015/04/23/20/27/girl-736645_1280.jpg"
    },
    {
        "id": "4346886",
        "src640": "https://cdn.pixabay.com/photo/2019/07/18/17/21/echinacea-4346886_640.jpg",
        "src1280": "https://cdn.pixabay.com/photo/2019/07/18/17/21/echinacea-4346886_1280.jpg"
    },
    {
        "id": "7188882",
        "src640": "https://cdn.pixabay.com/photo/2022/05/11/09/10/sky-7188882_640.jpg",
        "src1280": "https://cdn.pixabay.com/photo/2022/05/11/09/10/sky-7188882_1280.jpg"
    },
    {
        "id": "1609585",
        "src640": "https://cdn.pixabay.com/photo/2016/08/21/12/49/colored-pencils-1609585_640.jpg",
        "src1280": "https://cdn.pixabay.com/photo/2016/08/21/12/49/colored-pencils-1609585_1280.jpg"
    },
    {
        "id": "8308293",
        "src640": "https://cdn.pixabay.com/photo/2023/10/11/10/50/feather-8308293_640.jpg",
        "src1280": "https://cdn.pixabay.com/photo/2023/10/11/10/50/feather-8308293_1280.jpg"
    },
    {
        "id": "3978215",
        "src640": "https://cdn.pixabay.com/photo/2019/02/06/00/57/pear-isolated-3978215_640.jpg",
        "src1280": "https://cdn.pixabay.com/photo/2019/02/06/00/57/pear-isolated-3978215_1280.jpg"
    },
    {
        "id": "2392971",
        "src640": "https://cdn.pixabay.com/photo/2017/06/11/17/24/background-2392971_640.jpg",
        "src1280": "https://cdn.pixabay.com/photo/2017/06/11/17/24/background-2392971_1280.jpg"
    },
    {
        "id": "6496634",
        "src640": "https://cdn.pixabay.com/photo/2021/07/27/11/22/mountains-6496634_640.jpg",
        "src1280": "https://cdn.pixabay.com/photo/2021/07/27/11/22/mountains-6496634_1280.jpg"
    },
    {
        "id": "3105528",
        "src640": "https://cdn.pixabay.com/photo/2018/01/25/06/56/natural-3105528_640.jpg",
        "src1280": "https://cdn.pixabay.com/photo/2018/01/25/06/56/natural-3105528_1280.jpg"
    },
    {
        "id": "2339779",
        "src640": "https://cdn.pixabay.com/photo/2017/05/24/07/54/waterfall-2339779_640.jpg",
        "src1280": "https://cdn.pixabay.com/photo/2017/05/24/07/54/waterfall-2339779_1280.jpg"
    },
    {
        "id": "2737433",
        "src640": "https://cdn.pixabay.com/photo/2017/09/11/00/06/pattern-2737433_640.jpg",
        "src1280": "https://cdn.pixabay.com/photo/2017/09/11/00/06/pattern-2737433_1280.jpg"
    },
    {
        "id": "5324169",
        "src640": "https://cdn.pixabay.com/photo/2020/06/21/09/54/shoes-5324169_640.jpg",
        "src1280": "https://cdn.pixabay.com/photo/2020/06/21/09/54/shoes-5324169_1280.jpg"
    },
    {
        "id": "4922675",
        "src640": "https://cdn.pixabay.com/photo/2020/03/11/16/56/pepper-4922675_640.jpg",
        "src1280": "https://cdn.pixabay.com/photo/2020/03/11/16/56/pepper-4922675_1280.jpg"
    },
    {
        "id": "4792777",
        "src640": "https://cdn.pixabay.com/photo/2020/01/25/15/52/branch-4792777_640.jpg",
        "src1280": "https://cdn.pixabay.com/photo/2020/01/25/15/52/branch-4792777_1280.jpg"
    },
    {
        "id": "1334249",
        "src640": "https://cdn.pixabay.com/photo/2016/04/17/06/02/girl-1334249_640.jpg",
        "src1280": "https://cdn.pixabay.com/photo/2016/04/17/06/02/girl-1334249_1280.jpg"
    },
    {
        "id": "1540080",
        "src640": "https://cdn.pixabay.com/photo/2016/07/25/08/00/mosaic-1540080_640.jpg",
        "src1280": "https://cdn.pixabay.com/photo/2016/07/25/08/00/mosaic-1540080_1280.jpg"
    },
    {
        "id": "1056084",
        "src640": "https://cdn.pixabay.com/photo/2015/11/22/10/59/latte-1056084_640.jpg",
        "src1280": "https://cdn.pixabay.com/photo/2015/11/22/10/59/latte-1056084_1280.jpg"
    },
    {
        "id": "4897886",
        "src640": "https://cdn.pixabay.com/photo/2020/03/03/08/27/flower-4897886_640.jpg",
        "src1280": "https://cdn.pixabay.com/photo/2020/03/03/08/27/flower-4897886_1280.jpg"
    },
    {
        "id": "2931991",
        "src640": "https://cdn.pixabay.com/photo/2017/11/08/23/06/cloud-2931991_640.jpg",
        "src1280": "https://cdn.pixabay.com/photo/2017/11/08/23/06/cloud-2931991_1280.jpg"
    },
    {
        "id": "5093664",
        "src640": "https://cdn.pixabay.com/photo/2020/04/26/05/59/lizard-5093664_640.jpg",
        "src1280": "https://cdn.pixabay.com/photo/2020/04/26/05/59/lizard-5093664_1280.jpg"
    },
    {
        "id": "6190509",
        "src640": "https://cdn.pixabay.com/photo/2021/04/19/06/33/dress-6190509_640.jpg",
        "src1280": "https://cdn.pixabay.com/photo/2021/04/19/06/33/dress-6190509_1280.jpg"
    },
    {
        "id": "339846",
        "src640": "https://cdn.pixabay.com/photo/2014/05/07/19/20/butterfly-339846_640.jpg",
        "src1280": "https://cdn.pixabay.com/photo/2014/05/07/19/20/butterfly-339846_1280.jpg"
    },
    {
        "id": "3353170",
        "src640": "https://cdn.pixabay.com/photo/2018/04/26/21/31/sedmikraska-3353170_640.jpg",
        "src1280": "https://cdn.pixabay.com/photo/2018/04/26/21/31/sedmikraska-3353170_1280.jpg"
    },
    {
        "id": "7221235",
        "src640": "https://cdn.pixabay.com/photo/2022/05/25/19/18/boat-7221235_640.jpg",
        "src1280": "https://cdn.pixabay.com/photo/2022/05/25/19/18/boat-7221235_1280.jpg"
    },
    {
        "id": "4824129",
        "src640": "https://cdn.pixabay.com/photo/2020/02/06/12/40/dress-4824129_640.jpg",
        "src1280": "https://cdn.pixabay.com/photo/2020/02/06/12/40/dress-4824129_1280.jpg"
    },
    {
        "id": "4952552",
        "src640": "https://cdn.pixabay.com/photo/2020/03/21/03/09/easter-4952552_640.jpg",
        "src1280": "https://cdn.pixabay.com/photo/2020/03/21/03/09/easter-4952552_1280.jpg"
    },
    {
        "id": "2392548",
        "src640": "https://cdn.pixabay.com/photo/2017/06/11/14/52/tulips-2392548_640.jpg",
        "src1280": "https://cdn.pixabay.com/photo/2017/06/11/14/52/tulips-2392548_1280.jpg"
    },
    {
        "id": "428571",
        "src640": "https://cdn.pixabay.com/photo/2014/08/26/21/40/material-428571_640.jpg",
        "src1280": "https://cdn.pixabay.com/photo/2014/08/26/21/40/material-428571_1280.jpg"
    },
    {
        "id": "955986",
        "src640": "https://cdn.pixabay.com/photo/2015/09/24/17/36/background-955986_640.jpg",
        "src1280": "https://cdn.pixabay.com/photo/2015/09/24/17/36/background-955986_1280.jpg"
    },
    {
        "id": "7109306",
        "src640": "https://cdn.pixabay.com/photo/2022/04/03/15/46/desert-7109306_640.jpg",
        "src1280": "https://cdn.pixabay.com/photo/2022/04/03/15/46/desert-7109306_1280.jpg"
    },
    {
        "id": "681528",
        "src640": "https://cdn.pixabay.com/photo/2015/03/19/23/15/paper-681528_640.jpg",
        "src1280": "https://cdn.pixabay.com/photo/2015/03/19/23/15/paper-681528_1280.jpg"
    },
    {
        "id": "4893287",
        "src640": "https://cdn.pixabay.com/photo/2020/03/01/16/02/photo-4893287_640.jpg",
        "src1280": "https://cdn.pixabay.com/photo/2020/03/01/16/02/photo-4893287_1280.jpg"
    },
    {
        "id": "5478092",
        "src640": "https://cdn.pixabay.com/photo/2020/08/10/15/14/background-5478092_640.jpg",
        "src1280": "https://cdn.pixabay.com/photo/2020/08/10/15/14/background-5478092_1280.jpg"
    },
    {
        "id": "7721024",
        "src640": "https://cdn.pixabay.com/photo/2023/01/15/20/56/white-7721024_640.jpg",
        "src1280": "https://cdn.pixabay.com/photo/2023/01/15/20/56/white-7721024_1280.jpg"
    },
    {
        "id": "1069169",
        "src640": "https://cdn.pixabay.com/photo/2015/11/29/18/55/bird-1069169_640.jpg",
        "src1280": "https://cdn.pixabay.com/photo/2015/11/29/18/55/bird-1069169_1280.jpg"
    },
    {
        "id": "909227",
        "src640": "https://cdn.pixabay.com/photo/2015/08/26/23/57/letter-a-909227_640.jpg",
        "src1280": "https://cdn.pixabay.com/photo/2015/08/26/23/57/letter-a-909227_1280.jpg"
    },
    {
        "id": "2933492",
        "src640": "https://cdn.pixabay.com/photo/2017/11/09/13/08/cami-2933492_640.jpg",
        "src1280": "https://cdn.pixabay.com/photo/2017/11/09/13/08/cami-2933492_1280.jpg"
    },
    {
        "id": "4928812",
        "src640": "https://cdn.pixabay.com/photo/2020/03/13/18/30/flower-4928812_640.jpg",
        "src1280": "https://cdn.pixabay.com/photo/2020/03/13/18/30/flower-4928812_1280.jpg"
    },
    {
        "id": "5162019",
        "src640": "https://cdn.pixabay.com/photo/2020/05/12/09/22/flower-5162019_640.jpg",
        "src1280": "https://cdn.pixabay.com/photo/2020/05/12/09/22/flower-5162019_1280.jpg"
    },
    {
        "id": "3310514",
        "src640": "https://cdn.pixabay.com/photo/2018/04/11/14/12/oats-3310514_640.jpg",
        "src1280": "https://cdn.pixabay.com/photo/2018/04/11/14/12/oats-3310514_1280.jpg"
    },
    {
        "id": "4190685",
        "src640": "https://cdn.pixabay.com/photo/2019/05/09/08/46/tulip-4190685_640.jpg",
        "src1280": "https://cdn.pixabay.com/photo/2019/05/09/08/46/tulip-4190685_1280.jpg"
    },
    {
        "id": "5257624",
        "src640": "https://cdn.pixabay.com/photo/2020/06/04/07/20/clouds-5257624_640.jpg",
        "src1280": "https://cdn.pixabay.com/photo/2020/06/04/07/20/clouds-5257624_1280.jpg"
    },
    {
        "id": "71534",
        "src640": "https://cdn.pixabay.com/photo/2012/12/21/10/06/aromatic-71534_640.jpg",
        "src1280": "https://cdn.pixabay.com/photo/2012/12/21/10/06/aromatic-71534_1280.jpg"
    },
    {
        "id": "1550613",
        "src640": "https://cdn.pixabay.com/photo/2016/07/29/06/36/giant-1550613_640.jpg",
        "src1280": "https://cdn.pixabay.com/photo/2016/07/29/06/36/giant-1550613_1280.jpg"
    },
    {
        "id": "4078691",
        "src640": "https://cdn.pixabay.com/photo/2019/03/24/21/11/blossom-4078691_640.jpg",
        "src1280": "https://cdn.pixabay.com/photo/2019/03/24/21/11/blossom-4078691_1280.jpg"
    },
    {
        "id": "1744718",
        "src640": "https://cdn.pixabay.com/photo/2016/10/16/09/35/children-at-play-1744718_640.jpg",
        "src1280": "https://cdn.pixabay.com/photo/2016/10/16/09/35/children-at-play-1744718_1280.jpg"
    },
    {
        "id": "4731323",
        "src640": "https://cdn.pixabay.com/photo/2019/12/31/06/27/flower-4731323_640.jpg",
        "src1280": "https://cdn.pixabay.com/photo/2019/12/31/06/27/flower-4731323_1280.jpg"
    },
    {
        "id": "4716413",
        "src640": "https://cdn.pixabay.com/photo/2019/12/24/10/06/beautiful-4716413_640.jpg",
        "src1280": "https://cdn.pixabay.com/photo/2019/12/24/10/06/beautiful-4716413_1280.jpg"
    },
    {
        "id": "7188865",
        "src640": "https://cdn.pixabay.com/photo/2022/05/11/09/08/sky-7188865_640.jpg",
        "src1280": "https://cdn.pixabay.com/photo/2022/05/11/09/08/sky-7188865_1280.jpg"
    },
    {
        "id": "5026335",
        "src640": "https://cdn.pixabay.com/photo/2020/04/10/15/40/flower-5026335_640.jpg",
        "src1280": "https://cdn.pixabay.com/photo/2020/04/10/15/40/flower-5026335_1280.jpg"
    },
    {
        "id": "7188872",
        "src640": "https://cdn.pixabay.com/photo/2022/05/11/09/09/sky-7188872_640.jpg",
        "src1280": "https://cdn.pixabay.com/photo/2022/05/11/09/09/sky-7188872_1280.jpg"
    },
    {
        "id": "674966",
        "src640": "https://cdn.pixabay.com/photo/2015/03/15/20/10/girl-674966_640.jpg",
        "src1280": "https://cdn.pixabay.com/photo/2015/03/15/20/10/girl-674966_1280.jpg"
    },
    {
        "id": "1943826",
        "src640": "https://cdn.pixabay.com/photo/2016/12/31/22/06/wood-model-1943826_640.jpg",
        "src1280": "https://cdn.pixabay.com/photo/2016/12/31/22/06/wood-model-1943826_1280.jpg"
    },
    {
        "id": "3441244",
        "src640": "https://cdn.pixabay.com/photo/2018/05/30/11/28/love-3441244_640.jpg",
        "src1280": "https://cdn.pixabay.com/photo/2018/05/30/11/28/love-3441244_1280.jpg"
    },
    {
        "id": "3866620",
        "src640": "https://cdn.pixabay.com/photo/2018/12/10/10/30/balloon-3866620_640.jpg",
        "src1280": "https://cdn.pixabay.com/photo/2018/12/10/10/30/balloon-3866620_1280.jpg"
    },
    {
        "id": "4887168",
        "src640": "https://cdn.pixabay.com/photo/2020/02/28/11/05/attractive-4887168_640.jpg",
        "src1280": "https://cdn.pixabay.com/photo/2020/02/28/11/05/attractive-4887168_1280.jpg"
    },
    {
        "id": "721334",
        "src640": "https://cdn.pixabay.com/photo/2015/04/13/21/32/awake-721334_640.jpg",
        "src1280": "https://cdn.pixabay.com/photo/2015/04/13/21/32/awake-721334_1280.jpg"
    },
    {
        "id": "1083902",
        "src640": "https://cdn.pixabay.com/photo/2015/12/08/22/40/tile-1083902_640.jpg",
        "src1280": "https://cdn.pixabay.com/photo/2015/12/08/22/40/tile-1083902_1280.jpg"
    }
]