[
    {
        "id": "4640647",
        "src640": "https://cdn.pixabay.com/photo/2019/11/20/17/26/christmas-4640647_640.jpg",
        "src1280": "https://cdn.pixabay.com/photo/2019/11/20/17/26/christmas-4640647_1280.jpg"
    },
    {
        "id": "603027",
        "src640": "https://cdn.pixabay.com/photo/2015/01/18/14/12/rose-603027_640.jpg",
        "src1280": "https://cdn.pixabay.com/photo/2015/01/18/14/12/rose-603027_1280.jpg"
    },
    {
        "id": "7014223",
        "src640": "https://cdn.pixabay.com/photo/2022/02/15/03/50/balloons-7014223_640.jpg",
        "src1280": "https://cdn.pixabay.com/photo/2022/02/15/03/50/balloons-7014223_1280.jpg"
    },
    {
        "id": "907294",
        "src640": "https://cdn.pixabay.com/photo/2015/08/25/18/01/background-907294_640.jpg",
        "src1280": "https://cdn.pixabay.com/photo/2015/08/25/18/01/background-907294_1280.jpg"
    },
    {
        "id": "670522",
        "src640": "https://cdn.pixabay.com/photo/2015/03/12/17/25/nature-670522_640.jpg",
        "src1280": "https://cdn.pixabay.com/photo/2015/03/12/17/25/nature-670522_1280.jpg"
    },
    {
        "id": "4889808",
        "src640": "https://cdn.pixabay.com/photo/2020/02/29/11/36/butterfly-4889808_640.jpg",
        "src1280": "https://cdn.pixabay.com/photo/2020/02/29/11/36/butterfly-4889808_1280.jpg"
    },
    {
        "id": "4746513",
        "src640": "https://cdn.pixabay.com/photo/2020/01/06/23/25/lightbulb-4746513_640.jpg",
        "src1280": "https://cdn.pixabay.com/photo/2020/01/06/23/25/lightbulb-4746513_1280.jpg"
    },
    {
        "id": "4189277",
        "src640": "https://cdn.pixabay.com/photo/2019/05/08/18/26/champagne-4189277_640.jpg",
        "src1280": "https://cdn.pixabay.com/photo/2019/05/08/18/26/champagne-4189277_1280.jpg"
    },
    {
        "id": "3321035",
        "src640": "https://cdn.pixabay.com/photo/2018/04/15/07/59/wood-3321035_640.jpg",
        "src1280": "https://cdn.pixabay.com/photo/2018/04/15/07/59/wood-3321035_1280.jpg"
    },
    {
        "id": "2686004",
        "src640": "https://cdn.pixabay.com/photo/2017/08/27/13/11/el-2686004_640.jpg",
        "src1280": "https://cdn.pixabay.com/photo/2017/08/27/13/11/el-2686004_1280.jpg"
    },
    {
        "id": "4821493",
        "src640": "https://cdn.pixabay.com/photo/2020/02/05/15/23/nature-4821493_640.jpg",
        "src1280": "https://cdn.pixabay.com/photo/2020/02/05/15/23/nature-4821493_1280.jpg"
    },
    {
        "id": "2436971",
        "src640": "https://cdn.pixabay.com/photo/2017/06/24/08/15/cloud-2436971_640.jpg",
        "src1280": "https://cdn.pixabay.com/photo/2017/06/24/08/15/cloud-2436971_1280.jpg"
    },
    {
        "id": "4082300",
        "src640": "https://cdn.pixabay.com/photo/2019/03/26/10/42/wallpapers-wood-color-4082300_640.jpg",
        "src1280": "https://cdn.pixabay.com/photo/2019/03/26/10/42/wallpapers-wood-color-4082300_1280.jpg"
    },
    {
        "id": "2666109",
        "src640": "https://cdn.pixabay.com/photo/2017/08/21/17/26/door-2666109_640.jpg",
        "src1280": "https://cdn.pixabay.com/photo/2017/08/21/17/26/door-2666109_1280.jpg"
    },
    {
        "id": "722207",
        "src640": "https://cdn.pixabay.com/photo/2015/04/14/14/25/kanna-722207_640.jpg",
        "src1280": "https://cdn.pixabay.com/photo/2015/04/14/14/25/kanna-722207_1280.jpg"
    },
    {
        "id": "3871708",
        "src640": "https://cdn.pixabay.com/photo/2018/12/12/21/27/christmas-3871708_640.jpg",
        "src1280": "https://cdn.pixabay.com/photo/2018/12/12/21/27/christmas-3871708_1280.jpg"
    },
    {
        "id": "5132160",
        "src640": "https://cdn.pixabay.com/photo/2020/05/05/09/09/insect-5132160_640.jpg",
        "src1280": "https://cdn.pixabay.com/photo/2020/05/05/09/09/insect-5132160_1280.jpg"
    },
    {
        "id": "1167185",
        "src640": "https://cdn.pixabay.com/photo/2016/01/28/23/43/pattern-1167185_640.jpg",
        "src1280": "https://cdn.pixabay.com/photo/2016/01/28/23/43/pattern-1167185_1280.jpg"
    },
    {
        "id": "21629",
        "src640": "https://cdn.pixabay.com/photo/2012/03/03/23/17/abstract-21629_640.jpg",
        "src1280": "https://cdn.pixabay.com/photo/2012/03/03/23/17/abstract-21629_1280.jpg"
    },
    {
        "id": "7344386",
        "src640": "https://cdn.pixabay.com/photo/2022/07/25/18/41/waterfall-7344386_640.jpg",
        "src1280": "https://cdn.pixabay.com/photo/2022/07/25/18/41/waterfall-7344386_1280.jpg"
    },
    {
        "id": "6319445",
        "src640": "https://cdn.pixabay.com/photo/2021/06/08/02/23/garter-snake-6319445_640.jpg",
        "src1280": "https://cdn.pixabay.com/photo/2021/06/08/02/23/garter-snake-6319445_1280.jpg"
    },
    {
        "id": "4874626",
        "src640": "https://cdn.pixabay.com/photo/2020/02/23/20/52/mountains-4874626_640.jpg",
        "src1280": "https://cdn.pixabay.com/photo/2020/02/23/20/52/mountains-4874626_1280.jpg"
    },
    {
        "id": "5508217",
        "src640": "https://cdn.pixabay.com/photo/2020/08/22/11/41/decoration-5508217_640.jpg",
        "src1280": "https://cdn.pixabay.com/photo/2020/08/22/11/41/decoration-5508217_1280.jpg"
    },
    {
        "id": "4650374",
        "src640": "https://cdn.pixabay.com/photo/2019/11/24/20/35/white-4650374_640.jpg",
        "src1280": "https://cdn.pixabay.com/photo/2019/11/24/20/35/white-4650374_1280.jpg"
    },
    {
        "id": "2733842",
        "src640": "https://cdn.pixabay.com/photo/2017/09/09/23/13/pattern-2733842_640.jpg",
        "src1280": "https://cdn.pixabay.com/photo/2017/09/09/23/13/pattern-2733842_1280.jpg"
    },
    {
        "id": "4348010",
        "src640": "https://cdn.pixabay.com/photo/2019/07/19/05/35/montenegro-4348010_640.jpg",
        "src1280": "https://cdn.pixabay.com/photo/2019/07/19/05/35/montenegro-4348010_1280.jpg"
    },
    {
        "id": "4648118",
        "src640": "https://cdn.pixabay.com/photo/2019/11/23/21/06/hazelnuts-4648118_640.jpg",
        "src1280": "https://cdn.pixabay.com/photo/2019/11/23/21/06/hazelnuts-4648118_1280.jpg"
    },
    {
        "id": "7518241",
        "src640": "https://cdn.pixabay.com/photo/2022/10/13/05/47/skeleton-7518241_640.jpg",
        "src1280": "https://cdn.pixabay.com/photo/2022/10/13/05/47/skeleton-7518241_1280.jpg"
    },
    {
        "id": "4689024",
        "src640": "https://cdn.pixabay.com/photo/2019/12/11/18/44/terry-4689024_640.jpg",
        "src1280": "https://cdn.pixabay.com/photo/2019/12/11/18/44/terry-4689024_1280.jpg"
    },
    {
        "id": "2940316",
        "src640": "https://cdn.pixabay.com/photo/2017/11/11/20/17/food-2940316_640.jpg",
        "src1280": "https://cdn.pixabay.com/photo/2017/11/11/20/17/food-2940316_1280.jpg"
    },
    {
        "id": "2439911",
        "src640": "https://cdn.pixabay.com/photo/2017/06/25/07/59/rose-2439911_640.jpg",
        "src1280": "https://cdn.pixabay.com/photo/2017/06/25/07/59/rose-2439911_1280.jpg"
    },
    {
        "id": "908899",
        "src640": "https://cdn.pixabay.com/photo/2015/08/26/18/26/fabric-908899_640.jpg",
        "src1280": "https://cdn.pixabay.com/photo/2015/08/26/18/26/fabric-908899_1280.jpg"
    },
    {
        "id": "7696699",
        "src640": "https://cdn.pixabay.com/photo/2023/01/04/13/21/dogs-7696699_640.jpg",
        "src1280": "https://cdn.pixabay.com/photo/2023/01/04/13/21/dogs-7696699_1280.jpg"
    },
    {
        "id": "5287069",
        "src640": "https://cdn.pixabay.com/photo/2020/06/11/15/05/flowers-5287069_640.jpg",
        "src1280": "https://cdn.pixabay.com/photo/2020/06/11/15/05/flowers-5287069_1280.jpg"
    },
    {
        "id": "2581214",
        "src640": "https://cdn.pixabay.com/photo/2017/08/04/19/59/flower-2581214_640.jpg",
        "src1280": "https://cdn.pixabay.com/photo/2017/08/04/19/59/flower-2581214_1280.jpg"
    },
    {
        "id": "689517",
        "src640": "https://cdn.pixabay.com/photo/2015/03/25/21/37/fence-689517_640.jpg",
        "src1280": "https://cdn.pixabay.com/photo/2015/03/25/21/37/fence-689517_1280.jpg"
    },
    {
        "id": "3756178",
        "src640": "https://cdn.pixabay.com/photo/2018/10/18/11/49/tree-3756178_640.jpg",
        "src1280": "https://cdn.pixabay.com/photo/2018/10/18/11/49/tree-3756178_1280.jpg"
    },
    {
        "id": "4708772",
        "src640": "https://cdn.pixabay.com/photo/2019/12/20/16/02/iris-4708772_640.jpg",
        "src1280": "https://cdn.pixabay.com/photo/2019/12/20/16/02/iris-4708772_1280.jpg"
    },
    {
        "id": "7046489",
        "src640": "https://cdn.pixabay.com/photo/2022/03/04/04/03/plant-7046489_640.jpg",
        "src1280": "https://cdn.pixabay.com/photo/2022/03/04/04/03/plant-7046489_1280.jpg"
    },
    {
        "id": "6773431",
        "src640": "https://cdn.pixabay.com/photo/2021/11/06/14/00/flowers-6773431_640.jpg",
        "src1280": "https://cdn.pixabay.com/photo/2021/11/06/14/00/flowers-6773431_1280.jpg"
    },
    {
        "id": "213745",
        "src640": "https://cdn.pixabay.com/photo/2013/11/20/09/37/dragon-213745_640.jpg",
        "src1280": "https://cdn.pixabay.com/photo/2013/11/20/09/37/dragon-213745_1280.jpg"
    },
    {
        "id": "5971976",
        "src640": "https://cdn.pixabay.com/photo/2021/02/01/21/11/mountain-5971976_640.jpg",
        "src1280": "https://cdn.pixabay.com/photo/2021/02/01/21/11/mountain-5971976_1280.jpg"
    },
    {
        "id": "6825190",
        "src640": "https://cdn.pixabay.com/photo/2021/11/26/05/48/flower-6825190_640.jpg",
        "src1280": "https://cdn.pixabay.com/photo/2021/11/26/05/48/flower-6825190_1280.jpg"
    },
    {
        "id": "5087904",
        "src640": "https://cdn.pixabay.com/photo/2020/04/24/17/45/tulip-5087904_640.jpg",
        "src1280": "https://cdn.pixabay.com/photo/2020/04/24/17/45/tulip-5087904_1280.jpg"
    },
    {
        "id": "1526682",
        "src640": "https://cdn.pixabay.com/photo/2016/07/18/20/17/currants-1526682_640.jpg",
        "src1280": "https://cdn.pixabay.com/photo/2016/07/18/20/17/currants-1526682_1280.jpg"
    },
    {
        "id": "6125373",
        "src640": "https://cdn.pixabay.com/photo/2021/03/26/09/32/bear-6125373_640.jpg",
        "src1280": "https://cdn.pixabay.com/photo/2021/03/26/09/32/bear-6125373_1280.jpg"
    },
    {
        "id": "5219446",
        "src640": "https://cdn.pixabay.com/photo/2020/05/25/16/49/flower-5219446_640.jpg",
        "src1280": "https://cdn.pixabay.com/photo/2020/05/25/16/49/flower-5219446_1280.jpg"
    },
    {
        "id": "5975491",
        "src640": "https://cdn.pixabay.com/photo/2021/02/02/21/22/mandala-5975491_640.jpg",
        "src1280": "https://cdn.pixabay.com/photo/2021/02/02/21/22/mandala-5975491_1280.jpg"
    },
    {
        "id": "2758798",
        "src640": "https://cdn.pixabay.com/photo/2017/09/17/15/44/vodka-2758798_640.jpg",
        "src1280": "https://cdn.pixabay.com/photo/2017/09/17/15/44/vodka-2758798_1280.jpg"
    },
    {
        "id": "3407634",
        "src640": "https://cdn.pixabay.com/photo/2018/05/17/02/37/the-caterpillars-3407634_640.jpg",
        "src1280": "https://cdn.pixabay.com/photo/2018/05/17/02/37/the-caterpillars-3407634_1280.jpg"
    },
    {
        "id": "5319862",
        "src640": "https://cdn.pixabay.com/photo/2020/06/20/06/50/cloud-5319862_640.jpg",
        "src1280": "https://cdn.pixabay.com/photo/2020/06/20/06/50/cloud-5319862_1280.jpg"
    },
    {
        "id": "4889823",
        "src640": "https://cdn.pixabay.com/photo/2020/02/29/11/37/butterfly-4889823_640.jpg",
        "src1280": "https://cdn.pixabay.com/photo/2020/02/29/11/37/butterfly-4889823_1280.jpg"
    },
    {
        "id": "5791123",
        "src640": "https://cdn.pixabay.com/photo/2020/11/30/14/56/man-5791123_640.jpg",
        "src1280": "https://cdn.pixabay.com/photo/2020/11/30/14/56/man-5791123_1280.jpg"
    },
    {
        "id": "5197601",
        "src640": "https://cdn.pixabay.com/photo/2020/05/20/18/00/flower-5197601_640.jpg",
        "src1280": "https://cdn.pixabay.com/photo/2020/05/20/18/00/flower-5197601_1280.jpg"
    },
    {
        "id": "5979798",
        "src640": "https://cdn.pixabay.com/photo/2021/02/03/23/57/marble-5979798_640.jpg",
        "src1280": "https://cdn.pixabay.com/photo/2021/02/03/23/57/marble-5979798_1280.jpg"
    },
    {
        "id": "6987151",
        "src640": "https://cdn.pixabay.com/photo/2022/02/01/21/30/boat-6987151_640.jpg",
        "src1280": "https://cdn.pixabay.com/photo/2022/02/01/21/30/boat-6987151_1280.jpg"
    },
    {
        "id": "5398850",
        "src640": "https://cdn.pixabay.com/photo/2020/07/12/22/14/alpine-5398850_640.jpg",
        "src1280": "https://cdn.pixabay.com/photo/2020/07/12/22/14/alpine-5398850_1280.jpg"
    },
    {
        "id": "3419613",
        "src640": "https://cdn.pixabay.com/photo/2018/05/21/21/38/ornament-3419613_640.jpg",
        "src1280": "https://cdn.pixabay.com/photo/2018/05/21/21/38/ornament-3419613_1280.jpg"
    },
    {
        "id": "5083070",
        "src640": "https://cdn.pixabay.com/photo/2020/04/23/15/54/butterfly-5083070_640.jpg",
        "src1280": "https://cdn.pixabay.com/photo/2020/04/23/15/54/butterfly-5083070_1280.jpg"
    },
    {
        "id": "2756751",
        "src640": "https://cdn.pixabay.com/photo/2017/09/16/21/02/dahlia-2756751_640.jpg",
        "src1280": "https://cdn.pixabay.com/photo/2017/09/16/21/02/dahlia-2756751_1280.jpg"
    },
    {
        "id": "5195819",
        "src640": "https://cdn.pixabay.com/photo/2020/05/20/10/17/pokeball-5195819_640.jpg",
        "src1280": "https://cdn.pixabay.com/photo/2020/05/20/10/17/pokeball-5195819_1280.jpg"
    },
    {
        "id": "1678515",
        "src640": "https://cdn.pixabay.com/photo/2016/09/18/16/20/metal-1678515_640.jpg",
        "src1280": "https://cdn.pixabay.com/photo/2016/09/18/16/20/metal-1678515_1280.jpg"
    },
    {
        "id": "4731313",
        "src640": "https://cdn.pixabay.com/photo/2019/12/31/06/26/flower-4731313_640.jpg",
        "src1280": "https://cdn.pixabay.com/photo/2019/12/31/06/26/flower-4731313_1280.jpg"
    },
    {
        "id": "6833021",
        "src640": "https://cdn.pixabay.com/photo/2021/11/29/16/54/background-6833021_640.jpg",
        "src1280": "https://cdn.pixabay.com/photo/2021/11/29/16/54/background-6833021_1280.jpg"
    },
    {
        "id": "6694500",
        "src640": "https://cdn.pixabay.com/photo/2021/10/09/15/45/flowers-6694500_640.jpg",
        "src1280": "https://cdn.pixabay.com/photo/2021/10/09/15/45/flowers-6694500_1280.jpg"
    },
    {
        "id": "1729421",
        "src640": "https://cdn.pixabay.com/photo/2016/10/10/17/48/flower-1729421_640.jpg",
        "src1280": "https://cdn.pixabay.com/photo/2016/10/10/17/48/flower-1729421_1280.jpg"
    },
    {
        "id": "5284165",
        "src640": "https://cdn.pixabay.com/photo/2020/06/10/20/02/mushroom-5284165_640.jpg",
        "src1280": "https://cdn.pixabay.com/photo/2020/06/10/20/02/mushroom-5284165_1280.jpg"
    },
    {
        "id": "2333282",
        "src640": "https://cdn.pixabay.com/photo/2017/05/22/07/11/beach-2333282_640.jpg",
        "src1280": "https://cdn.pixabay.com/photo/2017/05/22/07/11/beach-2333282_1280.jpg"
    },
    {
        "id": "4711646",
        "src640": "https://cdn.pixabay.com/photo/2019/12/22/01/36/xmas-4711646_640.jpg",
        "src1280": "https://cdn.pixabay.com/photo/2019/12/22/01/36/xmas-4711646_1280.jpg"
    },
    {
        "id": "5984323",
        "src640": "https://cdn.pixabay.com/photo/2021/02/05/11/42/larkspur-5984323_640.jpg",
        "src1280": "https://cdn.pixabay.com/photo/2021/02/05/11/42/larkspur-5984323_1280.jpg"
    },
    {
        "id": "3847131",
        "src640": "https://cdn.pixabay.com/photo/2018/11/30/07/10/woman-3847131_640.jpg",
        "src1280": "https://cdn.pixabay.com/photo/2018/11/30/07/10/woman-3847131_1280.jpg"
    },
    {
        "id": "2394684",
        "src640": "https://cdn.pixabay.com/photo/2017/06/12/07/59/wood-2394684_640.jpg",
        "src1280": "https://cdn.pixabay.com/photo/2017/06/12/07/59/wood-2394684_1280.jpg"
    },
    {
        "id": "2677614",
        "src640": "https://cdn.pixabay.com/photo/2017/08/24/17/25/spruce-2677614_640.jpg",
        "src1280": "https://cdn.pixabay.com/photo/2017/08/24/17/25/spruce-2677614_1280.jpg"
    },
    {
        "id": "5370034",
        "src640": "https://cdn.pixabay.com/photo/2020/07/04/15/50/backgrounds-5370034_640.jpg",
        "src1280": "https://cdn.pixabay.com/photo/2020/07/04/15/50/backgrounds-5370034_1280.jpg"
    },
    {
        "id": "5511433",
        "src640": "https://cdn.pixabay.com/photo/2020/08/23/17/21/road-5511433_640.jpg",
        "src1280": "https://cdn.pixabay.com/photo/2020/08/23/17/21/road-5511433_1280.jpg"
    },
    {
        "id": "47395",
        "src640": "https://cdn.pixabay.com/photo/2012/05/04/13/47/tulip-cultivation-47395_640.jpg",
        "src1280": "https://cdn.pixabay.com/photo/2012/05/04/13/47/tulip-cultivation-47395_1280.jpg"
    },
    {
        "id": "631737",
        "src640": "https://cdn.pixabay.com/photo/2015/02/10/21/14/bottles-631737_640.jpg",
        "src1280": "https://cdn.pixabay.com/photo/2015/02/10/21/14/bottles-631737_1280.jpg"
    },
    {
        "id": "7525051",
        "src640": "https://cdn.pixabay.com/photo/2022/10/16/13/10/halloween-7525051_640.jpg",
        "src1280": "https://cdn.pixabay.com/photo/2022/10/16/13/10/halloween-7525051_1280.jpg"
    },
    {
        "id": "2684549",
        "src640": "https://cdn.pixabay.com/photo/2017/08/26/22/25/access-2684549_640.jpg",
        "src1280": "https://cdn.pixabay.com/photo/2017/08/26/22/25/access-2684549_1280.jpg"
    },
    {
        "id": "3335365",
        "src640": "https://cdn.pixabay.com/photo/2018/04/20/08/32/young-3335365_640.jpg",
        "src1280": "https://cdn.pixabay.com/photo/2018/04/20/08/32/young-3335365_1280.jpg"
    },
    {
        "id": "1313811",
        "src640": "https://cdn.pixabay.com/photo/2016/04/07/12/43/holidays-1313811_640.jpg",
        "src1280": "https://cdn.pixabay.com/photo/2016/04/07/12/43/holidays-1313811_1280.jpg"
    },
    {
        "id": "4416858",
        "src640": "https://cdn.pixabay.com/photo/2019/08/19/16/17/sunflower-4416858_640.jpg",
        "src1280": "https://cdn.pixabay.com/photo/2019/08/19/16/17/sunflower-4416858_1280.jpg"
    },
    {
        "id": "4351350",
        "src640": "https://cdn.pixabay.com/photo/2019/07/20/19/04/orchid-4351350_640.jpg",
        "src1280": "https://cdn.pixabay.com/photo/2019/07/20/19/04/orchid-4351350_1280.jpg"
    },
    {
        "id": "716871",
        "src640": "https://cdn.pixabay.com/photo/2015/04/10/20/37/rose-716871_640.jpg",
        "src1280": "https://cdn.pixabay.com/photo/2015/04/10/20/37/rose-716871_1280.jpg"
    },
    {
        "id": "681857",
        "src640": "https://cdn.pixabay.com/photo/2015/03/20/06/51/anchor-681857_640.jpg",
        "src1280": "https://cdn.pixabay.com/photo/2015/03/20/06/51/anchor-681857_1280.jpg"
    },
    {
        "id": "5765139",
        "src640": "https://cdn.pixabay.com/photo/2020/11/21/21/14/lake-5765139_640.jpg",
        "src1280": "https://cdn.pixabay.com/photo/2020/11/21/21/14/lake-5765139_1280.jpg"
    },
    {
        "id": "3226170",
        "src640": "https://cdn.pixabay.com/photo/2018/03/14/19/43/industry-3226170_640.jpg",
        "src1280": "https://cdn.pixabay.com/photo/2018/03/14/19/43/industry-3226170_1280.jpg"
    },
    {
        "id": "2310081",
        "src640": "https://cdn.pixabay.com/photo/2017/05/13/17/07/background-2310081_640.jpg",
        "src1280": "https://cdn.pixabay.com/photo/2017/05/13/17/07/background-2310081_1280.jpg"
    },
    {
        "id": "1587618",
        "src640": "https://cdn.pixabay.com/photo/2016/08/12/04/24/vintage-1587618_640.jpg",
        "src1280": "https://cdn.pixabay.com/photo/2016/08/12/04/24/vintage-1587618_1280.jpg"
    },
    {
        "id": "2541999",
        "src640": "https://cdn.pixabay.com/photo/2017/07/26/15/26/notebook-2541999_640.jpg",
        "src1280": "https://cdn.pixabay.com/photo/2017/07/26/15/26/notebook-2541999_1280.jpg"
    }
]