[
    {
        "id": "5881390",
        "src640": "https://cdn.pixabay.com/photo/2021/01/02/12/25/baguette-5881390_640.jpg",
        "src1280": "https://cdn.pixabay.com/photo/2021/01/02/12/25/baguette-5881390_1280.jpg"
    },
    {
        "id": "4463811",
        "src640": "https://cdn.pixabay.com/photo/2019/09/09/14/57/fashion-4463811_640.jpg",
        "src1280": "https://cdn.pixabay.com/photo/2019/09/09/14/57/fashion-4463811_1280.jpg"
    },
    {
        "id": "4953637",
        "src640": "https://cdn.pixabay.com/photo/2020/03/21/12/00/background-4953637_640.jpg",
        "src1280": "https://cdn.pixabay.com/photo/2020/03/21/12/00/background-4953637_1280.jpg"
    },
    {
        "id": "5850784",
        "src640": "https://cdn.pixabay.com/photo/2020/12/21/20/19/road-5850784_640.jpg",
        "src1280": "https://cdn.pixabay.com/photo/2020/12/21/20/19/road-5850784_1280.jpg"
    },
    {
        "id": "3284839",
        "src640": "https://cdn.pixabay.com/photo/2018/04/02/19/14/architecture-3284839_640.jpg",
        "src1280": "https://cdn.pixabay.com/photo/2018/04/02/19/14/architecture-3284839_1280.jpg"
    },
    {
        "id": "5331903",
        "src640": "https://cdn.pixabay.com/photo/2020/06/23/08/49/dog-5331903_640.jpg",
        "src1280": "https://cdn.pixabay.com/photo/2020/06/23/08/49/dog-5331903_1280.jpg"
    },
    {
        "id": "8189188",
        "src640": "https://cdn.pixabay.com/photo/2023/08/14/07/18/hot-wheels-8189188_640.jpg",
        "src1280": "https://cdn.pixabay.com/photo/2023/08/14/07/18/hot-wheels-8189188_1280.jpg"
    },
    {
        "id": "2591484",
        "src640": "https://cdn.pixabay.com/photo/2017/08/06/11/22/pomegranate-2591484_640.jpg",
        "src1280": "https://cdn.pixabay.com/photo/2017/08/06/11/22/pomegranate-2591484_1280.jpg"
    },
    {
        "id": "3855391",
        "src640": "https://cdn.pixabay.com/photo/2018/12/04/11/56/coffee-3855391_640.jpg",
        "src1280": "https://cdn.pixabay.com/photo/2018/12/04/11/56/coffee-3855391_1280.jpg"
    },
    {
        "id": "5313117",
        "src640": "https://cdn.pixabay.com/photo/2020/06/18/11/27/squirrel-5313117_640.jpg",
        "src1280": "https://cdn.pixabay.com/photo/2020/06/18/11/27/squirrel-5313117_1280.jpg"
    },
    {
        "id": "5313116",
        "src640": "https://cdn.pixabay.com/photo/2020/06/18/11/27/squirrel-5313116_640.jpg",
        "src1280": "https://cdn.pixabay.com/photo/2020/06/18/11/27/squirrel-5313116_1280.jpg"
    },
    {
        "id": "5215280",
        "src640": "https://cdn.pixabay.com/photo/2020/05/24/17/30/cornflower-5215280_640.jpg",
        "src1280": "https://cdn.pixabay.com/photo/2020/05/24/17/30/cornflower-5215280_1280.jpg"
    },
    {
        "id": "4622529",
        "src640": "https://cdn.pixabay.com/photo/2019/11/13/05/07/midnight-sun-4622529_640.jpg",
        "src1280": "https://cdn.pixabay.com/photo/2019/11/13/05/07/midnight-sun-4622529_1280.jpg"
    },
    {
        "id": "1513893",
        "src640": "https://cdn.pixabay.com/photo/2016/07/13/08/24/analog-1513893_640.jpg",
        "src1280": "https://cdn.pixabay.com/photo/2016/07/13/08/24/analog-1513893_1280.jpg"
    },
    {
        "id": "6775377",
        "src640": "https://cdn.pixabay.com/photo/2021/11/07/10/57/flowers-6775377_640.jpg",
        "src1280": "https://cdn.pixabay.com/photo/2021/11/07/10/57/flowers-6775377_1280.jpg"
    },
    {
        "id": "2577479",
        "src640": "https://cdn.pixabay.com/photo/2017/08/03/17/22/corrugated-board-2577479_640.jpg",
        "src1280": "https://cdn.pixabay.com/photo/2017/08/03/17/22/corrugated-board-2577479_1280.jpg"
    },
    {
        "id": "5306052",
        "src640": "https://cdn.pixabay.com/photo/2020/06/16/15/11/insect-5306052_640.jpg",
        "src1280": "https://cdn.pixabay.com/photo/2020/06/16/15/11/insect-5306052_1280.jpg"
    },
    {
        "id": "4677442",
        "src640": "https://cdn.pixabay.com/photo/2019/12/06/14/11/christmas-motif-4677442_640.jpg",
        "src1280": "https://cdn.pixabay.com/photo/2019/12/06/14/11/christmas-motif-4677442_1280.jpg"
    },
    {
        "id": "195138",
        "src640": "https://cdn.pixabay.com/photo/2013/10/13/18/21/orange-195138_640.jpg",
        "src1280": "https://cdn.pixabay.com/photo/2013/10/13/18/21/orange-195138_1280.jpg"
    },
    {
        "id": "1412084",
        "src640": "https://cdn.pixabay.com/photo/2016/05/24/10/33/leaf-1412084_640.jpg",
        "src1280": "https://cdn.pixabay.com/photo/2016/05/24/10/33/leaf-1412084_1280.jpg"
    },
    {
        "id": "7238826",
        "src640": "https://cdn.pixabay.com/photo/2022/06/02/19/27/rose-7238826_640.jpg",
        "src1280": "https://cdn.pixabay.com/photo/2022/06/02/19/27/rose-7238826_1280.jpg"
    },
    {
        "id": "4977418",
        "src640": "https://cdn.pixabay.com/photo/2020/03/28/15/13/grass-4977418_640.jpg",
        "src1280": "https://cdn.pixabay.com/photo/2020/03/28/15/13/grass-4977418_1280.jpg"
    },
    {
        "id": "3061634",
        "src640": "https://cdn.pixabay.com/photo/2018/01/04/21/01/nature-3061634_640.jpg",
        "src1280": "https://cdn.pixabay.com/photo/2018/01/04/21/01/nature-3061634_1280.jpg"
    },
    {
        "id": "3847141",
        "src640": "https://cdn.pixabay.com/photo/2018/11/30/07/13/male-3847141_640.jpg",
        "src1280": "https://cdn.pixabay.com/photo/2018/11/30/07/13/male-3847141_1280.jpg"
    },
    {
        "id": "5197120",
        "src640": "https://cdn.pixabay.com/photo/2020/05/20/16/05/snail-5197120_640.jpg",
        "src1280": "https://cdn.pixabay.com/photo/2020/05/20/16/05/snail-5197120_1280.jpg"
    },
    {
        "id": "5241664",
        "src640": "https://cdn.pixabay.com/photo/2020/05/31/07/55/gold-5241664_640.jpg",
        "src1280": "https://cdn.pixabay.com/photo/2020/05/31/07/55/gold-5241664_1280.jpg"
    },
    {
        "id": "5162480",
        "src640": "https://cdn.pixabay.com/photo/2020/05/12/11/15/flowers-5162480_640.jpg",
        "src1280": "https://cdn.pixabay.com/photo/2020/05/12/11/15/flowers-5162480_1280.jpg"
    },
    {
        "id": "5434667",
        "src640": "https://cdn.pixabay.com/photo/2020/07/24/17/58/arches-5434667_640.jpg",
        "src1280": "https://cdn.pixabay.com/photo/2020/07/24/17/58/arches-5434667_1280.jpg"
    },
    {
        "id": "2829365",
        "src640": "https://cdn.pixabay.com/photo/2017/10/08/10/04/dahlia-2829365_640.jpg",
        "src1280": "https://cdn.pixabay.com/photo/2017/10/08/10/04/dahlia-2829365_1280.jpg"
    },
    {
        "id": "2644532",
        "src640": "https://cdn.pixabay.com/photo/2017/08/15/16/10/glove-2644532_640.jpg",
        "src1280": "https://cdn.pixabay.com/photo/2017/08/15/16/10/glove-2644532_1280.jpg"
    },
    {
        "id": "7014224",
        "src640": "https://cdn.pixabay.com/photo/2022/02/15/03/50/balloons-7014224_640.jpg",
        "src1280": "https://cdn.pixabay.com/photo/2022/02/15/03/50/balloons-7014224_1280.jpg"
    },
    {
        "id": "5778005",
        "src640": "https://cdn.pixabay.com/photo/2020/11/26/06/16/christmas-trees-5778005_640.jpg",
        "src1280": "https://cdn.pixabay.com/photo/2020/11/26/06/16/christmas-trees-5778005_1280.jpg"
    },
    {
        "id": "3978204",
        "src640": "https://cdn.pixabay.com/photo/2019/02/06/00/53/squash-3978204_640.jpg",
        "src1280": "https://cdn.pixabay.com/photo/2019/02/06/00/53/squash-3978204_1280.jpg"
    },
    {
        "id": "1785505",
        "src640": "https://cdn.pixabay.com/photo/2016/10/31/12/56/christmas-1785505_640.jpg",
        "src1280": "https://cdn.pixabay.com/photo/2016/10/31/12/56/christmas-1785505_1280.jpg"
    },
    {
        "id": "4280796",
        "src640": "https://cdn.pixabay.com/photo/2019/06/17/19/58/stones-4280796_640.jpg",
        "src1280": "https://cdn.pixabay.com/photo/2019/06/17/19/58/stones-4280796_1280.jpg"
    },
    {
        "id": "4979079",
        "src640": "https://cdn.pixabay.com/photo/2020/03/29/02/29/flower-4979079_640.jpg",
        "src1280": "https://cdn.pixabay.com/photo/2020/03/29/02/29/flower-4979079_1280.jpg"
    },
    {
        "id": "5004162",
        "src640": "https://cdn.pixabay.com/photo/2020/04/05/00/11/tulip-5004162_640.jpg",
        "src1280": "https://cdn.pixabay.com/photo/2020/04/05/00/11/tulip-5004162_1280.jpg"
    },
    {
        "id": "3741702",
        "src640": "https://cdn.pixabay.com/photo/2018/10/12/08/31/wood-fibre-boards-3741702_640.jpg",
        "src1280": "https://cdn.pixabay.com/photo/2018/10/12/08/31/wood-fibre-boards-3741702_1280.jpg"
    },
    {
        "id": "4991419",
        "src640": "https://cdn.pixabay.com/photo/2020/04/01/14/48/bird-4991419_640.jpg",
        "src1280": "https://cdn.pixabay.com/photo/2020/04/01/14/48/bird-4991419_1280.jpg"
    },
    {
        "id": "6773931",
        "src640": "https://cdn.pixabay.com/photo/2021/11/06/17/40/wooden-boards-6773931_640.jpg",
        "src1280": "https://cdn.pixabay.com/photo/2021/11/06/17/40/wooden-boards-6773931_1280.jpg"
    },
    {
        "id": "3574633",
        "src640": "https://cdn.pixabay.com/photo/2018/07/31/09/51/butterfly-3574633_640.jpg",
        "src1280": "https://cdn.pixabay.com/photo/2018/07/31/09/51/butterfly-3574633_1280.jpg"
    },
    {
        "id": "2068602",
        "src640": "https://cdn.pixabay.com/photo/2017/02/15/12/57/abstract-2068602_640.jpg",
        "src1280": "https://cdn.pixabay.com/photo/2017/02/15/12/57/abstract-2068602_1280.jpg"
    },
    {
        "id": "4648124",
        "src640": "https://cdn.pixabay.com/photo/2019/11/23/21/06/walnuts-4648124_640.jpg",
        "src1280": "https://cdn.pixabay.com/photo/2019/11/23/21/06/walnuts-4648124_1280.jpg"
    },
    {
        "id": "7287490",
        "src640": "https://cdn.pixabay.com/photo/2022/06/27/13/08/wallpaper-7287490_640.jpg",
        "src1280": "https://cdn.pixabay.com/photo/2022/06/27/13/08/wallpaper-7287490_1280.jpg"
    },
    {
        "id": "983440",
        "src640": "https://cdn.pixabay.com/photo/2015/10/12/06/01/sunset-983440_640.jpg",
        "src1280": "https://cdn.pixabay.com/photo/2015/10/12/06/01/sunset-983440_1280.jpg"
    },
    {
        "id": "2649910",
        "src640": "https://cdn.pixabay.com/photo/2017/08/17/03/24/love-you-2649910_640.jpg",
        "src1280": "https://cdn.pixabay.com/photo/2017/08/17/03/24/love-you-2649910_1280.jpg"
    },
    {
        "id": "4940874",
        "src640": "https://cdn.pixabay.com/photo/2020/03/17/15/50/butterfly-4940874_640.jpg",
        "src1280": "https://cdn.pixabay.com/photo/2020/03/17/15/50/butterfly-4940874_1280.jpg"
    },
    {
        "id": "3455336",
        "src640": "https://cdn.pixabay.com/photo/2018/06/05/11/50/outdoors-3455336_640.jpg",
        "src1280": "https://cdn.pixabay.com/photo/2018/06/05/11/50/outdoors-3455336_1280.jpg"
    },
    {
        "id": "2972447",
        "src640": "https://cdn.pixabay.com/photo/2017/11/23/09/36/business-2972447_640.jpg",
        "src1280": "https://cdn.pixabay.com/photo/2017/11/23/09/36/business-2972447_1280.jpg"
    },
    {
        "id": "4866963",
        "src640": "https://cdn.pixabay.com/photo/2020/02/21/09/12/insect-4866963_640.jpg",
        "src1280": "https://cdn.pixabay.com/photo/2020/02/21/09/12/insect-4866963_1280.jpg"
    },
    {
        "id": "3648587",
        "src640": "https://cdn.pixabay.com/photo/2018/09/02/11/28/rope-3648587_640.jpg",
        "src1280": "https://cdn.pixabay.com/photo/2018/09/02/11/28/rope-3648587_1280.jpg"
    },
    {
        "id": "4882328",
        "src640": "https://cdn.pixabay.com/photo/2020/02/26/17/00/banana-4882328_640.jpg",
        "src1280": "https://cdn.pixabay.com/photo/2020/02/26/17/00/banana-4882328_1280.jpg"
    },
    {
        "id": "6710343",
        "src640": "https://cdn.pixabay.com/photo/2021/10/14/21/01/train-6710343_640.jpg",
        "src1280": "https://cdn.pixabay.com/photo/2021/10/14/21/01/train-6710343_1280.jpg"
    },
    {
        "id": "6715240",
        "src640": "https://cdn.pixabay.com/photo/2021/10/16/14/28/dry-ground-6715240_640.jpg",
        "src1280": "https://cdn.pixabay.com/photo/2021/10/16/14/28/dry-ground-6715240_1280.jpg"
    },
    {
        "id": "5219452",
        "src640": "https://cdn.pixabay.com/photo/2020/05/25/16/49/flower-5219452_640.jpg",
        "src1280": "https://cdn.pixabay.com/photo/2020/05/25/16/49/flower-5219452_1280.jpg"
    },
    {
        "id": "5348626",
        "src640": "https://cdn.pixabay.com/photo/2020/06/28/09/36/poppy-5348626_640.jpg",
        "src1280": "https://cdn.pixabay.com/photo/2020/06/28/09/36/poppy-5348626_1280.jpg"
    },
    {
        "id": "4824187",
        "src640": "https://cdn.pixabay.com/photo/2020/02/06/12/54/ocean-4824187_640.jpg",
        "src1280": "https://cdn.pixabay.com/photo/2020/02/06/12/54/ocean-4824187_1280.jpg"
    },
    {
        "id": "2830369",
        "src640": "https://cdn.pixabay.com/photo/2017/10/08/15/48/esenkoy-2830369_640.jpg",
        "src1280": "https://cdn.pixabay.com/photo/2017/10/08/15/48/esenkoy-2830369_1280.jpg"
    },
    {
        "id": "4993051",
        "src640": "https://cdn.pixabay.com/photo/2020/04/02/00/35/flowers-4993051_640.jpg",
        "src1280": "https://cdn.pixabay.com/photo/2020/04/02/00/35/flowers-4993051_1280.jpg"
    },
    {
        "id": "5363236",
        "src640": "https://cdn.pixabay.com/photo/2020/07/02/14/49/bird-5363236_640.jpg",
        "src1280": "https://cdn.pixabay.com/photo/2020/07/02/14/49/bird-5363236_1280.jpg"
    },
    {
        "id": "6941478",
        "src640": "https://cdn.pixabay.com/photo/2022/01/16/08/48/incandescent-6941478_640.jpg",
        "src1280": "https://cdn.pixabay.com/photo/2022/01/16/08/48/incandescent-6941478_1280.jpg"
    },
    {
        "id": "6156783",
        "src640": "https://cdn.pixabay.com/photo/2021/04/06/16/14/strawberry-6156783_640.jpg",
        "src1280": "https://cdn.pixabay.com/photo/2021/04/06/16/14/strawberry-6156783_1280.jpg"
    },
    {
        "id": "7759224",
        "src640": "https://cdn.pixabay.com/photo/2023/01/31/23/35/petals-7759224_640.jpg",
        "src1280": "https://cdn.pixabay.com/photo/2023/01/31/23/35/petals-7759224_1280.jpg"
    },
    {
        "id": "3942478",
        "src640": "https://cdn.pixabay.com/photo/2019/01/19/19/54/elephant-3942478_640.jpg",
        "src1280": "https://cdn.pixabay.com/photo/2019/01/19/19/54/elephant-3942478_1280.jpg"
    },
    {
        "id": "6694509",
        "src640": "https://cdn.pixabay.com/photo/2021/10/09/15/45/blue-flower-6694509_640.jpg",
        "src1280": "https://cdn.pixabay.com/photo/2021/10/09/15/45/blue-flower-6694509_1280.jpg"
    },
    {
        "id": "3089324",
        "src640": "https://cdn.pixabay.com/photo/2018/01/18/00/25/pattern-3089324_640.jpg",
        "src1280": "https://cdn.pixabay.com/photo/2018/01/18/00/25/pattern-3089324_1280.jpg"
    },
    {
        "id": "6952060",
        "src640": "https://cdn.pixabay.com/photo/2022/01/20/11/35/wall-6952060_640.jpg",
        "src1280": "https://cdn.pixabay.com/photo/2022/01/20/11/35/wall-6952060_1280.jpg"
    },
    {
        "id": "7404528",
        "src640": "https://cdn.pixabay.com/photo/2022/08/22/20/41/bird-7404528_640.jpg",
        "src1280": "https://cdn.pixabay.com/photo/2022/08/22/20/41/bird-7404528_1280.jpg"
    },
    {
        "id": "7487831",
        "src640": "https://cdn.pixabay.com/photo/2022/09/29/18/46/monument-7487831_640.jpg",
        "src1280": "https://cdn.pixabay.com/photo/2022/09/29/18/46/monument-7487831_1280.jpg"
    },
    {
        "id": "220306",
        "src640": "https://cdn.pixabay.com/photo/2013/11/28/11/31/girl-220306_640.jpg",
        "src1280": "https://cdn.pixabay.com/photo/2013/11/28/11/31/girl-220306_1280.jpg"
    },
    {
        "id": "4514921",
        "src640": "https://cdn.pixabay.com/photo/2019/09/30/06/08/fashion-4514921_640.jpg",
        "src1280": "https://cdn.pixabay.com/photo/2019/09/30/06/08/fashion-4514921_1280.jpg"
    },
    {
        "id": "2721673",
        "src640": "https://cdn.pixabay.com/photo/2017/09/06/14/26/blue-2721673_640.jpg",
        "src1280": "https://cdn.pixabay.com/photo/2017/09/06/14/26/blue-2721673_1280.jpg"
    },
    {
        "id": "4427326",
        "src640": "https://cdn.pixabay.com/photo/2019/08/24/10/07/fog-4427326_640.jpg",
        "src1280": "https://cdn.pixabay.com/photo/2019/08/24/10/07/fog-4427326_1280.jpg"
    },
    {
        "id": "4967495",
        "src640": "https://cdn.pixabay.com/photo/2020/03/25/14/24/fashion-4967495_640.jpg",
        "src1280": "https://cdn.pixabay.com/photo/2020/03/25/14/24/fashion-4967495_1280.jpg"
    },
    {
        "id": "4386411",
        "src640": "https://cdn.pixabay.com/photo/2019/08/05/16/27/colors-4386411_640.jpg",
        "src1280": "https://cdn.pixabay.com/photo/2019/08/05/16/27/colors-4386411_1280.jpg"
    },
    {
        "id": "6765812",
        "src640": "https://cdn.pixabay.com/photo/2021/11/03/13/18/new-year-6765812_640.jpg",
        "src1280": "https://cdn.pixabay.com/photo/2021/11/03/13/18/new-year-6765812_1280.jpg"
    },
    {
        "id": "3478760",
        "src640": "https://cdn.pixabay.com/photo/2018/06/16/13/36/sunrise-3478760_640.jpg",
        "src1280": "https://cdn.pixabay.com/photo/2018/06/16/13/36/sunrise-3478760_1280.jpg"
    },
    {
        "id": "5212771",
        "src640": "https://cdn.pixabay.com/photo/2020/05/24/07/18/butterfly-5212771_640.jpg",
        "src1280": "https://cdn.pixabay.com/photo/2020/05/24/07/18/butterfly-5212771_1280.jpg"
    },
    {
        "id": "2608975",
        "src640": "https://cdn.pixabay.com/photo/2017/08/07/23/10/tree-2608975_640.jpg",
        "src1280": "https://cdn.pixabay.com/photo/2017/08/07/23/10/tree-2608975_1280.jpg"
    },
    {
        "id": "5391711",
        "src640": "https://cdn.pixabay.com/photo/2020/07/10/18/52/cormorant-5391711_640.jpg",
        "src1280": "https://cdn.pixabay.com/photo/2020/07/10/18/52/cormorant-5391711_1280.jpg"
    },
    {
        "id": "3632677",
        "src640": "https://cdn.pixabay.com/photo/2018/08/26/16/47/pylon-3632677_640.jpg",
        "src1280": "https://cdn.pixabay.com/photo/2018/08/26/16/47/pylon-3632677_1280.jpg"
    },
    {
        "id": "3270718",
        "src640": "https://cdn.pixabay.com/photo/2018/03/28/21/54/wavy-3270718_640.jpg",
        "src1280": "https://cdn.pixabay.com/photo/2018/03/28/21/54/wavy-3270718_1280.jpg"
    },
    {
        "id": "3764643",
        "src640": "https://cdn.pixabay.com/photo/2018/10/22/07/07/foliage-3764643_640.jpg",
        "src1280": "https://cdn.pixabay.com/photo/2018/10/22/07/07/foliage-3764643_1280.jpg"
    },
    {
        "id": "4687334",
        "src640": "https://cdn.pixabay.com/photo/2019/12/11/03/13/sunset-4687334_640.jpg",
        "src1280": "https://cdn.pixabay.com/photo/2019/12/11/03/13/sunset-4687334_1280.jpg"
    },
    {
        "id": "4784015",
        "src640": "https://cdn.pixabay.com/photo/2020/01/21/21/24/rum-4784015_640.jpg",
        "src1280": "https://cdn.pixabay.com/photo/2020/01/21/21/24/rum-4784015_1280.jpg"
    },
    {
        "id": "5377388",
        "src640": "https://cdn.pixabay.com/photo/2020/07/06/15/20/park-5377388_640.jpg",
        "src1280": "https://cdn.pixabay.com/photo/2020/07/06/15/20/park-5377388_1280.jpg"
    },
    {
        "id": "5822564",
        "src640": "https://cdn.pixabay.com/photo/2020/12/11/11/16/sanwiches-5822564_640.jpg",
        "src1280": "https://cdn.pixabay.com/photo/2020/12/11/11/16/sanwiches-5822564_1280.jpg"
    },
    {
        "id": "5056146",
        "src640": "https://cdn.pixabay.com/photo/2020/04/17/17/18/flower-5056146_640.jpg",
        "src1280": "https://cdn.pixabay.com/photo/2020/04/17/17/18/flower-5056146_1280.jpg"
    },
    {
        "id": "7711470",
        "src640": "https://cdn.pixabay.com/photo/2023/01/11/11/42/marijuana-7711470_640.jpg",
        "src1280": "https://cdn.pixabay.com/photo/2023/01/11/11/42/marijuana-7711470_1280.jpg"
    },
    {
        "id": "895392",
        "src640": "https://cdn.pixabay.com/photo/2015/08/19/01/57/abstract-895392_640.jpg",
        "src1280": "https://cdn.pixabay.com/photo/2015/08/19/01/57/abstract-895392_1280.jpg"
    },
    {
        "id": "4504681",
        "src640": "https://cdn.pixabay.com/photo/2019/09/25/21/11/flowers-4504681_640.jpg",
        "src1280": "https://cdn.pixabay.com/photo/2019/09/25/21/11/flowers-4504681_1280.jpg"
    },
    {
        "id": "4523503",
        "src640": "https://cdn.pixabay.com/photo/2019/10/03/14/31/window-4523503_640.jpg",
        "src1280": "https://cdn.pixabay.com/photo/2019/10/03/14/31/window-4523503_1280.jpg"
    },
    {
        "id": "4961376",
        "src640": "https://cdn.pixabay.com/photo/2020/03/23/16/43/kettlebell-4961376_640.jpg",
        "src1280": "https://cdn.pixabay.com/photo/2020/03/23/16/43/kettlebell-4961376_1280.jpg"
    }
]