[
    {
        "id": "2766445",
        "src640": "https://cdn.pixabay.com/photo/2017/09/19/20/10/breakfast-2766445_640.jpg",
        "src1280": "https://cdn.pixabay.com/photo/2017/09/19/20/10/breakfast-2766445_1280.jpg"
    },
    {
        "id": "2080245",
        "src640": "https://cdn.pixabay.com/photo/2017/02/19/16/38/small-business-2080245_640.jpg",
        "src1280": "https://cdn.pixabay.com/photo/2017/02/19/16/38/small-business-2080245_1280.jpg"
    },
    {
        "id": "182472",
        "src640": "https://cdn.pixabay.com/photo/2013/09/15/12/38/candles-182472_640.jpg",
        "src1280": "https://cdn.pixabay.com/photo/2013/09/15/12/38/candles-182472_1280.jpg"
    },
    {
        "id": "7498340",
        "src640": "https://cdn.pixabay.com/photo/2022/10/04/14/21/birds-7498340_640.jpg",
        "src1280": "https://cdn.pixabay.com/photo/2022/10/04/14/21/birds-7498340_1280.jpg"
    },
    {
        "id": "5197598",
        "src640": "https://cdn.pixabay.com/photo/2020/05/20/18/00/flower-5197598_640.jpg",
        "src1280": "https://cdn.pixabay.com/photo/2020/05/20/18/00/flower-5197598_1280.jpg"
    },
    {
        "id": "1245312",
        "src640": "https://cdn.pixabay.com/photo/2016/03/09/04/30/nature-1245312_640.jpg",
        "src1280": "https://cdn.pixabay.com/photo/2016/03/09/04/30/nature-1245312_1280.jpg"
    },
    {
        "id": "5367036",
        "src640": "https://cdn.pixabay.com/photo/2020/07/03/17/00/mountains-5367036_640.jpg",
        "src1280": "https://cdn.pixabay.com/photo/2020/07/03/17/00/mountains-5367036_1280.jpg"
    },
    {
        "id": "4428198",
        "src640": "https://cdn.pixabay.com/photo/2019/08/24/19/11/fog-4428198_640.jpg",
        "src1280": "https://cdn.pixabay.com/photo/2019/08/24/19/11/fog-4428198_1280.jpg"
    },
    {
        "id": "4774458",
        "src640": "https://cdn.pixabay.com/photo/2020/01/18/05/37/pink-4774458_640.jpg",
        "src1280": "https://cdn.pixabay.com/photo/2020/01/18/05/37/pink-4774458_1280.jpg"
    },
    {
        "id": "215780",
        "src640": "https://cdn.pixabay.com/photo/2013/11/22/17/23/bamboo-215780_640.jpg",
        "src1280": "https://cdn.pixabay.com/photo/2013/11/22/17/23/bamboo-215780_1280.jpg"
    },
    {
        "id": "4724321",
        "src640": "https://cdn.pixabay.com/photo/2019/12/28/11/06/plant-4724321_640.jpg",
        "src1280": "https://cdn.pixabay.com/photo/2019/12/28/11/06/plant-4724321_1280.jpg"
    },
    {
        "id": "4570816",
        "src640": "https://cdn.pixabay.com/photo/2019/10/23/08/24/meadow-4570816_640.jpg",
        "src1280": "https://cdn.pixabay.com/photo/2019/10/23/08/24/meadow-4570816_1280.jpg"
    },
    {
        "id": "6873955",
        "src640": "https://cdn.pixabay.com/photo/2021/12/16/07/30/dog-6873955_640.jpg",
        "src1280": "https://cdn.pixabay.com/photo/2021/12/16/07/30/dog-6873955_1280.jpg"
    },
    {
        "id": "4639213",
        "src640": "https://cdn.pixabay.com/photo/2019/11/20/06/10/carpet-4639213_640.jpg",
        "src1280": "https://cdn.pixabay.com/photo/2019/11/20/06/10/carpet-4639213_1280.jpg"
    },
    {
        "id": "6833046",
        "src640": "https://cdn.pixabay.com/photo/2021/11/29/16/56/frame-6833046_640.jpg",
        "src1280": "https://cdn.pixabay.com/photo/2021/11/29/16/56/frame-6833046_1280.jpg"
    },
    {
        "id": "1177446",
        "src640": "https://cdn.pixabay.com/photo/2016/02/03/16/54/flowers-1177446_640.jpg",
        "src1280": "https://cdn.pixabay.com/photo/2016/02/03/16/54/flowers-1177446_1280.jpg"
    },
    {
        "id": "7404529",
        "src640": "https://cdn.pixabay.com/photo/2022/08/22/20/41/bird-7404529_640.jpg",
        "src1280": "https://cdn.pixabay.com/photo/2022/08/22/20/41/bird-7404529_1280.jpg"
    },
    {
        "id": "6712923",
        "src640": "https://cdn.pixabay.com/photo/2021/10/15/15/37/foliages-6712923_640.jpg",
        "src1280": "https://cdn.pixabay.com/photo/2021/10/15/15/37/foliages-6712923_1280.jpg"
    },
    {
        "id": "1551554",
        "src640": "https://cdn.pixabay.com/photo/2016/07/29/08/54/ball-1551554_640.jpg",
        "src1280": "https://cdn.pixabay.com/photo/2016/07/29/08/54/ball-1551554_1280.jpg"
    },
    {
        "id": "5080208",
        "src640": "https://cdn.pixabay.com/photo/2020/04/22/21/48/macro-5080208_640.jpg",
        "src1280": "https://cdn.pixabay.com/photo/2020/04/22/21/48/macro-5080208_1280.jpg"
    },
    {
        "id": "7246848",
        "src640": "https://cdn.pixabay.com/photo/2022/06/06/19/36/sailboat-7246848_640.jpg",
        "src1280": "https://cdn.pixabay.com/photo/2022/06/06/19/36/sailboat-7246848_1280.jpg"
    },
    {
        "id": "6942375",
        "src640": "https://cdn.pixabay.com/photo/2022/01/16/15/31/creativity-6942375_640.jpg",
        "src1280": "https://cdn.pixabay.com/photo/2022/01/16/15/31/creativity-6942375_1280.jpg"
    },
    {
        "id": "3964518",
        "src640": "https://cdn.pixabay.com/photo/2019/01/30/12/46/splash-screen-3964518_640.jpg",
        "src1280": "https://cdn.pixabay.com/photo/2019/01/30/12/46/splash-screen-3964518_1280.jpg"
    },
    {
        "id": "2768447",
        "src640": "https://cdn.pixabay.com/photo/2017/09/20/13/00/statue-2768447_640.jpg",
        "src1280": "https://cdn.pixabay.com/photo/2017/09/20/13/00/statue-2768447_1280.jpg"
    },
    {
        "id": "3875824",
        "src640": "https://cdn.pixabay.com/photo/2018/12/14/21/31/christmas-3875824_640.jpg",
        "src1280": "https://cdn.pixabay.com/photo/2018/12/14/21/31/christmas-3875824_1280.jpg"
    },
    {
        "id": "2109",
        "src640": "https://cdn.pixabay.com/photo/2010/12/13/10/01/waterlily-2109_640.jpg",
        "src1280": "https://cdn.pixabay.com/photo/2010/12/13/10/01/waterlily-2109_1280.jpg"
    },
    {
        "id": "7474760",
        "src640": "https://cdn.pixabay.com/photo/2022/09/23/16/21/hd-7474760_640.jpg",
        "src1280": "https://cdn.pixabay.com/photo/2022/09/23/16/21/hd-7474760_1280.jpg"
    },
    {
        "id": "6883781",
        "src640": "https://cdn.pixabay.com/photo/2021/12/20/18/58/pine-cones-6883781_640.jpg",
        "src1280": "https://cdn.pixabay.com/photo/2021/12/20/18/58/pine-cones-6883781_1280.jpg"
    },
    {
        "id": "7421089",
        "src640": "https://cdn.pixabay.com/photo/2022/08/30/13/17/hummingbird-7421089_640.jpg",
        "src1280": "https://cdn.pixabay.com/photo/2022/08/30/13/17/hummingbird-7421089_1280.jpg"
    },
    {
        "id": "4669136",
        "src640": "https://cdn.pixabay.com/photo/2019/12/03/02/58/white-cow-4669136_640.jpg",
        "src1280": "https://cdn.pixabay.com/photo/2019/12/03/02/58/white-cow-4669136_1280.jpg"
    },
    {
        "id": "5177819",
        "src640": "https://cdn.pixabay.com/photo/2020/05/16/14/38/flower-5177819_640.jpg",
        "src1280": "https://cdn.pixabay.com/photo/2020/05/16/14/38/flower-5177819_1280.jpg"
    },
    {
        "id": "2649538",
        "src640": "https://cdn.pixabay.com/photo/2017/08/16/23/47/flower-2649538_640.jpg",
        "src1280": "https://cdn.pixabay.com/photo/2017/08/16/23/47/flower-2649538_1280.jpg"
    },
    {
        "id": "4027607",
        "src640": "https://cdn.pixabay.com/photo/2019/03/01/09/37/sunset-4027607_640.jpg",
        "src1280": "https://cdn.pixabay.com/photo/2019/03/01/09/37/sunset-4027607_1280.jpg"
    },
    {
        "id": "921829",
        "src640": "https://cdn.pixabay.com/photo/2015/09/04/09/45/vine-921829_640.jpg",
        "src1280": "https://cdn.pixabay.com/photo/2015/09/04/09/45/vine-921829_1280.jpg"
    },
    {
        "id": "4399969",
        "src640": "https://cdn.pixabay.com/photo/2019/08/11/21/31/vine-4399969_640.jpg",
        "src1280": "https://cdn.pixabay.com/photo/2019/08/11/21/31/vine-4399969_1280.jpg"
    },
    {
        "id": "4886603",
        "src640": "https://cdn.pixabay.com/photo/2020/02/28/06/38/tulips-4886603_640.jpg",
        "src1280": "https://cdn.pixabay.com/photo/2020/02/28/06/38/tulips-4886603_1280.jpg"
    },
    {
        "id": "4478716",
        "src640": "https://cdn.pixabay.com/photo/2019/09/15/16/29/tulip-4478716_640.jpg",
        "src1280": "https://cdn.pixabay.com/photo/2019/09/15/16/29/tulip-4478716_1280.jpg"
    },
    {
        "id": "4483376",
        "src640": "https://cdn.pixabay.com/photo/2019/09/17/12/37/fashion-4483376_640.jpg",
        "src1280": "https://cdn.pixabay.com/photo/2019/09/17/12/37/fashion-4483376_1280.jpg"
    },
    {
        "id": "5063424",
        "src640": "https://cdn.pixabay.com/photo/2020/04/19/12/35/bud-5063424_640.jpg",
        "src1280": "https://cdn.pixabay.com/photo/2020/04/19/12/35/bud-5063424_1280.jpg"
    },
    {
        "id": "14186",
        "src640": "https://cdn.pixabay.com/photo/2012/02/17/14/54/flagstones-14186_640.jpg",
        "src1280": "https://cdn.pixabay.com/photo/2012/02/17/14/54/flagstones-14186_1280.jpg"
    },
    {
        "id": "4747099",
        "src640": "https://cdn.pixabay.com/photo/2020/01/07/09/16/black-background-4747099_640.jpg",
        "src1280": "https://cdn.pixabay.com/photo/2020/01/07/09/16/black-background-4747099_1280.jpg"
    },
    {
        "id": "4963876",
        "src640": "https://cdn.pixabay.com/photo/2020/03/24/12/13/wazka-4963876_640.jpg",
        "src1280": "https://cdn.pixabay.com/photo/2020/03/24/12/13/wazka-4963876_1280.jpg"
    },
    {
        "id": "5985792",
        "src640": "https://cdn.pixabay.com/photo/2021/02/05/20/38/abstract-5985792_640.jpg",
        "src1280": "https://cdn.pixabay.com/photo/2021/02/05/20/38/abstract-5985792_1280.jpg"
    },
    {
        "id": "7855334",
        "src640": "https://cdn.pixabay.com/photo/2023/03/15/20/08/garden-7855334_640.jpg",
        "src1280": "https://cdn.pixabay.com/photo/2023/03/15/20/08/garden-7855334_1280.jpg"
    },
    {
        "id": "5339920",
        "src640": "https://cdn.pixabay.com/photo/2020/06/25/14/52/light-painting-5339920_640.jpg",
        "src1280": "https://cdn.pixabay.com/photo/2020/06/25/14/52/light-painting-5339920_1280.jpg"
    },
    {
        "id": "7301797",
        "src640": "https://cdn.pixabay.com/photo/2022/07/04/19/21/cat-7301797_640.jpg",
        "src1280": "https://cdn.pixabay.com/photo/2022/07/04/19/21/cat-7301797_1280.jpg"
    },
    {
        "id": "6712572",
        "src640": "https://cdn.pixabay.com/photo/2021/10/15/13/18/tacos-6712572_640.jpg",
        "src1280": "https://cdn.pixabay.com/photo/2021/10/15/13/18/tacos-6712572_1280.jpg"
    },
    {
        "id": "6810128",
        "src640": "https://cdn.pixabay.com/photo/2021/11/19/19/28/businesswoman-6810128_640.jpg",
        "src1280": "https://cdn.pixabay.com/photo/2021/11/19/19/28/businesswoman-6810128_1280.jpg"
    },
    {
        "id": "5459233",
        "src640": "https://cdn.pixabay.com/photo/2020/08/03/05/52/sun-5459233_640.jpg",
        "src1280": "https://cdn.pixabay.com/photo/2020/08/03/05/52/sun-5459233_1280.jpg"
    },
    {
        "id": "7474774",
        "src640": "https://cdn.pixabay.com/photo/2022/09/23/16/26/wallpaper-7474774_640.jpg",
        "src1280": "https://cdn.pixabay.com/photo/2022/09/23/16/26/wallpaper-7474774_1280.jpg"
    },
    {
        "id": "3831830",
        "src640": "https://cdn.pixabay.com/photo/2018/11/22/12/49/clothing-3831830_640.jpg",
        "src1280": "https://cdn.pixabay.com/photo/2018/11/22/12/49/clothing-3831830_1280.jpg"
    },
    {
        "id": "1552414",
        "src640": "https://cdn.pixabay.com/photo/2016/07/29/10/45/background-1552414_640.jpg",
        "src1280": "https://cdn.pixabay.com/photo/2016/07/29/10/45/background-1552414_1280.jpg"
    },
    {
        "id": "6895647",
        "src640": "https://cdn.pixabay.com/photo/2021/12/26/18/04/wood-6895647_640.jpg",
        "src1280": "https://cdn.pixabay.com/photo/2021/12/26/18/04/wood-6895647_1280.jpg"
    },
    {
        "id": "1282318",
        "src640": "https://cdn.pixabay.com/photo/2016/03/27/07/34/healthy-1282318_640.jpg",
        "src1280": "https://cdn.pixabay.com/photo/2016/03/27/07/34/healthy-1282318_1280.jpg"
    },
    {
        "id": "1170135",
        "src640": "https://cdn.pixabay.com/photo/2016/01/30/17/51/orange-tiger-lily-1170135_640.jpg",
        "src1280": "https://cdn.pixabay.com/photo/2016/01/30/17/51/orange-tiger-lily-1170135_1280.jpg"
    },
    {
        "id": "3897359",
        "src640": "https://cdn.pixabay.com/photo/2018/12/27/10/35/fashion-3897359_640.jpg",
        "src1280": "https://cdn.pixabay.com/photo/2018/12/27/10/35/fashion-3897359_1280.jpg"
    },
    {
        "id": "166864",
        "src640": "https://cdn.pixabay.com/photo/2013/07/25/11/52/candles-166864_640.jpg",
        "src1280": "https://cdn.pixabay.com/photo/2013/07/25/11/52/candles-166864_1280.jpg"
    },
    {
        "id": "7426047",
        "src640": "https://cdn.pixabay.com/photo/2022/09/01/19/04/dog-7426047_640.jpg",
        "src1280": "https://cdn.pixabay.com/photo/2022/09/01/19/04/dog-7426047_1280.jpg"
    },
    {
        "id": "965810",
        "src640": "https://cdn.pixabay.com/photo/2015/09/30/17/27/texture-965810_640.jpg",
        "src1280": "https://cdn.pixabay.com/photo/2015/09/30/17/27/texture-965810_1280.jpg"
    },
    {
        "id": "5306136",
        "src640": "https://cdn.pixabay.com/photo/2020/06/16/15/20/bug-5306136_640.jpg",
        "src1280": "https://cdn.pixabay.com/photo/2020/06/16/15/20/bug-5306136_1280.jpg"
    },
    {
        "id": "4660133",
        "src640": "https://cdn.pixabay.com/photo/2019/11/28/22/08/flower-4660133_640.jpg",
        "src1280": "https://cdn.pixabay.com/photo/2019/11/28/22/08/flower-4660133_1280.jpg"
    },
    {
        "id": "4126563",
        "src640": "https://cdn.pixabay.com/photo/2019/04/14/11/43/tulip-4126563_640.jpg",
        "src1280": "https://cdn.pixabay.com/photo/2019/04/14/11/43/tulip-4126563_1280.jpg"
    },
    {
        "id": "7631596",
        "src640": "https://cdn.pixabay.com/photo/2022/12/02/20/33/temple-7631596_640.jpg",
        "src1280": "https://cdn.pixabay.com/photo/2022/12/02/20/33/temple-7631596_1280.jpg"
    },
    {
        "id": "3622297",
        "src640": "https://cdn.pixabay.com/photo/2018/08/21/22/16/wood-fibre-boards-3622297_640.jpg",
        "src1280": "https://cdn.pixabay.com/photo/2018/08/21/22/16/wood-fibre-boards-3622297_1280.jpg"
    },
    {
        "id": "4588032",
        "src640": "https://cdn.pixabay.com/photo/2019/10/29/20/13/orange-4588032_640.jpg",
        "src1280": "https://cdn.pixabay.com/photo/2019/10/29/20/13/orange-4588032_1280.jpg"
    },
    {
        "id": "5022289",
        "src640": "https://cdn.pixabay.com/photo/2020/04/09/16/55/knife-5022289_640.jpg",
        "src1280": "https://cdn.pixabay.com/photo/2020/04/09/16/55/knife-5022289_1280.jpg"
    },
    {
        "id": "6211874",
        "src640": "https://cdn.pixabay.com/photo/2021/04/27/16/08/avocados-6211874_640.jpg",
        "src1280": "https://cdn.pixabay.com/photo/2021/04/27/16/08/avocados-6211874_1280.jpg"
    },
    {
        "id": "7519164",
        "src640": "https://cdn.pixabay.com/photo/2022/10/13/13/53/english-cocker-spaniel-7519164_640.jpg",
        "src1280": "https://cdn.pixabay.com/photo/2022/10/13/13/53/english-cocker-spaniel-7519164_1280.jpg"
    },
    {
        "id": "3264707",
        "src640": "https://cdn.pixabay.com/photo/2018/03/27/00/29/desktop-3264707_640.jpg",
        "src1280": "https://cdn.pixabay.com/photo/2018/03/27/00/29/desktop-3264707_1280.jpg"
    },
    {
        "id": "5901142",
        "src640": "https://cdn.pixabay.com/photo/2021/01/09/01/49/leaves-5901142_640.jpg",
        "src1280": "https://cdn.pixabay.com/photo/2021/01/09/01/49/leaves-5901142_1280.jpg"
    },
    {
        "id": "2380599",
        "src640": "https://cdn.pixabay.com/photo/2017/06/07/15/04/grass-2380599_640.jpg",
        "src1280": "https://cdn.pixabay.com/photo/2017/06/07/15/04/grass-2380599_1280.jpg"
    },
    {
        "id": "3182681",
        "src640": "https://cdn.pixabay.com/photo/2018/02/26/10/11/lens-3182681_640.jpg",
        "src1280": "https://cdn.pixabay.com/photo/2018/02/26/10/11/lens-3182681_1280.jpg"
    },
    {
        "id": "912764",
        "src640": "https://cdn.pixabay.com/photo/2015/08/29/05/01/wine-912764_640.jpg",
        "src1280": "https://cdn.pixabay.com/photo/2015/08/29/05/01/wine-912764_1280.jpg"
    },
    {
        "id": "1745453",
        "src640": "https://cdn.pixabay.com/photo/2016/10/16/15/33/pedestrian-crossing-sign-1745453_640.jpg",
        "src1280": "https://cdn.pixabay.com/photo/2016/10/16/15/33/pedestrian-crossing-sign-1745453_1280.jpg"
    },
    {
        "id": "164867",
        "src640": "https://cdn.pixabay.com/photo/2013/07/18/20/24/beautiful-164867_640.jpg",
        "src1280": "https://cdn.pixabay.com/photo/2013/07/18/20/24/beautiful-164867_1280.jpg"
    },
    {
        "id": "3847146",
        "src640": "https://cdn.pixabay.com/photo/2018/11/30/07/15/male-3847146_640.jpg",
        "src1280": "https://cdn.pixabay.com/photo/2018/11/30/07/15/male-3847146_1280.jpg"
    },
    {
        "id": "3493232",
        "src640": "https://cdn.pixabay.com/photo/2018/06/23/18/14/orchid-3493232_640.jpg",
        "src1280": "https://cdn.pixabay.com/photo/2018/06/23/18/14/orchid-3493232_1280.jpg"
    },
    {
        "id": "2398445",
        "src640": "https://cdn.pixabay.com/photo/2017/06/13/11/08/bamboo-2398445_640.jpg",
        "src1280": "https://cdn.pixabay.com/photo/2017/06/13/11/08/bamboo-2398445_1280.jpg"
    },
    {
        "id": "5319826",
        "src640": "https://cdn.pixabay.com/photo/2020/06/20/06/26/ivy-5319826_640.jpg",
        "src1280": "https://cdn.pixabay.com/photo/2020/06/20/06/26/ivy-5319826_1280.jpg"
    },
    {
        "id": "763129",
        "src640": "https://cdn.pixabay.com/photo/2015/05/11/21/11/faded-color-763129_640.jpg",
        "src1280": "https://cdn.pixabay.com/photo/2015/05/11/21/11/faded-color-763129_1280.jpg"
    },
    {
        "id": "3279237",
        "src640": "https://cdn.pixabay.com/photo/2018/03/31/20/23/blossom-3279237_640.jpg",
        "src1280": "https://cdn.pixabay.com/photo/2018/03/31/20/23/blossom-3279237_1280.jpg"
    },
    {
        "id": "2002669",
        "src640": "https://cdn.pixabay.com/photo/2017/01/23/14/02/share-icon-2002669_640.jpg",
        "src1280": "https://cdn.pixabay.com/photo/2017/01/23/14/02/share-icon-2002669_1280.jpg"
    },
    {
        "id": "3715174",
        "src640": "https://cdn.pixabay.com/photo/2018/10/01/02/05/decor-3715174_640.jpg",
        "src1280": "https://cdn.pixabay.com/photo/2018/10/01/02/05/decor-3715174_1280.jpg"
    },
    {
        "id": "7431822",
        "src640": "https://cdn.pixabay.com/photo/2022/09/04/14/08/beach-7431822_640.jpg",
        "src1280": "https://cdn.pixabay.com/photo/2022/09/04/14/08/beach-7431822_1280.jpg"
    },
    {
        "id": "2854386",
        "src640": "https://cdn.pixabay.com/photo/2017/10/15/16/37/portrait-2854386_640.jpg",
        "src1280": "https://cdn.pixabay.com/photo/2017/10/15/16/37/portrait-2854386_1280.jpg"
    },
    {
        "id": "6880297",
        "src640": "https://cdn.pixabay.com/photo/2021/12/19/07/57/house-6880297_640.jpg",
        "src1280": "https://cdn.pixabay.com/photo/2021/12/19/07/57/house-6880297_1280.jpg"
    },
    {
        "id": "7679421",
        "src640": "https://cdn.pixabay.com/photo/2022/12/26/17/30/christmas-tree-7679421_640.jpg",
        "src1280": "https://cdn.pixabay.com/photo/2022/12/26/17/30/christmas-tree-7679421_1280.jpg"
    },
    {
        "id": "5649823",
        "src640": "https://cdn.pixabay.com/photo/2020/10/12/19/10/mountain-5649823_640.jpg",
        "src1280": "https://cdn.pixabay.com/photo/2020/10/12/19/10/mountain-5649823_1280.jpg"
    },
    {
        "id": "7287496",
        "src640": "https://cdn.pixabay.com/photo/2022/06/27/13/09/wallpaper-7287496_640.jpg",
        "src1280": "https://cdn.pixabay.com/photo/2022/06/27/13/09/wallpaper-7287496_1280.jpg"
    },
    {
        "id": "7339620",
        "src640": "https://cdn.pixabay.com/photo/2022/07/23/09/45/plant-7339620_640.jpg",
        "src1280": "https://cdn.pixabay.com/photo/2022/07/23/09/45/plant-7339620_1280.jpg"
    },
    {
        "id": "69472",
        "src640": "https://cdn.pixabay.com/photo/2012/12/11/21/28/canteens-69472_640.jpg",
        "src1280": "https://cdn.pixabay.com/photo/2012/12/11/21/28/canteens-69472_1280.jpg"
    },
    {
        "id": "2371668",
        "src640": "https://cdn.pixabay.com/photo/2017/06/04/17/33/beach-2371668_640.jpg",
        "src1280": "https://cdn.pixabay.com/photo/2017/06/04/17/33/beach-2371668_1280.jpg"
    },
    {
        "id": "973054",
        "src640": "https://cdn.pixabay.com/photo/2015/10/05/18/12/wallpaper-973054_640.jpg",
        "src1280": "https://cdn.pixabay.com/photo/2015/10/05/18/12/wallpaper-973054_1280.jpg"
    }
]