[
    {
        "id": "5002209",
        "src640": "https://cdn.pixabay.com/photo/2020/04/04/13/13/background-5002209_640.jpg",
        "src1280": "https://cdn.pixabay.com/photo/2020/04/04/13/13/background-5002209_1280.jpg"
    },
    {
        "id": "6646645",
        "src640": "https://cdn.pixabay.com/photo/2021/09/22/12/02/gamepad-6646645_640.jpg",
        "src1280": "https://cdn.pixabay.com/photo/2021/09/22/12/02/gamepad-6646645_1280.jpg"
    },
    {
        "id": "4944137",
        "src640": "https://cdn.pixabay.com/photo/2020/03/18/14/05/lemons-4944137_640.jpg",
        "src1280": "https://cdn.pixabay.com/photo/2020/03/18/14/05/lemons-4944137_1280.jpg"
    },
    {
        "id": "2676812",
        "src640": "https://cdn.pixabay.com/photo/2017/08/24/13/22/viewpoint-2676812_640.jpg",
        "src1280": "https://cdn.pixabay.com/photo/2017/08/24/13/22/viewpoint-2676812_1280.jpg"
    },
    {
        "id": "5177211",
        "src640": "https://cdn.pixabay.com/photo/2020/05/16/11/42/arabic-5177211_640.jpg",
        "src1280": "https://cdn.pixabay.com/photo/2020/05/16/11/42/arabic-5177211_1280.jpg"
    },
    {
        "id": "5404056",
        "src640": "https://cdn.pixabay.com/photo/2020/07/14/12/46/flower-5404056_640.jpg",
        "src1280": "https://cdn.pixabay.com/photo/2020/07/14/12/46/flower-5404056_1280.jpg"
    },
    {
        "id": "6797065",
        "src640": "https://cdn.pixabay.com/photo/2021/11/15/07/32/flowers-6797065_640.jpg",
        "src1280": "https://cdn.pixabay.com/photo/2021/11/15/07/32/flowers-6797065_1280.jpg"
    },
    {
        "id": "3558097",
        "src640": "https://cdn.pixabay.com/photo/2018/07/23/23/18/cable-car-lift-3558097_640.jpg",
        "src1280": "https://cdn.pixabay.com/photo/2018/07/23/23/18/cable-car-lift-3558097_1280.jpg"
    },
    {
        "id": "4685011",
        "src640": "https://cdn.pixabay.com/photo/2019/12/10/05/51/natural-4685011_640.jpg",
        "src1280": "https://cdn.pixabay.com/photo/2019/12/10/05/51/natural-4685011_1280.jpg"
    },
    {
        "id": "5085119",
        "src640": "https://cdn.pixabay.com/photo/2020/04/24/05/34/luxury-hotel-5085119_640.jpg",
        "src1280": "https://cdn.pixabay.com/photo/2020/04/24/05/34/luxury-hotel-5085119_1280.jpg"
    },
    {
        "id": "2034005",
        "src640": "https://cdn.pixabay.com/photo/2017/02/02/22/19/fern-2034005_640.jpg",
        "src1280": "https://cdn.pixabay.com/photo/2017/02/02/22/19/fern-2034005_1280.jpg"
    },
    {
        "id": "4681440",
        "src640": "https://cdn.pixabay.com/photo/2019/12/08/15/58/background-4681440_640.jpg",
        "src1280": "https://cdn.pixabay.com/photo/2019/12/08/15/58/background-4681440_1280.jpg"
    },
    {
        "id": "2686650",
        "src640": "https://cdn.pixabay.com/photo/2017/08/27/16/29/imported-red-roses-2686650_640.jpg",
        "src1280": "https://cdn.pixabay.com/photo/2017/08/27/16/29/imported-red-roses-2686650_1280.jpg"
    },
    {
        "id": "2656043",
        "src640": "https://cdn.pixabay.com/photo/2017/08/18/18/59/lily-2656043_640.jpg",
        "src1280": "https://cdn.pixabay.com/photo/2017/08/18/18/59/lily-2656043_1280.jpg"
    },
    {
        "id": "4351347",
        "src640": "https://cdn.pixabay.com/photo/2019/07/20/19/04/butterfly-4351347_640.jpg",
        "src1280": "https://cdn.pixabay.com/photo/2019/07/20/19/04/butterfly-4351347_1280.jpg"
    },
    {
        "id": "950748",
        "src640": "https://cdn.pixabay.com/photo/2015/09/21/21/14/heart-950748_640.jpg",
        "src1280": "https://cdn.pixabay.com/photo/2015/09/21/21/14/heart-950748_1280.jpg"
    },
    {
        "id": "3356764",
        "src640": "https://cdn.pixabay.com/photo/2018/04/28/07/46/tulip-3356764_640.jpg",
        "src1280": "https://cdn.pixabay.com/photo/2018/04/28/07/46/tulip-3356764_1280.jpg"
    },
    {
        "id": "4351337",
        "src640": "https://cdn.pixabay.com/photo/2019/07/20/19/03/butterfly-4351337_640.jpg",
        "src1280": "https://cdn.pixabay.com/photo/2019/07/20/19/03/butterfly-4351337_1280.jpg"
    },
    {
        "id": "2588630",
        "src640": "https://cdn.pixabay.com/photo/2017/08/06/04/14/airplane-2588630_640.jpg",
        "src1280": "https://cdn.pixabay.com/photo/2017/08/06/04/14/airplane-2588630_1280.jpg"
    },
    {
        "id": "2640895",
        "src640": "https://cdn.pixabay.com/photo/2017/08/14/15/50/backlight-2640895_640.jpg",
        "src1280": "https://cdn.pixabay.com/photo/2017/08/14/15/50/backlight-2640895_1280.jpg"
    },
    {
        "id": "4916653",
        "src640": "https://cdn.pixabay.com/photo/2020/03/09/18/09/pencils-4916653_640.jpg",
        "src1280": "https://cdn.pixabay.com/photo/2020/03/09/18/09/pencils-4916653_1280.jpg"
    },
    {
        "id": "1816623",
        "src640": "https://cdn.pixabay.com/photo/2016/11/11/12/10/graphics-1816623_640.jpg",
        "src1280": "https://cdn.pixabay.com/photo/2016/11/11/12/10/graphics-1816623_1280.jpg"
    },
    {
        "id": "5386840",
        "src640": "https://cdn.pixabay.com/photo/2020/07/09/10/34/jasmine-5386840_640.jpg",
        "src1280": "https://cdn.pixabay.com/photo/2020/07/09/10/34/jasmine-5386840_1280.jpg"
    },
    {
        "id": "4320253",
        "src640": "https://cdn.pixabay.com/photo/2019/07/06/11/08/milky-way-4320253_640.jpg",
        "src1280": "https://cdn.pixabay.com/photo/2019/07/06/11/08/milky-way-4320253_1280.jpg"
    },
    {
        "id": "7238714",
        "src640": "https://cdn.pixabay.com/photo/2022/06/02/18/38/phone-wallpaper-7238714_640.jpg",
        "src1280": "https://cdn.pixabay.com/photo/2022/06/02/18/38/phone-wallpaper-7238714_1280.jpg"
    },
    {
        "id": "5006405",
        "src640": "https://cdn.pixabay.com/photo/2020/04/05/14/41/hepatica-5006405_640.jpg",
        "src1280": "https://cdn.pixabay.com/photo/2020/04/05/14/41/hepatica-5006405_1280.jpg"
    },
    {
        "id": "2783518",
        "src640": "https://cdn.pixabay.com/photo/2017/09/24/22/45/lily-2783518_640.jpg",
        "src1280": "https://cdn.pixabay.com/photo/2017/09/24/22/45/lily-2783518_1280.jpg"
    },
    {
        "id": "841292",
        "src640": "https://cdn.pixabay.com/photo/2015/07/11/21/21/graffiti-841292_640.jpg",
        "src1280": "https://cdn.pixabay.com/photo/2015/07/11/21/21/graffiti-841292_1280.jpg"
    },
    {
        "id": "4671737",
        "src640": "https://cdn.pixabay.com/photo/2019/12/04/05/11/natural-pure-4671737_640.jpg",
        "src1280": "https://cdn.pixabay.com/photo/2019/12/04/05/11/natural-pure-4671737_1280.jpg"
    },
    {
        "id": "2676850",
        "src640": "https://cdn.pixabay.com/photo/2017/08/24/13/35/viewpoint-2676850_640.jpg",
        "src1280": "https://cdn.pixabay.com/photo/2017/08/24/13/35/viewpoint-2676850_1280.jpg"
    },
    {
        "id": "220469",
        "src640": "https://cdn.pixabay.com/photo/2013/11/28/12/15/berry-220469_640.jpg",
        "src1280": "https://cdn.pixabay.com/photo/2013/11/28/12/15/berry-220469_1280.jpg"
    },
    {
        "id": "5178840",
        "src640": "https://cdn.pixabay.com/photo/2020/05/16/19/23/cereals-5178840_640.jpg",
        "src1280": "https://cdn.pixabay.com/photo/2020/05/16/19/23/cereals-5178840_1280.jpg"
    },
    {
        "id": "5178847",
        "src640": "https://cdn.pixabay.com/photo/2020/05/16/19/24/cereals-5178847_640.jpg",
        "src1280": "https://cdn.pixabay.com/photo/2020/05/16/19/24/cereals-5178847_1280.jpg"
    },
    {
        "id": "4812576",
        "src640": "https://cdn.pixabay.com/photo/2020/02/02/10/11/wallpaper-4812576_640.jpg",
        "src1280": "https://cdn.pixabay.com/photo/2020/02/02/10/11/wallpaper-4812576_1280.jpg"
    },
    {
        "id": "5153148",
        "src640": "https://cdn.pixabay.com/photo/2020/05/10/09/38/spring-5153148_640.jpg",
        "src1280": "https://cdn.pixabay.com/photo/2020/05/10/09/38/spring-5153148_1280.jpg"
    },
    {
        "id": "4660678",
        "src640": "https://cdn.pixabay.com/photo/2019/11/29/06/46/marine-4660678_640.jpg",
        "src1280": "https://cdn.pixabay.com/photo/2019/11/29/06/46/marine-4660678_1280.jpg"
    },
    {
        "id": "4951093",
        "src640": "https://cdn.pixabay.com/photo/2020/03/20/16/12/bone-4951093_640.jpg",
        "src1280": "https://cdn.pixabay.com/photo/2020/03/20/16/12/bone-4951093_1280.jpg"
    },
    {
        "id": "5178434",
        "src640": "https://cdn.pixabay.com/photo/2020/05/16/17/32/background-5178434_640.jpg",
        "src1280": "https://cdn.pixabay.com/photo/2020/05/16/17/32/background-5178434_1280.jpg"
    },
    {
        "id": "1332229",
        "src640": "https://cdn.pixabay.com/photo/2016/04/15/23/35/pattern-1332229_640.jpg",
        "src1280": "https://cdn.pixabay.com/photo/2016/04/15/23/35/pattern-1332229_1280.jpg"
    },
    {
        "id": "1525798",
        "src640": "https://cdn.pixabay.com/photo/2016/07/18/12/02/water-1525798_640.jpg",
        "src1280": "https://cdn.pixabay.com/photo/2016/07/18/12/02/water-1525798_1280.jpg"
    },
    {
        "id": "4807654",
        "src640": "https://cdn.pixabay.com/photo/2020/01/31/10/44/sunrise-4807654_640.jpg",
        "src1280": "https://cdn.pixabay.com/photo/2020/01/31/10/44/sunrise-4807654_1280.jpg"
    },
    {
        "id": "71591",
        "src640": "https://cdn.pixabay.com/photo/2012/12/21/10/06/agricultural-71591_640.jpg",
        "src1280": "https://cdn.pixabay.com/photo/2012/12/21/10/06/agricultural-71591_1280.jpg"
    },
    {
        "id": "2872136",
        "src640": "https://cdn.pixabay.com/photo/2017/10/20/17/52/flame-2872136_640.jpg",
        "src1280": "https://cdn.pixabay.com/photo/2017/10/20/17/52/flame-2872136_1280.jpg"
    },
    {
        "id": "4340024",
        "src640": "https://cdn.pixabay.com/photo/2019/07/15/18/01/peacock-4340024_640.jpg",
        "src1280": "https://cdn.pixabay.com/photo/2019/07/15/18/01/peacock-4340024_1280.jpg"
    },
    {
        "id": "5118222",
        "src640": "https://cdn.pixabay.com/photo/2020/05/01/17/28/flowers-5118222_640.jpg",
        "src1280": "https://cdn.pixabay.com/photo/2020/05/01/17/28/flowers-5118222_1280.jpg"
    },
    {
        "id": "5187091",
        "src640": "https://cdn.pixabay.com/photo/2020/05/18/15/49/arabic-5187091_640.jpg",
        "src1280": "https://cdn.pixabay.com/photo/2020/05/18/15/49/arabic-5187091_1280.jpg"
    },
    {
        "id": "5170161",
        "src640": "https://cdn.pixabay.com/photo/2020/05/14/15/46/yellow-5170161_640.jpg",
        "src1280": "https://cdn.pixabay.com/photo/2020/05/14/15/46/yellow-5170161_1280.jpg"
    },
    {
        "id": "4561071",
        "src640": "https://cdn.pixabay.com/photo/2019/10/19/10/36/autumn-4561071_640.jpg",
        "src1280": "https://cdn.pixabay.com/photo/2019/10/19/10/36/autumn-4561071_1280.jpg"
    },
    {
        "id": "5210893",
        "src640": "https://cdn.pixabay.com/photo/2020/05/23/18/19/knife-5210893_640.jpg",
        "src1280": "https://cdn.pixabay.com/photo/2020/05/23/18/19/knife-5210893_1280.jpg"
    },
    {
        "id": "18676",
        "src640": "https://cdn.pixabay.com/photo/2012/02/29/11/54/abstract-18676_640.jpg",
        "src1280": "https://cdn.pixabay.com/photo/2012/02/29/11/54/abstract-18676_1280.jpg"
    },
    {
        "id": "4685007",
        "src640": "https://cdn.pixabay.com/photo/2019/12/10/05/51/natural-4685007_640.jpg",
        "src1280": "https://cdn.pixabay.com/photo/2019/12/10/05/51/natural-4685007_1280.jpg"
    },
    {
        "id": "5313118",
        "src640": "https://cdn.pixabay.com/photo/2020/06/18/11/28/squirrel-5313118_640.jpg",
        "src1280": "https://cdn.pixabay.com/photo/2020/06/18/11/28/squirrel-5313118_1280.jpg"
    },
    {
        "id": "1637712",
        "src640": "https://cdn.pixabay.com/photo/2016/09/01/21/51/stone-wall-1637712_640.jpg",
        "src1280": "https://cdn.pixabay.com/photo/2016/09/01/21/51/stone-wall-1637712_1280.jpg"
    },
    {
        "id": "2676813",
        "src640": "https://cdn.pixabay.com/photo/2017/08/24/13/22/viewpoint-2676813_640.jpg",
        "src1280": "https://cdn.pixabay.com/photo/2017/08/24/13/22/viewpoint-2676813_1280.jpg"
    },
    {
        "id": "4225110",
        "src640": "https://cdn.pixabay.com/photo/2019/05/23/23/17/nature-4225110_640.jpg",
        "src1280": "https://cdn.pixabay.com/photo/2019/05/23/23/17/nature-4225110_1280.jpg"
    },
    {
        "id": "1559448",
        "src640": "https://cdn.pixabay.com/photo/2016/07/31/16/58/graphic-1559448_640.jpg",
        "src1280": "https://cdn.pixabay.com/photo/2016/07/31/16/58/graphic-1559448_1280.jpg"
    },
    {
        "id": "4074680",
        "src640": "https://cdn.pixabay.com/photo/2019/03/23/04/47/laos-4074680_640.jpg",
        "src1280": "https://cdn.pixabay.com/photo/2019/03/23/04/47/laos-4074680_1280.jpg"
    },
    {
        "id": "2857437",
        "src640": "https://cdn.pixabay.com/photo/2017/10/16/15/02/flower-2857437_640.jpg",
        "src1280": "https://cdn.pixabay.com/photo/2017/10/16/15/02/flower-2857437_1280.jpg"
    },
    {
        "id": "4639270",
        "src640": "https://cdn.pixabay.com/photo/2019/11/20/06/19/macro-4639270_640.jpg",
        "src1280": "https://cdn.pixabay.com/photo/2019/11/20/06/19/macro-4639270_1280.jpg"
    },
    {
        "id": "2579962",
        "src640": "https://cdn.pixabay.com/photo/2017/08/04/12/03/flower-2579962_640.jpg",
        "src1280": "https://cdn.pixabay.com/photo/2017/08/04/12/03/flower-2579962_1280.jpg"
    },
    {
        "id": "1549177",
        "src640": "https://cdn.pixabay.com/photo/2016/07/28/19/47/banana-1549177_640.jpg",
        "src1280": "https://cdn.pixabay.com/photo/2016/07/28/19/47/banana-1549177_1280.jpg"
    },
    {
        "id": "3308134",
        "src640": "https://cdn.pixabay.com/photo/2018/04/10/17/32/nature-3308134_640.jpg",
        "src1280": "https://cdn.pixabay.com/photo/2018/04/10/17/32/nature-3308134_1280.jpg"
    },
    {
        "id": "8061002",
        "src640": "https://cdn.pixabay.com/photo/2023/06/13/13/52/plane-8061002_640.jpg",
        "src1280": "https://cdn.pixabay.com/photo/2023/06/13/13/52/plane-8061002_1280.jpg"
    },
    {
        "id": "5266387",
        "src640": "https://cdn.pixabay.com/photo/2020/06/06/12/29/clematis-5266387_640.jpg",
        "src1280": "https://cdn.pixabay.com/photo/2020/06/06/12/29/clematis-5266387_1280.jpg"
    },
    {
        "id": "6156801",
        "src640": "https://cdn.pixabay.com/photo/2021/04/06/16/22/apple-6156801_640.jpg",
        "src1280": "https://cdn.pixabay.com/photo/2021/04/06/16/22/apple-6156801_1280.jpg"
    },
    {
        "id": "4326256",
        "src640": "https://cdn.pixabay.com/photo/2019/07/09/05/40/flower-4326256_640.jpg",
        "src1280": "https://cdn.pixabay.com/photo/2019/07/09/05/40/flower-4326256_1280.jpg"
    },
    {
        "id": "8254532",
        "src640": "https://cdn.pixabay.com/photo/2023/09/15/10/28/background-8254532_640.jpg",
        "src1280": "https://cdn.pixabay.com/photo/2023/09/15/10/28/background-8254532_1280.jpg"
    },
    {
        "id": "5121090",
        "src640": "https://cdn.pixabay.com/photo/2020/05/02/11/50/sheet-music-5121090_640.jpg",
        "src1280": "https://cdn.pixabay.com/photo/2020/05/02/11/50/sheet-music-5121090_1280.jpg"
    },
    {
        "id": "4237871",
        "src640": "https://cdn.pixabay.com/photo/2019/05/29/16/08/flowers-4237871_640.jpg",
        "src1280": "https://cdn.pixabay.com/photo/2019/05/29/16/08/flowers-4237871_1280.jpg"
    },
    {
        "id": "4646543",
        "src640": "https://cdn.pixabay.com/photo/2019/11/23/08/27/banana-leaf-4646543_640.jpg",
        "src1280": "https://cdn.pixabay.com/photo/2019/11/23/08/27/banana-leaf-4646543_1280.jpg"
    },
    {
        "id": "5187088",
        "src640": "https://cdn.pixabay.com/photo/2020/05/18/15/49/arabic-5187088_640.jpg",
        "src1280": "https://cdn.pixabay.com/photo/2020/05/18/15/49/arabic-5187088_1280.jpg"
    },
    {
        "id": "5137397",
        "src640": "https://cdn.pixabay.com/photo/2020/05/06/12/53/vase-5137397_640.jpg",
        "src1280": "https://cdn.pixabay.com/photo/2020/05/06/12/53/vase-5137397_1280.jpg"
    },
    {
        "id": "4291116",
        "src640": "https://cdn.pixabay.com/photo/2019/06/22/08/23/sunflower-4291116_640.jpg",
        "src1280": "https://cdn.pixabay.com/photo/2019/06/22/08/23/sunflower-4291116_1280.jpg"
    },
    {
        "id": "1838162",
        "src640": "https://cdn.pixabay.com/photo/2016/11/19/06/45/glove-1838162_640.jpg",
        "src1280": "https://cdn.pixabay.com/photo/2016/11/19/06/45/glove-1838162_1280.jpg"
    },
    {
        "id": "2676818",
        "src640": "https://cdn.pixabay.com/photo/2017/08/24/13/26/viewpoint-2676818_640.jpg",
        "src1280": "https://cdn.pixabay.com/photo/2017/08/24/13/26/viewpoint-2676818_1280.jpg"
    },
    {
        "id": "4483387",
        "src640": "https://cdn.pixabay.com/photo/2019/09/17/12/39/fashion-4483387_640.jpg",
        "src1280": "https://cdn.pixabay.com/photo/2019/09/17/12/39/fashion-4483387_1280.jpg"
    },
    {
        "id": "2474366",
        "src640": "https://cdn.pixabay.com/photo/2017/07/05/11/39/pumpkin-2474366_640.jpg",
        "src1280": "https://cdn.pixabay.com/photo/2017/07/05/11/39/pumpkin-2474366_1280.jpg"
    },
    {
        "id": "5204071",
        "src640": "https://cdn.pixabay.com/photo/2020/05/22/07/00/stairs-5204071_640.jpg",
        "src1280": "https://cdn.pixabay.com/photo/2020/05/22/07/00/stairs-5204071_1280.jpg"
    },
    {
        "id": "855223",
        "src640": "https://cdn.pixabay.com/photo/2015/07/22/12/08/potato-855223_640.jpg",
        "src1280": "https://cdn.pixabay.com/photo/2015/07/22/12/08/potato-855223_1280.jpg"
    },
    {
        "id": "5325165",
        "src640": "https://cdn.pixabay.com/photo/2020/06/21/14/42/nature-5325165_640.jpg",
        "src1280": "https://cdn.pixabay.com/photo/2020/06/21/14/42/nature-5325165_1280.jpg"
    },
    {
        "id": "5178845",
        "src640": "https://cdn.pixabay.com/photo/2020/05/16/19/24/cereals-5178845_640.jpg",
        "src1280": "https://cdn.pixabay.com/photo/2020/05/16/19/24/cereals-5178845_1280.jpg"
    },
    {
        "id": "2647206",
        "src640": "https://cdn.pixabay.com/photo/2017/08/16/10/35/leaf-2647206_640.jpg",
        "src1280": "https://cdn.pixabay.com/photo/2017/08/16/10/35/leaf-2647206_1280.jpg"
    },
    {
        "id": "5178791",
        "src640": "https://cdn.pixabay.com/photo/2020/05/16/19/11/bike-5178791_640.jpg",
        "src1280": "https://cdn.pixabay.com/photo/2020/05/16/19/11/bike-5178791_1280.jpg"
    },
    {
        "id": "2862078",
        "src640": "https://cdn.pixabay.com/photo/2017/10/17/20/28/staircase-2862078_640.jpg",
        "src1280": "https://cdn.pixabay.com/photo/2017/10/17/20/28/staircase-2862078_1280.jpg"
    },
    {
        "id": "2333389",
        "src640": "https://cdn.pixabay.com/photo/2017/05/22/07/34/flower-2333389_640.jpg",
        "src1280": "https://cdn.pixabay.com/photo/2017/05/22/07/34/flower-2333389_1280.jpg"
    },
    {
        "id": "4445615",
        "src640": "https://cdn.pixabay.com/photo/2019/09/01/17/31/clouds-4445615_640.jpg",
        "src1280": "https://cdn.pixabay.com/photo/2019/09/01/17/31/clouds-4445615_1280.jpg"
    },
    {
        "id": "2545956",
        "src640": "https://cdn.pixabay.com/photo/2017/07/27/16/51/beach-2545956_640.jpg",
        "src1280": "https://cdn.pixabay.com/photo/2017/07/27/16/51/beach-2545956_1280.jpg"
    },
    {
        "id": "4245696",
        "src640": "https://cdn.pixabay.com/photo/2019/06/02/05/24/wood-4245696_640.jpg",
        "src1280": "https://cdn.pixabay.com/photo/2019/06/02/05/24/wood-4245696_1280.jpg"
    },
    {
        "id": "1619969",
        "src640": "https://cdn.pixabay.com/photo/2016/08/25/16/32/wood-stork-1619969_640.jpg",
        "src1280": "https://cdn.pixabay.com/photo/2016/08/25/16/32/wood-stork-1619969_1280.jpg"
    },
    {
        "id": "4960577",
        "src640": "https://cdn.pixabay.com/photo/2020/03/23/11/36/japanese-4960577_640.jpg",
        "src1280": "https://cdn.pixabay.com/photo/2020/03/23/11/36/japanese-4960577_1280.jpg"
    },
    {
        "id": "5369006",
        "src640": "https://cdn.pixabay.com/photo/2020/07/04/09/59/butterfly-5369006_640.jpg",
        "src1280": "https://cdn.pixabay.com/photo/2020/07/04/09/59/butterfly-5369006_1280.jpg"
    },
    {
        "id": "3103751",
        "src640": "https://cdn.pixabay.com/photo/2018/01/24/11/52/nature-3103751_640.jpg",
        "src1280": "https://cdn.pixabay.com/photo/2018/01/24/11/52/nature-3103751_1280.jpg"
    },
    {
        "id": "5053983",
        "src640": "https://cdn.pixabay.com/photo/2020/04/17/09/21/rosemary-5053983_640.jpg",
        "src1280": "https://cdn.pixabay.com/photo/2020/04/17/09/21/rosemary-5053983_1280.jpg"
    },
    {
        "id": "6601257",
        "src640": "https://cdn.pixabay.com/photo/2021/09/06/09/19/chives-6601257_640.jpg",
        "src1280": "https://cdn.pixabay.com/photo/2021/09/06/09/19/chives-6601257_1280.jpg"
    },
    {
        "id": "3341748",
        "src640": "https://cdn.pixabay.com/photo/2018/04/22/17/37/natural-3341748_640.jpg",
        "src1280": "https://cdn.pixabay.com/photo/2018/04/22/17/37/natural-3341748_1280.jpg"
    }
]