[
    {
        "id": "631734",
        "src640": "https://cdn.pixabay.com/photo/2015/02/10/21/14/bottles-631734_640.jpg",
        "src1280": "https://cdn.pixabay.com/photo/2015/02/10/21/14/bottles-631734_1280.jpg"
    },
    {
        "id": "3035933",
        "src640": "https://cdn.pixabay.com/photo/2017/12/23/20/28/lamp-3035933_640.jpg",
        "src1280": "https://cdn.pixabay.com/photo/2017/12/23/20/28/lamp-3035933_1280.jpg"
    },
    {
        "id": "76499",
        "src640": "https://cdn.pixabay.com/photo/2013/01/28/21/04/flower-background-76499_640.jpg",
        "src1280": "https://cdn.pixabay.com/photo/2013/01/28/21/04/flower-background-76499_1280.jpg"
    },
    {
        "id": "5066130",
        "src640": "https://cdn.pixabay.com/photo/2020/04/20/02/22/rice-5066130_640.jpg",
        "src1280": "https://cdn.pixabay.com/photo/2020/04/20/02/22/rice-5066130_1280.jpg"
    },
    {
        "id": "7572858",
        "src640": "https://cdn.pixabay.com/photo/2022/11/05/22/01/guitar-7572858_640.jpg",
        "src1280": "https://cdn.pixabay.com/photo/2022/11/05/22/01/guitar-7572858_1280.jpg"
    },
    {
        "id": "3584601",
        "src640": "https://cdn.pixabay.com/photo/2018/08/04/22/36/spider-3584601_640.jpg",
        "src1280": "https://cdn.pixabay.com/photo/2018/08/04/22/36/spider-3584601_1280.jpg"
    },
    {
        "id": "259361",
        "src640": "https://cdn.pixabay.com/photo/2014/02/05/18/54/wood-259361_640.jpg",
        "src1280": "https://cdn.pixabay.com/photo/2014/02/05/18/54/wood-259361_1280.jpg"
    },
    {
        "id": "7679701",
        "src640": "https://cdn.pixabay.com/photo/2022/12/26/20/13/ornaments-7679701_640.jpg",
        "src1280": "https://cdn.pixabay.com/photo/2022/12/26/20/13/ornaments-7679701_1280.jpg"
    },
    {
        "id": "7472238",
        "src640": "https://cdn.pixabay.com/photo/2022/09/22/11/40/temples-7472238_640.jpg",
        "src1280": "https://cdn.pixabay.com/photo/2022/09/22/11/40/temples-7472238_1280.jpg"
    },
    {
        "id": "3875795",
        "src640": "https://cdn.pixabay.com/photo/2018/12/14/21/13/christmas-3875795_640.jpg",
        "src1280": "https://cdn.pixabay.com/photo/2018/12/14/21/13/christmas-3875795_1280.jpg"
    },
    {
        "id": "3761944",
        "src640": "https://cdn.pixabay.com/photo/2018/10/20/22/44/marine-3761944_640.jpg",
        "src1280": "https://cdn.pixabay.com/photo/2018/10/20/22/44/marine-3761944_1280.jpg"
    },
    {
        "id": "7095849",
        "src640": "https://cdn.pixabay.com/photo/2022/03/27/18/46/flowers-7095849_640.jpg",
        "src1280": "https://cdn.pixabay.com/photo/2022/03/27/18/46/flowers-7095849_1280.jpg"
    },
    {
        "id": "3083317",
        "src640": "https://cdn.pixabay.com/photo/2018/01/15/06/59/fly-3083317_640.jpg",
        "src1280": "https://cdn.pixabay.com/photo/2018/01/15/06/59/fly-3083317_1280.jpg"
    },
    {
        "id": "2456701",
        "src640": "https://cdn.pixabay.com/photo/2017/06/29/23/53/sculpture-2456701_640.jpg",
        "src1280": "https://cdn.pixabay.com/photo/2017/06/29/23/53/sculpture-2456701_1280.jpg"
    },
    {
        "id": "7573745",
        "src640": "https://cdn.pixabay.com/photo/2022/11/06/11/02/candle-7573745_640.jpg",
        "src1280": "https://cdn.pixabay.com/photo/2022/11/06/11/02/candle-7573745_1280.jpg"
    },
    {
        "id": "2860164",
        "src640": "https://cdn.pixabay.com/photo/2017/10/17/10/44/autumn-2860164_640.jpg",
        "src1280": "https://cdn.pixabay.com/photo/2017/10/17/10/44/autumn-2860164_1280.jpg"
    },
    {
        "id": "6692512",
        "src640": "https://cdn.pixabay.com/photo/2021/10/08/21/10/autumn-6692512_640.jpg",
        "src1280": "https://cdn.pixabay.com/photo/2021/10/08/21/10/autumn-6692512_1280.jpg"
    },
    {
        "id": "69718",
        "src640": "https://cdn.pixabay.com/photo/2012/12/13/11/47/woman-69718_640.jpg",
        "src1280": "https://cdn.pixabay.com/photo/2012/12/13/11/47/woman-69718_1280.jpg"
    },
    {
        "id": "2708500",
        "src640": "https://cdn.pixabay.com/photo/2017/09/02/20/49/background-2708500_640.jpg",
        "src1280": "https://cdn.pixabay.com/photo/2017/09/02/20/49/background-2708500_1280.jpg"
    },
    {
        "id": "7292384",
        "src640": "https://cdn.pixabay.com/photo/2022/06/29/18/47/ladybug-7292384_640.jpg",
        "src1280": "https://cdn.pixabay.com/photo/2022/06/29/18/47/ladybug-7292384_1280.jpg"
    },
    {
        "id": "20103",
        "src640": "https://cdn.pixabay.com/photo/2012/03/01/01/16/green-20103_640.jpg",
        "src1280": "https://cdn.pixabay.com/photo/2012/03/01/01/16/green-20103_1280.jpg"
    },
    {
        "id": "1552438",
        "src640": "https://cdn.pixabay.com/photo/2016/07/29/10/48/hamburger-1552438_640.jpg",
        "src1280": "https://cdn.pixabay.com/photo/2016/07/29/10/48/hamburger-1552438_1280.jpg"
    },
    {
        "id": "4316868",
        "src640": "https://cdn.pixabay.com/photo/2019/07/04/16/23/tangerines-4316868_640.jpg",
        "src1280": "https://cdn.pixabay.com/photo/2019/07/04/16/23/tangerines-4316868_1280.jpg"
    },
    {
        "id": "5335328",
        "src640": "https://cdn.pixabay.com/photo/2020/06/24/08/53/flowers-studs-in-gold-5335328_640.jpg",
        "src1280": "https://cdn.pixabay.com/photo/2020/06/24/08/53/flowers-studs-in-gold-5335328_1280.jpg"
    },
    {
        "id": "7185471",
        "src640": "https://cdn.pixabay.com/photo/2022/05/09/19/49/dandelion-7185471_640.jpg",
        "src1280": "https://cdn.pixabay.com/photo/2022/05/09/19/49/dandelion-7185471_1280.jpg"
    },
    {
        "id": "656299",
        "src640": "https://cdn.pixabay.com/photo/2015/03/02/17/30/abstrak-656299_640.jpg",
        "src1280": "https://cdn.pixabay.com/photo/2015/03/02/17/30/abstrak-656299_1280.jpg"
    },
    {
        "id": "7629045",
        "src640": "https://cdn.pixabay.com/photo/2022/12/01/12/57/galaxy-7629045_640.jpg",
        "src1280": "https://cdn.pixabay.com/photo/2022/12/01/12/57/galaxy-7629045_1280.jpg"
    },
    {
        "id": "4475151",
        "src640": "https://cdn.pixabay.com/photo/2019/09/14/01/39/seven-color-parakeets-4475151_640.jpg",
        "src1280": "https://cdn.pixabay.com/photo/2019/09/14/01/39/seven-color-parakeets-4475151_1280.jpg"
    },
    {
        "id": "6007587",
        "src640": "https://cdn.pixabay.com/photo/2021/02/12/07/49/lights-6007587_640.jpg",
        "src1280": "https://cdn.pixabay.com/photo/2021/02/12/07/49/lights-6007587_1280.jpg"
    },
    {
        "id": "4723332",
        "src640": "https://cdn.pixabay.com/photo/2019/12/27/20/11/rapeseed-4723332_640.jpg",
        "src1280": "https://cdn.pixabay.com/photo/2019/12/27/20/11/rapeseed-4723332_1280.jpg"
    },
    {
        "id": "924536",
        "src640": "https://cdn.pixabay.com/photo/2015/09/05/17/24/ferris-wheel-924536_640.jpg",
        "src1280": "https://cdn.pixabay.com/photo/2015/09/05/17/24/ferris-wheel-924536_1280.jpg"
    },
    {
        "id": "5923515",
        "src640": "https://cdn.pixabay.com/photo/2021/01/16/22/12/butterfly-5923515_640.jpg",
        "src1280": "https://cdn.pixabay.com/photo/2021/01/16/22/12/butterfly-5923515_1280.jpg"
    },
    {
        "id": "3819907",
        "src640": "https://cdn.pixabay.com/photo/2018/11/16/17/40/diya-3819907_640.jpg",
        "src1280": "https://cdn.pixabay.com/photo/2018/11/16/17/40/diya-3819907_1280.jpg"
    },
    {
        "id": "3847124",
        "src640": "https://cdn.pixabay.com/photo/2018/11/30/07/08/woman-3847124_640.jpg",
        "src1280": "https://cdn.pixabay.com/photo/2018/11/30/07/08/woman-3847124_1280.jpg"
    },
    {
        "id": "5013095",
        "src640": "https://cdn.pixabay.com/photo/2020/04/07/11/42/wood-5013095_640.jpg",
        "src1280": "https://cdn.pixabay.com/photo/2020/04/07/11/42/wood-5013095_1280.jpg"
    },
    {
        "id": "5083400",
        "src640": "https://cdn.pixabay.com/photo/2020/04/23/17/40/flower-5083400_640.jpg",
        "src1280": "https://cdn.pixabay.com/photo/2020/04/23/17/40/flower-5083400_1280.jpg"
    },
    {
        "id": "4671725",
        "src640": "https://cdn.pixabay.com/photo/2019/12/04/05/10/natural-pure-4671725_640.jpg",
        "src1280": "https://cdn.pixabay.com/photo/2019/12/04/05/10/natural-pure-4671725_1280.jpg"
    },
    {
        "id": "7265722",
        "src640": "https://cdn.pixabay.com/photo/2022/06/16/11/19/flowers-7265722_640.jpg",
        "src1280": "https://cdn.pixabay.com/photo/2022/06/16/11/19/flowers-7265722_1280.jpg"
    },
    {
        "id": "6887405",
        "src640": "https://cdn.pixabay.com/photo/2021/12/22/12/58/hydrangea-6887405_640.jpg",
        "src1280": "https://cdn.pixabay.com/photo/2021/12/22/12/58/hydrangea-6887405_1280.jpg"
    },
    {
        "id": "4685051",
        "src640": "https://cdn.pixabay.com/photo/2019/12/10/05/54/natural-4685051_640.jpg",
        "src1280": "https://cdn.pixabay.com/photo/2019/12/10/05/54/natural-4685051_1280.jpg"
    },
    {
        "id": "5083402",
        "src640": "https://cdn.pixabay.com/photo/2020/04/23/17/40/flower-5083402_640.jpg",
        "src1280": "https://cdn.pixabay.com/photo/2020/04/23/17/40/flower-5083402_1280.jpg"
    },
    {
        "id": "19943",
        "src640": "https://cdn.pixabay.com/photo/2012/03/01/01/03/green-19943_640.jpg",
        "src1280": "https://cdn.pixabay.com/photo/2012/03/01/01/03/green-19943_1280.jpg"
    },
    {
        "id": "3087601",
        "src640": "https://cdn.pixabay.com/photo/2018/01/17/07/19/pattern-3087601_640.jpg",
        "src1280": "https://cdn.pixabay.com/photo/2018/01/17/07/19/pattern-3087601_1280.jpg"
    },
    {
        "id": "21174",
        "src640": "https://cdn.pixabay.com/photo/2012/03/02/12/36/car-21174_640.jpg",
        "src1280": "https://cdn.pixabay.com/photo/2012/03/02/12/36/car-21174_1280.jpg"
    },
    {
        "id": "2903734",
        "src640": "https://cdn.pixabay.com/photo/2017/10/30/23/12/guard-rail-2903734_640.jpg",
        "src1280": "https://cdn.pixabay.com/photo/2017/10/30/23/12/guard-rail-2903734_1280.jpg"
    },
    {
        "id": "5160186",
        "src640": "https://cdn.pixabay.com/photo/2020/05/11/20/39/white-5160186_640.jpg",
        "src1280": "https://cdn.pixabay.com/photo/2020/05/11/20/39/white-5160186_1280.jpg"
    },
    {
        "id": "14476",
        "src640": "https://cdn.pixabay.com/photo/2012/02/17/15/24/staples-14476_640.jpg",
        "src1280": "https://cdn.pixabay.com/photo/2012/02/17/15/24/staples-14476_1280.jpg"
    },
    {
        "id": "5137395",
        "src640": "https://cdn.pixabay.com/photo/2020/05/06/12/52/candles-5137395_640.jpg",
        "src1280": "https://cdn.pixabay.com/photo/2020/05/06/12/52/candles-5137395_1280.jpg"
    },
    {
        "id": "7679570",
        "src640": "https://cdn.pixabay.com/photo/2022/12/26/19/08/bow-7679570_640.jpg",
        "src1280": "https://cdn.pixabay.com/photo/2022/12/26/19/08/bow-7679570_1280.jpg"
    },
    {
        "id": "1034162",
        "src640": "https://cdn.pixabay.com/photo/2015/11/08/20/23/tree-1034162_640.jpg",
        "src1280": "https://cdn.pixabay.com/photo/2015/11/08/20/23/tree-1034162_1280.jpg"
    },
    {
        "id": "3977458",
        "src640": "https://cdn.pixabay.com/photo/2019/02/05/17/41/flower-3977458_640.jpg",
        "src1280": "https://cdn.pixabay.com/photo/2019/02/05/17/41/flower-3977458_1280.jpg"
    },
    {
        "id": "4035374",
        "src640": "https://cdn.pixabay.com/photo/2019/03/05/01/42/skyscraper-4035374_640.jpg",
        "src1280": "https://cdn.pixabay.com/photo/2019/03/05/01/42/skyscraper-4035374_1280.jpg"
    },
    {
        "id": "3181382",
        "src640": "https://cdn.pixabay.com/photo/2018/02/25/18/24/background-3181382_640.jpg",
        "src1280": "https://cdn.pixabay.com/photo/2018/02/25/18/24/background-3181382_1280.jpg"
    },
    {
        "id": "6068654",
        "src640": "https://cdn.pixabay.com/photo/2021/03/04/16/29/gerbera-6068654_640.jpg",
        "src1280": "https://cdn.pixabay.com/photo/2021/03/04/16/29/gerbera-6068654_1280.jpg"
    },
    {
        "id": "2855253",
        "src640": "https://cdn.pixabay.com/photo/2017/10/15/21/03/autumn-2855253_640.jpg",
        "src1280": "https://cdn.pixabay.com/photo/2017/10/15/21/03/autumn-2855253_1280.jpg"
    },
    {
        "id": "2582127",
        "src640": "https://cdn.pixabay.com/photo/2017/08/05/02/49/el-2582127_640.jpg",
        "src1280": "https://cdn.pixabay.com/photo/2017/08/05/02/49/el-2582127_1280.jpg"
    },
    {
        "id": "17867",
        "src640": "https://cdn.pixabay.com/photo/2012/02/28/00/50/background-17867_640.jpg",
        "src1280": "https://cdn.pixabay.com/photo/2012/02/28/00/50/background-17867_1280.jpg"
    },
    {
        "id": "7518233",
        "src640": "https://cdn.pixabay.com/photo/2022/10/13/05/44/mountains-7518233_640.jpg",
        "src1280": "https://cdn.pixabay.com/photo/2022/10/13/05/44/mountains-7518233_1280.jpg"
    },
    {
        "id": "6793253",
        "src640": "https://cdn.pixabay.com/photo/2021/11/14/06/48/flower-6793253_640.jpg",
        "src1280": "https://cdn.pixabay.com/photo/2021/11/14/06/48/flower-6793253_1280.jpg"
    },
    {
        "id": "6833064",
        "src640": "https://cdn.pixabay.com/photo/2021/11/29/16/57/flowers-6833064_640.jpg",
        "src1280": "https://cdn.pixabay.com/photo/2021/11/29/16/57/flowers-6833064_1280.jpg"
    },
    {
        "id": "7370083",
        "src640": "https://cdn.pixabay.com/photo/2022/08/07/07/52/flowers-7370083_640.jpg",
        "src1280": "https://cdn.pixabay.com/photo/2022/08/07/07/52/flowers-7370083_1280.jpg"
    },
    {
        "id": "3141251",
        "src640": "https://cdn.pixabay.com/photo/2018/02/09/09/51/nature-3141251_640.jpg",
        "src1280": "https://cdn.pixabay.com/photo/2018/02/09/09/51/nature-3141251_1280.jpg"
    },
    {
        "id": "4309474",
        "src640": "https://cdn.pixabay.com/photo/2019/07/01/08/39/headphones-4309474_640.jpg",
        "src1280": "https://cdn.pixabay.com/photo/2019/07/01/08/39/headphones-4309474_1280.jpg"
    },
    {
        "id": "2394656",
        "src640": "https://cdn.pixabay.com/photo/2017/06/12/07/53/blue-2394656_640.jpg",
        "src1280": "https://cdn.pixabay.com/photo/2017/06/12/07/53/blue-2394656_1280.jpg"
    },
    {
        "id": "4973996",
        "src640": "https://cdn.pixabay.com/photo/2020/03/27/15/44/brown-4973996_640.jpg",
        "src1280": "https://cdn.pixabay.com/photo/2020/03/27/15/44/brown-4973996_1280.jpg"
    },
    {
        "id": "2931780",
        "src640": "https://cdn.pixabay.com/photo/2017/11/08/21/43/light-2931780_640.jpg",
        "src1280": "https://cdn.pixabay.com/photo/2017/11/08/21/43/light-2931780_1280.jpg"
    },
    {
        "id": "18189",
        "src640": "https://cdn.pixabay.com/photo/2012/02/28/10/22/tree-18189_640.jpg",
        "src1280": "https://cdn.pixabay.com/photo/2012/02/28/10/22/tree-18189_1280.jpg"
    },
    {
        "id": "7194475",
        "src640": "https://cdn.pixabay.com/photo/2022/05/13/20/00/sweet-cherry-7194475_640.jpg",
        "src1280": "https://cdn.pixabay.com/photo/2022/05/13/20/00/sweet-cherry-7194475_1280.jpg"
    },
    {
        "id": "5312989",
        "src640": "https://cdn.pixabay.com/photo/2020/06/18/10/50/bridge-5312989_640.jpg",
        "src1280": "https://cdn.pixabay.com/photo/2020/06/18/10/50/bridge-5312989_1280.jpg"
    },
    {
        "id": "2356082",
        "src640": "https://cdn.pixabay.com/photo/2017/05/30/07/42/rapeseed-2356082_640.jpg",
        "src1280": "https://cdn.pixabay.com/photo/2017/05/30/07/42/rapeseed-2356082_1280.jpg"
    },
    {
        "id": "7214456",
        "src640": "https://cdn.pixabay.com/photo/2022/05/22/19/27/background-7214456_640.jpg",
        "src1280": "https://cdn.pixabay.com/photo/2022/05/22/19/27/background-7214456_1280.jpg"
    },
    {
        "id": "4961444",
        "src640": "https://cdn.pixabay.com/photo/2020/03/23/17/02/easter-4961444_640.jpg",
        "src1280": "https://cdn.pixabay.com/photo/2020/03/23/17/02/easter-4961444_1280.jpg"
    },
    {
        "id": "4982401",
        "src640": "https://cdn.pixabay.com/photo/2020/03/29/22/10/macro-4982401_640.jpg",
        "src1280": "https://cdn.pixabay.com/photo/2020/03/29/22/10/macro-4982401_1280.jpg"
    },
    {
        "id": "5268463",
        "src640": "https://cdn.pixabay.com/photo/2020/06/06/22/49/plant-5268463_640.jpg",
        "src1280": "https://cdn.pixabay.com/photo/2020/06/06/22/49/plant-5268463_1280.jpg"
    },
    {
        "id": "4567790",
        "src640": "https://cdn.pixabay.com/photo/2019/10/22/06/59/flowers-4567790_640.jpg",
        "src1280": "https://cdn.pixabay.com/photo/2019/10/22/06/59/flowers-4567790_1280.jpg"
    },
    {
        "id": "5476200",
        "src640": "https://cdn.pixabay.com/photo/2020/08/09/17/54/bird-5476200_640.jpg",
        "src1280": "https://cdn.pixabay.com/photo/2020/08/09/17/54/bird-5476200_1280.jpg"
    },
    {
        "id": "650786",
        "src640": "https://cdn.pixabay.com/photo/2015/02/26/18/08/model-650786_640.jpg",
        "src1280": "https://cdn.pixabay.com/photo/2015/02/26/18/08/model-650786_1280.jpg"
    },
    {
        "id": "4784953",
        "src640": "https://cdn.pixabay.com/photo/2020/01/22/10/24/clouds-4784953_640.jpg",
        "src1280": "https://cdn.pixabay.com/photo/2020/01/22/10/24/clouds-4784953_1280.jpg"
    },
    {
        "id": "2532475",
        "src640": "https://cdn.pixabay.com/photo/2017/07/23/19/41/tree-2532475_640.jpg",
        "src1280": "https://cdn.pixabay.com/photo/2017/07/23/19/41/tree-2532475_1280.jpg"
    },
    {
        "id": "4119113",
        "src640": "https://cdn.pixabay.com/photo/2019/04/11/08/24/the-leaves-are-4119113_640.jpg",
        "src1280": "https://cdn.pixabay.com/photo/2019/04/11/08/24/the-leaves-are-4119113_1280.jpg"
    },
    {
        "id": "6313174",
        "src640": "https://cdn.pixabay.com/photo/2021/06/05/16/29/moon-6313174_640.jpg",
        "src1280": "https://cdn.pixabay.com/photo/2021/06/05/16/29/moon-6313174_1280.jpg"
    },
    {
        "id": "7525069",
        "src640": "https://cdn.pixabay.com/photo/2022/10/16/13/12/hyena-7525069_640.jpg",
        "src1280": "https://cdn.pixabay.com/photo/2022/10/16/13/12/hyena-7525069_1280.jpg"
    },
    {
        "id": "6826322",
        "src640": "https://cdn.pixabay.com/photo/2021/11/26/17/35/mercedes-amg-a45-6826322_640.jpg",
        "src1280": "https://cdn.pixabay.com/photo/2021/11/26/17/35/mercedes-amg-a45-6826322_1280.jpg"
    },
    {
        "id": "5180441",
        "src640": "https://cdn.pixabay.com/photo/2020/05/17/07/29/art-5180441_640.jpg",
        "src1280": "https://cdn.pixabay.com/photo/2020/05/17/07/29/art-5180441_1280.jpg"
    },
    {
        "id": "4423613",
        "src640": "https://cdn.pixabay.com/photo/2019/08/22/14/10/sunset-4423613_640.jpg",
        "src1280": "https://cdn.pixabay.com/photo/2019/08/22/14/10/sunset-4423613_1280.jpg"
    },
    {
        "id": "785063",
        "src640": "https://cdn.pixabay.com/photo/2015/05/26/17/30/background-785063_640.jpg",
        "src1280": "https://cdn.pixabay.com/photo/2015/05/26/17/30/background-785063_1280.jpg"
    },
    {
        "id": "944153",
        "src640": "https://cdn.pixabay.com/photo/2015/09/17/13/37/autumn-944153_640.jpg",
        "src1280": "https://cdn.pixabay.com/photo/2015/09/17/13/37/autumn-944153_1280.jpg"
    },
    {
        "id": "4674130",
        "src640": "https://cdn.pixabay.com/photo/2019/12/05/02/30/natural-4674130_640.jpg",
        "src1280": "https://cdn.pixabay.com/photo/2019/12/05/02/30/natural-4674130_1280.jpg"
    },
    {
        "id": "451428",
        "src640": "https://cdn.pixabay.com/photo/2014/09/18/21/43/flower-451428_640.jpg",
        "src1280": "https://cdn.pixabay.com/photo/2014/09/18/21/43/flower-451428_1280.jpg"
    },
    {
        "id": "5912774",
        "src640": "https://cdn.pixabay.com/photo/2021/01/12/21/58/plant-5912774_640.jpg",
        "src1280": "https://cdn.pixabay.com/photo/2021/01/12/21/58/plant-5912774_1280.jpg"
    },
    {
        "id": "4773651",
        "src640": "https://cdn.pixabay.com/photo/2020/01/17/18/08/nature-4773651_640.jpg",
        "src1280": "https://cdn.pixabay.com/photo/2020/01/17/18/08/nature-4773651_1280.jpg"
    },
    {
        "id": "218968",
        "src640": "https://cdn.pixabay.com/photo/2013/11/26/20/22/flower-218968_640.jpg",
        "src1280": "https://cdn.pixabay.com/photo/2013/11/26/20/22/flower-218968_1280.jpg"
    },
    {
        "id": "2006754",
        "src640": "https://cdn.pixabay.com/photo/2017/01/24/23/59/simpsons-2006754_640.jpg",
        "src1280": "https://cdn.pixabay.com/photo/2017/01/24/23/59/simpsons-2006754_1280.jpg"
    },
    {
        "id": "4355686",
        "src640": "https://cdn.pixabay.com/photo/2019/07/22/17/49/bee-4355686_640.jpg",
        "src1280": "https://cdn.pixabay.com/photo/2019/07/22/17/49/bee-4355686_1280.jpg"
    },
    {
        "id": "2593942",
        "src640": "https://cdn.pixabay.com/photo/2017/08/06/16/33/sunset-2593942_640.jpg",
        "src1280": "https://cdn.pixabay.com/photo/2017/08/06/16/33/sunset-2593942_1280.jpg"
    },
    {
        "id": "5221213",
        "src640": "https://cdn.pixabay.com/photo/2020/05/26/03/06/sunrise-5221213_640.jpg",
        "src1280": "https://cdn.pixabay.com/photo/2020/05/26/03/06/sunrise-5221213_1280.jpg"
    },
    {
        "id": "6553075",
        "src640": "https://cdn.pixabay.com/photo/2021/08/17/13/21/mercedes-benz-6553075_640.jpg",
        "src1280": "https://cdn.pixabay.com/photo/2021/08/17/13/21/mercedes-benz-6553075_1280.jpg"
    }
]