[
    {
        "id": "5122405",
        "src640": "https://cdn.pixabay.com/photo/2020/05/02/17/49/applying-5122405_640.jpg",
        "src1280": "https://cdn.pixabay.com/photo/2020/05/02/17/49/applying-5122405_1280.jpg"
    },
    {
        "id": "1840140",
        "src640": "https://cdn.pixabay.com/photo/2016/11/19/16/19/blurred-background-1840140_640.jpg",
        "src1280": "https://cdn.pixabay.com/photo/2016/11/19/16/19/blurred-background-1840140_1280.jpg"
    },
    {
        "id": "5837332",
        "src640": "https://cdn.pixabay.com/photo/2020/12/16/18/32/pineapple-5837332_640.jpg",
        "src1280": "https://cdn.pixabay.com/photo/2020/12/16/18/32/pineapple-5837332_1280.jpg"
    },
    {
        "id": "4386416",
        "src640": "https://cdn.pixabay.com/photo/2019/08/05/16/29/colors-4386416_640.jpg",
        "src1280": "https://cdn.pixabay.com/photo/2019/08/05/16/29/colors-4386416_1280.jpg"
    },
    {
        "id": "6592830",
        "src640": "https://cdn.pixabay.com/photo/2021/09/02/06/44/background-6592830_640.jpg",
        "src1280": "https://cdn.pixabay.com/photo/2021/09/02/06/44/background-6592830_1280.jpg"
    },
    {
        "id": "739133",
        "src640": "https://cdn.pixabay.com/photo/2015/04/25/13/17/easter-739133_640.jpg",
        "src1280": "https://cdn.pixabay.com/photo/2015/04/25/13/17/easter-739133_1280.jpg"
    },
    {
        "id": "5197118",
        "src640": "https://cdn.pixabay.com/photo/2020/05/20/16/04/snail-5197118_640.jpg",
        "src1280": "https://cdn.pixabay.com/photo/2020/05/20/16/04/snail-5197118_1280.jpg"
    },
    {
        "id": "5249253",
        "src640": "https://cdn.pixabay.com/photo/2020/06/02/03/47/arabic-5249253_640.jpg",
        "src1280": "https://cdn.pixabay.com/photo/2020/06/02/03/47/arabic-5249253_1280.jpg"
    },
    {
        "id": "5569245",
        "src640": "https://cdn.pixabay.com/photo/2020/09/13/19/51/mountains-5569245_640.jpg",
        "src1280": "https://cdn.pixabay.com/photo/2020/09/13/19/51/mountains-5569245_1280.jpg"
    },
    {
        "id": "5341119",
        "src640": "https://cdn.pixabay.com/photo/2020/06/25/22/46/book-cover-5341119_640.jpg",
        "src1280": "https://cdn.pixabay.com/photo/2020/06/25/22/46/book-cover-5341119_1280.jpg"
    },
    {
        "id": "7575561",
        "src640": "https://cdn.pixabay.com/photo/2022/11/07/04/04/road-monuments-7575561_640.jpg",
        "src1280": "https://cdn.pixabay.com/photo/2022/11/07/04/04/road-monuments-7575561_1280.jpg"
    },
    {
        "id": "5153135",
        "src640": "https://cdn.pixabay.com/photo/2020/05/10/09/37/spring-5153135_640.jpg",
        "src1280": "https://cdn.pixabay.com/photo/2020/05/10/09/37/spring-5153135_1280.jpg"
    },
    {
        "id": "4713155",
        "src640": "https://cdn.pixabay.com/photo/2019/12/22/19/09/christmas-4713155_640.jpg",
        "src1280": "https://cdn.pixabay.com/photo/2019/12/22/19/09/christmas-4713155_1280.jpg"
    },
    {
        "id": "1173448",
        "src640": "https://cdn.pixabay.com/photo/2016/02/01/11/42/clock-1173448_640.jpg",
        "src1280": "https://cdn.pixabay.com/photo/2016/02/01/11/42/clock-1173448_1280.jpg"
    },
    {
        "id": "3820678",
        "src640": "https://cdn.pixabay.com/photo/2018/11/17/07/45/pattern-3820678_640.jpg",
        "src1280": "https://cdn.pixabay.com/photo/2018/11/17/07/45/pattern-3820678_1280.jpg"
    },
    {
        "id": "2644376",
        "src640": "https://cdn.pixabay.com/photo/2017/08/15/15/34/waterfall-2644376_640.jpg",
        "src1280": "https://cdn.pixabay.com/photo/2017/08/15/15/34/waterfall-2644376_1280.jpg"
    },
    {
        "id": "5231768",
        "src640": "https://cdn.pixabay.com/photo/2020/05/28/16/38/tree-5231768_640.jpg",
        "src1280": "https://cdn.pixabay.com/photo/2020/05/28/16/38/tree-5231768_1280.jpg"
    },
    {
        "id": "1550612",
        "src640": "https://cdn.pixabay.com/photo/2016/07/29/06/36/giant-1550612_640.jpg",
        "src1280": "https://cdn.pixabay.com/photo/2016/07/29/06/36/giant-1550612_1280.jpg"
    },
    {
        "id": "6834462",
        "src640": "https://cdn.pixabay.com/photo/2021/11/30/05/22/spring-6834462_640.jpg",
        "src1280": "https://cdn.pixabay.com/photo/2021/11/30/05/22/spring-6834462_1280.jpg"
    },
    {
        "id": "5738076",
        "src640": "https://cdn.pixabay.com/photo/2020/11/13/09/40/gifts-5738076_640.jpg",
        "src1280": "https://cdn.pixabay.com/photo/2020/11/13/09/40/gifts-5738076_1280.jpg"
    },
    {
        "id": "5217318",
        "src640": "https://cdn.pixabay.com/photo/2020/05/25/07/40/background-5217318_640.jpg",
        "src1280": "https://cdn.pixabay.com/photo/2020/05/25/07/40/background-5217318_1280.jpg"
    },
    {
        "id": "5100308",
        "src640": "https://cdn.pixabay.com/photo/2020/04/27/15/22/flower-5100308_640.jpg",
        "src1280": "https://cdn.pixabay.com/photo/2020/04/27/15/22/flower-5100308_1280.jpg"
    },
    {
        "id": "987544",
        "src640": "https://cdn.pixabay.com/photo/2015/10/14/11/41/wallpapers-987544_640.jpg",
        "src1280": "https://cdn.pixabay.com/photo/2015/10/14/11/41/wallpapers-987544_1280.jpg"
    },
    {
        "id": "6694499",
        "src640": "https://cdn.pixabay.com/photo/2021/10/09/15/45/foliage-6694499_640.jpg",
        "src1280": "https://cdn.pixabay.com/photo/2021/10/09/15/45/foliage-6694499_1280.jpg"
    },
    {
        "id": "5330237",
        "src640": "https://cdn.pixabay.com/photo/2020/06/22/18/46/rose-5330237_640.jpg",
        "src1280": "https://cdn.pixabay.com/photo/2020/06/22/18/46/rose-5330237_1280.jpg"
    },
    {
        "id": "5485739",
        "src640": "https://cdn.pixabay.com/photo/2020/08/13/16/10/knife-5485739_640.jpg",
        "src1280": "https://cdn.pixabay.com/photo/2020/08/13/16/10/knife-5485739_1280.jpg"
    },
    {
        "id": "5026841",
        "src640": "https://cdn.pixabay.com/photo/2020/04/10/17/16/macro-5026841_640.jpg",
        "src1280": "https://cdn.pixabay.com/photo/2020/04/10/17/16/macro-5026841_1280.jpg"
    },
    {
        "id": "106541",
        "src640": "https://cdn.pixabay.com/photo/2013/04/22/19/39/world-of-color-106541_640.jpg",
        "src1280": "https://cdn.pixabay.com/photo/2013/04/22/19/39/world-of-color-106541_1280.jpg"
    },
    {
        "id": "4677135",
        "src640": "https://cdn.pixabay.com/photo/2019/12/06/11/08/close-up-4677135_640.jpg",
        "src1280": "https://cdn.pixabay.com/photo/2019/12/06/11/08/close-up-4677135_1280.jpg"
    },
    {
        "id": "670519",
        "src640": "https://cdn.pixabay.com/photo/2015/03/12/17/25/nature-670519_640.jpg",
        "src1280": "https://cdn.pixabay.com/photo/2015/03/12/17/25/nature-670519_1280.jpg"
    },
    {
        "id": "5223894",
        "src640": "https://cdn.pixabay.com/photo/2020/05/26/17/06/sky-5223894_640.jpg",
        "src1280": "https://cdn.pixabay.com/photo/2020/05/26/17/06/sky-5223894_1280.jpg"
    },
    {
        "id": "5331905",
        "src640": "https://cdn.pixabay.com/photo/2020/06/23/08/49/dog-5331905_640.jpg",
        "src1280": "https://cdn.pixabay.com/photo/2020/06/23/08/49/dog-5331905_1280.jpg"
    },
    {
        "id": "6245987",
        "src640": "https://cdn.pixabay.com/photo/2021/05/11/13/59/smoke-6245987_640.jpg",
        "src1280": "https://cdn.pixabay.com/photo/2021/05/11/13/59/smoke-6245987_1280.jpg"
    },
    {
        "id": "4386420",
        "src640": "https://cdn.pixabay.com/photo/2019/08/05/16/30/colors-4386420_640.jpg",
        "src1280": "https://cdn.pixabay.com/photo/2019/08/05/16/30/colors-4386420_1280.jpg"
    },
    {
        "id": "6245989",
        "src640": "https://cdn.pixabay.com/photo/2021/05/11/14/00/smoke-6245989_640.jpg",
        "src1280": "https://cdn.pixabay.com/photo/2021/05/11/14/00/smoke-6245989_1280.jpg"
    },
    {
        "id": "5459509",
        "src640": "https://cdn.pixabay.com/photo/2020/08/03/08/11/vase-5459509_640.jpg",
        "src1280": "https://cdn.pixabay.com/photo/2020/08/03/08/11/vase-5459509_1280.jpg"
    },
    {
        "id": "2855260",
        "src640": "https://cdn.pixabay.com/photo/2017/10/15/21/05/autumn-2855260_640.jpg",
        "src1280": "https://cdn.pixabay.com/photo/2017/10/15/21/05/autumn-2855260_1280.jpg"
    },
    {
        "id": "4713156",
        "src640": "https://cdn.pixabay.com/photo/2019/12/22/19/09/christmas-4713156_640.jpg",
        "src1280": "https://cdn.pixabay.com/photo/2019/12/22/19/09/christmas-4713156_1280.jpg"
    },
    {
        "id": "3344614",
        "src640": "https://cdn.pixabay.com/photo/2018/04/23/15/37/quarry-3344614_640.jpg",
        "src1280": "https://cdn.pixabay.com/photo/2018/04/23/15/37/quarry-3344614_1280.jpg"
    },
    {
        "id": "7416420",
        "src640": "https://cdn.pixabay.com/photo/2022/08/28/11/31/road-7416420_640.jpg",
        "src1280": "https://cdn.pixabay.com/photo/2022/08/28/11/31/road-7416420_1280.jpg"
    },
    {
        "id": "2668504",
        "src640": "https://cdn.pixabay.com/photo/2017/08/22/10/54/rose-2668504_640.jpg",
        "src1280": "https://cdn.pixabay.com/photo/2017/08/22/10/54/rose-2668504_1280.jpg"
    },
    {
        "id": "4903838",
        "src640": "https://cdn.pixabay.com/photo/2020/03/05/09/01/apricot-4903838_640.jpg",
        "src1280": "https://cdn.pixabay.com/photo/2020/03/05/09/01/apricot-4903838_1280.jpg"
    },
    {
        "id": "3911232",
        "src640": "https://cdn.pixabay.com/photo/2019/01/03/16/01/green-3911232_640.jpg",
        "src1280": "https://cdn.pixabay.com/photo/2019/01/03/16/01/green-3911232_1280.jpg"
    },
    {
        "id": "5329187",
        "src640": "https://cdn.pixabay.com/photo/2020/06/22/13/10/flower-5329187_640.jpg",
        "src1280": "https://cdn.pixabay.com/photo/2020/06/22/13/10/flower-5329187_1280.jpg"
    },
    {
        "id": "5922105",
        "src640": "https://cdn.pixabay.com/photo/2021/01/16/13/12/brick-wall-5922105_640.jpg",
        "src1280": "https://cdn.pixabay.com/photo/2021/01/16/13/12/brick-wall-5922105_1280.jpg"
    },
    {
        "id": "6793817",
        "src640": "https://cdn.pixabay.com/photo/2021/11/14/08/09/art-6793817_640.jpg",
        "src1280": "https://cdn.pixabay.com/photo/2021/11/14/08/09/art-6793817_1280.jpg"
    },
    {
        "id": "4713160",
        "src640": "https://cdn.pixabay.com/photo/2019/12/22/19/11/christmas-4713160_640.jpg",
        "src1280": "https://cdn.pixabay.com/photo/2019/12/22/19/11/christmas-4713160_1280.jpg"
    },
    {
        "id": "4981806",
        "src640": "https://cdn.pixabay.com/photo/2020/03/29/18/39/yellow-4981806_640.jpg",
        "src1280": "https://cdn.pixabay.com/photo/2020/03/29/18/39/yellow-4981806_1280.jpg"
    },
    {
        "id": "3333254",
        "src640": "https://cdn.pixabay.com/photo/2018/04/19/14/38/nature-3333254_640.jpg",
        "src1280": "https://cdn.pixabay.com/photo/2018/04/19/14/38/nature-3333254_1280.jpg"
    },
    {
        "id": "4531672",
        "src640": "https://cdn.pixabay.com/photo/2019/10/07/03/54/wheat-4531672_640.jpg",
        "src1280": "https://cdn.pixabay.com/photo/2019/10/07/03/54/wheat-4531672_1280.jpg"
    },
    {
        "id": "5390655",
        "src640": "https://cdn.pixabay.com/photo/2020/07/10/13/17/defense-5390655_640.jpg",
        "src1280": "https://cdn.pixabay.com/photo/2020/07/10/13/17/defense-5390655_1280.jpg"
    },
    {
        "id": "5022228",
        "src640": "https://cdn.pixabay.com/photo/2020/04/09/16/45/knife-5022228_640.jpg",
        "src1280": "https://cdn.pixabay.com/photo/2020/04/09/16/45/knife-5022228_1280.jpg"
    },
    {
        "id": "2545958",
        "src640": "https://cdn.pixabay.com/photo/2017/07/27/16/51/beach-2545958_640.jpg",
        "src1280": "https://cdn.pixabay.com/photo/2017/07/27/16/51/beach-2545958_1280.jpg"
    },
    {
        "id": "5389113",
        "src640": "https://cdn.pixabay.com/photo/2020/07/10/00/41/bird-5389113_640.jpg",
        "src1280": "https://cdn.pixabay.com/photo/2020/07/10/00/41/bird-5389113_1280.jpg"
    },
    {
        "id": "5893615",
        "src640": "https://cdn.pixabay.com/photo/2021/01/06/08/44/sprig-5893615_640.jpg",
        "src1280": "https://cdn.pixabay.com/photo/2021/01/06/08/44/sprig-5893615_1280.jpg"
    },
    {
        "id": "4514900",
        "src640": "https://cdn.pixabay.com/photo/2019/09/30/06/04/fashion-4514900_640.jpg",
        "src1280": "https://cdn.pixabay.com/photo/2019/09/30/06/04/fashion-4514900_1280.jpg"
    },
    {
        "id": "21909",
        "src640": "https://cdn.pixabay.com/photo/2012/03/04/00/24/background-21909_640.jpg",
        "src1280": "https://cdn.pixabay.com/photo/2012/03/04/00/24/background-21909_1280.jpg"
    },
    {
        "id": "5852777",
        "src640": "https://cdn.pixabay.com/photo/2020/12/22/17/02/waterfall-5852777_640.jpg",
        "src1280": "https://cdn.pixabay.com/photo/2020/12/22/17/02/waterfall-5852777_1280.jpg"
    },
    {
        "id": "6876300",
        "src640": "https://cdn.pixabay.com/photo/2021/12/17/11/45/coast-6876300_640.jpg",
        "src1280": "https://cdn.pixabay.com/photo/2021/12/17/11/45/coast-6876300_1280.jpg"
    },
    {
        "id": "4701039",
        "src640": "https://cdn.pixabay.com/photo/2019/12/17/07/58/golden-4701039_640.jpg",
        "src1280": "https://cdn.pixabay.com/photo/2019/12/17/07/58/golden-4701039_1280.jpg"
    },
    {
        "id": "4713168",
        "src640": "https://cdn.pixabay.com/photo/2019/12/22/19/13/christmas-4713168_640.jpg",
        "src1280": "https://cdn.pixabay.com/photo/2019/12/22/19/13/christmas-4713168_1280.jpg"
    },
    {
        "id": "3685232",
        "src640": "https://cdn.pixabay.com/photo/2018/09/18/03/11/flower-3685232_640.jpg",
        "src1280": "https://cdn.pixabay.com/photo/2018/09/18/03/11/flower-3685232_1280.jpg"
    },
    {
        "id": "4908840",
        "src640": "https://cdn.pixabay.com/photo/2020/03/07/06/20/forest-4908840_640.jpg",
        "src1280": "https://cdn.pixabay.com/photo/2020/03/07/06/20/forest-4908840_1280.jpg"
    },
    {
        "id": "5312400",
        "src640": "https://cdn.pixabay.com/photo/2020/06/18/08/09/denim-5312400_640.jpg",
        "src1280": "https://cdn.pixabay.com/photo/2020/06/18/08/09/denim-5312400_1280.jpg"
    },
    {
        "id": "8083008",
        "src640": "https://cdn.pixabay.com/photo/2023/06/23/08/27/building-8083008_640.jpg",
        "src1280": "https://cdn.pixabay.com/photo/2023/06/23/08/27/building-8083008_1280.jpg"
    },
    {
        "id": "5360977",
        "src640": "https://cdn.pixabay.com/photo/2020/07/01/20/47/flower-5360977_640.jpg",
        "src1280": "https://cdn.pixabay.com/photo/2020/07/01/20/47/flower-5360977_1280.jpg"
    },
    {
        "id": "5393852",
        "src640": "https://cdn.pixabay.com/photo/2020/07/11/12/25/wood-5393852_640.jpg",
        "src1280": "https://cdn.pixabay.com/photo/2020/07/11/12/25/wood-5393852_1280.jpg"
    },
    {
        "id": "2858063",
        "src640": "https://cdn.pixabay.com/photo/2017/10/16/18/29/egypt-2858063_640.jpg",
        "src1280": "https://cdn.pixabay.com/photo/2017/10/16/18/29/egypt-2858063_1280.jpg"
    },
    {
        "id": "4973922",
        "src640": "https://cdn.pixabay.com/photo/2020/03/27/15/32/shoes-4973922_640.jpg",
        "src1280": "https://cdn.pixabay.com/photo/2020/03/27/15/32/shoes-4973922_1280.jpg"
    },
    {
        "id": "5400667",
        "src640": "https://cdn.pixabay.com/photo/2020/07/13/12/54/shorts-5400667_640.jpg",
        "src1280": "https://cdn.pixabay.com/photo/2020/07/13/12/54/shorts-5400667_1280.jpg"
    },
    {
        "id": "2805597",
        "src640": "https://cdn.pixabay.com/photo/2017/10/01/13/53/flower-2805597_640.jpg",
        "src1280": "https://cdn.pixabay.com/photo/2017/10/01/13/53/flower-2805597_1280.jpg"
    },
    {
        "id": "3831821",
        "src640": "https://cdn.pixabay.com/photo/2018/11/22/12/47/clothing-3831821_640.jpg",
        "src1280": "https://cdn.pixabay.com/photo/2018/11/22/12/47/clothing-3831821_1280.jpg"
    },
    {
        "id": "4625623",
        "src640": "https://cdn.pixabay.com/photo/2019/11/14/08/31/frost-4625623_640.jpg",
        "src1280": "https://cdn.pixabay.com/photo/2019/11/14/08/31/frost-4625623_1280.jpg"
    },
    {
        "id": "2489811",
        "src640": "https://cdn.pixabay.com/photo/2017/07/10/11/23/image-2489811_640.jpg",
        "src1280": "https://cdn.pixabay.com/photo/2017/07/10/11/23/image-2489811_1280.jpg"
    },
    {
        "id": "5876824",
        "src640": "https://cdn.pixabay.com/photo/2020/12/31/15/46/morskie-oko-5876824_640.jpg",
        "src1280": "https://cdn.pixabay.com/photo/2020/12/31/15/46/morskie-oko-5876824_1280.jpg"
    },
    {
        "id": "5004161",
        "src640": "https://cdn.pixabay.com/photo/2020/04/05/00/11/tulip-5004161_640.jpg",
        "src1280": "https://cdn.pixabay.com/photo/2020/04/05/00/11/tulip-5004161_1280.jpg"
    },
    {
        "id": "5780686",
        "src640": "https://cdn.pixabay.com/photo/2020/11/27/03/31/christmas-5780686_640.jpg",
        "src1280": "https://cdn.pixabay.com/photo/2020/11/27/03/31/christmas-5780686_1280.jpg"
    },
    {
        "id": "5321344",
        "src640": "https://cdn.pixabay.com/photo/2020/06/20/15/27/flower-5321344_640.jpg",
        "src1280": "https://cdn.pixabay.com/photo/2020/06/20/15/27/flower-5321344_1280.jpg"
    },
    {
        "id": "5026186",
        "src640": "https://cdn.pixabay.com/photo/2020/04/10/15/03/mehendi-5026186_640.jpg",
        "src1280": "https://cdn.pixabay.com/photo/2020/04/10/15/03/mehendi-5026186_1280.jpg"
    },
    {
        "id": "1813278",
        "src640": "https://cdn.pixabay.com/photo/2016/11/10/01/17/leaning-1813278_640.jpg",
        "src1280": "https://cdn.pixabay.com/photo/2016/11/10/01/17/leaning-1813278_1280.jpg"
    },
    {
        "id": "4973918",
        "src640": "https://cdn.pixabay.com/photo/2020/03/27/15/32/shoes-4973918_640.jpg",
        "src1280": "https://cdn.pixabay.com/photo/2020/03/27/15/32/shoes-4973918_1280.jpg"
    },
    {
        "id": "932796",
        "src640": "https://cdn.pixabay.com/photo/2015/09/09/19/32/green-932796_640.jpg",
        "src1280": "https://cdn.pixabay.com/photo/2015/09/09/19/32/green-932796_1280.jpg"
    },
    {
        "id": "5050694",
        "src640": "https://cdn.pixabay.com/photo/2020/04/16/13/48/knife-5050694_640.jpg",
        "src1280": "https://cdn.pixabay.com/photo/2020/04/16/13/48/knife-5050694_1280.jpg"
    },
    {
        "id": "2669636",
        "src640": "https://cdn.pixabay.com/photo/2017/08/22/16/44/flower-2669636_640.jpg",
        "src1280": "https://cdn.pixabay.com/photo/2017/08/22/16/44/flower-2669636_1280.jpg"
    },
    {
        "id": "4713169",
        "src640": "https://cdn.pixabay.com/photo/2019/12/22/19/13/christmas-4713169_640.jpg",
        "src1280": "https://cdn.pixabay.com/photo/2019/12/22/19/13/christmas-4713169_1280.jpg"
    },
    {
        "id": "4963885",
        "src640": "https://cdn.pixabay.com/photo/2020/03/24/12/13/flower-4963885_640.jpg",
        "src1280": "https://cdn.pixabay.com/photo/2020/03/24/12/13/flower-4963885_1280.jpg"
    },
    {
        "id": "4713162",
        "src640": "https://cdn.pixabay.com/photo/2019/12/22/19/12/christmas-4713162_640.jpg",
        "src1280": "https://cdn.pixabay.com/photo/2019/12/22/19/12/christmas-4713162_1280.jpg"
    },
    {
        "id": "5245762",
        "src640": "https://cdn.pixabay.com/photo/2020/06/01/09/01/arabic-5245762_640.jpg",
        "src1280": "https://cdn.pixabay.com/photo/2020/06/01/09/01/arabic-5245762_1280.jpg"
    },
    {
        "id": "4713157",
        "src640": "https://cdn.pixabay.com/photo/2019/12/22/19/10/christmas-4713157_640.jpg",
        "src1280": "https://cdn.pixabay.com/photo/2019/12/22/19/10/christmas-4713157_1280.jpg"
    },
    {
        "id": "7518220",
        "src640": "https://cdn.pixabay.com/photo/2022/10/13/05/40/keyboard-7518220_640.jpg",
        "src1280": "https://cdn.pixabay.com/photo/2022/10/13/05/40/keyboard-7518220_1280.jpg"
    },
    {
        "id": "4713194",
        "src640": "https://cdn.pixabay.com/photo/2019/12/22/19/23/christmas-4713194_640.jpg",
        "src1280": "https://cdn.pixabay.com/photo/2019/12/22/19/23/christmas-4713194_1280.jpg"
    },
    {
        "id": "5006992",
        "src640": "https://cdn.pixabay.com/photo/2020/04/05/17/21/flower-5006992_640.jpg",
        "src1280": "https://cdn.pixabay.com/photo/2020/04/05/17/21/flower-5006992_1280.jpg"
    },
    {
        "id": "7425358",
        "src640": "https://cdn.pixabay.com/photo/2022/09/01/11/28/mountain-7425358_640.jpg",
        "src1280": "https://cdn.pixabay.com/photo/2022/09/01/11/28/mountain-7425358_1280.jpg"
    },
    {
        "id": "5016095",
        "src640": "https://cdn.pixabay.com/photo/2020/04/08/07/25/butterfly-5016095_640.jpg",
        "src1280": "https://cdn.pixabay.com/photo/2020/04/08/07/25/butterfly-5016095_1280.jpg"
    },
    {
        "id": "5460767",
        "src640": "https://cdn.pixabay.com/photo/2020/08/03/18/30/sea-5460767_640.jpg",
        "src1280": "https://cdn.pixabay.com/photo/2020/08/03/18/30/sea-5460767_1280.jpg"
    },
    {
        "id": "4339598",
        "src640": "https://cdn.pixabay.com/photo/2019/07/15/15/12/sink-4339598_640.jpg",
        "src1280": "https://cdn.pixabay.com/photo/2019/07/15/15/12/sink-4339598_1280.jpg"
    },
    {
        "id": "4065043",
        "src640": "https://cdn.pixabay.com/photo/2019/03/19/08/34/estuary-4065043_640.jpg",
        "src1280": "https://cdn.pixabay.com/photo/2019/03/19/08/34/estuary-4065043_1280.jpg"
    }
]