[
    {
        "id": "3285176",
        "src640": "https://images.pexels.com/photos/3285176/pexels-photo-3285176.jpeg?auto=compress&cs=tinysrgb&w=750",
        "src1280": "https://images.pexels.com/photos/3285176/pexels-photo-3285176.jpeg?auto=compress&cs=tinysrgb&w=1440",
        "downloadlink": "https://images.pexels.com/photos/3285176/pexels-photo-3285176.jpeg?cs=srgb&dl=pexels-jonathan-borba-3285176.jpg&fm=jpg"
    },
    {
        "id": "3287328",
        "src640": "https://images.pexels.com/photos/3287328/pexels-photo-3287328.jpeg?auto=compress&cs=tinysrgb&w=750",
        "src1280": "https://images.pexels.com/photos/3287328/pexels-photo-3287328.jpeg?auto=compress&cs=tinysrgb&w=1440",
        "downloadlink": "https://images.pexels.com/photos/3287328/pexels-photo-3287328.jpeg?cs=srgb&dl=pexels-dellon-thomas-3287328.jpg&fm=jpg"
    },
    {
        "id": "3414047",
        "src640": "https://images.pexels.com/photos/3414047/pexels-photo-3414047.jpeg?auto=compress&cs=tinysrgb&w=750",
        "src1280": "https://images.pexels.com/photos/3414047/pexels-photo-3414047.jpeg?auto=compress&cs=tinysrgb&w=1440",
        "downloadlink": "https://images.pexels.com/photos/3414047/pexels-photo-3414047.jpeg?cs=srgb&dl=pexels-jonathan-borba-3414047.jpg&fm=jpg"
    },
    {
        "id": "3419684",
        "src640": "https://images.pexels.com/photos/3419684/pexels-photo-3419684.jpeg?auto=compress&cs=tinysrgb&w=750",
        "src1280": "https://images.pexels.com/photos/3419684/pexels-photo-3419684.jpeg?auto=compress&cs=tinysrgb&w=1440",
        "downloadlink": "https://images.pexels.com/photos/3419684/pexels-photo-3419684.jpeg?cs=srgb&dl=pexels-cottonbro-studio-3419684.jpg&fm=jpg"
    },
    {
        "id": "3419695",
        "src640": "https://images.pexels.com/photos/3419695/pexels-photo-3419695.jpeg?auto=compress&cs=tinysrgb&w=750",
        "src1280": "https://images.pexels.com/photos/3419695/pexels-photo-3419695.jpeg?auto=compress&cs=tinysrgb&w=1440",
        "downloadlink": "https://images.pexels.com/photos/3419695/pexels-photo-3419695.jpeg?cs=srgb&dl=pexels-cottonbro-studio-3419695.jpg&fm=jpg"
    },
    {
        "id": "3419698",
        "src640": "https://images.pexels.com/photos/3419698/pexels-photo-3419698.jpeg?auto=compress&cs=tinysrgb&w=750",
        "src1280": "https://images.pexels.com/photos/3419698/pexels-photo-3419698.jpeg?auto=compress&cs=tinysrgb&w=1440",
        "downloadlink": "https://images.pexels.com/photos/3419698/pexels-photo-3419698.jpeg?cs=srgb&dl=pexels-cottonbro-studio-3419698.jpg&fm=jpg"
    },
    {
        "id": "3435321",
        "src640": "https://images.pexels.com/photos/3435321/pexels-photo-3435321.jpeg?auto=compress&cs=tinysrgb&w=750",
        "src1280": "https://images.pexels.com/photos/3435321/pexels-photo-3435321.jpeg?auto=compress&cs=tinysrgb&w=1440",
        "downloadlink": "https://images.pexels.com/photos/3435321/pexels-photo-3435321.jpeg?cs=srgb&dl=pexels-hudson-marques-3435321.jpg&fm=jpg"
    },
    {
        "id": "3556665",
        "src640": "https://images.pexels.com/photos/3556665/pexels-photo-3556665.jpeg?auto=compress&cs=tinysrgb&w=750",
        "src1280": "https://images.pexels.com/photos/3556665/pexels-photo-3556665.jpeg?auto=compress&cs=tinysrgb&w=1440",
        "downloadlink": "https://images.pexels.com/photos/3556665/pexels-photo-3556665.jpeg?cs=srgb&dl=pexels-%D1%81%D0%B0%D1%88%D0%B0-%D0%BB%D0%B0%D0%B7%D0%B0%D1%80%D0%B5%D0%B2-3556665.jpg&fm=jpg"
    },
    {
        "id": "3612677",
        "src640": "https://images.pexels.com/photos/3612677/pexels-photo-3612677.jpeg?auto=compress&cs=tinysrgb&w=750",
        "src1280": "https://images.pexels.com/photos/3612677/pexels-photo-3612677.jpeg?auto=compress&cs=tinysrgb&w=1440",
        "downloadlink": "https://images.pexels.com/photos/3612677/pexels-photo-3612677.jpeg?cs=srgb&dl=pexels-arsham-haghani-3612677.jpg&fm=jpg"
    },
    {
        "id": "3616933",
        "src640": "https://images.pexels.com/photos/3616933/pexels-photo-3616933.jpeg?auto=compress&cs=tinysrgb&w=750",
        "src1280": "https://images.pexels.com/photos/3616933/pexels-photo-3616933.jpeg?auto=compress&cs=tinysrgb&w=1440",
        "downloadlink": "https://images.pexels.com/photos/3616933/pexels-photo-3616933.jpeg?cs=srgb&dl=pexels-h%E1%BA%A3i-nguy%E1%BB%85n-3616933.jpg&fm=jpg"
    },
    {
        "id": "3616936",
        "src640": "https://images.pexels.com/photos/3616936/pexels-photo-3616936.jpeg?auto=compress&cs=tinysrgb&w=750",
        "src1280": "https://images.pexels.com/photos/3616936/pexels-photo-3616936.jpeg?auto=compress&cs=tinysrgb&w=1440",
        "downloadlink": "https://images.pexels.com/photos/3616936/pexels-photo-3616936.jpeg?cs=srgb&dl=pexels-h%E1%BA%A3i-nguy%E1%BB%85n-3616936.jpg&fm=jpg"
    },
    {
        "id": "3615456",
        "src640": "https://images.pexels.com/photos/3615456/pexels-photo-3615456.jpeg?auto=compress&cs=tinysrgb&w=750",
        "src1280": "https://images.pexels.com/photos/3615456/pexels-photo-3615456.jpeg?auto=compress&cs=tinysrgb&w=1440",
        "downloadlink": "https://images.pexels.com/photos/3615456/pexels-photo-3615456.jpeg?cs=srgb&dl=pexels-maryia-plashchynskaya-3615456.jpg&fm=jpg"
    },
    {
        "id": "3632638",
        "src640": "https://images.pexels.com/photos/3632638/pexels-photo-3632638.jpeg?auto=compress&cs=tinysrgb&w=750",
        "src1280": "https://images.pexels.com/photos/3632638/pexels-photo-3632638.jpeg?auto=compress&cs=tinysrgb&w=1440",
        "downloadlink": "https://images.pexels.com/photos/3632638/pexels-photo-3632638.jpeg?cs=srgb&dl=pexels-lisa-fotios-3632638.jpg&fm=jpg"
    },
    {
        "id": "3632869",
        "src640": "https://images.pexels.com/photos/3632869/pexels-photo-3632869.jpeg?auto=compress&cs=tinysrgb&w=750",
        "src1280": "https://images.pexels.com/photos/3632869/pexels-photo-3632869.jpeg?auto=compress&cs=tinysrgb&w=1440",
        "downloadlink": "https://images.pexels.com/photos/3632869/pexels-photo-3632869.jpeg?cs=srgb&dl=pexels-allan-franca-carmo-3632869.jpg&fm=jpg"
    },
    {
        "id": "3640429",
        "src640": "https://images.pexels.com/photos/3640429/pexels-photo-3640429.png?auto=compress&cs=tinysrgb&w=750",
        "src1280": "https://images.pexels.com/photos/3640429/pexels-photo-3640429.png?auto=compress&cs=tinysrgb&w=1440",
        "downloadlink": "https://images.pexels.com/photos/3640429/pexels-photo-3640429.png?cs=srgb&dl=pexels-h%C3%BCsamettin-akg%C3%BCn-3640429.jpg&fm=jpg"
    },
    {
        "id": "4972598",
        "src640": "https://images.pexels.com/photos/4972598/pexels-photo-4972598.jpeg?auto=compress&cs=tinysrgb&w=750",
        "src1280": "https://images.pexels.com/photos/4972598/pexels-photo-4972598.jpeg?auto=compress&cs=tinysrgb&w=1440",
        "downloadlink": "https://images.pexels.com/photos/4972598/pexels-photo-4972598.jpeg?cs=srgb&dl=pexels-cottonbro-studio-4972598.jpg&fm=jpg"
    },
    {
        "id": "5012111",
        "src640": "https://images.pexels.com/photos/5012111/pexels-photo-5012111.jpeg?auto=compress&cs=tinysrgb&w=750",
        "src1280": "https://images.pexels.com/photos/5012111/pexels-photo-5012111.jpeg?auto=compress&cs=tinysrgb&w=1440",
        "downloadlink": "https://images.pexels.com/photos/5012111/pexels-photo-5012111.jpeg?cs=srgb&dl=pexels-anna-shvets-5012111.jpg&fm=jpg"
    },
    {
        "id": "5012336",
        "src640": "https://images.pexels.com/photos/5012336/pexels-photo-5012336.jpeg?auto=compress&cs=tinysrgb&w=750",
        "src1280": "https://images.pexels.com/photos/5012336/pexels-photo-5012336.jpeg?auto=compress&cs=tinysrgb&w=1440",
        "downloadlink": "https://images.pexels.com/photos/5012336/pexels-photo-5012336.jpeg?cs=srgb&dl=pexels-anna-shvets-5012336.jpg&fm=jpg"
    },
    {
        "id": "4723137",
        "src640": "https://images.pexels.com/photos/4723137/pexels-photo-4723137.jpeg?auto=compress&cs=tinysrgb&w=750",
        "src1280": "https://images.pexels.com/photos/4723137/pexels-photo-4723137.jpeg?auto=compress&cs=tinysrgb&w=1440",
        "downloadlink": "https://images.pexels.com/photos/4723137/pexels-photo-4723137.jpeg?cs=srgb&dl=pexels-olia-danilevich-4723137.jpg&fm=jpg"
    },
    {
        "id": "4773084",
        "src640": "https://images.pexels.com/photos/4773084/pexels-photo-4773084.jpeg?auto=compress&cs=tinysrgb&w=750",
        "src1280": "https://images.pexels.com/photos/4773084/pexels-photo-4773084.jpeg?auto=compress&cs=tinysrgb&w=1440",
        "downloadlink": "https://images.pexels.com/photos/4773084/pexels-photo-4773084.jpeg?cs=srgb&dl=pexels-nataliya-vaitkevich-4773084.jpg&fm=jpg"
    },
    {
        "id": "4906287",
        "src640": "https://images.pexels.com/photos/4906287/pexels-photo-4906287.jpeg?auto=compress&cs=tinysrgb&w=750",
        "src1280": "https://images.pexels.com/photos/4906287/pexels-photo-4906287.jpeg?auto=compress&cs=tinysrgb&w=1440",
        "downloadlink": "https://images.pexels.com/photos/4906287/pexels-photo-4906287.jpeg?cs=srgb&dl=pexels-maria-orlova-4906287.jpg&fm=jpg"
    },
    {
        "id": "4992377",
        "src640": "https://images.pexels.com/photos/4992377/pexels-photo-4992377.jpeg?auto=compress&cs=tinysrgb&w=750",
        "src1280": "https://images.pexels.com/photos/4992377/pexels-photo-4992377.jpeg?auto=compress&cs=tinysrgb&w=1440",
        "downloadlink": "https://images.pexels.com/photos/4992377/pexels-photo-4992377.jpeg?cs=srgb&dl=pexels-rachel-claire-4992377.jpg&fm=jpg"
    },
    {
        "id": "4992378",
        "src640": "https://images.pexels.com/photos/4992378/pexels-photo-4992378.jpeg?auto=compress&cs=tinysrgb&w=750",
        "src1280": "https://images.pexels.com/photos/4992378/pexels-photo-4992378.jpeg?auto=compress&cs=tinysrgb&w=1440",
        "downloadlink": "https://images.pexels.com/photos/4992378/pexels-photo-4992378.jpeg?cs=srgb&dl=pexels-rachel-claire-4992378.jpg&fm=jpg"
    },
    {
        "id": "4992386",
        "src640": "https://images.pexels.com/photos/4992386/pexels-photo-4992386.jpeg?auto=compress&cs=tinysrgb&w=750",
        "src1280": "https://images.pexels.com/photos/4992386/pexels-photo-4992386.jpeg?auto=compress&cs=tinysrgb&w=1440",
        "downloadlink": "https://images.pexels.com/photos/4992386/pexels-photo-4992386.jpeg?cs=srgb&dl=pexels-rachel-claire-4992386.jpg&fm=jpg"
    }
]