[
    {
        "id": "1239288",
        "src640": "https://images.pexels.com/photos/1239288/pexels-photo-1239288.jpeg?auto=compress&cs=tinysrgb&w=750",
        "src1280": "https://images.pexels.com/photos/1239288/pexels-photo-1239288.jpeg?auto=compress&cs=tinysrgb&w=1440",
        "downloadlink": "https://images.pexels.com/photos/1239288/pexels-photo-1239288.jpeg?cs=srgb&dl=pexels-daniel-xavier-1239288.jpg&fm=jpg"
    },
    {
        "id": "4946635",
        "src640": "https://images.pexels.com/photos/4946635/pexels-photo-4946635.jpeg?auto=compress&cs=tinysrgb&w=750",
        "src1280": "https://images.pexels.com/photos/4946635/pexels-photo-4946635.jpeg?auto=compress&cs=tinysrgb&w=1440",
        "downloadlink": "https://images.pexels.com/photos/4946635/pexels-photo-4946635.jpeg?cs=srgb&dl=pexels-maria-orlova-4946635.jpg&fm=jpg"
    },
    {
        "id": "2983464",
        "src640": "https://images.pexels.com/photos/2983464/pexels-photo-2983464.jpeg?auto=compress&cs=tinysrgb&w=750",
        "src1280": "https://images.pexels.com/photos/2983464/pexels-photo-2983464.jpeg?auto=compress&cs=tinysrgb&w=1440",
        "downloadlink": "https://images.pexels.com/photos/2983464/pexels-photo-2983464.jpeg?cs=srgb&dl=pexels-orione-concei%C3%A7%C3%A3o-2983464.jpg&fm=jpg"
    },
    {
        "id": "3189024",
        "src640": "https://images.pexels.com/photos/3189024/pexels-photo-3189024.jpeg?auto=compress&cs=tinysrgb&w=750",
        "src1280": "https://images.pexels.com/photos/3189024/pexels-photo-3189024.jpeg?auto=compress&cs=tinysrgb&w=1440",
        "downloadlink": "https://images.pexels.com/photos/3189024/pexels-photo-3189024.jpeg?cs=srgb&dl=pexels-dellon-thomas-3189024.jpg&fm=jpg"
    },
    {
        "id": "3007759",
        "src640": "https://images.pexels.com/photos/3007759/pexels-photo-3007759.jpeg?auto=compress&cs=tinysrgb&w=750",
        "src1280": "https://images.pexels.com/photos/3007759/pexels-photo-3007759.jpeg?auto=compress&cs=tinysrgb&w=1440",
        "downloadlink": "https://images.pexels.com/photos/3007759/pexels-photo-3007759.jpeg?cs=srgb&dl=pexels-roy-reyna-3007759.jpg&fm=jpg"
    },
    {
        "id": "4906284",
        "src640": "https://images.pexels.com/photos/4906284/pexels-photo-4906284.jpeg?auto=compress&cs=tinysrgb&w=750",
        "src1280": "https://images.pexels.com/photos/4906284/pexels-photo-4906284.jpeg?auto=compress&cs=tinysrgb&w=1440",
        "downloadlink": "https://images.pexels.com/photos/4906284/pexels-photo-4906284.jpeg?cs=srgb&dl=pexels-maria-orlova-4906284.jpg&fm=jpg"
    },
    {
        "id": "1852300",
        "src640": "https://images.pexels.com/photos/1852300/pexels-photo-1852300.jpeg?auto=compress&cs=tinysrgb&w=750",
        "src1280": "https://images.pexels.com/photos/1852300/pexels-photo-1852300.jpeg?auto=compress&cs=tinysrgb&w=1440",
        "downloadlink": "https://images.pexels.com/photos/1852300/pexels-photo-1852300.jpeg?cs=srgb&dl=pexels-rodolfo-quir%C3%B3s-1852300.jpg&fm=jpg"
    },
    {
        "id": "1002841",
        "src640": "https://images.pexels.com/photos/1002841/pexels-photo-1002841.jpeg?auto=compress&cs=tinysrgb&w=750",
        "src1280": "https://images.pexels.com/photos/1002841/pexels-photo-1002841.jpeg?auto=compress&cs=tinysrgb&w=1440",
        "downloadlink": "https://images.pexels.com/photos/1002841/pexels-photo-1002841.jpeg?cs=srgb&dl=pexels-nayleth-1002841.jpg&fm=jpg"
    },
    {
        "id": "1068205",
        "src640": "https://images.pexels.com/photos/1068205/pexels-photo-1068205.jpeg?auto=compress&cs=tinysrgb&w=750",
        "src1280": "https://images.pexels.com/photos/1068205/pexels-photo-1068205.jpeg?auto=compress&cs=tinysrgb&w=1440",
        "downloadlink": "https://images.pexels.com/photos/1068205/pexels-photo-1068205.jpeg?cs=srgb&dl=pexels-nappy-1068205.jpg&fm=jpg"
    },
    {
        "id": "2954496",
        "src640": "https://images.pexels.com/photos/2954496/pexels-photo-2954496.jpeg?auto=compress&cs=tinysrgb&w=750",
        "src1280": "https://images.pexels.com/photos/2954496/pexels-photo-2954496.jpeg?auto=compress&cs=tinysrgb&w=1440",
        "downloadlink": "https://images.pexels.com/photos/2954496/pexels-photo-2954496.jpeg?cs=srgb&dl=pexels-maycon-marmo-2954496.jpg&fm=jpg"
    },
    {
        "id": "2701570",
        "src640": "https://images.pexels.com/photos/2701570/pexels-photo-2701570.jpeg?auto=compress&cs=tinysrgb&w=750",
        "src1280": "https://images.pexels.com/photos/2701570/pexels-photo-2701570.jpeg?auto=compress&cs=tinysrgb&w=1440",
        "downloadlink": "https://images.pexels.com/photos/2701570/pexels-photo-2701570.jpeg?cs=srgb&dl=pexels-jorge-fakhouri-filho-2701570.jpg&fm=jpg"
    },
    {
        "id": "2489986",
        "src640": "https://images.pexels.com/photos/2489986/pexels-photo-2489986.jpeg?auto=compress&cs=tinysrgb&w=750",
        "src1280": "https://images.pexels.com/photos/2489986/pexels-photo-2489986.jpeg?auto=compress&cs=tinysrgb&w=1440",
        "downloadlink": "https://images.pexels.com/photos/2489986/pexels-photo-2489986.jpeg?cs=srgb&dl=pexels-wellington-cunha-2489986.jpg&fm=jpg"
    },
    {
        "id": "2887718",
        "src640": "https://images.pexels.com/photos/2887718/pexels-photo-2887718.jpeg?auto=compress&cs=tinysrgb&w=750",
        "src1280": "https://images.pexels.com/photos/2887718/pexels-photo-2887718.jpeg?auto=compress&cs=tinysrgb&w=1440",
        "downloadlink": "https://images.pexels.com/photos/2887718/pexels-photo-2887718.jpeg?cs=srgb&dl=pexels-ali-pazani-2887718.jpg&fm=jpg"
    },
    {
        "id": "5012112",
        "src640": "https://images.pexels.com/photos/5012112/pexels-photo-5012112.jpeg?auto=compress&cs=tinysrgb&w=750",
        "src1280": "https://images.pexels.com/photos/5012112/pexels-photo-5012112.jpeg?auto=compress&cs=tinysrgb&w=1440",
        "downloadlink": "https://images.pexels.com/photos/5012112/pexels-photo-5012112.jpeg?cs=srgb&dl=pexels-anna-shvets-5012112.jpg&fm=jpg"
    },
    {
        "id": "1906815",
        "src640": "https://images.pexels.com/photos/1906815/pexels-photo-1906815.jpeg?auto=compress&cs=tinysrgb&w=750",
        "src1280": "https://images.pexels.com/photos/1906815/pexels-photo-1906815.jpeg?auto=compress&cs=tinysrgb&w=1440",
        "downloadlink": "https://images.pexels.com/photos/1906815/pexels-photo-1906815.jpeg?cs=srgb&dl=pexels-alessio-cesario-1906815.jpg&fm=jpg"
    },
    {
        "id": "2235071",
        "src640": "https://images.pexels.com/photos/2235071/pexels-photo-2235071.jpeg?auto=compress&cs=tinysrgb&w=750",
        "src1280": "https://images.pexels.com/photos/2235071/pexels-photo-2235071.jpeg?auto=compress&cs=tinysrgb&w=1440",
        "downloadlink": "https://images.pexels.com/photos/2235071/pexels-photo-2235071.jpeg?cs=srgb&dl=pexels-yuri-manei-2235071.jpg&fm=jpg"
    },
    {
        "id": "7945660",
        "src640": "https://images.pexels.com/photos/7945660/pexels-photo-7945660.jpeg?auto=compress&cs=tinysrgb&w=750",
        "src1280": "https://images.pexels.com/photos/7945660/pexels-photo-7945660.jpeg?auto=compress&cs=tinysrgb&w=1440",
        "downloadlink": "https://images.pexels.com/photos/7945660/pexels-photo-7945660.jpeg?cs=srgb&dl=pexels-%D0%BA%D0%B0%D1%80%D0%B8%D0%BD%D0%B0-%D0%BA%D0%B0%D1%80%D0%B6%D0%B0%D0%B2%D0%B8%D0%BD%D0%B0-7945660.jpg&fm=jpg"
    },
    {
        "id": "5852474",
        "src640": "https://images.pexels.com/photos/5852474/pexels-photo-5852474.jpeg?auto=compress&cs=tinysrgb&w=750",
        "src1280": "https://images.pexels.com/photos/5852474/pexels-photo-5852474.jpeg?auto=compress&cs=tinysrgb&w=1440",
        "downloadlink": "https://images.pexels.com/photos/5852474/pexels-photo-5852474.jpeg?cs=srgb&dl=pexels-cottonbro-studio-5852474.jpg&fm=jpg"
    },
    {
        "id": "6998275",
        "src640": "https://images.pexels.com/photos/6998275/pexels-photo-6998275.jpeg?auto=compress&cs=tinysrgb&w=750",
        "src1280": "https://images.pexels.com/photos/6998275/pexels-photo-6998275.jpeg?auto=compress&cs=tinysrgb&w=1440",
        "downloadlink": "https://images.pexels.com/photos/6998275/pexels-photo-6998275.jpeg?cs=srgb&dl=pexels-arina-krasnikova-6998275.jpg&fm=jpg"
    },
    {
        "id": "7036552",
        "src640": "https://images.pexels.com/photos/7036552/pexels-photo-7036552.jpeg?auto=compress&cs=tinysrgb&w=750",
        "src1280": "https://images.pexels.com/photos/7036552/pexels-photo-7036552.jpeg?auto=compress&cs=tinysrgb&w=1440",
        "downloadlink": "https://images.pexels.com/photos/7036552/pexels-photo-7036552.jpeg?cs=srgb&dl=pexels-alena-shekhovtcova-7036552.jpg&fm=jpg"
    },
    {
        "id": "5611966",
        "src640": "https://images.pexels.com/photos/5611966/pexels-photo-5611966.jpeg?auto=compress&cs=tinysrgb&w=750",
        "src1280": "https://images.pexels.com/photos/5611966/pexels-photo-5611966.jpeg?auto=compress&cs=tinysrgb&w=1440",
        "downloadlink": "https://images.pexels.com/photos/5611966/pexels-photo-5611966.jpeg?cs=srgb&dl=pexels-maksim-goncharenok-5611966.jpg&fm=jpg"
    },
    {
        "id": "972804",
        "src640": "https://images.pexels.com/photos/972804/pexels-photo-972804.jpeg?auto=compress&cs=tinysrgb&w=750",
        "src1280": "https://images.pexels.com/photos/972804/pexels-photo-972804.jpeg?auto=compress&cs=tinysrgb&w=1440",
        "downloadlink": "https://images.pexels.com/photos/972804/pexels-photo-972804.jpeg?cs=srgb&dl=pexels-andrea-piacquadio-972804.jpg&fm=jpg"
    },
    {
        "id": "2013701",
        "src640": "https://images.pexels.com/photos/2013701/pexels-photo-2013701.jpeg?auto=compress&cs=tinysrgb&w=750",
        "src1280": "https://images.pexels.com/photos/2013701/pexels-photo-2013701.jpeg?auto=compress&cs=tinysrgb&w=1440",
        "downloadlink": "https://images.pexels.com/photos/2013701/pexels-photo-2013701.jpeg?cs=srgb&dl=pexels-matheus-ferrero-2013701.jpg&fm=jpg"
    },
    {
        "id": "2144413",
        "src640": "https://images.pexels.com/photos/2144413/pexels-photo-2144413.jpeg?auto=compress&cs=tinysrgb&w=750",
        "src1280": "https://images.pexels.com/photos/2144413/pexels-photo-2144413.jpeg?auto=compress&cs=tinysrgb&w=1440",
        "downloadlink": "https://images.pexels.com/photos/2144413/pexels-photo-2144413.jpeg?cs=srgb&dl=pexels-jc-laurio-2144413.jpg&fm=jpg"
    }
]