[
    {
        "id": "8058663",
        "src640": "https://images.pexels.com/photos/8058663/pexels-photo-8058663.jpeg?auto=compress&cs=tinysrgb&w=750",
        "src1280": "https://images.pexels.com/photos/8058663/pexels-photo-8058663.jpeg?auto=compress&cs=tinysrgb&w=1440",
        "downloadlink": "https://images.pexels.com/photos/8058663/pexels-photo-8058663.jpeg?cs=srgb&dl=pexels-anna-nekrashevich-8058663.jpg&fm=jpg"
    },
    {
        "id": "9158362",
        "src640": "https://images.pexels.com/photos/9158362/pexels-photo-9158362.jpeg?auto=compress&cs=tinysrgb&w=750",
        "src1280": "https://images.pexels.com/photos/9158362/pexels-photo-9158362.jpeg?auto=compress&cs=tinysrgb&w=1440",
        "downloadlink": "https://images.pexels.com/photos/9158362/pexels-photo-9158362.jpeg?cs=srgb&dl=pexels-mikhail-nilov-9158362.jpg&fm=jpg"
    },
    {
        "id": "7524672",
        "src640": "https://images.pexels.com/photos/7524672/pexels-photo-7524672.jpeg?auto=compress&cs=tinysrgb&w=750",
        "src1280": "https://images.pexels.com/photos/7524672/pexels-photo-7524672.jpeg?auto=compress&cs=tinysrgb&w=1440",
        "downloadlink": "https://images.pexels.com/photos/7524672/pexels-photo-7524672.jpeg?cs=srgb&dl=pexels-antoni-shkraba-7524672.jpg&fm=jpg"
    },
    {
        "id": "8506638",
        "src640": "https://images.pexels.com/photos/8506638/pexels-photo-8506638.jpeg?auto=compress&cs=tinysrgb&w=750",
        "src1280": "https://images.pexels.com/photos/8506638/pexels-photo-8506638.jpeg?auto=compress&cs=tinysrgb&w=1440",
        "downloadlink": "https://images.pexels.com/photos/8506638/pexels-photo-8506638.jpeg?cs=srgb&dl=pexels-jasmin-chew-8506638.jpg&fm=jpg"
    },
    {
        "id": "1376040",
        "src640": "https://images.pexels.com/photos/1376040/pexels-photo-1376040.jpeg?auto=compress&cs=tinysrgb&w=750",
        "src1280": "https://images.pexels.com/photos/1376040/pexels-photo-1376040.jpeg?auto=compress&cs=tinysrgb&w=1440",
        "downloadlink": "https://images.pexels.com/photos/1376040/pexels-photo-1376040.jpeg?cs=srgb&dl=pexels-dzenina-lukac-1376040.jpg&fm=jpg"
    },
    {
        "id": "11754123",
        "src640": "https://images.pexels.com/photos/11754123/pexels-photo-11754123.jpeg?auto=compress&cs=tinysrgb&w=750",
        "src1280": "https://images.pexels.com/photos/11754123/pexels-photo-11754123.jpeg?auto=compress&cs=tinysrgb&w=1440",
        "downloadlink": "https://images.pexels.com/photos/11754123/pexels-photo-11754123.jpeg?cs=srgb&dl=pexels-megan-ruth-11754123.jpg&fm=jpg"
    },
    {
        "id": "10061441",
        "src640": "https://images.pexels.com/photos/10061441/pexels-photo-10061441.jpeg?auto=compress&cs=tinysrgb&w=750",
        "src1280": "https://images.pexels.com/photos/10061441/pexels-photo-10061441.jpeg?auto=compress&cs=tinysrgb&w=1440",
        "downloadlink": "https://images.pexels.com/photos/10061441/pexels-photo-10061441.jpeg?cs=srgb&dl=pexels-cottonbro-studio-10061441.jpg&fm=jpg"
    },
    {
        "id": "5608918",
        "src640": "https://images.pexels.com/photos/5608918/pexels-photo-5608918.jpeg?auto=compress&cs=tinysrgb&w=750",
        "src1280": "https://images.pexels.com/photos/5608918/pexels-photo-5608918.jpeg?auto=compress&cs=tinysrgb&w=1440",
        "downloadlink": "https://images.pexels.com/photos/5608918/pexels-photo-5608918.jpeg?cs=srgb&dl=pexels-aviz-5608918.jpg&fm=jpg"
    },
    {
        "id": "5850909",
        "src640": "https://images.pexels.com/photos/5850909/pexels-photo-5850909.jpeg?auto=compress&cs=tinysrgb&w=750",
        "src1280": "https://images.pexels.com/photos/5850909/pexels-photo-5850909.jpeg?auto=compress&cs=tinysrgb&w=1440",
        "downloadlink": "https://images.pexels.com/photos/5850909/pexels-photo-5850909.jpeg?cs=srgb&dl=pexels-cottonbro-studio-5850909.jpg&fm=jpg"
    },
    {
        "id": "5852466",
        "src640": "https://images.pexels.com/photos/5852466/pexels-photo-5852466.jpeg?auto=compress&cs=tinysrgb&w=750",
        "src1280": "https://images.pexels.com/photos/5852466/pexels-photo-5852466.jpeg?auto=compress&cs=tinysrgb&w=1440",
        "downloadlink": "https://images.pexels.com/photos/5852466/pexels-photo-5852466.jpeg?cs=srgb&dl=pexels-cottonbro-studio-5852466.jpg&fm=jpg"
    },
    {
        "id": "5885972",
        "src640": "https://images.pexels.com/photos/5885972/pexels-photo-5885972.jpeg?auto=compress&cs=tinysrgb&w=750",
        "src1280": "https://images.pexels.com/photos/5885972/pexels-photo-5885972.jpeg?auto=compress&cs=tinysrgb&w=1440",
        "downloadlink": "https://images.pexels.com/photos/5885972/pexels-photo-5885972.jpeg?cs=srgb&dl=pexels-polina-kovaleva-5885972.jpg&fm=jpg"
    },
    {
        "id": "1485031",
        "src640": "https://images.pexels.com/photos/1485031/pexels-photo-1485031.jpeg?auto=compress&cs=tinysrgb&w=750",
        "src1280": "https://images.pexels.com/photos/1485031/pexels-photo-1485031.jpeg?auto=compress&cs=tinysrgb&w=1440",
        "downloadlink": "https://images.pexels.com/photos/1485031/pexels-photo-1485031.jpeg?cs=srgb&dl=pexels-harsh-raj-gond-1485031.jpg&fm=jpg"
    },
    {
        "id": "1486213",
        "src640": "https://images.pexels.com/photos/1486213/pexels-photo-1486213.jpeg?auto=compress&cs=tinysrgb&w=750",
        "src1280": "https://images.pexels.com/photos/1486213/pexels-photo-1486213.jpeg?auto=compress&cs=tinysrgb&w=1440",
        "downloadlink": "https://images.pexels.com/photos/1486213/pexels-photo-1486213.jpeg?cs=srgb&dl=pexels-ogo-johnson-1486213.jpg&fm=jpg"
    },
    {
        "id": "1637834",
        "src640": "https://images.pexels.com/photos/1637834/pexels-photo-1637834.jpeg?auto=compress&cs=tinysrgb&w=750",
        "src1280": "https://images.pexels.com/photos/1637834/pexels-photo-1637834.jpeg?auto=compress&cs=tinysrgb&w=1440",
        "downloadlink": "https://images.pexels.com/photos/1637834/pexels-photo-1637834.jpeg?cs=srgb&dl=pexels-daniela-andrea-nix-1637834.jpg&fm=jpg"
    },
    {
        "id": "1855586",
        "src640": "https://images.pexels.com/photos/1855586/pexels-photo-1855586.jpeg?auto=compress&cs=tinysrgb&w=750",
        "src1280": "https://images.pexels.com/photos/1855586/pexels-photo-1855586.jpeg?auto=compress&cs=tinysrgb&w=1440",
        "downloadlink": "https://images.pexels.com/photos/1855586/pexels-photo-1855586.jpeg?cs=srgb&dl=pexels-lola-russian-1855586.jpg&fm=jpg"
    },
    {
        "id": "2752099",
        "src640": "https://images.pexels.com/photos/2752099/pexels-photo-2752099.jpeg?auto=compress&cs=tinysrgb&w=750",
        "src1280": "https://images.pexels.com/photos/2752099/pexels-photo-2752099.jpeg?auto=compress&cs=tinysrgb&w=1440",
        "downloadlink": "https://images.pexels.com/photos/2752099/pexels-photo-2752099.jpeg?cs=srgb&dl=pexels-ali-pazani-2752099.jpg&fm=jpg"
    },
    {
        "id": "2760248",
        "src640": "https://images.pexels.com/photos/2760248/pexels-photo-2760248.jpeg?auto=compress&cs=tinysrgb&w=750",
        "src1280": "https://images.pexels.com/photos/2760248/pexels-photo-2760248.jpeg?auto=compress&cs=tinysrgb&w=1440",
        "downloadlink": "https://images.pexels.com/photos/2760248/pexels-photo-2760248.jpeg?cs=srgb&dl=pexels-ali-pazani-2760248.jpg&fm=jpg"
    },
    {
        "id": "2761935",
        "src640": "https://images.pexels.com/photos/2761935/pexels-photo-2761935.jpeg?auto=compress&cs=tinysrgb&w=750",
        "src1280": "https://images.pexels.com/photos/2761935/pexels-photo-2761935.jpeg?auto=compress&cs=tinysrgb&w=1440",
        "downloadlink": "https://images.pexels.com/photos/2761935/pexels-photo-2761935.jpeg?cs=srgb&dl=pexels-madison-inouye-2761935.jpg&fm=jpg"
    },
    {
        "id": "2878761",
        "src640": "https://images.pexels.com/photos/2878761/pexels-photo-2878761.jpeg?auto=compress&cs=tinysrgb&w=750",
        "src1280": "https://images.pexels.com/photos/2878761/pexels-photo-2878761.jpeg?auto=compress&cs=tinysrgb&w=1440",
        "downloadlink": "https://images.pexels.com/photos/2878761/pexels-photo-2878761.jpeg?cs=srgb&dl=pexels-jonathan-borba-2878761.jpg&fm=jpg"
    },
    {
        "id": "2896428",
        "src640": "https://images.pexels.com/photos/2896428/pexels-photo-2896428.jpeg?auto=compress&cs=tinysrgb&w=750",
        "src1280": "https://images.pexels.com/photos/2896428/pexels-photo-2896428.jpeg?auto=compress&cs=tinysrgb&w=1440",
        "downloadlink": "https://images.pexels.com/photos/2896428/pexels-photo-2896428.jpeg?cs=srgb&dl=pexels-konstantin-mishchenko-2896428.jpg&fm=jpg"
    },
    {
        "id": "2860891",
        "src640": "https://images.pexels.com/photos/2860891/pexels-photo-2860891.jpeg?auto=compress&cs=tinysrgb&w=750",
        "src1280": "https://images.pexels.com/photos/2860891/pexels-photo-2860891.jpeg?auto=compress&cs=tinysrgb&w=1440",
        "downloadlink": "https://images.pexels.com/photos/2860891/pexels-photo-2860891.jpeg?cs=srgb&dl=pexels-ayaka-kato-2860891.jpg&fm=jpg"
    },
    {
        "id": "6757214",
        "src640": "https://images.pexels.com/photos/6757214/pexels-photo-6757214.jpeg?auto=compress&cs=tinysrgb&w=750",
        "src1280": "https://images.pexels.com/photos/6757214/pexels-photo-6757214.jpeg?auto=compress&cs=tinysrgb&w=1440",
        "downloadlink": "https://images.pexels.com/photos/6757214/pexels-photo-6757214.jpeg?cs=srgb&dl=pexels-maressa-andrioli-6757214.jpg&fm=jpg"
    },
    {
        "id": "12971114",
        "src640": "https://images.pexels.com/photos/12971114/pexels-photo-12971114.jpeg?auto=compress&cs=tinysrgb&w=750",
        "src1280": "https://images.pexels.com/photos/12971114/pexels-photo-12971114.jpeg?auto=compress&cs=tinysrgb&w=1440",
        "downloadlink": "https://images.pexels.com/photos/12971114/pexels-photo-12971114.jpeg?cs=srgb&dl=pexels-ali-karimiboroujeni-12971114.jpg&fm=jpg"
    },
    {
        "id": "7782138",
        "src640": "https://images.pexels.com/photos/7782138/pexels-photo-7782138.jpeg?auto=compress&cs=tinysrgb&w=750",
        "src1280": "https://images.pexels.com/photos/7782138/pexels-photo-7782138.jpeg?auto=compress&cs=tinysrgb&w=1440",
        "downloadlink": "https://images.pexels.com/photos/7782138/pexels-photo-7782138.jpeg?cs=srgb&dl=pexels-rulo-davila-7782138.jpg&fm=jpg"
    }
]