[
    {
        "id": "916361",
        "src640": "https://images.pexels.com/photos/916361/pexels-photo-916361.jpeg?auto=compress&cs=tinysrgb&w=750",
        "src1280": "https://images.pexels.com/photos/916361/pexels-photo-916361.jpeg?auto=compress&cs=tinysrgb&w=1440",
        "downloadlink": "https://images.pexels.com/photos/916361/pexels-photo-916361.jpeg?cs=srgb&dl=pexels-irina-iriser-916361.jpg&fm=jpg"
    },
    {
        "id": "1094020",
        "src640": "https://images.pexels.com/photos/1094020/pexels-photo-1094020.jpeg?auto=compress&cs=tinysrgb&w=750",
        "src1280": "https://images.pexels.com/photos/1094020/pexels-photo-1094020.jpeg?auto=compress&cs=tinysrgb&w=1440",
        "downloadlink": "https://images.pexels.com/photos/1094020/pexels-photo-1094020.jpeg?cs=srgb&dl=pexels-hannah-nelson-1094020.jpg&fm=jpg"
    },
    {
        "id": "4623759",
        "src640": "https://images.pexels.com/photos/4623759/pexels-photo-4623759.jpeg?auto=compress&cs=tinysrgb&w=750",
        "src1280": "https://images.pexels.com/photos/4623759/pexels-photo-4623759.jpeg?auto=compress&cs=tinysrgb&w=1440",
        "downloadlink": "https://images.pexels.com/photos/4623759/pexels-photo-4623759.jpeg?cs=srgb&dl=pexels-leeloo-thefirst-4623759.jpg&fm=jpg"
    },
    {
        "id": "4177739",
        "src640": "https://images.pexels.com/photos/4177739/pexels-photo-4177739.jpeg?auto=compress&cs=tinysrgb&w=750",
        "src1280": "https://images.pexels.com/photos/4177739/pexels-photo-4177739.jpeg?auto=compress&cs=tinysrgb&w=1440",
        "downloadlink": "https://images.pexels.com/photos/4177739/pexels-photo-4177739.jpeg?cs=srgb&dl=pexels-rfstudio-4177739.jpg&fm=jpg"
    },
    {
        "id": "2884362",
        "src640": "https://images.pexels.com/photos/2884362/pexels-photo-2884362.jpeg?auto=compress&cs=tinysrgb&w=750",
        "src1280": "https://images.pexels.com/photos/2884362/pexels-photo-2884362.jpeg?auto=compress&cs=tinysrgb&w=1440",
        "downloadlink": "https://images.pexels.com/photos/2884362/pexels-photo-2884362.jpeg?cs=srgb&dl=pexels-mateo-almendares-2884362.jpg&fm=jpg"
    },
    {
        "id": "3154330",
        "src640": "https://images.pexels.com/photos/3154330/pexels-photo-3154330.jpeg?auto=compress&cs=tinysrgb&w=750",
        "src1280": "https://images.pexels.com/photos/3154330/pexels-photo-3154330.jpeg?auto=compress&cs=tinysrgb&w=1440",
        "downloadlink": "https://images.pexels.com/photos/3154330/pexels-photo-3154330.jpeg?cs=srgb&dl=pexels-cottonbro-studio-3154330.jpg&fm=jpg"
    },
    {
        "id": "3615455",
        "src640": "https://images.pexels.com/photos/3615455/pexels-photo-3615455.jpeg?auto=compress&cs=tinysrgb&w=750",
        "src1280": "https://images.pexels.com/photos/3615455/pexels-photo-3615455.jpeg?auto=compress&cs=tinysrgb&w=1440",
        "downloadlink": "https://images.pexels.com/photos/3615455/pexels-photo-3615455.jpeg?cs=srgb&dl=pexels-maryia-plashchynskaya-3615455.jpg&fm=jpg"
    },
    {
        "id": "5012326",
        "src640": "https://images.pexels.com/photos/5012326/pexels-photo-5012326.jpeg?auto=compress&cs=tinysrgb&w=750",
        "src1280": "https://images.pexels.com/photos/5012326/pexels-photo-5012326.jpeg?auto=compress&cs=tinysrgb&w=1440",
        "downloadlink": "https://images.pexels.com/photos/5012326/pexels-photo-5012326.jpeg?cs=srgb&dl=pexels-anna-shvets-5012326.jpg&fm=jpg"
    },
    {
        "id": "4721981",
        "src640": "https://images.pexels.com/photos/4721981/pexels-photo-4721981.jpeg?auto=compress&cs=tinysrgb&w=750",
        "src1280": "https://images.pexels.com/photos/4721981/pexels-photo-4721981.jpeg?auto=compress&cs=tinysrgb&w=1440",
        "downloadlink": "https://images.pexels.com/photos/4721981/pexels-photo-4721981.jpeg?cs=srgb&dl=pexels-ali-pazani-4721981.jpg&fm=jpg"
    },
    {
        "id": "1764564",
        "src640": "https://images.pexels.com/photos/1764564/pexels-photo-1764564.jpeg?auto=compress&cs=tinysrgb&w=750",
        "src1280": "https://images.pexels.com/photos/1764564/pexels-photo-1764564.jpeg?auto=compress&cs=tinysrgb&w=1440",
        "downloadlink": "https://images.pexels.com/photos/1764564/pexels-photo-1764564.jpeg?cs=srgb&dl=pexels-ogo-johnson-1764564.jpg&fm=jpg"
    },
    {
        "id": "1852266",
        "src640": "https://images.pexels.com/photos/1852266/pexels-photo-1852266.jpeg?auto=compress&cs=tinysrgb&w=750",
        "src1280": "https://images.pexels.com/photos/1852266/pexels-photo-1852266.jpeg?auto=compress&cs=tinysrgb&w=1440",
        "downloadlink": "https://images.pexels.com/photos/1852266/pexels-photo-1852266.jpeg?cs=srgb&dl=pexels-luis-fernandes-1852266.jpg&fm=jpg"
    },
    {
        "id": "1865471",
        "src640": "https://images.pexels.com/photos/1865471/pexels-photo-1865471.jpeg?auto=compress&cs=tinysrgb&w=750",
        "src1280": "https://images.pexels.com/photos/1865471/pexels-photo-1865471.jpeg?auto=compress&cs=tinysrgb&w=1440",
        "downloadlink": "https://images.pexels.com/photos/1865471/pexels-photo-1865471.jpeg?cs=srgb&dl=pexels-emely-rodriguez-1865471.jpg&fm=jpg"
    },
    {
        "id": "1964442",
        "src640": "https://images.pexels.com/photos/1964442/pexels-photo-1964442.jpeg?auto=compress&cs=tinysrgb&w=750",
        "src1280": "https://images.pexels.com/photos/1964442/pexels-photo-1964442.jpeg?auto=compress&cs=tinysrgb&w=1440",
        "downloadlink": "https://images.pexels.com/photos/1964442/pexels-photo-1964442.jpeg?cs=srgb&dl=pexels-lucas-souza-1964442.jpg&fm=jpg"
    },
    {
        "id": "2054200",
        "src640": "https://images.pexels.com/photos/2054200/pexels-photo-2054200.jpeg?auto=compress&cs=tinysrgb&w=750",
        "src1280": "https://images.pexels.com/photos/2054200/pexels-photo-2054200.jpeg?auto=compress&cs=tinysrgb&w=1440",
        "downloadlink": "https://images.pexels.com/photos/2054200/pexels-photo-2054200.jpeg?cs=srgb&dl=pexels-matheus-ferrero-2054200.jpg&fm=jpg"
    },
    {
        "id": "2119500",
        "src640": "https://images.pexels.com/photos/2119500/pexels-photo-2119500.jpeg?auto=compress&cs=tinysrgb&w=750",
        "src1280": "https://images.pexels.com/photos/2119500/pexels-photo-2119500.jpeg?auto=compress&cs=tinysrgb&w=1440",
        "downloadlink": "https://images.pexels.com/photos/2119500/pexels-photo-2119500.jpeg?cs=srgb&dl=pexels-tha%C3%ADs-silva-2119500.jpg&fm=jpg"
    },
    {
        "id": "2156656",
        "src640": "https://images.pexels.com/photos/2156656/pexels-photo-2156656.jpeg?auto=compress&cs=tinysrgb&w=750",
        "src1280": "https://images.pexels.com/photos/2156656/pexels-photo-2156656.jpeg?auto=compress&cs=tinysrgb&w=1440",
        "downloadlink": "https://images.pexels.com/photos/2156656/pexels-photo-2156656.jpeg?cs=srgb&dl=pexels-karley-saagi-2156656.jpg&fm=jpg"
    },
    {
        "id": "2180890",
        "src640": "https://images.pexels.com/photos/2180890/pexels-photo-2180890.jpeg?auto=compress&cs=tinysrgb&w=750",
        "src1280": "https://images.pexels.com/photos/2180890/pexels-photo-2180890.jpeg?auto=compress&cs=tinysrgb&w=1440",
        "downloadlink": "https://images.pexels.com/photos/2180890/pexels-photo-2180890.jpeg?cs=srgb&dl=pexels-athena-2180890.jpg&fm=jpg"
    },
    {
        "id": "2228560",
        "src640": "https://images.pexels.com/photos/2228560/pexels-photo-2228560.jpeg?auto=compress&cs=tinysrgb&w=750",
        "src1280": "https://images.pexels.com/photos/2228560/pexels-photo-2228560.jpeg?auto=compress&cs=tinysrgb&w=1440",
        "downloadlink": "https://images.pexels.com/photos/2228560/pexels-photo-2228560.jpeg?cs=srgb&dl=pexels-thought-catalog-2228560.jpg&fm=jpg"
    },
    {
        "id": "1926768",
        "src640": "https://images.pexels.com/photos/1926768/pexels-photo-1926768.jpeg?auto=compress&cs=tinysrgb&w=750",
        "src1280": "https://images.pexels.com/photos/1926768/pexels-photo-1926768.jpeg?auto=compress&cs=tinysrgb&w=1440",
        "downloadlink": "https://images.pexels.com/photos/1926768/pexels-photo-1926768.jpeg?cs=srgb&dl=pexels-konstantin-mishchenko-1926768.jpg&fm=jpg"
    },
    {
        "id": "2233703",
        "src640": "https://images.pexels.com/photos/2233703/pexels-photo-2233703.jpeg?auto=compress&cs=tinysrgb&w=750",
        "src1280": "https://images.pexels.com/photos/2233703/pexels-photo-2233703.jpeg?auto=compress&cs=tinysrgb&w=1440",
        "downloadlink": "https://images.pexels.com/photos/2233703/pexels-photo-2233703.jpeg?cs=srgb&dl=pexels-yuri-manei-2233703.jpg&fm=jpg"
    },
    {
        "id": "2714626",
        "src640": "https://images.pexels.com/photos/2714626/pexels-photo-2714626.jpeg?auto=compress&cs=tinysrgb&w=750",
        "src1280": "https://images.pexels.com/photos/2714626/pexels-photo-2714626.jpeg?auto=compress&cs=tinysrgb&w=1440",
        "downloadlink": "https://images.pexels.com/photos/2714626/pexels-photo-2714626.jpeg?cs=srgb&dl=pexels-willsantt-2714626.jpg&fm=jpg"
    },
    {
        "id": "1034950",
        "src640": "https://images.pexels.com/photos/1034950/pexels-photo-1034950.jpeg?auto=compress&cs=tinysrgb&w=750",
        "src1280": "https://images.pexels.com/photos/1034950/pexels-photo-1034950.jpeg?auto=compress&cs=tinysrgb&w=1440",
        "downloadlink": "https://images.pexels.com/photos/1034950/pexels-photo-1034950.jpeg?cs=srgb&dl=pexels-destiawan-nur-agustra-1034950.jpg&fm=jpg"
    },
    {
        "id": "1123401",
        "src640": "https://images.pexels.com/photos/1123401/pexels-photo-1123401.jpeg?auto=compress&cs=tinysrgb&w=750",
        "src1280": "https://images.pexels.com/photos/1123401/pexels-photo-1123401.jpeg?auto=compress&cs=tinysrgb&w=1440",
        "downloadlink": "https://images.pexels.com/photos/1123401/pexels-photo-1123401.jpeg?cs=srgb&dl=pexels-vinicius-wiesehofer-1123401.jpg&fm=jpg"
    },
    {
        "id": "1126663",
        "src640": "https://images.pexels.com/photos/1126663/pexels-photo-1126663.jpeg?auto=compress&cs=tinysrgb&w=750",
        "src1280": "https://images.pexels.com/photos/1126663/pexels-photo-1126663.jpeg?auto=compress&cs=tinysrgb&w=1440",
        "downloadlink": "https://images.pexels.com/photos/1126663/pexels-photo-1126663.jpeg?cs=srgb&dl=pexels-alexander-krivitskiy-1126663.jpg&fm=jpg"
    }
]