[
    {
        "id": "3762663",
        "src640": "https://images.pexels.com/photos/3762663/pexels-photo-3762663.jpeg?auto=compress&cs=tinysrgb&w=750",
        "src1280": "https://images.pexels.com/photos/3762663/pexels-photo-3762663.jpeg?auto=compress&cs=tinysrgb&w=1440",
        "downloadlink": "https://images.pexels.com/photos/3762663/pexels-photo-3762663.jpeg?cs=srgb&dl=pexels-shiny-diamond-3762663.jpg&fm=jpg"
    },
    {
        "id": "3861954",
        "src640": "https://images.pexels.com/photos/3861954/pexels-photo-3861954.jpeg?auto=compress&cs=tinysrgb&w=750",
        "src1280": "https://images.pexels.com/photos/3861954/pexels-photo-3861954.jpeg?auto=compress&cs=tinysrgb&w=1440",
        "downloadlink": "https://images.pexels.com/photos/3861954/pexels-photo-3861954.jpeg?cs=srgb&dl=pexels-thisisengineering-3861954.jpg&fm=jpg"
    },
    {
        "id": "3965571",
        "src640": "https://images.pexels.com/photos/3965571/pexels-photo-3965571.jpeg?auto=compress&cs=tinysrgb&w=750",
        "src1280": "https://images.pexels.com/photos/3965571/pexels-photo-3965571.jpeg?auto=compress&cs=tinysrgb&w=1440",
        "downloadlink": "https://images.pexels.com/photos/3965571/pexels-photo-3965571.jpeg?cs=srgb&dl=pexels-ksenia-chernaya-3965571.jpg&fm=jpg"
    },
    {
        "id": "388514",
        "src640": "https://images.pexels.com/photos/388514/pexels-photo-388514.jpeg?auto=compress&cs=tinysrgb&w=750",
        "src1280": "https://images.pexels.com/photos/388514/pexels-photo-388514.jpeg?auto=compress&cs=tinysrgb&w=1440",
        "downloadlink": "https://images.pexels.com/photos/388514/pexels-photo-388514.jpeg?cs=srgb&dl=pexels-yuliya-shabliy-388514.jpg&fm=jpg"
    },
    {
        "id": "4236831",
        "src640": "https://images.pexels.com/photos/4236831/pexels-photo-4236831.jpeg?auto=compress&cs=tinysrgb&w=750",
        "src1280": "https://images.pexels.com/photos/4236831/pexels-photo-4236831.jpeg?auto=compress&cs=tinysrgb&w=1440",
        "downloadlink": "https://images.pexels.com/photos/4236831/pexels-photo-4236831.jpeg?cs=srgb&dl=pexels-anastasia-shuraeva-4236831.jpg&fm=jpg"
    },
    {
        "id": "5199158",
        "src640": "https://images.pexels.com/photos/5199158/pexels-photo-5199158.jpeg?auto=compress&cs=tinysrgb&w=750",
        "src1280": "https://images.pexels.com/photos/5199158/pexels-photo-5199158.jpeg?auto=compress&cs=tinysrgb&w=1440",
        "downloadlink": "https://images.pexels.com/photos/5199158/pexels-photo-5199158.jpeg?cs=srgb&dl=pexels-tamara-velazquez-5199158.jpg&fm=jpg"
    },
    {
        "id": "5269465",
        "src640": "https://images.pexels.com/photos/5269465/pexels-photo-5269465.jpeg?auto=compress&cs=tinysrgb&w=750",
        "src1280": "https://images.pexels.com/photos/5269465/pexels-photo-5269465.jpeg?auto=compress&cs=tinysrgb&w=1440",
        "downloadlink": "https://images.pexels.com/photos/5269465/pexels-photo-5269465.jpeg?cs=srgb&dl=pexels-armin-rimoldi-5269465.jpg&fm=jpg"
    },
    {
        "id": "5388003",
        "src640": "https://images.pexels.com/photos/5388003/pexels-photo-5388003.jpeg?auto=compress&cs=tinysrgb&w=750",
        "src1280": "https://images.pexels.com/photos/5388003/pexels-photo-5388003.jpeg?auto=compress&cs=tinysrgb&w=1440",
        "downloadlink": "https://images.pexels.com/photos/5388003/pexels-photo-5388003.jpeg?cs=srgb&dl=pexels-karley-saagi-5388003.jpg&fm=jpg"
    },
    {
        "id": "3746238",
        "src640": "https://images.pexels.com/photos/3746238/pexels-photo-3746238.jpeg?auto=compress&cs=tinysrgb&w=750",
        "src1280": "https://images.pexels.com/photos/3746238/pexels-photo-3746238.jpeg?auto=compress&cs=tinysrgb&w=1440",
        "downloadlink": "https://images.pexels.com/photos/3746238/pexels-photo-3746238.jpeg?cs=srgb&dl=pexels-anna-shvets-3746238.jpg&fm=jpg"
    },
    {
        "id": "3819792",
        "src640": "https://images.pexels.com/photos/3819792/pexels-photo-3819792.jpeg?auto=compress&cs=tinysrgb&w=750",
        "src1280": "https://images.pexels.com/photos/3819792/pexels-photo-3819792.jpeg?auto=compress&cs=tinysrgb&w=1440",
        "downloadlink": "https://images.pexels.com/photos/3819792/pexels-photo-3819792.jpeg?cs=srgb&dl=pexels-rfstudio-3819792.jpg&fm=jpg"
    },
    {
        "id": "3823186",
        "src640": "https://images.pexels.com/photos/3823186/pexels-photo-3823186.jpeg?auto=compress&cs=tinysrgb&w=750",
        "src1280": "https://images.pexels.com/photos/3823186/pexels-photo-3823186.jpeg?auto=compress&cs=tinysrgb&w=1440",
        "downloadlink": "https://images.pexels.com/photos/3823186/pexels-photo-3823186.jpeg?cs=srgb&dl=pexels-elina-fairytale-3823186.jpg&fm=jpg"
    },
    {
        "id": "8063396",
        "src640": "https://images.pexels.com/photos/8063396/pexels-photo-8063396.jpeg?auto=compress&cs=tinysrgb&w=750",
        "src1280": "https://images.pexels.com/photos/8063396/pexels-photo-8063396.jpeg?auto=compress&cs=tinysrgb&w=1440",
        "downloadlink": "https://images.pexels.com/photos/8063396/pexels-photo-8063396.jpeg?cs=srgb&dl=pexels-thirdman-8063396.jpg&fm=jpg"
    },
    {
        "id": "6191135",
        "src640": "https://images.pexels.com/photos/6191135/pexels-photo-6191135.jpeg?auto=compress&cs=tinysrgb&w=750",
        "src1280": "https://images.pexels.com/photos/6191135/pexels-photo-6191135.jpeg?auto=compress&cs=tinysrgb&w=1440",
        "downloadlink": "https://images.pexels.com/photos/6191135/pexels-photo-6191135.jpeg?cs=srgb&dl=pexels-cottonbro-studio-6191135.jpg&fm=jpg"
    },
    {
        "id": "7862509",
        "src640": "https://images.pexels.com/photos/7862509/pexels-photo-7862509.jpeg?auto=compress&cs=tinysrgb&w=750",
        "src1280": "https://images.pexels.com/photos/7862509/pexels-photo-7862509.jpeg?auto=compress&cs=tinysrgb&w=1440",
        "downloadlink": "https://images.pexels.com/photos/7862509/pexels-photo-7862509.jpeg?cs=srgb&dl=pexels-alena-darmel-7862509.jpg&fm=jpg"
    },
    {
        "id": "8050552",
        "src640": "https://images.pexels.com/photos/8050552/pexels-photo-8050552.jpeg?auto=compress&cs=tinysrgb&w=750",
        "src1280": "https://images.pexels.com/photos/8050552/pexels-photo-8050552.jpeg?auto=compress&cs=tinysrgb&w=1440",
        "downloadlink": "https://images.pexels.com/photos/8050552/pexels-photo-8050552.jpeg?cs=srgb&dl=pexels-leah-kelley-8050552.jpg&fm=jpg"
    },
    {
        "id": "8058724",
        "src640": "https://images.pexels.com/photos/8058724/pexels-photo-8058724.jpeg?auto=compress&cs=tinysrgb&w=750",
        "src1280": "https://images.pexels.com/photos/8058724/pexels-photo-8058724.jpeg?auto=compress&cs=tinysrgb&w=1440",
        "downloadlink": "https://images.pexels.com/photos/8058724/pexels-photo-8058724.jpeg?cs=srgb&dl=pexels-anna-nekrashevich-8058724.jpg&fm=jpg"
    },
    {
        "id": "9167936",
        "src640": "https://images.pexels.com/photos/9167936/pexels-photo-9167936.jpeg?auto=compress&cs=tinysrgb&w=750",
        "src1280": "https://images.pexels.com/photos/9167936/pexels-photo-9167936.jpeg?auto=compress&cs=tinysrgb&w=1440",
        "downloadlink": "https://images.pexels.com/photos/9167936/pexels-photo-9167936.jpeg?cs=srgb&dl=pexels-cottonbro-studio-9167936.jpg&fm=jpg"
    },
    {
        "id": "9197258",
        "src640": "https://images.pexels.com/photos/9197258/pexels-photo-9197258.jpeg?auto=compress&cs=tinysrgb&w=750",
        "src1280": "https://images.pexels.com/photos/9197258/pexels-photo-9197258.jpeg?auto=compress&cs=tinysrgb&w=1440",
        "downloadlink": "https://images.pexels.com/photos/9197258/pexels-photo-9197258.jpeg?cs=srgb&dl=pexels-%D1%8E%D0%BB%D0%B8%D0%B0%D0%BD%D0%B0-%D0%BC%D0%B0%D1%80%D0%B8%D0%BD%D0%B8%D0%BD%D0%B0-9197258.jpg&fm=jpg"
    },
    {
        "id": "7552361",
        "src640": "https://images.pexels.com/photos/7552361/pexels-photo-7552361.jpeg?auto=compress&cs=tinysrgb&w=750",
        "src1280": "https://images.pexels.com/photos/7552361/pexels-photo-7552361.jpeg?auto=compress&cs=tinysrgb&w=1440",
        "downloadlink": "https://images.pexels.com/photos/7552361/pexels-photo-7552361.jpeg?cs=srgb&dl=pexels-anna-nekrashevich-7552361.jpg&fm=jpg"
    },
    {
        "id": "7594064",
        "src640": "https://images.pexels.com/photos/7594064/pexels-photo-7594064.jpeg?auto=compress&cs=tinysrgb&w=750",
        "src1280": "https://images.pexels.com/photos/7594064/pexels-photo-7594064.jpeg?auto=compress&cs=tinysrgb&w=1440",
        "downloadlink": "https://images.pexels.com/photos/7594064/pexels-photo-7594064.jpeg?cs=srgb&dl=pexels-cottonbro-studio-7594064.jpg&fm=jpg"
    },
    {
        "id": "8462767",
        "src640": "https://images.pexels.com/photos/8462767/pexels-photo-8462767.jpeg?auto=compress&cs=tinysrgb&w=750",
        "src1280": "https://images.pexels.com/photos/8462767/pexels-photo-8462767.jpeg?auto=compress&cs=tinysrgb&w=1440",
        "downloadlink": "https://images.pexels.com/photos/8462767/pexels-photo-8462767.jpeg?cs=srgb&dl=pexels-mart-production-8462767.jpg&fm=jpg"
    },
    {
        "id": "9136195",
        "src640": "https://images.pexels.com/photos/9136195/pexels-photo-9136195.jpeg?auto=compress&cs=tinysrgb&w=750",
        "src1280": "https://images.pexels.com/photos/9136195/pexels-photo-9136195.jpeg?auto=compress&cs=tinysrgb&w=1440",
        "downloadlink": "https://images.pexels.com/photos/9136195/pexels-photo-9136195.jpeg?cs=srgb&dl=pexels-luca-de-massis-9136195.jpg&fm=jpg"
    },
    {
        "id": "9872841",
        "src640": "https://images.pexels.com/photos/9872841/pexels-photo-9872841.jpeg?auto=compress&cs=tinysrgb&w=750",
        "src1280": "https://images.pexels.com/photos/9872841/pexels-photo-9872841.jpeg?auto=compress&cs=tinysrgb&w=1440",
        "downloadlink": "https://images.pexels.com/photos/9872841/pexels-photo-9872841.jpeg?cs=srgb&dl=pexels-koolshooters-9872841.jpg&fm=jpg"
    },
    {
        "id": "7676435",
        "src640": "https://images.pexels.com/photos/7676435/pexels-photo-7676435.jpeg?auto=compress&cs=tinysrgb&w=750",
        "src1280": "https://images.pexels.com/photos/7676435/pexels-photo-7676435.jpeg?auto=compress&cs=tinysrgb&w=1440",
        "downloadlink": "https://images.pexels.com/photos/7676435/pexels-photo-7676435.jpeg?cs=srgb&dl=pexels-ivan-samkov-7676435.jpg&fm=jpg"
    }
]