[
    {
        "id": "2764972",
        "src640": "https://images.pexels.com/photos/2764972/pexels-photo-2764972.jpeg?auto=compress&cs=tinysrgb&w=750",
        "src1280": "https://images.pexels.com/photos/2764972/pexels-photo-2764972.jpeg?auto=compress&cs=tinysrgb&w=1440",
        "downloadlink": "https://images.pexels.com/photos/2764972/pexels-photo-2764972.jpeg?cs=srgb&dl=pexels-tubarones-photography-2764972.jpg&fm=jpg"
    },
    {
        "id": "3400764",
        "src640": "https://images.pexels.com/photos/3400764/pexels-photo-3400764.jpeg?auto=compress&cs=tinysrgb&w=750",
        "src1280": "https://images.pexels.com/photos/3400764/pexels-photo-3400764.jpeg?auto=compress&cs=tinysrgb&w=1440",
        "downloadlink": "https://images.pexels.com/photos/3400764/pexels-photo-3400764.jpeg?cs=srgb&dl=pexels-maryia-plashchynskaya-3400764.jpg&fm=jpg"
    },
    {
        "id": "2860993",
        "src640": "https://images.pexels.com/photos/2860993/pexels-photo-2860993.jpeg?auto=compress&cs=tinysrgb&w=750",
        "src1280": "https://images.pexels.com/photos/2860993/pexels-photo-2860993.jpeg?auto=compress&cs=tinysrgb&w=1440",
        "downloadlink": "https://images.pexels.com/photos/2860993/pexels-photo-2860993.jpeg?cs=srgb&dl=pexels-anastasia-barth-2860993.jpg&fm=jpg"
    },
    {
        "id": "5444962",
        "src640": "https://images.pexels.com/photos/5444962/pexels-photo-5444962.jpeg?auto=compress&cs=tinysrgb&w=750",
        "src1280": "https://images.pexels.com/photos/5444962/pexels-photo-5444962.jpeg?auto=compress&cs=tinysrgb&w=1440",
        "downloadlink": "https://images.pexels.com/photos/5444962/pexels-photo-5444962.jpeg?cs=srgb&dl=pexels-sergey-makashin-5444962.jpg&fm=jpg"
    },
    {
        "id": "6702633",
        "src640": "https://images.pexels.com/photos/6702633/pexels-photo-6702633.jpeg?auto=compress&cs=tinysrgb&w=750",
        "src1280": "https://images.pexels.com/photos/6702633/pexels-photo-6702633.jpeg?auto=compress&cs=tinysrgb&w=1440",
        "downloadlink": "https://images.pexels.com/photos/6702633/pexels-photo-6702633.jpeg?cs=srgb&dl=pexels-maksim-goncharenok-6702633.jpg&fm=jpg"
    },
    {
        "id": "6151648",
        "src640": "https://images.pexels.com/photos/6151648/pexels-photo-6151648.jpeg?auto=compress&cs=tinysrgb&w=750",
        "src1280": "https://images.pexels.com/photos/6151648/pexels-photo-6151648.jpeg?auto=compress&cs=tinysrgb&w=1440",
        "downloadlink": "https://images.pexels.com/photos/6151648/pexels-photo-6151648.jpeg?cs=srgb&dl=pexels-alesia-kozik-6151648.jpg&fm=jpg"
    },
    {
        "id": "9783910",
        "src640": "https://images.pexels.com/photos/9783910/pexels-photo-9783910.jpeg?auto=compress&cs=tinysrgb&w=750",
        "src1280": "https://images.pexels.com/photos/9783910/pexels-photo-9783910.jpeg?auto=compress&cs=tinysrgb&w=1440",
        "downloadlink": "https://images.pexels.com/photos/9783910/pexels-photo-9783910.jpeg?cs=srgb&dl=pexels-mikhail-nilov-9783910.jpg&fm=jpg"
    },
    {
        "id": "13939469",
        "src640": "https://images.pexels.com/photos/13939469/pexels-photo-13939469.jpeg?auto=compress&cs=tinysrgb&w=750",
        "src1280": "https://images.pexels.com/photos/13939469/pexels-photo-13939469.jpeg?auto=compress&cs=tinysrgb&w=1440",
        "downloadlink": "https://images.pexels.com/photos/13939469/pexels-photo-13939469.jpeg?cs=srgb&dl=pexels-bolarinwa-olasunkanmi-13939469.jpg&fm=jpg"
    },
    {
        "id": "6864497",
        "src640": "https://images.pexels.com/photos/6864497/pexels-photo-6864497.jpeg?auto=compress&cs=tinysrgb&w=750",
        "src1280": "https://images.pexels.com/photos/6864497/pexels-photo-6864497.jpeg?auto=compress&cs=tinysrgb&w=1440",
        "downloadlink": "https://images.pexels.com/photos/6864497/pexels-photo-6864497.jpeg?cs=srgb&dl=pexels-cottonbro-studio-6864497.jpg&fm=jpg"
    },
    {
        "id": "17500761",
        "src640": "https://images.pexels.com/photos/17500761/pexels-photo-17500761.jpeg?auto=compress&cs=tinysrgb&w=750",
        "src1280": "https://images.pexels.com/photos/17500761/pexels-photo-17500761.jpeg?auto=compress&cs=tinysrgb&w=1440",
        "downloadlink": "https://images.pexels.com/photos/17500761/pexels-photo-17500761.jpeg?cs=srgb&dl=pexels-%C3%B6mer-aliko-17500761.jpg&fm=jpg"
    },
    {
        "id": "19399682",
        "src640": "https://images.pexels.com/photos/19399682/pexels-photo-19399682.jpeg?auto=compress&cs=tinysrgb&w=750",
        "src1280": "https://images.pexels.com/photos/19399682/pexels-photo-19399682.jpeg?auto=compress&cs=tinysrgb&w=1440",
        "downloadlink": "https://images.pexels.com/photos/19399682/pexels-photo-19399682.jpeg?cs=srgb&dl=pexels-atahan-demir-19399682.jpg&fm=jpg"
    },
    {
        "id": "19410840",
        "src640": "https://images.pexels.com/photos/19410840/pexels-photo-19410840.jpeg?auto=compress&cs=tinysrgb&w=750",
        "src1280": "https://images.pexels.com/photos/19410840/pexels-photo-19410840.jpeg?auto=compress&cs=tinysrgb&w=1440",
        "downloadlink": "https://images.pexels.com/photos/19410840/pexels-photo-19410840.jpeg?cs=srgb&dl=pexels-alexander-mass-19410840.jpg&fm=jpg"
    },
    {
        "id": "17924664",
        "src640": "https://images.pexels.com/photos/17924664/pexels-photo-17924664.jpeg?auto=compress&cs=tinysrgb&w=750",
        "src1280": "https://images.pexels.com/photos/17924664/pexels-photo-17924664.jpeg?auto=compress&cs=tinysrgb&w=1440",
        "downloadlink": "https://images.pexels.com/photos/17924664/pexels-photo-17924664.jpeg?cs=srgb&dl=pexels-iren-fedo-17924664.jpg&fm=jpg"
    },
    {
        "id": "18054198",
        "src640": "https://images.pexels.com/photos/18054198/pexels-photo-18054198.jpeg?auto=compress&cs=tinysrgb&w=750",
        "src1280": "https://images.pexels.com/photos/18054198/pexels-photo-18054198.jpeg?auto=compress&cs=tinysrgb&w=1440",
        "downloadlink": "https://images.pexels.com/photos/18054198/pexels-photo-18054198.jpeg?cs=srgb&dl=pexels-rovshan-nazirli-18054198.jpg&fm=jpg"
    },
    {
        "id": "18786955",
        "src640": "https://images.pexels.com/photos/18786955/pexels-photo-18786955.jpeg?auto=compress&cs=tinysrgb&w=750",
        "src1280": "https://images.pexels.com/photos/18786955/pexels-photo-18786955.jpeg?auto=compress&cs=tinysrgb&w=1440",
        "downloadlink": "https://images.pexels.com/photos/18786955/pexels-photo-18786955.jpeg?cs=srgb&dl=pexels-mert-co%C5%9Fkun-18786955.jpg&fm=jpg"
    },
    {
        "id": "16153366",
        "src640": "https://images.pexels.com/photos/16153366/pexels-photo-16153366.jpeg?auto=compress&cs=tinysrgb&w=750",
        "src1280": "https://images.pexels.com/photos/16153366/pexels-photo-16153366.jpeg?auto=compress&cs=tinysrgb&w=1440",
        "downloadlink": "https://images.pexels.com/photos/16153366/pexels-photo-16153366.jpeg?cs=srgb&dl=pexels-heber-vazquez-16153366.jpg&fm=jpg"
    },
    {
        "id": "15853603",
        "src640": "https://images.pexels.com/photos/15853603/pexels-photo-15853603.jpeg?auto=compress&cs=tinysrgb&w=750",
        "src1280": "https://images.pexels.com/photos/15853603/pexels-photo-15853603.jpeg?auto=compress&cs=tinysrgb&w=1440",
        "downloadlink": "https://images.pexels.com/photos/15853603/pexels-photo-15853603.jpeg?cs=srgb&dl=pexels-stephany-lorena-15853603.jpg&fm=jpg"
    },
    {
        "id": "15953858",
        "src640": "https://images.pexels.com/photos/15953858/pexels-photo-15953858.jpeg?auto=compress&cs=tinysrgb&w=750",
        "src1280": "https://images.pexels.com/photos/15953858/pexels-photo-15953858.jpeg?auto=compress&cs=tinysrgb&w=1440",
        "downloadlink": "https://images.pexels.com/photos/15953858/pexels-photo-15953858.jpeg?cs=srgb&dl=pexels-lance-reis-15953858.jpg&fm=jpg"
    },
    {
        "id": "19299203",
        "src640": "https://images.pexels.com/photos/19299203/pexels-photo-19299203.jpeg?auto=compress&cs=tinysrgb&w=750",
        "src1280": "https://images.pexels.com/photos/19299203/pexels-photo-19299203.jpeg?auto=compress&cs=tinysrgb&w=1440",
        "downloadlink": "https://images.pexels.com/photos/19299203/pexels-photo-19299203.jpeg?cs=srgb&dl=pexels-sabine-meier-19299203.jpg&fm=jpg"
    },
    {
        "id": "19329308",
        "src640": "https://images.pexels.com/photos/19329308/pexels-photo-19329308.jpeg?auto=compress&cs=tinysrgb&w=750",
        "src1280": "https://images.pexels.com/photos/19329308/pexels-photo-19329308.jpeg?auto=compress&cs=tinysrgb&w=1440",
        "downloadlink": "https://images.pexels.com/photos/19329308/pexels-photo-19329308.jpeg?cs=srgb&dl=pexels-samed-s-19329308.jpg&fm=jpg"
    },
    {
        "id": "18499060",
        "src640": "https://images.pexels.com/photos/18499060/pexels-photo-18499060.jpeg?auto=compress&cs=tinysrgb&w=750",
        "src1280": "https://images.pexels.com/photos/18499060/pexels-photo-18499060.jpeg?auto=compress&cs=tinysrgb&w=1440",
        "downloadlink": "https://images.pexels.com/photos/18499060/pexels-photo-18499060.jpeg?cs=srgb&dl=pexels-sama-bairamova-18499060.jpg&fm=jpg"
    },
    {
        "id": "19101373",
        "src640": "https://images.pexels.com/photos/19101373/pexels-photo-19101373.jpeg?auto=compress&cs=tinysrgb&w=750",
        "src1280": "https://images.pexels.com/photos/19101373/pexels-photo-19101373.jpeg?auto=compress&cs=tinysrgb&w=1440",
        "downloadlink": "https://images.pexels.com/photos/19101373/pexels-photo-19101373.jpeg?cs=srgb&dl=pexels-mahdi-chaghari-19101373.jpg&fm=jpg"
    },
    {
        "id": "19230019",
        "src640": "https://images.pexels.com/photos/19230019/pexels-photo-19230019.jpeg?auto=compress&cs=tinysrgb&w=750",
        "src1280": "https://images.pexels.com/photos/19230019/pexels-photo-19230019.jpeg?auto=compress&cs=tinysrgb&w=1440",
        "downloadlink": "https://images.pexels.com/photos/19230019/pexels-photo-19230019.jpeg?cs=srgb&dl=pexels-mhajr-invincible-19230019.jpg&fm=jpg"
    },
    {
        "id": "19269885",
        "src640": "https://images.pexels.com/photos/19269885/pexels-photo-19269885.jpeg?auto=compress&cs=tinysrgb&w=750",
        "src1280": "https://images.pexels.com/photos/19269885/pexels-photo-19269885.jpeg?auto=compress&cs=tinysrgb&w=1440",
        "downloadlink": "https://images.pexels.com/photos/19269885/pexels-photo-19269885.jpeg?cs=srgb&dl=pexels-konstantin-mishchenko-19269885.jpg&fm=jpg"
    }
]