[
    {
        "id": "4545127",
        "src640": "https://images.pexels.com/photos/4545127/pexels-photo-4545127.jpeg?auto=compress&cs=tinysrgb&w=750",
        "src1280": "https://images.pexels.com/photos/4545127/pexels-photo-4545127.jpeg?auto=compress&cs=tinysrgb&w=1440",
        "downloadlink": "https://images.pexels.com/photos/4545127/pexels-photo-4545127.jpeg?cs=srgb&dl=pexels-leeloo-thefirst-4545127.jpg&fm=jpg"
    },
    {
        "id": "4586713",
        "src640": "https://images.pexels.com/photos/4586713/pexels-photo-4586713.jpeg?auto=compress&cs=tinysrgb&w=750",
        "src1280": "https://images.pexels.com/photos/4586713/pexels-photo-4586713.jpeg?auto=compress&cs=tinysrgb&w=1440",
        "downloadlink": "https://images.pexels.com/photos/4586713/pexels-photo-4586713.jpeg?cs=srgb&dl=pexels-anna-shvets-4586713.jpg&fm=jpg"
    },
    {
        "id": "607891",
        "src640": "https://images.pexels.com/photos/607891/pexels-photo-607891.jpeg?auto=compress&cs=tinysrgb&w=750",
        "src1280": "https://images.pexels.com/photos/607891/pexels-photo-607891.jpeg?auto=compress&cs=tinysrgb&w=1440",
        "downloadlink": "https://images.pexels.com/photos/607891/pexels-photo-607891.jpeg?cs=srgb&dl=pexels-marx-ilagan-607891.jpg&fm=jpg"
    },
    {
        "id": "4491687",
        "src640": "https://images.pexels.com/photos/4491687/pexels-photo-4491687.jpeg?auto=compress&cs=tinysrgb&w=750",
        "src1280": "https://images.pexels.com/photos/4491687/pexels-photo-4491687.jpeg?auto=compress&cs=tinysrgb&w=1440",
        "downloadlink": "https://images.pexels.com/photos/4491687/pexels-photo-4491687.jpeg?cs=srgb&dl=pexels-polesie-toys-4491687.jpg&fm=jpg"
    },
    {
        "id": "4545137",
        "src640": "https://images.pexels.com/photos/4545137/pexels-photo-4545137.jpeg?auto=compress&cs=tinysrgb&w=750",
        "src1280": "https://images.pexels.com/photos/4545137/pexels-photo-4545137.jpeg?auto=compress&cs=tinysrgb&w=1440",
        "downloadlink": "https://images.pexels.com/photos/4545137/pexels-photo-4545137.jpeg?cs=srgb&dl=pexels-leeloo-thefirst-4545137.jpg&fm=jpg"
    },
    {
        "id": "5119527",
        "src640": "https://images.pexels.com/photos/5119527/pexels-photo-5119527.jpeg?auto=compress&cs=tinysrgb&w=750",
        "src1280": "https://images.pexels.com/photos/5119527/pexels-photo-5119527.jpeg?auto=compress&cs=tinysrgb&w=1440",
        "downloadlink": "https://images.pexels.com/photos/5119527/pexels-photo-5119527.jpeg?cs=srgb&dl=pexels-cottonbro-studio-5119527.jpg&fm=jpg"
    },
    {
        "id": "5128652",
        "src640": "https://images.pexels.com/photos/5128652/pexels-photo-5128652.jpeg?auto=compress&cs=tinysrgb&w=750",
        "src1280": "https://images.pexels.com/photos/5128652/pexels-photo-5128652.jpeg?auto=compress&cs=tinysrgb&w=1440",
        "downloadlink": "https://images.pexels.com/photos/5128652/pexels-photo-5128652.jpeg?cs=srgb&dl=pexels-nataliya-vaitkevich-5128652.jpg&fm=jpg"
    },
    {
        "id": "5128657",
        "src640": "https://images.pexels.com/photos/5128657/pexels-photo-5128657.jpeg?auto=compress&cs=tinysrgb&w=750",
        "src1280": "https://images.pexels.com/photos/5128657/pexels-photo-5128657.jpeg?auto=compress&cs=tinysrgb&w=1440",
        "downloadlink": "https://images.pexels.com/photos/5128657/pexels-photo-5128657.jpeg?cs=srgb&dl=pexels-nataliya-vaitkevich-5128657.jpg&fm=jpg"
    },
    {
        "id": "5128691",
        "src640": "https://images.pexels.com/photos/5128691/pexels-photo-5128691.jpeg?auto=compress&cs=tinysrgb&w=750",
        "src1280": "https://images.pexels.com/photos/5128691/pexels-photo-5128691.jpeg?auto=compress&cs=tinysrgb&w=1440",
        "downloadlink": "https://images.pexels.com/photos/5128691/pexels-photo-5128691.jpeg?cs=srgb&dl=pexels-nataliya-vaitkevich-5128691.jpg&fm=jpg"
    },
    {
        "id": "5128268",
        "src640": "https://images.pexels.com/photos/5128268/pexels-photo-5128268.jpeg?auto=compress&cs=tinysrgb&w=750",
        "src1280": "https://images.pexels.com/photos/5128268/pexels-photo-5128268.jpeg?auto=compress&cs=tinysrgb&w=1440",
        "downloadlink": "https://images.pexels.com/photos/5128268/pexels-photo-5128268.jpeg?cs=srgb&dl=pexels-nataliya-vaitkevich-5128268.jpg&fm=jpg"
    },
    {
        "id": "5255234",
        "src640": "https://images.pexels.com/photos/5255234/pexels-photo-5255234.jpeg?auto=compress&cs=tinysrgb&w=750",
        "src1280": "https://images.pexels.com/photos/5255234/pexels-photo-5255234.jpeg?auto=compress&cs=tinysrgb&w=1440",
        "downloadlink": "https://images.pexels.com/photos/5255234/pexels-photo-5255234.jpeg?cs=srgb&dl=pexels-samson-katt-5255234.jpg&fm=jpg"
    },
    {
        "id": "5302988",
        "src640": "https://images.pexels.com/photos/5302988/pexels-photo-5302988.jpeg?auto=compress&cs=tinysrgb&w=750",
        "src1280": "https://images.pexels.com/photos/5302988/pexels-photo-5302988.jpeg?auto=compress&cs=tinysrgb&w=1440",
        "downloadlink": "https://images.pexels.com/photos/5302988/pexels-photo-5302988.jpeg?cs=srgb&dl=pexels-monstera-production-5302988.jpg&fm=jpg"
    },
    {
        "id": "5302992",
        "src640": "https://images.pexels.com/photos/5302992/pexels-photo-5302992.jpeg?auto=compress&cs=tinysrgb&w=750",
        "src1280": "https://images.pexels.com/photos/5302992/pexels-photo-5302992.jpeg?auto=compress&cs=tinysrgb&w=1440",
        "downloadlink": "https://images.pexels.com/photos/5302992/pexels-photo-5302992.jpeg?cs=srgb&dl=pexels-monstera-production-5302992.jpg&fm=jpg"
    },
    {
        "id": "5410151",
        "src640": "https://images.pexels.com/photos/5410151/pexels-photo-5410151.jpeg?auto=compress&cs=tinysrgb&w=750",
        "src1280": "https://images.pexels.com/photos/5410151/pexels-photo-5410151.jpeg?auto=compress&cs=tinysrgb&w=1440",
        "downloadlink": "https://images.pexels.com/photos/5410151/pexels-photo-5410151.jpeg?cs=srgb&dl=pexels-amina-filkins-5410151.jpg&fm=jpg"
    },
    {
        "id": "4839745",
        "src640": "https://images.pexels.com/photos/4839745/pexels-photo-4839745.jpeg?auto=compress&cs=tinysrgb&w=750",
        "src1280": "https://images.pexels.com/photos/4839745/pexels-photo-4839745.jpeg?auto=compress&cs=tinysrgb&w=1440",
        "downloadlink": "https://images.pexels.com/photos/4839745/pexels-photo-4839745.jpeg?cs=srgb&dl=pexels-anna-tarazevich-4839745.jpg&fm=jpg"
    },
    {
        "id": "4862430",
        "src640": "https://images.pexels.com/photos/4862430/pexels-photo-4862430.jpeg?auto=compress&cs=tinysrgb&w=750",
        "src1280": "https://images.pexels.com/photos/4862430/pexels-photo-4862430.jpeg?auto=compress&cs=tinysrgb&w=1440",
        "downloadlink": "https://images.pexels.com/photos/4862430/pexels-photo-4862430.jpeg?cs=srgb&dl=pexels-kevin-kabore-4862430.jpg&fm=jpg"
    },
    {
        "id": "4873557",
        "src640": "https://images.pexels.com/photos/4873557/pexels-photo-4873557.jpeg?auto=compress&cs=tinysrgb&w=750",
        "src1280": "https://images.pexels.com/photos/4873557/pexels-photo-4873557.jpeg?auto=compress&cs=tinysrgb&w=1440",
        "downloadlink": "https://images.pexels.com/photos/4873557/pexels-photo-4873557.jpeg?cs=srgb&dl=pexels-vlada-karpovich-4873557.jpg&fm=jpg"
    },
    {
        "id": "2878764",
        "src640": "https://images.pexels.com/photos/2878764/pexels-photo-2878764.jpeg?auto=compress&cs=tinysrgb&w=750",
        "src1280": "https://images.pexels.com/photos/2878764/pexels-photo-2878764.jpeg?auto=compress&cs=tinysrgb&w=1440",
        "downloadlink": "https://images.pexels.com/photos/2878764/pexels-photo-2878764.jpeg?cs=srgb&dl=pexels-jonathan-borba-2878764.jpg&fm=jpg"
    },
    {
        "id": "3657429",
        "src640": "https://images.pexels.com/photos/3657429/pexels-photo-3657429.jpeg?auto=compress&cs=tinysrgb&w=750",
        "src1280": "https://images.pexels.com/photos/3657429/pexels-photo-3657429.jpeg?auto=compress&cs=tinysrgb&w=1440",
        "downloadlink": "https://images.pexels.com/photos/3657429/pexels-photo-3657429.jpeg?cs=srgb&dl=pexels-jack-redgate-3657429.jpg&fm=jpg"
    },
    {
        "id": "3660033",
        "src640": "https://images.pexels.com/photos/3660033/pexels-photo-3660033.jpeg?auto=compress&cs=tinysrgb&w=750",
        "src1280": "https://images.pexels.com/photos/3660033/pexels-photo-3660033.jpeg?auto=compress&cs=tinysrgb&w=1440",
        "downloadlink": "https://images.pexels.com/photos/3660033/pexels-photo-3660033.jpeg?cs=srgb&dl=pexels-artem-malushenko-3660033.jpg&fm=jpg"
    },
    {
        "id": "3660037",
        "src640": "https://images.pexels.com/photos/3660037/pexels-photo-3660037.jpeg?auto=compress&cs=tinysrgb&w=750",
        "src1280": "https://images.pexels.com/photos/3660037/pexels-photo-3660037.jpeg?auto=compress&cs=tinysrgb&w=1440",
        "downloadlink": "https://images.pexels.com/photos/3660037/pexels-photo-3660037.jpeg?cs=srgb&dl=pexels-artem-malushenko-3660037.jpg&fm=jpg"
    },
    {
        "id": "3732881",
        "src640": "https://images.pexels.com/photos/3732881/pexels-photo-3732881.jpeg?auto=compress&cs=tinysrgb&w=750",
        "src1280": "https://images.pexels.com/photos/3732881/pexels-photo-3732881.jpeg?auto=compress&cs=tinysrgb&w=1440",
        "downloadlink": "https://images.pexels.com/photos/3732881/pexels-photo-3732881.jpeg?cs=srgb&dl=pexels-anna-shvets-3732881.jpg&fm=jpg"
    },
    {
        "id": "3746245",
        "src640": "https://images.pexels.com/photos/3746245/pexels-photo-3746245.jpeg?auto=compress&cs=tinysrgb&w=750",
        "src1280": "https://images.pexels.com/photos/3746245/pexels-photo-3746245.jpeg?auto=compress&cs=tinysrgb&w=1440",
        "downloadlink": "https://images.pexels.com/photos/3746245/pexels-photo-3746245.jpeg?cs=srgb&dl=pexels-anna-shvets-3746245.jpg&fm=jpg"
    },
    {
        "id": "3828236",
        "src640": "https://images.pexels.com/photos/3828236/pexels-photo-3828236.jpeg?auto=compress&cs=tinysrgb&w=750",
        "src1280": "https://images.pexels.com/photos/3828236/pexels-photo-3828236.jpeg?auto=compress&cs=tinysrgb&w=1440",
        "downloadlink": "https://images.pexels.com/photos/3828236/pexels-photo-3828236.jpeg?cs=srgb&dl=pexels-jonaorle-3828236.jpg&fm=jpg"
    }
]