[
    {
        "id": "2191042",
        "src640": "https://images.pexels.com/photos/2191042/pexels-photo-2191042.jpeg?auto=compress&cs=tinysrgb&w=750",
        "src1280": "https://images.pexels.com/photos/2191042/pexels-photo-2191042.jpeg?auto=compress&cs=tinysrgb&w=1440",
        "downloadlink": "https://images.pexels.com/photos/2191042/pexels-photo-2191042.jpeg?cs=srgb&dl=pexels-bia-sousa-2191042.jpg&fm=jpg"
    },
    {
        "id": "2213054",
        "src640": "https://images.pexels.com/photos/2213054/pexels-photo-2213054.jpeg?auto=compress&cs=tinysrgb&w=750",
        "src1280": "https://images.pexels.com/photos/2213054/pexels-photo-2213054.jpeg?auto=compress&cs=tinysrgb&w=1440",
        "downloadlink": "https://images.pexels.com/photos/2213054/pexels-photo-2213054.jpeg?cs=srgb&dl=pexels-bia-sousa-2213054.jpg&fm=jpg"
    },
    {
        "id": "2231132",
        "src640": "https://images.pexels.com/photos/2231132/pexels-photo-2231132.jpeg?auto=compress&cs=tinysrgb&w=750",
        "src1280": "https://images.pexels.com/photos/2231132/pexels-photo-2231132.jpeg?auto=compress&cs=tinysrgb&w=1440",
        "downloadlink": "https://images.pexels.com/photos/2231132/pexels-photo-2231132.jpeg?cs=srgb&dl=pexels-ike-louie-natividad-2231132.jpg&fm=jpg"
    },
    {
        "id": "2333711",
        "src640": "https://images.pexels.com/photos/2333711/pexels-photo-2333711.jpeg?auto=compress&cs=tinysrgb&w=750",
        "src1280": "https://images.pexels.com/photos/2333711/pexels-photo-2333711.jpeg?auto=compress&cs=tinysrgb&w=1440",
        "downloadlink": "https://images.pexels.com/photos/2333711/pexels-photo-2333711.jpeg?cs=srgb&dl=pexels-anastasiya-gepp-2333711.jpg&fm=jpg"
    },
    {
        "id": "2820586",
        "src640": "https://images.pexels.com/photos/2820586/pexels-photo-2820586.jpeg?auto=compress&cs=tinysrgb&w=750",
        "src1280": "https://images.pexels.com/photos/2820586/pexels-photo-2820586.jpeg?auto=compress&cs=tinysrgb&w=1440",
        "downloadlink": "https://images.pexels.com/photos/2820586/pexels-photo-2820586.jpeg?cs=srgb&dl=pexels-allan-franca-carmo-2820586.jpg&fm=jpg"
    },
    {
        "id": "2820606",
        "src640": "https://images.pexels.com/photos/2820606/pexels-photo-2820606.jpeg?auto=compress&cs=tinysrgb&w=750",
        "src1280": "https://images.pexels.com/photos/2820606/pexels-photo-2820606.jpeg?auto=compress&cs=tinysrgb&w=1440",
        "downloadlink": "https://images.pexels.com/photos/2820606/pexels-photo-2820606.jpeg?cs=srgb&dl=pexels-allan-franca-carmo-2820606.jpg&fm=jpg"
    },
    {
        "id": "2827800",
        "src640": "https://images.pexels.com/photos/2827800/pexels-photo-2827800.jpeg?auto=compress&cs=tinysrgb&w=750",
        "src1280": "https://images.pexels.com/photos/2827800/pexels-photo-2827800.jpeg?auto=compress&cs=tinysrgb&w=1440",
        "downloadlink": "https://images.pexels.com/photos/2827800/pexels-photo-2827800.jpeg?cs=srgb&dl=pexels-lil-artsy-2827800.jpg&fm=jpg"
    },
    {
        "id": "3921086",
        "src640": "https://images.pexels.com/photos/3921086/pexels-photo-3921086.jpeg?auto=compress&cs=tinysrgb&w=750",
        "src1280": "https://images.pexels.com/photos/3921086/pexels-photo-3921086.jpeg?auto=compress&cs=tinysrgb&w=1440",
        "downloadlink": "https://images.pexels.com/photos/3921086/pexels-photo-3921086.jpeg?cs=srgb&dl=pexels-pratik-gupta-3921086.jpg&fm=jpg"
    },
    {
        "id": "4056610",
        "src640": "https://images.pexels.com/photos/4056610/pexels-photo-4056610.jpeg?auto=compress&cs=tinysrgb&w=750",
        "src1280": "https://images.pexels.com/photos/4056610/pexels-photo-4056610.jpeg?auto=compress&cs=tinysrgb&w=1440",
        "downloadlink": "https://images.pexels.com/photos/4056610/pexels-photo-4056610.jpeg?cs=srgb&dl=pexels-cliff-booth-4056610.jpg&fm=jpg"
    },
    {
        "id": "1897245",
        "src640": "https://images.pexels.com/photos/1897245/pexels-photo-1897245.jpeg?auto=compress&cs=tinysrgb&w=750",
        "src1280": "https://images.pexels.com/photos/1897245/pexels-photo-1897245.jpeg?auto=compress&cs=tinysrgb&w=1440",
        "downloadlink": "https://images.pexels.com/photos/1897245/pexels-photo-1897245.jpeg?cs=srgb&dl=pexels-ana-carolina-1897245.jpg&fm=jpg"
    },
    {
        "id": "1910129",
        "src640": "https://images.pexels.com/photos/1910129/pexels-photo-1910129.jpeg?auto=compress&cs=tinysrgb&w=750",
        "src1280": "https://images.pexels.com/photos/1910129/pexels-photo-1910129.jpeg?auto=compress&cs=tinysrgb&w=1440",
        "downloadlink": "https://images.pexels.com/photos/1910129/pexels-photo-1910129.jpeg?cs=srgb&dl=pexels-vincenzo-giove-1910129.jpg&fm=jpg"
    },
    {
        "id": "1910131",
        "src640": "https://images.pexels.com/photos/1910131/pexels-photo-1910131.jpeg?auto=compress&cs=tinysrgb&w=750",
        "src1280": "https://images.pexels.com/photos/1910131/pexels-photo-1910131.jpeg?auto=compress&cs=tinysrgb&w=1440",
        "downloadlink": "https://images.pexels.com/photos/1910131/pexels-photo-1910131.jpeg?cs=srgb&dl=pexels-vincenzo-giove-1910131.jpg&fm=jpg"
    },
    {
        "id": "1918351",
        "src640": "https://images.pexels.com/photos/1918351/pexels-photo-1918351.jpeg?auto=compress&cs=tinysrgb&w=750",
        "src1280": "https://images.pexels.com/photos/1918351/pexels-photo-1918351.jpeg?auto=compress&cs=tinysrgb&w=1440",
        "downloadlink": "https://images.pexels.com/photos/1918351/pexels-photo-1918351.jpeg?cs=srgb&dl=pexels-gaby-linn-1918351.jpg&fm=jpg"
    },
    {
        "id": "1962815",
        "src640": "https://images.pexels.com/photos/1962815/pexels-photo-1962815.jpeg?auto=compress&cs=tinysrgb&w=750",
        "src1280": "https://images.pexels.com/photos/1962815/pexels-photo-1962815.jpeg?auto=compress&cs=tinysrgb&w=1440",
        "downloadlink": "https://images.pexels.com/photos/1962815/pexels-photo-1962815.jpeg?cs=srgb&dl=pexels-luriko-yamaguchi-1962815.jpg&fm=jpg"
    },
    {
        "id": "1989297",
        "src640": "https://images.pexels.com/photos/1989297/pexels-photo-1989297.jpeg?auto=compress&cs=tinysrgb&w=750",
        "src1280": "https://images.pexels.com/photos/1989297/pexels-photo-1989297.jpeg?auto=compress&cs=tinysrgb&w=1440",
        "downloadlink": "https://images.pexels.com/photos/1989297/pexels-photo-1989297.jpeg?cs=srgb&dl=pexels-matheus-ferrero-1989297.jpg&fm=jpg"
    },
    {
        "id": "1998497",
        "src640": "https://images.pexels.com/photos/1998497/pexels-photo-1998497.jpeg?auto=compress&cs=tinysrgb&w=750",
        "src1280": "https://images.pexels.com/photos/1998497/pexels-photo-1998497.jpeg?auto=compress&cs=tinysrgb&w=1440",
        "downloadlink": "https://images.pexels.com/photos/1998497/pexels-photo-1998497.jpeg?cs=srgb&dl=pexels-luis-fernandes-1998497.jpg&fm=jpg"
    },
    {
        "id": "2020944",
        "src640": "https://images.pexels.com/photos/2020944/pexels-photo-2020944.jpeg?auto=compress&cs=tinysrgb&w=750",
        "src1280": "https://images.pexels.com/photos/2020944/pexels-photo-2020944.jpeg?auto=compress&cs=tinysrgb&w=1440",
        "downloadlink": "https://images.pexels.com/photos/2020944/pexels-photo-2020944.jpeg?cs=srgb&dl=pexels-qu%E1%BB%91c-b%E1%BA%A3o-2020944.jpg&fm=jpg"
    },
    {
        "id": "2089530",
        "src640": "https://images.pexels.com/photos/2089530/pexels-photo-2089530.jpeg?auto=compress&cs=tinysrgb&w=750",
        "src1280": "https://images.pexels.com/photos/2089530/pexels-photo-2089530.jpeg?auto=compress&cs=tinysrgb&w=1440",
        "downloadlink": "https://images.pexels.com/photos/2089530/pexels-photo-2089530.jpeg?cs=srgb&dl=pexels-marcelo-dias-2089530.jpg&fm=jpg"
    },
    {
        "id": "2085677",
        "src640": "https://images.pexels.com/photos/2085677/pexels-photo-2085677.jpeg?auto=compress&cs=tinysrgb&w=750",
        "src1280": "https://images.pexels.com/photos/2085677/pexels-photo-2085677.jpeg?auto=compress&cs=tinysrgb&w=1440",
        "downloadlink": "https://images.pexels.com/photos/2085677/pexels-photo-2085677.jpeg?cs=srgb&dl=pexels-marcelo-moreira-2085677.jpg&fm=jpg"
    },
    {
        "id": "2100868",
        "src640": "https://images.pexels.com/photos/2100868/pexels-photo-2100868.jpeg?auto=compress&cs=tinysrgb&w=750",
        "src1280": "https://images.pexels.com/photos/2100868/pexels-photo-2100868.jpeg?auto=compress&cs=tinysrgb&w=1440",
        "downloadlink": "https://images.pexels.com/photos/2100868/pexels-photo-2100868.jpeg?cs=srgb&dl=pexels-skg-photography-2100868.jpg&fm=jpg"
    },
    {
        "id": "2267836",
        "src640": "https://images.pexels.com/photos/2267836/pexels-photo-2267836.jpeg?auto=compress&cs=tinysrgb&w=750",
        "src1280": "https://images.pexels.com/photos/2267836/pexels-photo-2267836.jpeg?auto=compress&cs=tinysrgb&w=1440",
        "downloadlink": "https://images.pexels.com/photos/2267836/pexels-photo-2267836.jpeg?cs=srgb&dl=pexels-streetwindy-2267836.jpg&fm=jpg"
    },
    {
        "id": "2282848",
        "src640": "https://images.pexels.com/photos/2282848/pexels-photo-2282848.jpeg?auto=compress&cs=tinysrgb&w=750",
        "src1280": "https://images.pexels.com/photos/2282848/pexels-photo-2282848.jpeg?auto=compress&cs=tinysrgb&w=1440",
        "downloadlink": "https://images.pexels.com/photos/2282848/pexels-photo-2282848.jpeg?cs=srgb&dl=pexels-juliano-ferreira-2282848.jpg&fm=jpg"
    },
    {
        "id": "2380118",
        "src640": "https://images.pexels.com/photos/2380118/pexels-photo-2380118.jpeg?auto=compress&cs=tinysrgb&w=750",
        "src1280": "https://images.pexels.com/photos/2380118/pexels-photo-2380118.jpeg?auto=compress&cs=tinysrgb&w=1440",
        "downloadlink": "https://images.pexels.com/photos/2380118/pexels-photo-2380118.jpeg?cs=srgb&dl=pexels-wilson-vitorino-2380118.jpg&fm=jpg"
    },
    {
        "id": "2422285",
        "src640": "https://images.pexels.com/photos/2422285/pexels-photo-2422285.jpeg?auto=compress&cs=tinysrgb&w=750",
        "src1280": "https://images.pexels.com/photos/2422285/pexels-photo-2422285.jpeg?auto=compress&cs=tinysrgb&w=1440",
        "downloadlink": "https://images.pexels.com/photos/2422285/pexels-photo-2422285.jpeg?cs=srgb&dl=pexels-jopwell-2422285.jpg&fm=jpg"
    }
]