[
    {
        "id": "19601313",
        "src640": "https://images.pexels.com/photos/19601313/pexels-photo-19601313.jpeg?auto=compress&cs=tinysrgb&w=750",
        "src1280": "https://images.pexels.com/photos/19601313/pexels-photo-19601313.jpeg?auto=compress&cs=tinysrgb&w=1440",
        "downloadlink": "https://images.pexels.com/photos/19601313/pexels-photo-19601313.jpeg?cs=srgb&dl=pexels-tran-nhu-tuan-19601313.jpg&fm=jpg"
    },
    {
        "id": "19601317",
        "src640": "https://images.pexels.com/photos/19601317/pexels-photo-19601317.jpeg?auto=compress&cs=tinysrgb&w=750",
        "src1280": "https://images.pexels.com/photos/19601317/pexels-photo-19601317.jpeg?auto=compress&cs=tinysrgb&w=1440",
        "downloadlink": "https://images.pexels.com/photos/19601317/pexels-photo-19601317.jpeg?cs=srgb&dl=pexels-tran-nhu-tuan-19601317.jpg&fm=jpg"
    },
    {
        "id": "19599501",
        "src640": "https://images.pexels.com/photos/19599501/pexels-photo-19599501.jpeg?auto=compress&cs=tinysrgb&w=750",
        "src1280": "https://images.pexels.com/photos/19599501/pexels-photo-19599501.jpeg?auto=compress&cs=tinysrgb&w=1440",
        "downloadlink": "https://images.pexels.com/photos/19599501/pexels-photo-19599501.jpeg?cs=srgb&dl=pexels-emre-keshavarz-19599501.jpg&fm=jpg"
    },
    {
        "id": "19601322",
        "src640": "https://images.pexels.com/photos/19601322/pexels-photo-19601322.jpeg?auto=compress&cs=tinysrgb&w=750",
        "src1280": "https://images.pexels.com/photos/19601322/pexels-photo-19601322.jpeg?auto=compress&cs=tinysrgb&w=1440",
        "downloadlink": "https://images.pexels.com/photos/19601322/pexels-photo-19601322.jpeg?cs=srgb&dl=pexels-tran-nhu-tuan-19601322.jpg&fm=jpg"
    },
    {
        "id": "19601328",
        "src640": "https://images.pexels.com/photos/19601328/pexels-photo-19601328.jpeg?auto=compress&cs=tinysrgb&w=750",
        "src1280": "https://images.pexels.com/photos/19601328/pexels-photo-19601328.jpeg?auto=compress&cs=tinysrgb&w=1440",
        "downloadlink": "https://images.pexels.com/photos/19601328/pexels-photo-19601328.jpeg?cs=srgb&dl=pexels-tran-nhu-tuan-19601328.jpg&fm=jpg"
    },
    {
        "id": "19591873",
        "src640": "https://images.pexels.com/photos/19591873/pexels-photo-19591873.jpeg?auto=compress&cs=tinysrgb&w=750",
        "src1280": "https://images.pexels.com/photos/19591873/pexels-photo-19591873.jpeg?auto=compress&cs=tinysrgb&w=1440",
        "downloadlink": "https://images.pexels.com/photos/19591873/pexels-photo-19591873.jpeg?cs=srgb&dl=pexels-tolga-aslant%C3%BCrk-19591873.jpg&fm=jpg"
    },
    {
        "id": "19592588",
        "src640": "https://images.pexels.com/photos/19592588/pexels-photo-19592588.jpeg?auto=compress&cs=tinysrgb&w=750",
        "src1280": "https://images.pexels.com/photos/19592588/pexels-photo-19592588.jpeg?auto=compress&cs=tinysrgb&w=1440",
        "downloadlink": "https://images.pexels.com/photos/19592588/pexels-photo-19592588.jpeg?cs=srgb&dl=pexels-konstantin-mishchenko-19592588.jpg&fm=jpg"
    },
    {
        "id": "19593163",
        "src640": "https://images.pexels.com/photos/19593163/pexels-photo-19593163.jpeg?auto=compress&cs=tinysrgb&w=750",
        "src1280": "https://images.pexels.com/photos/19593163/pexels-photo-19593163.jpeg?auto=compress&cs=tinysrgb&w=1440",
        "downloadlink": "https://images.pexels.com/photos/19593163/pexels-photo-19593163.jpeg?cs=srgb&dl=pexels-ak-photography-media-19593163.jpg&fm=jpg"
    },
    {
        "id": "19583554",
        "src640": "https://images.pexels.com/photos/19583554/pexels-photo-19583554.jpeg?auto=compress&cs=tinysrgb&w=750",
        "src1280": "https://images.pexels.com/photos/19583554/pexels-photo-19583554.jpeg?auto=compress&cs=tinysrgb&w=1440",
        "downloadlink": "https://images.pexels.com/photos/19583554/pexels-photo-19583554.jpeg?cs=srgb&dl=pexels-g%C3%B6rkem-dalg%C4%B1%C3%A7-19583554.jpg&fm=jpg"
    },
    {
        "id": "19576823",
        "src640": "https://images.pexels.com/photos/19576823/pexels-photo-19576823.jpeg?auto=compress&cs=tinysrgb&w=750",
        "src1280": "https://images.pexels.com/photos/19576823/pexels-photo-19576823.jpeg?auto=compress&cs=tinysrgb&w=1440",
        "downloadlink": "https://images.pexels.com/photos/19576823/pexels-photo-19576823.jpeg?cs=srgb&dl=pexels-anoop-kumar-ratna-19576823.jpg&fm=jpg"
    },
    {
        "id": "19576824",
        "src640": "https://images.pexels.com/photos/19576824/pexels-photo-19576824.jpeg?auto=compress&cs=tinysrgb&w=750",
        "src1280": "https://images.pexels.com/photos/19576824/pexels-photo-19576824.jpeg?auto=compress&cs=tinysrgb&w=1440",
        "downloadlink": "https://images.pexels.com/photos/19576824/pexels-photo-19576824.jpeg?cs=srgb&dl=pexels-anoop-kumar-ratna-19576824.jpg&fm=jpg"
    },
    {
        "id": "19584611",
        "src640": "https://images.pexels.com/photos/19584611/pexels-photo-19584611.jpeg?auto=compress&cs=tinysrgb&w=750",
        "src1280": "https://images.pexels.com/photos/19584611/pexels-photo-19584611.jpeg?auto=compress&cs=tinysrgb&w=1440",
        "downloadlink": "https://images.pexels.com/photos/19584611/pexels-photo-19584611.jpeg?cs=srgb&dl=pexels-marcelo-verfe-19584611.jpg&fm=jpg"
    },
    {
        "id": "19585180",
        "src640": "https://images.pexels.com/photos/19585180/pexels-photo-19585180.jpeg?auto=compress&cs=tinysrgb&w=750",
        "src1280": "https://images.pexels.com/photos/19585180/pexels-photo-19585180.jpeg?auto=compress&cs=tinysrgb&w=1440",
        "downloadlink": "https://images.pexels.com/photos/19585180/pexels-photo-19585180.jpeg?cs=srgb&dl=pexels-ayoub-photographe-19585180.jpg&fm=jpg"
    },
    {
        "id": "19585195",
        "src640": "https://images.pexels.com/photos/19585195/pexels-photo-19585195.jpeg?auto=compress&cs=tinysrgb&w=750",
        "src1280": "https://images.pexels.com/photos/19585195/pexels-photo-19585195.jpeg?auto=compress&cs=tinysrgb&w=1440",
        "downloadlink": "https://images.pexels.com/photos/19585195/pexels-photo-19585195.jpeg?cs=srgb&dl=pexels-ayoub-photographe-19585195.jpg&fm=jpg"
    },
    {
        "id": "19585240",
        "src640": "https://images.pexels.com/photos/19585240/pexels-photo-19585240.jpeg?auto=compress&cs=tinysrgb&w=750",
        "src1280": "https://images.pexels.com/photos/19585240/pexels-photo-19585240.jpeg?auto=compress&cs=tinysrgb&w=1440",
        "downloadlink": "https://images.pexels.com/photos/19585240/pexels-photo-19585240.jpeg?cs=srgb&dl=pexels-ayoub-photographe-19585240.jpg&fm=jpg"
    },
    {
        "id": "19585342",
        "src640": "https://images.pexels.com/photos/19585342/pexels-photo-19585342.jpeg?auto=compress&cs=tinysrgb&w=750",
        "src1280": "https://images.pexels.com/photos/19585342/pexels-photo-19585342.jpeg?auto=compress&cs=tinysrgb&w=1440",
        "downloadlink": "https://images.pexels.com/photos/19585342/pexels-photo-19585342.jpeg?cs=srgb&dl=pexels-ayoub-photographe-19585342.jpg&fm=jpg"
    },
    {
        "id": "19583574",
        "src640": "https://images.pexels.com/photos/19583574/pexels-photo-19583574.jpeg?auto=compress&cs=tinysrgb&w=750",
        "src1280": "https://images.pexels.com/photos/19583574/pexels-photo-19583574.jpeg?auto=compress&cs=tinysrgb&w=1440",
        "downloadlink": "https://images.pexels.com/photos/19583574/pexels-photo-19583574.jpeg?cs=srgb&dl=pexels-g%C3%B6rkem-dalg%C4%B1%C3%A7-19583574.jpg&fm=jpg"
    },
    {
        "id": "19586565",
        "src640": "https://images.pexels.com/photos/19586565/pexels-photo-19586565.jpeg?auto=compress&cs=tinysrgb&w=750",
        "src1280": "https://images.pexels.com/photos/19586565/pexels-photo-19586565.jpeg?auto=compress&cs=tinysrgb&w=1440",
        "downloadlink": "https://images.pexels.com/photos/19586565/pexels-photo-19586565.jpeg?cs=srgb&dl=pexels-heriberto-jahir-medina-19586565.jpg&fm=jpg"
    },
    {
        "id": "19585304",
        "src640": "https://images.pexels.com/photos/19585304/pexels-photo-19585304.jpeg?auto=compress&cs=tinysrgb&w=750",
        "src1280": "https://images.pexels.com/photos/19585304/pexels-photo-19585304.jpeg?auto=compress&cs=tinysrgb&w=1440",
        "downloadlink": "https://images.pexels.com/photos/19585304/pexels-photo-19585304.jpeg?cs=srgb&dl=pexels-ayoub-photographe-19585304.jpg&fm=jpg"
    },
    {
        "id": "1308885",
        "src640": "https://images.pexels.com/photos/1308885/pexels-photo-1308885.jpeg?auto=compress&cs=tinysrgb&w=750",
        "src1280": "https://images.pexels.com/photos/1308885/pexels-photo-1308885.jpeg?auto=compress&cs=tinysrgb&w=1440",
        "downloadlink": "https://images.pexels.com/photos/1308885/pexels-photo-1308885.jpeg?cs=srgb&dl=pexels-tu%E1%BA%A5n-ki%E1%BB%87t-jr-1308885.jpg&fm=jpg"
    },
    {
        "id": "9489458",
        "src640": "https://images.pexels.com/photos/9489458/pexels-photo-9489458.png?auto=compress&cs=tinysrgb&w=750",
        "src1280": "https://images.pexels.com/photos/9489458/pexels-photo-9489458.png?auto=compress&cs=tinysrgb&w=1440",
        "downloadlink": "https://images.pexels.com/photos/9489458/pexels-photo-9489458.png?cs=srgb&dl=pexels-n%C3%A9o-rioux-9489458.jpg&fm=jpg"
    },
    {
        "id": "18624572",
        "src640": "https://images.pexels.com/photos/18624572/pexels-photo-18624572.jpeg?auto=compress&cs=tinysrgb&w=750",
        "src1280": "https://images.pexels.com/photos/18624572/pexels-photo-18624572.jpeg?auto=compress&cs=tinysrgb&w=1440",
        "downloadlink": "https://images.pexels.com/photos/18624572/pexels-photo-18624572.jpeg?cs=srgb&dl=pexels-tony-pham-18624572.jpg&fm=jpg"
    },
    {
        "id": "18387502",
        "src640": "https://images.pexels.com/photos/18387502/pexels-photo-18387502.jpeg?auto=compress&cs=tinysrgb&w=750",
        "src1280": "https://images.pexels.com/photos/18387502/pexels-photo-18387502.jpeg?auto=compress&cs=tinysrgb&w=1440",
        "downloadlink": "https://images.pexels.com/photos/18387502/pexels-photo-18387502.jpeg?cs=srgb&dl=pexels-sueda-dilli-18387502.jpg&fm=jpg"
    },
    {
        "id": "9136250",
        "src640": "https://images.pexels.com/photos/9136250/pexels-photo-9136250.jpeg?auto=compress&cs=tinysrgb&w=750",
        "src1280": "https://images.pexels.com/photos/9136250/pexels-photo-9136250.jpeg?auto=compress&cs=tinysrgb&w=1440",
        "downloadlink": "https://images.pexels.com/photos/9136250/pexels-photo-9136250.jpeg?cs=srgb&dl=pexels-luca-de-massis-9136250.jpg&fm=jpg"
    }
]