[
    {
        "id": "922962",
        "src640": "https://images.pexels.com/photos/922962/pexels-photo-922962.jpeg?auto=compress&cs=tinysrgb&w=750",
        "src1280": "https://images.pexels.com/photos/922962/pexels-photo-922962.jpeg?auto=compress&cs=tinysrgb&w=1440",
        "downloadlink": "https://images.pexels.com/photos/922962/pexels-photo-922962.jpeg?cs=srgb&dl=pexels-mohamed-abdelghaffar-922962.jpg&fm=jpg"
    },
    {
        "id": "961994",
        "src640": "https://images.pexels.com/photos/961994/pexels-photo-961994.jpeg?auto=compress&cs=tinysrgb&w=750",
        "src1280": "https://images.pexels.com/photos/961994/pexels-photo-961994.jpeg?auto=compress&cs=tinysrgb&w=1440",
        "downloadlink": "https://images.pexels.com/photos/961994/pexels-photo-961994.jpeg?cs=srgb&dl=pexels-malibi-studio-961994.jpg&fm=jpg"
    },
    {
        "id": "1066127",
        "src640": "https://images.pexels.com/photos/1066127/pexels-photo-1066127.jpeg?auto=compress&cs=tinysrgb&w=750",
        "src1280": "https://images.pexels.com/photos/1066127/pexels-photo-1066127.jpeg?auto=compress&cs=tinysrgb&w=1440",
        "downloadlink": "https://images.pexels.com/photos/1066127/pexels-photo-1066127.jpeg?cs=srgb&dl=pexels-min-an-1066127.jpg&fm=jpg"
    },
    {
        "id": "1134246",
        "src640": "https://images.pexels.com/photos/1134246/pexels-photo-1134246.jpeg?auto=compress&cs=tinysrgb&w=750",
        "src1280": "https://images.pexels.com/photos/1134246/pexels-photo-1134246.jpeg?auto=compress&cs=tinysrgb&w=1440",
        "downloadlink": "https://images.pexels.com/photos/1134246/pexels-photo-1134246.jpeg?cs=srgb&dl=pexels-miray-tugce-%C3%B6zer-1134246.jpg&fm=jpg"
    },
    {
        "id": "1181688",
        "src640": "https://images.pexels.com/photos/1181688/pexels-photo-1181688.jpeg?auto=compress&cs=tinysrgb&w=750",
        "src1280": "https://images.pexels.com/photos/1181688/pexels-photo-1181688.jpeg?auto=compress&cs=tinysrgb&w=1440",
        "downloadlink": "https://images.pexels.com/photos/1181688/pexels-photo-1181688.jpeg?cs=srgb&dl=pexels-christina-morillo-1181688.jpg&fm=jpg"
    },
    {
        "id": "1193946",
        "src640": "https://images.pexels.com/photos/1193946/pexels-photo-1193946.jpeg?auto=compress&cs=tinysrgb&w=750",
        "src1280": "https://images.pexels.com/photos/1193946/pexels-photo-1193946.jpeg?auto=compress&cs=tinysrgb&w=1440",
        "downloadlink": "https://images.pexels.com/photos/1193946/pexels-photo-1193946.jpeg?cs=srgb&dl=pexels-samarth-singhai-1193946.jpg&fm=jpg"
    },
    {
        "id": "1207494",
        "src640": "https://images.pexels.com/photos/1207494/pexels-photo-1207494.jpeg?auto=compress&cs=tinysrgb&w=750",
        "src1280": "https://images.pexels.com/photos/1207494/pexels-photo-1207494.jpeg?auto=compress&cs=tinysrgb&w=1440",
        "downloadlink": "https://images.pexels.com/photos/1207494/pexels-photo-1207494.jpeg?cs=srgb&dl=pexels-elias-de-carvalho-1207494.jpg&fm=jpg"
    },
    {
        "id": "1245564",
        "src640": "https://images.pexels.com/photos/1245564/pexels-photo-1245564.jpeg?auto=compress&cs=tinysrgb&w=750",
        "src1280": "https://images.pexels.com/photos/1245564/pexels-photo-1245564.jpeg?auto=compress&cs=tinysrgb&w=1440",
        "downloadlink": "https://images.pexels.com/photos/1245564/pexels-photo-1245564.jpeg?cs=srgb&dl=pexels-alexander-krivitskiy-1245564.jpg&fm=jpg"
    },
    {
        "id": "1271690",
        "src640": "https://images.pexels.com/photos/1271690/pexels-photo-1271690.jpeg?auto=compress&cs=tinysrgb&w=750",
        "src1280": "https://images.pexels.com/photos/1271690/pexels-photo-1271690.jpeg?auto=compress&cs=tinysrgb&w=1440",
        "downloadlink": "https://images.pexels.com/photos/1271690/pexels-photo-1271690.jpeg?cs=srgb&dl=pexels-zhu-peng-1271690.jpg&fm=jpg"
    },
    {
        "id": "1460995",
        "src640": "https://images.pexels.com/photos/1460995/pexels-photo-1460995.jpeg?auto=compress&cs=tinysrgb&w=750",
        "src1280": "https://images.pexels.com/photos/1460995/pexels-photo-1460995.jpeg?auto=compress&cs=tinysrgb&w=1440",
        "downloadlink": "https://images.pexels.com/photos/1460995/pexels-photo-1460995.jpeg?cs=srgb&dl=pexels-engin-akyurt-1460995.jpg&fm=jpg"
    },
    {
        "id": "1508649",
        "src640": "https://images.pexels.com/photos/1508649/pexels-photo-1508649.jpeg?auto=compress&cs=tinysrgb&w=750",
        "src1280": "https://images.pexels.com/photos/1508649/pexels-photo-1508649.jpeg?auto=compress&cs=tinysrgb&w=1440",
        "downloadlink": "https://images.pexels.com/photos/1508649/pexels-photo-1508649.jpeg?cs=srgb&dl=pexels-ogo-johnson-1508649.jpg&fm=jpg"
    },
    {
        "id": "1532776",
        "src640": "https://images.pexels.com/photos/1532776/pexels-photo-1532776.jpeg?auto=compress&cs=tinysrgb&w=750",
        "src1280": "https://images.pexels.com/photos/1532776/pexels-photo-1532776.jpeg?auto=compress&cs=tinysrgb&w=1440",
        "downloadlink": "https://images.pexels.com/photos/1532776/pexels-photo-1532776.jpeg?cs=srgb&dl=pexels-min-an-1532776.jpg&fm=jpg"
    },
    {
        "id": "1537494",
        "src640": "https://images.pexels.com/photos/1537494/pexels-photo-1537494.jpeg?auto=compress&cs=tinysrgb&w=750",
        "src1280": "https://images.pexels.com/photos/1537494/pexels-photo-1537494.jpeg?auto=compress&cs=tinysrgb&w=1440",
        "downloadlink": "https://images.pexels.com/photos/1537494/pexels-photo-1537494.jpeg?cs=srgb&dl=pexels-godisable-jacob-1537494.jpg&fm=jpg"
    },
    {
        "id": "1545584",
        "src640": "https://images.pexels.com/photos/1545584/pexels-photo-1545584.jpeg?auto=compress&cs=tinysrgb&w=750",
        "src1280": "https://images.pexels.com/photos/1545584/pexels-photo-1545584.jpeg?auto=compress&cs=tinysrgb&w=1440",
        "downloadlink": "https://images.pexels.com/photos/1545584/pexels-photo-1545584.jpeg?cs=srgb&dl=pexels-t%C3%BA-nguy%E1%BB%85n-1545584.jpg&fm=jpg"
    },
    {
        "id": "1624719",
        "src640": "https://images.pexels.com/photos/1624719/pexels-photo-1624719.jpeg?auto=compress&cs=tinysrgb&w=750",
        "src1280": "https://images.pexels.com/photos/1624719/pexels-photo-1624719.jpeg?auto=compress&cs=tinysrgb&w=1440",
        "downloadlink": "https://images.pexels.com/photos/1624719/pexels-photo-1624719.jpeg?cs=srgb&dl=pexels-ogo-johnson-1624719.jpg&fm=jpg"
    },
    {
        "id": "1630305",
        "src640": "https://images.pexels.com/photos/1630305/pexels-photo-1630305.jpeg?auto=compress&cs=tinysrgb&w=750",
        "src1280": "https://images.pexels.com/photos/1630305/pexels-photo-1630305.jpeg?auto=compress&cs=tinysrgb&w=1440",
        "downloadlink": "https://images.pexels.com/photos/1630305/pexels-photo-1630305.jpeg?cs=srgb&dl=pexels-valeria-boltneva-1630305.jpg&fm=jpg"
    },
    {
        "id": "1667531",
        "src640": "https://images.pexels.com/photos/1667531/pexels-photo-1667531.jpeg?auto=compress&cs=tinysrgb&w=750",
        "src1280": "https://images.pexels.com/photos/1667531/pexels-photo-1667531.jpeg?auto=compress&cs=tinysrgb&w=1440",
        "downloadlink": "https://images.pexels.com/photos/1667531/pexels-photo-1667531.jpeg?cs=srgb&dl=pexels-vivek-baghel-1667531.jpg&fm=jpg"
    },
    {
        "id": "1690744",
        "src640": "https://images.pexels.com/photos/1690744/pexels-photo-1690744.jpeg?auto=compress&cs=tinysrgb&w=750",
        "src1280": "https://images.pexels.com/photos/1690744/pexels-photo-1690744.jpeg?auto=compress&cs=tinysrgb&w=1440",
        "downloadlink": "https://images.pexels.com/photos/1690744/pexels-photo-1690744.jpeg?cs=srgb&dl=pexels-arnie-chou-1690744.jpg&fm=jpg"
    },
    {
        "id": "1721560",
        "src640": "https://images.pexels.com/photos/1721560/pexels-photo-1721560.jpeg?auto=compress&cs=tinysrgb&w=750",
        "src1280": "https://images.pexels.com/photos/1721560/pexels-photo-1721560.jpeg?auto=compress&cs=tinysrgb&w=1440",
        "downloadlink": "https://images.pexels.com/photos/1721560/pexels-photo-1721560.jpeg?cs=srgb&dl=pexels-harsh-kushwaha-1721560.jpg&fm=jpg"
    },
    {
        "id": "1728107",
        "src640": "https://images.pexels.com/photos/1728107/pexels-photo-1728107.jpeg?auto=compress&cs=tinysrgb&w=750",
        "src1280": "https://images.pexels.com/photos/1728107/pexels-photo-1728107.jpeg?auto=compress&cs=tinysrgb&w=1440",
        "downloadlink": "https://images.pexels.com/photos/1728107/pexels-photo-1728107.jpeg?cs=srgb&dl=pexels-ogo-johnson-1728107.jpg&fm=jpg"
    },
    {
        "id": "1728109",
        "src640": "https://images.pexels.com/photos/1728109/pexels-photo-1728109.jpeg?auto=compress&cs=tinysrgb&w=750",
        "src1280": "https://images.pexels.com/photos/1728109/pexels-photo-1728109.jpeg?auto=compress&cs=tinysrgb&w=1440",
        "downloadlink": "https://images.pexels.com/photos/1728109/pexels-photo-1728109.jpeg?cs=srgb&dl=pexels-ogo-johnson-1728109.jpg&fm=jpg"
    },
    {
        "id": "1728164",
        "src640": "https://images.pexels.com/photos/1728164/pexels-photo-1728164.jpeg?auto=compress&cs=tinysrgb&w=750",
        "src1280": "https://images.pexels.com/photos/1728164/pexels-photo-1728164.jpeg?auto=compress&cs=tinysrgb&w=1440",
        "downloadlink": "https://images.pexels.com/photos/1728164/pexels-photo-1728164.jpeg?cs=srgb&dl=pexels-rafael-barros-1728164.jpg&fm=jpg"
    },
    {
        "id": "1777298",
        "src640": "https://images.pexels.com/photos/1777298/pexels-photo-1777298.jpeg?auto=compress&cs=tinysrgb&w=750",
        "src1280": "https://images.pexels.com/photos/1777298/pexels-photo-1777298.jpeg?auto=compress&cs=tinysrgb&w=1440",
        "downloadlink": "https://images.pexels.com/photos/1777298/pexels-photo-1777298.jpeg?cs=srgb&dl=pexels-jimmy-bronx-1777298.jpg&fm=jpg"
    },
    {
        "id": "1800454",
        "src640": "https://images.pexels.com/photos/1800454/pexels-photo-1800454.jpeg?auto=compress&cs=tinysrgb&w=750",
        "src1280": "https://images.pexels.com/photos/1800454/pexels-photo-1800454.jpeg?auto=compress&cs=tinysrgb&w=1440",
        "downloadlink": "https://images.pexels.com/photos/1800454/pexels-photo-1800454.jpeg?cs=srgb&dl=pexels-irina-iriser-1800454.jpg&fm=jpg"
    }
]