[
    {
        "id": "6998264",
        "src640": "https://cdn.pixabay.com/photo/2022/02/06/23/53/fruit-6998264_640.jpg",
        "src1280": "https://cdn.pixabay.com/photo/2022/02/06/23/53/fruit-6998264_1280.jpg"
    },
    {
        "id": "8322273",
        "src640": "https://cdn.pixabay.com/photo/2023/10/17/19/41/flowers-8322273_640.jpg",
        "src1280": "https://cdn.pixabay.com/photo/2023/10/17/19/41/flowers-8322273_1280.jpg"
    },
    {
        "id": "4882222",
        "src640": "https://cdn.pixabay.com/photo/2020/02/26/16/31/butterfly-4882222_640.jpg",
        "src1280": "https://cdn.pixabay.com/photo/2020/02/26/16/31/butterfly-4882222_1280.jpg"
    },
    {
        "id": "4666682",
        "src640": "https://cdn.pixabay.com/photo/2019/12/01/23/59/summer-4666682_640.jpg",
        "src1280": "https://cdn.pixabay.com/photo/2019/12/01/23/59/summer-4666682_1280.jpg"
    },
    {
        "id": "5004710",
        "src640": "https://cdn.pixabay.com/photo/2020/04/05/06/23/butterfly-5004710_640.jpg",
        "src1280": "https://cdn.pixabay.com/photo/2020/04/05/06/23/butterfly-5004710_1280.jpg"
    },
    {
        "id": "3030804",
        "src640": "https://cdn.pixabay.com/photo/2017/12/20/22/53/poppy-3030804_640.jpg",
        "src1280": "https://cdn.pixabay.com/photo/2017/12/20/22/53/poppy-3030804_1280.jpg"
    },
    {
        "id": "5121191",
        "src640": "https://cdn.pixabay.com/photo/2020/05/02/12/18/flowers-5121191_640.jpg",
        "src1280": "https://cdn.pixabay.com/photo/2020/05/02/12/18/flowers-5121191_1280.jpg"
    },
    {
        "id": "3772714",
        "src640": "https://cdn.pixabay.com/photo/2018/10/25/16/00/dahlia-3772714_640.jpg",
        "src1280": "https://cdn.pixabay.com/photo/2018/10/25/16/00/dahlia-3772714_1280.jpg"
    },
    {
        "id": "3972542",
        "src640": "https://cdn.pixabay.com/photo/2019/02/03/12/54/butterfly-3972542_640.jpg",
        "src1280": "https://cdn.pixabay.com/photo/2019/02/03/12/54/butterfly-3972542_1280.jpg"
    },
    {
        "id": "7917591",
        "src640": "https://cdn.pixabay.com/photo/2023/04/11/15/48/flowers-7917591_640.jpg",
        "src1280": "https://cdn.pixabay.com/photo/2023/04/11/15/48/flowers-7917591_1280.jpg"
    },
    {
        "id": "6052446",
        "src640": "https://cdn.pixabay.com/photo/2021/02/26/16/19/woman-6052446_640.jpg",
        "src1280": "https://cdn.pixabay.com/photo/2021/02/26/16/19/woman-6052446_1280.jpg"
    },
    {
        "id": "5339222",
        "src640": "https://cdn.pixabay.com/photo/2020/06/25/10/15/tulip-5339222_640.jpg",
        "src1280": "https://cdn.pixabay.com/photo/2020/06/25/10/15/tulip-5339222_1280.jpg"
    },
    {
        "id": "7479571",
        "src640": "https://cdn.pixabay.com/photo/2022/09/26/03/34/flower-bud-7479571_640.jpg",
        "src1280": "https://cdn.pixabay.com/photo/2022/09/26/03/34/flower-bud-7479571_1280.jpg"
    },
    {
        "id": "4988278",
        "src640": "https://cdn.pixabay.com/photo/2020/03/31/15/51/door-4988278_640.jpg",
        "src1280": "https://cdn.pixabay.com/photo/2020/03/31/15/51/door-4988278_1280.jpg"
    },
    {
        "id": "6323928",
        "src640": "https://cdn.pixabay.com/photo/2021/06/09/16/45/lupine-6323928_640.jpg",
        "src1280": "https://cdn.pixabay.com/photo/2021/06/09/16/45/lupine-6323928_1280.jpg"
    },
    {
        "id": "4246338",
        "src640": "https://cdn.pixabay.com/photo/2019/06/02/12/05/poppy-4246338_640.jpg",
        "src1280": "https://cdn.pixabay.com/photo/2019/06/02/12/05/poppy-4246338_1280.jpg"
    },
    {
        "id": "5096652",
        "src640": "https://cdn.pixabay.com/photo/2020/04/26/18/44/iris-5096652_640.jpg",
        "src1280": "https://cdn.pixabay.com/photo/2020/04/26/18/44/iris-5096652_1280.jpg"
    },
    {
        "id": "8096576",
        "src640": "https://cdn.pixabay.com/photo/2023/06/29/15/22/woman-8096576_640.jpg",
        "src1280": "https://cdn.pixabay.com/photo/2023/06/29/15/22/woman-8096576_1280.jpg"
    },
    {
        "id": "7303828",
        "src640": "https://cdn.pixabay.com/photo/2022/07/05/19/25/hydrangea-7303828_640.jpg",
        "src1280": "https://cdn.pixabay.com/photo/2022/07/05/19/25/hydrangea-7303828_1280.jpg"
    },
    {
        "id": "419556",
        "src640": "https://cdn.pixabay.com/photo/2014/08/16/17/57/flowers-419556_640.jpg",
        "src1280": "https://cdn.pixabay.com/photo/2014/08/16/17/57/flowers-419556_1280.jpg"
    },
    {
        "id": "6205517",
        "src640": "https://cdn.pixabay.com/photo/2021/04/25/04/11/tulip-6205517_640.jpg",
        "src1280": "https://cdn.pixabay.com/photo/2021/04/25/04/11/tulip-6205517_1280.jpg"
    },
    {
        "id": "167464",
        "src640": "https://cdn.pixabay.com/photo/2013/07/26/05/48/large-speedwell-167464_640.jpg",
        "src1280": "https://cdn.pixabay.com/photo/2013/07/26/05/48/large-speedwell-167464_1280.jpg"
    },
    {
        "id": "3935805",
        "src640": "https://cdn.pixabay.com/photo/2019/01/16/11/53/flower-3935805_640.jpg",
        "src1280": "https://cdn.pixabay.com/photo/2019/01/16/11/53/flower-3935805_1280.jpg"
    },
    {
        "id": "4808577",
        "src640": "https://cdn.pixabay.com/photo/2020/01/31/17/17/bee-4808577_640.jpg",
        "src1280": "https://cdn.pixabay.com/photo/2020/01/31/17/17/bee-4808577_1280.jpg"
    },
    {
        "id": "3897117",
        "src640": "https://cdn.pixabay.com/photo/2018/12/27/07/10/iris-3897117_640.jpg",
        "src1280": "https://cdn.pixabay.com/photo/2018/12/27/07/10/iris-3897117_1280.jpg"
    },
    {
        "id": "7454247",
        "src640": "https://cdn.pixabay.com/photo/2022/09/14/12/40/white-flower-7454247_640.jpg",
        "src1280": "https://cdn.pixabay.com/photo/2022/09/14/12/40/white-flower-7454247_1280.jpg"
    },
    {
        "id": "5169714",
        "src640": "https://cdn.pixabay.com/photo/2020/05/14/02/49/butterfly-5169714_640.jpg",
        "src1280": "https://cdn.pixabay.com/photo/2020/05/14/02/49/butterfly-5169714_1280.jpg"
    },
    {
        "id": "4501723",
        "src640": "https://cdn.pixabay.com/photo/2019/09/24/16/36/austrian-dress-4501723_640.jpg",
        "src1280": "https://cdn.pixabay.com/photo/2019/09/24/16/36/austrian-dress-4501723_1280.jpg"
    },
    {
        "id": "5820181",
        "src640": "https://cdn.pixabay.com/photo/2020/12/10/12/36/girl-5820181_640.jpg",
        "src1280": "https://cdn.pixabay.com/photo/2020/12/10/12/36/girl-5820181_1280.jpg"
    },
    {
        "id": "3495142",
        "src640": "https://cdn.pixabay.com/photo/2018/06/24/18/19/lotus-3495142_640.jpg",
        "src1280": "https://cdn.pixabay.com/photo/2018/06/24/18/19/lotus-3495142_1280.jpg"
    },
    {
        "id": "1893274",
        "src640": "https://cdn.pixabay.com/photo/2016/12/08/22/14/girl-1893274_640.jpg",
        "src1280": "https://cdn.pixabay.com/photo/2016/12/08/22/14/girl-1893274_1280.jpg"
    },
    {
        "id": "3141626",
        "src640": "https://cdn.pixabay.com/photo/2018/02/09/13/55/bouquet-3141626_640.jpg",
        "src1280": "https://cdn.pixabay.com/photo/2018/02/09/13/55/bouquet-3141626_1280.jpg"
    },
    {
        "id": "8493944",
        "src640": "https://cdn.pixabay.com/photo/2024/01/07/18/19/ai-generated-8493944_640.jpg",
        "src1280": "https://cdn.pixabay.com/photo/2024/01/07/18/19/ai-generated-8493944_1280.jpg"
    },
    {
        "id": "4490846",
        "src640": "https://cdn.pixabay.com/photo/2019/09/20/05/25/fantasy-4490846_640.jpg",
        "src1280": "https://cdn.pixabay.com/photo/2019/09/20/05/25/fantasy-4490846_1280.jpg"
    },
    {
        "id": "7311580",
        "src640": "https://cdn.pixabay.com/photo/2022/07/09/18/57/butterfly-7311580_640.jpg",
        "src1280": "https://cdn.pixabay.com/photo/2022/07/09/18/57/butterfly-7311580_1280.jpg"
    },
    {
        "id": "7454773",
        "src640": "https://cdn.pixabay.com/photo/2022/09/14/16/35/flower-7454773_640.jpg",
        "src1280": "https://cdn.pixabay.com/photo/2022/09/14/16/35/flower-7454773_1280.jpg"
    },
    {
        "id": "7724151",
        "src640": "https://cdn.pixabay.com/photo/2023/01/17/09/02/jungle-7724151_640.jpg",
        "src1280": "https://cdn.pixabay.com/photo/2023/01/17/09/02/jungle-7724151_1280.jpg"
    },
    {
        "id": "4927689",
        "src640": "https://cdn.pixabay.com/photo/2020/03/13/11/26/tulips-4927689_640.jpg",
        "src1280": "https://cdn.pixabay.com/photo/2020/03/13/11/26/tulips-4927689_1280.jpg"
    },
    {
        "id": "7200128",
        "src640": "https://cdn.pixabay.com/photo/2022/05/16/11/25/mountain-7200128_640.jpg",
        "src1280": "https://cdn.pixabay.com/photo/2022/05/16/11/25/mountain-7200128_1280.jpg"
    },
    {
        "id": "1595603",
        "src640": "https://cdn.pixabay.com/photo/2016/08/15/14/39/lavender-1595603_640.jpg",
        "src1280": "https://cdn.pixabay.com/photo/2016/08/15/14/39/lavender-1595603_1280.jpg"
    },
    {
        "id": "8308005",
        "src640": "https://cdn.pixabay.com/photo/2023/10/11/08/08/bee-8308005_640.jpg",
        "src1280": "https://cdn.pixabay.com/photo/2023/10/11/08/08/bee-8308005_1280.jpg"
    },
    {
        "id": "2178577",
        "src640": "https://cdn.pixabay.com/photo/2017/03/27/13/02/autumn-2178577_640.jpg",
        "src1280": "https://cdn.pixabay.com/photo/2017/03/27/13/02/autumn-2178577_1280.jpg"
    },
    {
        "id": "4267188",
        "src640": "https://cdn.pixabay.com/photo/2019/06/11/14/27/helianthus-4267188_640.jpg",
        "src1280": "https://cdn.pixabay.com/photo/2019/06/11/14/27/helianthus-4267188_1280.jpg"
    },
    {
        "id": "5160055",
        "src640": "https://cdn.pixabay.com/photo/2020/05/11/20/07/flower-5160055_640.jpg",
        "src1280": "https://cdn.pixabay.com/photo/2020/05/11/20/07/flower-5160055_1280.jpg"
    },
    {
        "id": "3321060",
        "src640": "https://cdn.pixabay.com/photo/2018/04/15/08/11/nature-3321060_640.jpg",
        "src1280": "https://cdn.pixabay.com/photo/2018/04/15/08/11/nature-3321060_1280.jpg"
    },
    {
        "id": "7468603",
        "src640": "https://cdn.pixabay.com/photo/2022/09/20/19/21/rose-7468603_640.jpg",
        "src1280": "https://cdn.pixabay.com/photo/2022/09/20/19/21/rose-7468603_1280.jpg"
    },
    {
        "id": "7298613",
        "src640": "https://cdn.pixabay.com/photo/2022/07/03/08/06/lotus-7298613_640.jpg",
        "src1280": "https://cdn.pixabay.com/photo/2022/07/03/08/06/lotus-7298613_1280.jpg"
    },
    {
        "id": "3923284",
        "src640": "https://cdn.pixabay.com/photo/2019/01/09/13/23/red-rose-3923284_640.jpg",
        "src1280": "https://cdn.pixabay.com/photo/2019/01/09/13/23/red-rose-3923284_1280.jpg"
    },
    {
        "id": "5903936",
        "src640": "https://cdn.pixabay.com/photo/2021/01/10/01/49/woman-5903936_640.jpg",
        "src1280": "https://cdn.pixabay.com/photo/2021/01/10/01/49/woman-5903936_1280.jpg"
    },
    {
        "id": "3334983",
        "src640": "https://cdn.pixabay.com/photo/2018/04/20/03/34/japanese-girl-3334983_640.jpg",
        "src1280": "https://cdn.pixabay.com/photo/2018/04/20/03/34/japanese-girl-3334983_1280.jpg"
    },
    {
        "id": "4927497",
        "src640": "https://cdn.pixabay.com/photo/2020/03/13/10/08/flower-delivery-dubai-4927497_640.jpg",
        "src1280": "https://cdn.pixabay.com/photo/2020/03/13/10/08/flower-delivery-dubai-4927497_1280.jpg"
    },
    {
        "id": "5564903",
        "src640": "https://cdn.pixabay.com/photo/2020/09/12/05/07/woman-5564903_640.jpg",
        "src1280": "https://cdn.pixabay.com/photo/2020/09/12/05/07/woman-5564903_1280.jpg"
    },
    {
        "id": "8045177",
        "src640": "https://cdn.pixabay.com/photo/2023/06/06/17/28/flower-8045177_640.jpg",
        "src1280": "https://cdn.pixabay.com/photo/2023/06/06/17/28/flower-8045177_1280.jpg"
    },
    {
        "id": "7732616",
        "src640": "https://cdn.pixabay.com/photo/2023/01/20/21/57/corn-poppy-7732616_640.jpg",
        "src1280": "https://cdn.pixabay.com/photo/2023/01/20/21/57/corn-poppy-7732616_1280.jpg"
    },
    {
        "id": "4499700",
        "src640": "https://cdn.pixabay.com/photo/2019/09/23/20/49/martini-4499700_640.jpg",
        "src1280": "https://cdn.pixabay.com/photo/2019/09/23/20/49/martini-4499700_1280.jpg"
    },
    {
        "id": "3488041",
        "src640": "https://cdn.pixabay.com/photo/2018/06/21/08/11/anemone-3488041_640.jpg",
        "src1280": "https://cdn.pixabay.com/photo/2018/06/21/08/11/anemone-3488041_1280.jpg"
    },
    {
        "id": "4411656",
        "src640": "https://cdn.pixabay.com/photo/2019/08/17/08/14/dragonfly-4411656_640.jpg",
        "src1280": "https://cdn.pixabay.com/photo/2019/08/17/08/14/dragonfly-4411656_1280.jpg"
    },
    {
        "id": "6849439",
        "src640": "https://cdn.pixabay.com/photo/2021/12/06/07/31/table-6849439_640.jpg",
        "src1280": "https://cdn.pixabay.com/photo/2021/12/06/07/31/table-6849439_1280.jpg"
    },
    {
        "id": "5612960",
        "src640": "https://cdn.pixabay.com/photo/2020/09/29/14/11/flowers-5612960_640.jpg",
        "src1280": "https://cdn.pixabay.com/photo/2020/09/29/14/11/flowers-5612960_1280.jpg"
    },
    {
        "id": "3750805",
        "src640": "https://cdn.pixabay.com/photo/2018/10/16/06/56/bee-3750805_640.jpg",
        "src1280": "https://cdn.pixabay.com/photo/2018/10/16/06/56/bee-3750805_1280.jpg"
    },
    {
        "id": "2824329",
        "src640": "https://cdn.pixabay.com/photo/2017/10/06/19/29/saffron-2824329_640.jpg",
        "src1280": "https://cdn.pixabay.com/photo/2017/10/06/19/29/saffron-2824329_1280.jpg"
    },
    {
        "id": "5449977",
        "src640": "https://cdn.pixabay.com/photo/2020/07/30/09/56/roses-5449977_640.jpg",
        "src1280": "https://cdn.pixabay.com/photo/2020/07/30/09/56/roses-5449977_1280.jpg"
    },
    {
        "id": "804710",
        "src640": "https://cdn.pixabay.com/photo/2015/06/10/10/28/peony-804710_640.jpg",
        "src1280": "https://cdn.pixabay.com/photo/2015/06/10/10/28/peony-804710_1280.jpg"
    },
    {
        "id": "7808326",
        "src640": "https://cdn.pixabay.com/photo/2023/02/23/09/36/flowers-7808326_640.jpg",
        "src1280": "https://cdn.pixabay.com/photo/2023/02/23/09/36/flowers-7808326_1280.jpg"
    },
    {
        "id": "7401646",
        "src640": "https://cdn.pixabay.com/photo/2022/08/21/16/28/sunrise-7401646_640.jpg",
        "src1280": "https://cdn.pixabay.com/photo/2022/08/21/16/28/sunrise-7401646_1280.jpg"
    },
    {
        "id": "5356489",
        "src640": "https://cdn.pixabay.com/photo/2020/06/30/14/07/blossom-5356489_640.jpg",
        "src1280": "https://cdn.pixabay.com/photo/2020/06/30/14/07/blossom-5356489_1280.jpg"
    },
    {
        "id": "831960",
        "src640": "https://cdn.pixabay.com/photo/2015/07/05/05/01/gladiola-831960_640.jpg",
        "src1280": "https://cdn.pixabay.com/photo/2015/07/05/05/01/gladiola-831960_1280.jpg"
    },
    {
        "id": "7628689",
        "src640": "https://cdn.pixabay.com/photo/2022/12/01/09/16/christmas-motif-7628689_640.jpg",
        "src1280": "https://cdn.pixabay.com/photo/2022/12/01/09/16/christmas-motif-7628689_1280.jpg"
    },
    {
        "id": "7411822",
        "src640": "https://cdn.pixabay.com/photo/2022/08/26/06/28/verbena-7411822_640.jpg",
        "src1280": "https://cdn.pixabay.com/photo/2022/08/26/06/28/verbena-7411822_1280.jpg"
    },
    {
        "id": "4216430",
        "src640": "https://cdn.pixabay.com/photo/2019/05/20/11/04/spring-4216430_640.jpg",
        "src1280": "https://cdn.pixabay.com/photo/2019/05/20/11/04/spring-4216430_1280.jpg"
    },
    {
        "id": "2326111",
        "src640": "https://cdn.pixabay.com/photo/2017/05/19/10/31/lupine-2326111_640.jpg",
        "src1280": "https://cdn.pixabay.com/photo/2017/05/19/10/31/lupine-2326111_1280.jpg"
    },
    {
        "id": "7709374",
        "src640": "https://cdn.pixabay.com/photo/2023/01/10/09/34/flower-7709374_640.jpg",
        "src1280": "https://cdn.pixabay.com/photo/2023/01/10/09/34/flower-7709374_1280.jpg"
    },
    {
        "id": "3806222",
        "src640": "https://cdn.pixabay.com/photo/2018/11/10/08/29/tekapo-3806222_640.jpg",
        "src1280": "https://cdn.pixabay.com/photo/2018/11/10/08/29/tekapo-3806222_1280.jpg"
    },
    {
        "id": "8228107",
        "src640": "https://cdn.pixabay.com/photo/2023/09/02/03/48/hibiscus-8228107_640.jpg",
        "src1280": "https://cdn.pixabay.com/photo/2023/09/02/03/48/hibiscus-8228107_1280.jpg"
    },
    {
        "id": "3416402",
        "src640": "https://cdn.pixabay.com/photo/2018/05/20/18/17/clematis-3416402_640.jpg",
        "src1280": "https://cdn.pixabay.com/photo/2018/05/20/18/17/clematis-3416402_1280.jpg"
    },
    {
        "id": "6274571",
        "src640": "https://cdn.pixabay.com/photo/2021/05/22/20/31/meadow-6274571_640.jpg",
        "src1280": "https://cdn.pixabay.com/photo/2021/05/22/20/31/meadow-6274571_1280.jpg"
    },
    {
        "id": "4119560",
        "src640": "https://cdn.pixabay.com/photo/2019/04/11/11/43/summer-4119560_640.jpg",
        "src1280": "https://cdn.pixabay.com/photo/2019/04/11/11/43/summer-4119560_1280.jpg"
    },
    {
        "id": "7784926",
        "src640": "https://cdn.pixabay.com/photo/2023/02/12/11/58/flowers-7784926_640.jpg",
        "src1280": "https://cdn.pixabay.com/photo/2023/02/12/11/58/flowers-7784926_1280.jpg"
    },
    {
        "id": "5414623",
        "src640": "https://cdn.pixabay.com/photo/2020/07/17/16/13/thistle-5414623_640.jpg",
        "src1280": "https://cdn.pixabay.com/photo/2020/07/17/16/13/thistle-5414623_1280.jpg"
    },
    {
        "id": "837585",
        "src640": "https://cdn.pixabay.com/photo/2015/07/09/11/48/flowers-837585_640.jpg",
        "src1280": "https://cdn.pixabay.com/photo/2015/07/09/11/48/flowers-837585_1280.jpg"
    },
    {
        "id": "4873626",
        "src640": "https://cdn.pixabay.com/photo/2020/02/23/15/14/peach-flower-4873626_640.jpg",
        "src1280": "https://cdn.pixabay.com/photo/2020/02/23/15/14/peach-flower-4873626_1280.jpg"
    },
    {
        "id": "6816700",
        "src640": "https://cdn.pixabay.com/photo/2021/11/22/15/10/plant-6816700_640.jpg",
        "src1280": "https://cdn.pixabay.com/photo/2021/11/22/15/10/plant-6816700_1280.jpg"
    },
    {
        "id": "7195569",
        "src640": "https://cdn.pixabay.com/photo/2022/05/14/12/28/rose-7195569_640.jpg",
        "src1280": "https://cdn.pixabay.com/photo/2022/05/14/12/28/rose-7195569_1280.jpg"
    },
    {
        "id": "2568550",
        "src640": "https://cdn.pixabay.com/photo/2017/08/01/23/12/trees-2568550_640.jpg",
        "src1280": "https://cdn.pixabay.com/photo/2017/08/01/23/12/trees-2568550_1280.jpg"
    },
    {
        "id": "173438",
        "src640": "https://cdn.pixabay.com/photo/2013/08/17/15/54/morning-glory-173438_640.jpg",
        "src1280": "https://cdn.pixabay.com/photo/2013/08/17/15/54/morning-glory-173438_1280.jpg"
    },
    {
        "id": "1010035",
        "src640": "https://cdn.pixabay.com/photo/2015/10/28/06/59/ego-1010035_640.jpg",
        "src1280": "https://cdn.pixabay.com/photo/2015/10/28/06/59/ego-1010035_1280.jpg"
    },
    {
        "id": "7940113",
        "src640": "https://cdn.pixabay.com/photo/2023/04/20/15/59/spring-7940113_640.jpg",
        "src1280": "https://cdn.pixabay.com/photo/2023/04/20/15/59/spring-7940113_1280.jpg"
    },
    {
        "id": "3282871",
        "src640": "https://cdn.pixabay.com/photo/2018/04/02/02/32/nature-3282871_640.jpg",
        "src1280": "https://cdn.pixabay.com/photo/2018/04/02/02/32/nature-3282871_1280.jpg"
    },
    {
        "id": "1073789",
        "src640": "https://cdn.pixabay.com/photo/2015/12/03/06/19/background-flowers-1073789_640.jpg",
        "src1280": "https://cdn.pixabay.com/photo/2015/12/03/06/19/background-flowers-1073789_1280.jpg"
    },
    {
        "id": "4874611",
        "src640": "https://cdn.pixabay.com/photo/2020/02/23/20/48/orchid-4874611_640.jpg",
        "src1280": "https://cdn.pixabay.com/photo/2020/02/23/20/48/orchid-4874611_1280.jpg"
    },
    {
        "id": "5662421",
        "src640": "https://cdn.pixabay.com/photo/2020/10/17/15/06/flowers-5662421_640.jpg",
        "src1280": "https://cdn.pixabay.com/photo/2020/10/17/15/06/flowers-5662421_1280.jpg"
    }
]