[
    {
        "id": "4118273",
        "src640": "https://cdn.pixabay.com/photo/2019/04/10/21/27/tulipa-4118273_640.jpg",
        "src1280": "https://cdn.pixabay.com/photo/2019/04/10/21/27/tulipa-4118273_1280.jpg"
    },
    {
        "id": "1441554",
        "src640": "https://cdn.pixabay.com/photo/2016/06/07/12/59/columbine-1441554_640.jpg",
        "src1280": "https://cdn.pixabay.com/photo/2016/06/07/12/59/columbine-1441554_1280.jpg"
    },
    {
        "id": "3647318",
        "src640": "https://cdn.pixabay.com/photo/2018/09/01/17/59/rose-3647318_640.jpg",
        "src1280": "https://cdn.pixabay.com/photo/2018/09/01/17/59/rose-3647318_1280.jpg"
    },
    {
        "id": "2417422",
        "src640": "https://cdn.pixabay.com/photo/2017/06/18/22/10/ornamental-onion-2417422_640.jpg",
        "src1280": "https://cdn.pixabay.com/photo/2017/06/18/22/10/ornamental-onion-2417422_1280.jpg"
    },
    {
        "id": "771604",
        "src640": "https://cdn.pixabay.com/photo/2015/05/17/21/03/flower-771604_640.jpg",
        "src1280": "https://cdn.pixabay.com/photo/2015/05/17/21/03/flower-771604_1280.jpg"
    },
    {
        "id": "8078781",
        "src640": "https://cdn.pixabay.com/photo/2023/06/21/08/33/flower-8078781_640.jpg",
        "src1280": "https://cdn.pixabay.com/photo/2023/06/21/08/33/flower-8078781_1280.jpg"
    },
    {
        "id": "7131261",
        "src640": "https://cdn.pixabay.com/photo/2022/04/13/22/18/daffodils-7131261_640.jpg",
        "src1280": "https://cdn.pixabay.com/photo/2022/04/13/22/18/daffodils-7131261_1280.jpg"
    },
    {
        "id": "4240242",
        "src640": "https://cdn.pixabay.com/photo/2019/05/30/17/06/rose-4240242_640.jpg",
        "src1280": "https://cdn.pixabay.com/photo/2019/05/30/17/06/rose-4240242_1280.jpg"
    },
    {
        "id": "7451517",
        "src640": "https://cdn.pixabay.com/photo/2022/09/13/09/54/bellflower-7451517_640.jpg",
        "src1280": "https://cdn.pixabay.com/photo/2022/09/13/09/54/bellflower-7451517_1280.jpg"
    },
    {
        "id": "8942",
        "src640": "https://cdn.pixabay.com/photo/2011/08/18/01/30/tongue-flower-8942_640.jpg",
        "src1280": "https://cdn.pixabay.com/photo/2011/08/18/01/30/tongue-flower-8942_1280.jpg"
    },
    {
        "id": "2123381",
        "src640": "https://cdn.pixabay.com/photo/2017/03/07/08/04/flower-2123381_640.jpg",
        "src1280": "https://cdn.pixabay.com/photo/2017/03/07/08/04/flower-2123381_1280.jpg"
    },
    {
        "id": "4351554",
        "src640": "https://cdn.pixabay.com/photo/2019/07/20/21/00/rose-4351554_640.jpg",
        "src1280": "https://cdn.pixabay.com/photo/2019/07/20/21/00/rose-4351554_1280.jpg"
    },
    {
        "id": "3374394",
        "src640": "https://cdn.pixabay.com/photo/2018/05/04/16/42/lilac-3374394_640.jpg",
        "src1280": "https://cdn.pixabay.com/photo/2018/05/04/16/42/lilac-3374394_1280.jpg"
    },
    {
        "id": "1697763",
        "src640": "https://cdn.pixabay.com/photo/2016/09/27/08/26/rosa-1697763_640.jpg",
        "src1280": "https://cdn.pixabay.com/photo/2016/09/27/08/26/rosa-1697763_1280.jpg"
    },
    {
        "id": "6197679",
        "src640": "https://cdn.pixabay.com/photo/2021/04/21/22/39/poppy-6197679_640.jpg",
        "src1280": "https://cdn.pixabay.com/photo/2021/04/21/22/39/poppy-6197679_1280.jpg"
    },
    {
        "id": "649890",
        "src640": "https://cdn.pixabay.com/photo/2015/02/26/04/22/flower-649890_640.jpg",
        "src1280": "https://cdn.pixabay.com/photo/2015/02/26/04/22/flower-649890_1280.jpg"
    },
    {
        "id": "8069834",
        "src640": "https://cdn.pixabay.com/photo/2023/06/17/11/57/yellow-flower-8069834_640.jpg",
        "src1280": "https://cdn.pixabay.com/photo/2023/06/17/11/57/yellow-flower-8069834_1280.jpg"
    },
    {
        "id": "4542578",
        "src640": "https://cdn.pixabay.com/photo/2019/10/11/19/17/spring-4542578_640.jpg",
        "src1280": "https://cdn.pixabay.com/photo/2019/10/11/19/17/spring-4542578_1280.jpg"
    },
    {
        "id": "7350909",
        "src640": "https://cdn.pixabay.com/photo/2022/07/29/02/38/flowers-7350909_640.jpg",
        "src1280": "https://cdn.pixabay.com/photo/2022/07/29/02/38/flowers-7350909_1280.jpg"
    },
    {
        "id": "5449192",
        "src640": "https://cdn.pixabay.com/photo/2020/07/30/02/17/wildflower-5449192_640.jpg",
        "src1280": "https://cdn.pixabay.com/photo/2020/07/30/02/17/wildflower-5449192_1280.jpg"
    },
    {
        "id": "8431297",
        "src640": "https://cdn.pixabay.com/photo/2023/12/05/10/32/forest-8431297_640.jpg",
        "src1280": "https://cdn.pixabay.com/photo/2023/12/05/10/32/forest-8431297_1280.jpg"
    },
    {
        "id": "1550849",
        "src640": "https://cdn.pixabay.com/photo/2016/07/29/07/31/flower-1550849_640.jpg",
        "src1280": "https://cdn.pixabay.com/photo/2016/07/29/07/31/flower-1550849_1280.jpg"
    },
    {
        "id": "1388800",
        "src640": "https://cdn.pixabay.com/photo/2016/05/12/22/07/tajinaste-tenerife-1388800_640.jpg",
        "src1280": "https://cdn.pixabay.com/photo/2016/05/12/22/07/tajinaste-tenerife-1388800_1280.jpg"
    },
    {
        "id": "5122680",
        "src640": "https://cdn.pixabay.com/photo/2020/05/02/19/04/vintage-5122680_640.jpg",
        "src1280": "https://cdn.pixabay.com/photo/2020/05/02/19/04/vintage-5122680_1280.jpg"
    },
    {
        "id": "2909974",
        "src640": "https://cdn.pixabay.com/photo/2017/11/02/02/23/flower-2909974_640.jpg",
        "src1280": "https://cdn.pixabay.com/photo/2017/11/02/02/23/flower-2909974_1280.jpg"
    },
    {
        "id": "3345633",
        "src640": "https://cdn.pixabay.com/photo/2018/04/23/21/33/tulip-3345633_640.jpg",
        "src1280": "https://cdn.pixabay.com/photo/2018/04/23/21/33/tulip-3345633_1280.jpg"
    },
    {
        "id": "179478",
        "src640": "https://cdn.pixabay.com/photo/2013/09/06/17/08/flower-179478_640.jpg",
        "src1280": "https://cdn.pixabay.com/photo/2013/09/06/17/08/flower-179478_1280.jpg"
    },
    {
        "id": "3249270",
        "src640": "https://cdn.pixabay.com/photo/2018/03/22/04/48/flower-3249270_640.jpg",
        "src1280": "https://cdn.pixabay.com/photo/2018/03/22/04/48/flower-3249270_1280.jpg"
    },
    {
        "id": "4368222",
        "src640": "https://cdn.pixabay.com/photo/2019/07/28/09/14/nature-4368222_640.jpg",
        "src1280": "https://cdn.pixabay.com/photo/2019/07/28/09/14/nature-4368222_1280.jpg"
    },
    {
        "id": "5261404",
        "src640": "https://cdn.pixabay.com/photo/2020/06/05/04/24/oil-painting-5261404_640.jpg",
        "src1280": "https://cdn.pixabay.com/photo/2020/06/05/04/24/oil-painting-5261404_1280.jpg"
    },
    {
        "id": "3413990",
        "src640": "https://cdn.pixabay.com/photo/2018/05/19/18/21/flower-3413990_640.jpg",
        "src1280": "https://cdn.pixabay.com/photo/2018/05/19/18/21/flower-3413990_1280.jpg"
    },
    {
        "id": "4542750",
        "src640": "https://cdn.pixabay.com/photo/2019/10/11/21/40/rose-4542750_640.jpg",
        "src1280": "https://cdn.pixabay.com/photo/2019/10/11/21/40/rose-4542750_1280.jpg"
    },
    {
        "id": "7415102",
        "src640": "https://cdn.pixabay.com/photo/2022/08/27/18/30/flower-7415102_640.jpg",
        "src1280": "https://cdn.pixabay.com/photo/2022/08/27/18/30/flower-7415102_1280.jpg"
    },
    {
        "id": "4251162",
        "src640": "https://cdn.pixabay.com/photo/2019/06/04/10/45/poppy-4251162_640.jpg",
        "src1280": "https://cdn.pixabay.com/photo/2019/06/04/10/45/poppy-4251162_1280.jpg"
    },
    {
        "id": "4651803",
        "src640": "https://cdn.pixabay.com/photo/2019/11/25/11/35/calla-4651803_640.jpg",
        "src1280": "https://cdn.pixabay.com/photo/2019/11/25/11/35/calla-4651803_1280.jpg"
    },
    {
        "id": "2718901",
        "src640": "https://cdn.pixabay.com/photo/2017/09/05/19/35/flower-2718901_640.jpg",
        "src1280": "https://cdn.pixabay.com/photo/2017/09/05/19/35/flower-2718901_1280.jpg"
    },
    {
        "id": "3486040",
        "src640": "https://cdn.pixabay.com/photo/2018/06/20/08/35/butterfly-3486040_640.jpg",
        "src1280": "https://cdn.pixabay.com/photo/2018/06/20/08/35/butterfly-3486040_1280.jpg"
    },
    {
        "id": "49796",
        "src640": "https://cdn.pixabay.com/photo/2012/06/08/19/33/garden-hyacinth-49796_640.jpg",
        "src1280": "https://cdn.pixabay.com/photo/2012/06/08/19/33/garden-hyacinth-49796_1280.jpg"
    },
    {
        "id": "3182542",
        "src640": "https://cdn.pixabay.com/photo/2018/02/26/09/01/frost-3182542_640.jpg",
        "src1280": "https://cdn.pixabay.com/photo/2018/02/26/09/01/frost-3182542_1280.jpg"
    },
    {
        "id": "3521837",
        "src640": "https://cdn.pixabay.com/photo/2018/07/07/09/28/nature-3521837_640.jpg",
        "src1280": "https://cdn.pixabay.com/photo/2018/07/07/09/28/nature-3521837_1280.jpg"
    },
    {
        "id": "4694062",
        "src640": "https://cdn.pixabay.com/photo/2019/12/14/00/31/rose-4694062_640.jpg",
        "src1280": "https://cdn.pixabay.com/photo/2019/12/14/00/31/rose-4694062_1280.jpg"
    },
    {
        "id": "5177809",
        "src640": "https://cdn.pixabay.com/photo/2020/05/16/14/38/flower-5177809_640.jpg",
        "src1280": "https://cdn.pixabay.com/photo/2020/05/16/14/38/flower-5177809_1280.jpg"
    },
    {
        "id": "8203154",
        "src640": "https://cdn.pixabay.com/photo/2023/08/20/20/36/irish-setter-8203154_640.jpg",
        "src1280": "https://cdn.pixabay.com/photo/2023/08/20/20/36/irish-setter-8203154_1280.jpg"
    },
    {
        "id": "3152925",
        "src640": "https://cdn.pixabay.com/photo/2018/02/14/13/13/plant-3152925_640.jpg",
        "src1280": "https://cdn.pixabay.com/photo/2018/02/14/13/13/plant-3152925_1280.jpg"
    },
    {
        "id": "4030561",
        "src640": "https://cdn.pixabay.com/photo/2019/03/02/19/53/tulips-4030561_640.jpg",
        "src1280": "https://cdn.pixabay.com/photo/2019/03/02/19/53/tulips-4030561_1280.jpg"
    },
    {
        "id": "3681305",
        "src640": "https://cdn.pixabay.com/photo/2018/09/16/11/46/flower-3681305_640.jpg",
        "src1280": "https://cdn.pixabay.com/photo/2018/09/16/11/46/flower-3681305_1280.jpg"
    },
    {
        "id": "8464251",
        "src640": "https://cdn.pixabay.com/photo/2023/12/22/19/16/flowers-8464251_640.jpg",
        "src1280": "https://cdn.pixabay.com/photo/2023/12/22/19/16/flowers-8464251_1280.jpg"
    },
    {
        "id": "6788714",
        "src640": "https://cdn.pixabay.com/photo/2021/11/12/11/39/butterfly-6788714_640.jpg",
        "src1280": "https://cdn.pixabay.com/photo/2021/11/12/11/39/butterfly-6788714_1280.jpg"
    },
    {
        "id": "6076321",
        "src640": "https://cdn.pixabay.com/photo/2021/03/07/14/07/flowers-6076321_640.jpg",
        "src1280": "https://cdn.pixabay.com/photo/2021/03/07/14/07/flowers-6076321_1280.jpg"
    },
    {
        "id": "1388055",
        "src640": "https://cdn.pixabay.com/photo/2016/05/12/16/51/common-pasque-flower-1388055_640.jpg",
        "src1280": "https://cdn.pixabay.com/photo/2016/05/12/16/51/common-pasque-flower-1388055_1280.jpg"
    },
    {
        "id": "4191241",
        "src640": "https://cdn.pixabay.com/photo/2019/05/09/14/28/tulip-4191241_640.jpg",
        "src1280": "https://cdn.pixabay.com/photo/2019/05/09/14/28/tulip-4191241_1280.jpg"
    },
    {
        "id": "7911402",
        "src640": "https://cdn.pixabay.com/photo/2023/04/09/11/36/tree-7911402_640.jpg",
        "src1280": "https://cdn.pixabay.com/photo/2023/04/09/11/36/tree-7911402_1280.jpg"
    },
    {
        "id": "6369978",
        "src640": "https://cdn.pixabay.com/photo/2021/06/27/20/34/virgin-in-the-green-6369978_640.jpg",
        "src1280": "https://cdn.pixabay.com/photo/2021/06/27/20/34/virgin-in-the-green-6369978_1280.jpg"
    },
    {
        "id": "3448594",
        "src640": "https://cdn.pixabay.com/photo/2018/06/02/15/19/flower-3448594_640.jpg",
        "src1280": "https://cdn.pixabay.com/photo/2018/06/02/15/19/flower-3448594_1280.jpg"
    },
    {
        "id": "3184466",
        "src640": "https://cdn.pixabay.com/photo/2018/02/27/00/58/flora-3184466_640.jpg",
        "src1280": "https://cdn.pixabay.com/photo/2018/02/27/00/58/flora-3184466_1280.jpg"
    },
    {
        "id": "6392369",
        "src640": "https://cdn.pixabay.com/photo/2021/07/06/18/42/cornflower-6392369_640.jpg",
        "src1280": "https://cdn.pixabay.com/photo/2021/07/06/18/42/cornflower-6392369_1280.jpg"
    },
    {
        "id": "3567264",
        "src640": "https://cdn.pixabay.com/photo/2018/07/28/04/14/butterfly-3567264_640.jpg",
        "src1280": "https://cdn.pixabay.com/photo/2018/07/28/04/14/butterfly-3567264_1280.jpg"
    },
    {
        "id": "4145757",
        "src640": "https://cdn.pixabay.com/photo/2019/04/22/05/37/lotus-4145757_640.jpg",
        "src1280": "https://cdn.pixabay.com/photo/2019/04/22/05/37/lotus-4145757_1280.jpg"
    },
    {
        "id": "5149465",
        "src640": "https://cdn.pixabay.com/photo/2020/05/09/12/21/rose-5149465_640.jpg",
        "src1280": "https://cdn.pixabay.com/photo/2020/05/09/12/21/rose-5149465_1280.jpg"
    },
    {
        "id": "2430265",
        "src640": "https://cdn.pixabay.com/photo/2017/06/22/10/10/rose-2430265_640.jpg",
        "src1280": "https://cdn.pixabay.com/photo/2017/06/22/10/10/rose-2430265_1280.jpg"
    },
    {
        "id": "8003665",
        "src640": "https://cdn.pixabay.com/photo/2023/05/19/04/48/flower-8003665_640.jpg",
        "src1280": "https://cdn.pixabay.com/photo/2023/05/19/04/48/flower-8003665_1280.jpg"
    },
    {
        "id": "1441153",
        "src640": "https://cdn.pixabay.com/photo/2016/06/07/08/04/butterbur-1441153_640.jpg",
        "src1280": "https://cdn.pixabay.com/photo/2016/06/07/08/04/butterbur-1441153_1280.jpg"
    },
    {
        "id": "7438847",
        "src640": "https://cdn.pixabay.com/photo/2022/09/07/14/13/rose-7438847_640.jpg",
        "src1280": "https://cdn.pixabay.com/photo/2022/09/07/14/13/rose-7438847_1280.jpg"
    },
    {
        "id": "3245758",
        "src640": "https://cdn.pixabay.com/photo/2018/03/21/06/44/shamrock-3245758_640.jpg",
        "src1280": "https://cdn.pixabay.com/photo/2018/03/21/06/44/shamrock-3245758_1280.jpg"
    },
    {
        "id": "3891327",
        "src640": "https://cdn.pixabay.com/photo/2018/12/23/15/24/yellow-flowers-3891327_640.jpg",
        "src1280": "https://cdn.pixabay.com/photo/2018/12/23/15/24/yellow-flowers-3891327_1280.jpg"
    },
    {
        "id": "4313819",
        "src640": "https://cdn.pixabay.com/photo/2019/07/03/07/02/rudbeckia-4313819_640.jpg",
        "src1280": "https://cdn.pixabay.com/photo/2019/07/03/07/02/rudbeckia-4313819_1280.jpg"
    },
    {
        "id": "3365602",
        "src640": "https://cdn.pixabay.com/photo/2018/05/01/13/47/flower-3365602_640.jpg",
        "src1280": "https://cdn.pixabay.com/photo/2018/05/01/13/47/flower-3365602_1280.jpg"
    },
    {
        "id": "3965463",
        "src640": "https://cdn.pixabay.com/photo/2019/01/30/21/31/admiral-3965463_640.jpg",
        "src1280": "https://cdn.pixabay.com/photo/2019/01/30/21/31/admiral-3965463_1280.jpg"
    },
    {
        "id": "7885487",
        "src640": "https://cdn.pixabay.com/photo/2023/03/29/13/38/flowers-7885487_640.jpg",
        "src1280": "https://cdn.pixabay.com/photo/2023/03/29/13/38/flowers-7885487_1280.jpg"
    },
    {
        "id": "167292",
        "src640": "https://cdn.pixabay.com/photo/2013/07/26/02/36/clematis-167292_640.jpg",
        "src1280": "https://cdn.pixabay.com/photo/2013/07/26/02/36/clematis-167292_1280.jpg"
    },
    {
        "id": "253423",
        "src640": "https://cdn.pixabay.com/photo/2014/01/27/20/29/cashew-tree-253423_640.jpg",
        "src1280": "https://cdn.pixabay.com/photo/2014/01/27/20/29/cashew-tree-253423_1280.jpg"
    },
    {
        "id": "7609824",
        "src640": "https://cdn.pixabay.com/photo/2022/11/22/14/11/tulip-7609824_640.jpg",
        "src1280": "https://cdn.pixabay.com/photo/2022/11/22/14/11/tulip-7609824_1280.jpg"
    },
    {
        "id": "4562149",
        "src640": "https://cdn.pixabay.com/photo/2019/10/19/19/43/dahlia-4562149_640.jpg",
        "src1280": "https://cdn.pixabay.com/photo/2019/10/19/19/43/dahlia-4562149_1280.jpg"
    },
    {
        "id": "3457662",
        "src640": "https://cdn.pixabay.com/photo/2018/06/06/10/56/kite-3457662_640.jpg",
        "src1280": "https://cdn.pixabay.com/photo/2018/06/06/10/56/kite-3457662_1280.jpg"
    },
    {
        "id": "2318733",
        "src640": "https://cdn.pixabay.com/photo/2017/05/16/19/59/flower-2318733_640.jpg",
        "src1280": "https://cdn.pixabay.com/photo/2017/05/16/19/59/flower-2318733_1280.jpg"
    },
    {
        "id": "4196808",
        "src640": "https://cdn.pixabay.com/photo/2019/05/11/23/05/poppies-4196808_640.jpg",
        "src1280": "https://cdn.pixabay.com/photo/2019/05/11/23/05/poppies-4196808_1280.jpg"
    },
    {
        "id": "3366170",
        "src640": "https://cdn.pixabay.com/photo/2018/05/01/17/01/flower-3366170_640.jpg",
        "src1280": "https://cdn.pixabay.com/photo/2018/05/01/17/01/flower-3366170_1280.jpg"
    },
    {
        "id": "4645665",
        "src640": "https://cdn.pixabay.com/photo/2019/11/22/20/13/pink-dahlia-4645665_640.jpg",
        "src1280": "https://cdn.pixabay.com/photo/2019/11/22/20/13/pink-dahlia-4645665_1280.jpg"
    },
    {
        "id": "173717",
        "src640": "https://cdn.pixabay.com/photo/2013/08/18/14/42/water-hyacinth-173717_640.jpg",
        "src1280": "https://cdn.pixabay.com/photo/2013/08/18/14/42/water-hyacinth-173717_1280.jpg"
    },
    {
        "id": "2072262",
        "src640": "https://cdn.pixabay.com/photo/2017/02/16/19/46/snowdrop-2072262_640.jpg",
        "src1280": "https://cdn.pixabay.com/photo/2017/02/16/19/46/snowdrop-2072262_1280.jpg"
    },
    {
        "id": "7721283",
        "src640": "https://cdn.pixabay.com/photo/2023/01/15/22/48/alley-7721283_640.jpg",
        "src1280": "https://cdn.pixabay.com/photo/2023/01/15/22/48/alley-7721283_1280.jpg"
    },
    {
        "id": "5370352",
        "src640": "https://cdn.pixabay.com/photo/2020/07/04/17/29/butterfly-5370352_640.jpg",
        "src1280": "https://cdn.pixabay.com/photo/2020/07/04/17/29/butterfly-5370352_1280.jpg"
    },
    {
        "id": "3532042",
        "src640": "https://cdn.pixabay.com/photo/2018/07/11/21/57/cranesbill-3532042_640.jpg",
        "src1280": "https://cdn.pixabay.com/photo/2018/07/11/21/57/cranesbill-3532042_1280.jpg"
    },
    {
        "id": "3942908",
        "src640": "https://cdn.pixabay.com/photo/2019/01/20/00/46/flower-3942908_640.jpg",
        "src1280": "https://cdn.pixabay.com/photo/2019/01/20/00/46/flower-3942908_1280.jpg"
    },
    {
        "id": "4792625",
        "src640": "https://cdn.pixabay.com/photo/2020/01/25/13/57/bouquet-of-roses-4792625_640.jpg",
        "src1280": "https://cdn.pixabay.com/photo/2020/01/25/13/57/bouquet-of-roses-4792625_1280.jpg"
    },
    {
        "id": "3216717",
        "src640": "https://cdn.pixabay.com/photo/2018/03/11/13/10/nature-3216717_640.jpg",
        "src1280": "https://cdn.pixabay.com/photo/2018/03/11/13/10/nature-3216717_1280.jpg"
    },
    {
        "id": "4709391",
        "src640": "https://cdn.pixabay.com/photo/2019/12/20/22/10/digitalis-4709391_640.jpg",
        "src1280": "https://cdn.pixabay.com/photo/2019/12/20/22/10/digitalis-4709391_1280.jpg"
    },
    {
        "id": "967708",
        "src640": "https://cdn.pixabay.com/photo/2015/10/01/20/31/lupine-967708_640.jpg",
        "src1280": "https://cdn.pixabay.com/photo/2015/10/01/20/31/lupine-967708_1280.jpg"
    },
    {
        "id": "2455846",
        "src640": "https://cdn.pixabay.com/photo/2017/06/29/19/09/curry-2455846_640.jpg",
        "src1280": "https://cdn.pixabay.com/photo/2017/06/29/19/09/curry-2455846_1280.jpg"
    },
    {
        "id": "3551269",
        "src640": "https://cdn.pixabay.com/photo/2018/07/20/18/37/flower-3551269_640.jpg",
        "src1280": "https://cdn.pixabay.com/photo/2018/07/20/18/37/flower-3551269_1280.jpg"
    },
    {
        "id": "5176456",
        "src640": "https://cdn.pixabay.com/photo/2020/05/16/08/12/poppy-5176456_640.jpg",
        "src1280": "https://cdn.pixabay.com/photo/2020/05/16/08/12/poppy-5176456_1280.jpg"
    },
    {
        "id": "3351489",
        "src640": "https://cdn.pixabay.com/photo/2018/04/26/09/31/harebells-3351489_640.jpg",
        "src1280": "https://cdn.pixabay.com/photo/2018/04/26/09/31/harebells-3351489_1280.jpg"
    },
    {
        "id": "3058568",
        "src640": "https://cdn.pixabay.com/photo/2018/01/03/15/09/nature-3058568_640.jpg",
        "src1280": "https://cdn.pixabay.com/photo/2018/01/03/15/09/nature-3058568_1280.jpg"
    },
    {
        "id": "4631933",
        "src640": "https://cdn.pixabay.com/photo/2019/11/17/10/05/autumn-4631933_640.jpg",
        "src1280": "https://cdn.pixabay.com/photo/2019/11/17/10/05/autumn-4631933_1280.jpg"
    },
    {
        "id": "3291612",
        "src640": "https://cdn.pixabay.com/photo/2018/04/05/00/52/flower-3291612_640.jpg",
        "src1280": "https://cdn.pixabay.com/photo/2018/04/05/00/52/flower-3291612_1280.jpg"
    }
]