[
    {
        "id": "6463230",
        "src640": "https://cdn.pixabay.com/photo/2021/07/13/11/00/rose-6463230_640.jpg",
        "src1280": "https://cdn.pixabay.com/photo/2021/07/13/11/00/rose-6463230_1280.jpg"
    },
    {
        "id": "6316173",
        "src640": "https://cdn.pixabay.com/photo/2021/06/06/19/20/allium-6316173_640.jpg",
        "src1280": "https://cdn.pixabay.com/photo/2021/06/06/19/20/allium-6316173_1280.jpg"
    },
    {
        "id": "6256348",
        "src640": "https://cdn.pixabay.com/photo/2021/05/15/17/20/hummingbird-hawk-moth-6256348_640.jpg",
        "src1280": "https://cdn.pixabay.com/photo/2021/05/15/17/20/hummingbird-hawk-moth-6256348_1280.jpg"
    },
    {
        "id": "3287433",
        "src640": "https://cdn.pixabay.com/photo/2018/04/03/17/50/canna-lily-3287433_640.jpg",
        "src1280": "https://cdn.pixabay.com/photo/2018/04/03/17/50/canna-lily-3287433_1280.jpg"
    },
    {
        "id": "2130861",
        "src640": "https://cdn.pixabay.com/photo/2017/03/09/21/04/dog-2130861_640.jpg",
        "src1280": "https://cdn.pixabay.com/photo/2017/03/09/21/04/dog-2130861_1280.jpg"
    },
    {
        "id": "6374771",
        "src640": "https://cdn.pixabay.com/photo/2021/06/29/18/06/emotions-6374771_640.jpg",
        "src1280": "https://cdn.pixabay.com/photo/2021/06/29/18/06/emotions-6374771_1280.jpg"
    },
    {
        "id": "8274960",
        "src640": "https://cdn.pixabay.com/photo/2023/09/25/13/08/woman-8274960_640.jpg",
        "src1280": "https://cdn.pixabay.com/photo/2023/09/25/13/08/woman-8274960_1280.jpg"
    },
    {
        "id": "8485793",
        "src640": "https://cdn.pixabay.com/photo/2024/01/03/16/42/ai-generated-8485793_640.jpg",
        "src1280": "https://cdn.pixabay.com/photo/2024/01/03/16/42/ai-generated-8485793_1280.jpg"
    },
    {
        "id": "7069017",
        "src640": "https://cdn.pixabay.com/photo/2022/03/14/21/01/wineglass-7069017_640.jpg",
        "src1280": "https://cdn.pixabay.com/photo/2022/03/14/21/01/wineglass-7069017_1280.jpg"
    },
    {
        "id": "2584704",
        "src640": "https://cdn.pixabay.com/photo/2017/08/05/17/14/queen-annes-lace-2584704_640.jpg",
        "src1280": "https://cdn.pixabay.com/photo/2017/08/05/17/14/queen-annes-lace-2584704_1280.jpg"
    },
    {
        "id": "5223633",
        "src640": "https://cdn.pixabay.com/photo/2020/05/26/15/56/tulips-5223633_640.jpg",
        "src1280": "https://cdn.pixabay.com/photo/2020/05/26/15/56/tulips-5223633_1280.jpg"
    },
    {
        "id": "5290556",
        "src640": "https://cdn.pixabay.com/photo/2020/06/12/14/30/dog-5290556_640.jpg",
        "src1280": "https://cdn.pixabay.com/photo/2020/06/12/14/30/dog-5290556_1280.jpg"
    },
    {
        "id": "170418",
        "src640": "https://cdn.pixabay.com/photo/2013/08/07/05/22/rudbeckia-170418_640.jpg",
        "src1280": "https://cdn.pixabay.com/photo/2013/08/07/05/22/rudbeckia-170418_1280.jpg"
    },
    {
        "id": "1407582",
        "src640": "https://cdn.pixabay.com/photo/2016/05/21/21/58/spring-1407582_640.jpg",
        "src1280": "https://cdn.pixabay.com/photo/2016/05/21/21/58/spring-1407582_1280.jpg"
    },
    {
        "id": "167419",
        "src640": "https://cdn.pixabay.com/photo/2013/07/26/04/55/large-speedwell-167419_640.jpg",
        "src1280": "https://cdn.pixabay.com/photo/2013/07/26/04/55/large-speedwell-167419_1280.jpg"
    },
    {
        "id": "6649775",
        "src640": "https://cdn.pixabay.com/photo/2021/09/23/12/55/flowers-6649775_640.jpg",
        "src1280": "https://cdn.pixabay.com/photo/2021/09/23/12/55/flowers-6649775_1280.jpg"
    },
    {
        "id": "3517994",
        "src640": "https://cdn.pixabay.com/photo/2018/07/05/10/10/bicycle-3517994_640.jpg",
        "src1280": "https://cdn.pixabay.com/photo/2018/07/05/10/10/bicycle-3517994_1280.jpg"
    },
    {
        "id": "6825655",
        "src640": "https://cdn.pixabay.com/photo/2021/11/26/11/05/meadow-6825655_640.jpg",
        "src1280": "https://cdn.pixabay.com/photo/2021/11/26/11/05/meadow-6825655_1280.jpg"
    },
    {
        "id": "5124224",
        "src640": "https://cdn.pixabay.com/photo/2020/05/03/08/15/hand-5124224_640.jpg",
        "src1280": "https://cdn.pixabay.com/photo/2020/05/03/08/15/hand-5124224_1280.jpg"
    },
    {
        "id": "5082341",
        "src640": "https://cdn.pixabay.com/photo/2020/04/23/12/53/butterfly-5082341_640.jpg",
        "src1280": "https://cdn.pixabay.com/photo/2020/04/23/12/53/butterfly-5082341_1280.jpg"
    },
    {
        "id": "3341939",
        "src640": "https://cdn.pixabay.com/photo/2018/04/22/18/43/spend-long-jeon-3341939_640.jpg",
        "src1280": "https://cdn.pixabay.com/photo/2018/04/22/18/43/spend-long-jeon-3341939_1280.jpg"
    },
    {
        "id": "142434",
        "src640": "https://cdn.pixabay.com/photo/2013/06/30/17/32/rose-142434_640.jpg",
        "src1280": "https://cdn.pixabay.com/photo/2013/06/30/17/32/rose-142434_1280.jpg"
    },
    {
        "id": "1189788",
        "src640": "https://cdn.pixabay.com/photo/2016/02/09/15/59/bottle-1189788_640.jpg",
        "src1280": "https://cdn.pixabay.com/photo/2016/02/09/15/59/bottle-1189788_1280.jpg"
    },
    {
        "id": "181715",
        "src640": "https://cdn.pixabay.com/photo/2013/09/12/16/23/alpine-edelwei-181715_640.jpg",
        "src1280": "https://cdn.pixabay.com/photo/2013/09/12/16/23/alpine-edelwei-181715_1280.jpg"
    },
    {
        "id": "3702083",
        "src640": "https://cdn.pixabay.com/photo/2018/09/25/11/53/bee-3702083_640.jpg",
        "src1280": "https://cdn.pixabay.com/photo/2018/09/25/11/53/bee-3702083_1280.jpg"
    },
    {
        "id": "4198580",
        "src640": "https://cdn.pixabay.com/photo/2019/05/12/17/49/nature-4198580_640.jpg",
        "src1280": "https://cdn.pixabay.com/photo/2019/05/12/17/49/nature-4198580_1280.jpg"
    },
    {
        "id": "3593187",
        "src640": "https://cdn.pixabay.com/photo/2018/08/08/20/59/garden-hibiscus-3593187_640.jpg",
        "src1280": "https://cdn.pixabay.com/photo/2018/08/08/20/59/garden-hibiscus-3593187_1280.jpg"
    },
    {
        "id": "7353809",
        "src640": "https://cdn.pixabay.com/photo/2022/07/30/13/35/woman-7353809_640.jpg",
        "src1280": "https://cdn.pixabay.com/photo/2022/07/30/13/35/woman-7353809_1280.jpg"
    },
    {
        "id": "53067",
        "src640": "https://cdn.pixabay.com/photo/2012/07/27/13/11/pavonie-53067_640.jpg",
        "src1280": "https://cdn.pixabay.com/photo/2012/07/27/13/11/pavonie-53067_1280.jpg"
    },
    {
        "id": "7018233",
        "src640": "https://cdn.pixabay.com/photo/2022/02/17/08/32/flower-7018233_640.jpg",
        "src1280": "https://cdn.pixabay.com/photo/2022/02/17/08/32/flower-7018233_1280.jpg"
    },
    {
        "id": "7144662",
        "src640": "https://cdn.pixabay.com/photo/2022/04/20/08/12/flowers-7144662_640.jpg",
        "src1280": "https://cdn.pixabay.com/photo/2022/04/20/08/12/flowers-7144662_1280.jpg"
    },
    {
        "id": "167242",
        "src640": "https://cdn.pixabay.com/photo/2013/07/26/01/37/bud-167242_640.jpg",
        "src1280": "https://cdn.pixabay.com/photo/2013/07/26/01/37/bud-167242_1280.jpg"
    },
    {
        "id": "8227074",
        "src640": "https://cdn.pixabay.com/photo/2023/09/01/14/21/dahlia-imperialis-8227074_640.jpg",
        "src1280": "https://cdn.pixabay.com/photo/2023/09/01/14/21/dahlia-imperialis-8227074_1280.jpg"
    },
    {
        "id": "414762",
        "src640": "https://cdn.pixabay.com/photo/2014/08/10/15/51/tulip-414762_640.jpg",
        "src1280": "https://cdn.pixabay.com/photo/2014/08/10/15/51/tulip-414762_1280.jpg"
    },
    {
        "id": "1277550",
        "src640": "https://cdn.pixabay.com/photo/2016/03/24/20/25/poppy-1277550_640.jpg",
        "src1280": "https://cdn.pixabay.com/photo/2016/03/24/20/25/poppy-1277550_1280.jpg"
    },
    {
        "id": "7962241",
        "src640": "https://cdn.pixabay.com/photo/2023/05/01/06/42/flower-7962241_640.jpg",
        "src1280": "https://cdn.pixabay.com/photo/2023/05/01/06/42/flower-7962241_1280.jpg"
    },
    {
        "id": "6655374",
        "src640": "https://cdn.pixabay.com/photo/2021/09/25/16/55/butterfly-6655374_640.jpg",
        "src1280": "https://cdn.pixabay.com/photo/2021/09/25/16/55/butterfly-6655374_1280.jpg"
    },
    {
        "id": "3881233",
        "src640": "https://cdn.pixabay.com/photo/2018/12/17/21/01/morning-glory-3881233_640.jpg",
        "src1280": "https://cdn.pixabay.com/photo/2018/12/17/21/01/morning-glory-3881233_1280.jpg"
    },
    {
        "id": "2136658",
        "src640": "https://cdn.pixabay.com/photo/2017/03/12/09/33/flowers-2136658_640.jpg",
        "src1280": "https://cdn.pixabay.com/photo/2017/03/12/09/33/flowers-2136658_1280.jpg"
    },
    {
        "id": "1951",
        "src640": "https://cdn.pixabay.com/photo/2010/12/13/09/57/flower-1951_640.jpg",
        "src1280": "https://cdn.pixabay.com/photo/2010/12/13/09/57/flower-1951_1280.jpg"
    },
    {
        "id": "554214",
        "src640": "https://cdn.pixabay.com/photo/2014/12/02/15/56/tulips-554214_640.jpg",
        "src1280": "https://cdn.pixabay.com/photo/2014/12/02/15/56/tulips-554214_1280.jpg"
    },
    {
        "id": "7138316",
        "src640": "https://cdn.pixabay.com/photo/2022/04/17/15/06/dog-7138316_640.jpg",
        "src1280": "https://cdn.pixabay.com/photo/2022/04/17/15/06/dog-7138316_1280.jpg"
    },
    {
        "id": "4481653",
        "src640": "https://cdn.pixabay.com/photo/2019/09/16/18/04/tulip-4481653_640.jpg",
        "src1280": "https://cdn.pixabay.com/photo/2019/09/16/18/04/tulip-4481653_1280.jpg"
    },
    {
        "id": "8485791",
        "src640": "https://cdn.pixabay.com/photo/2024/01/03/16/41/ai-generated-8485791_640.jpg",
        "src1280": "https://cdn.pixabay.com/photo/2024/01/03/16/41/ai-generated-8485791_1280.jpg"
    },
    {
        "id": "5571787",
        "src640": "https://cdn.pixabay.com/photo/2020/09/14/18/49/flower-5571787_640.jpg",
        "src1280": "https://cdn.pixabay.com/photo/2020/09/14/18/49/flower-5571787_1280.jpg"
    },
    {
        "id": "7149704",
        "src640": "https://cdn.pixabay.com/photo/2022/04/22/13/01/vietnamese-woman-7149704_640.jpg",
        "src1280": "https://cdn.pixabay.com/photo/2022/04/22/13/01/vietnamese-woman-7149704_1280.jpg"
    },
    {
        "id": "7198065",
        "src640": "https://cdn.pixabay.com/photo/2022/05/15/13/38/asian-7198065_640.jpg",
        "src1280": "https://cdn.pixabay.com/photo/2022/05/15/13/38/asian-7198065_1280.jpg"
    },
    {
        "id": "4250695",
        "src640": "https://cdn.pixabay.com/photo/2019/06/04/05/34/cornflower-4250695_640.jpg",
        "src1280": "https://cdn.pixabay.com/photo/2019/06/04/05/34/cornflower-4250695_1280.jpg"
    },
    {
        "id": "5612603",
        "src640": "https://cdn.pixabay.com/photo/2020/09/29/11/54/flowers-5612603_640.jpg",
        "src1280": "https://cdn.pixabay.com/photo/2020/09/29/11/54/flowers-5612603_1280.jpg"
    },
    {
        "id": "6577712",
        "src640": "https://cdn.pixabay.com/photo/2021/08/27/04/54/flower-6577712_640.jpg",
        "src1280": "https://cdn.pixabay.com/photo/2021/08/27/04/54/flower-6577712_1280.jpg"
    },
    {
        "id": "5241338",
        "src640": "https://cdn.pixabay.com/photo/2020/05/31/05/26/wet-5241338_640.jpg",
        "src1280": "https://cdn.pixabay.com/photo/2020/05/31/05/26/wet-5241338_1280.jpg"
    },
    {
        "id": "7231781",
        "src640": "https://cdn.pixabay.com/photo/2022/05/30/18/18/meadow-buttercup-7231781_640.jpg",
        "src1280": "https://cdn.pixabay.com/photo/2022/05/30/18/18/meadow-buttercup-7231781_1280.jpg"
    },
    {
        "id": "5004713",
        "src640": "https://cdn.pixabay.com/photo/2020/04/05/06/23/butterfly-5004713_640.jpg",
        "src1280": "https://cdn.pixabay.com/photo/2020/04/05/06/23/butterfly-5004713_1280.jpg"
    },
    {
        "id": "113273",
        "src640": "https://cdn.pixabay.com/photo/2013/05/24/16/18/blossom-113273_640.jpg",
        "src1280": "https://cdn.pixabay.com/photo/2013/05/24/16/18/blossom-113273_1280.jpg"
    },
    {
        "id": "13482",
        "src640": "https://cdn.pixabay.com/photo/2012/02/16/12/26/bird-13482_640.jpg",
        "src1280": "https://cdn.pixabay.com/photo/2012/02/16/12/26/bird-13482_1280.jpg"
    },
    {
        "id": "5859108",
        "src640": "https://cdn.pixabay.com/photo/2020/12/25/11/32/flower-5859108_640.jpg",
        "src1280": "https://cdn.pixabay.com/photo/2020/12/25/11/32/flower-5859108_1280.jpg"
    },
    {
        "id": "5811434",
        "src640": "https://cdn.pixabay.com/photo/2020/12/07/12/51/woman-5811434_640.jpg",
        "src1280": "https://cdn.pixabay.com/photo/2020/12/07/12/51/woman-5811434_1280.jpg"
    },
    {
        "id": "2388973",
        "src640": "https://cdn.pixabay.com/photo/2017/06/10/04/27/morning-glory-2388973_640.jpg",
        "src1280": "https://cdn.pixabay.com/photo/2017/06/10/04/27/morning-glory-2388973_1280.jpg"
    },
    {
        "id": "1269300",
        "src640": "https://cdn.pixabay.com/photo/2016/03/20/19/17/lily-1269300_640.jpg",
        "src1280": "https://cdn.pixabay.com/photo/2016/03/20/19/17/lily-1269300_1280.jpg"
    },
    {
        "id": "8975",
        "src640": "https://cdn.pixabay.com/photo/2011/08/18/02/54/morning-glory-8975_640.jpg",
        "src1280": "https://cdn.pixabay.com/photo/2011/08/18/02/54/morning-glory-8975_1280.jpg"
    },
    {
        "id": "4484326",
        "src640": "https://cdn.pixabay.com/photo/2019/09/17/19/04/holland-4484326_640.jpg",
        "src1280": "https://cdn.pixabay.com/photo/2019/09/17/19/04/holland-4484326_1280.jpg"
    },
    {
        "id": "5216145",
        "src640": "https://cdn.pixabay.com/photo/2020/05/24/20/48/poppy-5216145_640.jpg",
        "src1280": "https://cdn.pixabay.com/photo/2020/05/24/20/48/poppy-5216145_1280.jpg"
    },
    {
        "id": "58453",
        "src640": "https://cdn.pixabay.com/photo/2012/09/28/22/50/rosebud-58453_640.jpg",
        "src1280": "https://cdn.pixabay.com/photo/2012/09/28/22/50/rosebud-58453_1280.jpg"
    },
    {
        "id": "7014565",
        "src640": "https://cdn.pixabay.com/photo/2022/02/15/09/42/makeup-7014565_640.jpg",
        "src1280": "https://cdn.pixabay.com/photo/2022/02/15/09/42/makeup-7014565_1280.jpg"
    },
    {
        "id": "4183139",
        "src640": "https://cdn.pixabay.com/photo/2019/05/06/13/47/record-4183139_640.jpg",
        "src1280": "https://cdn.pixabay.com/photo/2019/05/06/13/47/record-4183139_1280.jpg"
    },
    {
        "id": "9201",
        "src640": "https://cdn.pixabay.com/photo/2011/09/14/12/19/bellflower-9201_640.jpg",
        "src1280": "https://cdn.pixabay.com/photo/2011/09/14/12/19/bellflower-9201_1280.jpg"
    },
    {
        "id": "8342281",
        "src640": "https://cdn.pixabay.com/photo/2023/10/26/09/56/flower-8342281_640.jpg",
        "src1280": "https://cdn.pixabay.com/photo/2023/10/26/09/56/flower-8342281_1280.jpg"
    },
    {
        "id": "2849700",
        "src640": "https://cdn.pixabay.com/photo/2017/10/14/03/09/flower-2849700_640.jpg",
        "src1280": "https://cdn.pixabay.com/photo/2017/10/14/03/09/flower-2849700_1280.jpg"
    },
    {
        "id": "6374768",
        "src640": "https://cdn.pixabay.com/photo/2021/06/29/18/06/girl-6374768_640.jpg",
        "src1280": "https://cdn.pixabay.com/photo/2021/06/29/18/06/girl-6374768_1280.jpg"
    },
    {
        "id": "5522597",
        "src640": "https://cdn.pixabay.com/photo/2020/08/27/18/18/hibiscus-5522597_640.jpg",
        "src1280": "https://cdn.pixabay.com/photo/2020/08/27/18/18/hibiscus-5522597_1280.jpg"
    },
    {
        "id": "8180643",
        "src640": "https://cdn.pixabay.com/photo/2023/08/10/03/39/woman-8180643_640.jpg",
        "src1280": "https://cdn.pixabay.com/photo/2023/08/10/03/39/woman-8180643_1280.jpg"
    },
    {
        "id": "4274455",
        "src640": "https://cdn.pixabay.com/photo/2019/06/14/22/15/morning-4274455_640.jpg",
        "src1280": "https://cdn.pixabay.com/photo/2019/06/14/22/15/morning-4274455_1280.jpg"
    },
    {
        "id": "5136394",
        "src640": "https://cdn.pixabay.com/photo/2020/05/06/07/03/magnolia-flower-5136394_640.jpg",
        "src1280": "https://cdn.pixabay.com/photo/2020/05/06/07/03/magnolia-flower-5136394_1280.jpg"
    },
    {
        "id": "5287398",
        "src640": "https://cdn.pixabay.com/photo/2020/06/11/16/37/flower-5287398_640.jpg",
        "src1280": "https://cdn.pixabay.com/photo/2020/06/11/16/37/flower-5287398_1280.jpg"
    },
    {
        "id": "4489838",
        "src640": "https://cdn.pixabay.com/photo/2019/09/19/17/27/tulip-4489838_640.jpg",
        "src1280": "https://cdn.pixabay.com/photo/2019/09/19/17/27/tulip-4489838_1280.jpg"
    },
    {
        "id": "141588",
        "src640": "https://cdn.pixabay.com/photo/2013/06/26/20/26/cranesbill-141588_640.jpg",
        "src1280": "https://cdn.pixabay.com/photo/2013/06/26/20/26/cranesbill-141588_1280.jpg"
    },
    {
        "id": "6990857",
        "src640": "https://cdn.pixabay.com/photo/2022/02/03/17/26/iris-6990857_640.jpg",
        "src1280": "https://cdn.pixabay.com/photo/2022/02/03/17/26/iris-6990857_1280.jpg"
    },
    {
        "id": "5039486",
        "src640": "https://cdn.pixabay.com/photo/2020/04/13/17/38/roses-5039486_640.jpg",
        "src1280": "https://cdn.pixabay.com/photo/2020/04/13/17/38/roses-5039486_1280.jpg"
    },
    {
        "id": "7140965",
        "src640": "https://cdn.pixabay.com/photo/2022/04/18/16/19/flower-7140965_640.jpg",
        "src1280": "https://cdn.pixabay.com/photo/2022/04/18/16/19/flower-7140965_1280.jpg"
    },
    {
        "id": "8357763",
        "src640": "https://cdn.pixabay.com/photo/2023/11/01/14/43/woman-8357763_640.jpg",
        "src1280": "https://cdn.pixabay.com/photo/2023/11/01/14/43/woman-8357763_1280.jpg"
    },
    {
        "id": "482666",
        "src640": "https://cdn.pixabay.com/photo/2014/10/09/23/19/fuchsia-482666_640.jpg",
        "src1280": "https://cdn.pixabay.com/photo/2014/10/09/23/19/fuchsia-482666_1280.jpg"
    },
    {
        "id": "8358189",
        "src640": "https://cdn.pixabay.com/photo/2023/11/01/16/30/woman-8358189_640.jpg",
        "src1280": "https://cdn.pixabay.com/photo/2023/11/01/16/30/woman-8358189_1280.jpg"
    },
    {
        "id": "7005825",
        "src640": "https://cdn.pixabay.com/photo/2022/02/10/18/02/flower-7005825_640.jpg",
        "src1280": "https://cdn.pixabay.com/photo/2022/02/10/18/02/flower-7005825_1280.jpg"
    },
    {
        "id": "3458302",
        "src640": "https://cdn.pixabay.com/photo/2018/06/06/16/43/iris-3458302_640.jpg",
        "src1280": "https://cdn.pixabay.com/photo/2018/06/06/16/43/iris-3458302_1280.jpg"
    },
    {
        "id": "4517135",
        "src640": "https://cdn.pixabay.com/photo/2019/10/01/03/15/flowers-4517135_640.jpg",
        "src1280": "https://cdn.pixabay.com/photo/2019/10/01/03/15/flowers-4517135_1280.jpg"
    },
    {
        "id": "5123972",
        "src640": "https://cdn.pixabay.com/photo/2020/05/03/06/14/turip-5123972_640.jpg",
        "src1280": "https://cdn.pixabay.com/photo/2020/05/03/06/14/turip-5123972_1280.jpg"
    },
    {
        "id": "6193",
        "src640": "https://cdn.pixabay.com/photo/2011/04/06/14/41/wood-anemone-6193_640.jpg",
        "src1280": "https://cdn.pixabay.com/photo/2011/04/06/14/41/wood-anemone-6193_1280.jpg"
    },
    {
        "id": "6220645",
        "src640": "https://cdn.pixabay.com/photo/2021/05/01/09/22/lotus-flower-6220645_640.jpg",
        "src1280": "https://cdn.pixabay.com/photo/2021/05/01/09/22/lotus-flower-6220645_1280.jpg"
    },
    {
        "id": "7438523",
        "src640": "https://cdn.pixabay.com/photo/2022/09/07/11/00/lavender-7438523_640.jpg",
        "src1280": "https://cdn.pixabay.com/photo/2022/09/07/11/00/lavender-7438523_1280.jpg"
    },
    {
        "id": "6519544",
        "src640": "https://cdn.pixabay.com/photo/2021/08/03/13/54/lotus-6519544_640.jpg",
        "src1280": "https://cdn.pixabay.com/photo/2021/08/03/13/54/lotus-6519544_1280.jpg"
    }
]