[
    {
        "id": "4584858",
        "src640": "https://cdn.pixabay.com/photo/2019/10/28/16/22/flower-4584858_640.jpg",
        "src1280": "https://cdn.pixabay.com/photo/2019/10/28/16/22/flower-4584858_1280.jpg"
    },
    {
        "id": "2431147",
        "src640": "https://cdn.pixabay.com/photo/2017/06/22/15/18/wedding-bouquet-on-the-swing-2431147_640.jpg",
        "src1280": "https://cdn.pixabay.com/photo/2017/06/22/15/18/wedding-bouquet-on-the-swing-2431147_1280.jpg"
    },
    {
        "id": "7893023",
        "src640": "https://cdn.pixabay.com/photo/2023/04/01/19/41/flower-7893023_640.jpg",
        "src1280": "https://cdn.pixabay.com/photo/2023/04/01/19/41/flower-7893023_1280.jpg"
    },
    {
        "id": "7700293",
        "src640": "https://cdn.pixabay.com/photo/2023/01/06/02/29/ai-generated-7700293_640.jpg",
        "src1280": "https://cdn.pixabay.com/photo/2023/01/06/02/29/ai-generated-7700293_1280.jpg"
    },
    {
        "id": "5086136",
        "src640": "https://cdn.pixabay.com/photo/2020/04/24/09/45/marigold-flower-5086136_640.jpg",
        "src1280": "https://cdn.pixabay.com/photo/2020/04/24/09/45/marigold-flower-5086136_1280.jpg"
    },
    {
        "id": "2702643",
        "src640": "https://cdn.pixabay.com/photo/2017/08/31/23/47/rose-2702643_640.jpg",
        "src1280": "https://cdn.pixabay.com/photo/2017/08/31/23/47/rose-2702643_1280.jpg"
    },
    {
        "id": "3104185",
        "src640": "https://cdn.pixabay.com/photo/2018/01/24/16/06/iris-3104185_640.jpg",
        "src1280": "https://cdn.pixabay.com/photo/2018/01/24/16/06/iris-3104185_1280.jpg"
    },
    {
        "id": "2148655",
        "src640": "https://cdn.pixabay.com/photo/2017/03/16/10/08/rose-2148655_640.jpg",
        "src1280": "https://cdn.pixabay.com/photo/2017/03/16/10/08/rose-2148655_1280.jpg"
    },
    {
        "id": "7569634",
        "src640": "https://cdn.pixabay.com/photo/2022/11/04/11/23/peony-7569634_640.jpg",
        "src1280": "https://cdn.pixabay.com/photo/2022/11/04/11/23/peony-7569634_1280.jpg"
    },
    {
        "id": "4596194",
        "src640": "https://cdn.pixabay.com/photo/2019/11/02/12/15/flower-4596194_640.jpg",
        "src1280": "https://cdn.pixabay.com/photo/2019/11/02/12/15/flower-4596194_1280.jpg"
    },
    {
        "id": "1307977",
        "src640": "https://cdn.pixabay.com/photo/2016/04/04/19/04/tulip-1307977_640.jpg",
        "src1280": "https://cdn.pixabay.com/photo/2016/04/04/19/04/tulip-1307977_1280.jpg"
    },
    {
        "id": "6191878",
        "src640": "https://cdn.pixabay.com/photo/2021/04/19/16/31/tulip-6191878_640.jpg",
        "src1280": "https://cdn.pixabay.com/photo/2021/04/19/16/31/tulip-6191878_1280.jpg"
    },
    {
        "id": "8187366",
        "src640": "https://cdn.pixabay.com/photo/2023/08/13/12/22/lotus-8187366_640.jpg",
        "src1280": "https://cdn.pixabay.com/photo/2023/08/13/12/22/lotus-8187366_1280.jpg"
    },
    {
        "id": "1421316",
        "src640": "https://cdn.pixabay.com/photo/2016/05/28/11/24/peony-1421316_640.jpg",
        "src1280": "https://cdn.pixabay.com/photo/2016/05/28/11/24/peony-1421316_1280.jpg"
    },
    {
        "id": "3611821",
        "src640": "https://cdn.pixabay.com/photo/2018/08/16/23/54/flower-3611821_640.jpg",
        "src1280": "https://cdn.pixabay.com/photo/2018/08/16/23/54/flower-3611821_1280.jpg"
    },
    {
        "id": "7148343",
        "src640": "https://cdn.pixabay.com/photo/2022/04/21/20/37/flower-7148343_640.jpg",
        "src1280": "https://cdn.pixabay.com/photo/2022/04/21/20/37/flower-7148343_1280.jpg"
    },
    {
        "id": "2832452",
        "src640": "https://cdn.pixabay.com/photo/2017/10/09/04/42/wisteria-2832452_640.jpg",
        "src1280": "https://cdn.pixabay.com/photo/2017/10/09/04/42/wisteria-2832452_1280.jpg"
    },
    {
        "id": "5451718",
        "src640": "https://cdn.pixabay.com/photo/2020/07/31/02/18/flower-5451718_640.jpg",
        "src1280": "https://cdn.pixabay.com/photo/2020/07/31/02/18/flower-5451718_1280.jpg"
    },
    {
        "id": "4853900",
        "src640": "https://cdn.pixabay.com/photo/2020/02/16/15/37/tulips-4853900_640.jpg",
        "src1280": "https://cdn.pixabay.com/photo/2020/02/16/15/37/tulips-4853900_1280.jpg"
    },
    {
        "id": "7399849",
        "src640": "https://cdn.pixabay.com/photo/2022/08/20/19/19/mallow-7399849_640.jpg",
        "src1280": "https://cdn.pixabay.com/photo/2022/08/20/19/19/mallow-7399849_1280.jpg"
    },
    {
        "id": "7338875",
        "src640": "https://cdn.pixabay.com/photo/2022/07/22/19/59/blue-flowers-7338875_640.jpg",
        "src1280": "https://cdn.pixabay.com/photo/2022/07/22/19/59/blue-flowers-7338875_1280.jpg"
    },
    {
        "id": "555472",
        "src640": "https://cdn.pixabay.com/photo/2014/12/03/14/06/stock-rose-555472_640.jpg",
        "src1280": "https://cdn.pixabay.com/photo/2014/12/03/14/06/stock-rose-555472_1280.jpg"
    },
    {
        "id": "7004191",
        "src640": "https://cdn.pixabay.com/photo/2022/02/09/20/51/flower-7004191_640.jpg",
        "src1280": "https://cdn.pixabay.com/photo/2022/02/09/20/51/flower-7004191_1280.jpg"
    },
    {
        "id": "7897194",
        "src640": "https://cdn.pixabay.com/photo/2023/04/03/16/14/flower-7897194_640.jpg",
        "src1280": "https://cdn.pixabay.com/photo/2023/04/03/16/14/flower-7897194_1280.jpg"
    },
    {
        "id": "6485504",
        "src640": "https://cdn.pixabay.com/photo/2021/07/22/14/59/poppy-6485504_640.jpg",
        "src1280": "https://cdn.pixabay.com/photo/2021/07/22/14/59/poppy-6485504_1280.jpg"
    },
    {
        "id": "4939510",
        "src640": "https://cdn.pixabay.com/photo/2020/03/17/09/13/flower-4939510_640.jpg",
        "src1280": "https://cdn.pixabay.com/photo/2020/03/17/09/13/flower-4939510_1280.jpg"
    },
    {
        "id": "4666885",
        "src640": "https://cdn.pixabay.com/photo/2019/12/02/04/30/rose-4666885_640.jpg",
        "src1280": "https://cdn.pixabay.com/photo/2019/12/02/04/30/rose-4666885_1280.jpg"
    },
    {
        "id": "5356480",
        "src640": "https://cdn.pixabay.com/photo/2020/06/30/14/06/background-5356480_640.jpg",
        "src1280": "https://cdn.pixabay.com/photo/2020/06/30/14/06/background-5356480_1280.jpg"
    },
    {
        "id": "7126173",
        "src640": "https://cdn.pixabay.com/photo/2022/04/11/16/46/tulip-7126173_640.jpg",
        "src1280": "https://cdn.pixabay.com/photo/2022/04/11/16/46/tulip-7126173_1280.jpg"
    },
    {
        "id": "7503610",
        "src640": "https://cdn.pixabay.com/photo/2022/10/06/21/36/zinnia-7503610_640.jpg",
        "src1280": "https://cdn.pixabay.com/photo/2022/10/06/21/36/zinnia-7503610_1280.jpg"
    },
    {
        "id": "4959709",
        "src640": "https://cdn.pixabay.com/photo/2020/03/23/07/25/tulip-4959709_640.jpg",
        "src1280": "https://cdn.pixabay.com/photo/2020/03/23/07/25/tulip-4959709_1280.jpg"
    },
    {
        "id": "7938133",
        "src640": "https://cdn.pixabay.com/photo/2023/04/19/16/53/flowers-7938133_640.jpg",
        "src1280": "https://cdn.pixabay.com/photo/2023/04/19/16/53/flowers-7938133_1280.jpg"
    },
    {
        "id": "1851011",
        "src640": "https://cdn.pixabay.com/photo/2016/11/22/22/45/bloom-1851011_640.jpg",
        "src1280": "https://cdn.pixabay.com/photo/2016/11/22/22/45/bloom-1851011_1280.jpg"
    },
    {
        "id": "1373442",
        "src640": "https://cdn.pixabay.com/photo/2016/05/05/08/45/rose-1373442_640.jpg",
        "src1280": "https://cdn.pixabay.com/photo/2016/05/05/08/45/rose-1373442_1280.jpg"
    },
    {
        "id": "5536989",
        "src640": "https://cdn.pixabay.com/photo/2020/09/02/00/26/flowers-5536989_640.jpg",
        "src1280": "https://cdn.pixabay.com/photo/2020/09/02/00/26/flowers-5536989_1280.jpg"
    },
    {
        "id": "268407",
        "src640": "https://cdn.pixabay.com/photo/2014/02/17/17/39/flower-268407_640.jpg",
        "src1280": "https://cdn.pixabay.com/photo/2014/02/17/17/39/flower-268407_1280.jpg"
    },
    {
        "id": "8377175",
        "src640": "https://cdn.pixabay.com/photo/2023/11/09/11/51/golden-marguerite-8377175_640.jpg",
        "src1280": "https://cdn.pixabay.com/photo/2023/11/09/11/51/golden-marguerite-8377175_1280.jpg"
    },
    {
        "id": "4221061",
        "src640": "https://cdn.pixabay.com/photo/2019/05/22/09/51/girl-4221061_640.jpg",
        "src1280": "https://cdn.pixabay.com/photo/2019/05/22/09/51/girl-4221061_1280.jpg"
    },
    {
        "id": "70890",
        "src640": "https://cdn.pixabay.com/photo/2012/12/19/14/31/roses-70890_640.jpg",
        "src1280": "https://cdn.pixabay.com/photo/2012/12/19/14/31/roses-70890_1280.jpg"
    },
    {
        "id": "8431958",
        "src640": "https://cdn.pixabay.com/photo/2023/12/05/15/40/lantana-8431958_640.jpg",
        "src1280": "https://cdn.pixabay.com/photo/2023/12/05/15/40/lantana-8431958_1280.jpg"
    },
    {
        "id": "8076934",
        "src640": "https://cdn.pixabay.com/photo/2023/06/20/12/50/pine-hawk-moth-8076934_640.jpg",
        "src1280": "https://cdn.pixabay.com/photo/2023/06/20/12/50/pine-hawk-moth-8076934_1280.jpg"
    },
    {
        "id": "1370047",
        "src640": "https://cdn.pixabay.com/photo/2016/05/03/20/10/freesia-1370047_640.jpg",
        "src1280": "https://cdn.pixabay.com/photo/2016/05/03/20/10/freesia-1370047_1280.jpg"
    },
    {
        "id": "773032",
        "src640": "https://cdn.pixabay.com/photo/2015/05/19/01/31/little-girl-in-wind-773032_640.jpg",
        "src1280": "https://cdn.pixabay.com/photo/2015/05/19/01/31/little-girl-in-wind-773032_1280.jpg"
    },
    {
        "id": "8079528",
        "src640": "https://cdn.pixabay.com/photo/2023/06/21/15/07/butterfly-8079528_640.jpg",
        "src1280": "https://cdn.pixabay.com/photo/2023/06/21/15/07/butterfly-8079528_1280.jpg"
    },
    {
        "id": "991212",
        "src640": "https://cdn.pixabay.com/photo/2015/10/16/13/44/ranunculus-991212_640.jpg",
        "src1280": "https://cdn.pixabay.com/photo/2015/10/16/13/44/ranunculus-991212_1280.jpg"
    },
    {
        "id": "8447021",
        "src640": "https://cdn.pixabay.com/photo/2023/12/13/14/24/pink-8447021_640.jpg",
        "src1280": "https://cdn.pixabay.com/photo/2023/12/13/14/24/pink-8447021_1280.jpg"
    },
    {
        "id": "846256",
        "src640": "https://cdn.pixabay.com/photo/2015/07/15/15/02/hydrangea-846256_640.jpg",
        "src1280": "https://cdn.pixabay.com/photo/2015/07/15/15/02/hydrangea-846256_1280.jpg"
    },
    {
        "id": "2358828",
        "src640": "https://cdn.pixabay.com/photo/2017/05/31/01/55/flower-basket-2358828_640.jpg",
        "src1280": "https://cdn.pixabay.com/photo/2017/05/31/01/55/flower-basket-2358828_1280.jpg"
    },
    {
        "id": "2508383",
        "src640": "https://cdn.pixabay.com/photo/2017/07/16/04/25/pink-gardenia-2508383_640.jpg",
        "src1280": "https://cdn.pixabay.com/photo/2017/07/16/04/25/pink-gardenia-2508383_1280.jpg"
    },
    {
        "id": "3454439",
        "src640": "https://cdn.pixabay.com/photo/2018/06/04/23/14/poppy-field-3454439_640.jpg",
        "src1280": "https://cdn.pixabay.com/photo/2018/06/04/23/14/poppy-field-3454439_1280.jpg"
    },
    {
        "id": "66707",
        "src640": "https://cdn.pixabay.com/photo/2012/11/20/15/20/rose-66707_640.jpg",
        "src1280": "https://cdn.pixabay.com/photo/2012/11/20/15/20/rose-66707_1280.jpg"
    },
    {
        "id": "2090842",
        "src640": "https://cdn.pixabay.com/photo/2017/02/22/22/36/wood-anemone-2090842_640.jpg",
        "src1280": "https://cdn.pixabay.com/photo/2017/02/22/22/36/wood-anemone-2090842_1280.jpg"
    },
    {
        "id": "8041812",
        "src640": "https://cdn.pixabay.com/photo/2023/06/05/09/37/leek-8041812_640.jpg",
        "src1280": "https://cdn.pixabay.com/photo/2023/06/05/09/37/leek-8041812_1280.jpg"
    },
    {
        "id": "6212000",
        "src640": "https://cdn.pixabay.com/photo/2021/04/27/17/12/ornamental-onion-6212000_640.jpg",
        "src1280": "https://cdn.pixabay.com/photo/2021/04/27/17/12/ornamental-onion-6212000_1280.jpg"
    },
    {
        "id": "7184739",
        "src640": "https://cdn.pixabay.com/photo/2022/05/09/15/29/flower-7184739_640.jpg",
        "src1280": "https://cdn.pixabay.com/photo/2022/05/09/15/29/flower-7184739_1280.jpg"
    },
    {
        "id": "1838148",
        "src640": "https://cdn.pixabay.com/photo/2016/11/19/06/38/romance-1838148_640.jpg",
        "src1280": "https://cdn.pixabay.com/photo/2016/11/19/06/38/romance-1838148_1280.jpg"
    },
    {
        "id": "7229710",
        "src640": "https://cdn.pixabay.com/photo/2022/05/29/18/20/sword-lily-7229710_640.jpg",
        "src1280": "https://cdn.pixabay.com/photo/2022/05/29/18/20/sword-lily-7229710_1280.jpg"
    },
    {
        "id": "746698",
        "src640": "https://cdn.pixabay.com/photo/2015/04/30/10/11/lotus-746698_640.jpg",
        "src1280": "https://cdn.pixabay.com/photo/2015/04/30/10/11/lotus-746698_1280.jpg"
    },
    {
        "id": "7132149",
        "src640": "https://cdn.pixabay.com/photo/2022/04/14/10/29/flower-7132149_640.jpg",
        "src1280": "https://cdn.pixabay.com/photo/2022/04/14/10/29/flower-7132149_1280.jpg"
    },
    {
        "id": "6902325",
        "src640": "https://cdn.pixabay.com/photo/2021/12/29/17/14/vase-6902325_640.jpg",
        "src1280": "https://cdn.pixabay.com/photo/2021/12/29/17/14/vase-6902325_1280.jpg"
    },
    {
        "id": "7042968",
        "src640": "https://cdn.pixabay.com/photo/2022/03/02/11/44/tulip-7042968_640.jpg",
        "src1280": "https://cdn.pixabay.com/photo/2022/03/02/11/44/tulip-7042968_1280.jpg"
    },
    {
        "id": "7126189",
        "src640": "https://cdn.pixabay.com/photo/2022/04/11/16/48/tulips-7126189_640.jpg",
        "src1280": "https://cdn.pixabay.com/photo/2022/04/11/16/48/tulips-7126189_1280.jpg"
    },
    {
        "id": "4303812",
        "src640": "https://cdn.pixabay.com/photo/2019/06/28/09/48/flower-4303812_640.jpg",
        "src1280": "https://cdn.pixabay.com/photo/2019/06/28/09/48/flower-4303812_1280.jpg"
    },
    {
        "id": "6986837",
        "src640": "https://cdn.pixabay.com/photo/2022/02/01/18/49/flowers-6986837_640.jpg",
        "src1280": "https://cdn.pixabay.com/photo/2022/02/01/18/49/flowers-6986837_1280.jpg"
    },
    {
        "id": "7412394",
        "src640": "https://cdn.pixabay.com/photo/2022/08/26/12/06/garden-7412394_640.jpg",
        "src1280": "https://cdn.pixabay.com/photo/2022/08/26/12/06/garden-7412394_1280.jpg"
    },
    {
        "id": "5621476",
        "src640": "https://cdn.pixabay.com/photo/2020/10/02/15/26/daisy-5621476_640.jpg",
        "src1280": "https://cdn.pixabay.com/photo/2020/10/02/15/26/daisy-5621476_1280.jpg"
    },
    {
        "id": "3419426",
        "src640": "https://cdn.pixabay.com/photo/2018/05/21/20/42/poppy-3419426_640.jpg",
        "src1280": "https://cdn.pixabay.com/photo/2018/05/21/20/42/poppy-3419426_1280.jpg"
    },
    {
        "id": "56424",
        "src640": "https://cdn.pixabay.com/photo/2012/09/08/22/31/tulips-56424_640.jpg",
        "src1280": "https://cdn.pixabay.com/photo/2012/09/08/22/31/tulips-56424_1280.jpg"
    },
    {
        "id": "7705774",
        "src640": "https://cdn.pixabay.com/photo/2023/01/08/17/10/roses-7705774_640.jpg",
        "src1280": "https://cdn.pixabay.com/photo/2023/01/08/17/10/roses-7705774_1280.jpg"
    },
    {
        "id": "8111327",
        "src640": "https://cdn.pixabay.com/photo/2023/07/06/20/16/flower-8111327_640.jpg",
        "src1280": "https://cdn.pixabay.com/photo/2023/07/06/20/16/flower-8111327_1280.jpg"
    },
    {
        "id": "3489550",
        "src640": "https://cdn.pixabay.com/photo/2018/06/21/22/10/rose-3489550_640.jpg",
        "src1280": "https://cdn.pixabay.com/photo/2018/06/21/22/10/rose-3489550_1280.jpg"
    },
    {
        "id": "7146787",
        "src640": "https://cdn.pixabay.com/photo/2022/04/21/06/33/flower-7146787_640.jpg",
        "src1280": "https://cdn.pixabay.com/photo/2022/04/21/06/33/flower-7146787_1280.jpg"
    },
    {
        "id": "7100785",
        "src640": "https://cdn.pixabay.com/photo/2022/03/30/08/51/flower-7100785_640.jpg",
        "src1280": "https://cdn.pixabay.com/photo/2022/03/30/08/51/flower-7100785_1280.jpg"
    },
    {
        "id": "1198161",
        "src640": "https://cdn.pixabay.com/photo/2016/02/13/16/35/rose-1198161_640.jpg",
        "src1280": "https://cdn.pixabay.com/photo/2016/02/13/16/35/rose-1198161_1280.jpg"
    },
    {
        "id": "2592070",
        "src640": "https://cdn.pixabay.com/photo/2017/08/06/12/27/flower-2592070_640.jpg",
        "src1280": "https://cdn.pixabay.com/photo/2017/08/06/12/27/flower-2592070_1280.jpg"
    },
    {
        "id": "5526569",
        "src640": "https://cdn.pixabay.com/photo/2020/08/29/09/22/butterfly-5526569_640.jpg",
        "src1280": "https://cdn.pixabay.com/photo/2020/08/29/09/22/butterfly-5526569_1280.jpg"
    }
]