[
    {
        "id": "3836344",
        "src640": "https://cdn.pixabay.com/photo/2018/11/24/21/23/lily-of-the-valley-3836344_640.jpg",
        "src1280": "https://cdn.pixabay.com/photo/2018/11/24/21/23/lily-of-the-valley-3836344_1280.jpg"
    },
    {
        "id": "2814165",
        "src640": "https://cdn.pixabay.com/photo/2017/10/03/20/57/hydrangea-2814165_640.jpg",
        "src1280": "https://cdn.pixabay.com/photo/2017/10/03/20/57/hydrangea-2814165_1280.jpg"
    },
    {
        "id": "1867819",
        "src640": "https://cdn.pixabay.com/photo/2016/11/29/06/32/bloom-1867819_640.jpg",
        "src1280": "https://cdn.pixabay.com/photo/2016/11/29/06/32/bloom-1867819_1280.jpg"
    },
    {
        "id": "236060",
        "src640": "https://cdn.pixabay.com/photo/2013/12/31/01/30/lotus-236060_640.jpg",
        "src1280": "https://cdn.pixabay.com/photo/2013/12/31/01/30/lotus-236060_1280.jpg"
    },
    {
        "id": "6005965",
        "src640": "https://cdn.pixabay.com/photo/2021/02/11/17/42/calla-lily-6005965_640.jpg",
        "src1280": "https://cdn.pixabay.com/photo/2021/02/11/17/42/calla-lily-6005965_1280.jpg"
    },
    {
        "id": "3414715",
        "src640": "https://cdn.pixabay.com/photo/2018/05/20/00/26/dog-3414715_640.jpg",
        "src1280": "https://cdn.pixabay.com/photo/2018/05/20/00/26/dog-3414715_1280.jpg"
    },
    {
        "id": "1719120",
        "src640": "https://cdn.pixabay.com/photo/2016/10/06/14/08/sunflowers-1719120_640.jpg",
        "src1280": "https://cdn.pixabay.com/photo/2016/10/06/14/08/sunflowers-1719120_1280.jpg"
    },
    {
        "id": "3236350",
        "src640": "https://cdn.pixabay.com/photo/2018/03/18/11/02/blossom-3236350_640.jpg",
        "src1280": "https://cdn.pixabay.com/photo/2018/03/18/11/02/blossom-3236350_1280.jpg"
    },
    {
        "id": "7184734",
        "src640": "https://cdn.pixabay.com/photo/2022/05/09/15/28/flower-7184734_640.jpg",
        "src1280": "https://cdn.pixabay.com/photo/2022/05/09/15/28/flower-7184734_1280.jpg"
    },
    {
        "id": "1509955",
        "src640": "https://cdn.pixabay.com/photo/2016/07/11/15/43/pretty-woman-1509955_640.jpg",
        "src1280": "https://cdn.pixabay.com/photo/2016/07/11/15/43/pretty-woman-1509955_1280.jpg"
    },
    {
        "id": "681011",
        "src640": "https://cdn.pixabay.com/photo/2015/03/19/15/33/flower-681011_640.jpg",
        "src1280": "https://cdn.pixabay.com/photo/2015/03/19/15/33/flower-681011_1280.jpg"
    },
    {
        "id": "961860",
        "src640": "https://cdn.pixabay.com/photo/2015/09/28/10/25/ranunculus-961860_640.jpg",
        "src1280": "https://cdn.pixabay.com/photo/2015/09/28/10/25/ranunculus-961860_1280.jpg"
    },
    {
        "id": "4240898",
        "src640": "https://cdn.pixabay.com/photo/2019/05/30/22/19/rose-4240898_640.jpg",
        "src1280": "https://cdn.pixabay.com/photo/2019/05/30/22/19/rose-4240898_1280.jpg"
    },
    {
        "id": "805062",
        "src640": "https://cdn.pixabay.com/photo/2015/06/10/19/17/flower-805062_640.jpg",
        "src1280": "https://cdn.pixabay.com/photo/2015/06/10/19/17/flower-805062_1280.jpg"
    },
    {
        "id": "2967799",
        "src640": "https://cdn.pixabay.com/photo/2017/11/21/10/19/cup-2967799_640.jpg",
        "src1280": "https://cdn.pixabay.com/photo/2017/11/21/10/19/cup-2967799_1280.jpg"
    },
    {
        "id": "3649508",
        "src640": "https://cdn.pixabay.com/photo/2018/09/02/18/39/sunflower-3649508_640.jpg",
        "src1280": "https://cdn.pixabay.com/photo/2018/09/02/18/39/sunflower-3649508_1280.jpg"
    },
    {
        "id": "3352297",
        "src640": "https://cdn.pixabay.com/photo/2018/04/26/16/09/animal-3352297_640.jpg",
        "src1280": "https://cdn.pixabay.com/photo/2018/04/26/16/09/animal-3352297_1280.jpg"
    },
    {
        "id": "170235",
        "src640": "https://cdn.pixabay.com/photo/2013/08/06/16/23/delphinium-170235_640.jpg",
        "src1280": "https://cdn.pixabay.com/photo/2013/08/06/16/23/delphinium-170235_1280.jpg"
    },
    {
        "id": "3541206",
        "src640": "https://cdn.pixabay.com/photo/2018/07/16/04/43/tea-3541206_640.jpg",
        "src1280": "https://cdn.pixabay.com/photo/2018/07/16/04/43/tea-3541206_1280.jpg"
    },
    {
        "id": "4770297",
        "src640": "https://cdn.pixabay.com/photo/2020/01/16/12/03/physalis-4770297_640.jpg",
        "src1280": "https://cdn.pixabay.com/photo/2020/01/16/12/03/physalis-4770297_1280.jpg"
    },
    {
        "id": "2710504",
        "src640": "https://cdn.pixabay.com/photo/2017/09/03/14/32/flower-2710504_640.jpg",
        "src1280": "https://cdn.pixabay.com/photo/2017/09/03/14/32/flower-2710504_1280.jpg"
    },
    {
        "id": "3156172",
        "src640": "https://cdn.pixabay.com/photo/2018/02/15/19/41/flowers-3156172_640.jpg",
        "src1280": "https://cdn.pixabay.com/photo/2018/02/15/19/41/flowers-3156172_1280.jpg"
    },
    {
        "id": "7658784",
        "src640": "https://cdn.pixabay.com/photo/2022/12/16/02/03/flowers-7658784_640.jpg",
        "src1280": "https://cdn.pixabay.com/photo/2022/12/16/02/03/flowers-7658784_1280.jpg"
    },
    {
        "id": "3957931",
        "src640": "https://cdn.pixabay.com/photo/2019/01/27/12/02/bee-3957931_640.jpg",
        "src1280": "https://cdn.pixabay.com/photo/2019/01/27/12/02/bee-3957931_1280.jpg"
    },
    {
        "id": "8204749",
        "src640": "https://cdn.pixabay.com/photo/2023/08/21/17/12/dahlia-8204749_640.jpg",
        "src1280": "https://cdn.pixabay.com/photo/2023/08/21/17/12/dahlia-8204749_1280.jpg"
    },
    {
        "id": "4790171",
        "src640": "https://cdn.pixabay.com/photo/2020/01/24/12/45/flower-4790171_640.jpg",
        "src1280": "https://cdn.pixabay.com/photo/2020/01/24/12/45/flower-4790171_1280.jpg"
    },
    {
        "id": "7809965",
        "src640": "https://cdn.pixabay.com/photo/2023/02/24/01/47/ai-generated-7809965_640.jpg",
        "src1280": "https://cdn.pixabay.com/photo/2023/02/24/01/47/ai-generated-7809965_1280.jpg"
    },
    {
        "id": "2417052",
        "src640": "https://cdn.pixabay.com/photo/2017/06/18/19/59/greece-2417052_640.jpg",
        "src1280": "https://cdn.pixabay.com/photo/2017/06/18/19/59/greece-2417052_1280.jpg"
    },
    {
        "id": "2592475",
        "src640": "https://cdn.pixabay.com/photo/2017/08/06/13/23/flower-2592475_640.jpg",
        "src1280": "https://cdn.pixabay.com/photo/2017/08/06/13/23/flower-2592475_1280.jpg"
    },
    {
        "id": "968689",
        "src640": "https://cdn.pixabay.com/photo/2015/10/02/16/37/birthday-968689_640.jpg",
        "src1280": "https://cdn.pixabay.com/photo/2015/10/02/16/37/birthday-968689_1280.jpg"
    },
    {
        "id": "4770301",
        "src640": "https://cdn.pixabay.com/photo/2020/01/16/12/05/physalis-4770301_640.jpg",
        "src1280": "https://cdn.pixabay.com/photo/2020/01/16/12/05/physalis-4770301_1280.jpg"
    },
    {
        "id": "3121972",
        "src640": "https://cdn.pixabay.com/photo/2018/01/31/21/14/flower-3121972_640.jpg",
        "src1280": "https://cdn.pixabay.com/photo/2018/01/31/21/14/flower-3121972_1280.jpg"
    },
    {
        "id": "123122",
        "src640": "https://cdn.pixabay.com/photo/2013/06/08/12/31/tulip-123122_640.jpg",
        "src1280": "https://cdn.pixabay.com/photo/2013/06/08/12/31/tulip-123122_1280.jpg"
    },
    {
        "id": "2910371",
        "src640": "https://cdn.pixabay.com/photo/2017/11/02/08/28/boy-2910371_640.jpg",
        "src1280": "https://cdn.pixabay.com/photo/2017/11/02/08/28/boy-2910371_1280.jpg"
    },
    {
        "id": "1049815",
        "src640": "https://cdn.pixabay.com/photo/2015/11/18/19/09/red-1049815_640.jpg",
        "src1280": "https://cdn.pixabay.com/photo/2015/11/18/19/09/red-1049815_1280.jpg"
    },
    {
        "id": "4306082",
        "src640": "https://cdn.pixabay.com/photo/2019/06/29/12/01/foxglove-4306082_640.jpg",
        "src1280": "https://cdn.pixabay.com/photo/2019/06/29/12/01/foxglove-4306082_1280.jpg"
    },
    {
        "id": "116252",
        "src640": "https://cdn.pixabay.com/photo/2013/06/04/18/50/flower-116252_640.jpg",
        "src1280": "https://cdn.pixabay.com/photo/2013/06/04/18/50/flower-116252_1280.jpg"
    },
    {
        "id": "6621339",
        "src640": "https://cdn.pixabay.com/photo/2021/09/13/12/33/woman-6621339_640.jpg",
        "src1280": "https://cdn.pixabay.com/photo/2021/09/13/12/33/woman-6621339_1280.jpg"
    },
    {
        "id": "8466066",
        "src640": "https://cdn.pixabay.com/photo/2023/12/23/17/32/ai-generated-8466066_640.jpg",
        "src1280": "https://cdn.pixabay.com/photo/2023/12/23/17/32/ai-generated-8466066_1280.jpg"
    },
    {
        "id": "7282275",
        "src640": "https://cdn.pixabay.com/photo/2022/06/24/18/44/thistle-7282275_640.jpg",
        "src1280": "https://cdn.pixabay.com/photo/2022/06/24/18/44/thistle-7282275_1280.jpg"
    },
    {
        "id": "1448610",
        "src640": "https://cdn.pixabay.com/photo/2016/06/10/18/06/rose-1448610_640.jpg",
        "src1280": "https://cdn.pixabay.com/photo/2016/06/10/18/06/rose-1448610_1280.jpg"
    },
    {
        "id": "3234478",
        "src640": "https://cdn.pixabay.com/photo/2018/03/17/16/54/nature-3234478_640.jpg",
        "src1280": "https://cdn.pixabay.com/photo/2018/03/17/16/54/nature-3234478_1280.jpg"
    },
    {
        "id": "5239816",
        "src640": "https://cdn.pixabay.com/photo/2020/05/30/17/57/flower-5239816_640.jpg",
        "src1280": "https://cdn.pixabay.com/photo/2020/05/30/17/57/flower-5239816_1280.jpg"
    },
    {
        "id": "990002",
        "src640": "https://cdn.pixabay.com/photo/2015/10/15/20/31/retro-990002_640.jpg",
        "src1280": "https://cdn.pixabay.com/photo/2015/10/15/20/31/retro-990002_1280.jpg"
    },
    {
        "id": "2446564",
        "src640": "https://cdn.pixabay.com/photo/2017/06/27/07/50/chair-2446564_640.jpg",
        "src1280": "https://cdn.pixabay.com/photo/2017/06/27/07/50/chair-2446564_1280.jpg"
    },
    {
        "id": "214622",
        "src640": "https://cdn.pixabay.com/photo/2013/11/21/11/10/lotus-214622_640.jpg",
        "src1280": "https://cdn.pixabay.com/photo/2013/11/21/11/10/lotus-214622_1280.jpg"
    },
    {
        "id": "991214",
        "src640": "https://cdn.pixabay.com/photo/2015/10/16/13/45/ranunculus-991214_640.jpg",
        "src1280": "https://cdn.pixabay.com/photo/2015/10/16/13/45/ranunculus-991214_1280.jpg"
    },
    {
        "id": "3920685",
        "src640": "https://cdn.pixabay.com/photo/2019/01/08/09/01/red-3920685_640.jpg",
        "src1280": "https://cdn.pixabay.com/photo/2019/01/08/09/01/red-3920685_1280.jpg"
    },
    {
        "id": "4074198",
        "src640": "https://cdn.pixabay.com/photo/2019/03/22/21/10/tulip-4074198_640.jpg",
        "src1280": "https://cdn.pixabay.com/photo/2019/03/22/21/10/tulip-4074198_1280.jpg"
    },
    {
        "id": "1056313",
        "src640": "https://cdn.pixabay.com/photo/2015/11/22/14/27/autumn-1056313_640.jpg",
        "src1280": "https://cdn.pixabay.com/photo/2015/11/22/14/27/autumn-1056313_1280.jpg"
    },
    {
        "id": "7984540",
        "src640": "https://cdn.pixabay.com/photo/2023/05/10/16/47/flowers-7984540_640.jpg",
        "src1280": "https://cdn.pixabay.com/photo/2023/05/10/16/47/flowers-7984540_1280.jpg"
    },
    {
        "id": "3694132",
        "src640": "https://cdn.pixabay.com/photo/2018/09/21/22/08/sunflower-3694132_640.jpg",
        "src1280": "https://cdn.pixabay.com/photo/2018/09/21/22/08/sunflower-3694132_1280.jpg"
    }
]