[
    {
        "id": "4581732",
        "src640": "https://cdn.pixabay.com/photo/2019/10/27/13/21/rose-4581732_640.jpg",
        "src1280": "https://cdn.pixabay.com/photo/2019/10/27/13/21/rose-4581732_1280.jpg"
    },
    {
        "id": "1797303",
        "src640": "https://cdn.pixabay.com/photo/2016/11/04/10/11/rose-1797303_640.jpg",
        "src1280": "https://cdn.pixabay.com/photo/2016/11/04/10/11/rose-1797303_1280.jpg"
    },
    {
        "id": "7269524",
        "src640": "https://cdn.pixabay.com/photo/2022/06/18/10/04/rose-7269524_640.jpg",
        "src1280": "https://cdn.pixabay.com/photo/2022/06/18/10/04/rose-7269524_1280.jpg"
    },
    {
        "id": "3987098",
        "src640": "https://cdn.pixabay.com/photo/2019/02/10/12/22/clematis-3987098_640.jpg",
        "src1280": "https://cdn.pixabay.com/photo/2019/02/10/12/22/clematis-3987098_1280.jpg"
    },
    {
        "id": "3342658",
        "src640": "https://cdn.pixabay.com/photo/2018/04/22/22/41/magnolia-3342658_640.jpg",
        "src1280": "https://cdn.pixabay.com/photo/2018/04/22/22/41/magnolia-3342658_1280.jpg"
    },
    {
        "id": "178681",
        "src640": "https://cdn.pixabay.com/photo/2013/09/03/19/04/rose-178681_640.jpg",
        "src1280": "https://cdn.pixabay.com/photo/2013/09/03/19/04/rose-178681_1280.jpg"
    },
    {
        "id": "829127",
        "src640": "https://cdn.pixabay.com/photo/2015/07/02/13/16/iris-829127_640.jpg",
        "src1280": "https://cdn.pixabay.com/photo/2015/07/02/13/16/iris-829127_1280.jpg"
    },
    {
        "id": "7324607",
        "src640": "https://cdn.pixabay.com/photo/2022/07/16/07/25/flower-bud-7324607_640.jpg",
        "src1280": "https://cdn.pixabay.com/photo/2022/07/16/07/25/flower-bud-7324607_1280.jpg"
    },
    {
        "id": "8418308",
        "src640": "https://cdn.pixabay.com/photo/2023/11/28/22/40/cosmos-8418308_640.jpg",
        "src1280": "https://cdn.pixabay.com/photo/2023/11/28/22/40/cosmos-8418308_1280.jpg"
    },
    {
        "id": "794126",
        "src640": "https://cdn.pixabay.com/photo/2015/06/01/20/04/nature-794126_640.jpg",
        "src1280": "https://cdn.pixabay.com/photo/2015/06/01/20/04/nature-794126_1280.jpg"
    },
    {
        "id": "3341369",
        "src640": "https://cdn.pixabay.com/photo/2018/04/22/15/27/nature-3341369_640.jpg",
        "src1280": "https://cdn.pixabay.com/photo/2018/04/22/15/27/nature-3341369_1280.jpg"
    },
    {
        "id": "4401824",
        "src640": "https://cdn.pixabay.com/photo/2019/08/12/18/02/flower-4401824_640.jpg",
        "src1280": "https://cdn.pixabay.com/photo/2019/08/12/18/02/flower-4401824_1280.jpg"
    },
    {
        "id": "3189201",
        "src640": "https://cdn.pixabay.com/photo/2018/02/28/22/00/flower-3189201_640.jpg",
        "src1280": "https://cdn.pixabay.com/photo/2018/02/28/22/00/flower-3189201_1280.jpg"
    },
    {
        "id": "3401671",
        "src640": "https://cdn.pixabay.com/photo/2018/05/14/21/36/flower-3401671_640.jpg",
        "src1280": "https://cdn.pixabay.com/photo/2018/05/14/21/36/flower-3401671_1280.jpg"
    },
    {
        "id": "6557218",
        "src640": "https://cdn.pixabay.com/photo/2021/08/19/06/47/sunflower-6557218_640.jpg",
        "src1280": "https://cdn.pixabay.com/photo/2021/08/19/06/47/sunflower-6557218_1280.jpg"
    },
    {
        "id": "3474184",
        "src640": "https://cdn.pixabay.com/photo/2018/06/14/05/00/iris-3474184_640.jpg",
        "src1280": "https://cdn.pixabay.com/photo/2018/06/14/05/00/iris-3474184_1280.jpg"
    },
    {
        "id": "3366458",
        "src640": "https://cdn.pixabay.com/photo/2018/05/01/18/27/lilac-3366458_640.jpg",
        "src1280": "https://cdn.pixabay.com/photo/2018/05/01/18/27/lilac-3366458_1280.jpg"
    },
    {
        "id": "5746790",
        "src640": "https://cdn.pixabay.com/photo/2020/11/15/18/35/flower-5746790_640.jpg",
        "src1280": "https://cdn.pixabay.com/photo/2020/11/15/18/35/flower-5746790_1280.jpg"
    },
    {
        "id": "3998929",
        "src640": "https://cdn.pixabay.com/photo/2019/02/15/17/44/roses-3998929_640.jpg",
        "src1280": "https://cdn.pixabay.com/photo/2019/02/15/17/44/roses-3998929_1280.jpg"
    },
    {
        "id": "1561787",
        "src640": "https://cdn.pixabay.com/photo/2016/08/01/19/05/anemone-1561787_640.jpg",
        "src1280": "https://cdn.pixabay.com/photo/2016/08/01/19/05/anemone-1561787_1280.jpg"
    },
    {
        "id": "3192476",
        "src640": "https://cdn.pixabay.com/photo/2018/03/02/07/47/tulip-3192476_640.jpg",
        "src1280": "https://cdn.pixabay.com/photo/2018/03/02/07/47/tulip-3192476_1280.jpg"
    },
    {
        "id": "4218755",
        "src640": "https://cdn.pixabay.com/photo/2019/05/21/10/49/flower-gardens-4218755_640.jpg",
        "src1280": "https://cdn.pixabay.com/photo/2019/05/21/10/49/flower-gardens-4218755_1280.jpg"
    },
    {
        "id": "7395822",
        "src640": "https://cdn.pixabay.com/photo/2022/08/18/22/34/butterfly-7395822_640.jpg",
        "src1280": "https://cdn.pixabay.com/photo/2022/08/18/22/34/butterfly-7395822_1280.jpg"
    },
    {
        "id": "242380",
        "src640": "https://cdn.pixabay.com/photo/2014/01/11/18/54/poppy-242380_640.jpg",
        "src1280": "https://cdn.pixabay.com/photo/2014/01/11/18/54/poppy-242380_1280.jpg"
    },
    {
        "id": "8185386",
        "src640": "https://cdn.pixabay.com/photo/2023/08/12/11/32/flower-8185386_640.jpg",
        "src1280": "https://cdn.pixabay.com/photo/2023/08/12/11/32/flower-8185386_1280.jpg"
    },
    {
        "id": "2654087",
        "src640": "https://cdn.pixabay.com/photo/2017/08/18/07/48/flower-2654087_640.jpg",
        "src1280": "https://cdn.pixabay.com/photo/2017/08/18/07/48/flower-2654087_1280.jpg"
    },
    {
        "id": "2900040",
        "src640": "https://cdn.pixabay.com/photo/2017/10/29/15/50/dandelion-2900040_640.jpg",
        "src1280": "https://cdn.pixabay.com/photo/2017/10/29/15/50/dandelion-2900040_1280.jpg"
    },
    {
        "id": "4766284",
        "src640": "https://cdn.pixabay.com/photo/2020/01/14/20/49/tulip-4766284_640.jpg",
        "src1280": "https://cdn.pixabay.com/photo/2020/01/14/20/49/tulip-4766284_1280.jpg"
    },
    {
        "id": "2128934",
        "src640": "https://cdn.pixabay.com/photo/2017/03/09/08/53/flower-2128934_640.jpg",
        "src1280": "https://cdn.pixabay.com/photo/2017/03/09/08/53/flower-2128934_1280.jpg"
    },
    {
        "id": "7324603",
        "src640": "https://cdn.pixabay.com/photo/2022/07/16/07/24/lotus-7324603_640.jpg",
        "src1280": "https://cdn.pixabay.com/photo/2022/07/16/07/24/lotus-7324603_1280.jpg"
    },
    {
        "id": "7998124",
        "src640": "https://cdn.pixabay.com/photo/2023/05/16/17/02/flowers-7998124_640.jpg",
        "src1280": "https://cdn.pixabay.com/photo/2023/05/16/17/02/flowers-7998124_1280.jpg"
    },
    {
        "id": "2549316",
        "src640": "https://cdn.pixabay.com/photo/2017/07/28/17/46/gladiolus-2549316_640.jpg",
        "src1280": "https://cdn.pixabay.com/photo/2017/07/28/17/46/gladiolus-2549316_1280.jpg"
    },
    {
        "id": "4084653",
        "src640": "https://cdn.pixabay.com/photo/2019/03/27/09/54/tulip-4084653_640.jpg",
        "src1280": "https://cdn.pixabay.com/photo/2019/03/27/09/54/tulip-4084653_1280.jpg"
    },
    {
        "id": "2207206",
        "src640": "https://cdn.pixabay.com/photo/2017/04/06/05/12/bouquet-2207206_640.jpg",
        "src1280": "https://cdn.pixabay.com/photo/2017/04/06/05/12/bouquet-2207206_1280.jpg"
    },
    {
        "id": "1396116",
        "src640": "https://cdn.pixabay.com/photo/2016/05/16/16/52/cloves-1396116_640.jpg",
        "src1280": "https://cdn.pixabay.com/photo/2016/05/16/16/52/cloves-1396116_1280.jpg"
    },
    {
        "id": "3331143",
        "src640": "https://cdn.pixabay.com/photo/2018/04/18/18/11/tulip-3331143_640.jpg",
        "src1280": "https://cdn.pixabay.com/photo/2018/04/18/18/11/tulip-3331143_1280.jpg"
    },
    {
        "id": "4239161",
        "src640": "https://cdn.pixabay.com/photo/2019/05/30/07/05/flower-4239161_640.jpg",
        "src1280": "https://cdn.pixabay.com/photo/2019/05/30/07/05/flower-4239161_1280.jpg"
    },
    {
        "id": "1326775",
        "src640": "https://cdn.pixabay.com/photo/2016/04/13/13/29/flowers-1326775_640.jpg",
        "src1280": "https://cdn.pixabay.com/photo/2016/04/13/13/29/flowers-1326775_1280.jpg"
    },
    {
        "id": "4581769",
        "src640": "https://cdn.pixabay.com/photo/2019/10/27/13/23/rose-4581769_640.jpg",
        "src1280": "https://cdn.pixabay.com/photo/2019/10/27/13/23/rose-4581769_1280.jpg"
    },
    {
        "id": "3036260",
        "src640": "https://cdn.pixabay.com/photo/2017/12/24/00/53/rose-3036260_640.jpg",
        "src1280": "https://cdn.pixabay.com/photo/2017/12/24/00/53/rose-3036260_1280.jpg"
    },
    {
        "id": "3752465",
        "src640": "https://cdn.pixabay.com/photo/2018/10/16/20/46/cosmos-3752465_640.jpg",
        "src1280": "https://cdn.pixabay.com/photo/2018/10/16/20/46/cosmos-3752465_1280.jpg"
    },
    {
        "id": "3477382",
        "src640": "https://cdn.pixabay.com/photo/2018/06/15/18/17/plant-3477382_640.jpg",
        "src1280": "https://cdn.pixabay.com/photo/2018/06/15/18/17/plant-3477382_1280.jpg"
    },
    {
        "id": "1354974",
        "src640": "https://cdn.pixabay.com/photo/2016/04/26/18/16/flower-1354974_640.jpg",
        "src1280": "https://cdn.pixabay.com/photo/2016/04/26/18/16/flower-1354974_1280.jpg"
    },
    {
        "id": "3716356",
        "src640": "https://cdn.pixabay.com/photo/2018/10/01/14/17/nature-3716356_640.jpg",
        "src1280": "https://cdn.pixabay.com/photo/2018/10/01/14/17/nature-3716356_1280.jpg"
    },
    {
        "id": "3424644",
        "src640": "https://cdn.pixabay.com/photo/2018/05/23/18/04/flower-3424644_640.jpg",
        "src1280": "https://cdn.pixabay.com/photo/2018/05/23/18/04/flower-3424644_1280.jpg"
    },
    {
        "id": "7041726",
        "src640": "https://cdn.pixabay.com/photo/2022/03/01/17/12/flower-7041726_640.jpg",
        "src1280": "https://cdn.pixabay.com/photo/2022/03/01/17/12/flower-7041726_1280.jpg"
    },
    {
        "id": "3451038",
        "src640": "https://cdn.pixabay.com/photo/2018/06/03/17/21/flower-3451038_640.jpg",
        "src1280": "https://cdn.pixabay.com/photo/2018/06/03/17/21/flower-3451038_1280.jpg"
    },
    {
        "id": "7852604",
        "src640": "https://cdn.pixabay.com/photo/2023/03/14/15/59/reticulated-iris-7852604_640.jpg",
        "src1280": "https://cdn.pixabay.com/photo/2023/03/14/15/59/reticulated-iris-7852604_1280.jpg"
    },
    {
        "id": "655315",
        "src640": "https://cdn.pixabay.com/photo/2015/03/01/21/43/tulip-655315_640.jpg",
        "src1280": "https://cdn.pixabay.com/photo/2015/03/01/21/43/tulip-655315_1280.jpg"
    },
    {
        "id": "3170500",
        "src640": "https://cdn.pixabay.com/photo/2018/02/21/14/41/tulip-3170500_640.jpg",
        "src1280": "https://cdn.pixabay.com/photo/2018/02/21/14/41/tulip-3170500_1280.jpg"
    },
    {
        "id": "301249",
        "src640": "https://cdn.pixabay.com/photo/2014/03/30/09/44/cherry-blossoms-301249_640.jpg",
        "src1280": "https://cdn.pixabay.com/photo/2014/03/30/09/44/cherry-blossoms-301249_1280.jpg"
    },
    {
        "id": "4882363",
        "src640": "https://cdn.pixabay.com/photo/2020/02/26/17/13/pansy-4882363_640.jpg",
        "src1280": "https://cdn.pixabay.com/photo/2020/02/26/17/13/pansy-4882363_1280.jpg"
    },
    {
        "id": "2682226",
        "src640": "https://cdn.pixabay.com/photo/2017/08/26/06/00/bellflower-2682226_640.jpg",
        "src1280": "https://cdn.pixabay.com/photo/2017/08/26/06/00/bellflower-2682226_1280.jpg"
    },
    {
        "id": "13568",
        "src640": "https://cdn.pixabay.com/photo/2012/02/16/12/29/rose-13568_640.jpg",
        "src1280": "https://cdn.pixabay.com/photo/2012/02/16/12/29/rose-13568_1280.jpg"
    },
    {
        "id": "4093788",
        "src640": "https://cdn.pixabay.com/photo/2019/03/31/19/13/flowers-4093788_640.jpg",
        "src1280": "https://cdn.pixabay.com/photo/2019/03/31/19/13/flowers-4093788_1280.jpg"
    },
    {
        "id": "8417761",
        "src640": "https://cdn.pixabay.com/photo/2023/11/28/16/08/peace-lily-8417761_640.jpg",
        "src1280": "https://cdn.pixabay.com/photo/2023/11/28/16/08/peace-lily-8417761_1280.jpg"
    },
    {
        "id": "2332781",
        "src640": "https://cdn.pixabay.com/photo/2017/05/22/00/40/buttercup-2332781_640.jpg",
        "src1280": "https://cdn.pixabay.com/photo/2017/05/22/00/40/buttercup-2332781_1280.jpg"
    },
    {
        "id": "7432475",
        "src640": "https://cdn.pixabay.com/photo/2022/09/04/19/09/flower-7432475_640.jpg",
        "src1280": "https://cdn.pixabay.com/photo/2022/09/04/19/09/flower-7432475_1280.jpg"
    },
    {
        "id": "5010355",
        "src640": "https://cdn.pixabay.com/photo/2020/04/06/16/41/dandelion-5010355_640.jpg",
        "src1280": "https://cdn.pixabay.com/photo/2020/04/06/16/41/dandelion-5010355_1280.jpg"
    },
    {
        "id": "1606704",
        "src640": "https://cdn.pixabay.com/photo/2016/08/20/01/46/orchid-1606704_640.jpg",
        "src1280": "https://cdn.pixabay.com/photo/2016/08/20/01/46/orchid-1606704_1280.jpg"
    },
    {
        "id": "5400895",
        "src640": "https://cdn.pixabay.com/photo/2020/07/13/14/19/nature-5400895_640.jpg",
        "src1280": "https://cdn.pixabay.com/photo/2020/07/13/14/19/nature-5400895_1280.jpg"
    },
    {
        "id": "6212485",
        "src640": "https://cdn.pixabay.com/photo/2021/04/27/20/33/anemone-6212485_640.jpg",
        "src1280": "https://cdn.pixabay.com/photo/2021/04/27/20/33/anemone-6212485_1280.jpg"
    },
    {
        "id": "761150",
        "src640": "https://cdn.pixabay.com/photo/2015/05/10/17/10/lily-of-the-valley-761150_640.jpg",
        "src1280": "https://cdn.pixabay.com/photo/2015/05/10/17/10/lily-of-the-valley-761150_1280.jpg"
    },
    {
        "id": "6056697",
        "src640": "https://cdn.pixabay.com/photo/2021/02/28/09/24/flower-6056697_640.jpg",
        "src1280": "https://cdn.pixabay.com/photo/2021/02/28/09/24/flower-6056697_1280.jpg"
    },
    {
        "id": "5574688",
        "src640": "https://cdn.pixabay.com/photo/2020/09/15/20/32/thistle-5574688_640.jpg",
        "src1280": "https://cdn.pixabay.com/photo/2020/09/15/20/32/thistle-5574688_1280.jpg"
    },
    {
        "id": "6414252",
        "src640": "https://cdn.pixabay.com/photo/2021/07/12/17/58/flower-6414252_640.jpg",
        "src1280": "https://cdn.pixabay.com/photo/2021/07/12/17/58/flower-6414252_1280.jpg"
    },
    {
        "id": "7172762",
        "src640": "https://cdn.pixabay.com/photo/2022/05/03/22/21/lacy-phacelia-7172762_640.jpg",
        "src1280": "https://cdn.pixabay.com/photo/2022/05/03/22/21/lacy-phacelia-7172762_1280.jpg"
    },
    {
        "id": "1203372",
        "src640": "https://cdn.pixabay.com/photo/2016/02/16/14/22/flowers-1203372_640.jpg",
        "src1280": "https://cdn.pixabay.com/photo/2016/02/16/14/22/flowers-1203372_1280.jpg"
    },
    {
        "id": "5388262",
        "src640": "https://cdn.pixabay.com/photo/2020/07/09/18/14/marigold-5388262_640.jpg",
        "src1280": "https://cdn.pixabay.com/photo/2020/07/09/18/14/marigold-5388262_1280.jpg"
    },
    {
        "id": "7907352",
        "src640": "https://cdn.pixabay.com/photo/2023/04/07/16/36/flower-7907352_640.jpg",
        "src1280": "https://cdn.pixabay.com/photo/2023/04/07/16/36/flower-7907352_1280.jpg"
    },
    {
        "id": "3734990",
        "src640": "https://cdn.pixabay.com/photo/2018/10/09/13/25/dahlia-3734990_640.jpg",
        "src1280": "https://cdn.pixabay.com/photo/2018/10/09/13/25/dahlia-3734990_1280.jpg"
    },
    {
        "id": "5746785",
        "src640": "https://cdn.pixabay.com/photo/2020/11/15/18/35/flower-5746785_640.jpg",
        "src1280": "https://cdn.pixabay.com/photo/2020/11/15/18/35/flower-5746785_1280.jpg"
    },
    {
        "id": "4112213",
        "src640": "https://cdn.pixabay.com/photo/2019/04/08/15/40/flowers-4112213_640.jpg",
        "src1280": "https://cdn.pixabay.com/photo/2019/04/08/15/40/flowers-4112213_1280.jpg"
    },
    {
        "id": "2372251",
        "src640": "https://cdn.pixabay.com/photo/2017/06/04/21/36/sunset-2372251_640.jpg",
        "src1280": "https://cdn.pixabay.com/photo/2017/06/04/21/36/sunset-2372251_1280.jpg"
    },
    {
        "id": "5672690",
        "src640": "https://cdn.pixabay.com/photo/2020/10/21/10/08/rose-5672690_640.jpg",
        "src1280": "https://cdn.pixabay.com/photo/2020/10/21/10/08/rose-5672690_1280.jpg"
    }
]