[
    {
        "id": "1395447",
        "src640": "https://cdn.pixabay.com/photo/2016/05/16/11/33/lisianthus-1395447_640.jpg",
        "src1280": "https://cdn.pixabay.com/photo/2016/05/16/11/33/lisianthus-1395447_1280.jpg"
    },
    {
        "id": "2203232",
        "src640": "https://cdn.pixabay.com/photo/2017/04/04/21/37/daffodils-2203232_640.jpg",
        "src1280": "https://cdn.pixabay.com/photo/2017/04/04/21/37/daffodils-2203232_1280.jpg"
    },
    {
        "id": "7346339",
        "src640": "https://cdn.pixabay.com/photo/2022/07/26/17/33/woman-7346339_640.jpg",
        "src1280": "https://cdn.pixabay.com/photo/2022/07/26/17/33/woman-7346339_1280.jpg"
    },
    {
        "id": "1934110",
        "src640": "https://cdn.pixabay.com/photo/2016/12/27/15/14/flower-1934110_640.jpg",
        "src1280": "https://cdn.pixabay.com/photo/2016/12/27/15/14/flower-1934110_1280.jpg"
    },
    {
        "id": "1430356",
        "src640": "https://cdn.pixabay.com/photo/2016/06/02/06/21/cactus-1430356_640.jpg",
        "src1280": "https://cdn.pixabay.com/photo/2016/06/02/06/21/cactus-1430356_1280.jpg"
    },
    {
        "id": "3104185",
        "src640": "https://cdn.pixabay.com/photo/2018/01/24/16/06/iris-3104185_640.jpg",
        "src1280": "https://cdn.pixabay.com/photo/2018/01/24/16/06/iris-3104185_1280.jpg"
    },
    {
        "id": "4940883",
        "src640": "https://cdn.pixabay.com/photo/2020/03/17/15/51/butterfly-4940883_640.jpg",
        "src1280": "https://cdn.pixabay.com/photo/2020/03/17/15/51/butterfly-4940883_1280.jpg"
    },
    {
        "id": "2508383",
        "src640": "https://cdn.pixabay.com/photo/2017/07/16/04/25/pink-gardenia-2508383_640.jpg",
        "src1280": "https://cdn.pixabay.com/photo/2017/07/16/04/25/pink-gardenia-2508383_1280.jpg"
    },
    {
        "id": "1190019",
        "src640": "https://cdn.pixabay.com/photo/2016/02/09/17/45/flowers-1190019_640.jpg",
        "src1280": "https://cdn.pixabay.com/photo/2016/02/09/17/45/flowers-1190019_1280.jpg"
    },
    {
        "id": "3341369",
        "src640": "https://cdn.pixabay.com/photo/2018/04/22/15/27/nature-3341369_640.jpg",
        "src1280": "https://cdn.pixabay.com/photo/2018/04/22/15/27/nature-3341369_1280.jpg"
    },
    {
        "id": "5255831",
        "src640": "https://cdn.pixabay.com/photo/2020/06/03/17/51/hummingbird-5255831_640.jpg",
        "src1280": "https://cdn.pixabay.com/photo/2020/06/03/17/51/hummingbird-5255831_1280.jpg"
    },
    {
        "id": "3275522",
        "src640": "https://cdn.pixabay.com/photo/2018/03/30/14/41/nature-3275522_640.jpg",
        "src1280": "https://cdn.pixabay.com/photo/2018/03/30/14/41/nature-3275522_1280.jpg"
    },
    {
        "id": "345886",
        "src640": "https://cdn.pixabay.com/photo/2014/05/16/20/52/poppies-345886_640.jpg",
        "src1280": "https://cdn.pixabay.com/photo/2014/05/16/20/52/poppies-345886_1280.jpg"
    },
    {
        "id": "8159019",
        "src640": "https://cdn.pixabay.com/photo/2023/07/30/14/28/flowers-8159019_640.jpg",
        "src1280": "https://cdn.pixabay.com/photo/2023/07/30/14/28/flowers-8159019_1280.jpg"
    },
    {
        "id": "8111327",
        "src640": "https://cdn.pixabay.com/photo/2023/07/06/20/16/flower-8111327_640.jpg",
        "src1280": "https://cdn.pixabay.com/photo/2023/07/06/20/16/flower-8111327_1280.jpg"
    },
    {
        "id": "3452599",
        "src640": "https://cdn.pixabay.com/photo/2018/06/04/07/27/anemone-3452599_640.jpg",
        "src1280": "https://cdn.pixabay.com/photo/2018/06/04/07/27/anemone-3452599_1280.jpg"
    },
    {
        "id": "2940346",
        "src640": "https://cdn.pixabay.com/photo/2017/11/11/20/21/rose-2940346_640.jpg",
        "src1280": "https://cdn.pixabay.com/photo/2017/11/11/20/21/rose-2940346_1280.jpg"
    },
    {
        "id": "8194089",
        "src640": "https://cdn.pixabay.com/photo/2023/08/16/12/42/flowers-8194089_640.jpg",
        "src1280": "https://cdn.pixabay.com/photo/2023/08/16/12/42/flowers-8194089_1280.jpg"
    },
    {
        "id": "8440358",
        "src640": "https://cdn.pixabay.com/photo/2023/12/09/22/58/ai-generated-8440358_640.jpg",
        "src1280": "https://cdn.pixabay.com/photo/2023/12/09/22/58/ai-generated-8440358_1280.jpg"
    },
    {
        "id": "2832452",
        "src640": "https://cdn.pixabay.com/photo/2017/10/09/04/42/wisteria-2832452_640.jpg",
        "src1280": "https://cdn.pixabay.com/photo/2017/10/09/04/42/wisteria-2832452_1280.jpg"
    },
    {
        "id": "6088871",
        "src640": "https://cdn.pixabay.com/photo/2021/03/12/06/45/magazine-6088871_640.jpg",
        "src1280": "https://cdn.pixabay.com/photo/2021/03/12/06/45/magazine-6088871_1280.jpg"
    },
    {
        "id": "7900305",
        "src640": "https://cdn.pixabay.com/photo/2023/04/04/22/06/cherry-blossoms-7900305_640.jpg",
        "src1280": "https://cdn.pixabay.com/photo/2023/04/04/22/06/cherry-blossoms-7900305_1280.jpg"
    },
    {
        "id": "4792935",
        "src640": "https://cdn.pixabay.com/photo/2020/01/25/17/21/pansy-4792935_640.jpg",
        "src1280": "https://cdn.pixabay.com/photo/2020/01/25/17/21/pansy-4792935_1280.jpg"
    },
    {
        "id": "4779863",
        "src640": "https://cdn.pixabay.com/photo/2020/01/20/09/21/cosmea-4779863_640.jpg",
        "src1280": "https://cdn.pixabay.com/photo/2020/01/20/09/21/cosmea-4779863_1280.jpg"
    },
    {
        "id": "940232",
        "src640": "https://cdn.pixabay.com/photo/2015/09/14/22/06/flowers-940232_640.jpg",
        "src1280": "https://cdn.pixabay.com/photo/2015/09/14/22/06/flowers-940232_1280.jpg"
    },
    {
        "id": "6320499",
        "src640": "https://cdn.pixabay.com/photo/2021/06/08/11/51/flowers-6320499_640.jpg",
        "src1280": "https://cdn.pixabay.com/photo/2021/06/08/11/51/flowers-6320499_1280.jpg"
    },
    {
        "id": "13371",
        "src640": "https://cdn.pixabay.com/photo/2012/02/16/12/07/daffodil-13371_640.jpg",
        "src1280": "https://cdn.pixabay.com/photo/2012/02/16/12/07/daffodil-13371_1280.jpg"
    },
    {
        "id": "4596194",
        "src640": "https://cdn.pixabay.com/photo/2019/11/02/12/15/flower-4596194_640.jpg",
        "src1280": "https://cdn.pixabay.com/photo/2019/11/02/12/15/flower-4596194_1280.jpg"
    },
    {
        "id": "1105095",
        "src640": "https://cdn.pixabay.com/photo/2015/12/23/03/30/iris-1105095_640.jpg",
        "src1280": "https://cdn.pixabay.com/photo/2015/12/23/03/30/iris-1105095_1280.jpg"
    },
    {
        "id": "2443553",
        "src640": "https://cdn.pixabay.com/photo/2017/06/26/11/54/rose-2443553_640.jpg",
        "src1280": "https://cdn.pixabay.com/photo/2017/06/26/11/54/rose-2443553_1280.jpg"
    },
    {
        "id": "1341092",
        "src640": "https://cdn.pixabay.com/photo/2016/04/20/12/50/floralia-1341092_640.jpg",
        "src1280": "https://cdn.pixabay.com/photo/2016/04/20/12/50/floralia-1341092_1280.jpg"
    },
    {
        "id": "892326",
        "src640": "https://cdn.pixabay.com/photo/2015/08/17/11/47/cyclamen-892326_640.jpg",
        "src1280": "https://cdn.pixabay.com/photo/2015/08/17/11/47/cyclamen-892326_1280.jpg"
    },
    {
        "id": "5380775",
        "src640": "https://cdn.pixabay.com/photo/2020/07/07/14/39/background-5380775_640.jpg",
        "src1280": "https://cdn.pixabay.com/photo/2020/07/07/14/39/background-5380775_1280.jpg"
    },
    {
        "id": "6129074",
        "src640": "https://cdn.pixabay.com/photo/2021/03/27/17/16/pansy-6129074_640.jpg",
        "src1280": "https://cdn.pixabay.com/photo/2021/03/27/17/16/pansy-6129074_1280.jpg"
    },
    {
        "id": "7781681",
        "src640": "https://cdn.pixabay.com/photo/2023/02/10/22/06/ai-generated-7781681_640.jpg",
        "src1280": "https://cdn.pixabay.com/photo/2023/02/10/22/06/ai-generated-7781681_1280.jpg"
    },
    {
        "id": "3093247",
        "src640": "https://cdn.pixabay.com/photo/2018/01/19/21/21/architecture-3093247_640.jpg",
        "src1280": "https://cdn.pixabay.com/photo/2018/01/19/21/21/architecture-3093247_1280.jpg"
    },
    {
        "id": "1807227",
        "src640": "https://cdn.pixabay.com/photo/2016/11/08/00/54/rose-1807227_640.jpg",
        "src1280": "https://cdn.pixabay.com/photo/2016/11/08/00/54/rose-1807227_1280.jpg"
    },
    {
        "id": "7556460",
        "src640": "https://cdn.pixabay.com/photo/2022/10/30/02/09/astronaut-7556460_640.jpg",
        "src1280": "https://cdn.pixabay.com/photo/2022/10/30/02/09/astronaut-7556460_1280.jpg"
    },
    {
        "id": "17556",
        "src640": "https://cdn.pixabay.com/photo/2012/02/27/17/07/background-17556_640.jpg",
        "src1280": "https://cdn.pixabay.com/photo/2012/02/27/17/07/background-17556_1280.jpg"
    },
    {
        "id": "2033795",
        "src640": "https://cdn.pixabay.com/photo/2017/02/02/20/42/rose-2033795_640.jpg",
        "src1280": "https://cdn.pixabay.com/photo/2017/02/02/20/42/rose-2033795_1280.jpg"
    },
    {
        "id": "3316759",
        "src640": "https://cdn.pixabay.com/photo/2018/04/13/15/21/nature-3316759_640.jpg",
        "src1280": "https://cdn.pixabay.com/photo/2018/04/13/15/21/nature-3316759_1280.jpg"
    },
    {
        "id": "6902277",
        "src640": "https://cdn.pixabay.com/photo/2021/12/29/16/53/jasmine-in-winter-6902277_640.jpg",
        "src1280": "https://cdn.pixabay.com/photo/2021/12/29/16/53/jasmine-in-winter-6902277_1280.jpg"
    },
    {
        "id": "56424",
        "src640": "https://cdn.pixabay.com/photo/2012/09/08/22/31/tulips-56424_640.jpg",
        "src1280": "https://cdn.pixabay.com/photo/2012/09/08/22/31/tulips-56424_1280.jpg"
    },
    {
        "id": "1537845",
        "src640": "https://cdn.pixabay.com/photo/2016/07/24/03/00/onion-1537845_640.jpg",
        "src1280": "https://cdn.pixabay.com/photo/2016/07/24/03/00/onion-1537845_1280.jpg"
    },
    {
        "id": "7968224",
        "src640": "https://cdn.pixabay.com/photo/2023/05/03/17/10/tulips-7968224_640.jpg",
        "src1280": "https://cdn.pixabay.com/photo/2023/05/03/17/10/tulips-7968224_1280.jpg"
    },
    {
        "id": "6578609",
        "src640": "https://cdn.pixabay.com/photo/2021/08/27/12/53/sunflower-6578609_640.jpg",
        "src1280": "https://cdn.pixabay.com/photo/2021/08/27/12/53/sunflower-6578609_1280.jpg"
    },
    {
        "id": "7673537",
        "src640": "https://cdn.pixabay.com/photo/2022/12/23/01/41/red-roses-7673537_640.jpg",
        "src1280": "https://cdn.pixabay.com/photo/2022/12/23/01/41/red-roses-7673537_1280.jpg"
    },
    {
        "id": "6542765",
        "src640": "https://cdn.pixabay.com/photo/2021/08/13/10/37/rose-6542765_640.jpg",
        "src1280": "https://cdn.pixabay.com/photo/2021/08/13/10/37/rose-6542765_1280.jpg"
    },
    {
        "id": "7228677",
        "src640": "https://cdn.pixabay.com/photo/2022/05/29/08/00/clover-7228677_640.jpg",
        "src1280": "https://cdn.pixabay.com/photo/2022/05/29/08/00/clover-7228677_1280.jpg"
    },
    {
        "id": "3463413",
        "src640": "https://cdn.pixabay.com/photo/2018/06/09/00/28/iris-3463413_640.jpg",
        "src1280": "https://cdn.pixabay.com/photo/2018/06/09/00/28/iris-3463413_1280.jpg"
    },
    {
        "id": "111582",
        "src640": "https://cdn.pixabay.com/photo/2013/05/16/18/24/flowers-111582_640.jpg",
        "src1280": "https://cdn.pixabay.com/photo/2013/05/16/18/24/flowers-111582_1280.jpg"
    },
    {
        "id": "2098137",
        "src640": "https://cdn.pixabay.com/photo/2017/02/25/15/54/black-2098137_640.jpg",
        "src1280": "https://cdn.pixabay.com/photo/2017/02/25/15/54/black-2098137_1280.jpg"
    },
    {
        "id": "6291061",
        "src640": "https://cdn.pixabay.com/photo/2021/05/28/14/30/flowers-6291061_640.jpg",
        "src1280": "https://cdn.pixabay.com/photo/2021/05/28/14/30/flowers-6291061_1280.jpg"
    },
    {
        "id": "3389355",
        "src640": "https://cdn.pixabay.com/photo/2018/05/11/01/40/ride-3389355_640.jpg",
        "src1280": "https://cdn.pixabay.com/photo/2018/05/11/01/40/ride-3389355_1280.jpg"
    },
    {
        "id": "2189318",
        "src640": "https://cdn.pixabay.com/photo/2017/03/30/18/38/iris-2189318_640.jpg",
        "src1280": "https://cdn.pixabay.com/photo/2017/03/30/18/38/iris-2189318_1280.jpg"
    },
    {
        "id": "880525",
        "src640": "https://cdn.pixabay.com/photo/2015/08/08/15/06/blue-880525_640.jpg",
        "src1280": "https://cdn.pixabay.com/photo/2015/08/08/15/06/blue-880525_1280.jpg"
    },
    {
        "id": "8374506",
        "src640": "https://cdn.pixabay.com/photo/2023/11/08/10/23/macaw-8374506_640.jpg",
        "src1280": "https://cdn.pixabay.com/photo/2023/11/08/10/23/macaw-8374506_1280.jpg"
    },
    {
        "id": "766559",
        "src640": "https://cdn.pixabay.com/photo/2015/05/14/10/11/callas-766559_640.jpg",
        "src1280": "https://cdn.pixabay.com/photo/2015/05/14/10/11/callas-766559_1280.jpg"
    },
    {
        "id": "1705913",
        "src640": "https://cdn.pixabay.com/photo/2016/09/30/18/17/lily-1705913_640.jpg",
        "src1280": "https://cdn.pixabay.com/photo/2016/09/30/18/17/lily-1705913_1280.jpg"
    },
    {
        "id": "3681610",
        "src640": "https://cdn.pixabay.com/photo/2018/09/16/14/49/bridal-bouquet-3681610_640.jpg",
        "src1280": "https://cdn.pixabay.com/photo/2018/09/16/14/49/bridal-bouquet-3681610_1280.jpg"
    },
    {
        "id": "4005986",
        "src640": "https://cdn.pixabay.com/photo/2019/02/19/03/34/lotus-flower-4005986_640.jpg",
        "src1280": "https://cdn.pixabay.com/photo/2019/02/19/03/34/lotus-flower-4005986_1280.jpg"
    },
    {
        "id": "7697743",
        "src640": "https://cdn.pixabay.com/photo/2023/01/04/23/44/woman-7697743_640.jpg",
        "src1280": "https://cdn.pixabay.com/photo/2023/01/04/23/44/woman-7697743_1280.jpg"
    },
    {
        "id": "4959709",
        "src640": "https://cdn.pixabay.com/photo/2020/03/23/07/25/tulip-4959709_640.jpg",
        "src1280": "https://cdn.pixabay.com/photo/2020/03/23/07/25/tulip-4959709_1280.jpg"
    },
    {
        "id": "1315912",
        "src640": "https://cdn.pixabay.com/photo/2016/04/08/10/37/a-neckerchief-1315912_640.jpg",
        "src1280": "https://cdn.pixabay.com/photo/2016/04/08/10/37/a-neckerchief-1315912_1280.jpg"
    },
    {
        "id": "5696015",
        "src640": "https://cdn.pixabay.com/photo/2020/10/29/11/52/asters-5696015_640.jpg",
        "src1280": "https://cdn.pixabay.com/photo/2020/10/29/11/52/asters-5696015_1280.jpg"
    },
    {
        "id": "6578839",
        "src640": "https://cdn.pixabay.com/photo/2021/08/27/14/49/flowers-6578839_640.jpg",
        "src1280": "https://cdn.pixabay.com/photo/2021/08/27/14/49/flowers-6578839_1280.jpg"
    },
    {
        "id": "3646406",
        "src640": "https://cdn.pixabay.com/photo/2018/09/01/09/30/wonga-wonga-vine-3646406_640.jpg",
        "src1280": "https://cdn.pixabay.com/photo/2018/09/01/09/30/wonga-wonga-vine-3646406_1280.jpg"
    },
    {
        "id": "4853420",
        "src640": "https://cdn.pixabay.com/photo/2020/02/16/12/37/flower-4853420_640.jpg",
        "src1280": "https://cdn.pixabay.com/photo/2020/02/16/12/37/flower-4853420_1280.jpg"
    },
    {
        "id": "70891",
        "src640": "https://cdn.pixabay.com/photo/2012/12/19/14/31/roses-70891_640.jpg",
        "src1280": "https://cdn.pixabay.com/photo/2012/12/19/14/31/roses-70891_1280.jpg"
    },
    {
        "id": "1326775",
        "src640": "https://cdn.pixabay.com/photo/2016/04/13/13/29/flowers-1326775_640.jpg",
        "src1280": "https://cdn.pixabay.com/photo/2016/04/13/13/29/flowers-1326775_1280.jpg"
    }
]