[
    {
        "id": "2039799",
        "src640": "https://cdn.pixabay.com/photo/2017/02/05/12/18/gerbera-2039799_640.jpg",
        "src1280": "https://cdn.pixabay.com/photo/2017/02/05/12/18/gerbera-2039799_1280.jpg"
    },
    {
        "id": "6530085",
        "src640": "https://cdn.pixabay.com/photo/2021/08/08/06/59/water-lily-6530085_640.jpg",
        "src1280": "https://cdn.pixabay.com/photo/2021/08/08/06/59/water-lily-6530085_1280.jpg"
    },
    {
        "id": "7179867",
        "src640": "https://cdn.pixabay.com/photo/2022/05/07/09/42/blossoms-7179867_640.jpg",
        "src1280": "https://cdn.pixabay.com/photo/2022/05/07/09/42/blossoms-7179867_1280.jpg"
    },
    {
        "id": "352079",
        "src640": "https://cdn.pixabay.com/photo/2014/05/23/15/34/rose-352079_640.jpg",
        "src1280": "https://cdn.pixabay.com/photo/2014/05/23/15/34/rose-352079_1280.jpg"
    },
    {
        "id": "7126205",
        "src640": "https://cdn.pixabay.com/photo/2022/04/11/16/51/tulips-7126205_640.jpg",
        "src1280": "https://cdn.pixabay.com/photo/2022/04/11/16/51/tulips-7126205_1280.jpg"
    },
    {
        "id": "2310274",
        "src640": "https://cdn.pixabay.com/photo/2017/05/13/17/53/women-2310274_640.jpg",
        "src1280": "https://cdn.pixabay.com/photo/2017/05/13/17/53/women-2310274_1280.jpg"
    },
    {
        "id": "8058925",
        "src640": "https://cdn.pixabay.com/photo/2023/06/12/16/38/ai-generated-8058925_640.jpg",
        "src1280": "https://cdn.pixabay.com/photo/2023/06/12/16/38/ai-generated-8058925_1280.jpg"
    },
    {
        "id": "8410597",
        "src640": "https://cdn.pixabay.com/photo/2023/11/24/20/13/hd-wallpaper-8410597_640.jpg",
        "src1280": "https://cdn.pixabay.com/photo/2023/11/24/20/13/hd-wallpaper-8410597_1280.jpg"
    },
    {
        "id": "2370947",
        "src640": "https://cdn.pixabay.com/photo/2017/06/04/12/34/flower-2370947_640.jpg",
        "src1280": "https://cdn.pixabay.com/photo/2017/06/04/12/34/flower-2370947_1280.jpg"
    },
    {
        "id": "8456962",
        "src640": "https://cdn.pixabay.com/photo/2023/12/19/02/50/woman-8456962_640.jpg",
        "src1280": "https://cdn.pixabay.com/photo/2023/12/19/02/50/woman-8456962_1280.jpg"
    },
    {
        "id": "3443118",
        "src640": "https://cdn.pixabay.com/photo/2018/05/31/03/48/poppy-3443118_640.jpg",
        "src1280": "https://cdn.pixabay.com/photo/2018/05/31/03/48/poppy-3443118_1280.jpg"
    },
    {
        "id": "840714",
        "src640": "https://cdn.pixabay.com/photo/2015/07/11/12/31/plant-840714_640.jpg",
        "src1280": "https://cdn.pixabay.com/photo/2015/07/11/12/31/plant-840714_1280.jpg"
    },
    {
        "id": "1485877",
        "src640": "https://cdn.pixabay.com/photo/2016/06/29/02/13/pansy-1485877_640.jpg",
        "src1280": "https://cdn.pixabay.com/photo/2016/06/29/02/13/pansy-1485877_1280.jpg"
    },
    {
        "id": "2432362",
        "src640": "https://cdn.pixabay.com/photo/2017/06/22/20/21/abstract-2432362_640.jpg",
        "src1280": "https://cdn.pixabay.com/photo/2017/06/22/20/21/abstract-2432362_1280.jpg"
    },
    {
        "id": "2586071",
        "src640": "https://cdn.pixabay.com/photo/2017/08/05/22/12/plant-2586071_640.jpg",
        "src1280": "https://cdn.pixabay.com/photo/2017/08/05/22/12/plant-2586071_1280.jpg"
    },
    {
        "id": "5755580",
        "src640": "https://cdn.pixabay.com/photo/2020/11/18/15/08/flower-5755580_640.jpg",
        "src1280": "https://cdn.pixabay.com/photo/2020/11/18/15/08/flower-5755580_1280.jpg"
    },
    {
        "id": "7951265",
        "src640": "https://cdn.pixabay.com/photo/2023/04/26/00/32/greeting-card-7951265_640.jpg",
        "src1280": "https://cdn.pixabay.com/photo/2023/04/26/00/32/greeting-card-7951265_1280.jpg"
    },
    {
        "id": "7675200",
        "src640": "https://cdn.pixabay.com/photo/2022/12/24/01/47/tulips-7675200_640.jpg",
        "src1280": "https://cdn.pixabay.com/photo/2022/12/24/01/47/tulips-7675200_1280.jpg"
    },
    {
        "id": "366887",
        "src640": "https://cdn.pixabay.com/photo/2014/06/11/17/16/lupine-366887_640.jpg",
        "src1280": "https://cdn.pixabay.com/photo/2014/06/11/17/16/lupine-366887_1280.jpg"
    },
    {
        "id": "286197",
        "src640": "https://cdn.pixabay.com/photo/2014/03/12/18/17/red-286197_640.jpg",
        "src1280": "https://cdn.pixabay.com/photo/2014/03/12/18/17/red-286197_1280.jpg"
    },
    {
        "id": "1340721",
        "src640": "https://cdn.pixabay.com/photo/2016/04/20/09/06/flowers-1340721_640.jpg",
        "src1280": "https://cdn.pixabay.com/photo/2016/04/20/09/06/flowers-1340721_1280.jpg"
    },
    {
        "id": "8102976",
        "src640": "https://cdn.pixabay.com/photo/2023/07/02/21/13/poppy-8102976_640.jpg",
        "src1280": "https://cdn.pixabay.com/photo/2023/07/02/21/13/poppy-8102976_1280.jpg"
    },
    {
        "id": "4833922",
        "src640": "https://cdn.pixabay.com/photo/2020/02/09/17/27/butterfly-4833922_640.jpg",
        "src1280": "https://cdn.pixabay.com/photo/2020/02/09/17/27/butterfly-4833922_1280.jpg"
    },
    {
        "id": "4061414",
        "src640": "https://cdn.pixabay.com/photo/2019/03/17/16/58/nature-4061414_640.jpg",
        "src1280": "https://cdn.pixabay.com/photo/2019/03/17/16/58/nature-4061414_1280.jpg"
    },
    {
        "id": "7289182",
        "src640": "https://cdn.pixabay.com/photo/2022/06/28/08/36/rose-7289182_640.jpg",
        "src1280": "https://cdn.pixabay.com/photo/2022/06/28/08/36/rose-7289182_1280.jpg"
    },
    {
        "id": "3161237",
        "src640": "https://cdn.pixabay.com/photo/2018/02/17/23/46/art-3161237_640.jpg",
        "src1280": "https://cdn.pixabay.com/photo/2018/02/17/23/46/art-3161237_1280.jpg"
    },
    {
        "id": "106852",
        "src640": "https://cdn.pixabay.com/photo/2013/04/24/13/43/seville-106852_640.jpg",
        "src1280": "https://cdn.pixabay.com/photo/2013/04/24/13/43/seville-106852_1280.jpg"
    },
    {
        "id": "1811995",
        "src640": "https://cdn.pixabay.com/photo/2016/11/09/15/45/purple-morning-glory-flower-1811995_640.jpg",
        "src1280": "https://cdn.pixabay.com/photo/2016/11/09/15/45/purple-morning-glory-flower-1811995_1280.jpg"
    },
    {
        "id": "5239811",
        "src640": "https://cdn.pixabay.com/photo/2020/05/30/17/56/flower-5239811_640.jpg",
        "src1280": "https://cdn.pixabay.com/photo/2020/05/30/17/56/flower-5239811_1280.jpg"
    },
    {
        "id": "4436",
        "src640": "https://cdn.pixabay.com/photo/2011/01/06/00/01/lotus-4436_640.jpg",
        "src1280": "https://cdn.pixabay.com/photo/2011/01/06/00/01/lotus-4436_1280.jpg"
    },
    {
        "id": "5638066",
        "src640": "https://cdn.pixabay.com/photo/2020/10/08/14/04/field-5638066_640.jpg",
        "src1280": "https://cdn.pixabay.com/photo/2020/10/08/14/04/field-5638066_1280.jpg"
    },
    {
        "id": "8194060",
        "src640": "https://cdn.pixabay.com/photo/2023/08/16/12/38/fritillary-butterfly-8194060_640.jpg",
        "src1280": "https://cdn.pixabay.com/photo/2023/08/16/12/38/fritillary-butterfly-8194060_1280.jpg"
    },
    {
        "id": "4792593",
        "src640": "https://cdn.pixabay.com/photo/2020/01/25/13/46/rose-4792593_640.jpg",
        "src1280": "https://cdn.pixabay.com/photo/2020/01/25/13/46/rose-4792593_1280.jpg"
    },
    {
        "id": "4030784",
        "src640": "https://cdn.pixabay.com/photo/2019/03/02/21/57/tulips-4030784_640.jpg",
        "src1280": "https://cdn.pixabay.com/photo/2019/03/02/21/57/tulips-4030784_1280.jpg"
    },
    {
        "id": "4440577",
        "src640": "https://cdn.pixabay.com/photo/2019/08/30/06/42/nature-4440577_640.jpg",
        "src1280": "https://cdn.pixabay.com/photo/2019/08/30/06/42/nature-4440577_1280.jpg"
    },
    {
        "id": "7876683",
        "src640": "https://cdn.pixabay.com/photo/2023/03/25/19/13/key-7876683_640.jpg",
        "src1280": "https://cdn.pixabay.com/photo/2023/03/25/19/13/key-7876683_1280.jpg"
    },
    {
        "id": "1835176",
        "src640": "https://cdn.pixabay.com/photo/2016/11/18/15/01/vintage-1835176_640.jpg",
        "src1280": "https://cdn.pixabay.com/photo/2016/11/18/15/01/vintage-1835176_1280.jpg"
    },
    {
        "id": "8430098",
        "src640": "https://cdn.pixabay.com/photo/2023/12/04/18/31/chrysanthemum-8430098_640.jpg",
        "src1280": "https://cdn.pixabay.com/photo/2023/12/04/18/31/chrysanthemum-8430098_1280.jpg"
    },
    {
        "id": "5526569",
        "src640": "https://cdn.pixabay.com/photo/2020/08/29/09/22/butterfly-5526569_640.jpg",
        "src1280": "https://cdn.pixabay.com/photo/2020/08/29/09/22/butterfly-5526569_1280.jpg"
    },
    {
        "id": "7070620",
        "src640": "https://cdn.pixabay.com/photo/2022/03/15/15/53/plum-blossom-7070620_640.jpg",
        "src1280": "https://cdn.pixabay.com/photo/2022/03/15/15/53/plum-blossom-7070620_1280.jpg"
    },
    {
        "id": "4239161",
        "src640": "https://cdn.pixabay.com/photo/2019/05/30/07/05/flower-4239161_640.jpg",
        "src1280": "https://cdn.pixabay.com/photo/2019/05/30/07/05/flower-4239161_1280.jpg"
    },
    {
        "id": "6986184",
        "src640": "https://cdn.pixabay.com/photo/2022/02/01/12/05/flower-6986184_640.jpg",
        "src1280": "https://cdn.pixabay.com/photo/2022/02/01/12/05/flower-6986184_1280.jpg"
    },
    {
        "id": "909427",
        "src640": "https://cdn.pixabay.com/photo/2015/08/27/04/00/flower-909427_640.jpg",
        "src1280": "https://cdn.pixabay.com/photo/2015/08/27/04/00/flower-909427_1280.jpg"
    },
    {
        "id": "7706498",
        "src640": "https://cdn.pixabay.com/photo/2023/01/09/02/39/ai-generated-7706498_640.jpg",
        "src1280": "https://cdn.pixabay.com/photo/2023/01/09/02/39/ai-generated-7706498_1280.jpg"
    },
    {
        "id": "6199354",
        "src640": "https://cdn.pixabay.com/photo/2021/04/22/15/46/flowers-6199354_640.jpg",
        "src1280": "https://cdn.pixabay.com/photo/2021/04/22/15/46/flowers-6199354_1280.jpg"
    },
    {
        "id": "4070840",
        "src640": "https://cdn.pixabay.com/photo/2019/03/21/11/26/flowers-4070840_640.jpg",
        "src1280": "https://cdn.pixabay.com/photo/2019/03/21/11/26/flowers-4070840_1280.jpg"
    },
    {
        "id": "1587773",
        "src640": "https://cdn.pixabay.com/photo/2016/08/12/06/06/rose-1587773_640.jpg",
        "src1280": "https://cdn.pixabay.com/photo/2016/08/12/06/06/rose-1587773_1280.jpg"
    },
    {
        "id": "2819102",
        "src640": "https://cdn.pixabay.com/photo/2017/10/05/11/36/postcard-2819102_640.jpg",
        "src1280": "https://cdn.pixabay.com/photo/2017/10/05/11/36/postcard-2819102_1280.jpg"
    },
    {
        "id": "8142429",
        "src640": "https://cdn.pixabay.com/photo/2023/07/21/22/47/sunflower-8142429_640.jpg",
        "src1280": "https://cdn.pixabay.com/photo/2023/07/21/22/47/sunflower-8142429_1280.jpg"
    },
    {
        "id": "1454884",
        "src640": "https://cdn.pixabay.com/photo/2016/06/13/18/14/cornflower-1454884_640.jpg",
        "src1280": "https://cdn.pixabay.com/photo/2016/06/13/18/14/cornflower-1454884_1280.jpg"
    },
    {
        "id": "7277775",
        "src640": "https://cdn.pixabay.com/photo/2022/06/22/11/46/plum-blossoms-7277775_640.jpg",
        "src1280": "https://cdn.pixabay.com/photo/2022/06/22/11/46/plum-blossoms-7277775_1280.jpg"
    },
    {
        "id": "1097260",
        "src640": "https://cdn.pixabay.com/photo/2015/12/17/12/02/lady-1097260_640.jpg",
        "src1280": "https://cdn.pixabay.com/photo/2015/12/17/12/02/lady-1097260_1280.jpg"
    },
    {
        "id": "3940449",
        "src640": "https://cdn.pixabay.com/photo/2019/01/18/19/00/freesia-3940449_640.jpg",
        "src1280": "https://cdn.pixabay.com/photo/2019/01/18/19/00/freesia-3940449_1280.jpg"
    },
    {
        "id": "1057724",
        "src640": "https://cdn.pixabay.com/photo/2015/11/23/03/46/beautiful-lotus-1057724_640.jpg",
        "src1280": "https://cdn.pixabay.com/photo/2015/11/23/03/46/beautiful-lotus-1057724_1280.jpg"
    },
    {
        "id": "4899077",
        "src640": "https://cdn.pixabay.com/photo/2020/03/03/16/04/flowers-4899077_640.jpg",
        "src1280": "https://cdn.pixabay.com/photo/2020/03/03/16/04/flowers-4899077_1280.jpg"
    },
    {
        "id": "3512541",
        "src640": "https://cdn.pixabay.com/photo/2018/07/02/21/29/daylily-3512541_640.jpg",
        "src1280": "https://cdn.pixabay.com/photo/2018/07/02/21/29/daylily-3512541_1280.jpg"
    },
    {
        "id": "1238433",
        "src640": "https://cdn.pixabay.com/photo/2016/03/05/19/33/affair-1238433_640.jpg",
        "src1280": "https://cdn.pixabay.com/photo/2016/03/05/19/33/affair-1238433_1280.jpg"
    },
    {
        "id": "4691238",
        "src640": "https://cdn.pixabay.com/photo/2019/12/12/17/14/knights-star-4691238_640.jpg",
        "src1280": "https://cdn.pixabay.com/photo/2019/12/12/17/14/knights-star-4691238_1280.jpg"
    },
    {
        "id": "4142099",
        "src640": "https://cdn.pixabay.com/photo/2019/04/20/15/38/protea-4142099_640.jpg",
        "src1280": "https://cdn.pixabay.com/photo/2019/04/20/15/38/protea-4142099_1280.jpg"
    },
    {
        "id": "7571495",
        "src640": "https://cdn.pixabay.com/photo/2022/11/05/09/55/rose-7571495_640.jpg",
        "src1280": "https://cdn.pixabay.com/photo/2022/11/05/09/55/rose-7571495_1280.jpg"
    },
    {
        "id": "7351176",
        "src640": "https://cdn.pixabay.com/photo/2022/07/29/06/02/the-little-girl-7351176_640.jpg",
        "src1280": "https://cdn.pixabay.com/photo/2022/07/29/06/02/the-little-girl-7351176_1280.jpg"
    },
    {
        "id": "2132872",
        "src640": "https://cdn.pixabay.com/photo/2017/03/10/13/56/daffodils-2132872_640.jpg",
        "src1280": "https://cdn.pixabay.com/photo/2017/03/10/13/56/daffodils-2132872_1280.jpg"
    },
    {
        "id": "4723255",
        "src640": "https://cdn.pixabay.com/photo/2019/12/27/19/42/girl-4723255_640.jpg",
        "src1280": "https://cdn.pixabay.com/photo/2019/12/27/19/42/girl-4723255_1280.jpg"
    },
    {
        "id": "2378327",
        "src640": "https://cdn.pixabay.com/photo/2017/06/06/20/19/columbine-2378327_640.jpg",
        "src1280": "https://cdn.pixabay.com/photo/2017/06/06/20/19/columbine-2378327_1280.jpg"
    },
    {
        "id": "1741980",
        "src640": "https://cdn.pixabay.com/photo/2016/10/15/05/54/flower-1741980_640.jpg",
        "src1280": "https://cdn.pixabay.com/photo/2016/10/15/05/54/flower-1741980_1280.jpg"
    },
    {
        "id": "7713096",
        "src640": "https://cdn.pixabay.com/photo/2023/01/12/01/55/ai-generated-7713096_640.jpg",
        "src1280": "https://cdn.pixabay.com/photo/2023/01/12/01/55/ai-generated-7713096_1280.jpg"
    },
    {
        "id": "5725425",
        "src640": "https://cdn.pixabay.com/photo/2020/11/09/02/53/butterfly-5725425_640.jpg",
        "src1280": "https://cdn.pixabay.com/photo/2020/11/09/02/53/butterfly-5725425_1280.jpg"
    },
    {
        "id": "7401643",
        "src640": "https://cdn.pixabay.com/photo/2022/08/21/16/25/summer-7401643_640.jpg",
        "src1280": "https://cdn.pixabay.com/photo/2022/08/21/16/25/summer-7401643_1280.jpg"
    },
    {
        "id": "6728316",
        "src640": "https://cdn.pixabay.com/photo/2021/10/21/08/13/flower-6728316_640.jpg",
        "src1280": "https://cdn.pixabay.com/photo/2021/10/21/08/13/flower-6728316_1280.jpg"
    },
    {
        "id": "4733467",
        "src640": "https://cdn.pixabay.com/photo/2020/01/01/11/59/bee-4733467_640.jpg",
        "src1280": "https://cdn.pixabay.com/photo/2020/01/01/11/59/bee-4733467_1280.jpg"
    },
    {
        "id": "8311023",
        "src640": "https://cdn.pixabay.com/photo/2023/10/12/15/14/rose-8311023_640.jpg",
        "src1280": "https://cdn.pixabay.com/photo/2023/10/12/15/14/rose-8311023_1280.jpg"
    },
    {
        "id": "7834839",
        "src640": "https://cdn.pixabay.com/photo/2023/03/07/02/24/ai-generated-7834839_640.jpg",
        "src1280": "https://cdn.pixabay.com/photo/2023/03/07/02/24/ai-generated-7834839_1280.jpg"
    },
    {
        "id": "8292196",
        "src640": "https://cdn.pixabay.com/photo/2023/10/03/17/58/flower-8292196_640.jpg",
        "src1280": "https://cdn.pixabay.com/photo/2023/10/03/17/58/flower-8292196_1280.jpg"
    }
]