[
    {
        "id": "7937839",
        "src640": "https://cdn.pixabay.com/photo/2023/04/19/13/51/ai-generated-7937839_640.jpg",
        "src1280": "https://cdn.pixabay.com/photo/2023/04/19/13/51/ai-generated-7937839_1280.jpg"
    },
    {
        "id": "3636230",
        "src640": "https://cdn.pixabay.com/photo/2018/08/27/23/14/poppies-3636230_640.jpg",
        "src1280": "https://cdn.pixabay.com/photo/2018/08/27/23/14/poppies-3636230_1280.jpg"
    },
    {
        "id": "5692729",
        "src640": "https://cdn.pixabay.com/photo/2020/10/28/08/05/garden-roses-5692729_640.jpg",
        "src1280": "https://cdn.pixabay.com/photo/2020/10/28/08/05/garden-roses-5692729_1280.jpg"
    },
    {
        "id": "1693468",
        "src640": "https://cdn.pixabay.com/photo/2016/09/25/11/25/flower-1693468_640.jpg",
        "src1280": "https://cdn.pixabay.com/photo/2016/09/25/11/25/flower-1693468_1280.jpg"
    },
    {
        "id": "1653550",
        "src640": "https://cdn.pixabay.com/photo/2016/09/08/08/11/village-1653550_640.jpg",
        "src1280": "https://cdn.pixabay.com/photo/2016/09/08/08/11/village-1653550_1280.jpg"
    },
    {
        "id": "3784255",
        "src640": "https://cdn.pixabay.com/photo/2018/10/30/18/08/bornholm-marguerite-3784255_640.jpg",
        "src1280": "https://cdn.pixabay.com/photo/2018/10/30/18/08/bornholm-marguerite-3784255_1280.jpg"
    },
    {
        "id": "5054689",
        "src640": "https://cdn.pixabay.com/photo/2020/04/17/11/29/broom-5054689_640.jpg",
        "src1280": "https://cdn.pixabay.com/photo/2020/04/17/11/29/broom-5054689_1280.jpg"
    },
    {
        "id": "7862995",
        "src640": "https://cdn.pixabay.com/photo/2023/03/19/17/09/flower-7862995_640.jpg",
        "src1280": "https://cdn.pixabay.com/photo/2023/03/19/17/09/flower-7862995_1280.jpg"
    },
    {
        "id": "2263814",
        "src640": "https://cdn.pixabay.com/photo/2017/04/26/21/19/butterfly-2263814_640.jpg",
        "src1280": "https://cdn.pixabay.com/photo/2017/04/26/21/19/butterfly-2263814_1280.jpg"
    },
    {
        "id": "3374449",
        "src640": "https://cdn.pixabay.com/photo/2018/05/04/17/07/forget-me-not-3374449_640.jpg",
        "src1280": "https://cdn.pixabay.com/photo/2018/05/04/17/07/forget-me-not-3374449_1280.jpg"
    },
    {
        "id": "6218996",
        "src640": "https://cdn.pixabay.com/photo/2021/04/30/14/03/lotus-6218996_640.jpg",
        "src1280": "https://cdn.pixabay.com/photo/2021/04/30/14/03/lotus-6218996_1280.jpg"
    },
    {
        "id": "1319427",
        "src640": "https://cdn.pixabay.com/photo/2016/04/10/06/56/lily-1319427_640.jpg",
        "src1280": "https://cdn.pixabay.com/photo/2016/04/10/06/56/lily-1319427_1280.jpg"
    },
    {
        "id": "2534798",
        "src640": "https://cdn.pixabay.com/photo/2017/07/24/14/19/decembrist-2534798_640.jpg",
        "src1280": "https://cdn.pixabay.com/photo/2017/07/24/14/19/decembrist-2534798_1280.jpg"
    },
    {
        "id": "932753",
        "src640": "https://cdn.pixabay.com/photo/2015/09/09/19/24/fresh-932753_640.jpg",
        "src1280": "https://cdn.pixabay.com/photo/2015/09/09/19/24/fresh-932753_1280.jpg"
    },
    {
        "id": "350135",
        "src640": "https://cdn.pixabay.com/photo/2014/05/21/18/37/gypsophila-350135_640.jpg",
        "src1280": "https://cdn.pixabay.com/photo/2014/05/21/18/37/gypsophila-350135_1280.jpg"
    },
    {
        "id": "3252498",
        "src640": "https://cdn.pixabay.com/photo/2018/03/23/03/06/rose-3252498_640.jpg",
        "src1280": "https://cdn.pixabay.com/photo/2018/03/23/03/06/rose-3252498_1280.jpg"
    },
    {
        "id": "7075286",
        "src640": "https://cdn.pixabay.com/photo/2022/03/17/19/34/flower-7075286_640.jpg",
        "src1280": "https://cdn.pixabay.com/photo/2022/03/17/19/34/flower-7075286_1280.jpg"
    },
    {
        "id": "1510441",
        "src640": "https://cdn.pixabay.com/photo/2016/07/11/19/33/hollyhock-1510441_640.jpg",
        "src1280": "https://cdn.pixabay.com/photo/2016/07/11/19/33/hollyhock-1510441_1280.jpg"
    },
    {
        "id": "4644147",
        "src640": "https://cdn.pixabay.com/photo/2019/11/22/05/55/macro-4644147_640.jpg",
        "src1280": "https://cdn.pixabay.com/photo/2019/11/22/05/55/macro-4644147_1280.jpg"
    },
    {
        "id": "7278132",
        "src640": "https://cdn.pixabay.com/photo/2022/06/22/15/18/thistle-7278132_640.jpg",
        "src1280": "https://cdn.pixabay.com/photo/2022/06/22/15/18/thistle-7278132_1280.jpg"
    },
    {
        "id": "5139020",
        "src640": "https://cdn.pixabay.com/photo/2020/05/06/20/09/rose-5139020_640.jpg",
        "src1280": "https://cdn.pixabay.com/photo/2020/05/06/20/09/rose-5139020_1280.jpg"
    },
    {
        "id": "7338658",
        "src640": "https://cdn.pixabay.com/photo/2022/07/22/18/04/flower-7338658_640.jpg",
        "src1280": "https://cdn.pixabay.com/photo/2022/07/22/18/04/flower-7338658_1280.jpg"
    },
    {
        "id": "3405720",
        "src640": "https://cdn.pixabay.com/photo/2018/05/16/12/57/how-do-3405720_640.jpg",
        "src1280": "https://cdn.pixabay.com/photo/2018/05/16/12/57/how-do-3405720_1280.jpg"
    },
    {
        "id": "7190925",
        "src640": "https://cdn.pixabay.com/photo/2022/05/12/06/58/dandelion-7190925_640.jpg",
        "src1280": "https://cdn.pixabay.com/photo/2022/05/12/06/58/dandelion-7190925_1280.jpg"
    },
    {
        "id": "3990133",
        "src640": "https://cdn.pixabay.com/photo/2019/02/11/17/05/flower-3990133_640.jpg",
        "src1280": "https://cdn.pixabay.com/photo/2019/02/11/17/05/flower-3990133_1280.jpg"
    },
    {
        "id": "3373406",
        "src640": "https://cdn.pixabay.com/photo/2018/05/04/07/37/anemone-3373406_640.jpg",
        "src1280": "https://cdn.pixabay.com/photo/2018/05/04/07/37/anemone-3373406_1280.jpg"
    },
    {
        "id": "5136991",
        "src640": "https://cdn.pixabay.com/photo/2020/05/06/09/49/dianthus-5136991_640.jpg",
        "src1280": "https://cdn.pixabay.com/photo/2020/05/06/09/49/dianthus-5136991_1280.jpg"
    },
    {
        "id": "7235955",
        "src640": "https://cdn.pixabay.com/photo/2022/06/01/14/56/water-lily-7235955_640.jpg",
        "src1280": "https://cdn.pixabay.com/photo/2022/06/01/14/56/water-lily-7235955_1280.jpg"
    },
    {
        "id": "2253886",
        "src640": "https://cdn.pixabay.com/photo/2017/04/23/14/10/flowers-2253886_640.jpg",
        "src1280": "https://cdn.pixabay.com/photo/2017/04/23/14/10/flowers-2253886_1280.jpg"
    },
    {
        "id": "3723570",
        "src640": "https://cdn.pixabay.com/photo/2018/10/04/13/13/romantic-3723570_640.jpg",
        "src1280": "https://cdn.pixabay.com/photo/2018/10/04/13/13/romantic-3723570_1280.jpg"
    },
    {
        "id": "8027971",
        "src640": "https://cdn.pixabay.com/photo/2023/05/30/08/48/poppies-8027971_640.jpg",
        "src1280": "https://cdn.pixabay.com/photo/2023/05/30/08/48/poppies-8027971_1280.jpg"
    },
    {
        "id": "2549321",
        "src640": "https://cdn.pixabay.com/photo/2017/07/28/17/46/gladiolus-2549321_640.jpg",
        "src1280": "https://cdn.pixabay.com/photo/2017/07/28/17/46/gladiolus-2549321_1280.jpg"
    },
    {
        "id": "3419814",
        "src640": "https://cdn.pixabay.com/photo/2018/05/21/22/24/flowers-3419814_640.jpg",
        "src1280": "https://cdn.pixabay.com/photo/2018/05/21/22/24/flowers-3419814_1280.jpg"
    },
    {
        "id": "7961510",
        "src640": "https://cdn.pixabay.com/photo/2023/04/30/20/50/flower-7961510_640.jpg",
        "src1280": "https://cdn.pixabay.com/photo/2023/04/30/20/50/flower-7961510_1280.jpg"
    },
    {
        "id": "2086094",
        "src640": "https://cdn.pixabay.com/photo/2017/02/21/14/05/flower-2086094_640.jpg",
        "src1280": "https://cdn.pixabay.com/photo/2017/02/21/14/05/flower-2086094_1280.jpg"
    },
    {
        "id": "787256",
        "src640": "https://cdn.pixabay.com/photo/2015/05/27/22/04/bee-787256_640.jpg",
        "src1280": "https://cdn.pixabay.com/photo/2015/05/27/22/04/bee-787256_1280.jpg"
    },
    {
        "id": "810520",
        "src640": "https://cdn.pixabay.com/photo/2015/06/15/19/47/yellow-roses-810520_640.jpg",
        "src1280": "https://cdn.pixabay.com/photo/2015/06/15/19/47/yellow-roses-810520_1280.jpg"
    },
    {
        "id": "7126196",
        "src640": "https://cdn.pixabay.com/photo/2022/04/11/16/50/tulips-7126196_640.jpg",
        "src1280": "https://cdn.pixabay.com/photo/2022/04/11/16/50/tulips-7126196_1280.jpg"
    },
    {
        "id": "2357003",
        "src640": "https://cdn.pixabay.com/photo/2017/05/30/13/40/japanese-2357003_640.jpg",
        "src1280": "https://cdn.pixabay.com/photo/2017/05/30/13/40/japanese-2357003_1280.jpg"
    },
    {
        "id": "447868",
        "src640": "https://cdn.pixabay.com/photo/2014/09/16/07/31/glass-447868_640.jpg",
        "src1280": "https://cdn.pixabay.com/photo/2014/09/16/07/31/glass-447868_1280.jpg"
    },
    {
        "id": "3073714",
        "src640": "https://cdn.pixabay.com/photo/2018/01/10/12/11/flower-3073714_640.jpg",
        "src1280": "https://cdn.pixabay.com/photo/2018/01/10/12/11/flower-3073714_1280.jpg"
    },
    {
        "id": "640706",
        "src640": "https://cdn.pixabay.com/photo/2015/02/18/13/50/orchid-640706_640.jpg",
        "src1280": "https://cdn.pixabay.com/photo/2015/02/18/13/50/orchid-640706_1280.jpg"
    },
    {
        "id": "3272929",
        "src640": "https://cdn.pixabay.com/photo/2018/03/29/17/37/flower-3272929_640.jpg",
        "src1280": "https://cdn.pixabay.com/photo/2018/03/29/17/37/flower-3272929_1280.jpg"
    },
    {
        "id": "2420810",
        "src640": "https://cdn.pixabay.com/photo/2017/06/19/20/43/spa-2420810_640.jpg",
        "src1280": "https://cdn.pixabay.com/photo/2017/06/19/20/43/spa-2420810_1280.jpg"
    },
    {
        "id": "6325557",
        "src640": "https://cdn.pixabay.com/photo/2021/06/10/09/49/lotus-6325557_640.jpg",
        "src1280": "https://cdn.pixabay.com/photo/2021/06/10/09/49/lotus-6325557_1280.jpg"
    },
    {
        "id": "5317334",
        "src640": "https://cdn.pixabay.com/photo/2020/06/19/12/43/cranesbill-5317334_640.jpg",
        "src1280": "https://cdn.pixabay.com/photo/2020/06/19/12/43/cranesbill-5317334_1280.jpg"
    },
    {
        "id": "2185581",
        "src640": "https://cdn.pixabay.com/photo/2017/03/29/15/36/gladiolus-2185581_640.jpg",
        "src1280": "https://cdn.pixabay.com/photo/2017/03/29/15/36/gladiolus-2185581_1280.jpg"
    },
    {
        "id": "2535537",
        "src640": "https://cdn.pixabay.com/photo/2017/07/24/17/50/nature-2535537_640.jpg",
        "src1280": "https://cdn.pixabay.com/photo/2017/07/24/17/50/nature-2535537_1280.jpg"
    },
    {
        "id": "3338129",
        "src640": "https://cdn.pixabay.com/photo/2018/04/21/10/19/nature-3338129_640.jpg",
        "src1280": "https://cdn.pixabay.com/photo/2018/04/21/10/19/nature-3338129_1280.jpg"
    },
    {
        "id": "3999390",
        "src640": "https://cdn.pixabay.com/photo/2019/02/15/21/40/the-dandelion-3999390_640.jpg",
        "src1280": "https://cdn.pixabay.com/photo/2019/02/15/21/40/the-dandelion-3999390_1280.jpg"
    },
    {
        "id": "4094794",
        "src640": "https://cdn.pixabay.com/photo/2019/04/01/07/13/tulip-4094794_640.jpg",
        "src1280": "https://cdn.pixabay.com/photo/2019/04/01/07/13/tulip-4094794_1280.jpg"
    },
    {
        "id": "5248872",
        "src640": "https://cdn.pixabay.com/photo/2020/06/02/00/41/rose-5248872_640.jpg",
        "src1280": "https://cdn.pixabay.com/photo/2020/06/02/00/41/rose-5248872_1280.jpg"
    },
    {
        "id": "2463392",
        "src640": "https://cdn.pixabay.com/photo/2017/07/02/03/06/flower-2463392_640.jpg",
        "src1280": "https://cdn.pixabay.com/photo/2017/07/02/03/06/flower-2463392_1280.jpg"
    },
    {
        "id": "385100",
        "src640": "https://cdn.pixabay.com/photo/2014/07/05/23/12/hydrangea-385100_640.jpg",
        "src1280": "https://cdn.pixabay.com/photo/2014/07/05/23/12/hydrangea-385100_1280.jpg"
    },
    {
        "id": "1827722",
        "src640": "https://cdn.pixabay.com/photo/2016/11/15/22/38/rose-1827722_640.jpg",
        "src1280": "https://cdn.pixabay.com/photo/2016/11/15/22/38/rose-1827722_1280.jpg"
    },
    {
        "id": "7244607",
        "src640": "https://cdn.pixabay.com/photo/2022/06/05/18/19/poppy-7244607_640.jpg",
        "src1280": "https://cdn.pixabay.com/photo/2022/06/05/18/19/poppy-7244607_1280.jpg"
    },
    {
        "id": "7777430",
        "src640": "https://cdn.pixabay.com/photo/2023/02/08/20/26/flower-7777430_640.jpg",
        "src1280": "https://cdn.pixabay.com/photo/2023/02/08/20/26/flower-7777430_1280.jpg"
    },
    {
        "id": "4762495",
        "src640": "https://cdn.pixabay.com/photo/2020/01/13/14/08/flower-4762495_640.jpg",
        "src1280": "https://cdn.pixabay.com/photo/2020/01/13/14/08/flower-4762495_1280.jpg"
    },
    {
        "id": "5238678",
        "src640": "https://cdn.pixabay.com/photo/2020/05/30/12/21/japanese-bellflower-5238678_640.jpg",
        "src1280": "https://cdn.pixabay.com/photo/2020/05/30/12/21/japanese-bellflower-5238678_1280.jpg"
    },
    {
        "id": "4400183",
        "src640": "https://cdn.pixabay.com/photo/2019/08/12/01/51/aeonium-4400183_640.jpg",
        "src1280": "https://cdn.pixabay.com/photo/2019/08/12/01/51/aeonium-4400183_1280.jpg"
    },
    {
        "id": "7295801",
        "src640": "https://cdn.pixabay.com/photo/2022/07/01/15/22/butterfly-7295801_640.jpg",
        "src1280": "https://cdn.pixabay.com/photo/2022/07/01/15/22/butterfly-7295801_1280.jpg"
    },
    {
        "id": "1387247",
        "src640": "https://cdn.pixabay.com/photo/2016/05/12/08/38/hyacinth-1387247_640.jpg",
        "src1280": "https://cdn.pixabay.com/photo/2016/05/12/08/38/hyacinth-1387247_1280.jpg"
    },
    {
        "id": "6135052",
        "src640": "https://cdn.pixabay.com/photo/2021/03/29/19/08/rose-6135052_640.jpg",
        "src1280": "https://cdn.pixabay.com/photo/2021/03/29/19/08/rose-6135052_1280.jpg"
    },
    {
        "id": "13622",
        "src640": "https://cdn.pixabay.com/photo/2012/02/16/12/30/fuchsia-13622_640.jpg",
        "src1280": "https://cdn.pixabay.com/photo/2012/02/16/12/30/fuchsia-13622_1280.jpg"
    },
    {
        "id": "7738417",
        "src640": "https://cdn.pixabay.com/photo/2023/01/23/11/05/flower-7738417_640.jpg",
        "src1280": "https://cdn.pixabay.com/photo/2023/01/23/11/05/flower-7738417_1280.jpg"
    },
    {
        "id": "3539961",
        "src640": "https://cdn.pixabay.com/photo/2018/07/15/16/15/flower-3539961_640.jpg",
        "src1280": "https://cdn.pixabay.com/photo/2018/07/15/16/15/flower-3539961_1280.jpg"
    },
    {
        "id": "5956357",
        "src640": "https://cdn.pixabay.com/photo/2021/01/27/21/53/rose-5956357_640.jpg",
        "src1280": "https://cdn.pixabay.com/photo/2021/01/27/21/53/rose-5956357_1280.jpg"
    },
    {
        "id": "4264308",
        "src640": "https://cdn.pixabay.com/photo/2019/06/10/13/31/bud-4264308_640.jpg",
        "src1280": "https://cdn.pixabay.com/photo/2019/06/10/13/31/bud-4264308_1280.jpg"
    },
    {
        "id": "3755981",
        "src640": "https://cdn.pixabay.com/photo/2018/10/18/10/30/bicycle-3755981_640.jpg",
        "src1280": "https://cdn.pixabay.com/photo/2018/10/18/10/30/bicycle-3755981_1280.jpg"
    },
    {
        "id": "6188460",
        "src640": "https://cdn.pixabay.com/photo/2021/04/18/13/49/wood-anemone-6188460_640.jpg",
        "src1280": "https://cdn.pixabay.com/photo/2021/04/18/13/49/wood-anemone-6188460_1280.jpg"
    },
    {
        "id": "2728094",
        "src640": "https://cdn.pixabay.com/photo/2017/09/08/08/48/hibiscus-2728094_640.jpg",
        "src1280": "https://cdn.pixabay.com/photo/2017/09/08/08/48/hibiscus-2728094_1280.jpg"
    },
    {
        "id": "645328",
        "src640": "https://cdn.pixabay.com/photo/2015/02/22/18/24/spring-645328_640.jpg",
        "src1280": "https://cdn.pixabay.com/photo/2015/02/22/18/24/spring-645328_1280.jpg"
    },
    {
        "id": "5103483",
        "src640": "https://cdn.pixabay.com/photo/2020/04/28/08/52/keywords-fotomontaz-5103483_640.jpg",
        "src1280": "https://cdn.pixabay.com/photo/2020/04/28/08/52/keywords-fotomontaz-5103483_1280.jpg"
    },
    {
        "id": "6308781",
        "src640": "https://cdn.pixabay.com/photo/2021/06/04/05/08/allium-6308781_640.jpg",
        "src1280": "https://cdn.pixabay.com/photo/2021/06/04/05/08/allium-6308781_1280.jpg"
    },
    {
        "id": "1371122",
        "src640": "https://cdn.pixabay.com/photo/2016/05/04/10/04/flower-1371122_640.jpg",
        "src1280": "https://cdn.pixabay.com/photo/2016/05/04/10/04/flower-1371122_1280.jpg"
    },
    {
        "id": "1034909",
        "src640": "https://cdn.pixabay.com/photo/2015/11/09/09/17/orchid-1034909_640.jpg",
        "src1280": "https://cdn.pixabay.com/photo/2015/11/09/09/17/orchid-1034909_1280.jpg"
    },
    {
        "id": "4198191",
        "src640": "https://cdn.pixabay.com/photo/2019/05/12/14/12/natural-4198191_640.jpg",
        "src1280": "https://cdn.pixabay.com/photo/2019/05/12/14/12/natural-4198191_1280.jpg"
    },
    {
        "id": "5395204",
        "src640": "https://cdn.pixabay.com/photo/2020/07/11/20/03/phlox-5395204_640.jpg",
        "src1280": "https://cdn.pixabay.com/photo/2020/07/11/20/03/phlox-5395204_1280.jpg"
    },
    {
        "id": "8157436",
        "src640": "https://cdn.pixabay.com/photo/2023/07/29/17/54/bee-8157436_640.jpg",
        "src1280": "https://cdn.pixabay.com/photo/2023/07/29/17/54/bee-8157436_1280.jpg"
    },
    {
        "id": "686399",
        "src640": "https://cdn.pixabay.com/photo/2015/03/23/17/53/flower-686399_640.jpg",
        "src1280": "https://cdn.pixabay.com/photo/2015/03/23/17/53/flower-686399_1280.jpg"
    },
    {
        "id": "4170553",
        "src640": "https://cdn.pixabay.com/photo/2019/05/01/11/10/rose-4170553_640.jpg",
        "src1280": "https://cdn.pixabay.com/photo/2019/05/01/11/10/rose-4170553_1280.jpg"
    },
    {
        "id": "8419",
        "src640": "https://cdn.pixabay.com/photo/2011/08/03/01/18/vetch-8419_640.jpg",
        "src1280": "https://cdn.pixabay.com/photo/2011/08/03/01/18/vetch-8419_1280.jpg"
    },
    {
        "id": "4239439",
        "src640": "https://cdn.pixabay.com/photo/2019/05/30/09/43/iris-4239439_640.jpg",
        "src1280": "https://cdn.pixabay.com/photo/2019/05/30/09/43/iris-4239439_1280.jpg"
    },
    {
        "id": "3497418",
        "src640": "https://cdn.pixabay.com/photo/2018/06/25/17/04/hyacinth-3497418_640.jpg",
        "src1280": "https://cdn.pixabay.com/photo/2018/06/25/17/04/hyacinth-3497418_1280.jpg"
    },
    {
        "id": "994567",
        "src640": "https://cdn.pixabay.com/photo/2015/10/18/15/14/field-994567_640.jpg",
        "src1280": "https://cdn.pixabay.com/photo/2015/10/18/15/14/field-994567_1280.jpg"
    },
    {
        "id": "7164072",
        "src640": "https://cdn.pixabay.com/photo/2022/04/29/16/37/allium-7164072_640.jpg",
        "src1280": "https://cdn.pixabay.com/photo/2022/04/29/16/37/allium-7164072_1280.jpg"
    },
    {
        "id": "4367914",
        "src640": "https://cdn.pixabay.com/photo/2019/07/28/04/19/flower-4367914_640.jpg",
        "src1280": "https://cdn.pixabay.com/photo/2019/07/28/04/19/flower-4367914_1280.jpg"
    }
]