[
    {
        "id": "7610184",
        "src640": "https://cdn.pixabay.com/photo/2022/11/22/17/04/rose-7610184_640.jpg",
        "src1280": "https://cdn.pixabay.com/photo/2022/11/22/17/04/rose-7610184_1280.jpg"
    },
    {
        "id": "3150508",
        "src640": "https://cdn.pixabay.com/photo/2018/02/13/11/11/nature-3150508_640.jpg",
        "src1280": "https://cdn.pixabay.com/photo/2018/02/13/11/11/nature-3150508_1280.jpg"
    },
    {
        "id": "4226682",
        "src640": "https://cdn.pixabay.com/photo/2019/05/24/16/47/tulip-4226682_640.jpg",
        "src1280": "https://cdn.pixabay.com/photo/2019/05/24/16/47/tulip-4226682_1280.jpg"
    },
    {
        "id": "8207337",
        "src640": "https://cdn.pixabay.com/photo/2023/08/22/23/32/ai-generated-8207337_640.jpg",
        "src1280": "https://cdn.pixabay.com/photo/2023/08/22/23/32/ai-generated-8207337_1280.jpg"
    },
    {
        "id": "7190954",
        "src640": "https://cdn.pixabay.com/photo/2022/05/12/07/12/flower-7190954_640.jpg",
        "src1280": "https://cdn.pixabay.com/photo/2022/05/12/07/12/flower-7190954_1280.jpg"
    },
    {
        "id": "8066639",
        "src640": "https://cdn.pixabay.com/photo/2023/06/15/23/07/grape-hyacinth-8066639_640.jpg",
        "src1280": "https://cdn.pixabay.com/photo/2023/06/15/23/07/grape-hyacinth-8066639_1280.jpg"
    },
    {
        "id": "21875",
        "src640": "https://cdn.pixabay.com/photo/2012/03/04/00/19/beautiful-21875_640.jpg",
        "src1280": "https://cdn.pixabay.com/photo/2012/03/04/00/19/beautiful-21875_1280.jpg"
    },
    {
        "id": "6315396",
        "src640": "https://cdn.pixabay.com/photo/2021/06/06/13/42/woman-6315396_640.jpg",
        "src1280": "https://cdn.pixabay.com/photo/2021/06/06/13/42/woman-6315396_1280.jpg"
    },
    {
        "id": "670574",
        "src640": "https://cdn.pixabay.com/photo/2015/03/12/17/58/flower-670574_640.jpg",
        "src1280": "https://cdn.pixabay.com/photo/2015/03/12/17/58/flower-670574_1280.jpg"
    },
    {
        "id": "3071177",
        "src640": "https://cdn.pixabay.com/photo/2018/01/09/09/30/cactus-3071177_640.jpg",
        "src1280": "https://cdn.pixabay.com/photo/2018/01/09/09/30/cactus-3071177_1280.jpg"
    },
    {
        "id": "4812487",
        "src640": "https://cdn.pixabay.com/photo/2020/02/02/09/46/painting-4812487_640.jpg",
        "src1280": "https://cdn.pixabay.com/photo/2020/02/02/09/46/painting-4812487_1280.jpg"
    },
    {
        "id": "3338129",
        "src640": "https://cdn.pixabay.com/photo/2018/04/21/10/19/nature-3338129_640.jpg",
        "src1280": "https://cdn.pixabay.com/photo/2018/04/21/10/19/nature-3338129_1280.jpg"
    },
    {
        "id": "3068809",
        "src640": "https://cdn.pixabay.com/photo/2018/01/08/06/01/lupine-3068809_640.jpg",
        "src1280": "https://cdn.pixabay.com/photo/2018/01/08/06/01/lupine-3068809_1280.jpg"
    },
    {
        "id": "4236001",
        "src640": "https://cdn.pixabay.com/photo/2019/05/28/19/51/hydrangea-4236001_640.jpg",
        "src1280": "https://cdn.pixabay.com/photo/2019/05/28/19/51/hydrangea-4236001_1280.jpg"
    },
    {
        "id": "7975426",
        "src640": "https://cdn.pixabay.com/photo/2023/05/07/03/20/flower-7975426_640.jpg",
        "src1280": "https://cdn.pixabay.com/photo/2023/05/07/03/20/flower-7975426_1280.jpg"
    },
    {
        "id": "6812596",
        "src640": "https://cdn.pixabay.com/photo/2021/11/20/18/42/flower-6812596_640.jpg",
        "src1280": "https://cdn.pixabay.com/photo/2021/11/20/18/42/flower-6812596_1280.jpg"
    },
    {
        "id": "4233033",
        "src640": "https://cdn.pixabay.com/photo/2019/05/27/16/29/flowers-4233033_640.jpg",
        "src1280": "https://cdn.pixabay.com/photo/2019/05/27/16/29/flowers-4233033_1280.jpg"
    },
    {
        "id": "4256343",
        "src640": "https://cdn.pixabay.com/photo/2019/06/06/16/58/poppy-4256343_640.jpg",
        "src1280": "https://cdn.pixabay.com/photo/2019/06/06/16/58/poppy-4256343_1280.jpg"
    },
    {
        "id": "1361046",
        "src640": "https://cdn.pixabay.com/photo/2016/04/29/14/28/wild-rose-1361046_640.jpg",
        "src1280": "https://cdn.pixabay.com/photo/2016/04/29/14/28/wild-rose-1361046_1280.jpg"
    },
    {
        "id": "7822054",
        "src640": "https://cdn.pixabay.com/photo/2023/03/01/01/35/ai-generated-7822054_640.jpg",
        "src1280": "https://cdn.pixabay.com/photo/2023/03/01/01/35/ai-generated-7822054_1280.jpg"
    },
    {
        "id": "1398672",
        "src640": "https://cdn.pixabay.com/photo/2016/05/17/17/27/pentecost-1398672_640.jpg",
        "src1280": "https://cdn.pixabay.com/photo/2016/05/17/17/27/pentecost-1398672_1280.jpg"
    },
    {
        "id": "4138398",
        "src640": "https://cdn.pixabay.com/photo/2019/04/19/01/06/bouquet-4138398_640.jpg",
        "src1280": "https://cdn.pixabay.com/photo/2019/04/19/01/06/bouquet-4138398_1280.jpg"
    },
    {
        "id": "8047184",
        "src640": "https://cdn.pixabay.com/photo/2023/06/07/13/01/flowers-8047184_640.jpg",
        "src1280": "https://cdn.pixabay.com/photo/2023/06/07/13/01/flowers-8047184_1280.jpg"
    },
    {
        "id": "4024509",
        "src640": "https://cdn.pixabay.com/photo/2019/02/27/17/26/crocus-4024509_640.jpg",
        "src1280": "https://cdn.pixabay.com/photo/2019/02/27/17/26/crocus-4024509_1280.jpg"
    },
    {
        "id": "7032714",
        "src640": "https://cdn.pixabay.com/photo/2022/02/24/16/04/woman-7032714_640.jpg",
        "src1280": "https://cdn.pixabay.com/photo/2022/02/24/16/04/woman-7032714_1280.jpg"
    },
    {
        "id": "3335531",
        "src640": "https://cdn.pixabay.com/photo/2018/04/20/09/35/fantasy-3335531_640.jpg",
        "src1280": "https://cdn.pixabay.com/photo/2018/04/20/09/35/fantasy-3335531_1280.jpg"
    },
    {
        "id": "6612270",
        "src640": "https://cdn.pixabay.com/photo/2021/09/10/06/10/rose-6612270_640.jpg",
        "src1280": "https://cdn.pixabay.com/photo/2021/09/10/06/10/rose-6612270_1280.jpg"
    },
    {
        "id": "6704568",
        "src640": "https://cdn.pixabay.com/photo/2021/10/12/19/23/flower-6704568_640.jpg",
        "src1280": "https://cdn.pixabay.com/photo/2021/10/12/19/23/flower-6704568_1280.jpg"
    },
    {
        "id": "7902618",
        "src640": "https://cdn.pixabay.com/photo/2023/04/06/01/52/flower-7902618_640.jpg",
        "src1280": "https://cdn.pixabay.com/photo/2023/04/06/01/52/flower-7902618_1280.jpg"
    },
    {
        "id": "1532173",
        "src640": "https://cdn.pixabay.com/photo/2016/07/21/10/27/flower-1532173_640.jpg",
        "src1280": "https://cdn.pixabay.com/photo/2016/07/21/10/27/flower-1532173_1280.jpg"
    },
    {
        "id": "1830485",
        "src640": "https://cdn.pixabay.com/photo/2016/11/17/01/05/flower-1830485_640.jpg",
        "src1280": "https://cdn.pixabay.com/photo/2016/11/17/01/05/flower-1830485_1280.jpg"
    },
    {
        "id": "2573887",
        "src640": "https://cdn.pixabay.com/photo/2017/08/02/23/00/lily-2573887_640.jpg",
        "src1280": "https://cdn.pixabay.com/photo/2017/08/02/23/00/lily-2573887_1280.jpg"
    },
    {
        "id": "7095562",
        "src640": "https://cdn.pixabay.com/photo/2022/03/27/16/24/scilla-7095562_640.jpg",
        "src1280": "https://cdn.pixabay.com/photo/2022/03/27/16/24/scilla-7095562_1280.jpg"
    },
    {
        "id": "972369",
        "src640": "https://cdn.pixabay.com/photo/2015/10/05/09/48/blossom-972369_640.jpg",
        "src1280": "https://cdn.pixabay.com/photo/2015/10/05/09/48/blossom-972369_1280.jpg"
    },
    {
        "id": "7508653",
        "src640": "https://cdn.pixabay.com/photo/2022/10/09/09/26/rose-7508653_640.jpg",
        "src1280": "https://cdn.pixabay.com/photo/2022/10/09/09/26/rose-7508653_1280.jpg"
    },
    {
        "id": "5276876",
        "src640": "https://cdn.pixabay.com/photo/2020/06/09/04/35/passion-flower-5276876_640.jpg",
        "src1280": "https://cdn.pixabay.com/photo/2020/06/09/04/35/passion-flower-5276876_1280.jpg"
    },
    {
        "id": "258569",
        "src640": "https://cdn.pixabay.com/photo/2014/02/04/23/23/rose-258569_640.jpg",
        "src1280": "https://cdn.pixabay.com/photo/2014/02/04/23/23/rose-258569_1280.jpg"
    },
    {
        "id": "5187510",
        "src640": "https://cdn.pixabay.com/photo/2020/05/18/17/03/cornflower-5187510_640.jpg",
        "src1280": "https://cdn.pixabay.com/photo/2020/05/18/17/03/cornflower-5187510_1280.jpg"
    },
    {
        "id": "3384577",
        "src640": "https://cdn.pixabay.com/photo/2018/05/09/05/10/anemone-3384577_640.jpg",
        "src1280": "https://cdn.pixabay.com/photo/2018/05/09/05/10/anemone-3384577_1280.jpg"
    },
    {
        "id": "7605294",
        "src640": "https://cdn.pixabay.com/photo/2022/11/20/21/25/cat-7605294_640.jpg",
        "src1280": "https://cdn.pixabay.com/photo/2022/11/20/21/25/cat-7605294_1280.jpg"
    },
    {
        "id": "1340681",
        "src640": "https://cdn.pixabay.com/photo/2016/04/20/08/29/lantana-1340681_640.jpg",
        "src1280": "https://cdn.pixabay.com/photo/2016/04/20/08/29/lantana-1340681_1280.jpg"
    },
    {
        "id": "3354424",
        "src640": "https://cdn.pixabay.com/photo/2018/04/27/11/36/plant-3354424_640.jpg",
        "src1280": "https://cdn.pixabay.com/photo/2018/04/27/11/36/plant-3354424_1280.jpg"
    },
    {
        "id": "3720121",
        "src640": "https://cdn.pixabay.com/photo/2018/10/02/23/00/aster-3720121_640.jpg",
        "src1280": "https://cdn.pixabay.com/photo/2018/10/02/23/00/aster-3720121_1280.jpg"
    },
    {
        "id": "3123822",
        "src640": "https://cdn.pixabay.com/photo/2018/02/01/19/14/tulip-3123822_640.jpg",
        "src1280": "https://cdn.pixabay.com/photo/2018/02/01/19/14/tulip-3123822_1280.jpg"
    },
    {
        "id": "2649558",
        "src640": "https://cdn.pixabay.com/photo/2017/08/16/23/54/daisy-2649558_640.jpg",
        "src1280": "https://cdn.pixabay.com/photo/2017/08/16/23/54/daisy-2649558_1280.jpg"
    },
    {
        "id": "1537233",
        "src640": "https://cdn.pixabay.com/photo/2016/07/23/17/46/ranunculus-aconitifolius-1537233_640.jpg",
        "src1280": "https://cdn.pixabay.com/photo/2016/07/23/17/46/ranunculus-aconitifolius-1537233_1280.jpg"
    },
    {
        "id": "2057744",
        "src640": "https://cdn.pixabay.com/photo/2017/02/11/14/19/still-life-2057744_640.jpg",
        "src1280": "https://cdn.pixabay.com/photo/2017/02/11/14/19/still-life-2057744_1280.jpg"
    },
    {
        "id": "1833072",
        "src640": "https://cdn.pixabay.com/photo/2016/11/18/00/43/watercolour-1833072_640.jpg",
        "src1280": "https://cdn.pixabay.com/photo/2016/11/18/00/43/watercolour-1833072_1280.jpg"
    },
    {
        "id": "3514040",
        "src640": "https://cdn.pixabay.com/photo/2018/07/03/15/09/girl-3514040_640.jpg",
        "src1280": "https://cdn.pixabay.com/photo/2018/07/03/15/09/girl-3514040_1280.jpg"
    },
    {
        "id": "4212210",
        "src640": "https://cdn.pixabay.com/photo/2019/05/18/18/16/roses-4212210_640.jpg",
        "src1280": "https://cdn.pixabay.com/photo/2019/05/18/18/16/roses-4212210_1280.jpg"
    },
    {
        "id": "5696125",
        "src640": "https://cdn.pixabay.com/photo/2020/10/29/12/52/herbstastern-5696125_640.jpg",
        "src1280": "https://cdn.pixabay.com/photo/2020/10/29/12/52/herbstastern-5696125_1280.jpg"
    },
    {
        "id": "4666885",
        "src640": "https://cdn.pixabay.com/photo/2019/12/02/04/30/rose-4666885_640.jpg",
        "src1280": "https://cdn.pixabay.com/photo/2019/12/02/04/30/rose-4666885_1280.jpg"
    },
    {
        "id": "4225797",
        "src640": "https://cdn.pixabay.com/photo/2019/05/24/08/45/flower-4225797_640.jpg",
        "src1280": "https://cdn.pixabay.com/photo/2019/05/24/08/45/flower-4225797_1280.jpg"
    },
    {
        "id": "1968018",
        "src640": "https://cdn.pixabay.com/photo/2017/01/10/00/08/sun-flower-1968018_640.jpg",
        "src1280": "https://cdn.pixabay.com/photo/2017/01/10/00/08/sun-flower-1968018_1280.jpg"
    },
    {
        "id": "5054099",
        "src640": "https://cdn.pixabay.com/photo/2020/04/17/10/04/flowers-5054099_640.jpg",
        "src1280": "https://cdn.pixabay.com/photo/2020/04/17/10/04/flowers-5054099_1280.jpg"
    },
    {
        "id": "3730848",
        "src640": "https://cdn.pixabay.com/photo/2018/10/07/17/54/autumn-3730848_640.jpg",
        "src1280": "https://cdn.pixabay.com/photo/2018/10/07/17/54/autumn-3730848_1280.jpg"
    },
    {
        "id": "891375",
        "src640": "https://cdn.pixabay.com/photo/2015/08/16/17/42/torch-lily-891375_640.jpg",
        "src1280": "https://cdn.pixabay.com/photo/2015/08/16/17/42/torch-lily-891375_1280.jpg"
    },
    {
        "id": "6604733",
        "src640": "https://cdn.pixabay.com/photo/2021/09/07/19/04/woman-6604733_640.jpg",
        "src1280": "https://cdn.pixabay.com/photo/2021/09/07/19/04/woman-6604733_1280.jpg"
    },
    {
        "id": "8102958",
        "src640": "https://cdn.pixabay.com/photo/2023/07/02/20/47/poppy-8102958_640.jpg",
        "src1280": "https://cdn.pixabay.com/photo/2023/07/02/20/47/poppy-8102958_1280.jpg"
    },
    {
        "id": "7433578",
        "src640": "https://cdn.pixabay.com/photo/2022/09/05/08/06/flower-7433578_640.jpg",
        "src1280": "https://cdn.pixabay.com/photo/2022/09/05/08/06/flower-7433578_1280.jpg"
    },
    {
        "id": "7030264",
        "src640": "https://cdn.pixabay.com/photo/2022/02/23/08/23/flowers-7030264_640.jpg",
        "src1280": "https://cdn.pixabay.com/photo/2022/02/23/08/23/flowers-7030264_1280.jpg"
    },
    {
        "id": "4684945",
        "src640": "https://cdn.pixabay.com/photo/2019/12/10/04/32/lily-4684945_640.jpg",
        "src1280": "https://cdn.pixabay.com/photo/2019/12/10/04/32/lily-4684945_1280.jpg"
    },
    {
        "id": "474559",
        "src640": "https://cdn.pixabay.com/photo/2014/10/05/06/07/rape-blossoms-474559_640.jpg",
        "src1280": "https://cdn.pixabay.com/photo/2014/10/05/06/07/rape-blossoms-474559_1280.jpg"
    },
    {
        "id": "6066088",
        "src640": "https://cdn.pixabay.com/photo/2021/03/03/19/31/violet-6066088_640.jpg",
        "src1280": "https://cdn.pixabay.com/photo/2021/03/03/19/31/violet-6066088_1280.jpg"
    },
    {
        "id": "5279694",
        "src640": "https://cdn.pixabay.com/photo/2020/06/09/19/10/butterfly-5279694_640.jpg",
        "src1280": "https://cdn.pixabay.com/photo/2020/06/09/19/10/butterfly-5279694_1280.jpg"
    },
    {
        "id": "3989344",
        "src640": "https://cdn.pixabay.com/photo/2019/02/11/11/08/rain-lilies-3989344_640.jpg",
        "src1280": "https://cdn.pixabay.com/photo/2019/02/11/11/08/rain-lilies-3989344_1280.jpg"
    },
    {
        "id": "5705527",
        "src640": "https://cdn.pixabay.com/photo/2020/11/02/02/53/girl-5705527_640.jpg",
        "src1280": "https://cdn.pixabay.com/photo/2020/11/02/02/53/girl-5705527_1280.jpg"
    },
    {
        "id": "3212635",
        "src640": "https://cdn.pixabay.com/photo/2018/03/09/21/19/flower-3212635_640.jpg",
        "src1280": "https://cdn.pixabay.com/photo/2018/03/09/21/19/flower-3212635_1280.jpg"
    },
    {
        "id": "7893023",
        "src640": "https://cdn.pixabay.com/photo/2023/04/01/19/41/flower-7893023_640.jpg",
        "src1280": "https://cdn.pixabay.com/photo/2023/04/01/19/41/flower-7893023_1280.jpg"
    },
    {
        "id": "8325464",
        "src640": "https://cdn.pixabay.com/photo/2023/10/19/03/07/flower-8325464_640.jpg",
        "src1280": "https://cdn.pixabay.com/photo/2023/10/19/03/07/flower-8325464_1280.jpg"
    },
    {
        "id": "1449060",
        "src640": "https://cdn.pixabay.com/photo/2016/06/10/22/59/dandelion-1449060_640.jpg",
        "src1280": "https://cdn.pixabay.com/photo/2016/06/10/22/59/dandelion-1449060_1280.jpg"
    },
    {
        "id": "7829687",
        "src640": "https://cdn.pixabay.com/photo/2023/03/04/14/55/crocus-7829687_640.jpg",
        "src1280": "https://cdn.pixabay.com/photo/2023/03/04/14/55/crocus-7829687_1280.jpg"
    },
    {
        "id": "2371960",
        "src640": "https://cdn.pixabay.com/photo/2017/06/04/19/18/himalayan-blue-poppy-2371960_640.jpg",
        "src1280": "https://cdn.pixabay.com/photo/2017/06/04/19/18/himalayan-blue-poppy-2371960_1280.jpg"
    },
    {
        "id": "4213100",
        "src640": "https://cdn.pixabay.com/photo/2019/05/19/02/59/rose-4213100_640.jpg",
        "src1280": "https://cdn.pixabay.com/photo/2019/05/19/02/59/rose-4213100_1280.jpg"
    },
    {
        "id": "6752136",
        "src640": "https://cdn.pixabay.com/photo/2021/10/29/15/05/flowers-6752136_640.jpg",
        "src1280": "https://cdn.pixabay.com/photo/2021/10/29/15/05/flowers-6752136_1280.jpg"
    },
    {
        "id": "8079528",
        "src640": "https://cdn.pixabay.com/photo/2023/06/21/15/07/butterfly-8079528_640.jpg",
        "src1280": "https://cdn.pixabay.com/photo/2023/06/21/15/07/butterfly-8079528_1280.jpg"
    },
    {
        "id": "8447021",
        "src640": "https://cdn.pixabay.com/photo/2023/12/13/14/24/pink-8447021_640.jpg",
        "src1280": "https://cdn.pixabay.com/photo/2023/12/13/14/24/pink-8447021_1280.jpg"
    },
    {
        "id": "6885306",
        "src640": "https://cdn.pixabay.com/photo/2021/12/21/13/54/flowers-6885306_640.jpg",
        "src1280": "https://cdn.pixabay.com/photo/2021/12/21/13/54/flowers-6885306_1280.jpg"
    },
    {
        "id": "6585406",
        "src640": "https://cdn.pixabay.com/photo/2021/08/30/09/49/woman-6585406_640.jpg",
        "src1280": "https://cdn.pixabay.com/photo/2021/08/30/09/49/woman-6585406_1280.jpg"
    }
]