[
    {
        "id": "5129875",
        "src640": "https://cdn.pixabay.com/photo/2020/05/04/16/57/tulip-5129875_640.jpg",
        "src1280": "https://cdn.pixabay.com/photo/2020/05/04/16/57/tulip-5129875_1280.jpg"
    },
    {
        "id": "2506079",
        "src640": "https://cdn.pixabay.com/photo/2017/07/15/10/58/flower-2506079_640.jpg",
        "src1280": "https://cdn.pixabay.com/photo/2017/07/15/10/58/flower-2506079_1280.jpg"
    },
    {
        "id": "3229123",
        "src640": "https://cdn.pixabay.com/photo/2018/03/15/18/28/calendula-3229123_640.jpg",
        "src1280": "https://cdn.pixabay.com/photo/2018/03/15/18/28/calendula-3229123_1280.jpg"
    },
    {
        "id": "4890346",
        "src640": "https://cdn.pixabay.com/photo/2020/02/29/14/54/violet-4890346_640.jpg",
        "src1280": "https://cdn.pixabay.com/photo/2020/02/29/14/54/violet-4890346_1280.jpg"
    },
    {
        "id": "6610439",
        "src640": "https://cdn.pixabay.com/photo/2021/09/09/12/26/woman-6610439_640.jpg",
        "src1280": "https://cdn.pixabay.com/photo/2021/09/09/12/26/woman-6610439_1280.jpg"
    },
    {
        "id": "3987644",
        "src640": "https://cdn.pixabay.com/photo/2019/02/10/16/47/rose-3987644_640.jpg",
        "src1280": "https://cdn.pixabay.com/photo/2019/02/10/16/47/rose-3987644_1280.jpg"
    },
    {
        "id": "8202923",
        "src640": "https://cdn.pixabay.com/photo/2023/08/20/18/26/flower-8202923_640.jpg",
        "src1280": "https://cdn.pixabay.com/photo/2023/08/20/18/26/flower-8202923_1280.jpg"
    },
    {
        "id": "5632473",
        "src640": "https://cdn.pixabay.com/photo/2020/10/06/15/15/flower-5632473_640.jpg",
        "src1280": "https://cdn.pixabay.com/photo/2020/10/06/15/15/flower-5632473_1280.jpg"
    },
    {
        "id": "3167495",
        "src640": "https://cdn.pixabay.com/photo/2018/02/20/12/15/flower-3167495_640.jpg",
        "src1280": "https://cdn.pixabay.com/photo/2018/02/20/12/15/flower-3167495_1280.jpg"
    },
    {
        "id": "4143637",
        "src640": "https://cdn.pixabay.com/photo/2019/04/21/08/37/tulip-4143637_640.jpg",
        "src1280": "https://cdn.pixabay.com/photo/2019/04/21/08/37/tulip-4143637_1280.jpg"
    },
    {
        "id": "4676917",
        "src640": "https://cdn.pixabay.com/photo/2019/12/06/08/29/flowers-4676917_640.jpg",
        "src1280": "https://cdn.pixabay.com/photo/2019/12/06/08/29/flowers-4676917_1280.jpg"
    },
    {
        "id": "3261089",
        "src640": "https://cdn.pixabay.com/photo/2018/03/25/22/54/bridal-3261089_640.jpg",
        "src1280": "https://cdn.pixabay.com/photo/2018/03/25/22/54/bridal-3261089_1280.jpg"
    },
    {
        "id": "7075235",
        "src640": "https://cdn.pixabay.com/photo/2022/03/17/18/56/flower-7075235_640.jpg",
        "src1280": "https://cdn.pixabay.com/photo/2022/03/17/18/56/flower-7075235_1280.jpg"
    },
    {
        "id": "7305021",
        "src640": "https://cdn.pixabay.com/photo/2022/07/06/12/30/lotus-7305021_640.jpg",
        "src1280": "https://cdn.pixabay.com/photo/2022/07/06/12/30/lotus-7305021_1280.jpg"
    },
    {
        "id": "3302203",
        "src640": "https://cdn.pixabay.com/photo/2018/04/08/19/17/rose-3302203_640.jpg",
        "src1280": "https://cdn.pixabay.com/photo/2018/04/08/19/17/rose-3302203_1280.jpg"
    },
    {
        "id": "3642069",
        "src640": "https://cdn.pixabay.com/photo/2018/08/30/12/34/rose-3642069_640.jpg",
        "src1280": "https://cdn.pixabay.com/photo/2018/08/30/12/34/rose-3642069_1280.jpg"
    },
    {
        "id": "4314082",
        "src640": "https://cdn.pixabay.com/photo/2019/07/03/10/08/flower-4314082_640.jpg",
        "src1280": "https://cdn.pixabay.com/photo/2019/07/03/10/08/flower-4314082_1280.jpg"
    },
    {
        "id": "8447810",
        "src640": "https://cdn.pixabay.com/photo/2023/12/13/21/55/ai-generated-8447810_640.jpg",
        "src1280": "https://cdn.pixabay.com/photo/2023/12/13/21/55/ai-generated-8447810_1280.jpg"
    },
    {
        "id": "3654529",
        "src640": "https://cdn.pixabay.com/photo/2018/09/04/19/38/hydrangea-3654529_640.jpg",
        "src1280": "https://cdn.pixabay.com/photo/2018/09/04/19/38/hydrangea-3654529_1280.jpg"
    },
    {
        "id": "4047277",
        "src640": "https://cdn.pixabay.com/photo/2019/03/10/21/00/tulip-4047277_640.jpg",
        "src1280": "https://cdn.pixabay.com/photo/2019/03/10/21/00/tulip-4047277_1280.jpg"
    },
    {
        "id": "8028883",
        "src640": "https://cdn.pixabay.com/photo/2023/05/30/15/10/poppy-8028883_640.jpg",
        "src1280": "https://cdn.pixabay.com/photo/2023/05/30/15/10/poppy-8028883_1280.jpg"
    },
    {
        "id": "5313926",
        "src640": "https://cdn.pixabay.com/photo/2020/06/18/15/06/portrait-5313926_640.jpg",
        "src1280": "https://cdn.pixabay.com/photo/2020/06/18/15/06/portrait-5313926_1280.jpg"
    },
    {
        "id": "7406336",
        "src640": "https://cdn.pixabay.com/photo/2022/08/23/18/55/flower-7406336_640.jpg",
        "src1280": "https://cdn.pixabay.com/photo/2022/08/23/18/55/flower-7406336_1280.jpg"
    },
    {
        "id": "626965",
        "src640": "https://cdn.pixabay.com/photo/2015/02/07/09/07/magnolia-flower-626965_640.jpg",
        "src1280": "https://cdn.pixabay.com/photo/2015/02/07/09/07/magnolia-flower-626965_1280.jpg"
    },
    {
        "id": "2514611",
        "src640": "https://cdn.pixabay.com/photo/2017/07/18/03/08/lys-2514611_640.jpg",
        "src1280": "https://cdn.pixabay.com/photo/2017/07/18/03/08/lys-2514611_1280.jpg"
    },
    {
        "id": "2806870",
        "src640": "https://cdn.pixabay.com/photo/2017/10/01/20/24/roses-2806870_640.jpg",
        "src1280": "https://cdn.pixabay.com/photo/2017/10/01/20/24/roses-2806870_1280.jpg"
    },
    {
        "id": "4353498",
        "src640": "https://cdn.pixabay.com/photo/2019/07/21/19/52/coffee-pot-4353498_640.jpg",
        "src1280": "https://cdn.pixabay.com/photo/2019/07/21/19/52/coffee-pot-4353498_1280.jpg"
    },
    {
        "id": "634524",
        "src640": "https://cdn.pixabay.com/photo/2015/02/13/00/15/flower-634524_640.jpg",
        "src1280": "https://cdn.pixabay.com/photo/2015/02/13/00/15/flower-634524_1280.jpg"
    },
    {
        "id": "3461970",
        "src640": "https://cdn.pixabay.com/photo/2018/06/08/09/19/daisies-3461970_640.jpg",
        "src1280": "https://cdn.pixabay.com/photo/2018/06/08/09/19/daisies-3461970_1280.jpg"
    },
    {
        "id": "142428",
        "src640": "https://cdn.pixabay.com/photo/2013/06/30/17/30/rose-142428_640.jpg",
        "src1280": "https://cdn.pixabay.com/photo/2013/06/30/17/30/rose-142428_1280.jpg"
    },
    {
        "id": "4099085",
        "src640": "https://cdn.pixabay.com/photo/2019/04/02/22/27/flower-4099085_640.jpg",
        "src1280": "https://cdn.pixabay.com/photo/2019/04/02/22/27/flower-4099085_1280.jpg"
    },
    {
        "id": "4875463",
        "src640": "https://cdn.pixabay.com/photo/2020/02/24/07/50/flower-4875463_640.jpg",
        "src1280": "https://cdn.pixabay.com/photo/2020/02/24/07/50/flower-4875463_1280.jpg"
    },
    {
        "id": "3071677",
        "src640": "https://cdn.pixabay.com/photo/2018/01/09/14/19/nature-3071677_640.jpg",
        "src1280": "https://cdn.pixabay.com/photo/2018/01/09/14/19/nature-3071677_1280.jpg"
    },
    {
        "id": "4956917",
        "src640": "https://cdn.pixabay.com/photo/2020/03/22/12/15/flowers-4956917_640.jpg",
        "src1280": "https://cdn.pixabay.com/photo/2020/03/22/12/15/flowers-4956917_1280.jpg"
    },
    {
        "id": "736896",
        "src640": "https://cdn.pixabay.com/photo/2015/04/23/22/09/wedding-ring-736896_640.jpg",
        "src1280": "https://cdn.pixabay.com/photo/2015/04/23/22/09/wedding-ring-736896_1280.jpg"
    },
    {
        "id": "4956926",
        "src640": "https://cdn.pixabay.com/photo/2020/03/22/12/18/flowers-4956926_640.jpg",
        "src1280": "https://cdn.pixabay.com/photo/2020/03/22/12/18/flowers-4956926_1280.jpg"
    },
    {
        "id": "4894235",
        "src640": "https://cdn.pixabay.com/photo/2020/03/01/21/51/daisy-4894235_640.jpg",
        "src1280": "https://cdn.pixabay.com/photo/2020/03/01/21/51/daisy-4894235_1280.jpg"
    },
    {
        "id": "4287897",
        "src640": "https://cdn.pixabay.com/photo/2019/06/20/19/27/margarita-4287897_640.jpg",
        "src1280": "https://cdn.pixabay.com/photo/2019/06/20/19/27/margarita-4287897_1280.jpg"
    },
    {
        "id": "3303489",
        "src640": "https://cdn.pixabay.com/photo/2018/04/09/08/45/flower-vase-3303489_640.jpg",
        "src1280": "https://cdn.pixabay.com/photo/2018/04/09/08/45/flower-vase-3303489_1280.jpg"
    },
    {
        "id": "7580470",
        "src640": "https://cdn.pixabay.com/photo/2022/11/09/12/19/flowers-7580470_640.jpg",
        "src1280": "https://cdn.pixabay.com/photo/2022/11/09/12/19/flowers-7580470_1280.jpg"
    },
    {
        "id": "5196678",
        "src640": "https://cdn.pixabay.com/photo/2020/05/20/14/14/nature-5196678_640.jpg",
        "src1280": "https://cdn.pixabay.com/photo/2020/05/20/14/14/nature-5196678_1280.jpg"
    },
    {
        "id": "8373093",
        "src640": "https://cdn.pixabay.com/photo/2023/11/07/18/05/ai-generated-8373093_640.jpg",
        "src1280": "https://cdn.pixabay.com/photo/2023/11/07/18/05/ai-generated-8373093_1280.jpg"
    },
    {
        "id": "7230156",
        "src640": "https://cdn.pixabay.com/photo/2022/05/30/00/33/flowers-7230156_640.jpg",
        "src1280": "https://cdn.pixabay.com/photo/2022/05/30/00/33/flowers-7230156_1280.jpg"
    },
    {
        "id": "544721",
        "src640": "https://cdn.pixabay.com/photo/2014/11/24/23/17/garden-544721_640.jpg",
        "src1280": "https://cdn.pixabay.com/photo/2014/11/24/23/17/garden-544721_1280.jpg"
    },
    {
        "id": "5295686",
        "src640": "https://cdn.pixabay.com/photo/2020/06/13/20/19/klatschmohn-5295686_640.jpg",
        "src1280": "https://cdn.pixabay.com/photo/2020/06/13/20/19/klatschmohn-5295686_1280.jpg"
    },
    {
        "id": "5854402",
        "src640": "https://cdn.pixabay.com/photo/2020/12/23/09/52/flowers-5854402_640.jpg",
        "src1280": "https://cdn.pixabay.com/photo/2020/12/23/09/52/flowers-5854402_1280.jpg"
    },
    {
        "id": "1105322",
        "src640": "https://cdn.pixabay.com/photo/2015/12/23/10/06/flower-1105322_640.jpg",
        "src1280": "https://cdn.pixabay.com/photo/2015/12/23/10/06/flower-1105322_1280.jpg"
    },
    {
        "id": "2589348",
        "src640": "https://cdn.pixabay.com/photo/2017/08/06/06/07/cake-2589348_640.jpg",
        "src1280": "https://cdn.pixabay.com/photo/2017/08/06/06/07/cake-2589348_1280.jpg"
    },
    {
        "id": "6612670",
        "src640": "https://cdn.pixabay.com/photo/2021/09/10/09/33/flowers-6612670_640.jpg",
        "src1280": "https://cdn.pixabay.com/photo/2021/09/10/09/33/flowers-6612670_1280.jpg"
    },
    {
        "id": "14140",
        "src640": "https://cdn.pixabay.com/photo/2012/02/17/14/53/wall-14140_640.jpg",
        "src1280": "https://cdn.pixabay.com/photo/2012/02/17/14/53/wall-14140_1280.jpg"
    },
    {
        "id": "3756731",
        "src640": "https://cdn.pixabay.com/photo/2018/10/18/15/55/nature-3756731_640.jpg",
        "src1280": "https://cdn.pixabay.com/photo/2018/10/18/15/55/nature-3756731_1280.jpg"
    },
    {
        "id": "6325773",
        "src640": "https://cdn.pixabay.com/photo/2021/06/10/11/34/bee-orchis-6325773_640.jpg",
        "src1280": "https://cdn.pixabay.com/photo/2021/06/10/11/34/bee-orchis-6325773_1280.jpg"
    },
    {
        "id": "879417",
        "src640": "https://cdn.pixabay.com/photo/2015/08/07/14/23/flower-879417_640.jpg",
        "src1280": "https://cdn.pixabay.com/photo/2015/08/07/14/23/flower-879417_1280.jpg"
    },
    {
        "id": "7977540",
        "src640": "https://cdn.pixabay.com/photo/2023/05/08/03/36/flower-7977540_640.jpg",
        "src1280": "https://cdn.pixabay.com/photo/2023/05/08/03/36/flower-7977540_1280.jpg"
    },
    {
        "id": "4185455",
        "src640": "https://cdn.pixabay.com/photo/2019/05/07/09/58/marguerite-4185455_640.jpg",
        "src1280": "https://cdn.pixabay.com/photo/2019/05/07/09/58/marguerite-4185455_1280.jpg"
    },
    {
        "id": "4218755",
        "src640": "https://cdn.pixabay.com/photo/2019/05/21/10/49/flower-gardens-4218755_640.jpg",
        "src1280": "https://cdn.pixabay.com/photo/2019/05/21/10/49/flower-gardens-4218755_1280.jpg"
    },
    {
        "id": "7295832",
        "src640": "https://cdn.pixabay.com/photo/2022/07/01/15/40/rose-7295832_640.jpg",
        "src1280": "https://cdn.pixabay.com/photo/2022/07/01/15/40/rose-7295832_1280.jpg"
    },
    {
        "id": "3443961",
        "src640": "https://cdn.pixabay.com/photo/2018/05/31/13/05/kite-3443961_640.jpg",
        "src1280": "https://cdn.pixabay.com/photo/2018/05/31/13/05/kite-3443961_1280.jpg"
    },
    {
        "id": "4990643",
        "src640": "https://cdn.pixabay.com/photo/2020/04/01/10/10/muscari-4990643_640.jpg",
        "src1280": "https://cdn.pixabay.com/photo/2020/04/01/10/10/muscari-4990643_1280.jpg"
    },
    {
        "id": "3932036",
        "src640": "https://cdn.pixabay.com/photo/2019/01/14/10/46/rose-3932036_640.jpg",
        "src1280": "https://cdn.pixabay.com/photo/2019/01/14/10/46/rose-3932036_1280.jpg"
    },
    {
        "id": "7115709",
        "src640": "https://cdn.pixabay.com/photo/2022/04/06/15/06/flower-7115709_640.jpg",
        "src1280": "https://cdn.pixabay.com/photo/2022/04/06/15/06/flower-7115709_1280.jpg"
    },
    {
        "id": "4203342",
        "src640": "https://cdn.pixabay.com/photo/2019/05/14/19/53/plant-4203342_640.jpg",
        "src1280": "https://cdn.pixabay.com/photo/2019/05/14/19/53/plant-4203342_1280.jpg"
    },
    {
        "id": "7591378",
        "src640": "https://cdn.pixabay.com/photo/2022/11/14/11/24/heather-7591378_640.jpg",
        "src1280": "https://cdn.pixabay.com/photo/2022/11/14/11/24/heather-7591378_1280.jpg"
    },
    {
        "id": "1396539",
        "src640": "https://cdn.pixabay.com/photo/2016/05/16/19/54/flower-1396539_640.jpg",
        "src1280": "https://cdn.pixabay.com/photo/2016/05/16/19/54/flower-1396539_1280.jpg"
    },
    {
        "id": "3168443",
        "src640": "https://cdn.pixabay.com/photo/2018/02/20/18/32/flora-3168443_640.jpg",
        "src1280": "https://cdn.pixabay.com/photo/2018/02/20/18/32/flora-3168443_1280.jpg"
    },
    {
        "id": "4929183",
        "src640": "https://cdn.pixabay.com/photo/2020/03/13/21/22/heliconia-4929183_640.jpg",
        "src1280": "https://cdn.pixabay.com/photo/2020/03/13/21/22/heliconia-4929183_1280.jpg"
    },
    {
        "id": "6751572",
        "src640": "https://cdn.pixabay.com/photo/2021/10/29/10/34/flowers-6751572_640.jpg",
        "src1280": "https://cdn.pixabay.com/photo/2021/10/29/10/34/flowers-6751572_1280.jpg"
    },
    {
        "id": "2639395",
        "src640": "https://cdn.pixabay.com/photo/2017/08/14/05/11/banquet-2639395_640.jpg",
        "src1280": "https://cdn.pixabay.com/photo/2017/08/14/05/11/banquet-2639395_1280.jpg"
    },
    {
        "id": "3590185",
        "src640": "https://cdn.pixabay.com/photo/2018/08/07/16/55/gerbera-3590185_640.jpg",
        "src1280": "https://cdn.pixabay.com/photo/2018/08/07/16/55/gerbera-3590185_1280.jpg"
    },
    {
        "id": "1142840",
        "src640": "https://cdn.pixabay.com/photo/2016/01/16/04/23/flowers-1142840_640.jpg",
        "src1280": "https://cdn.pixabay.com/photo/2016/01/16/04/23/flowers-1142840_1280.jpg"
    },
    {
        "id": "8111329",
        "src640": "https://cdn.pixabay.com/photo/2023/07/06/20/18/sunflower-8111329_640.jpg",
        "src1280": "https://cdn.pixabay.com/photo/2023/07/06/20/18/sunflower-8111329_1280.jpg"
    },
    {
        "id": "7777198",
        "src640": "https://cdn.pixabay.com/photo/2023/02/08/18/00/rose-7777198_640.jpg",
        "src1280": "https://cdn.pixabay.com/photo/2023/02/08/18/00/rose-7777198_1280.jpg"
    },
    {
        "id": "6246786",
        "src640": "https://cdn.pixabay.com/photo/2021/05/11/21/03/dames-rocket-6246786_640.jpg",
        "src1280": "https://cdn.pixabay.com/photo/2021/05/11/21/03/dames-rocket-6246786_1280.jpg"
    },
    {
        "id": "3359582",
        "src640": "https://cdn.pixabay.com/photo/2018/04/29/10/39/nature-3359582_640.jpg",
        "src1280": "https://cdn.pixabay.com/photo/2018/04/29/10/39/nature-3359582_1280.jpg"
    },
    {
        "id": "4944578",
        "src640": "https://cdn.pixabay.com/photo/2020/03/18/15/47/girl-4944578_640.jpg",
        "src1280": "https://cdn.pixabay.com/photo/2020/03/18/15/47/girl-4944578_1280.jpg"
    },
    {
        "id": "2719692",
        "src640": "https://cdn.pixabay.com/photo/2017/09/05/23/20/flowers-2719692_640.jpg",
        "src1280": "https://cdn.pixabay.com/photo/2017/09/05/23/20/flowers-2719692_1280.jpg"
    },
    {
        "id": "3677619",
        "src640": "https://cdn.pixabay.com/photo/2018/09/14/17/09/model-3677619_640.jpg",
        "src1280": "https://cdn.pixabay.com/photo/2018/09/14/17/09/model-3677619_1280.jpg"
    },
    {
        "id": "195967",
        "src640": "https://cdn.pixabay.com/photo/2013/10/15/12/43/flowers-195967_640.jpg",
        "src1280": "https://cdn.pixabay.com/photo/2013/10/15/12/43/flowers-195967_1280.jpg"
    },
    {
        "id": "2122574",
        "src640": "https://cdn.pixabay.com/photo/2017/03/06/21/18/girl-with-a-flower-2122574_640.jpg",
        "src1280": "https://cdn.pixabay.com/photo/2017/03/06/21/18/girl-with-a-flower-2122574_1280.jpg"
    },
    {
        "id": "8357961",
        "src640": "https://cdn.pixabay.com/photo/2023/11/01/15/19/woman-8357961_640.jpg",
        "src1280": "https://cdn.pixabay.com/photo/2023/11/01/15/19/woman-8357961_1280.jpg"
    },
    {
        "id": "1595594",
        "src640": "https://cdn.pixabay.com/photo/2016/08/15/14/37/lavender-1595594_640.jpg",
        "src1280": "https://cdn.pixabay.com/photo/2016/08/15/14/37/lavender-1595594_1280.jpg"
    },
    {
        "id": "445095",
        "src640": "https://cdn.pixabay.com/photo/2014/09/14/14/59/father-445095_640.jpg",
        "src1280": "https://cdn.pixabay.com/photo/2014/09/14/14/59/father-445095_1280.jpg"
    },
    {
        "id": "3448479",
        "src640": "https://cdn.pixabay.com/photo/2018/06/02/14/27/kite-3448479_640.jpg",
        "src1280": "https://cdn.pixabay.com/photo/2018/06/02/14/27/kite-3448479_1280.jpg"
    },
    {
        "id": "8090526",
        "src640": "https://cdn.pixabay.com/photo/2023/06/26/18/56/poppy-8090526_640.jpg",
        "src1280": "https://cdn.pixabay.com/photo/2023/06/26/18/56/poppy-8090526_1280.jpg"
    },
    {
        "id": "5318970",
        "src640": "https://cdn.pixabay.com/photo/2020/06/19/21/48/flowers-5318970_640.jpg",
        "src1280": "https://cdn.pixabay.com/photo/2020/06/19/21/48/flowers-5318970_1280.jpg"
    }
]