[
    {
        "id": "3533228",
        "src640": "https://images.pexels.com/photos/3533228/pexels-photo-3533228.png?auto=compress&cs=tinysrgb&w=750",
        "src1280": "https://images.pexels.com/photos/3533228/pexels-photo-3533228.png?auto=compress&cs=tinysrgb&w=1440",
        "downloadlink": "https://images.pexels.com/photos/3533228/pexels-photo-3533228.png?cs=srgb&dl=pexels-ash-valiente-3533228.jpg&fm=jpg"
    },
    {
        "id": "4519122",
        "src640": "https://images.pexels.com/photos/4519122/pexels-photo-4519122.jpeg?auto=compress&cs=tinysrgb&w=750",
        "src1280": "https://images.pexels.com/photos/4519122/pexels-photo-4519122.jpeg?auto=compress&cs=tinysrgb&w=1440",
        "downloadlink": "https://images.pexels.com/photos/4519122/pexels-photo-4519122.jpeg?cs=srgb&dl=pexels-polina-tankilevitch-4519122.jpg&fm=jpg"
    },
    {
        "id": "1921168",
        "src640": "https://images.pexels.com/photos/1921168/pexels-photo-1921168.jpeg?auto=compress&cs=tinysrgb&w=750",
        "src1280": "https://images.pexels.com/photos/1921168/pexels-photo-1921168.jpeg?auto=compress&cs=tinysrgb&w=1440",
        "downloadlink": "https://images.pexels.com/photos/1921168/pexels-photo-1921168.jpeg?cs=srgb&dl=pexels-kourosh-qaffari-1921168.jpg&fm=jpg"
    },
    {
        "id": "982585",
        "src640": "https://images.pexels.com/photos/982585/pexels-photo-982585.jpeg?auto=compress&cs=tinysrgb&w=750",
        "src1280": "https://images.pexels.com/photos/982585/pexels-photo-982585.jpeg?auto=compress&cs=tinysrgb&w=1440",
        "downloadlink": "https://images.pexels.com/photos/982585/pexels-photo-982585.jpeg?cs=srgb&dl=pexels-andrea-yurko-982585.jpg&fm=jpg"
    },
    {
        "id": "1689731",
        "src640": "https://images.pexels.com/photos/1689731/pexels-photo-1689731.jpeg?auto=compress&cs=tinysrgb&w=750",
        "src1280": "https://images.pexels.com/photos/1689731/pexels-photo-1689731.jpeg?auto=compress&cs=tinysrgb&w=1440",
        "downloadlink": "https://images.pexels.com/photos/1689731/pexels-photo-1689731.jpeg?cs=srgb&dl=pexels-harsh-kushwaha-1689731.jpg&fm=jpg"
    },
    {
        "id": "157675",
        "src640": "https://images.pexels.com/photos/157675/fashion-men-s-individuality-black-and-white-157675.jpeg?auto=compress&cs=tinysrgb&w=750",
        "src1280": "https://images.pexels.com/photos/157675/fashion-men-s-individuality-black-and-white-157675.jpeg?auto=compress&cs=tinysrgb&w=1440",
        "downloadlink": "https://images.pexels.com/photos/157675/fashion-men-s-individuality-black-and-white-157675.jpeg?cs=srgb&dl=pexels-pixabay-157675.jpg&fm=jpg"
    },
    {
        "id": "36469",
        "src640": "https://images.pexels.com/photos/36469/woman-person-flowers-wreaths.jpg?auto=compress&cs=tinysrgb&w=750",
        "src1280": "https://images.pexels.com/photos/36469/woman-person-flowers-wreaths.jpg?auto=compress&cs=tinysrgb&w=1440",
        "downloadlink": "https://images.pexels.com/photos/36469/woman-person-flowers-wreaths.jpg?cs=srgb&dl=pexels-pixabay-36469.jpg&fm=jpg"
    },
    {
        "id": "1468379",
        "src640": "https://images.pexels.com/photos/1468379/pexels-photo-1468379.jpeg?auto=compress&cs=tinysrgb&w=750",
        "src1280": "https://images.pexels.com/photos/1468379/pexels-photo-1468379.jpeg?auto=compress&cs=tinysrgb&w=1440",
        "downloadlink": "https://images.pexels.com/photos/1468379/pexels-photo-1468379.jpeg?cs=srgb&dl=pexels-tu%E1%BA%A5n-ki%E1%BB%87t-jr-1468379.jpg&fm=jpg"
    },
    {
        "id": "2065200",
        "src640": "https://images.pexels.com/photos/2065200/pexels-photo-2065200.jpeg?auto=compress&cs=tinysrgb&w=750",
        "src1280": "https://images.pexels.com/photos/2065200/pexels-photo-2065200.jpeg?auto=compress&cs=tinysrgb&w=1440",
        "downloadlink": "https://images.pexels.com/photos/2065200/pexels-photo-2065200.jpeg?cs=srgb&dl=pexels-anastasiya-gepp-2065200.jpg&fm=jpg"
    },
    {
        "id": "1021693",
        "src640": "https://images.pexels.com/photos/1021693/pexels-photo-1021693.jpeg?auto=compress&cs=tinysrgb&w=750",
        "src1280": "https://images.pexels.com/photos/1021693/pexels-photo-1021693.jpeg?auto=compress&cs=tinysrgb&w=1440",
        "downloadlink": "https://images.pexels.com/photos/1021693/pexels-photo-1021693.jpeg?cs=srgb&dl=pexels-olena-goldman-1021693.jpg&fm=jpg"
    },
    {
        "id": "1758144",
        "src640": "https://images.pexels.com/photos/1758144/pexels-photo-1758144.jpeg?auto=compress&cs=tinysrgb&w=750",
        "src1280": "https://images.pexels.com/photos/1758144/pexels-photo-1758144.jpeg?auto=compress&cs=tinysrgb&w=1440",
        "downloadlink": "https://images.pexels.com/photos/1758144/pexels-photo-1758144.jpeg?cs=srgb&dl=pexels-athena-1758144.jpg&fm=jpg"
    },
    {
        "id": "1572878",
        "src640": "https://images.pexels.com/photos/1572878/pexels-photo-1572878.jpeg?auto=compress&cs=tinysrgb&w=750",
        "src1280": "https://images.pexels.com/photos/1572878/pexels-photo-1572878.jpeg?auto=compress&cs=tinysrgb&w=1440",
        "downloadlink": "https://images.pexels.com/photos/1572878/pexels-photo-1572878.jpeg?cs=srgb&dl=pexels-alexander-krivitskiy-1572878.jpg&fm=jpg"
    },
    {
        "id": "2787341",
        "src640": "https://images.pexels.com/photos/2787341/pexels-photo-2787341.jpeg?auto=compress&cs=tinysrgb&w=750",
        "src1280": "https://images.pexels.com/photos/2787341/pexels-photo-2787341.jpeg?auto=compress&cs=tinysrgb&w=1440",
        "downloadlink": "https://images.pexels.com/photos/2787341/pexels-photo-2787341.jpeg?cs=srgb&dl=pexels-ali-pazani-2787341.jpg&fm=jpg"
    },
    {
        "id": "219550",
        "src640": "https://images.pexels.com/photos/219550/pexels-photo-219550.jpeg?auto=compress&cs=tinysrgb&w=750",
        "src1280": "https://images.pexels.com/photos/219550/pexels-photo-219550.jpeg?auto=compress&cs=tinysrgb&w=1440",
        "downloadlink": "https://images.pexels.com/photos/219550/pexels-photo-219550.jpeg?cs=srgb&dl=pexels-pixabay-219550.jpg&fm=jpg"
    },
    {
        "id": "2065203",
        "src640": "https://images.pexels.com/photos/2065203/pexels-photo-2065203.jpeg?auto=compress&cs=tinysrgb&w=750",
        "src1280": "https://images.pexels.com/photos/2065203/pexels-photo-2065203.jpeg?auto=compress&cs=tinysrgb&w=1440",
        "downloadlink": "https://images.pexels.com/photos/2065203/pexels-photo-2065203.jpeg?cs=srgb&dl=pexels-anastasiya-gepp-2065203.jpg&fm=jpg"
    },
    {
        "id": "1321909",
        "src640": "https://images.pexels.com/photos/1321909/pexels-photo-1321909.jpeg?auto=compress&cs=tinysrgb&w=750",
        "src1280": "https://images.pexels.com/photos/1321909/pexels-photo-1321909.jpeg?auto=compress&cs=tinysrgb&w=1440",
        "downloadlink": "https://images.pexels.com/photos/1321909/pexels-photo-1321909.jpeg?cs=srgb&dl=pexels-tu%E1%BA%A5n-ki%E1%BB%87t-jr-1321909.jpg&fm=jpg"
    },
    {
        "id": "371985",
        "src640": "https://images.pexels.com/photos/371985/pexels-photo-371985.jpeg?auto=compress&cs=tinysrgb&w=750",
        "src1280": "https://images.pexels.com/photos/371985/pexels-photo-371985.jpeg?auto=compress&cs=tinysrgb&w=1440",
        "downloadlink": "https://images.pexels.com/photos/371985/pexels-photo-371985.jpeg?cs=srgb&dl=pexels-pixabay-371985.jpg&fm=jpg"
    },
    {
        "id": "1081685",
        "src640": "https://images.pexels.com/photos/1081685/pexels-photo-1081685.jpeg?auto=compress&cs=tinysrgb&w=750",
        "src1280": "https://images.pexels.com/photos/1081685/pexels-photo-1081685.jpeg?auto=compress&cs=tinysrgb&w=1440",
        "downloadlink": "https://images.pexels.com/photos/1081685/pexels-photo-1081685.jpeg?cs=srgb&dl=pexels-motional-studio-1081685.jpg&fm=jpg"
    },
    {
        "id": "620074",
        "src640": "https://images.pexels.com/photos/620074/pexels-photo-620074.jpeg?auto=compress&cs=tinysrgb&w=750",
        "src1280": "https://images.pexels.com/photos/620074/pexels-photo-620074.jpeg?auto=compress&cs=tinysrgb&w=1440",
        "downloadlink": "https://images.pexels.com/photos/620074/pexels-photo-620074.jpeg?cs=srgb&dl=pexels-steven-arenas-620074.jpg&fm=jpg"
    },
    {
        "id": "1183266",
        "src640": "https://images.pexels.com/photos/1183266/pexels-photo-1183266.jpeg?auto=compress&cs=tinysrgb&w=750",
        "src1280": "https://images.pexels.com/photos/1183266/pexels-photo-1183266.jpeg?auto=compress&cs=tinysrgb&w=1440",
        "downloadlink": "https://images.pexels.com/photos/1183266/pexels-photo-1183266.jpeg?cs=srgb&dl=pexels-marlene-lepp%C3%A4nen-1183266.jpg&fm=jpg"
    },
    {
        "id": "2065195",
        "src640": "https://images.pexels.com/photos/2065195/pexels-photo-2065195.jpeg?auto=compress&cs=tinysrgb&w=750",
        "src1280": "https://images.pexels.com/photos/2065195/pexels-photo-2065195.jpeg?auto=compress&cs=tinysrgb&w=1440",
        "downloadlink": "https://images.pexels.com/photos/2065195/pexels-photo-2065195.jpeg?cs=srgb&dl=pexels-anastasiya-gepp-2065195.jpg&fm=jpg"
    },
    {
        "id": "904117",
        "src640": "https://images.pexels.com/photos/904117/pexels-photo-904117.jpeg?auto=compress&cs=tinysrgb&w=750",
        "src1280": "https://images.pexels.com/photos/904117/pexels-photo-904117.jpeg?auto=compress&cs=tinysrgb&w=1440",
        "downloadlink": "https://images.pexels.com/photos/904117/pexels-photo-904117.jpeg?cs=srgb&dl=pexels-samarth-singhai-904117.jpg&fm=jpg"
    },
    {
        "id": "2043590",
        "src640": "https://images.pexels.com/photos/2043590/pexels-photo-2043590.jpeg?auto=compress&cs=tinysrgb&w=750",
        "src1280": "https://images.pexels.com/photos/2043590/pexels-photo-2043590.jpeg?auto=compress&cs=tinysrgb&w=1440",
        "downloadlink": "https://images.pexels.com/photos/2043590/pexels-photo-2043590.jpeg?cs=srgb&dl=pexels-athena-2043590.jpg&fm=jpg"
    },
    {
        "id": "818992",
        "src640": "https://images.pexels.com/photos/818992/pexels-photo-818992.jpeg?auto=compress&cs=tinysrgb&w=750",
        "src1280": "https://images.pexels.com/photos/818992/pexels-photo-818992.jpeg?auto=compress&cs=tinysrgb&w=1440",
        "downloadlink": "https://images.pexels.com/photos/818992/pexels-photo-818992.jpeg?cs=srgb&dl=pexels-godisable-jacob-818992.jpg&fm=jpg"
    }
]