[
    {
        "id": "1188748",
        "src640": "https://images.pexels.com/photos/1188748/pexels-photo-1188748.jpeg?auto=compress&cs=tinysrgb&w=750",
        "src1280": "https://images.pexels.com/photos/1188748/pexels-photo-1188748.jpeg?auto=compress&cs=tinysrgb&w=1440",
        "downloadlink": "https://images.pexels.com/photos/1188748/pexels-photo-1188748.jpeg?cs=srgb&dl=pexels-julia-kuzenkov-1188748.jpg&fm=jpg"
    },
    {
        "id": "3050943",
        "src640": "https://images.pexels.com/photos/3050943/pexels-photo-3050943.jpeg?auto=compress&cs=tinysrgb&w=750",
        "src1280": "https://images.pexels.com/photos/3050943/pexels-photo-3050943.jpeg?auto=compress&cs=tinysrgb&w=1440",
        "downloadlink": "https://images.pexels.com/photos/3050943/pexels-photo-3050943.jpeg?cs=srgb&dl=pexels-vit%C3%B3ria-santos-3050943.jpg&fm=jpg"
    },
    {
        "id": "2568413",
        "src640": "https://images.pexels.com/photos/2568413/pexels-photo-2568413.jpeg?auto=compress&cs=tinysrgb&w=750",
        "src1280": "https://images.pexels.com/photos/2568413/pexels-photo-2568413.jpeg?auto=compress&cs=tinysrgb&w=1440",
        "downloadlink": "https://images.pexels.com/photos/2568413/pexels-photo-2568413.jpeg?cs=srgb&dl=pexels-konstantin-mishchenko-2568413.jpg&fm=jpg"
    },
    {
        "id": "683404",
        "src640": "https://images.pexels.com/photos/683404/pexels-photo-683404.jpeg?auto=compress&cs=tinysrgb&w=750",
        "src1280": "https://images.pexels.com/photos/683404/pexels-photo-683404.jpeg?auto=compress&cs=tinysrgb&w=1440",
        "downloadlink": "https://images.pexels.com/photos/683404/pexels-photo-683404.jpeg?cs=srgb&dl=pexels-mustafa-ezz-683404.jpg&fm=jpg"
    },
    {
        "id": "884979",
        "src640": "https://images.pexels.com/photos/884979/pexels-photo-884979.jpeg?auto=compress&cs=tinysrgb&w=750",
        "src1280": "https://images.pexels.com/photos/884979/pexels-photo-884979.jpeg?auto=compress&cs=tinysrgb&w=1440",
        "downloadlink": "https://images.pexels.com/photos/884979/pexels-photo-884979.jpeg?cs=srgb&dl=pexels-quang-anh-ha-nguyen-884979.jpg&fm=jpg"
    },
    {
        "id": "2014090",
        "src640": "https://images.pexels.com/photos/2014090/pexels-photo-2014090.jpeg?auto=compress&cs=tinysrgb&w=750",
        "src1280": "https://images.pexels.com/photos/2014090/pexels-photo-2014090.jpeg?auto=compress&cs=tinysrgb&w=1440",
        "downloadlink": "https://images.pexels.com/photos/2014090/pexels-photo-2014090.jpeg?cs=srgb&dl=pexels-matheus-ferrero-2014090.jpg&fm=jpg"
    },
    {
        "id": "3387552",
        "src640": "https://images.pexels.com/photos/3387552/pexels-photo-3387552.jpeg?auto=compress&cs=tinysrgb&w=750",
        "src1280": "https://images.pexels.com/photos/3387552/pexels-photo-3387552.jpeg?auto=compress&cs=tinysrgb&w=1440",
        "downloadlink": "https://images.pexels.com/photos/3387552/pexels-photo-3387552.jpeg?cs=srgb&dl=pexels-arsham-haghani-3387552.jpg&fm=jpg"
    },
    {
        "id": "1446161",
        "src640": "https://images.pexels.com/photos/1446161/pexels-photo-1446161.jpeg?auto=compress&cs=tinysrgb&w=750",
        "src1280": "https://images.pexels.com/photos/1446161/pexels-photo-1446161.jpeg?auto=compress&cs=tinysrgb&w=1440",
        "downloadlink": "https://images.pexels.com/photos/1446161/pexels-photo-1446161.jpeg?cs=srgb&dl=pexels-bhoopal-m-1446161.jpg&fm=jpg"
    },
    {
        "id": "1722868",
        "src640": "https://images.pexels.com/photos/1722868/pexels-photo-1722868.jpeg?auto=compress&cs=tinysrgb&w=750",
        "src1280": "https://images.pexels.com/photos/1722868/pexels-photo-1722868.jpeg?auto=compress&cs=tinysrgb&w=1440",
        "downloadlink": "https://images.pexels.com/photos/1722868/pexels-photo-1722868.jpeg?cs=srgb&dl=pexels-%F0%9D%90%95%F0%9D%90%9E%F0%9D%90%A7%F0%9D%90%AE%F0%9D%90%AC-%F0%9D%90%87%F0%9D%90%83-%F0%9D%90%8C%F0%9D%90%9A%F0%9D%90%A4%F0%9D%90%9E-%F0%9D%90%AE%F0%9D%90%A9-%26-%F0%9D%90%8F%F0%9D%90%9E%F0%9D%90%AB%F0%9D%90%9F%F0%9D%90%AE%F0%9D%90%A6%F0%9D%90%9E-1722868.jpg&fm=jpg"
    },
    {
        "id": "1619801",
        "src640": "https://images.pexels.com/photos/1619801/pexels-photo-1619801.jpeg?auto=compress&cs=tinysrgb&w=750",
        "src1280": "https://images.pexels.com/photos/1619801/pexels-photo-1619801.jpeg?auto=compress&cs=tinysrgb&w=1440",
        "downloadlink": "https://images.pexels.com/photos/1619801/pexels-photo-1619801.jpeg?cs=srgb&dl=pexels-vika-glitter-1619801.jpg&fm=jpg"
    },
    {
        "id": "1671436",
        "src640": "https://images.pexels.com/photos/1671436/pexels-photo-1671436.jpeg?auto=compress&cs=tinysrgb&w=750",
        "src1280": "https://images.pexels.com/photos/1671436/pexels-photo-1671436.jpeg?auto=compress&cs=tinysrgb&w=1440",
        "downloadlink": "https://images.pexels.com/photos/1671436/pexels-photo-1671436.jpeg?cs=srgb&dl=pexels-luiisrtz-1671436.jpg&fm=jpg"
    },
    {
        "id": "1993660",
        "src640": "https://images.pexels.com/photos/1993660/pexels-photo-1993660.jpeg?auto=compress&cs=tinysrgb&w=750",
        "src1280": "https://images.pexels.com/photos/1993660/pexels-photo-1993660.jpeg?auto=compress&cs=tinysrgb&w=1440",
        "downloadlink": "https://images.pexels.com/photos/1993660/pexels-photo-1993660.jpeg?cs=srgb&dl=pexels-anfisa-eremina-1993660.jpg&fm=jpg"
    },
    {
        "id": "3496542",
        "src640": "https://images.pexels.com/photos/3496542/pexels-photo-3496542.jpeg?auto=compress&cs=tinysrgb&w=750",
        "src1280": "https://images.pexels.com/photos/3496542/pexels-photo-3496542.jpeg?auto=compress&cs=tinysrgb&w=1440",
        "downloadlink": "https://images.pexels.com/photos/3496542/pexels-photo-3496542.jpeg?cs=srgb&dl=pexels-mikotoraw-photographer-3496542.jpg&fm=jpg"
    },
    {
        "id": "634785",
        "src640": "https://images.pexels.com/photos/634785/pexels-photo-634785.jpeg?auto=compress&cs=tinysrgb&w=750",
        "src1280": "https://images.pexels.com/photos/634785/pexels-photo-634785.jpeg?auto=compress&cs=tinysrgb&w=1440",
        "downloadlink": "https://images.pexels.com/photos/634785/pexels-photo-634785.jpeg?cs=srgb&dl=pexels-aidan-jarrett-634785.jpg&fm=jpg"
    },
    {
        "id": "2101796",
        "src640": "https://images.pexels.com/photos/2101796/pexels-photo-2101796.jpeg?auto=compress&cs=tinysrgb&w=750",
        "src1280": "https://images.pexels.com/photos/2101796/pexels-photo-2101796.jpeg?auto=compress&cs=tinysrgb&w=1440",
        "downloadlink": "https://images.pexels.com/photos/2101796/pexels-photo-2101796.jpeg?cs=srgb&dl=pexels-alexander-krivitskiy-2101796.jpg&fm=jpg"
    },
    {
        "id": "1322130",
        "src640": "https://images.pexels.com/photos/1322130/pexels-photo-1322130.jpeg?auto=compress&cs=tinysrgb&w=750",
        "src1280": "https://images.pexels.com/photos/1322130/pexels-photo-1322130.jpeg?auto=compress&cs=tinysrgb&w=1440",
        "downloadlink": "https://images.pexels.com/photos/1322130/pexels-photo-1322130.jpeg?cs=srgb&dl=pexels-tu%E1%BA%A5n-ki%E1%BB%87t-jr-1322130.jpg&fm=jpg"
    },
    {
        "id": "2220316",
        "src640": "https://images.pexels.com/photos/2220316/pexels-photo-2220316.jpeg?auto=compress&cs=tinysrgb&w=750",
        "src1280": "https://images.pexels.com/photos/2220316/pexels-photo-2220316.jpeg?auto=compress&cs=tinysrgb&w=1440",
        "downloadlink": "https://images.pexels.com/photos/2220316/pexels-photo-2220316.jpeg?cs=srgb&dl=pexels-jonathan-faria-2220316.jpg&fm=jpg"
    },
    {
        "id": "3186506",
        "src640": "https://images.pexels.com/photos/3186506/pexels-photo-3186506.jpeg?auto=compress&cs=tinysrgb&w=750",
        "src1280": "https://images.pexels.com/photos/3186506/pexels-photo-3186506.jpeg?auto=compress&cs=tinysrgb&w=1440",
        "downloadlink": "https://images.pexels.com/photos/3186506/pexels-photo-3186506.jpeg?cs=srgb&dl=pexels-wellington-cunha-3186506.jpg&fm=jpg"
    },
    {
        "id": "2122276",
        "src640": "https://images.pexels.com/photos/2122276/pexels-photo-2122276.jpeg?auto=compress&cs=tinysrgb&w=750",
        "src1280": "https://images.pexels.com/photos/2122276/pexels-photo-2122276.jpeg?auto=compress&cs=tinysrgb&w=1440",
        "downloadlink": "https://images.pexels.com/photos/2122276/pexels-photo-2122276.jpeg?cs=srgb&dl=pexels-kyle-roxas-2122276.jpg&fm=jpg"
    },
    {
        "id": "388514",
        "src640": "https://images.pexels.com/photos/388514/pexels-photo-388514.jpeg?auto=compress&cs=tinysrgb&w=750",
        "src1280": "https://images.pexels.com/photos/388514/pexels-photo-388514.jpeg?auto=compress&cs=tinysrgb&w=1440",
        "downloadlink": "https://images.pexels.com/photos/388514/pexels-photo-388514.jpeg?cs=srgb&dl=pexels-yuliya-shabliy-388514.jpg&fm=jpg"
    },
    {
        "id": "1848565",
        "src640": "https://images.pexels.com/photos/1848565/pexels-photo-1848565.jpeg?auto=compress&cs=tinysrgb&w=750",
        "src1280": "https://images.pexels.com/photos/1848565/pexels-photo-1848565.jpeg?auto=compress&cs=tinysrgb&w=1440",
        "downloadlink": "https://images.pexels.com/photos/1848565/pexels-photo-1848565.jpeg?cs=srgb&dl=pexels-luizclas-1848565.jpg&fm=jpg"
    },
    {
        "id": "1144170",
        "src640": "https://images.pexels.com/photos/1144170/pexels-photo-1144170.jpeg?auto=compress&cs=tinysrgb&w=750",
        "src1280": "https://images.pexels.com/photos/1144170/pexels-photo-1144170.jpeg?auto=compress&cs=tinysrgb&w=1440",
        "downloadlink": "https://images.pexels.com/photos/1144170/pexels-photo-1144170.jpeg?cs=srgb&dl=pexels-khalid-garcia-1144170.jpg&fm=jpg"
    },
    {
        "id": "1559487",
        "src640": "https://images.pexels.com/photos/1559487/pexels-photo-1559487.jpeg?auto=compress&cs=tinysrgb&w=750",
        "src1280": "https://images.pexels.com/photos/1559487/pexels-photo-1559487.jpeg?auto=compress&cs=tinysrgb&w=1440",
        "downloadlink": "https://images.pexels.com/photos/1559487/pexels-photo-1559487.jpeg?cs=srgb&dl=pexels-jack-winbow-1559487.jpg&fm=jpg"
    },
    {
        "id": "1448708",
        "src640": "https://images.pexels.com/photos/1448708/pexels-photo-1448708.jpeg?auto=compress&cs=tinysrgb&w=750",
        "src1280": "https://images.pexels.com/photos/1448708/pexels-photo-1448708.jpeg?auto=compress&cs=tinysrgb&w=1440",
        "downloadlink": "https://images.pexels.com/photos/1448708/pexels-photo-1448708.jpeg?cs=srgb&dl=pexels-min-an-1448708.jpg&fm=jpg"
    }
]