[
    {
        "id": "3795373",
        "src640": "https://images.pexels.com/photos/3795373/pexels-photo-3795373.jpeg?auto=compress&cs=tinysrgb&w=750",
        "src1280": "https://images.pexels.com/photos/3795373/pexels-photo-3795373.jpeg?auto=compress&cs=tinysrgb&w=1440",
        "downloadlink": "https://images.pexels.com/photos/3795373/pexels-photo-3795373.jpeg?cs=srgb&dl=pexels-tu%E1%BA%A5n-ki%E1%BB%87t-jr-3795373.jpg&fm=jpg"
    },
    {
        "id": "3115708",
        "src640": "https://images.pexels.com/photos/3115708/pexels-photo-3115708.jpeg?auto=compress&cs=tinysrgb&w=750",
        "src1280": "https://images.pexels.com/photos/3115708/pexels-photo-3115708.jpeg?auto=compress&cs=tinysrgb&w=1440",
        "downloadlink": "https://images.pexels.com/photos/3115708/pexels-photo-3115708.jpeg?cs=srgb&dl=pexels-marlon-schmeiski-3115708.jpg&fm=jpg"
    },
    {
        "id": "2306109",
        "src640": "https://images.pexels.com/photos/2306109/pexels-photo-2306109.jpeg?auto=compress&cs=tinysrgb&w=750",
        "src1280": "https://images.pexels.com/photos/2306109/pexels-photo-2306109.jpeg?auto=compress&cs=tinysrgb&w=1440",
        "downloadlink": "https://images.pexels.com/photos/2306109/pexels-photo-2306109.jpeg?cs=srgb&dl=pexels-bestbe-models-2306109.jpg&fm=jpg"
    },
    {
        "id": "1895915",
        "src640": "https://images.pexels.com/photos/1895915/pexels-photo-1895915.jpeg?auto=compress&cs=tinysrgb&w=750",
        "src1280": "https://images.pexels.com/photos/1895915/pexels-photo-1895915.jpeg?auto=compress&cs=tinysrgb&w=1440",
        "downloadlink": "https://images.pexels.com/photos/1895915/pexels-photo-1895915.jpeg?cs=srgb&dl=pexels-wellington-cunha-1895915.jpg&fm=jpg"
    },
    {
        "id": "2818226",
        "src640": "https://images.pexels.com/photos/2818226/pexels-photo-2818226.jpeg?auto=compress&cs=tinysrgb&w=750",
        "src1280": "https://images.pexels.com/photos/2818226/pexels-photo-2818226.jpeg?auto=compress&cs=tinysrgb&w=1440",
        "downloadlink": "https://images.pexels.com/photos/2818226/pexels-photo-2818226.jpeg?cs=srgb&dl=pexels-r%C3%B4mulo-carolino-2818226.jpg&fm=jpg"
    },
    {
        "id": "596886",
        "src640": "https://images.pexels.com/photos/596886/pexels-photo-596886.jpeg?auto=compress&cs=tinysrgb&w=750",
        "src1280": "https://images.pexels.com/photos/596886/pexels-photo-596886.jpeg?auto=compress&cs=tinysrgb&w=1440",
        "downloadlink": "https://images.pexels.com/photos/596886/pexels-photo-596886.jpeg?cs=srgb&dl=pexels-salah-amrani-596886.jpg&fm=jpg"
    },
    {
        "id": "3094068",
        "src640": "https://images.pexels.com/photos/3094068/pexels-photo-3094068.jpeg?auto=compress&cs=tinysrgb&w=750",
        "src1280": "https://images.pexels.com/photos/3094068/pexels-photo-3094068.jpeg?auto=compress&cs=tinysrgb&w=1440",
        "downloadlink": "https://images.pexels.com/photos/3094068/pexels-photo-3094068.jpeg?cs=srgb&dl=pexels-ali-pazani-3094068.jpg&fm=jpg"
    },
    {
        "id": "3830467",
        "src640": "https://images.pexels.com/photos/3830467/pexels-photo-3830467.jpeg?auto=compress&cs=tinysrgb&w=750",
        "src1280": "https://images.pexels.com/photos/3830467/pexels-photo-3830467.jpeg?auto=compress&cs=tinysrgb&w=1440",
        "downloadlink": "https://images.pexels.com/photos/3830467/pexels-photo-3830467.jpeg?cs=srgb&dl=pexels-tu%E1%BA%A5n-ki%E1%BB%87t-jr-3830467.jpg&fm=jpg"
    },
    {
        "id": "1656684",
        "src640": "https://images.pexels.com/photos/1656684/pexels-photo-1656684.jpeg?auto=compress&cs=tinysrgb&w=750",
        "src1280": "https://images.pexels.com/photos/1656684/pexels-photo-1656684.jpeg?auto=compress&cs=tinysrgb&w=1440",
        "downloadlink": "https://images.pexels.com/photos/1656684/pexels-photo-1656684.jpeg?cs=srgb&dl=pexels-wendy-wei-1656684.jpg&fm=jpg"
    },
    {
        "id": "769732",
        "src640": "https://images.pexels.com/photos/769732/pexels-photo-769732.jpeg?auto=compress&cs=tinysrgb&w=750",
        "src1280": "https://images.pexels.com/photos/769732/pexels-photo-769732.jpeg?auto=compress&cs=tinysrgb&w=1440",
        "downloadlink": "https://images.pexels.com/photos/769732/pexels-photo-769732.jpeg?cs=srgb&dl=pexels-jeffrey-reed-769732.jpg&fm=jpg"
    },
    {
        "id": "3916455",
        "src640": "https://images.pexels.com/photos/3916455/pexels-photo-3916455.jpeg?auto=compress&cs=tinysrgb&w=750",
        "src1280": "https://images.pexels.com/photos/3916455/pexels-photo-3916455.jpeg?auto=compress&cs=tinysrgb&w=1440",
        "downloadlink": "https://images.pexels.com/photos/3916455/pexels-photo-3916455.jpeg?cs=srgb&dl=pexels-avonne-stalling-3916455.jpg&fm=jpg"
    },
    {
        "id": "3094224",
        "src640": "https://images.pexels.com/photos/3094224/pexels-photo-3094224.jpeg?auto=compress&cs=tinysrgb&w=750",
        "src1280": "https://images.pexels.com/photos/3094224/pexels-photo-3094224.jpeg?auto=compress&cs=tinysrgb&w=1440",
        "downloadlink": "https://images.pexels.com/photos/3094224/pexels-photo-3094224.jpeg?cs=srgb&dl=pexels-valeria-ushakova-3094224.jpg&fm=jpg"
    },
    {
        "id": "54204",
        "src640": "https://images.pexels.com/photos/54204/pexels-photo-54204.jpeg?auto=compress&cs=tinysrgb&w=750",
        "src1280": "https://images.pexels.com/photos/54204/pexels-photo-54204.jpeg?auto=compress&cs=tinysrgb&w=1440",
        "downloadlink": "https://images.pexels.com/photos/54204/pexels-photo-54204.jpeg?cs=srgb&dl=pexels-kristin-vogt-54204.jpg&fm=jpg"
    },
    {
        "id": "1578877",
        "src640": "https://images.pexels.com/photos/1578877/pexels-photo-1578877.jpeg?auto=compress&cs=tinysrgb&w=750",
        "src1280": "https://images.pexels.com/photos/1578877/pexels-photo-1578877.jpeg?auto=compress&cs=tinysrgb&w=1440",
        "downloadlink": "https://images.pexels.com/photos/1578877/pexels-photo-1578877.jpeg?cs=srgb&dl=pexels-trung-nguyen-1578877.jpg&fm=jpg"
    },
    {
        "id": "2709385",
        "src640": "https://images.pexels.com/photos/2709385/pexels-photo-2709385.jpeg?auto=compress&cs=tinysrgb&w=750",
        "src1280": "https://images.pexels.com/photos/2709385/pexels-photo-2709385.jpeg?auto=compress&cs=tinysrgb&w=1440",
        "downloadlink": "https://images.pexels.com/photos/2709385/pexels-photo-2709385.jpeg?cs=srgb&dl=pexels-ike-louie-natividad-2709385.jpg&fm=jpg"
    },
    {
        "id": "2180289",
        "src640": "https://images.pexels.com/photos/2180289/pexels-photo-2180289.jpeg?auto=compress&cs=tinysrgb&w=750",
        "src1280": "https://images.pexels.com/photos/2180289/pexels-photo-2180289.jpeg?auto=compress&cs=tinysrgb&w=1440",
        "downloadlink": "https://images.pexels.com/photos/2180289/pexels-photo-2180289.jpeg?cs=srgb&dl=pexels-claudia-barbosa-2180289.jpg&fm=jpg"
    },
    {
        "id": "3673675",
        "src640": "https://images.pexels.com/photos/3673675/pexels-photo-3673675.jpeg?auto=compress&cs=tinysrgb&w=750",
        "src1280": "https://images.pexels.com/photos/3673675/pexels-photo-3673675.jpeg?auto=compress&cs=tinysrgb&w=1440",
        "downloadlink": "https://images.pexels.com/photos/3673675/pexels-photo-3673675.jpeg?cs=srgb&dl=pexels-gustavo-almeida-3673675.jpg&fm=jpg"
    },
    {
        "id": "2755616",
        "src640": "https://images.pexels.com/photos/2755616/pexels-photo-2755616.jpeg?auto=compress&cs=tinysrgb&w=750",
        "src1280": "https://images.pexels.com/photos/2755616/pexels-photo-2755616.jpeg?auto=compress&cs=tinysrgb&w=1440",
        "downloadlink": "https://images.pexels.com/photos/2755616/pexels-photo-2755616.jpeg?cs=srgb&dl=pexels-ali-pazani-2755616.jpg&fm=jpg"
    },
    {
        "id": "2709563",
        "src640": "https://images.pexels.com/photos/2709563/pexels-photo-2709563.jpeg?auto=compress&cs=tinysrgb&w=750",
        "src1280": "https://images.pexels.com/photos/2709563/pexels-photo-2709563.jpeg?auto=compress&cs=tinysrgb&w=1440",
        "downloadlink": "https://images.pexels.com/photos/2709563/pexels-photo-2709563.jpeg?cs=srgb&dl=pexels-bubi-bubi-2709563.jpg&fm=jpg"
    },
    {
        "id": "1057107",
        "src640": "https://images.pexels.com/photos/1057107/pexels-photo-1057107.jpeg?auto=compress&cs=tinysrgb&w=750",
        "src1280": "https://images.pexels.com/photos/1057107/pexels-photo-1057107.jpeg?auto=compress&cs=tinysrgb&w=1440",
        "downloadlink": "https://images.pexels.com/photos/1057107/pexels-photo-1057107.jpeg?cs=srgb&dl=pexels-this-is-zun-1057107.jpg&fm=jpg"
    },
    {
        "id": "1844065",
        "src640": "https://images.pexels.com/photos/1844065/pexels-photo-1844065.jpeg?auto=compress&cs=tinysrgb&w=750",
        "src1280": "https://images.pexels.com/photos/1844065/pexels-photo-1844065.jpeg?auto=compress&cs=tinysrgb&w=1440",
        "downloadlink": "https://images.pexels.com/photos/1844065/pexels-photo-1844065.jpeg?cs=srgb&dl=pexels-marcos-flores-1844065.jpg&fm=jpg"
    },
    {
        "id": "3538028",
        "src640": "https://images.pexels.com/photos/3538028/pexels-photo-3538028.jpeg?auto=compress&cs=tinysrgb&w=750",
        "src1280": "https://images.pexels.com/photos/3538028/pexels-photo-3538028.jpeg?auto=compress&cs=tinysrgb&w=1440",
        "downloadlink": "https://images.pexels.com/photos/3538028/pexels-photo-3538028.jpeg?cs=srgb&dl=pexels-jeys-tubianosa-3538028.jpg&fm=jpg"
    },
    {
        "id": "219569",
        "src640": "https://images.pexels.com/photos/219569/pexels-photo-219569.jpeg?auto=compress&cs=tinysrgb&w=750",
        "src1280": "https://images.pexels.com/photos/219569/pexels-photo-219569.jpeg?auto=compress&cs=tinysrgb&w=1440",
        "downloadlink": "https://images.pexels.com/photos/219569/pexels-photo-219569.jpeg?cs=srgb&dl=pexels-pixabay-219569.jpg&fm=jpg"
    },
    {
        "id": "922962",
        "src640": "https://images.pexels.com/photos/922962/pexels-photo-922962.jpeg?auto=compress&cs=tinysrgb&w=750",
        "src1280": "https://images.pexels.com/photos/922962/pexels-photo-922962.jpeg?auto=compress&cs=tinysrgb&w=1440",
        "downloadlink": "https://images.pexels.com/photos/922962/pexels-photo-922962.jpeg?cs=srgb&dl=pexels-mohamed-abdelghaffar-922962.jpg&fm=jpg"
    }
]