[
    {
        "id": "7691207",
        "src640": "https://images.pexels.com/photos/7691207/pexels-photo-7691207.jpeg?auto=compress&cs=tinysrgb&w=750",
        "src1280": "https://images.pexels.com/photos/7691207/pexels-photo-7691207.jpeg?auto=compress&cs=tinysrgb&w=1440",
        "downloadlink": "https://images.pexels.com/photos/7691207/pexels-photo-7691207.jpeg?cs=srgb&dl=pexels-monstera-production-7691207.jpg&fm=jpg"
    },
    {
        "id": "5490276",
        "src640": "https://images.pexels.com/photos/5490276/pexels-photo-5490276.jpeg?auto=compress&cs=tinysrgb&w=750",
        "src1280": "https://images.pexels.com/photos/5490276/pexels-photo-5490276.jpeg?auto=compress&cs=tinysrgb&w=1440",
        "downloadlink": "https://images.pexels.com/photos/5490276/pexels-photo-5490276.jpeg?cs=srgb&dl=pexels-rachel-claire-5490276.jpg&fm=jpg"
    },
    {
        "id": "7275385",
        "src640": "https://images.pexels.com/photos/7275385/pexels-photo-7275385.jpeg?auto=compress&cs=tinysrgb&w=750",
        "src1280": "https://images.pexels.com/photos/7275385/pexels-photo-7275385.jpeg?auto=compress&cs=tinysrgb&w=1440",
        "downloadlink": "https://images.pexels.com/photos/7275385/pexels-photo-7275385.jpeg?cs=srgb&dl=pexels-dziana-hasanbekava-7275385.jpg&fm=jpg"
    },
    {
        "id": "4496981",
        "src640": "https://images.pexels.com/photos/4496981/pexels-photo-4496981.jpeg?auto=compress&cs=tinysrgb&w=750",
        "src1280": "https://images.pexels.com/photos/4496981/pexels-photo-4496981.jpeg?auto=compress&cs=tinysrgb&w=1440",
        "downloadlink": "https://images.pexels.com/photos/4496981/pexels-photo-4496981.jpeg?cs=srgb&dl=pexels-yan-krukau-4496981.jpg&fm=jpg"
    },
    {
        "id": "3643797",
        "src640": "https://images.pexels.com/photos/3643797/pexels-photo-3643797.jpeg?auto=compress&cs=tinysrgb&w=750",
        "src1280": "https://images.pexels.com/photos/3643797/pexels-photo-3643797.jpeg?auto=compress&cs=tinysrgb&w=1440",
        "downloadlink": "https://images.pexels.com/photos/3643797/pexels-photo-3643797.jpeg?cs=srgb&dl=pexels-ryanniel-masucol-3643797.jpg&fm=jpg"
    },
    {
        "id": "2446570",
        "src640": "https://images.pexels.com/photos/2446570/pexels-photo-2446570.jpeg?auto=compress&cs=tinysrgb&w=750",
        "src1280": "https://images.pexels.com/photos/2446570/pexels-photo-2446570.jpeg?auto=compress&cs=tinysrgb&w=1440",
        "downloadlink": "https://images.pexels.com/photos/2446570/pexels-photo-2446570.jpeg?cs=srgb&dl=pexels-redrec-%C2%A9%EF%B8%8F-2446570.jpg&fm=jpg"
    },
    {
        "id": "7480280",
        "src640": "https://images.pexels.com/photos/7480280/pexels-photo-7480280.jpeg?auto=compress&cs=tinysrgb&w=750",
        "src1280": "https://images.pexels.com/photos/7480280/pexels-photo-7480280.jpeg?auto=compress&cs=tinysrgb&w=1440",
        "downloadlink": "https://images.pexels.com/photos/7480280/pexels-photo-7480280.jpeg?cs=srgb&dl=pexels-angela-roma-7480280.jpg&fm=jpg"
    },
    {
        "id": "5878828",
        "src640": "https://images.pexels.com/photos/5878828/pexels-photo-5878828.jpeg?auto=compress&cs=tinysrgb&w=750",
        "src1280": "https://images.pexels.com/photos/5878828/pexels-photo-5878828.jpeg?auto=compress&cs=tinysrgb&w=1440",
        "downloadlink": "https://images.pexels.com/photos/5878828/pexels-photo-5878828.jpeg?cs=srgb&dl=pexels-nadezhda-diskant-5878828.jpg&fm=jpg"
    },
    {
        "id": "7036539",
        "src640": "https://images.pexels.com/photos/7036539/pexels-photo-7036539.jpeg?auto=compress&cs=tinysrgb&w=750",
        "src1280": "https://images.pexels.com/photos/7036539/pexels-photo-7036539.jpeg?auto=compress&cs=tinysrgb&w=1440",
        "downloadlink": "https://images.pexels.com/photos/7036539/pexels-photo-7036539.jpeg?cs=srgb&dl=pexels-alena-shekhovtcova-7036539.jpg&fm=jpg"
    },
    {
        "id": "18764805",
        "src640": "https://images.pexels.com/photos/18764805/pexels-photo-18764805.jpeg?auto=compress&cs=tinysrgb&w=750",
        "src1280": "https://images.pexels.com/photos/18764805/pexels-photo-18764805.jpeg?auto=compress&cs=tinysrgb&w=1440",
        "downloadlink": "https://images.pexels.com/photos/18764805/pexels-photo-18764805.jpeg?cs=srgb&dl=pexels-jonaorle-18764805.jpg&fm=jpg"
    },
    {
        "id": "18942237",
        "src640": "https://images.pexels.com/photos/18942237/pexels-photo-18942237.jpeg?auto=compress&cs=tinysrgb&w=750",
        "src1280": "https://images.pexels.com/photos/18942237/pexels-photo-18942237.jpeg?auto=compress&cs=tinysrgb&w=1440",
        "downloadlink": "https://images.pexels.com/photos/18942237/pexels-photo-18942237.jpeg?cs=srgb&dl=pexels-erva-nur-18942237.jpg&fm=jpg"
    },
    {
        "id": "1706776",
        "src640": "https://images.pexels.com/photos/1706776/pexels-photo-1706776.jpeg?auto=compress&cs=tinysrgb&w=750",
        "src1280": "https://images.pexels.com/photos/1706776/pexels-photo-1706776.jpeg?auto=compress&cs=tinysrgb&w=1440",
        "downloadlink": "https://images.pexels.com/photos/1706776/pexels-photo-1706776.jpeg?cs=srgb&dl=pexels-engin-akyurt-1706776.jpg&fm=jpg"
    },
    {
        "id": "3265548",
        "src640": "https://images.pexels.com/photos/3265548/pexels-photo-3265548.jpeg?auto=compress&cs=tinysrgb&w=750",
        "src1280": "https://images.pexels.com/photos/3265548/pexels-photo-3265548.jpeg?auto=compress&cs=tinysrgb&w=1440",
        "downloadlink": "https://images.pexels.com/photos/3265548/pexels-photo-3265548.jpeg?cs=srgb&dl=pexels-ivan-3265548.jpg&fm=jpg"
    },
    {
        "id": "3410386",
        "src640": "https://images.pexels.com/photos/3410386/pexels-photo-3410386.jpeg?auto=compress&cs=tinysrgb&w=750",
        "src1280": "https://images.pexels.com/photos/3410386/pexels-photo-3410386.jpeg?auto=compress&cs=tinysrgb&w=1440",
        "downloadlink": "https://images.pexels.com/photos/3410386/pexels-photo-3410386.jpeg?cs=srgb&dl=pexels-john-mor-3410386.jpg&fm=jpg"
    },
    {
        "id": "3603942",
        "src640": "https://images.pexels.com/photos/3603942/pexels-photo-3603942.jpeg?auto=compress&cs=tinysrgb&w=750",
        "src1280": "https://images.pexels.com/photos/3603942/pexels-photo-3603942.jpeg?auto=compress&cs=tinysrgb&w=1440",
        "downloadlink": "https://images.pexels.com/photos/3603942/pexels-photo-3603942.jpeg?cs=srgb&dl=pexels-eric-torres-3603942.jpg&fm=jpg"
    },
    {
        "id": "2239700",
        "src640": "https://images.pexels.com/photos/2239700/pexels-photo-2239700.jpeg?auto=compress&cs=tinysrgb&w=750",
        "src1280": "https://images.pexels.com/photos/2239700/pexels-photo-2239700.jpeg?auto=compress&cs=tinysrgb&w=1440",
        "downloadlink": "https://images.pexels.com/photos/2239700/pexels-photo-2239700.jpeg?cs=srgb&dl=pexels-thiago-matos-2239700.jpg&fm=jpg"
    },
    {
        "id": "2383117",
        "src640": "https://images.pexels.com/photos/2383117/pexels-photo-2383117.jpeg?auto=compress&cs=tinysrgb&w=750",
        "src1280": "https://images.pexels.com/photos/2383117/pexels-photo-2383117.jpeg?auto=compress&cs=tinysrgb&w=1440",
        "downloadlink": "https://images.pexels.com/photos/2383117/pexels-photo-2383117.jpeg?cs=srgb&dl=pexels-lehandross-2383117.jpg&fm=jpg"
    },
    {
        "id": "6995884",
        "src640": "https://images.pexels.com/photos/6995884/pexels-photo-6995884.jpeg?auto=compress&cs=tinysrgb&w=750",
        "src1280": "https://images.pexels.com/photos/6995884/pexels-photo-6995884.jpeg?auto=compress&cs=tinysrgb&w=1440",
        "downloadlink": "https://images.pexels.com/photos/6995884/pexels-photo-6995884.jpeg?cs=srgb&dl=pexels-alena-shekhovtcova-6995884.jpg&fm=jpg"
    },
    {
        "id": "17691844",
        "src640": "https://images.pexels.com/photos/17691844/pexels-photo-17691844.jpeg?auto=compress&cs=tinysrgb&w=750",
        "src1280": "https://images.pexels.com/photos/17691844/pexels-photo-17691844.jpeg?auto=compress&cs=tinysrgb&w=1440",
        "downloadlink": "https://images.pexels.com/photos/17691844/pexels-photo-17691844.jpeg?cs=srgb&dl=pexels-nataliia-holovchuk-17691844.jpg&fm=jpg"
    },
    {
        "id": "18793194",
        "src640": "https://images.pexels.com/photos/18793194/pexels-photo-18793194.jpeg?auto=compress&cs=tinysrgb&w=750",
        "src1280": "https://images.pexels.com/photos/18793194/pexels-photo-18793194.jpeg?auto=compress&cs=tinysrgb&w=1440",
        "downloadlink": "https://images.pexels.com/photos/18793194/pexels-photo-18793194.jpeg?cs=srgb&dl=pexels-jonaorle-18793194.jpg&fm=jpg"
    },
    {
        "id": "18723999",
        "src640": "https://images.pexels.com/photos/18723999/pexels-photo-18723999.jpeg?auto=compress&cs=tinysrgb&w=750",
        "src1280": "https://images.pexels.com/photos/18723999/pexels-photo-18723999.jpeg?auto=compress&cs=tinysrgb&w=1440",
        "downloadlink": "https://images.pexels.com/photos/18723999/pexels-photo-18723999.jpeg?cs=srgb&dl=pexels-abdurrahim-israfilov-18723999.jpg&fm=jpg"
    },
    {
        "id": "3379275",
        "src640": "https://images.pexels.com/photos/3379275/pexels-photo-3379275.jpeg?auto=compress&cs=tinysrgb&w=750",
        "src1280": "https://images.pexels.com/photos/3379275/pexels-photo-3379275.jpeg?auto=compress&cs=tinysrgb&w=1440",
        "downloadlink": "https://images.pexels.com/photos/3379275/pexels-photo-3379275.jpeg?cs=srgb&dl=pexels-cottonbro-studio-3379275.jpg&fm=jpg"
    },
    {
        "id": "3715605",
        "src640": "https://images.pexels.com/photos/3715605/pexels-photo-3715605.jpeg?auto=compress&cs=tinysrgb&w=750",
        "src1280": "https://images.pexels.com/photos/3715605/pexels-photo-3715605.jpeg?auto=compress&cs=tinysrgb&w=1440",
        "downloadlink": "https://images.pexels.com/photos/3715605/pexels-photo-3715605.jpeg?cs=srgb&dl=pexels-ryanniel-masucol-3715605.jpg&fm=jpg"
    },
    {
        "id": "3746150",
        "src640": "https://images.pexels.com/photos/3746150/pexels-photo-3746150.jpeg?auto=compress&cs=tinysrgb&w=750",
        "src1280": "https://images.pexels.com/photos/3746150/pexels-photo-3746150.jpeg?auto=compress&cs=tinysrgb&w=1440",
        "downloadlink": "https://images.pexels.com/photos/3746150/pexels-photo-3746150.jpeg?cs=srgb&dl=pexels-anna-shvets-3746150.jpg&fm=jpg"
    }
]