[
    {
        "id": "2860740",
        "src640": "https://images.pexels.com/photos/2860740/pexels-photo-2860740.jpeg?auto=compress&cs=tinysrgb&w=750",
        "src1280": "https://images.pexels.com/photos/2860740/pexels-photo-2860740.jpeg?auto=compress&cs=tinysrgb&w=1440",
        "downloadlink": "https://images.pexels.com/photos/2860740/pexels-photo-2860740.jpeg?cs=srgb&dl=pexels-felipe-parucker-2860740.jpg&fm=jpg"
    },
    {
        "id": "14005957",
        "src640": "https://images.pexels.com/photos/14005957/pexels-photo-14005957.jpeg?auto=compress&cs=tinysrgb&w=750",
        "src1280": "https://images.pexels.com/photos/14005957/pexels-photo-14005957.jpeg?auto=compress&cs=tinysrgb&w=1440",
        "downloadlink": "https://images.pexels.com/photos/14005957/pexels-photo-14005957.jpeg?cs=srgb&dl=pexels-aog-pixels-14005957.jpg&fm=jpg"
    },
    {
        "id": "8029007",
        "src640": "https://images.pexels.com/photos/8029007/pexels-photo-8029007.jpeg?auto=compress&cs=tinysrgb&w=750",
        "src1280": "https://images.pexels.com/photos/8029007/pexels-photo-8029007.jpeg?auto=compress&cs=tinysrgb&w=1440",
        "downloadlink": "https://images.pexels.com/photos/8029007/pexels-photo-8029007.jpeg?cs=srgb&dl=pexels-john-valette-8029007.jpg&fm=jpg"
    },
    {
        "id": "8126091",
        "src640": "https://images.pexels.com/photos/8126091/pexels-photo-8126091.jpeg?auto=compress&cs=tinysrgb&w=750",
        "src1280": "https://images.pexels.com/photos/8126091/pexels-photo-8126091.jpeg?auto=compress&cs=tinysrgb&w=1440",
        "downloadlink": "https://images.pexels.com/photos/8126091/pexels-photo-8126091.jpeg?cs=srgb&dl=pexels-jim-nyamao-8126091.jpg&fm=jpg"
    },
    {
        "id": "6976104",
        "src640": "https://images.pexels.com/photos/6976104/pexels-photo-6976104.jpeg?auto=compress&cs=tinysrgb&w=750",
        "src1280": "https://images.pexels.com/photos/6976104/pexels-photo-6976104.jpeg?auto=compress&cs=tinysrgb&w=1440",
        "downloadlink": "https://images.pexels.com/photos/6976104/pexels-photo-6976104.jpeg?cs=srgb&dl=pexels-koolshooters-6976104.jpg&fm=jpg"
    },
    {
        "id": "14263355",
        "src640": "https://images.pexels.com/photos/14263355/pexels-photo-14263355.jpeg?auto=compress&cs=tinysrgb&w=750",
        "src1280": "https://images.pexels.com/photos/14263355/pexels-photo-14263355.jpeg?auto=compress&cs=tinysrgb&w=1440",
        "downloadlink": "https://images.pexels.com/photos/14263355/pexels-photo-14263355.jpeg?cs=srgb&dl=pexels-folajimi-famosaya-14263355.jpg&fm=jpg"
    },
    {
        "id": "19184107",
        "src640": "https://images.pexels.com/photos/19184107/pexels-photo-19184107.jpeg?auto=compress&cs=tinysrgb&w=750",
        "src1280": "https://images.pexels.com/photos/19184107/pexels-photo-19184107.jpeg?auto=compress&cs=tinysrgb&w=1440",
        "downloadlink": "https://images.pexels.com/photos/19184107/pexels-photo-19184107.jpeg?cs=srgb&dl=pexels-tu%E1%BA%A5n-ki%E1%BB%87t-jr-19184107.jpg&fm=jpg"
    },
    {
        "id": "19184108",
        "src640": "https://images.pexels.com/photos/19184108/pexels-photo-19184108.jpeg?auto=compress&cs=tinysrgb&w=750",
        "src1280": "https://images.pexels.com/photos/19184108/pexels-photo-19184108.jpeg?auto=compress&cs=tinysrgb&w=1440",
        "downloadlink": "https://images.pexels.com/photos/19184108/pexels-photo-19184108.jpeg?cs=srgb&dl=pexels-tu%E1%BA%A5n-ki%E1%BB%87t-jr-19184108.jpg&fm=jpg"
    },
    {
        "id": "19397629",
        "src640": "https://images.pexels.com/photos/19397629/pexels-photo-19397629.jpeg?auto=compress&cs=tinysrgb&w=750",
        "src1280": "https://images.pexels.com/photos/19397629/pexels-photo-19397629.jpeg?auto=compress&cs=tinysrgb&w=1440",
        "downloadlink": "https://images.pexels.com/photos/19397629/pexels-photo-19397629.jpeg?cs=srgb&dl=pexels-alexander-mass-19397629.jpg&fm=jpg"
    },
    {
        "id": "18550231",
        "src640": "https://images.pexels.com/photos/18550231/pexels-photo-18550231.jpeg?auto=compress&cs=tinysrgb&w=750",
        "src1280": "https://images.pexels.com/photos/18550231/pexels-photo-18550231.jpeg?auto=compress&cs=tinysrgb&w=1440",
        "downloadlink": "https://images.pexels.com/photos/18550231/pexels-photo-18550231.jpeg?cs=srgb&dl=pexels-ozan-%C3%A7ulha-18550231.jpg&fm=jpg"
    },
    {
        "id": "18772291",
        "src640": "https://images.pexels.com/photos/18772291/pexels-photo-18772291.jpeg?auto=compress&cs=tinysrgb&w=750",
        "src1280": "https://images.pexels.com/photos/18772291/pexels-photo-18772291.jpeg?auto=compress&cs=tinysrgb&w=1440",
        "downloadlink": "https://images.pexels.com/photos/18772291/pexels-photo-18772291.jpeg?cs=srgb&dl=pexels-yemi-wallington-18772291.jpg&fm=jpg"
    },
    {
        "id": "18877851",
        "src640": "https://images.pexels.com/photos/18877851/pexels-photo-18877851.jpeg?auto=compress&cs=tinysrgb&w=750",
        "src1280": "https://images.pexels.com/photos/18877851/pexels-photo-18877851.jpeg?auto=compress&cs=tinysrgb&w=1440",
        "downloadlink": "https://images.pexels.com/photos/18877851/pexels-photo-18877851.jpeg?cs=srgb&dl=pexels-cami-18877851.jpg&fm=jpg"
    },
    {
        "id": "15953866",
        "src640": "https://images.pexels.com/photos/15953866/pexels-photo-15953866.jpeg?auto=compress&cs=tinysrgb&w=750",
        "src1280": "https://images.pexels.com/photos/15953866/pexels-photo-15953866.jpeg?auto=compress&cs=tinysrgb&w=1440",
        "downloadlink": "https://images.pexels.com/photos/15953866/pexels-photo-15953866.jpeg?cs=srgb&dl=pexels-lance-reis-15953866.jpg&fm=jpg"
    },
    {
        "id": "15446125",
        "src640": "https://images.pexels.com/photos/15446125/pexels-photo-15446125.jpeg?auto=compress&cs=tinysrgb&w=750",
        "src1280": "https://images.pexels.com/photos/15446125/pexels-photo-15446125.jpeg?auto=compress&cs=tinysrgb&w=1440",
        "downloadlink": "https://images.pexels.com/photos/15446125/pexels-photo-15446125.jpeg?cs=srgb&dl=pexels-amjay-studio-15446125.jpg&fm=jpg"
    },
    {
        "id": "19069913",
        "src640": "https://images.pexels.com/photos/19069913/pexels-photo-19069913.jpeg?auto=compress&cs=tinysrgb&w=750",
        "src1280": "https://images.pexels.com/photos/19069913/pexels-photo-19069913.jpeg?auto=compress&cs=tinysrgb&w=1440",
        "downloadlink": "https://images.pexels.com/photos/19069913/pexels-photo-19069913.jpeg?cs=srgb&dl=pexels-tu%E1%BA%A5n-ki%E1%BB%87t-jr-19069913.jpg&fm=jpg"
    },
    {
        "id": "19055798",
        "src640": "https://images.pexels.com/photos/19055798/pexels-photo-19055798.jpeg?auto=compress&cs=tinysrgb&w=750",
        "src1280": "https://images.pexels.com/photos/19055798/pexels-photo-19055798.jpeg?auto=compress&cs=tinysrgb&w=1440",
        "downloadlink": "https://images.pexels.com/photos/19055798/pexels-photo-19055798.jpeg?cs=srgb&dl=pexels-hatice-baran-19055798.jpg&fm=jpg"
    },
    {
        "id": "19109448",
        "src640": "https://images.pexels.com/photos/19109448/pexels-photo-19109448.jpeg?auto=compress&cs=tinysrgb&w=750",
        "src1280": "https://images.pexels.com/photos/19109448/pexels-photo-19109448.jpeg?auto=compress&cs=tinysrgb&w=1440",
        "downloadlink": "https://images.pexels.com/photos/19109448/pexels-photo-19109448.jpeg?cs=srgb&dl=pexels-jordy-toscano-19109448.jpg&fm=jpg"
    },
    {
        "id": "2256268",
        "src640": "https://images.pexels.com/photos/2256268/pexels-photo-2256268.jpeg?auto=compress&cs=tinysrgb&w=750",
        "src1280": "https://images.pexels.com/photos/2256268/pexels-photo-2256268.jpeg?auto=compress&cs=tinysrgb&w=1440",
        "downloadlink": "https://images.pexels.com/photos/2256268/pexels-photo-2256268.jpeg?cs=srgb&dl=pexels-kha-ruxury-2256268.jpg&fm=jpg"
    },
    {
        "id": "4672488",
        "src640": "https://images.pexels.com/photos/4672488/pexels-photo-4672488.jpeg?auto=compress&cs=tinysrgb&w=750",
        "src1280": "https://images.pexels.com/photos/4672488/pexels-photo-4672488.jpeg?auto=compress&cs=tinysrgb&w=1440",
        "downloadlink": "https://images.pexels.com/photos/4672488/pexels-photo-4672488.jpeg?cs=srgb&dl=pexels-anna-shvets-4672488.jpg&fm=jpg"
    },
    {
        "id": "3491674",
        "src640": "https://images.pexels.com/photos/3491674/pexels-photo-3491674.jpeg?auto=compress&cs=tinysrgb&w=750",
        "src1280": "https://images.pexels.com/photos/3491674/pexels-photo-3491674.jpeg?auto=compress&cs=tinysrgb&w=1440",
        "downloadlink": "https://images.pexels.com/photos/3491674/pexels-photo-3491674.jpeg?cs=srgb&dl=pexels-aline-viana-prado-3491674.jpg&fm=jpg"
    },
    {
        "id": "3808801",
        "src640": "https://images.pexels.com/photos/3808801/pexels-photo-3808801.jpeg?auto=compress&cs=tinysrgb&w=750",
        "src1280": "https://images.pexels.com/photos/3808801/pexels-photo-3808801.jpeg?auto=compress&cs=tinysrgb&w=1440",
        "downloadlink": "https://images.pexels.com/photos/3808801/pexels-photo-3808801.jpeg?cs=srgb&dl=pexels-andrea-piacquadio-3808801.jpg&fm=jpg"
    },
    {
        "id": "1249654",
        "src640": "https://images.pexels.com/photos/1249654/pexels-photo-1249654.jpeg?auto=compress&cs=tinysrgb&w=750",
        "src1280": "https://images.pexels.com/photos/1249654/pexels-photo-1249654.jpeg?auto=compress&cs=tinysrgb&w=1440",
        "downloadlink": "https://images.pexels.com/photos/1249654/pexels-photo-1249654.jpeg?cs=srgb&dl=pexels-alexander-krivitskiy-1249654.jpg&fm=jpg"
    },
    {
        "id": "2914306",
        "src640": "https://images.pexels.com/photos/2914306/pexels-photo-2914306.jpeg?auto=compress&cs=tinysrgb&w=750",
        "src1280": "https://images.pexels.com/photos/2914306/pexels-photo-2914306.jpeg?auto=compress&cs=tinysrgb&w=1440",
        "downloadlink": "https://images.pexels.com/photos/2914306/pexels-photo-2914306.jpeg?cs=srgb&dl=pexels-luis-zheji-2914306.jpg&fm=jpg"
    },
    {
        "id": "3290250",
        "src640": "https://images.pexels.com/photos/3290250/pexels-photo-3290250.jpeg?auto=compress&cs=tinysrgb&w=750",
        "src1280": "https://images.pexels.com/photos/3290250/pexels-photo-3290250.jpeg?auto=compress&cs=tinysrgb&w=1440",
        "downloadlink": "https://images.pexels.com/photos/3290250/pexels-photo-3290250.jpeg?cs=srgb&dl=pexels-joshua-mcknight-3290250.jpg&fm=jpg"
    }
]