[
    {
        "id": "19055800",
        "src640": "https://images.pexels.com/photos/19055800/pexels-photo-19055800.jpeg?auto=compress&cs=tinysrgb&w=750",
        "src1280": "https://images.pexels.com/photos/19055800/pexels-photo-19055800.jpeg?auto=compress&cs=tinysrgb&w=1440",
        "downloadlink": "https://images.pexels.com/photos/19055800/pexels-photo-19055800.jpeg?cs=srgb&dl=pexels-hatice-baran-19055800.jpg&fm=jpg"
    },
    {
        "id": "19055804",
        "src640": "https://images.pexels.com/photos/19055804/pexels-photo-19055804.jpeg?auto=compress&cs=tinysrgb&w=750",
        "src1280": "https://images.pexels.com/photos/19055804/pexels-photo-19055804.jpeg?auto=compress&cs=tinysrgb&w=1440",
        "downloadlink": "https://images.pexels.com/photos/19055804/pexels-photo-19055804.jpeg?cs=srgb&dl=pexels-hatice-baran-19055804.jpg&fm=jpg"
    },
    {
        "id": "19055837",
        "src640": "https://images.pexels.com/photos/19055837/pexels-photo-19055837.jpeg?auto=compress&cs=tinysrgb&w=750",
        "src1280": "https://images.pexels.com/photos/19055837/pexels-photo-19055837.jpeg?auto=compress&cs=tinysrgb&w=1440",
        "downloadlink": "https://images.pexels.com/photos/19055837/pexels-photo-19055837.jpeg?cs=srgb&dl=pexels-atahan-demir-19055837.jpg&fm=jpg"
    },
    {
        "id": "19112974",
        "src640": "https://images.pexels.com/photos/19112974/pexels-photo-19112974.jpeg?auto=compress&cs=tinysrgb&w=750",
        "src1280": "https://images.pexels.com/photos/19112974/pexels-photo-19112974.jpeg?auto=compress&cs=tinysrgb&w=1440",
        "downloadlink": "https://images.pexels.com/photos/19112974/pexels-photo-19112974.jpeg?cs=srgb&dl=pexels-george-frewat-19112974.jpg&fm=jpg"
    },
    {
        "id": "19560338",
        "src640": "https://images.pexels.com/photos/19560338/pexels-photo-19560338.jpeg?auto=compress&cs=tinysrgb&w=750",
        "src1280": "https://images.pexels.com/photos/19560338/pexels-photo-19560338.jpeg?auto=compress&cs=tinysrgb&w=1440",
        "downloadlink": "https://images.pexels.com/photos/19560338/pexels-photo-19560338.jpeg?cs=srgb&dl=pexels-pantelis-georgitsis-19560338.jpg&fm=jpg"
    },
    {
        "id": "1416423",
        "src640": "https://images.pexels.com/photos/1416423/pexels-photo-1416423.jpeg?auto=compress&cs=tinysrgb&w=750",
        "src1280": "https://images.pexels.com/photos/1416423/pexels-photo-1416423.jpeg?auto=compress&cs=tinysrgb&w=1440",
        "downloadlink": "https://images.pexels.com/photos/1416423/pexels-photo-1416423.jpeg?cs=srgb&dl=pexels-godisable-jacob-1416423.jpg&fm=jpg"
    },
    {
        "id": "1808766",
        "src640": "https://images.pexels.com/photos/1808766/pexels-photo-1808766.jpeg?auto=compress&cs=tinysrgb&w=750",
        "src1280": "https://images.pexels.com/photos/1808766/pexels-photo-1808766.jpeg?auto=compress&cs=tinysrgb&w=1440",
        "downloadlink": "https://images.pexels.com/photos/1808766/pexels-photo-1808766.jpeg?cs=srgb&dl=pexels-gabriela-pereira-1808766.jpg&fm=jpg"
    },
    {
        "id": "1999504",
        "src640": "https://images.pexels.com/photos/1999504/pexels-photo-1999504.jpeg?auto=compress&cs=tinysrgb&w=750",
        "src1280": "https://images.pexels.com/photos/1999504/pexels-photo-1999504.jpeg?auto=compress&cs=tinysrgb&w=1440",
        "downloadlink": "https://images.pexels.com/photos/1999504/pexels-photo-1999504.jpeg?cs=srgb&dl=pexels-lola-russian-1999504.jpg&fm=jpg"
    },
    {
        "id": "2034501",
        "src640": "https://images.pexels.com/photos/2034501/pexels-photo-2034501.jpeg?auto=compress&cs=tinysrgb&w=750",
        "src1280": "https://images.pexels.com/photos/2034501/pexels-photo-2034501.jpeg?auto=compress&cs=tinysrgb&w=1440",
        "downloadlink": "https://images.pexels.com/photos/2034501/pexels-photo-2034501.jpeg?cs=srgb&dl=pexels-andr%C3%A9-souza-2034501.jpg&fm=jpg"
    },
    {
        "id": "2121323",
        "src640": "https://images.pexels.com/photos/2121323/pexels-photo-2121323.jpeg?auto=compress&cs=tinysrgb&w=750",
        "src1280": "https://images.pexels.com/photos/2121323/pexels-photo-2121323.jpeg?auto=compress&cs=tinysrgb&w=1440",
        "downloadlink": "https://images.pexels.com/photos/2121323/pexels-photo-2121323.jpeg?cs=srgb&dl=pexels-matheus-henrin-2121323.jpg&fm=jpg"
    },
    {
        "id": "2181871",
        "src640": "https://images.pexels.com/photos/2181871/pexels-photo-2181871.jpeg?auto=compress&cs=tinysrgb&w=750",
        "src1280": "https://images.pexels.com/photos/2181871/pexels-photo-2181871.jpeg?auto=compress&cs=tinysrgb&w=1440",
        "downloadlink": "https://images.pexels.com/photos/2181871/pexels-photo-2181871.jpeg?cs=srgb&dl=pexels-bia-sousa-2181871.jpg&fm=jpg"
    },
    {
        "id": "2616962",
        "src640": "https://images.pexels.com/photos/2616962/pexels-photo-2616962.jpeg?auto=compress&cs=tinysrgb&w=750",
        "src1280": "https://images.pexels.com/photos/2616962/pexels-photo-2616962.jpeg?auto=compress&cs=tinysrgb&w=1440",
        "downloadlink": "https://images.pexels.com/photos/2616962/pexels-photo-2616962.jpeg?cs=srgb&dl=pexels-jorge-fakhouri-filho-2616962.jpg&fm=jpg"
    },
    {
        "id": "4672501",
        "src640": "https://images.pexels.com/photos/4672501/pexels-photo-4672501.jpeg?auto=compress&cs=tinysrgb&w=750",
        "src1280": "https://images.pexels.com/photos/4672501/pexels-photo-4672501.jpeg?auto=compress&cs=tinysrgb&w=1440",
        "downloadlink": "https://images.pexels.com/photos/4672501/pexels-photo-4672501.jpeg?cs=srgb&dl=pexels-anna-shvets-4672501.jpg&fm=jpg"
    },
    {
        "id": "4672555",
        "src640": "https://images.pexels.com/photos/4672555/pexels-photo-4672555.jpeg?auto=compress&cs=tinysrgb&w=750",
        "src1280": "https://images.pexels.com/photos/4672555/pexels-photo-4672555.jpeg?auto=compress&cs=tinysrgb&w=1440",
        "downloadlink": "https://images.pexels.com/photos/4672555/pexels-photo-4672555.jpeg?cs=srgb&dl=pexels-anna-shvets-4672555.jpg&fm=jpg"
    },
    {
        "id": "3002226",
        "src640": "https://images.pexels.com/photos/3002226/pexels-photo-3002226.jpeg?auto=compress&cs=tinysrgb&w=750",
        "src1280": "https://images.pexels.com/photos/3002226/pexels-photo-3002226.jpeg?auto=compress&cs=tinysrgb&w=1440",
        "downloadlink": "https://images.pexels.com/photos/3002226/pexels-photo-3002226.jpeg?cs=srgb&dl=pexels-marlene-lepp%C3%A4nen-3002226.jpg&fm=jpg"
    },
    {
        "id": "3183201",
        "src640": "https://images.pexels.com/photos/3183201/pexels-photo-3183201.jpeg?auto=compress&cs=tinysrgb&w=750",
        "src1280": "https://images.pexels.com/photos/3183201/pexels-photo-3183201.jpeg?auto=compress&cs=tinysrgb&w=1440",
        "downloadlink": "https://images.pexels.com/photos/3183201/pexels-photo-3183201.jpeg?cs=srgb&dl=pexels-fauxels-3183201.jpg&fm=jpg"
    },
    {
        "id": "3206079",
        "src640": "https://images.pexels.com/photos/3206079/pexels-photo-3206079.jpeg?auto=compress&cs=tinysrgb&w=750",
        "src1280": "https://images.pexels.com/photos/3206079/pexels-photo-3206079.jpeg?auto=compress&cs=tinysrgb&w=1440",
        "downloadlink": "https://images.pexels.com/photos/3206079/pexels-photo-3206079.jpeg?cs=srgb&dl=pexels-cottonbro-studio-3206079.jpg&fm=jpg"
    },
    {
        "id": "3261113",
        "src640": "https://images.pexels.com/photos/3261113/pexels-photo-3261113.jpeg?auto=compress&cs=tinysrgb&w=750",
        "src1280": "https://images.pexels.com/photos/3261113/pexels-photo-3261113.jpeg?auto=compress&cs=tinysrgb&w=1440",
        "downloadlink": "https://images.pexels.com/photos/3261113/pexels-photo-3261113.jpeg?cs=srgb&dl=pexels-miggy-rivera-3261113.jpg&fm=jpg"
    },
    {
        "id": "3363204",
        "src640": "https://images.pexels.com/photos/3363204/pexels-photo-3363204.jpeg?auto=compress&cs=tinysrgb&w=750",
        "src1280": "https://images.pexels.com/photos/3363204/pexels-photo-3363204.jpeg?auto=compress&cs=tinysrgb&w=1440",
        "downloadlink": "https://images.pexels.com/photos/3363204/pexels-photo-3363204.jpeg?cs=srgb&dl=pexels-skg-photography-3363204.jpg&fm=jpg"
    },
    {
        "id": "3348748",
        "src640": "https://images.pexels.com/photos/3348748/pexels-photo-3348748.jpeg?auto=compress&cs=tinysrgb&w=750",
        "src1280": "https://images.pexels.com/photos/3348748/pexels-photo-3348748.jpeg?auto=compress&cs=tinysrgb&w=1440",
        "downloadlink": "https://images.pexels.com/photos/3348748/pexels-photo-3348748.jpeg?cs=srgb&dl=pexels-ali-pazani-3348748.jpg&fm=jpg"
    },
    {
        "id": "3347372",
        "src640": "https://images.pexels.com/photos/3347372/pexels-photo-3347372.jpeg?auto=compress&cs=tinysrgb&w=750",
        "src1280": "https://images.pexels.com/photos/3347372/pexels-photo-3347372.jpeg?auto=compress&cs=tinysrgb&w=1440",
        "downloadlink": "https://images.pexels.com/photos/3347372/pexels-photo-3347372.jpeg?cs=srgb&dl=pexels-roy-reyna-3347372.jpg&fm=jpg"
    },
    {
        "id": "3491019",
        "src640": "https://images.pexels.com/photos/3491019/pexels-photo-3491019.jpeg?auto=compress&cs=tinysrgb&w=750",
        "src1280": "https://images.pexels.com/photos/3491019/pexels-photo-3491019.jpeg?auto=compress&cs=tinysrgb&w=1440",
        "downloadlink": "https://images.pexels.com/photos/3491019/pexels-photo-3491019.jpeg?cs=srgb&dl=pexels-ali-pazani-3491019.jpg&fm=jpg"
    },
    {
        "id": "3532107",
        "src640": "https://images.pexels.com/photos/3532107/pexels-photo-3532107.jpeg?auto=compress&cs=tinysrgb&w=750",
        "src1280": "https://images.pexels.com/photos/3532107/pexels-photo-3532107.jpeg?auto=compress&cs=tinysrgb&w=1440",
        "downloadlink": "https://images.pexels.com/photos/3532107/pexels-photo-3532107.jpeg?cs=srgb&dl=pexels-eric-do-3532107.jpg&fm=jpg"
    },
    {
        "id": "3756943",
        "src640": "https://images.pexels.com/photos/3756943/pexels-photo-3756943.jpeg?auto=compress&cs=tinysrgb&w=750",
        "src1280": "https://images.pexels.com/photos/3756943/pexels-photo-3756943.jpeg?auto=compress&cs=tinysrgb&w=1440",
        "downloadlink": "https://images.pexels.com/photos/3756943/pexels-photo-3756943.jpeg?cs=srgb&dl=pexels-sound-on-3756943.jpg&fm=jpg"
    }
]