[
    {
        "id": "16062913",
        "src640": "https://images.pexels.com/photos/16062913/pexels-photo-16062913.jpeg?auto=compress&cs=tinysrgb&w=750",
        "src1280": "https://images.pexels.com/photos/16062913/pexels-photo-16062913.jpeg?auto=compress&cs=tinysrgb&w=1440",
        "downloadlink": "https://images.pexels.com/photos/16062913/pexels-photo-16062913.jpeg?cs=srgb&dl=pexels-lance-reis-16062913.jpg&fm=jpg"
    },
    {
        "id": "17290634",
        "src640": "https://images.pexels.com/photos/17290634/pexels-photo-17290634.jpeg?auto=compress&cs=tinysrgb&w=750",
        "src1280": "https://images.pexels.com/photos/17290634/pexels-photo-17290634.jpeg?auto=compress&cs=tinysrgb&w=1440",
        "downloadlink": "https://images.pexels.com/photos/17290634/pexels-photo-17290634.jpeg?cs=srgb&dl=pexels-ozan-%C3%A7ulha-17290634.jpg&fm=jpg"
    },
    {
        "id": "17504533",
        "src640": "https://images.pexels.com/photos/17504533/pexels-photo-17504533.jpeg?auto=compress&cs=tinysrgb&w=750",
        "src1280": "https://images.pexels.com/photos/17504533/pexels-photo-17504533.jpeg?auto=compress&cs=tinysrgb&w=1440",
        "downloadlink": "https://images.pexels.com/photos/17504533/pexels-photo-17504533.jpeg?cs=srgb&dl=pexels-jayson-hinrichsen-17504533.jpg&fm=jpg"
    },
    {
        "id": "17397039",
        "src640": "https://images.pexels.com/photos/17397039/pexels-photo-17397039.jpeg?auto=compress&cs=tinysrgb&w=750",
        "src1280": "https://images.pexels.com/photos/17397039/pexels-photo-17397039.jpeg?auto=compress&cs=tinysrgb&w=1440",
        "downloadlink": "https://images.pexels.com/photos/17397039/pexels-photo-17397039.jpeg?cs=srgb&dl=pexels-antares-17397039.jpg&fm=jpg"
    },
    {
        "id": "17459764",
        "src640": "https://images.pexels.com/photos/17459764/pexels-photo-17459764.jpeg?auto=compress&cs=tinysrgb&w=750",
        "src1280": "https://images.pexels.com/photos/17459764/pexels-photo-17459764.jpeg?auto=compress&cs=tinysrgb&w=1440",
        "downloadlink": "https://images.pexels.com/photos/17459764/pexels-photo-17459764.jpeg?cs=srgb&dl=pexels-wesley-davi-17459764.jpg&fm=jpg"
    },
    {
        "id": "17548751",
        "src640": "https://images.pexels.com/photos/17548751/pexels-photo-17548751.jpeg?auto=compress&cs=tinysrgb&w=750",
        "src1280": "https://images.pexels.com/photos/17548751/pexels-photo-17548751.jpeg?auto=compress&cs=tinysrgb&w=1440",
        "downloadlink": "https://images.pexels.com/photos/17548751/pexels-photo-17548751.jpeg?cs=srgb&dl=pexels-valeria-boltneva-17548751.jpg&fm=jpg"
    },
    {
        "id": "17670248",
        "src640": "https://images.pexels.com/photos/17670248/pexels-photo-17670248.jpeg?auto=compress&cs=tinysrgb&w=750",
        "src1280": "https://images.pexels.com/photos/17670248/pexels-photo-17670248.jpeg?auto=compress&cs=tinysrgb&w=1440",
        "downloadlink": "https://images.pexels.com/photos/17670248/pexels-photo-17670248.jpeg?cs=srgb&dl=pexels-maria-loznevaya-17670248.jpg&fm=jpg"
    },
    {
        "id": "15502859",
        "src640": "https://images.pexels.com/photos/15502859/pexels-photo-15502859.jpeg?auto=compress&cs=tinysrgb&w=750",
        "src1280": "https://images.pexels.com/photos/15502859/pexels-photo-15502859.jpeg?auto=compress&cs=tinysrgb&w=1440",
        "downloadlink": "https://images.pexels.com/photos/15502859/pexels-photo-15502859.jpeg?cs=srgb&dl=pexels-amirhossein-fattahi-15502859.jpg&fm=jpg"
    },
    {
        "id": "14979419",
        "src640": "https://images.pexels.com/photos/14979419/pexels-photo-14979419.jpeg?auto=compress&cs=tinysrgb&w=750",
        "src1280": "https://images.pexels.com/photos/14979419/pexels-photo-14979419.jpeg?auto=compress&cs=tinysrgb&w=1440",
        "downloadlink": "https://images.pexels.com/photos/14979419/pexels-photo-14979419.jpeg?cs=srgb&dl=pexels-vika-kirillova-14979419.jpg&fm=jpg"
    },
    {
        "id": "16850465",
        "src640": "https://images.pexels.com/photos/16850465/pexels-photo-16850465.jpeg?auto=compress&cs=tinysrgb&w=750",
        "src1280": "https://images.pexels.com/photos/16850465/pexels-photo-16850465.jpeg?auto=compress&cs=tinysrgb&w=1440",
        "downloadlink": "https://images.pexels.com/photos/16850465/pexels-photo-16850465.jpeg?cs=srgb&dl=pexels-ali-pazani-16850465.jpg&fm=jpg"
    },
    {
        "id": "16850468",
        "src640": "https://images.pexels.com/photos/16850468/pexels-photo-16850468.jpeg?auto=compress&cs=tinysrgb&w=750",
        "src1280": "https://images.pexels.com/photos/16850468/pexels-photo-16850468.jpeg?auto=compress&cs=tinysrgb&w=1440",
        "downloadlink": "https://images.pexels.com/photos/16850468/pexels-photo-16850468.jpeg?cs=srgb&dl=pexels-ali-pazani-16850468.jpg&fm=jpg"
    },
    {
        "id": "15579925",
        "src640": "https://images.pexels.com/photos/15579925/pexels-photo-15579925.jpeg?auto=compress&cs=tinysrgb&w=750",
        "src1280": "https://images.pexels.com/photos/15579925/pexels-photo-15579925.jpeg?auto=compress&cs=tinysrgb&w=1440",
        "downloadlink": "https://images.pexels.com/photos/15579925/pexels-photo-15579925.jpeg?cs=srgb&dl=pexels-mohammadreza-babaei-15579925.jpg&fm=jpg"
    },
    {
        "id": "18639653",
        "src640": "https://images.pexels.com/photos/18639653/pexels-photo-18639653.jpeg?auto=compress&cs=tinysrgb&w=750",
        "src1280": "https://images.pexels.com/photos/18639653/pexels-photo-18639653.jpeg?auto=compress&cs=tinysrgb&w=1440",
        "downloadlink": "https://images.pexels.com/photos/18639653/pexels-photo-18639653.jpeg?cs=srgb&dl=pexels-james-superschoolnews-18639653.jpg&fm=jpg"
    },
    {
        "id": "19172449",
        "src640": "https://images.pexels.com/photos/19172449/pexels-photo-19172449.jpeg?auto=compress&cs=tinysrgb&w=750",
        "src1280": "https://images.pexels.com/photos/19172449/pexels-photo-19172449.jpeg?auto=compress&cs=tinysrgb&w=1440",
        "downloadlink": "https://images.pexels.com/photos/19172449/pexels-photo-19172449.jpeg?cs=srgb&dl=pexels-marcus-silva-19172449.jpg&fm=jpg"
    },
    {
        "id": "19184110",
        "src640": "https://images.pexels.com/photos/19184110/pexels-photo-19184110.jpeg?auto=compress&cs=tinysrgb&w=750",
        "src1280": "https://images.pexels.com/photos/19184110/pexels-photo-19184110.jpeg?auto=compress&cs=tinysrgb&w=1440",
        "downloadlink": "https://images.pexels.com/photos/19184110/pexels-photo-19184110.jpeg?cs=srgb&dl=pexels-tu%E1%BA%A5n-ki%E1%BB%87t-jr-19184110.jpg&fm=jpg"
    },
    {
        "id": "19346493",
        "src640": "https://images.pexels.com/photos/19346493/pexels-photo-19346493.jpeg?auto=compress&cs=tinysrgb&w=750",
        "src1280": "https://images.pexels.com/photos/19346493/pexels-photo-19346493.jpeg?auto=compress&cs=tinysrgb&w=1440",
        "downloadlink": "https://images.pexels.com/photos/19346493/pexels-photo-19346493.jpeg?cs=srgb&dl=pexels-james-superschoolnews-19346493.jpg&fm=jpg"
    },
    {
        "id": "19449840",
        "src640": "https://images.pexels.com/photos/19449840/pexels-photo-19449840.jpeg?auto=compress&cs=tinysrgb&w=750",
        "src1280": "https://images.pexels.com/photos/19449840/pexels-photo-19449840.jpeg?auto=compress&cs=tinysrgb&w=1440",
        "downloadlink": "https://images.pexels.com/photos/19449840/pexels-photo-19449840.jpeg?cs=srgb&dl=pexels-nikolaus-bednarz-19449840.jpg&fm=jpg"
    },
    {
        "id": "17974423",
        "src640": "https://images.pexels.com/photos/17974423/pexels-photo-17974423.jpeg?auto=compress&cs=tinysrgb&w=750",
        "src1280": "https://images.pexels.com/photos/17974423/pexels-photo-17974423.jpeg?auto=compress&cs=tinysrgb&w=1440",
        "downloadlink": "https://images.pexels.com/photos/17974423/pexels-photo-17974423.jpeg?cs=srgb&dl=pexels-ahmed-%E3%83%84-17974423.jpg&fm=jpg"
    },
    {
        "id": "18786953",
        "src640": "https://images.pexels.com/photos/18786953/pexels-photo-18786953.jpeg?auto=compress&cs=tinysrgb&w=750",
        "src1280": "https://images.pexels.com/photos/18786953/pexels-photo-18786953.jpeg?auto=compress&cs=tinysrgb&w=1440",
        "downloadlink": "https://images.pexels.com/photos/18786953/pexels-photo-18786953.jpeg?cs=srgb&dl=pexels-mert-co%C5%9Fkun-18786953.jpg&fm=jpg"
    },
    {
        "id": "18793196",
        "src640": "https://images.pexels.com/photos/18793196/pexels-photo-18793196.jpeg?auto=compress&cs=tinysrgb&w=750",
        "src1280": "https://images.pexels.com/photos/18793196/pexels-photo-18793196.jpeg?auto=compress&cs=tinysrgb&w=1440",
        "downloadlink": "https://images.pexels.com/photos/18793196/pexels-photo-18793196.jpeg?cs=srgb&dl=pexels-jonaorle-18793196.jpg&fm=jpg"
    },
    {
        "id": "18796832",
        "src640": "https://images.pexels.com/photos/18796832/pexels-photo-18796832.jpeg?auto=compress&cs=tinysrgb&w=750",
        "src1280": "https://images.pexels.com/photos/18796832/pexels-photo-18796832.jpeg?auto=compress&cs=tinysrgb&w=1440",
        "downloadlink": "https://images.pexels.com/photos/18796832/pexels-photo-18796832.jpeg?cs=srgb&dl=pexels-marlon-alves-18796832.jpg&fm=jpg"
    },
    {
        "id": "18905349",
        "src640": "https://images.pexels.com/photos/18905349/pexels-photo-18905349.jpeg?auto=compress&cs=tinysrgb&w=750",
        "src1280": "https://images.pexels.com/photos/18905349/pexels-photo-18905349.jpeg?auto=compress&cs=tinysrgb&w=1440",
        "downloadlink": "https://images.pexels.com/photos/18905349/pexels-photo-18905349.jpeg?cs=srgb&dl=pexels-eko-agalarov-18905349.jpg&fm=jpg"
    },
    {
        "id": "18173610",
        "src640": "https://images.pexels.com/photos/18173610/pexels-photo-18173610.jpeg?auto=compress&cs=tinysrgb&w=750",
        "src1280": "https://images.pexels.com/photos/18173610/pexels-photo-18173610.jpeg?auto=compress&cs=tinysrgb&w=1440",
        "downloadlink": "https://images.pexels.com/photos/18173610/pexels-photo-18173610.jpeg?cs=srgb&dl=pexels-criativa-pix-fotografia-18173610.jpg&fm=jpg"
    },
    {
        "id": "18173613",
        "src640": "https://images.pexels.com/photos/18173613/pexels-photo-18173613.jpeg?auto=compress&cs=tinysrgb&w=750",
        "src1280": "https://images.pexels.com/photos/18173613/pexels-photo-18173613.jpeg?auto=compress&cs=tinysrgb&w=1440",
        "downloadlink": "https://images.pexels.com/photos/18173613/pexels-photo-18173613.jpeg?cs=srgb&dl=pexels-criativa-pix-fotografia-18173613.jpg&fm=jpg"
    }
]