[
    {
        "id": "7865933",
        "src640": "https://cdn.pixabay.com/photo/2023/03/20/21/44/cats-7865933_640.jpg",
        "src1280": "https://cdn.pixabay.com/photo/2023/03/20/21/44/cats-7865933_1280.jpg"
    },
    {
        "id": "7424709",
        "src640": "https://cdn.pixabay.com/photo/2022/09/01/04/40/anemone-7424709_640.jpg",
        "src1280": "https://cdn.pixabay.com/photo/2022/09/01/04/40/anemone-7424709_1280.jpg"
    },
    {
        "id": "8320293",
        "src640": "https://cdn.pixabay.com/photo/2023/10/17/02/14/lotus-8320293_640.jpg",
        "src1280": "https://cdn.pixabay.com/photo/2023/10/17/02/14/lotus-8320293_1280.jpg"
    },
    {
        "id": "7985434",
        "src640": "https://cdn.pixabay.com/photo/2023/05/11/03/34/white-cockatoo-7985434_640.jpg",
        "src1280": "https://cdn.pixabay.com/photo/2023/05/11/03/34/white-cockatoo-7985434_1280.jpg"
    },
    {
        "id": "1390586",
        "src640": "https://cdn.pixabay.com/photo/2016/05/13/18/34/letter-1390586_640.jpg",
        "src1280": "https://cdn.pixabay.com/photo/2016/05/13/18/34/letter-1390586_1280.jpg"
    },
    {
        "id": "6220977",
        "src640": "https://cdn.pixabay.com/photo/2021/05/01/13/10/leaf-6220977_640.jpg",
        "src1280": "https://cdn.pixabay.com/photo/2021/05/01/13/10/leaf-6220977_1280.jpg"
    },
    {
        "id": "5129332",
        "src640": "https://cdn.pixabay.com/photo/2020/05/04/14/14/cat-5129332_640.jpg",
        "src1280": "https://cdn.pixabay.com/photo/2020/05/04/14/14/cat-5129332_1280.jpg"
    },
    {
        "id": "3609130",
        "src640": "https://cdn.pixabay.com/photo/2018/08/15/21/20/mallard-3609130_640.jpg",
        "src1280": "https://cdn.pixabay.com/photo/2018/08/15/21/20/mallard-3609130_1280.jpg"
    },
    {
        "id": "8027623",
        "src640": "https://cdn.pixabay.com/photo/2023/05/30/05/50/yellow-headed-blackbird-8027623_640.jpg",
        "src1280": "https://cdn.pixabay.com/photo/2023/05/30/05/50/yellow-headed-blackbird-8027623_1280.jpg"
    },
    {
        "id": "5242101",
        "src640": "https://cdn.pixabay.com/photo/2020/05/31/10/06/sailing-5242101_640.jpg",
        "src1280": "https://cdn.pixabay.com/photo/2020/05/31/10/06/sailing-5242101_1280.jpg"
    },
    {
        "id": "5727135",
        "src640": "https://cdn.pixabay.com/photo/2020/11/09/16/21/cat-5727135_640.jpg",
        "src1280": "https://cdn.pixabay.com/photo/2020/11/09/16/21/cat-5727135_1280.jpg"
    },
    {
        "id": "6991754",
        "src640": "https://cdn.pixabay.com/photo/2022/02/04/02/29/leaf-6991754_640.jpg",
        "src1280": "https://cdn.pixabay.com/photo/2022/02/04/02/29/leaf-6991754_1280.jpg"
    },
    {
        "id": "792800",
        "src640": "https://cdn.pixabay.com/photo/2015/06/01/00/18/hiking-792800_640.jpg",
        "src1280": "https://cdn.pixabay.com/photo/2015/06/01/00/18/hiking-792800_1280.jpg"
    },
    {
        "id": "3977927",
        "src640": "https://cdn.pixabay.com/photo/2019/02/05/21/33/butterfly-3977927_640.jpg",
        "src1280": "https://cdn.pixabay.com/photo/2019/02/05/21/33/butterfly-3977927_1280.jpg"
    },
    {
        "id": "4751118",
        "src640": "https://cdn.pixabay.com/photo/2020/01/08/19/53/chamomile-4751118_640.jpg",
        "src1280": "https://cdn.pixabay.com/photo/2020/01/08/19/53/chamomile-4751118_1280.jpg"
    },
    {
        "id": "3554509",
        "src640": "https://cdn.pixabay.com/photo/2018/07/22/12/47/animals-3554509_640.jpg",
        "src1280": "https://cdn.pixabay.com/photo/2018/07/22/12/47/animals-3554509_1280.jpg"
    },
    {
        "id": "1852815",
        "src640": "https://cdn.pixabay.com/photo/2016/11/23/13/22/adorable-1852815_640.jpg",
        "src1280": "https://cdn.pixabay.com/photo/2016/11/23/13/22/adorable-1852815_1280.jpg"
    },
    {
        "id": "4693868",
        "src640": "https://cdn.pixabay.com/photo/2019/12/13/20/56/miniature-4693868_640.jpg",
        "src1280": "https://cdn.pixabay.com/photo/2019/12/13/20/56/miniature-4693868_1280.jpg"
    },
    {
        "id": "5140667",
        "src640": "https://cdn.pixabay.com/photo/2020/05/07/08/30/coronavirus-5140667_640.jpg",
        "src1280": "https://cdn.pixabay.com/photo/2020/05/07/08/30/coronavirus-5140667_1280.jpg"
    },
    {
        "id": "6895608",
        "src640": "https://cdn.pixabay.com/photo/2021/12/26/17/34/flowers-6895608_640.jpg",
        "src1280": "https://cdn.pixabay.com/photo/2021/12/26/17/34/flowers-6895608_1280.jpg"
    },
    {
        "id": "6240488",
        "src640": "https://cdn.pixabay.com/photo/2021/05/09/10/54/dalmatian-6240488_640.jpg",
        "src1280": "https://cdn.pixabay.com/photo/2021/05/09/10/54/dalmatian-6240488_1280.jpg"
    },
    {
        "id": "8047856",
        "src640": "https://cdn.pixabay.com/photo/2023/06/07/18/14/giraffes-8047856_640.jpg",
        "src1280": "https://cdn.pixabay.com/photo/2023/06/07/18/14/giraffes-8047856_1280.jpg"
    },
    {
        "id": "8008410",
        "src640": "https://cdn.pixabay.com/photo/2023/05/21/11/54/deer-8008410_640.jpg",
        "src1280": "https://cdn.pixabay.com/photo/2023/05/21/11/54/deer-8008410_1280.jpg"
    },
    {
        "id": "7344228",
        "src640": "https://cdn.pixabay.com/photo/2022/07/25/17/35/wildlife-7344228_640.jpg",
        "src1280": "https://cdn.pixabay.com/photo/2022/07/25/17/35/wildlife-7344228_1280.jpg"
    },
    {
        "id": "6574302",
        "src640": "https://cdn.pixabay.com/photo/2021/08/25/19/16/waterfall-6574302_640.jpg",
        "src1280": "https://cdn.pixabay.com/photo/2021/08/25/19/16/waterfall-6574302_1280.jpg"
    },
    {
        "id": "4320564",
        "src640": "https://cdn.pixabay.com/photo/2019/07/06/14/33/sea-4320564_640.jpg",
        "src1280": "https://cdn.pixabay.com/photo/2019/07/06/14/33/sea-4320564_1280.jpg"
    },
    {
        "id": "7577808",
        "src640": "https://cdn.pixabay.com/photo/2022/11/08/06/26/woman-7577808_640.jpg",
        "src1280": "https://cdn.pixabay.com/photo/2022/11/08/06/26/woman-7577808_1280.jpg"
    },
    {
        "id": "4702140",
        "src640": "https://cdn.pixabay.com/photo/2019/12/17/17/43/lightning-4702140_640.jpg",
        "src1280": "https://cdn.pixabay.com/photo/2019/12/17/17/43/lightning-4702140_1280.jpg"
    },
    {
        "id": "8044860",
        "src640": "https://cdn.pixabay.com/photo/2023/06/06/14/50/flower-8044860_640.jpg",
        "src1280": "https://cdn.pixabay.com/photo/2023/06/06/14/50/flower-8044860_1280.jpg"
    },
    {
        "id": "7447681",
        "src640": "https://cdn.pixabay.com/photo/2022/09/11/18/23/colors-7447681_640.jpg",
        "src1280": "https://cdn.pixabay.com/photo/2022/09/11/18/23/colors-7447681_1280.jpg"
    },
    {
        "id": "7504222",
        "src640": "https://cdn.pixabay.com/photo/2022/10/07/06/11/verbena-7504222_640.jpg",
        "src1280": "https://cdn.pixabay.com/photo/2022/10/07/06/11/verbena-7504222_1280.jpg"
    },
    {
        "id": "4695490",
        "src640": "https://cdn.pixabay.com/photo/2019/12/14/18/29/night-4695490_640.jpg",
        "src1280": "https://cdn.pixabay.com/photo/2019/12/14/18/29/night-4695490_1280.jpg"
    },
    {
        "id": "3958589",
        "src640": "https://cdn.pixabay.com/photo/2019/01/27/17/39/lighthouse-3958589_640.jpg",
        "src1280": "https://cdn.pixabay.com/photo/2019/01/27/17/39/lighthouse-3958589_1280.jpg"
    },
    {
        "id": "7969289",
        "src640": "https://cdn.pixabay.com/photo/2023/05/04/06/19/animal-7969289_640.jpg",
        "src1280": "https://cdn.pixabay.com/photo/2023/05/04/06/19/animal-7969289_1280.jpg"
    },
    {
        "id": "5281668",
        "src640": "https://cdn.pixabay.com/photo/2020/06/10/07/56/heaven-5281668_640.jpg",
        "src1280": "https://cdn.pixabay.com/photo/2020/06/10/07/56/heaven-5281668_1280.jpg"
    },
    {
        "id": "3824651",
        "src640": "https://cdn.pixabay.com/photo/2018/11/19/05/43/to-go-coffee-3824651_640.jpg",
        "src1280": "https://cdn.pixabay.com/photo/2018/11/19/05/43/to-go-coffee-3824651_1280.jpg"
    },
    {
        "id": "5634817",
        "src640": "https://cdn.pixabay.com/photo/2020/10/07/10/51/mountains-5634817_640.jpg",
        "src1280": "https://cdn.pixabay.com/photo/2020/10/07/10/51/mountains-5634817_1280.jpg"
    },
    {
        "id": "8406382",
        "src640": "https://cdn.pixabay.com/photo/2023/11/22/20/31/snowman-8406382_640.jpg",
        "src1280": "https://cdn.pixabay.com/photo/2023/11/22/20/31/snowman-8406382_1280.jpg"
    },
    {
        "id": "6987522",
        "src640": "https://cdn.pixabay.com/photo/2022/02/02/04/36/sketch-6987522_640.jpg",
        "src1280": "https://cdn.pixabay.com/photo/2022/02/02/04/36/sketch-6987522_1280.jpg"
    },
    {
        "id": "419079",
        "src640": "https://cdn.pixabay.com/photo/2014/08/15/22/36/roses-419079_640.jpg",
        "src1280": "https://cdn.pixabay.com/photo/2014/08/15/22/36/roses-419079_1280.jpg"
    },
    {
        "id": "5689873",
        "src640": "https://cdn.pixabay.com/photo/2020/10/27/07/40/cheetahs-5689873_640.jpg",
        "src1280": "https://cdn.pixabay.com/photo/2020/10/27/07/40/cheetahs-5689873_1280.jpg"
    },
    {
        "id": "7825554",
        "src640": "https://cdn.pixabay.com/photo/2023/03/02/14/46/pit-bull-7825554_640.jpg",
        "src1280": "https://cdn.pixabay.com/photo/2023/03/02/14/46/pit-bull-7825554_1280.jpg"
    },
    {
        "id": "4620919",
        "src640": "https://cdn.pixabay.com/photo/2019/11/12/12/03/clouds-4620919_640.jpg",
        "src1280": "https://cdn.pixabay.com/photo/2019/11/12/12/03/clouds-4620919_1280.jpg"
    },
    {
        "id": "7639441",
        "src640": "https://cdn.pixabay.com/photo/2022/12/06/18/09/lighthouse-7639441_640.jpg",
        "src1280": "https://cdn.pixabay.com/photo/2022/12/06/18/09/lighthouse-7639441_1280.jpg"
    },
    {
        "id": "4907104",
        "src640": "https://cdn.pixabay.com/photo/2020/03/06/13/43/mockingbird-4907104_640.jpg",
        "src1280": "https://cdn.pixabay.com/photo/2020/03/06/13/43/mockingbird-4907104_1280.jpg"
    },
    {
        "id": "7783131",
        "src640": "https://cdn.pixabay.com/photo/2023/02/11/15/18/apples-7783131_640.jpg",
        "src1280": "https://cdn.pixabay.com/photo/2023/02/11/15/18/apples-7783131_1280.jpg"
    },
    {
        "id": "220445",
        "src640": "https://cdn.pixabay.com/photo/2013/11/28/12/14/daisies-220445_640.jpg",
        "src1280": "https://cdn.pixabay.com/photo/2013/11/28/12/14/daisies-220445_1280.jpg"
    },
    {
        "id": "4356202",
        "src640": "https://cdn.pixabay.com/photo/2019/07/22/22/17/road-4356202_640.jpg",
        "src1280": "https://cdn.pixabay.com/photo/2019/07/22/22/17/road-4356202_1280.jpg"
    },
    {
        "id": "8349988",
        "src640": "https://cdn.pixabay.com/photo/2023/10/29/12/29/pumpkin-8349988_640.jpg",
        "src1280": "https://cdn.pixabay.com/photo/2023/10/29/12/29/pumpkin-8349988_1280.jpg"
    },
    {
        "id": "7313398",
        "src640": "https://cdn.pixabay.com/photo/2022/07/10/17/22/poppies-7313398_640.jpg",
        "src1280": "https://cdn.pixabay.com/photo/2022/07/10/17/22/poppies-7313398_1280.jpg"
    },
    {
        "id": "4605204",
        "src640": "https://cdn.pixabay.com/photo/2019/11/06/05/15/forest-4605204_640.jpg",
        "src1280": "https://cdn.pixabay.com/photo/2019/11/06/05/15/forest-4605204_1280.jpg"
    },
    {
        "id": "454249",
        "src640": "https://cdn.pixabay.com/photo/2014/09/20/20/24/mountain-454249_640.jpg",
        "src1280": "https://cdn.pixabay.com/photo/2014/09/20/20/24/mountain-454249_1280.jpg"
    },
    {
        "id": "8318355",
        "src640": "https://cdn.pixabay.com/photo/2023/10/16/03/44/daughter-8318355_640.jpg",
        "src1280": "https://cdn.pixabay.com/photo/2023/10/16/03/44/daughter-8318355_1280.jpg"
    },
    {
        "id": "7590861",
        "src640": "https://cdn.pixabay.com/photo/2022/11/14/06/56/maple-7590861_640.jpg",
        "src1280": "https://cdn.pixabay.com/photo/2022/11/14/06/56/maple-7590861_1280.jpg"
    },
    {
        "id": "4320647",
        "src640": "https://cdn.pixabay.com/photo/2019/07/06/15/29/mountain-4320647_640.jpg",
        "src1280": "https://cdn.pixabay.com/photo/2019/07/06/15/29/mountain-4320647_1280.jpg"
    },
    {
        "id": "7190316",
        "src640": "https://cdn.pixabay.com/photo/2022/05/11/22/17/flowers-7190316_640.jpg",
        "src1280": "https://cdn.pixabay.com/photo/2022/05/11/22/17/flowers-7190316_1280.jpg"
    },
    {
        "id": "6255868",
        "src640": "https://cdn.pixabay.com/photo/2021/05/15/14/34/tulips-6255868_640.jpg",
        "src1280": "https://cdn.pixabay.com/photo/2021/05/15/14/34/tulips-6255868_1280.jpg"
    },
    {
        "id": "4542153",
        "src640": "https://cdn.pixabay.com/photo/2019/10/11/15/56/mill-4542153_640.jpg",
        "src1280": "https://cdn.pixabay.com/photo/2019/10/11/15/56/mill-4542153_1280.jpg"
    },
    {
        "id": "201942",
        "src640": "https://cdn.pixabay.com/photo/2013/10/28/18/53/iguana-201942_640.jpg",
        "src1280": "https://cdn.pixabay.com/photo/2013/10/28/18/53/iguana-201942_1280.jpg"
    },
    {
        "id": "5220407",
        "src640": "https://cdn.pixabay.com/photo/2020/05/25/20/14/dutch-iris-5220407_640.jpg",
        "src1280": "https://cdn.pixabay.com/photo/2020/05/25/20/14/dutch-iris-5220407_1280.jpg"
    },
    {
        "id": "5183448",
        "src640": "https://cdn.pixabay.com/photo/2020/05/17/20/26/tee-5183448_640.jpg",
        "src1280": "https://cdn.pixabay.com/photo/2020/05/17/20/26/tee-5183448_1280.jpg"
    },
    {
        "id": "6723451",
        "src640": "https://cdn.pixabay.com/photo/2021/10/19/12/30/elephant-6723451_640.jpg",
        "src1280": "https://cdn.pixabay.com/photo/2021/10/19/12/30/elephant-6723451_1280.jpg"
    },
    {
        "id": "7694627",
        "src640": "https://cdn.pixabay.com/photo/2023/01/03/15/38/dog-7694627_640.jpg",
        "src1280": "https://cdn.pixabay.com/photo/2023/01/03/15/38/dog-7694627_1280.jpg"
    },
    {
        "id": "7397551",
        "src640": "https://cdn.pixabay.com/photo/2022/08/19/18/55/boats-7397551_640.jpg",
        "src1280": "https://cdn.pixabay.com/photo/2022/08/19/18/55/boats-7397551_1280.jpg"
    },
    {
        "id": "5256271",
        "src640": "https://cdn.pixabay.com/photo/2020/06/03/20/15/butterfly-5256271_640.jpg",
        "src1280": "https://cdn.pixabay.com/photo/2020/06/03/20/15/butterfly-5256271_1280.jpg"
    },
    {
        "id": "7976786",
        "src640": "https://cdn.pixabay.com/photo/2023/05/07/17/25/snail-7976786_640.jpg",
        "src1280": "https://cdn.pixabay.com/photo/2023/05/07/17/25/snail-7976786_1280.jpg"
    },
    {
        "id": "428720",
        "src640": "https://cdn.pixabay.com/photo/2014/08/26/22/59/cow-parsley-428720_640.jpg",
        "src1280": "https://cdn.pixabay.com/photo/2014/08/26/22/59/cow-parsley-428720_1280.jpg"
    },
    {
        "id": "4644496",
        "src640": "https://cdn.pixabay.com/photo/2019/11/22/09/35/woman-4644496_640.jpg",
        "src1280": "https://cdn.pixabay.com/photo/2019/11/22/09/35/woman-4644496_1280.jpg"
    },
    {
        "id": "8264654",
        "src640": "https://cdn.pixabay.com/photo/2023/09/20/11/40/plants-8264654_640.jpg",
        "src1280": "https://cdn.pixabay.com/photo/2023/09/20/11/40/plants-8264654_1280.jpg"
    },
    {
        "id": "7670491",
        "src640": "https://cdn.pixabay.com/photo/2022/12/21/16/07/snow-7670491_640.jpg",
        "src1280": "https://cdn.pixabay.com/photo/2022/12/21/16/07/snow-7670491_1280.jpg"
    },
    {
        "id": "4956533",
        "src640": "https://cdn.pixabay.com/photo/2020/03/22/10/07/magnolia-4956533_640.jpg",
        "src1280": "https://cdn.pixabay.com/photo/2020/03/22/10/07/magnolia-4956533_1280.jpg"
    },
    {
        "id": "1635657",
        "src640": "https://cdn.pixabay.com/photo/2016/09/01/09/52/seagull-1635657_640.jpg",
        "src1280": "https://cdn.pixabay.com/photo/2016/09/01/09/52/seagull-1635657_1280.jpg"
    },
    {
        "id": "3676707",
        "src640": "https://cdn.pixabay.com/photo/2018/09/14/10/35/eggs-3676707_640.jpg",
        "src1280": "https://cdn.pixabay.com/photo/2018/09/14/10/35/eggs-3676707_1280.jpg"
    },
    {
        "id": "3432452",
        "src640": "https://cdn.pixabay.com/photo/2018/05/26/23/13/bouquet-3432452_640.jpg",
        "src1280": "https://cdn.pixabay.com/photo/2018/05/26/23/13/bouquet-3432452_1280.jpg"
    },
    {
        "id": "6024510",
        "src640": "https://cdn.pixabay.com/photo/2021/02/17/14/59/monster-6024510_640.jpg",
        "src1280": "https://cdn.pixabay.com/photo/2021/02/17/14/59/monster-6024510_1280.jpg"
    },
    {
        "id": "4020984",
        "src640": "https://cdn.pixabay.com/photo/2019/02/26/01/51/flowers-4020984_640.jpg",
        "src1280": "https://cdn.pixabay.com/photo/2019/02/26/01/51/flowers-4020984_1280.jpg"
    },
    {
        "id": "5854897",
        "src640": "https://cdn.pixabay.com/photo/2020/12/23/12/44/toucan-5854897_640.jpg",
        "src1280": "https://cdn.pixabay.com/photo/2020/12/23/12/44/toucan-5854897_1280.jpg"
    },
    {
        "id": "3541205",
        "src640": "https://cdn.pixabay.com/photo/2018/07/16/04/43/flower-3541205_640.jpg",
        "src1280": "https://cdn.pixabay.com/photo/2018/07/16/04/43/flower-3541205_1280.jpg"
    },
    {
        "id": "6563620",
        "src640": "https://cdn.pixabay.com/photo/2021/08/21/21/10/animal-6563620_640.jpg",
        "src1280": "https://cdn.pixabay.com/photo/2021/08/21/21/10/animal-6563620_1280.jpg"
    },
    {
        "id": "4270250",
        "src640": "https://cdn.pixabay.com/photo/2019/06/12/21/09/ocean-4270250_640.jpg",
        "src1280": "https://cdn.pixabay.com/photo/2019/06/12/21/09/ocean-4270250_1280.jpg"
    },
    {
        "id": "7852923",
        "src640": "https://cdn.pixabay.com/photo/2023/03/14/18/22/boho-7852923_640.jpg",
        "src1280": "https://cdn.pixabay.com/photo/2023/03/14/18/22/boho-7852923_1280.jpg"
    },
    {
        "id": "5296812",
        "src640": "https://cdn.pixabay.com/photo/2020/06/14/07/10/prague-5296812_640.jpg",
        "src1280": "https://cdn.pixabay.com/photo/2020/06/14/07/10/prague-5296812_1280.jpg"
    },
    {
        "id": "7953344",
        "src640": "https://cdn.pixabay.com/photo/2023/04/26/21/48/waterfall-7953344_640.jpg",
        "src1280": "https://cdn.pixabay.com/photo/2023/04/26/21/48/waterfall-7953344_1280.jpg"
    },
    {
        "id": "5567461",
        "src640": "https://cdn.pixabay.com/photo/2020/09/13/06/58/lake-5567461_640.jpg",
        "src1280": "https://cdn.pixabay.com/photo/2020/09/13/06/58/lake-5567461_1280.jpg"
    },
    {
        "id": "5889282",
        "src640": "https://cdn.pixabay.com/photo/2021/01/05/00/25/woman-5889282_640.jpg",
        "src1280": "https://cdn.pixabay.com/photo/2021/01/05/00/25/woman-5889282_1280.jpg"
    },
    {
        "id": "4540662",
        "src640": "https://cdn.pixabay.com/photo/2019/10/10/22/15/norway-4540662_640.jpg",
        "src1280": "https://cdn.pixabay.com/photo/2019/10/10/22/15/norway-4540662_1280.jpg"
    },
    {
        "id": "7994491",
        "src640": "https://cdn.pixabay.com/photo/2023/05/15/08/52/flower-7994491_640.jpg",
        "src1280": "https://cdn.pixabay.com/photo/2023/05/15/08/52/flower-7994491_1280.jpg"
    },
    {
        "id": "5209130",
        "src640": "https://cdn.pixabay.com/photo/2020/05/23/11/06/pink-5209130_640.jpg",
        "src1280": "https://cdn.pixabay.com/photo/2020/05/23/11/06/pink-5209130_1280.jpg"
    },
    {
        "id": "7884877",
        "src640": "https://cdn.pixabay.com/photo/2023/03/29/08/19/tulips-7884877_640.jpg",
        "src1280": "https://cdn.pixabay.com/photo/2023/03/29/08/19/tulips-7884877_1280.jpg"
    },
    {
        "id": "5440390",
        "src640": "https://cdn.pixabay.com/photo/2020/07/26/18/51/mountains-5440390_640.jpg",
        "src1280": "https://cdn.pixabay.com/photo/2020/07/26/18/51/mountains-5440390_1280.jpg"
    }
]