[
    {
        "id": "1656522",
        "src640": "https://cdn.pixabay.com/photo/2016/09/09/08/59/wreck-1656522_640.jpg",
        "src1280": "https://cdn.pixabay.com/photo/2016/09/09/08/59/wreck-1656522_1280.jpg"
    },
    {
        "id": "7803073",
        "src640": "https://cdn.pixabay.com/photo/2023/02/20/20/44/ai-generated-7803073_640.jpg",
        "src1280": "https://cdn.pixabay.com/photo/2023/02/20/20/44/ai-generated-7803073_1280.jpg"
    },
    {
        "id": "2114448",
        "src640": "https://cdn.pixabay.com/photo/2017/03/03/17/07/rose-2114448_640.jpg",
        "src1280": "https://cdn.pixabay.com/photo/2017/03/03/17/07/rose-2114448_1280.jpg"
    },
    {
        "id": "581900",
        "src640": "https://cdn.pixabay.com/photo/2014/12/28/14/20/sled-581900_640.jpg",
        "src1280": "https://cdn.pixabay.com/photo/2014/12/28/14/20/sled-581900_1280.jpg"
    },
    {
        "id": "235169",
        "src640": "https://cdn.pixabay.com/photo/2013/12/29/13/07/firs-235169_640.jpg",
        "src1280": "https://cdn.pixabay.com/photo/2013/12/29/13/07/firs-235169_1280.jpg"
    },
    {
        "id": "1312432",
        "src640": "https://cdn.pixabay.com/photo/2016/04/06/18/10/elephant-1312432_640.jpg",
        "src1280": "https://cdn.pixabay.com/photo/2016/04/06/18/10/elephant-1312432_1280.jpg"
    },
    {
        "id": "7897193",
        "src640": "https://cdn.pixabay.com/photo/2023/04/03/16/14/flower-7897193_640.jpg",
        "src1280": "https://cdn.pixabay.com/photo/2023/04/03/16/14/flower-7897193_1280.jpg"
    },
    {
        "id": "3731451",
        "src640": "https://cdn.pixabay.com/photo/2018/10/07/21/45/red-3731451_640.jpg",
        "src1280": "https://cdn.pixabay.com/photo/2018/10/07/21/45/red-3731451_1280.jpg"
    },
    {
        "id": "3095602",
        "src640": "https://cdn.pixabay.com/photo/2018/01/20/23/58/water-3095602_640.jpg",
        "src1280": "https://cdn.pixabay.com/photo/2018/01/20/23/58/water-3095602_1280.jpg"
    },
    {
        "id": "2301014",
        "src640": "https://cdn.pixabay.com/photo/2017/05/10/14/46/cat-2301014_640.jpg",
        "src1280": "https://cdn.pixabay.com/photo/2017/05/10/14/46/cat-2301014_1280.jpg"
    },
    {
        "id": "4537794",
        "src640": "https://cdn.pixabay.com/photo/2019/10/09/16/52/water-4537794_640.jpg",
        "src1280": "https://cdn.pixabay.com/photo/2019/10/09/16/52/water-4537794_1280.jpg"
    },
    {
        "id": "7506246",
        "src640": "https://cdn.pixabay.com/photo/2022/10/08/04/52/sunset-7506246_640.jpg",
        "src1280": "https://cdn.pixabay.com/photo/2022/10/08/04/52/sunset-7506246_1280.jpg"
    },
    {
        "id": "584274",
        "src640": "https://cdn.pixabay.com/photo/2014/12/30/18/47/bubbles-584274_640.jpg",
        "src1280": "https://cdn.pixabay.com/photo/2014/12/30/18/47/bubbles-584274_1280.jpg"
    },
    {
        "id": "7321696",
        "src640": "https://cdn.pixabay.com/photo/2022/07/14/17/47/anemone-7321696_640.jpg",
        "src1280": "https://cdn.pixabay.com/photo/2022/07/14/17/47/anemone-7321696_1280.jpg"
    },
    {
        "id": "2192613",
        "src640": "https://cdn.pixabay.com/photo/2017/03/31/23/04/waterfall-2192613_640.jpg",
        "src1280": "https://cdn.pixabay.com/photo/2017/03/31/23/04/waterfall-2192613_1280.jpg"
    },
    {
        "id": "100967",
        "src640": "https://cdn.pixabay.com/photo/2013/04/05/23/59/glass-100967_640.jpg",
        "src1280": "https://cdn.pixabay.com/photo/2013/04/05/23/59/glass-100967_1280.jpg"
    },
    {
        "id": "3149369",
        "src640": "https://cdn.pixabay.com/photo/2018/02/12/23/15/winter-rose-3149369_640.jpg",
        "src1280": "https://cdn.pixabay.com/photo/2018/02/12/23/15/winter-rose-3149369_1280.jpg"
    },
    {
        "id": "4866977",
        "src640": "https://cdn.pixabay.com/photo/2020/02/21/09/26/the-beach-4866977_640.jpg",
        "src1280": "https://cdn.pixabay.com/photo/2020/02/21/09/26/the-beach-4866977_1280.jpg"
    },
    {
        "id": "7206126",
        "src640": "https://cdn.pixabay.com/photo/2022/05/18/20/18/marguerite-7206126_640.jpg",
        "src1280": "https://cdn.pixabay.com/photo/2022/05/18/20/18/marguerite-7206126_1280.jpg"
    },
    {
        "id": "5044785",
        "src640": "https://cdn.pixabay.com/photo/2020/04/15/01/14/nature-5044785_640.jpg",
        "src1280": "https://cdn.pixabay.com/photo/2020/04/15/01/14/nature-5044785_1280.jpg"
    },
    {
        "id": "4102125",
        "src640": "https://cdn.pixabay.com/photo/2019/04/04/06/51/flowers-4102125_640.jpg",
        "src1280": "https://cdn.pixabay.com/photo/2019/04/04/06/51/flowers-4102125_1280.jpg"
    },
    {
        "id": "8247909",
        "src640": "https://cdn.pixabay.com/photo/2023/09/12/04/44/bird-8247909_640.jpg",
        "src1280": "https://cdn.pixabay.com/photo/2023/09/12/04/44/bird-8247909_1280.jpg"
    },
    {
        "id": "3477260",
        "src640": "https://cdn.pixabay.com/photo/2018/06/15/17/27/stock-rose-3477260_640.jpg",
        "src1280": "https://cdn.pixabay.com/photo/2018/06/15/17/27/stock-rose-3477260_1280.jpg"
    },
    {
        "id": "8277563",
        "src640": "https://cdn.pixabay.com/photo/2023/09/26/14/14/ship-8277563_640.jpg",
        "src1280": "https://cdn.pixabay.com/photo/2023/09/26/14/14/ship-8277563_1280.jpg"
    },
    {
        "id": "3350238",
        "src640": "https://cdn.pixabay.com/photo/2018/04/25/18/37/nature-3350238_640.jpg",
        "src1280": "https://cdn.pixabay.com/photo/2018/04/25/18/37/nature-3350238_1280.jpg"
    },
    {
        "id": "2976784",
        "src640": "https://cdn.pixabay.com/photo/2017/11/25/13/16/birds-2976784_640.jpg",
        "src1280": "https://cdn.pixabay.com/photo/2017/11/25/13/16/birds-2976784_1280.jpg"
    },
    {
        "id": "1653147",
        "src640": "https://cdn.pixabay.com/photo/2016/09/08/02/06/vintage-1653147_640.jpg",
        "src1280": "https://cdn.pixabay.com/photo/2016/09/08/02/06/vintage-1653147_1280.jpg"
    },
    {
        "id": "4240898",
        "src640": "https://cdn.pixabay.com/photo/2019/05/30/22/19/rose-4240898_640.jpg",
        "src1280": "https://cdn.pixabay.com/photo/2019/05/30/22/19/rose-4240898_1280.jpg"
    },
    {
        "id": "1645450",
        "src640": "https://cdn.pixabay.com/photo/2016/09/04/22/17/jellyfish-1645450_640.jpg",
        "src1280": "https://cdn.pixabay.com/photo/2016/09/04/22/17/jellyfish-1645450_1280.jpg"
    },
    {
        "id": "4805276",
        "src640": "https://cdn.pixabay.com/photo/2020/01/30/12/21/harvest-mice-4805276_640.jpg",
        "src1280": "https://cdn.pixabay.com/photo/2020/01/30/12/21/harvest-mice-4805276_1280.jpg"
    },
    {
        "id": "4820901",
        "src640": "https://cdn.pixabay.com/photo/2020/02/05/11/07/portrait-4820901_640.jpg",
        "src1280": "https://cdn.pixabay.com/photo/2020/02/05/11/07/portrait-4820901_1280.jpg"
    },
    {
        "id": "165198",
        "src640": "https://cdn.pixabay.com/photo/2013/07/19/00/18/africa-165198_640.jpg",
        "src1280": "https://cdn.pixabay.com/photo/2013/07/19/00/18/africa-165198_1280.jpg"
    },
    {
        "id": "4854346",
        "src640": "https://cdn.pixabay.com/photo/2020/02/16/17/43/sunset-4854346_640.jpg",
        "src1280": "https://cdn.pixabay.com/photo/2020/02/16/17/43/sunset-4854346_1280.jpg"
    },
    {
        "id": "1577553",
        "src640": "https://cdn.pixabay.com/photo/2016/08/08/02/07/lion-1577553_640.jpg",
        "src1280": "https://cdn.pixabay.com/photo/2016/08/08/02/07/lion-1577553_1280.jpg"
    },
    {
        "id": "7280540",
        "src640": "https://cdn.pixabay.com/photo/2022/06/23/20/05/animal-7280540_640.jpg",
        "src1280": "https://cdn.pixabay.com/photo/2022/06/23/20/05/animal-7280540_1280.jpg"
    },
    {
        "id": "3865249",
        "src640": "https://cdn.pixabay.com/photo/2018/12/09/17/03/lynx-3865249_640.jpg",
        "src1280": "https://cdn.pixabay.com/photo/2018/12/09/17/03/lynx-3865249_1280.jpg"
    },
    {
        "id": "2943573",
        "src640": "https://cdn.pixabay.com/photo/2017/11/12/19/42/gorilla-2943573_640.jpg",
        "src1280": "https://cdn.pixabay.com/photo/2017/11/12/19/42/gorilla-2943573_1280.jpg"
    },
    {
        "id": "4834025",
        "src640": "https://cdn.pixabay.com/photo/2020/02/09/17/56/red-white-4834025_640.jpg",
        "src1280": "https://cdn.pixabay.com/photo/2020/02/09/17/56/red-white-4834025_1280.jpg"
    },
    {
        "id": "8298492",
        "src640": "https://cdn.pixabay.com/photo/2023/10/06/15/07/ai-generated-8298492_640.jpg",
        "src1280": "https://cdn.pixabay.com/photo/2023/10/06/15/07/ai-generated-8298492_1280.jpg"
    },
    {
        "id": "2516444",
        "src640": "https://cdn.pixabay.com/photo/2017/07/18/17/19/face-2516444_640.jpg",
        "src1280": "https://cdn.pixabay.com/photo/2017/07/18/17/19/face-2516444_1280.jpg"
    },
    {
        "id": "2345383",
        "src640": "https://cdn.pixabay.com/photo/2017/05/26/07/08/horse-2345383_640.jpg",
        "src1280": "https://cdn.pixabay.com/photo/2017/05/26/07/08/horse-2345383_1280.jpg"
    },
    {
        "id": "616254",
        "src640": "https://cdn.pixabay.com/photo/2015/01/29/14/51/stationery-616254_640.jpg",
        "src1280": "https://cdn.pixabay.com/photo/2015/01/29/14/51/stationery-616254_1280.jpg"
    },
    {
        "id": "7835860",
        "src640": "https://cdn.pixabay.com/photo/2023/03/07/14/45/lion-7835860_640.jpg",
        "src1280": "https://cdn.pixabay.com/photo/2023/03/07/14/45/lion-7835860_1280.jpg"
    },
    {
        "id": "3796909",
        "src640": "https://cdn.pixabay.com/photo/2018/11/05/21/19/musical-note-3796909_640.jpg",
        "src1280": "https://cdn.pixabay.com/photo/2018/11/05/21/19/musical-note-3796909_1280.jpg"
    },
    {
        "id": "599443",
        "src640": "https://cdn.pixabay.com/photo/2015/01/14/18/24/hummingbird-599443_640.jpg",
        "src1280": "https://cdn.pixabay.com/photo/2015/01/14/18/24/hummingbird-599443_1280.jpg"
    },
    {
        "id": "7763611",
        "src640": "https://cdn.pixabay.com/photo/2023/02/02/19/39/horoscope-7763611_640.jpg",
        "src1280": "https://cdn.pixabay.com/photo/2023/02/02/19/39/horoscope-7763611_1280.jpg"
    },
    {
        "id": "8432138",
        "src640": "https://cdn.pixabay.com/photo/2023/12/05/17/20/rain-8432138_640.jpg",
        "src1280": "https://cdn.pixabay.com/photo/2023/12/05/17/20/rain-8432138_1280.jpg"
    },
    {
        "id": "1986918",
        "src640": "https://cdn.pixabay.com/photo/2017/01/17/13/34/spring-1986918_640.jpg",
        "src1280": "https://cdn.pixabay.com/photo/2017/01/17/13/34/spring-1986918_1280.jpg"
    },
    {
        "id": "8280365",
        "src640": "https://cdn.pixabay.com/photo/2023/09/27/21/49/horse-8280365_640.jpg",
        "src1280": "https://cdn.pixabay.com/photo/2023/09/27/21/49/horse-8280365_1280.jpg"
    },
    {
        "id": "4450655",
        "src640": "https://cdn.pixabay.com/photo/2019/09/04/03/48/girl-4450655_640.jpg",
        "src1280": "https://cdn.pixabay.com/photo/2019/09/04/03/48/girl-4450655_1280.jpg"
    },
    {
        "id": "5880083",
        "src640": "https://cdn.pixabay.com/photo/2021/01/01/21/36/wolf-5880083_640.jpg",
        "src1280": "https://cdn.pixabay.com/photo/2021/01/01/21/36/wolf-5880083_1280.jpg"
    },
    {
        "id": "188519",
        "src640": "https://cdn.pixabay.com/photo/2013/09/30/05/57/sunset-188519_640.jpg",
        "src1280": "https://cdn.pixabay.com/photo/2013/09/30/05/57/sunset-188519_1280.jpg"
    },
    {
        "id": "387347",
        "src640": "https://cdn.pixabay.com/photo/2014/07/08/14/00/loon-387347_640.jpg",
        "src1280": "https://cdn.pixabay.com/photo/2014/07/08/14/00/loon-387347_1280.jpg"
    },
    {
        "id": "946387",
        "src640": "https://cdn.pixabay.com/photo/2015/09/18/20/53/sea-urchins-946387_640.jpg",
        "src1280": "https://cdn.pixabay.com/photo/2015/09/18/20/53/sea-urchins-946387_1280.jpg"
    },
    {
        "id": "8438027",
        "src640": "https://cdn.pixabay.com/photo/2023/12/08/19/43/ai-generated-8438027_640.jpg",
        "src1280": "https://cdn.pixabay.com/photo/2023/12/08/19/43/ai-generated-8438027_1280.jpg"
    },
    {
        "id": "4556239",
        "src640": "https://cdn.pixabay.com/photo/2019/10/17/07/51/muslims-4556239_640.jpg",
        "src1280": "https://cdn.pixabay.com/photo/2019/10/17/07/51/muslims-4556239_1280.jpg"
    },
    {
        "id": "1958463",
        "src640": "https://cdn.pixabay.com/photo/2017/01/06/17/49/raspberry-1958463_640.jpg",
        "src1280": "https://cdn.pixabay.com/photo/2017/01/06/17/49/raspberry-1958463_1280.jpg"
    }
]