[
    {
        "id": "6856152",
        "src640": "https://cdn.pixabay.com/photo/2021/12/08/16/18/dog-6856152_640.jpg",
        "src1280": "https://cdn.pixabay.com/photo/2021/12/08/16/18/dog-6856152_1280.jpg"
    },
    {
        "id": "1975293",
        "src640": "https://cdn.pixabay.com/photo/2017/01/12/18/14/pet-dog-1975293_640.jpg",
        "src1280": "https://cdn.pixabay.com/photo/2017/01/12/18/14/pet-dog-1975293_1280.jpg"
    },
    {
        "id": "2055481",
        "src640": "https://cdn.pixabay.com/photo/2017/02/10/16/02/duck-2055481_640.jpg",
        "src1280": "https://cdn.pixabay.com/photo/2017/02/10/16/02/duck-2055481_1280.jpg"
    },
    {
        "id": "3350397",
        "src640": "https://cdn.pixabay.com/photo/2018/04/25/19/34/woman-3350397_640.jpg",
        "src1280": "https://cdn.pixabay.com/photo/2018/04/25/19/34/woman-3350397_1280.jpg"
    },
    {
        "id": "3051482",
        "src640": "https://cdn.pixabay.com/photo/2017/12/31/04/01/chameleon-3051482_640.jpg",
        "src1280": "https://cdn.pixabay.com/photo/2017/12/31/04/01/chameleon-3051482_1280.jpg"
    },
    {
        "id": "3692752",
        "src640": "https://cdn.pixabay.com/photo/2018/09/21/09/59/light-3692752_640.jpg",
        "src1280": "https://cdn.pixabay.com/photo/2018/09/21/09/59/light-3692752_1280.jpg"
    },
    {
        "id": "2395373",
        "src640": "https://cdn.pixabay.com/photo/2017/06/12/12/02/fitness-2395373_640.jpg",
        "src1280": "https://cdn.pixabay.com/photo/2017/06/12/12/02/fitness-2395373_1280.jpg"
    },
    {
        "id": "730465",
        "src640": "https://cdn.pixabay.com/photo/2015/04/20/00/08/rabbit-730465_640.jpg",
        "src1280": "https://cdn.pixabay.com/photo/2015/04/20/00/08/rabbit-730465_1280.jpg"
    },
    {
        "id": "7435401",
        "src640": "https://cdn.pixabay.com/photo/2022/09/05/23/52/fig-tree-7435401_640.jpg",
        "src1280": "https://cdn.pixabay.com/photo/2022/09/05/23/52/fig-tree-7435401_1280.jpg"
    },
    {
        "id": "605301",
        "src640": "https://cdn.pixabay.com/photo/2015/01/20/09/17/camping-605301_640.jpg",
        "src1280": "https://cdn.pixabay.com/photo/2015/01/20/09/17/camping-605301_1280.jpg"
    },
    {
        "id": "3427630",
        "src640": "https://cdn.pixabay.com/photo/2018/05/24/20/59/girl-3427630_640.jpg",
        "src1280": "https://cdn.pixabay.com/photo/2018/05/24/20/59/girl-3427630_1280.jpg"
    },
    {
        "id": "8131972",
        "src640": "https://cdn.pixabay.com/photo/2023/07/17/06/25/ai-generated-8131972_640.jpg",
        "src1280": "https://cdn.pixabay.com/photo/2023/07/17/06/25/ai-generated-8131972_1280.jpg"
    },
    {
        "id": "6377517",
        "src640": "https://cdn.pixabay.com/photo/2021/06/30/19/15/butterfly-6377517_640.jpg",
        "src1280": "https://cdn.pixabay.com/photo/2021/06/30/19/15/butterfly-6377517_1280.jpg"
    },
    {
        "id": "7472638",
        "src640": "https://cdn.pixabay.com/photo/2022/09/22/16/15/anemone-7472638_640.jpg",
        "src1280": "https://cdn.pixabay.com/photo/2022/09/22/16/15/anemone-7472638_1280.jpg"
    },
    {
        "id": "4580497",
        "src640": "https://cdn.pixabay.com/photo/2019/10/26/23/26/tree-4580497_640.jpg",
        "src1280": "https://cdn.pixabay.com/photo/2019/10/26/23/26/tree-4580497_1280.jpg"
    },
    {
        "id": "3223359",
        "src640": "https://cdn.pixabay.com/photo/2018/03/13/18/49/mammal-3223359_640.jpg",
        "src1280": "https://cdn.pixabay.com/photo/2018/03/13/18/49/mammal-3223359_1280.jpg"
    },
    {
        "id": "504120",
        "src640": "https://cdn.pixabay.com/photo/2014/10/26/17/27/pumpkins-504120_640.jpg",
        "src1280": "https://cdn.pixabay.com/photo/2014/10/26/17/27/pumpkins-504120_1280.jpg"
    },
    {
        "id": "164922",
        "src640": "https://cdn.pixabay.com/photo/2013/07/18/20/25/foal-164922_640.jpg",
        "src1280": "https://cdn.pixabay.com/photo/2013/07/18/20/25/foal-164922_1280.jpg"
    },
    {
        "id": "7706844",
        "src640": "https://cdn.pixabay.com/photo/2023/01/09/08/31/ai-generated-7706844_640.jpg",
        "src1280": "https://cdn.pixabay.com/photo/2023/01/09/08/31/ai-generated-7706844_1280.jpg"
    },
    {
        "id": "4566904",
        "src640": "https://cdn.pixabay.com/photo/2019/10/21/18/55/model-4566904_640.jpg",
        "src1280": "https://cdn.pixabay.com/photo/2019/10/21/18/55/model-4566904_1280.jpg"
    },
    {
        "id": "8440961",
        "src640": "https://cdn.pixabay.com/photo/2023/12/10/10/00/ai-generated-8440961_640.jpg",
        "src1280": "https://cdn.pixabay.com/photo/2023/12/10/10/00/ai-generated-8440961_1280.jpg"
    },
    {
        "id": "1452640",
        "src640": "https://cdn.pixabay.com/photo/2016/06/12/18/19/child-1452640_640.jpg",
        "src1280": "https://cdn.pixabay.com/photo/2016/06/12/18/19/child-1452640_1280.jpg"
    },
    {
        "id": "1403640",
        "src640": "https://cdn.pixabay.com/photo/2016/05/19/18/28/lighthouse-1403640_640.jpg",
        "src1280": "https://cdn.pixabay.com/photo/2016/05/19/18/28/lighthouse-1403640_1280.jpg"
    },
    {
        "id": "8432223",
        "src640": "https://cdn.pixabay.com/photo/2023/12/05/18/08/sea-captain-8432223_640.jpg",
        "src1280": "https://cdn.pixabay.com/photo/2023/12/05/18/08/sea-captain-8432223_1280.jpg"
    },
    {
        "id": "619278",
        "src640": "https://cdn.pixabay.com/photo/2015/02/01/10/41/fish-619278_640.jpg",
        "src1280": "https://cdn.pixabay.com/photo/2015/02/01/10/41/fish-619278_1280.jpg"
    },
    {
        "id": "1569795",
        "src640": "https://cdn.pixabay.com/photo/2016/08/04/18/52/eurasia-eagle-owl-1569795_640.jpg",
        "src1280": "https://cdn.pixabay.com/photo/2016/08/04/18/52/eurasia-eagle-owl-1569795_1280.jpg"
    },
    {
        "id": "4393784",
        "src640": "https://cdn.pixabay.com/photo/2019/08/08/20/29/squirrel-4393784_640.jpg",
        "src1280": "https://cdn.pixabay.com/photo/2019/08/08/20/29/squirrel-4393784_1280.jpg"
    },
    {
        "id": "1706252",
        "src640": "https://cdn.pixabay.com/photo/2016/09/30/20/29/arthur-rackham-1706252_640.jpg",
        "src1280": "https://cdn.pixabay.com/photo/2016/09/30/20/29/arthur-rackham-1706252_1280.jpg"
    },
    {
        "id": "1356096",
        "src640": "https://cdn.pixabay.com/photo/2016/04/27/07/14/scrapbook-1356096_640.jpg",
        "src1280": "https://cdn.pixabay.com/photo/2016/04/27/07/14/scrapbook-1356096_1280.jpg"
    },
    {
        "id": "1867366",
        "src640": "https://cdn.pixabay.com/photo/2016/11/29/04/39/ancient-history-1867366_640.jpg",
        "src1280": "https://cdn.pixabay.com/photo/2016/11/29/04/39/ancient-history-1867366_1280.jpg"
    },
    {
        "id": "7855440",
        "src640": "https://cdn.pixabay.com/photo/2023/03/15/20/51/rainforest-7855440_640.jpg",
        "src1280": "https://cdn.pixabay.com/photo/2023/03/15/20/51/rainforest-7855440_1280.jpg"
    },
    {
        "id": "1907828",
        "src640": "https://cdn.pixabay.com/photo/2016/12/14/23/35/horizon-1907828_640.jpg",
        "src1280": "https://cdn.pixabay.com/photo/2016/12/14/23/35/horizon-1907828_1280.jpg"
    },
    {
        "id": "4421987",
        "src640": "https://cdn.pixabay.com/photo/2019/08/21/20/34/english-bull-doge-4421987_640.jpg",
        "src1280": "https://cdn.pixabay.com/photo/2019/08/21/20/34/english-bull-doge-4421987_1280.jpg"
    },
    {
        "id": "474559",
        "src640": "https://cdn.pixabay.com/photo/2014/10/05/06/07/rape-blossoms-474559_640.jpg",
        "src1280": "https://cdn.pixabay.com/photo/2014/10/05/06/07/rape-blossoms-474559_1280.jpg"
    },
    {
        "id": "1418576",
        "src640": "https://cdn.pixabay.com/photo/2016/05/26/21/48/pulpit-1418576_640.jpg",
        "src1280": "https://cdn.pixabay.com/photo/2016/05/26/21/48/pulpit-1418576_1280.jpg"
    },
    {
        "id": "5829617",
        "src640": "https://cdn.pixabay.com/photo/2020/12/13/23/18/windmill-5829617_640.jpg",
        "src1280": "https://cdn.pixabay.com/photo/2020/12/13/23/18/windmill-5829617_1280.jpg"
    },
    {
        "id": "1568850",
        "src640": "https://cdn.pixabay.com/photo/2016/08/04/11/01/nature-1568850_640.jpg",
        "src1280": "https://cdn.pixabay.com/photo/2016/08/04/11/01/nature-1568850_1280.jpg"
    },
    {
        "id": "590296",
        "src640": "https://cdn.pixabay.com/photo/2015/01/06/13/22/woman-590296_640.jpg",
        "src1280": "https://cdn.pixabay.com/photo/2015/01/06/13/22/woman-590296_1280.jpg"
    },
    {
        "id": "7292557",
        "src640": "https://cdn.pixabay.com/photo/2022/06/29/20/40/rosebud-7292557_640.jpg",
        "src1280": "https://cdn.pixabay.com/photo/2022/06/29/20/40/rosebud-7292557_1280.jpg"
    },
    {
        "id": "1740305",
        "src640": "https://cdn.pixabay.com/photo/2016/10/14/14/32/sunset-1740305_640.jpg",
        "src1280": "https://cdn.pixabay.com/photo/2016/10/14/14/32/sunset-1740305_1280.jpg"
    },
    {
        "id": "7414370",
        "src640": "https://cdn.pixabay.com/photo/2022/08/27/12/24/white-throated-treecreeper-7414370_640.jpg",
        "src1280": "https://cdn.pixabay.com/photo/2022/08/27/12/24/white-throated-treecreeper-7414370_1280.jpg"
    },
    {
        "id": "8447588",
        "src640": "https://cdn.pixabay.com/photo/2023/12/13/20/01/ai-generated-8447588_640.jpg",
        "src1280": "https://cdn.pixabay.com/photo/2023/12/13/20/01/ai-generated-8447588_1280.jpg"
    },
    {
        "id": "1796296",
        "src640": "https://cdn.pixabay.com/photo/2016/11/03/21/24/flowers-1796296_640.jpg",
        "src1280": "https://cdn.pixabay.com/photo/2016/11/03/21/24/flowers-1796296_1280.jpg"
    },
    {
        "id": "7805610",
        "src640": "https://cdn.pixabay.com/photo/2023/02/22/03/26/road-7805610_640.jpg",
        "src1280": "https://cdn.pixabay.com/photo/2023/02/22/03/26/road-7805610_1280.jpg"
    },
    {
        "id": "8417188",
        "src640": "https://cdn.pixabay.com/photo/2023/11/28/10/48/ai-generated-8417188_640.jpg",
        "src1280": "https://cdn.pixabay.com/photo/2023/11/28/10/48/ai-generated-8417188_1280.jpg"
    },
    {
        "id": "4387636",
        "src640": "https://cdn.pixabay.com/photo/2019/08/06/07/58/king-4387636_640.jpg",
        "src1280": "https://cdn.pixabay.com/photo/2019/08/06/07/58/king-4387636_1280.jpg"
    },
    {
        "id": "8408327",
        "src640": "https://cdn.pixabay.com/photo/2023/11/23/16/35/ai-generated-8408327_640.jpg",
        "src1280": "https://cdn.pixabay.com/photo/2023/11/23/16/35/ai-generated-8408327_1280.jpg"
    },
    {
        "id": "5766713",
        "src640": "https://cdn.pixabay.com/photo/2020/11/22/14/12/elf-5766713_640.jpg",
        "src1280": "https://cdn.pixabay.com/photo/2020/11/22/14/12/elf-5766713_1280.jpg"
    },
    {
        "id": "2758960",
        "src640": "https://cdn.pixabay.com/photo/2017/09/17/16/34/boats-2758960_640.jpg",
        "src1280": "https://cdn.pixabay.com/photo/2017/09/17/16/34/boats-2758960_1280.jpg"
    },
    {
        "id": "77265",
        "src640": "https://cdn.pixabay.com/photo/2013/02/02/04/15/flowers-77265_640.jpg",
        "src1280": "https://cdn.pixabay.com/photo/2013/02/02/04/15/flowers-77265_1280.jpg"
    },
    {
        "id": "4925255",
        "src640": "https://cdn.pixabay.com/photo/2020/03/12/14/45/dancer-4925255_640.jpg",
        "src1280": "https://cdn.pixabay.com/photo/2020/03/12/14/45/dancer-4925255_1280.jpg"
    },
    {
        "id": "2078564",
        "src640": "https://cdn.pixabay.com/photo/2017/02/19/00/00/boat-house-2078564_640.jpg",
        "src1280": "https://cdn.pixabay.com/photo/2017/02/19/00/00/boat-house-2078564_1280.jpg"
    },
    {
        "id": "4999513",
        "src640": "https://cdn.pixabay.com/photo/2020/04/03/16/42/doctor-4999513_640.jpg",
        "src1280": "https://cdn.pixabay.com/photo/2020/04/03/16/42/doctor-4999513_1280.jpg"
    },
    {
        "id": "2163304",
        "src640": "https://cdn.pixabay.com/photo/2017/03/21/20/39/parrot-2163304_640.jpg",
        "src1280": "https://cdn.pixabay.com/photo/2017/03/21/20/39/parrot-2163304_1280.jpg"
    },
    {
        "id": "5380747",
        "src640": "https://cdn.pixabay.com/photo/2020/07/07/14/24/flowers-5380747_640.jpg",
        "src1280": "https://cdn.pixabay.com/photo/2020/07/07/14/24/flowers-5380747_1280.jpg"
    },
    {
        "id": "8300141",
        "src640": "https://cdn.pixabay.com/photo/2023/10/07/12/55/mushrooms-8300141_640.jpg",
        "src1280": "https://cdn.pixabay.com/photo/2023/10/07/12/55/mushrooms-8300141_1280.jpg"
    },
    {
        "id": "5334257",
        "src640": "https://cdn.pixabay.com/photo/2020/06/24/00/41/nature-5334257_640.jpg",
        "src1280": "https://cdn.pixabay.com/photo/2020/06/24/00/41/nature-5334257_1280.jpg"
    },
    {
        "id": "7491467",
        "src640": "https://cdn.pixabay.com/photo/2022/10/01/12/34/owl-7491467_640.jpg",
        "src1280": "https://cdn.pixabay.com/photo/2022/10/01/12/34/owl-7491467_1280.jpg"
    },
    {
        "id": "4002932",
        "src640": "https://cdn.pixabay.com/photo/2019/02/17/19/07/grass-4002932_640.jpg",
        "src1280": "https://cdn.pixabay.com/photo/2019/02/17/19/07/grass-4002932_1280.jpg"
    },
    {
        "id": "3192131",
        "src640": "https://cdn.pixabay.com/photo/2018/03/02/01/25/cactus-3192131_640.jpg",
        "src1280": "https://cdn.pixabay.com/photo/2018/03/02/01/25/cactus-3192131_1280.jpg"
    },
    {
        "id": "620790",
        "src640": "https://cdn.pixabay.com/photo/2015/02/02/10/55/pine-620790_640.jpg",
        "src1280": "https://cdn.pixabay.com/photo/2015/02/02/10/55/pine-620790_1280.jpg"
    },
    {
        "id": "5480343",
        "src640": "https://cdn.pixabay.com/photo/2020/08/11/16/01/pears-5480343_640.jpg",
        "src1280": "https://cdn.pixabay.com/photo/2020/08/11/16/01/pears-5480343_1280.jpg"
    },
    {
        "id": "4284589",
        "src640": "https://cdn.pixabay.com/photo/2019/06/19/10/27/palm-4284589_640.jpg",
        "src1280": "https://cdn.pixabay.com/photo/2019/06/19/10/27/palm-4284589_1280.jpg"
    },
    {
        "id": "8440692",
        "src640": "https://cdn.pixabay.com/photo/2023/12/10/06/24/ai-generated-8440692_640.jpg",
        "src1280": "https://cdn.pixabay.com/photo/2023/12/10/06/24/ai-generated-8440692_1280.jpg"
    }
]