[
    {
        "id": "816981",
        "src640": "https://cdn.pixabay.com/photo/2015/06/21/20/12/peafowl-816981_640.jpg",
        "src1280": "https://cdn.pixabay.com/photo/2015/06/21/20/12/peafowl-816981_1280.jpg"
    },
    {
        "id": "3713473",
        "src640": "https://cdn.pixabay.com/photo/2018/09/30/13/17/asia-3713473_640.jpg",
        "src1280": "https://cdn.pixabay.com/photo/2018/09/30/13/17/asia-3713473_1280.jpg"
    },
    {
        "id": "6243164",
        "src640": "https://cdn.pixabay.com/photo/2021/05/10/10/46/yellow-wall-6243164_640.jpg",
        "src1280": "https://cdn.pixabay.com/photo/2021/05/10/10/46/yellow-wall-6243164_1280.jpg"
    },
    {
        "id": "610457",
        "src640": "https://cdn.pixabay.com/photo/2015/01/24/18/18/gorilla-610457_640.jpg",
        "src1280": "https://cdn.pixabay.com/photo/2015/01/24/18/18/gorilla-610457_1280.jpg"
    },
    {
        "id": "377192",
        "src640": "https://cdn.pixabay.com/photo/2014/06/25/15/05/owl-377192_640.jpg",
        "src1280": "https://cdn.pixabay.com/photo/2014/06/25/15/05/owl-377192_1280.jpg"
    },
    {
        "id": "1367197",
        "src640": "https://cdn.pixabay.com/photo/2016/05/02/12/58/tiger-1367197_640.jpg",
        "src1280": "https://cdn.pixabay.com/photo/2016/05/02/12/58/tiger-1367197_1280.jpg"
    },
    {
        "id": "2561531",
        "src640": "https://cdn.pixabay.com/photo/2017/07/31/22/09/people-2561531_640.jpg",
        "src1280": "https://cdn.pixabay.com/photo/2017/07/31/22/09/people-2561531_1280.jpg"
    },
    {
        "id": "2001912",
        "src640": "https://cdn.pixabay.com/photo/2017/01/23/09/52/water-2001912_640.jpg",
        "src1280": "https://cdn.pixabay.com/photo/2017/01/23/09/52/water-2001912_1280.jpg"
    },
    {
        "id": "2845272",
        "src640": "https://cdn.pixabay.com/photo/2017/10/12/18/09/venice-2845272_640.jpg",
        "src1280": "https://cdn.pixabay.com/photo/2017/10/12/18/09/venice-2845272_1280.jpg"
    },
    {
        "id": "3354063",
        "src640": "https://cdn.pixabay.com/photo/2018/04/27/08/56/water-3354063_640.jpg",
        "src1280": "https://cdn.pixabay.com/photo/2018/04/27/08/56/water-3354063_1280.jpg"
    },
    {
        "id": "3673984",
        "src640": "https://cdn.pixabay.com/photo/2018/09/13/07/30/teacup-3673984_640.jpg",
        "src1280": "https://cdn.pixabay.com/photo/2018/09/13/07/30/teacup-3673984_1280.jpg"
    },
    {
        "id": "857021",
        "src640": "https://cdn.pixabay.com/photo/2015/07/23/14/58/child-857021_640.jpg",
        "src1280": "https://cdn.pixabay.com/photo/2015/07/23/14/58/child-857021_1280.jpg"
    },
    {
        "id": "2528935",
        "src640": "https://cdn.pixabay.com/photo/2017/07/22/15/21/cat-2528935_640.jpg",
        "src1280": "https://cdn.pixabay.com/photo/2017/07/22/15/21/cat-2528935_1280.jpg"
    },
    {
        "id": "197397",
        "src640": "https://cdn.pixabay.com/photo/2013/10/18/12/29/the-squirrel-197397_640.jpg",
        "src1280": "https://cdn.pixabay.com/photo/2013/10/18/12/29/the-squirrel-197397_1280.jpg"
    },
    {
        "id": "4292721",
        "src640": "https://cdn.pixabay.com/photo/2019/06/23/02/47/butterfly-4292721_640.jpg",
        "src1280": "https://cdn.pixabay.com/photo/2019/06/23/02/47/butterfly-4292721_1280.jpg"
    },
    {
        "id": "4245400",
        "src640": "https://cdn.pixabay.com/photo/2019/06/02/00/21/moon-4245400_640.jpg",
        "src1280": "https://cdn.pixabay.com/photo/2019/06/02/00/21/moon-4245400_1280.jpg"
    },
    {
        "id": "2260866",
        "src640": "https://cdn.pixabay.com/photo/2017/04/25/21/30/wild-goose-2260866_640.jpg",
        "src1280": "https://cdn.pixabay.com/photo/2017/04/25/21/30/wild-goose-2260866_1280.jpg"
    },
    {
        "id": "8057438",
        "src640": "https://cdn.pixabay.com/photo/2023/06/12/01/22/lotus-8057438_640.jpg",
        "src1280": "https://cdn.pixabay.com/photo/2023/06/12/01/22/lotus-8057438_1280.jpg"
    },
    {
        "id": "3032060",
        "src640": "https://cdn.pixabay.com/photo/2017/12/21/15/53/squirrel-3032060_640.jpg",
        "src1280": "https://cdn.pixabay.com/photo/2017/12/21/15/53/squirrel-3032060_1280.jpg"
    },
    {
        "id": "5426192",
        "src640": "https://cdn.pixabay.com/photo/2020/07/21/12/59/raven-5426192_640.jpg",
        "src1280": "https://cdn.pixabay.com/photo/2020/07/21/12/59/raven-5426192_1280.jpg"
    },
    {
        "id": "6546233",
        "src640": "https://cdn.pixabay.com/photo/2021/08/14/20/44/stones-6546233_640.jpg",
        "src1280": "https://cdn.pixabay.com/photo/2021/08/14/20/44/stones-6546233_1280.jpg"
    },
    {
        "id": "5778006",
        "src640": "https://cdn.pixabay.com/photo/2020/11/26/06/16/christmas-trees-5778006_640.jpg",
        "src1280": "https://cdn.pixabay.com/photo/2020/11/26/06/16/christmas-trees-5778006_1280.jpg"
    },
    {
        "id": "1843477",
        "src640": "https://cdn.pixabay.com/photo/2016/11/20/18/18/girl-1843477_640.jpg",
        "src1280": "https://cdn.pixabay.com/photo/2016/11/20/18/18/girl-1843477_1280.jpg"
    },
    {
        "id": "101800",
        "src640": "https://cdn.pixabay.com/photo/2013/04/08/14/22/nature-101800_640.jpg",
        "src1280": "https://cdn.pixabay.com/photo/2013/04/08/14/22/nature-101800_1280.jpg"
    },
    {
        "id": "4741987",
        "src640": "https://cdn.pixabay.com/photo/2020/01/04/23/23/saint-jaque-de-compostela-4741987_640.jpg",
        "src1280": "https://cdn.pixabay.com/photo/2020/01/04/23/23/saint-jaque-de-compostela-4741987_1280.jpg"
    },
    {
        "id": "4509879",
        "src640": "https://cdn.pixabay.com/photo/2019/09/28/05/10/sunset-4509879_640.jpg",
        "src1280": "https://cdn.pixabay.com/photo/2019/09/28/05/10/sunset-4509879_1280.jpg"
    },
    {
        "id": "4820504",
        "src640": "https://cdn.pixabay.com/photo/2020/02/05/09/02/cloud-4820504_640.jpg",
        "src1280": "https://cdn.pixabay.com/photo/2020/02/05/09/02/cloud-4820504_1280.jpg"
    },
    {
        "id": "379393",
        "src640": "https://cdn.pixabay.com/photo/2014/06/29/13/08/gosling-379393_640.jpg",
        "src1280": "https://cdn.pixabay.com/photo/2014/06/29/13/08/gosling-379393_1280.jpg"
    },
    {
        "id": "284688",
        "src640": "https://cdn.pixabay.com/photo/2014/03/10/18/46/clouds-284688_640.jpg",
        "src1280": "https://cdn.pixabay.com/photo/2014/03/10/18/46/clouds-284688_1280.jpg"
    },
    {
        "id": "5873638",
        "src640": "https://cdn.pixabay.com/photo/2020/12/30/14/26/leopard-5873638_640.jpg",
        "src1280": "https://cdn.pixabay.com/photo/2020/12/30/14/26/leopard-5873638_1280.jpg"
    },
    {
        "id": "4497496",
        "src640": "https://cdn.pixabay.com/photo/2019/09/23/04/50/jellyfish-4497496_640.jpg",
        "src1280": "https://cdn.pixabay.com/photo/2019/09/23/04/50/jellyfish-4497496_1280.jpg"
    },
    {
        "id": "5960092",
        "src640": "https://cdn.pixabay.com/photo/2021/01/29/08/08/dog-5960092_640.jpg",
        "src1280": "https://cdn.pixabay.com/photo/2021/01/29/08/08/dog-5960092_1280.jpg"
    },
    {
        "id": "991215",
        "src640": "https://cdn.pixabay.com/photo/2015/10/16/13/45/ranunculus-991215_640.jpg",
        "src1280": "https://cdn.pixabay.com/photo/2015/10/16/13/45/ranunculus-991215_1280.jpg"
    },
    {
        "id": "8110",
        "src640": "https://cdn.pixabay.com/photo/2011/06/21/14/50/iceland-poppy-8110_640.jpg",
        "src1280": "https://cdn.pixabay.com/photo/2011/06/21/14/50/iceland-poppy-8110_1280.jpg"
    },
    {
        "id": "5773397",
        "src640": "https://cdn.pixabay.com/photo/2020/11/24/17/54/dog-5773397_640.jpg",
        "src1280": "https://cdn.pixabay.com/photo/2020/11/24/17/54/dog-5773397_1280.jpg"
    },
    {
        "id": "1461917",
        "src640": "https://cdn.pixabay.com/photo/2016/06/16/18/27/goat-1461917_640.jpg",
        "src1280": "https://cdn.pixabay.com/photo/2016/06/16/18/27/goat-1461917_1280.jpg"
    },
    {
        "id": "2595144",
        "src640": "https://cdn.pixabay.com/photo/2017/08/06/18/52/pony-2595144_640.jpg",
        "src1280": "https://cdn.pixabay.com/photo/2017/08/06/18/52/pony-2595144_1280.jpg"
    },
    {
        "id": "3807667",
        "src640": "https://cdn.pixabay.com/photo/2018/11/10/22/57/mountain-3807667_640.jpg",
        "src1280": "https://cdn.pixabay.com/photo/2018/11/10/22/57/mountain-3807667_1280.jpg"
    },
    {
        "id": "3810946",
        "src640": "https://cdn.pixabay.com/photo/2018/11/12/14/25/ply-3810946_640.jpg",
        "src1280": "https://cdn.pixabay.com/photo/2018/11/12/14/25/ply-3810946_1280.jpg"
    },
    {
        "id": "7631440",
        "src640": "https://cdn.pixabay.com/photo/2022/12/02/18/37/middle-spotted-woodpecker-7631440_640.jpg",
        "src1280": "https://cdn.pixabay.com/photo/2022/12/02/18/37/middle-spotted-woodpecker-7631440_1280.jpg"
    },
    {
        "id": "1249249",
        "src640": "https://cdn.pixabay.com/photo/2016/03/10/20/56/gannets-1249249_640.jpg",
        "src1280": "https://cdn.pixabay.com/photo/2016/03/10/20/56/gannets-1249249_1280.jpg"
    },
    {
        "id": "5239814",
        "src640": "https://cdn.pixabay.com/photo/2020/05/30/17/57/flower-5239814_640.jpg",
        "src1280": "https://cdn.pixabay.com/photo/2020/05/30/17/57/flower-5239814_1280.jpg"
    },
    {
        "id": "1415723",
        "src640": "https://cdn.pixabay.com/photo/2016/05/25/19/45/tower-1415723_640.jpg",
        "src1280": "https://cdn.pixabay.com/photo/2016/05/25/19/45/tower-1415723_1280.jpg"
    },
    {
        "id": "1836635",
        "src640": "https://cdn.pixabay.com/photo/2016/11/18/19/49/bright-1836635_640.jpg",
        "src1280": "https://cdn.pixabay.com/photo/2016/11/18/19/49/bright-1836635_1280.jpg"
    },
    {
        "id": "534826",
        "src640": "https://cdn.pixabay.com/photo/2014/11/17/16/50/robin-534826_640.jpg",
        "src1280": "https://cdn.pixabay.com/photo/2014/11/17/16/50/robin-534826_1280.jpg"
    },
    {
        "id": "909554",
        "src640": "https://cdn.pixabay.com/photo/2015/08/27/05/48/boy-909554_640.jpg",
        "src1280": "https://cdn.pixabay.com/photo/2015/08/27/05/48/boy-909554_1280.jpg"
    },
    {
        "id": "4779562",
        "src640": "https://cdn.pixabay.com/photo/2020/01/20/05/54/one-4779562_640.jpg",
        "src1280": "https://cdn.pixabay.com/photo/2020/01/20/05/54/one-4779562_1280.jpg"
    },
    {
        "id": "6705694",
        "src640": "https://cdn.pixabay.com/photo/2021/10/13/07/43/couple-6705694_640.jpg",
        "src1280": "https://cdn.pixabay.com/photo/2021/10/13/07/43/couple-6705694_1280.jpg"
    },
    {
        "id": "8409655",
        "src640": "https://cdn.pixabay.com/photo/2023/11/24/10/15/cockatoo-8409655_640.jpg",
        "src1280": "https://cdn.pixabay.com/photo/2023/11/24/10/15/cockatoo-8409655_1280.jpg"
    },
    {
        "id": "2889926",
        "src640": "https://cdn.pixabay.com/photo/2017/10/26/02/05/tree-2889926_640.jpg",
        "src1280": "https://cdn.pixabay.com/photo/2017/10/26/02/05/tree-2889926_1280.jpg"
    },
    {
        "id": "1851108",
        "src640": "https://cdn.pixabay.com/photo/2016/11/22/23/14/terrier-1851108_640.jpg",
        "src1280": "https://cdn.pixabay.com/photo/2016/11/22/23/14/terrier-1851108_1280.jpg"
    },
    {
        "id": "723540",
        "src640": "https://cdn.pixabay.com/photo/2015/04/15/09/28/head-723540_640.jpg",
        "src1280": "https://cdn.pixabay.com/photo/2015/04/15/09/28/head-723540_1280.jpg"
    },
    {
        "id": "5209386",
        "src640": "https://cdn.pixabay.com/photo/2020/05/23/12/33/flowers-5209386_640.jpg",
        "src1280": "https://cdn.pixabay.com/photo/2020/05/23/12/33/flowers-5209386_1280.jpg"
    },
    {
        "id": "1852860",
        "src640": "https://cdn.pixabay.com/photo/2016/11/23/13/31/red-panda-1852860_640.jpg",
        "src1280": "https://cdn.pixabay.com/photo/2016/11/23/13/31/red-panda-1852860_1280.jpg"
    },
    {
        "id": "165104",
        "src640": "https://cdn.pixabay.com/photo/2013/07/18/20/27/butterfly-165104_640.jpg",
        "src1280": "https://cdn.pixabay.com/photo/2013/07/18/20/27/butterfly-165104_1280.jpg"
    },
    {
        "id": "6099842",
        "src640": "https://cdn.pixabay.com/photo/2021/03/16/13/47/lake-6099842_640.jpg",
        "src1280": "https://cdn.pixabay.com/photo/2021/03/16/13/47/lake-6099842_1280.jpg"
    },
    {
        "id": "3387071",
        "src640": "https://cdn.pixabay.com/photo/2018/05/10/08/59/book-3387071_640.jpg",
        "src1280": "https://cdn.pixabay.com/photo/2018/05/10/08/59/book-3387071_1280.jpg"
    },
    {
        "id": "1342385",
        "src640": "https://cdn.pixabay.com/photo/2016/04/20/23/47/tiger-1342385_640.jpg",
        "src1280": "https://cdn.pixabay.com/photo/2016/04/20/23/47/tiger-1342385_1280.jpg"
    },
    {
        "id": "100880",
        "src640": "https://cdn.pixabay.com/photo/2013/04/05/19/17/bird-100880_640.jpg",
        "src1280": "https://cdn.pixabay.com/photo/2013/04/05/19/17/bird-100880_1280.jpg"
    },
    {
        "id": "5148320",
        "src640": "https://cdn.pixabay.com/photo/2020/05/09/05/30/hirsch-5148320_640.jpg",
        "src1280": "https://cdn.pixabay.com/photo/2020/05/09/05/30/hirsch-5148320_1280.jpg"
    },
    {
        "id": "4792888",
        "src640": "https://cdn.pixabay.com/photo/2020/01/25/16/56/lotus-4792888_640.jpg",
        "src1280": "https://cdn.pixabay.com/photo/2020/01/25/16/56/lotus-4792888_1280.jpg"
    },
    {
        "id": "5098930",
        "src640": "https://cdn.pixabay.com/photo/2020/04/27/09/21/cat-5098930_640.jpg",
        "src1280": "https://cdn.pixabay.com/photo/2020/04/27/09/21/cat-5098930_1280.jpg"
    },
    {
        "id": "3802391",
        "src640": "https://cdn.pixabay.com/photo/2018/11/08/11/34/milky-way-3802391_640.jpg",
        "src1280": "https://cdn.pixabay.com/photo/2018/11/08/11/34/milky-way-3802391_1280.jpg"
    },
    {
        "id": "4395240",
        "src640": "https://cdn.pixabay.com/photo/2019/08/09/15/10/flowers-4395240_640.jpg",
        "src1280": "https://cdn.pixabay.com/photo/2019/08/09/15/10/flowers-4395240_1280.jpg"
    },
    {
        "id": "4720178",
        "src640": "https://cdn.pixabay.com/photo/2019/12/26/10/44/horse-4720178_640.jpg",
        "src1280": "https://cdn.pixabay.com/photo/2019/12/26/10/44/horse-4720178_1280.jpg"
    },
    {
        "id": "2276495",
        "src640": "https://cdn.pixabay.com/photo/2017/05/01/20/20/hat-2276495_640.jpg",
        "src1280": "https://cdn.pixabay.com/photo/2017/05/01/20/20/hat-2276495_1280.jpg"
    },
    {
        "id": "1765351",
        "src640": "https://cdn.pixabay.com/photo/2016/10/24/04/19/summer-1765351_640.jpg",
        "src1280": "https://cdn.pixabay.com/photo/2016/10/24/04/19/summer-1765351_1280.jpg"
    },
    {
        "id": "7780902",
        "src640": "https://cdn.pixabay.com/photo/2023/02/10/13/44/gorilla-7780902_640.jpg",
        "src1280": "https://cdn.pixabay.com/photo/2023/02/10/13/44/gorilla-7780902_1280.jpg"
    },
    {
        "id": "4416194",
        "src640": "https://cdn.pixabay.com/photo/2019/08/19/11/59/milky-way-4416194_640.jpg",
        "src1280": "https://cdn.pixabay.com/photo/2019/08/19/11/59/milky-way-4416194_1280.jpg"
    },
    {
        "id": "629431",
        "src640": "https://cdn.pixabay.com/photo/2015/02/09/08/32/horse-629431_640.jpg",
        "src1280": "https://cdn.pixabay.com/photo/2015/02/09/08/32/horse-629431_1280.jpg"
    },
    {
        "id": "8475883",
        "src640": "https://cdn.pixabay.com/photo/2023/12/29/09/35/egret-8475883_640.jpg",
        "src1280": "https://cdn.pixabay.com/photo/2023/12/29/09/35/egret-8475883_1280.jpg"
    },
    {
        "id": "499585",
        "src640": "https://cdn.pixabay.com/photo/2014/10/23/11/21/boat-499585_640.jpg",
        "src1280": "https://cdn.pixabay.com/photo/2014/10/23/11/21/boat-499585_1280.jpg"
    },
    {
        "id": "7762887",
        "src640": "https://cdn.pixabay.com/photo/2023/02/02/13/27/cat-7762887_640.jpg",
        "src1280": "https://cdn.pixabay.com/photo/2023/02/02/13/27/cat-7762887_1280.jpg"
    },
    {
        "id": "1434536",
        "src640": "https://cdn.pixabay.com/photo/2016/06/03/21/47/flowers-1434536_640.jpg",
        "src1280": "https://cdn.pixabay.com/photo/2016/06/03/21/47/flowers-1434536_1280.jpg"
    },
    {
        "id": "5265096",
        "src640": "https://cdn.pixabay.com/photo/2020/06/06/03/38/fish-5265096_640.jpg",
        "src1280": "https://cdn.pixabay.com/photo/2020/06/06/03/38/fish-5265096_1280.jpg"
    },
    {
        "id": "2603300",
        "src640": "https://cdn.pixabay.com/photo/2017/08/07/12/27/cat-2603300_640.jpg",
        "src1280": "https://cdn.pixabay.com/photo/2017/08/07/12/27/cat-2603300_1280.jpg"
    },
    {
        "id": "4760841",
        "src640": "https://cdn.pixabay.com/photo/2020/01/12/19/04/snowy-4760841_640.jpg",
        "src1280": "https://cdn.pixabay.com/photo/2020/01/12/19/04/snowy-4760841_1280.jpg"
    },
    {
        "id": "3937297",
        "src640": "https://cdn.pixabay.com/photo/2019/01/17/08/23/flowers-3937297_640.jpg",
        "src1280": "https://cdn.pixabay.com/photo/2019/01/17/08/23/flowers-3937297_1280.jpg"
    },
    {
        "id": "2806616",
        "src640": "https://cdn.pixabay.com/photo/2017/10/01/18/47/trimaran-2806616_640.jpg",
        "src1280": "https://cdn.pixabay.com/photo/2017/10/01/18/47/trimaran-2806616_1280.jpg"
    },
    {
        "id": "7289600",
        "src640": "https://cdn.pixabay.com/photo/2022/06/28/12/28/boho-art-7289600_640.jpg",
        "src1280": "https://cdn.pixabay.com/photo/2022/06/28/12/28/boho-art-7289600_1280.jpg"
    },
    {
        "id": "5519945",
        "src640": "https://cdn.pixabay.com/photo/2020/08/26/16/15/taj-mahal-5519945_640.jpg",
        "src1280": "https://cdn.pixabay.com/photo/2020/08/26/16/15/taj-mahal-5519945_1280.jpg"
    }
]