[
    {
        "id": "6871558",
        "src640": "https://cdn.pixabay.com/photo/2021/12/15/00/22/bird-6871558_640.jpg",
        "src1280": "https://cdn.pixabay.com/photo/2021/12/15/00/22/bird-6871558_1280.jpg"
    },
    {
        "id": "7252980",
        "src640": "https://cdn.pixabay.com/photo/2022/06/09/17/16/allium-7252980_640.jpg",
        "src1280": "https://cdn.pixabay.com/photo/2022/06/09/17/16/allium-7252980_1280.jpg"
    },
    {
        "id": "6312635",
        "src640": "https://cdn.pixabay.com/photo/2021/06/05/13/10/kid-6312635_640.jpg",
        "src1280": "https://cdn.pixabay.com/photo/2021/06/05/13/10/kid-6312635_1280.jpg"
    },
    {
        "id": "6319208",
        "src640": "https://cdn.pixabay.com/photo/2021/06/07/22/42/tulips-6319208_640.jpg",
        "src1280": "https://cdn.pixabay.com/photo/2021/06/07/22/42/tulips-6319208_1280.jpg"
    },
    {
        "id": "1838804",
        "src640": "https://cdn.pixabay.com/photo/2016/11/19/11/41/owl-1838804_640.jpg",
        "src1280": "https://cdn.pixabay.com/photo/2016/11/19/11/41/owl-1838804_1280.jpg"
    },
    {
        "id": "4956773",
        "src640": "https://cdn.pixabay.com/photo/2020/03/22/11/18/istanbul-4956773_640.jpg",
        "src1280": "https://cdn.pixabay.com/photo/2020/03/22/11/18/istanbul-4956773_1280.jpg"
    },
    {
        "id": "7320390",
        "src640": "https://cdn.pixabay.com/photo/2022/07/14/03/52/woman-7320390_640.jpg",
        "src1280": "https://cdn.pixabay.com/photo/2022/07/14/03/52/woman-7320390_1280.jpg"
    },
    {
        "id": "6240485",
        "src640": "https://cdn.pixabay.com/photo/2021/05/09/10/51/dalmatian-6240485_640.jpg",
        "src1280": "https://cdn.pixabay.com/photo/2021/05/09/10/51/dalmatian-6240485_1280.jpg"
    },
    {
        "id": "5113699",
        "src640": "https://cdn.pixabay.com/photo/2020/04/30/17/05/camera-5113699_640.jpg",
        "src1280": "https://cdn.pixabay.com/photo/2020/04/30/17/05/camera-5113699_1280.jpg"
    },
    {
        "id": "516017",
        "src640": "https://cdn.pixabay.com/photo/2014/11/03/23/09/tulips-516017_640.jpg",
        "src1280": "https://cdn.pixabay.com/photo/2014/11/03/23/09/tulips-516017_1280.jpg"
    },
    {
        "id": "7723137",
        "src640": "https://cdn.pixabay.com/photo/2023/01/16/19/13/bird-7723137_640.jpg",
        "src1280": "https://cdn.pixabay.com/photo/2023/01/16/19/13/bird-7723137_1280.jpg"
    },
    {
        "id": "7999465",
        "src640": "https://cdn.pixabay.com/photo/2023/05/17/08/53/flower-7999465_640.jpg",
        "src1280": "https://cdn.pixabay.com/photo/2023/05/17/08/53/flower-7999465_1280.jpg"
    },
    {
        "id": "5324314",
        "src640": "https://cdn.pixabay.com/photo/2020/06/21/10/56/flower-5324314_640.jpg",
        "src1280": "https://cdn.pixabay.com/photo/2020/06/21/10/56/flower-5324314_1280.jpg"
    },
    {
        "id": "6259565",
        "src640": "https://cdn.pixabay.com/photo/2021/05/17/01/39/iris-6259565_640.jpg",
        "src1280": "https://cdn.pixabay.com/photo/2021/05/17/01/39/iris-6259565_1280.jpg"
    },
    {
        "id": "7965058",
        "src640": "https://cdn.pixabay.com/photo/2023/05/02/11/49/tulips-7965058_640.jpg",
        "src1280": "https://cdn.pixabay.com/photo/2023/05/02/11/49/tulips-7965058_1280.jpg"
    },
    {
        "id": "5958194",
        "src640": "https://cdn.pixabay.com/photo/2021/01/28/14/45/meerkat-5958194_640.jpg",
        "src1280": "https://cdn.pixabay.com/photo/2021/01/28/14/45/meerkat-5958194_1280.jpg"
    },
    {
        "id": "3862645",
        "src640": "https://cdn.pixabay.com/photo/2018/12/08/00/30/rome-3862645_640.jpg",
        "src1280": "https://cdn.pixabay.com/photo/2018/12/08/00/30/rome-3862645_1280.jpg"
    },
    {
        "id": "4468569",
        "src640": "https://cdn.pixabay.com/photo/2019/09/11/11/39/lighthouse-4468569_640.jpg",
        "src1280": "https://cdn.pixabay.com/photo/2019/09/11/11/39/lighthouse-4468569_1280.jpg"
    },
    {
        "id": "4487710",
        "src640": "https://cdn.pixabay.com/photo/2019/09/18/21/31/sea-4487710_640.jpg",
        "src1280": "https://cdn.pixabay.com/photo/2019/09/18/21/31/sea-4487710_1280.jpg"
    },
    {
        "id": "5951728",
        "src640": "https://cdn.pixabay.com/photo/2021/01/26/14/30/rose-5951728_640.jpg",
        "src1280": "https://cdn.pixabay.com/photo/2021/01/26/14/30/rose-5951728_1280.jpg"
    },
    {
        "id": "7553022",
        "src640": "https://cdn.pixabay.com/photo/2022/10/28/12/05/halloween-7553022_640.jpg",
        "src1280": "https://cdn.pixabay.com/photo/2022/10/28/12/05/halloween-7553022_1280.jpg"
    },
    {
        "id": "6029064",
        "src640": "https://cdn.pixabay.com/photo/2021/02/19/02/50/man-6029064_640.jpg",
        "src1280": "https://cdn.pixabay.com/photo/2021/02/19/02/50/man-6029064_1280.jpg"
    },
    {
        "id": "7178826",
        "src640": "https://cdn.pixabay.com/photo/2022/05/06/17/47/bridge-7178826_640.jpg",
        "src1280": "https://cdn.pixabay.com/photo/2022/05/06/17/47/bridge-7178826_1280.jpg"
    },
    {
        "id": "1630472",
        "src640": "https://cdn.pixabay.com/photo/2016/08/30/11/53/beach-1630472_640.jpg",
        "src1280": "https://cdn.pixabay.com/photo/2016/08/30/11/53/beach-1630472_1280.jpg"
    },
    {
        "id": "4484517",
        "src640": "https://cdn.pixabay.com/photo/2019/09/17/20/47/prague-4484517_640.jpg",
        "src1280": "https://cdn.pixabay.com/photo/2019/09/17/20/47/prague-4484517_1280.jpg"
    },
    {
        "id": "3528324",
        "src640": "https://cdn.pixabay.com/photo/2018/07/10/10/40/travel-3528324_640.jpg",
        "src1280": "https://cdn.pixabay.com/photo/2018/07/10/10/40/travel-3528324_1280.jpg"
    },
    {
        "id": "5964181",
        "src640": "https://cdn.pixabay.com/photo/2021/01/30/15/15/dog-5964181_640.jpg",
        "src1280": "https://cdn.pixabay.com/photo/2021/01/30/15/15/dog-5964181_1280.jpg"
    },
    {
        "id": "406631",
        "src640": "https://cdn.pixabay.com/photo/2014/07/31/18/49/grey-crowned-crane-406631_640.jpg",
        "src1280": "https://cdn.pixabay.com/photo/2014/07/31/18/49/grey-crowned-crane-406631_1280.jpg"
    },
    {
        "id": "1839140",
        "src640": "https://cdn.pixabay.com/photo/2016/11/19/12/56/tea-1839140_640.jpg",
        "src1280": "https://cdn.pixabay.com/photo/2016/11/19/12/56/tea-1839140_1280.jpg"
    },
    {
        "id": "4971583",
        "src640": "https://cdn.pixabay.com/photo/2020/03/26/19/37/poppies-4971583_640.jpg",
        "src1280": "https://cdn.pixabay.com/photo/2020/03/26/19/37/poppies-4971583_1280.jpg"
    },
    {
        "id": "6324434",
        "src640": "https://cdn.pixabay.com/photo/2021/06/09/20/27/stars-6324434_640.jpg",
        "src1280": "https://cdn.pixabay.com/photo/2021/06/09/20/27/stars-6324434_1280.jpg"
    },
    {
        "id": "6335296",
        "src640": "https://cdn.pixabay.com/photo/2021/06/14/08/55/lotus-6335296_640.jpg",
        "src1280": "https://cdn.pixabay.com/photo/2021/06/14/08/55/lotus-6335296_1280.jpg"
    },
    {
        "id": "6748261",
        "src640": "https://cdn.pixabay.com/photo/2021/10/27/20/14/deer-6748261_640.jpg",
        "src1280": "https://cdn.pixabay.com/photo/2021/10/27/20/14/deer-6748261_1280.jpg"
    },
    {
        "id": "8220659",
        "src640": "https://cdn.pixabay.com/photo/2023/08/29/07/13/dahlia-8220659_640.jpg",
        "src1280": "https://cdn.pixabay.com/photo/2023/08/29/07/13/dahlia-8220659_1280.jpg"
    },
    {
        "id": "2407297",
        "src640": "https://cdn.pixabay.com/photo/2017/06/16/00/00/animal-2407297_640.jpg",
        "src1280": "https://cdn.pixabay.com/photo/2017/06/16/00/00/animal-2407297_1280.jpg"
    },
    {
        "id": "7092794",
        "src640": "https://cdn.pixabay.com/photo/2022/03/26/11/43/flower-7092794_640.jpg",
        "src1280": "https://cdn.pixabay.com/photo/2022/03/26/11/43/flower-7092794_1280.jpg"
    },
    {
        "id": "5669389",
        "src640": "https://cdn.pixabay.com/photo/2020/10/20/03/22/inca-dove-5669389_640.jpg",
        "src1280": "https://cdn.pixabay.com/photo/2020/10/20/03/22/inca-dove-5669389_1280.jpg"
    },
    {
        "id": "4226137",
        "src640": "https://cdn.pixabay.com/photo/2019/05/24/12/19/lighthouse-4226137_640.jpg",
        "src1280": "https://cdn.pixabay.com/photo/2019/05/24/12/19/lighthouse-4226137_1280.jpg"
    },
    {
        "id": "5584004",
        "src640": "https://cdn.pixabay.com/photo/2020/09/19/09/40/sunset-5584004_640.jpg",
        "src1280": "https://cdn.pixabay.com/photo/2020/09/19/09/40/sunset-5584004_1280.jpg"
    },
    {
        "id": "5446839",
        "src640": "https://cdn.pixabay.com/photo/2020/07/29/03/58/child-5446839_640.jpg",
        "src1280": "https://cdn.pixabay.com/photo/2020/07/29/03/58/child-5446839_1280.jpg"
    },
    {
        "id": "3778173",
        "src640": "https://cdn.pixabay.com/photo/2018/10/28/09/04/spruce-3778173_640.jpg",
        "src1280": "https://cdn.pixabay.com/photo/2018/10/28/09/04/spruce-3778173_1280.jpg"
    },
    {
        "id": "4205740",
        "src640": "https://cdn.pixabay.com/photo/2019/05/15/19/12/woman-4205740_640.jpg",
        "src1280": "https://cdn.pixabay.com/photo/2019/05/15/19/12/woman-4205740_1280.jpg"
    },
    {
        "id": "5117067",
        "src640": "https://cdn.pixabay.com/photo/2020/05/01/13/30/lily-of-the-valley-5117067_640.jpg",
        "src1280": "https://cdn.pixabay.com/photo/2020/05/01/13/30/lily-of-the-valley-5117067_1280.jpg"
    },
    {
        "id": "6620588",
        "src640": "https://cdn.pixabay.com/photo/2021/09/13/07/59/sunset-6620588_640.jpg",
        "src1280": "https://cdn.pixabay.com/photo/2021/09/13/07/59/sunset-6620588_1280.jpg"
    },
    {
        "id": "7117714",
        "src640": "https://cdn.pixabay.com/photo/2022/04/07/15/13/farming-7117714_640.jpg",
        "src1280": "https://cdn.pixabay.com/photo/2022/04/07/15/13/farming-7117714_1280.jpg"
    },
    {
        "id": "7909902",
        "src640": "https://cdn.pixabay.com/photo/2023/04/08/18/01/flower-7909902_640.jpg",
        "src1280": "https://cdn.pixabay.com/photo/2023/04/08/18/01/flower-7909902_1280.jpg"
    },
    {
        "id": "2749587",
        "src640": "https://cdn.pixabay.com/photo/2017/09/14/16/38/leaf-2749587_640.jpg",
        "src1280": "https://cdn.pixabay.com/photo/2017/09/14/16/38/leaf-2749587_1280.jpg"
    },
    {
        "id": "4635428",
        "src640": "https://cdn.pixabay.com/photo/2019/11/18/18/29/mountain-4635428_640.jpg",
        "src1280": "https://cdn.pixabay.com/photo/2019/11/18/18/29/mountain-4635428_1280.jpg"
    },
    {
        "id": "7931381",
        "src640": "https://cdn.pixabay.com/photo/2023/04/17/00/06/vietnam-7931381_640.jpg",
        "src1280": "https://cdn.pixabay.com/photo/2023/04/17/00/06/vietnam-7931381_1280.jpg"
    },
    {
        "id": "6237951",
        "src640": "https://cdn.pixabay.com/photo/2021/05/08/09/08/sunset-6237951_640.jpg",
        "src1280": "https://cdn.pixabay.com/photo/2021/05/08/09/08/sunset-6237951_1280.jpg"
    },
    {
        "id": "5560647",
        "src640": "https://cdn.pixabay.com/photo/2020/09/10/15/19/woman-5560647_640.jpg",
        "src1280": "https://cdn.pixabay.com/photo/2020/09/10/15/19/woman-5560647_1280.jpg"
    },
    {
        "id": "1846475",
        "src640": "https://cdn.pixabay.com/photo/2016/11/21/17/01/woman-1846475_640.jpg",
        "src1280": "https://cdn.pixabay.com/photo/2016/11/21/17/01/woman-1846475_1280.jpg"
    },
    {
        "id": "5460168",
        "src640": "https://cdn.pixabay.com/photo/2020/08/03/14/05/girl-5460168_640.jpg",
        "src1280": "https://cdn.pixabay.com/photo/2020/08/03/14/05/girl-5460168_1280.jpg"
    },
    {
        "id": "7862112",
        "src640": "https://cdn.pixabay.com/photo/2023/03/19/09/20/animals-7862112_640.jpg",
        "src1280": "https://cdn.pixabay.com/photo/2023/03/19/09/20/animals-7862112_1280.jpg"
    },
    {
        "id": "8360945",
        "src640": "https://cdn.pixabay.com/photo/2023/11/02/15/58/beetle-8360945_640.jpg",
        "src1280": "https://cdn.pixabay.com/photo/2023/11/02/15/58/beetle-8360945_1280.jpg"
    },
    {
        "id": "6162592",
        "src640": "https://cdn.pixabay.com/photo/2021/04/08/18/49/creek-6162592_640.jpg",
        "src1280": "https://cdn.pixabay.com/photo/2021/04/08/18/49/creek-6162592_1280.jpg"
    },
    {
        "id": "7328225",
        "src640": "https://cdn.pixabay.com/photo/2022/07/17/19/40/animal-7328225_640.jpg",
        "src1280": "https://cdn.pixabay.com/photo/2022/07/17/19/40/animal-7328225_1280.jpg"
    },
    {
        "id": "3116499",
        "src640": "https://cdn.pixabay.com/photo/2018/01/29/16/21/summer-3116499_640.jpg",
        "src1280": "https://cdn.pixabay.com/photo/2018/01/29/16/21/summer-3116499_1280.jpg"
    },
    {
        "id": "5481799",
        "src640": "https://cdn.pixabay.com/photo/2020/08/12/07/01/alps-5481799_640.jpg",
        "src1280": "https://cdn.pixabay.com/photo/2020/08/12/07/01/alps-5481799_1280.jpg"
    },
    {
        "id": "967637",
        "src640": "https://cdn.pixabay.com/photo/2015/10/01/20/15/drops-967637_640.jpg",
        "src1280": "https://cdn.pixabay.com/photo/2015/10/01/20/15/drops-967637_1280.jpg"
    },
    {
        "id": "637949",
        "src640": "https://cdn.pixabay.com/photo/2015/02/16/06/11/fly-637949_640.jpg",
        "src1280": "https://cdn.pixabay.com/photo/2015/02/16/06/11/fly-637949_1280.jpg"
    },
    {
        "id": "7856224",
        "src640": "https://cdn.pixabay.com/photo/2023/03/16/08/51/flowers-7856224_640.jpg",
        "src1280": "https://cdn.pixabay.com/photo/2023/03/16/08/51/flowers-7856224_1280.jpg"
    },
    {
        "id": "7917858",
        "src640": "https://cdn.pixabay.com/photo/2023/04/11/17/43/amsterdam-7917858_640.jpg",
        "src1280": "https://cdn.pixabay.com/photo/2023/04/11/17/43/amsterdam-7917858_1280.jpg"
    },
    {
        "id": "5697134",
        "src640": "https://cdn.pixabay.com/photo/2020/10/29/19/56/lighthouse-5697134_640.jpg",
        "src1280": "https://cdn.pixabay.com/photo/2020/10/29/19/56/lighthouse-5697134_1280.jpg"
    },
    {
        "id": "7364680",
        "src640": "https://cdn.pixabay.com/photo/2022/08/04/13/14/italy-7364680_640.jpg",
        "src1280": "https://cdn.pixabay.com/photo/2022/08/04/13/14/italy-7364680_1280.jpg"
    },
    {
        "id": "4862623",
        "src640": "https://cdn.pixabay.com/photo/2020/02/19/16/27/ice-cream-4862623_640.jpg",
        "src1280": "https://cdn.pixabay.com/photo/2020/02/19/16/27/ice-cream-4862623_1280.jpg"
    },
    {
        "id": "7997690",
        "src640": "https://cdn.pixabay.com/photo/2023/05/16/14/07/bridge-7997690_640.jpg",
        "src1280": "https://cdn.pixabay.com/photo/2023/05/16/14/07/bridge-7997690_1280.jpg"
    },
    {
        "id": "5180198",
        "src640": "https://cdn.pixabay.com/photo/2020/05/17/06/12/sheet-5180198_640.jpg",
        "src1280": "https://cdn.pixabay.com/photo/2020/05/17/06/12/sheet-5180198_1280.jpg"
    },
    {
        "id": "4674389",
        "src640": "https://cdn.pixabay.com/photo/2019/12/05/06/27/waterfalls-4674389_640.jpg",
        "src1280": "https://cdn.pixabay.com/photo/2019/12/05/06/27/waterfalls-4674389_1280.jpg"
    },
    {
        "id": "4474975",
        "src640": "https://cdn.pixabay.com/photo/2019/09/13/22/08/boat-4474975_640.jpg",
        "src1280": "https://cdn.pixabay.com/photo/2019/09/13/22/08/boat-4474975_1280.jpg"
    },
    {
        "id": "3123468",
        "src640": "https://cdn.pixabay.com/photo/2018/02/01/15/53/soap-3123468_640.jpg",
        "src1280": "https://cdn.pixabay.com/photo/2018/02/01/15/53/soap-3123468_1280.jpg"
    },
    {
        "id": "2243277",
        "src640": "https://cdn.pixabay.com/photo/2017/04/19/19/00/iceland-2243277_640.jpg",
        "src1280": "https://cdn.pixabay.com/photo/2017/04/19/19/00/iceland-2243277_1280.jpg"
    },
    {
        "id": "223734",
        "src640": "https://cdn.pixabay.com/photo/2013/12/05/18/27/cheetah-223734_640.jpg",
        "src1280": "https://cdn.pixabay.com/photo/2013/12/05/18/27/cheetah-223734_1280.jpg"
    },
    {
        "id": "2807716",
        "src640": "https://cdn.pixabay.com/photo/2017/10/02/02/30/black-swan-2807716_640.jpg",
        "src1280": "https://cdn.pixabay.com/photo/2017/10/02/02/30/black-swan-2807716_1280.jpg"
    },
    {
        "id": "7190317",
        "src640": "https://cdn.pixabay.com/photo/2022/05/11/22/17/sage-7190317_640.jpg",
        "src1280": "https://cdn.pixabay.com/photo/2022/05/11/22/17/sage-7190317_1280.jpg"
    },
    {
        "id": "7851024",
        "src640": "https://cdn.pixabay.com/photo/2023/03/13/23/48/woman-7851024_640.jpg",
        "src1280": "https://cdn.pixabay.com/photo/2023/03/13/23/48/woman-7851024_1280.jpg"
    },
    {
        "id": "4353428",
        "src640": "https://cdn.pixabay.com/photo/2019/07/21/19/36/rafting-4353428_640.jpg",
        "src1280": "https://cdn.pixabay.com/photo/2019/07/21/19/36/rafting-4353428_1280.jpg"
    },
    {
        "id": "5691800",
        "src640": "https://cdn.pixabay.com/photo/2020/10/27/20/17/lake-5691800_640.jpg",
        "src1280": "https://cdn.pixabay.com/photo/2020/10/27/20/17/lake-5691800_1280.jpg"
    },
    {
        "id": "60626",
        "src640": "https://cdn.pixabay.com/photo/2012/10/10/11/13/butterfly-60626_640.jpg",
        "src1280": "https://cdn.pixabay.com/photo/2012/10/10/11/13/butterfly-60626_1280.jpg"
    },
    {
        "id": "7395306",
        "src640": "https://cdn.pixabay.com/photo/2022/08/18/17/00/dog-7395306_640.jpg",
        "src1280": "https://cdn.pixabay.com/photo/2022/08/18/17/00/dog-7395306_1280.jpg"
    },
    {
        "id": "6799478",
        "src640": "https://cdn.pixabay.com/photo/2021/11/15/21/39/rose-6799478_640.jpg",
        "src1280": "https://cdn.pixabay.com/photo/2021/11/15/21/39/rose-6799478_1280.jpg"
    },
    {
        "id": "7331052",
        "src640": "https://cdn.pixabay.com/photo/2022/07/19/00/25/grass-7331052_640.jpg",
        "src1280": "https://cdn.pixabay.com/photo/2022/07/19/00/25/grass-7331052_1280.jpg"
    },
    {
        "id": "7665747",
        "src640": "https://cdn.pixabay.com/photo/2022/12/19/13/51/flowers-7665747_640.jpg",
        "src1280": "https://cdn.pixabay.com/photo/2022/12/19/13/51/flowers-7665747_1280.jpg"
    },
    {
        "id": "287959",
        "src640": "https://cdn.pixabay.com/photo/2014/03/15/18/35/pink-periwinkles-287959_640.jpg",
        "src1280": "https://cdn.pixabay.com/photo/2014/03/15/18/35/pink-periwinkles-287959_1280.jpg"
    },
    {
        "id": "818197",
        "src640": "https://cdn.pixabay.com/photo/2015/06/22/23/20/cocktail-818197_640.jpg",
        "src1280": "https://cdn.pixabay.com/photo/2015/06/22/23/20/cocktail-818197_1280.jpg"
    },
    {
        "id": "4551338",
        "src640": "https://cdn.pixabay.com/photo/2019/10/15/10/50/alpine-4551338_640.jpg",
        "src1280": "https://cdn.pixabay.com/photo/2019/10/15/10/50/alpine-4551338_1280.jpg"
    },
    {
        "id": "7293778",
        "src640": "https://cdn.pixabay.com/photo/2022/06/30/14/31/jellyfish-7293778_640.jpg",
        "src1280": "https://cdn.pixabay.com/photo/2022/06/30/14/31/jellyfish-7293778_1280.jpg"
    },
    {
        "id": "4848687",
        "src640": "https://cdn.pixabay.com/photo/2020/02/14/15/45/orchid-4848687_640.jpg",
        "src1280": "https://cdn.pixabay.com/photo/2020/02/14/15/45/orchid-4848687_1280.jpg"
    },
    {
        "id": "7651201",
        "src640": "https://cdn.pixabay.com/photo/2022/12/12/15/06/winter-sports-7651201_640.jpg",
        "src1280": "https://cdn.pixabay.com/photo/2022/12/12/15/06/winter-sports-7651201_1280.jpg"
    },
    {
        "id": "129502",
        "src640": "https://cdn.pixabay.com/photo/2013/06/11/02/52/flowers-129502_640.jpg",
        "src1280": "https://cdn.pixabay.com/photo/2013/06/11/02/52/flowers-129502_1280.jpg"
    },
    {
        "id": "4413080",
        "src640": "https://cdn.pixabay.com/photo/2019/08/17/22/17/tree-4413080_640.jpg",
        "src1280": "https://cdn.pixabay.com/photo/2019/08/17/22/17/tree-4413080_1280.jpg"
    },
    {
        "id": "3960623",
        "src640": "https://cdn.pixabay.com/photo/2019/01/28/15/02/couple-3960623_640.jpg",
        "src1280": "https://cdn.pixabay.com/photo/2019/01/28/15/02/couple-3960623_1280.jpg"
    },
    {
        "id": "7879533",
        "src640": "https://cdn.pixabay.com/photo/2023/03/27/02/12/koala-7879533_640.jpg",
        "src1280": "https://cdn.pixabay.com/photo/2023/03/27/02/12/koala-7879533_1280.jpg"
    },
    {
        "id": "7344462",
        "src640": "https://cdn.pixabay.com/photo/2022/07/25/19/44/bee-7344462_640.jpg",
        "src1280": "https://cdn.pixabay.com/photo/2022/07/25/19/44/bee-7344462_1280.jpg"
    },
    {
        "id": "3795654",
        "src640": "https://cdn.pixabay.com/photo/2018/11/05/09/31/mountain-3795654_640.jpg",
        "src1280": "https://cdn.pixabay.com/photo/2018/11/05/09/31/mountain-3795654_1280.jpg"
    }
]