[
    {
        "id": "8225677",
        "src640": "https://cdn.pixabay.com/photo/2023/08/31/18/18/purple-coneflower-8225677_640.jpg",
        "src1280": "https://cdn.pixabay.com/photo/2023/08/31/18/18/purple-coneflower-8225677_1280.jpg"
    },
    {
        "id": "7131334",
        "src640": "https://cdn.pixabay.com/photo/2022/04/14/00/07/flowers-7131334_640.jpg",
        "src1280": "https://cdn.pixabay.com/photo/2022/04/14/00/07/flowers-7131334_1280.jpg"
    },
    {
        "id": "4988318",
        "src640": "https://cdn.pixabay.com/photo/2020/03/31/16/02/hoian-4988318_640.jpg",
        "src1280": "https://cdn.pixabay.com/photo/2020/03/31/16/02/hoian-4988318_1280.jpg"
    },
    {
        "id": "332989",
        "src640": "https://cdn.pixabay.com/photo/2014/04/27/10/09/butterfly-332989_640.jpg",
        "src1280": "https://cdn.pixabay.com/photo/2014/04/27/10/09/butterfly-332989_1280.jpg"
    },
    {
        "id": "6528599",
        "src640": "https://cdn.pixabay.com/photo/2021/08/07/13/18/giraffe-6528599_640.jpg",
        "src1280": "https://cdn.pixabay.com/photo/2021/08/07/13/18/giraffe-6528599_1280.jpg"
    },
    {
        "id": "7148487",
        "src640": "https://cdn.pixabay.com/photo/2022/04/21/22/50/animal-7148487_640.jpg",
        "src1280": "https://cdn.pixabay.com/photo/2022/04/21/22/50/animal-7148487_1280.jpg"
    },
    {
        "id": "7672716",
        "src640": "https://cdn.pixabay.com/photo/2022/12/22/18/11/cactus-7672716_640.jpg",
        "src1280": "https://cdn.pixabay.com/photo/2022/12/22/18/11/cactus-7672716_1280.jpg"
    },
    {
        "id": "6255523",
        "src640": "https://cdn.pixabay.com/photo/2021/05/15/10/59/lion-6255523_640.jpg",
        "src1280": "https://cdn.pixabay.com/photo/2021/05/15/10/59/lion-6255523_1280.jpg"
    },
    {
        "id": "7363571",
        "src640": "https://cdn.pixabay.com/photo/2022/08/04/00/51/woman-7363571_640.jpg",
        "src1280": "https://cdn.pixabay.com/photo/2022/08/04/00/51/woman-7363571_1280.jpg"
    },
    {
        "id": "7853671",
        "src640": "https://cdn.pixabay.com/photo/2023/03/15/04/30/joy-7853671_640.jpg",
        "src1280": "https://cdn.pixabay.com/photo/2023/03/15/04/30/joy-7853671_1280.jpg"
    },
    {
        "id": "4358506",
        "src640": "https://cdn.pixabay.com/photo/2019/07/23/19/51/bike-4358506_640.jpg",
        "src1280": "https://cdn.pixabay.com/photo/2019/07/23/19/51/bike-4358506_1280.jpg"
    },
    {
        "id": "4804",
        "src640": "https://cdn.pixabay.com/photo/2011/02/06/22/02/nature-4804_640.jpg",
        "src1280": "https://cdn.pixabay.com/photo/2011/02/06/22/02/nature-4804_1280.jpg"
    },
    {
        "id": "6744539",
        "src640": "https://cdn.pixabay.com/photo/2021/10/26/16/47/man-6744539_640.jpg",
        "src1280": "https://cdn.pixabay.com/photo/2021/10/26/16/47/man-6744539_1280.jpg"
    },
    {
        "id": "5899421",
        "src640": "https://cdn.pixabay.com/photo/2021/01/08/09/40/waterfall-5899421_640.jpg",
        "src1280": "https://cdn.pixabay.com/photo/2021/01/08/09/40/waterfall-5899421_1280.jpg"
    },
    {
        "id": "6153760",
        "src640": "https://cdn.pixabay.com/photo/2021/04/05/14/57/scotland-6153760_640.jpg",
        "src1280": "https://cdn.pixabay.com/photo/2021/04/05/14/57/scotland-6153760_1280.jpg"
    },
    {
        "id": "21279",
        "src640": "https://cdn.pixabay.com/photo/2012/03/02/12/46/man-21279_640.jpg",
        "src1280": "https://cdn.pixabay.com/photo/2012/03/02/12/46/man-21279_1280.jpg"
    },
    {
        "id": "5176742",
        "src640": "https://cdn.pixabay.com/photo/2020/05/16/09/44/couple-5176742_640.jpg",
        "src1280": "https://cdn.pixabay.com/photo/2020/05/16/09/44/couple-5176742_1280.jpg"
    },
    {
        "id": "2124955",
        "src640": "https://cdn.pixabay.com/photo/2017/03/07/18/50/guitar-2124955_640.jpg",
        "src1280": "https://cdn.pixabay.com/photo/2017/03/07/18/50/guitar-2124955_1280.jpg"
    },
    {
        "id": "8161464",
        "src640": "https://cdn.pixabay.com/photo/2023/07/31/17/07/bride-8161464_640.jpg",
        "src1280": "https://cdn.pixabay.com/photo/2023/07/31/17/07/bride-8161464_1280.jpg"
    },
    {
        "id": "122811",
        "src640": "https://cdn.pixabay.com/photo/2013/06/07/21/21/dragonfly-122811_640.jpg",
        "src1280": "https://cdn.pixabay.com/photo/2013/06/07/21/21/dragonfly-122811_1280.jpg"
    },
    {
        "id": "3288637",
        "src640": "https://cdn.pixabay.com/photo/2018/04/04/02/10/cat-3288637_640.jpg",
        "src1280": "https://cdn.pixabay.com/photo/2018/04/04/02/10/cat-3288637_1280.jpg"
    },
    {
        "id": "7952399",
        "src640": "https://cdn.pixabay.com/photo/2023/04/26/13/18/shell-7952399_640.jpg",
        "src1280": "https://cdn.pixabay.com/photo/2023/04/26/13/18/shell-7952399_1280.jpg"
    },
    {
        "id": "5314651",
        "src640": "https://cdn.pixabay.com/photo/2020/06/18/18/53/the-cliffs-5314651_640.jpg",
        "src1280": "https://cdn.pixabay.com/photo/2020/06/18/18/53/the-cliffs-5314651_1280.jpg"
    },
    {
        "id": "3795654",
        "src640": "https://cdn.pixabay.com/photo/2018/11/05/09/31/mountain-3795654_640.jpg",
        "src1280": "https://cdn.pixabay.com/photo/2018/11/05/09/31/mountain-3795654_1280.jpg"
    },
    {
        "id": "3630370",
        "src640": "https://cdn.pixabay.com/photo/2018/08/25/16/07/grapes-3630370_640.jpg",
        "src1280": "https://cdn.pixabay.com/photo/2018/08/25/16/07/grapes-3630370_1280.jpg"
    },
    {
        "id": "7190314",
        "src640": "https://cdn.pixabay.com/photo/2022/05/11/22/17/pink-hibiscus-7190314_640.jpg",
        "src1280": "https://cdn.pixabay.com/photo/2022/05/11/22/17/pink-hibiscus-7190314_1280.jpg"
    },
    {
        "id": "7997799",
        "src640": "https://cdn.pixabay.com/photo/2023/05/16/14/17/sail-boat-7997799_640.jpg",
        "src1280": "https://cdn.pixabay.com/photo/2023/05/16/14/17/sail-boat-7997799_1280.jpg"
    },
    {
        "id": "4972945",
        "src640": "https://cdn.pixabay.com/photo/2020/03/27/08/57/waterfall-4972945_640.jpg",
        "src1280": "https://cdn.pixabay.com/photo/2020/03/27/08/57/waterfall-4972945_1280.jpg"
    },
    {
        "id": "10835",
        "src640": "https://cdn.pixabay.com/photo/2011/11/17/19/23/beech-10835_640.jpg",
        "src1280": "https://cdn.pixabay.com/photo/2011/11/17/19/23/beech-10835_1280.jpg"
    },
    {
        "id": "6237959",
        "src640": "https://cdn.pixabay.com/photo/2021/05/08/09/09/sunset-6237959_640.jpg",
        "src1280": "https://cdn.pixabay.com/photo/2021/05/08/09/09/sunset-6237959_1280.jpg"
    },
    {
        "id": "4297471",
        "src640": "https://cdn.pixabay.com/photo/2019/06/25/06/02/woman-4297471_640.jpg",
        "src1280": "https://cdn.pixabay.com/photo/2019/06/25/06/02/woman-4297471_1280.jpg"
    },
    {
        "id": "7454482",
        "src640": "https://cdn.pixabay.com/photo/2022/09/14/14/36/window-7454482_640.jpg",
        "src1280": "https://cdn.pixabay.com/photo/2022/09/14/14/36/window-7454482_1280.jpg"
    },
    {
        "id": "5805962",
        "src640": "https://cdn.pixabay.com/photo/2020/12/05/13/56/spruce-5805962_640.jpg",
        "src1280": "https://cdn.pixabay.com/photo/2020/12/05/13/56/spruce-5805962_1280.jpg"
    },
    {
        "id": "6529372",
        "src640": "https://cdn.pixabay.com/photo/2021/08/07/21/00/beach-6529372_640.jpg",
        "src1280": "https://cdn.pixabay.com/photo/2021/08/07/21/00/beach-6529372_1280.jpg"
    },
    {
        "id": "4743964",
        "src640": "https://cdn.pixabay.com/photo/2020/01/05/19/59/ascona-4743964_640.jpg",
        "src1280": "https://cdn.pixabay.com/photo/2020/01/05/19/59/ascona-4743964_1280.jpg"
    },
    {
        "id": "8118926",
        "src640": "https://cdn.pixabay.com/photo/2023/07/10/18/59/bird-8118926_640.jpg",
        "src1280": "https://cdn.pixabay.com/photo/2023/07/10/18/59/bird-8118926_1280.jpg"
    },
    {
        "id": "6957312",
        "src640": "https://cdn.pixabay.com/photo/2022/01/22/13/30/mother-and-child-6957312_640.jpg",
        "src1280": "https://cdn.pixabay.com/photo/2022/01/22/13/30/mother-and-child-6957312_1280.jpg"
    },
    {
        "id": "6494602",
        "src640": "https://cdn.pixabay.com/photo/2021/07/26/15/38/stonechat-6494602_640.jpg",
        "src1280": "https://cdn.pixabay.com/photo/2021/07/26/15/38/stonechat-6494602_1280.jpg"
    },
    {
        "id": "6496937",
        "src640": "https://cdn.pixabay.com/photo/2021/07/27/14/00/milky-way-6496937_640.jpg",
        "src1280": "https://cdn.pixabay.com/photo/2021/07/27/14/00/milky-way-6496937_1280.jpg"
    },
    {
        "id": "86112",
        "src640": "https://cdn.pixabay.com/photo/2013/02/25/20/07/flower-86112_640.jpg",
        "src1280": "https://cdn.pixabay.com/photo/2013/02/25/20/07/flower-86112_1280.jpg"
    },
    {
        "id": "7396103",
        "src640": "https://cdn.pixabay.com/photo/2022/08/19/04/33/flowers-7396103_640.jpg",
        "src1280": "https://cdn.pixabay.com/photo/2022/08/19/04/33/flowers-7396103_1280.jpg"
    },
    {
        "id": "7986401",
        "src640": "https://cdn.pixabay.com/photo/2023/05/11/13/11/man-7986401_640.jpg",
        "src1280": "https://cdn.pixabay.com/photo/2023/05/11/13/11/man-7986401_1280.jpg"
    },
    {
        "id": "6336155",
        "src640": "https://cdn.pixabay.com/photo/2021/06/14/15/19/kid-6336155_640.jpg",
        "src1280": "https://cdn.pixabay.com/photo/2021/06/14/15/19/kid-6336155_1280.jpg"
    },
    {
        "id": "5810014",
        "src640": "https://cdn.pixabay.com/photo/2020/12/06/20/56/vase-5810014_640.jpg",
        "src1280": "https://cdn.pixabay.com/photo/2020/12/06/20/56/vase-5810014_1280.jpg"
    },
    {
        "id": "6517457",
        "src640": "https://cdn.pixabay.com/photo/2021/08/02/17/56/lighthouse-6517457_640.jpg",
        "src1280": "https://cdn.pixabay.com/photo/2021/08/02/17/56/lighthouse-6517457_1280.jpg"
    },
    {
        "id": "7913420",
        "src640": "https://cdn.pixabay.com/photo/2023/04/10/10/28/blue-tongue-skink-7913420_640.jpg",
        "src1280": "https://cdn.pixabay.com/photo/2023/04/10/10/28/blue-tongue-skink-7913420_1280.jpg"
    },
    {
        "id": "4540666",
        "src640": "https://cdn.pixabay.com/photo/2019/10/10/22/15/norway-4540666_640.jpg",
        "src1280": "https://cdn.pixabay.com/photo/2019/10/10/22/15/norway-4540666_1280.jpg"
    },
    {
        "id": "7733877",
        "src640": "https://cdn.pixabay.com/photo/2023/01/21/13/39/trees-7733877_640.jpg",
        "src1280": "https://cdn.pixabay.com/photo/2023/01/21/13/39/trees-7733877_1280.jpg"
    },
    {
        "id": "7350734",
        "src640": "https://cdn.pixabay.com/photo/2022/07/28/22/04/sun-7350734_640.jpg",
        "src1280": "https://cdn.pixabay.com/photo/2022/07/28/22/04/sun-7350734_1280.jpg"
    },
    {
        "id": "7395161",
        "src640": "https://cdn.pixabay.com/photo/2022/08/18/15/30/tram-7395161_640.jpg",
        "src1280": "https://cdn.pixabay.com/photo/2022/08/18/15/30/tram-7395161_1280.jpg"
    },
    {
        "id": "3486261",
        "src640": "https://cdn.pixabay.com/photo/2018/06/20/10/54/christmas-3486261_640.jpg",
        "src1280": "https://cdn.pixabay.com/photo/2018/06/20/10/54/christmas-3486261_1280.jpg"
    },
    {
        "id": "4949064",
        "src640": "https://cdn.pixabay.com/photo/2020/03/19/23/32/willow-catkins-4949064_640.jpg",
        "src1280": "https://cdn.pixabay.com/photo/2020/03/19/23/32/willow-catkins-4949064_1280.jpg"
    },
    {
        "id": "4315367",
        "src640": "https://cdn.pixabay.com/photo/2019/07/03/19/50/alpine-ibex-4315367_640.jpg",
        "src1280": "https://cdn.pixabay.com/photo/2019/07/03/19/50/alpine-ibex-4315367_1280.jpg"
    },
    {
        "id": "442615",
        "src640": "https://cdn.pixabay.com/photo/2014/09/12/12/02/seal-442615_640.jpg",
        "src1280": "https://cdn.pixabay.com/photo/2014/09/12/12/02/seal-442615_1280.jpg"
    },
    {
        "id": "4331427",
        "src640": "https://cdn.pixabay.com/photo/2019/07/11/20/58/zebra-4331427_640.jpg",
        "src1280": "https://cdn.pixabay.com/photo/2019/07/11/20/58/zebra-4331427_1280.jpg"
    },
    {
        "id": "4326461",
        "src640": "https://cdn.pixabay.com/photo/2019/07/09/08/03/boy-4326461_640.jpg",
        "src1280": "https://cdn.pixabay.com/photo/2019/07/09/08/03/boy-4326461_1280.jpg"
    },
    {
        "id": "4373144",
        "src640": "https://cdn.pixabay.com/photo/2019/07/30/14/46/flowers-4373144_640.jpg",
        "src1280": "https://cdn.pixabay.com/photo/2019/07/30/14/46/flowers-4373144_1280.jpg"
    },
    {
        "id": "4292254",
        "src640": "https://cdn.pixabay.com/photo/2019/06/22/19/01/golden-retriever-4292254_640.jpg",
        "src1280": "https://cdn.pixabay.com/photo/2019/06/22/19/01/golden-retriever-4292254_1280.jpg"
    },
    {
        "id": "6526980",
        "src640": "https://cdn.pixabay.com/photo/2021/08/06/18/46/dog-6526980_640.jpg",
        "src1280": "https://cdn.pixabay.com/photo/2021/08/06/18/46/dog-6526980_1280.jpg"
    },
    {
        "id": "2857449",
        "src640": "https://cdn.pixabay.com/photo/2017/10/16/15/10/animal-2857449_640.jpg",
        "src1280": "https://cdn.pixabay.com/photo/2017/10/16/15/10/animal-2857449_1280.jpg"
    },
    {
        "id": "4924132",
        "src640": "https://cdn.pixabay.com/photo/2020/03/12/07/01/duck-4924132_640.jpg",
        "src1280": "https://cdn.pixabay.com/photo/2020/03/12/07/01/duck-4924132_1280.jpg"
    },
    {
        "id": "7316252",
        "src640": "https://cdn.pixabay.com/photo/2022/07/12/00/08/japan-7316252_640.jpg",
        "src1280": "https://cdn.pixabay.com/photo/2022/07/12/00/08/japan-7316252_1280.jpg"
    },
    {
        "id": "591311",
        "src640": "https://cdn.pixabay.com/photo/2015/01/07/10/24/aster-591311_640.jpg",
        "src1280": "https://cdn.pixabay.com/photo/2015/01/07/10/24/aster-591311_1280.jpg"
    },
    {
        "id": "7955900",
        "src640": "https://cdn.pixabay.com/photo/2023/04/28/05/44/bird-7955900_640.jpg",
        "src1280": "https://cdn.pixabay.com/photo/2023/04/28/05/44/bird-7955900_1280.jpg"
    },
    {
        "id": "7287226",
        "src640": "https://cdn.pixabay.com/photo/2022/06/27/10/58/mount-kilimanjaro-7287226_640.jpg",
        "src1280": "https://cdn.pixabay.com/photo/2022/06/27/10/58/mount-kilimanjaro-7287226_1280.jpg"
    },
    {
        "id": "7829003",
        "src640": "https://cdn.pixabay.com/photo/2023/03/04/06/40/insect-7829003_640.jpg",
        "src1280": "https://cdn.pixabay.com/photo/2023/03/04/06/40/insect-7829003_1280.jpg"
    },
    {
        "id": "7194038",
        "src640": "https://cdn.pixabay.com/photo/2022/05/13/15/46/flower-7194038_640.jpg",
        "src1280": "https://cdn.pixabay.com/photo/2022/05/13/15/46/flower-7194038_1280.jpg"
    },
    {
        "id": "5427048",
        "src640": "https://cdn.pixabay.com/photo/2020/07/21/18/21/cornflower-5427048_640.jpg",
        "src1280": "https://cdn.pixabay.com/photo/2020/07/21/18/21/cornflower-5427048_1280.jpg"
    },
    {
        "id": "4091888",
        "src640": "https://cdn.pixabay.com/photo/2019/03/30/19/34/flowers-4091888_640.jpg",
        "src1280": "https://cdn.pixabay.com/photo/2019/03/30/19/34/flowers-4091888_1280.jpg"
    },
    {
        "id": "4573120",
        "src640": "https://cdn.pixabay.com/photo/2019/10/24/00/43/dock-4573120_640.jpg",
        "src1280": "https://cdn.pixabay.com/photo/2019/10/24/00/43/dock-4573120_1280.jpg"
    },
    {
        "id": "7392361",
        "src640": "https://cdn.pixabay.com/photo/2022/08/17/12/02/field-7392361_640.jpg",
        "src1280": "https://cdn.pixabay.com/photo/2022/08/17/12/02/field-7392361_1280.jpg"
    },
    {
        "id": "7853377",
        "src640": "https://cdn.pixabay.com/photo/2023/03/14/23/54/darling-7853377_640.jpg",
        "src1280": "https://cdn.pixabay.com/photo/2023/03/14/23/54/darling-7853377_1280.jpg"
    },
    {
        "id": "5249336",
        "src640": "https://cdn.pixabay.com/photo/2020/06/02/04/45/sweetness-5249336_640.jpg",
        "src1280": "https://cdn.pixabay.com/photo/2020/06/02/04/45/sweetness-5249336_1280.jpg"
    },
    {
        "id": "4636732",
        "src640": "https://cdn.pixabay.com/photo/2019/11/19/07/46/forest-4636732_640.jpg",
        "src1280": "https://cdn.pixabay.com/photo/2019/11/19/07/46/forest-4636732_1280.jpg"
    },
    {
        "id": "776730",
        "src640": "https://cdn.pixabay.com/photo/2015/05/21/08/05/cow-776730_640.jpg",
        "src1280": "https://cdn.pixabay.com/photo/2015/05/21/08/05/cow-776730_1280.jpg"
    },
    {
        "id": "6717792",
        "src640": "https://cdn.pixabay.com/photo/2021/10/17/10/44/animal-6717792_640.jpg",
        "src1280": "https://cdn.pixabay.com/photo/2021/10/17/10/44/animal-6717792_1280.jpg"
    },
    {
        "id": "8025984",
        "src640": "https://cdn.pixabay.com/photo/2023/05/29/12/52/hands-8025984_640.jpg",
        "src1280": "https://cdn.pixabay.com/photo/2023/05/29/12/52/hands-8025984_1280.jpg"
    },
    {
        "id": "6786207",
        "src640": "https://cdn.pixabay.com/photo/2021/11/11/12/38/tree-6786207_640.jpg",
        "src1280": "https://cdn.pixabay.com/photo/2021/11/11/12/38/tree-6786207_1280.jpg"
    },
    {
        "id": "228348",
        "src640": "https://cdn.pixabay.com/photo/2013/12/14/06/53/mushroom-228348_640.jpg",
        "src1280": "https://cdn.pixabay.com/photo/2013/12/14/06/53/mushroom-228348_1280.jpg"
    },
    {
        "id": "1822698",
        "src640": "https://cdn.pixabay.com/photo/2016/11/14/05/25/livestock-1822698_640.jpg",
        "src1280": "https://cdn.pixabay.com/photo/2016/11/14/05/25/livestock-1822698_1280.jpg"
    },
    {
        "id": "899124",
        "src640": "https://cdn.pixabay.com/photo/2015/08/21/16/12/antler-899124_640.jpg",
        "src1280": "https://cdn.pixabay.com/photo/2015/08/21/16/12/antler-899124_1280.jpg"
    },
    {
        "id": "5706984",
        "src640": "https://cdn.pixabay.com/photo/2020/11/02/15/08/autumn-5706984_640.jpg",
        "src1280": "https://cdn.pixabay.com/photo/2020/11/02/15/08/autumn-5706984_1280.jpg"
    },
    {
        "id": "219102",
        "src640": "https://cdn.pixabay.com/photo/2013/11/27/03/06/mantis-219102_640.jpg",
        "src1280": "https://cdn.pixabay.com/photo/2013/11/27/03/06/mantis-219102_1280.jpg"
    },
    {
        "id": "1447813",
        "src640": "https://cdn.pixabay.com/photo/2016/06/10/10/01/kite-1447813_640.jpg",
        "src1280": "https://cdn.pixabay.com/photo/2016/06/10/10/01/kite-1447813_1280.jpg"
    },
    {
        "id": "5572789",
        "src640": "https://cdn.pixabay.com/photo/2020/09/15/06/02/leaves-5572789_640.jpg",
        "src1280": "https://cdn.pixabay.com/photo/2020/09/15/06/02/leaves-5572789_1280.jpg"
    },
    {
        "id": "6975865",
        "src640": "https://cdn.pixabay.com/photo/2022/01/28/21/10/honeybee-6975865_640.jpg",
        "src1280": "https://cdn.pixabay.com/photo/2022/01/28/21/10/honeybee-6975865_1280.jpg"
    },
    {
        "id": "4441991",
        "src640": "https://cdn.pixabay.com/photo/2019/08/30/18/49/underwater-4441991_640.jpg",
        "src1280": "https://cdn.pixabay.com/photo/2019/08/30/18/49/underwater-4441991_1280.jpg"
    },
    {
        "id": "3555882",
        "src640": "https://cdn.pixabay.com/photo/2018/07/23/01/01/elephant-3555882_640.jpg",
        "src1280": "https://cdn.pixabay.com/photo/2018/07/23/01/01/elephant-3555882_1280.jpg"
    },
    {
        "id": "3662681",
        "src640": "https://cdn.pixabay.com/photo/2018/09/08/15/29/squirrel-3662681_640.jpg",
        "src1280": "https://cdn.pixabay.com/photo/2018/09/08/15/29/squirrel-3662681_1280.jpg"
    },
    {
        "id": "5151491",
        "src640": "https://cdn.pixabay.com/photo/2020/05/09/21/23/flower-5151491_640.jpg",
        "src1280": "https://cdn.pixabay.com/photo/2020/05/09/21/23/flower-5151491_1280.jpg"
    },
    {
        "id": "7367379",
        "src640": "https://cdn.pixabay.com/photo/2022/08/05/18/50/houseplant-7367379_640.jpg",
        "src1280": "https://cdn.pixabay.com/photo/2022/08/05/18/50/houseplant-7367379_1280.jpg"
    },
    {
        "id": "7582773",
        "src640": "https://cdn.pixabay.com/photo/2022/11/10/12/48/kangaroo-7582773_640.jpg",
        "src1280": "https://cdn.pixabay.com/photo/2022/11/10/12/48/kangaroo-7582773_1280.jpg"
    },
    {
        "id": "7877708",
        "src640": "https://cdn.pixabay.com/photo/2023/03/26/07/27/flower-7877708_640.jpg",
        "src1280": "https://cdn.pixabay.com/photo/2023/03/26/07/27/flower-7877708_1280.jpg"
    },
    {
        "id": "6808367",
        "src640": "https://cdn.pixabay.com/photo/2021/11/19/08/20/strawberries-6808367_640.jpg",
        "src1280": "https://cdn.pixabay.com/photo/2021/11/19/08/20/strawberries-6808367_1280.jpg"
    },
    {
        "id": "8027028",
        "src640": "https://cdn.pixabay.com/photo/2023/05/29/19/24/peonies-8027028_640.jpg",
        "src1280": "https://cdn.pixabay.com/photo/2023/05/29/19/24/peonies-8027028_1280.jpg"
    },
    {
        "id": "5457379",
        "src640": "https://cdn.pixabay.com/photo/2020/08/02/10/57/flowers-5457379_640.jpg",
        "src1280": "https://cdn.pixabay.com/photo/2020/08/02/10/57/flowers-5457379_1280.jpg"
    },
    {
        "id": "347046",
        "src640": "https://cdn.pixabay.com/photo/2014/05/18/13/07/poppy-347046_640.jpg",
        "src1280": "https://cdn.pixabay.com/photo/2014/05/18/13/07/poppy-347046_1280.jpg"
    }
]