[
    {
        "id": "8435328",
        "src640": "https://cdn.pixabay.com/photo/2023/12/07/11/03/giraffe-8435328_640.jpg",
        "src1280": "https://cdn.pixabay.com/photo/2023/12/07/11/03/giraffe-8435328_1280.jpg"
    },
    {
        "id": "5584131",
        "src640": "https://cdn.pixabay.com/photo/2020/09/19/10/39/forest-5584131_640.jpg",
        "src1280": "https://cdn.pixabay.com/photo/2020/09/19/10/39/forest-5584131_1280.jpg"
    },
    {
        "id": "4770297",
        "src640": "https://cdn.pixabay.com/photo/2020/01/16/12/03/physalis-4770297_640.jpg",
        "src1280": "https://cdn.pixabay.com/photo/2020/01/16/12/03/physalis-4770297_1280.jpg"
    },
    {
        "id": "8083911",
        "src640": "https://cdn.pixabay.com/photo/2023/06/23/17/44/ai-generated-8083911_640.jpg",
        "src1280": "https://cdn.pixabay.com/photo/2023/06/23/17/44/ai-generated-8083911_1280.jpg"
    },
    {
        "id": "1971488",
        "src640": "https://cdn.pixabay.com/photo/2017/01/11/11/02/cocktail-1971488_640.jpg",
        "src1280": "https://cdn.pixabay.com/photo/2017/01/11/11/02/cocktail-1971488_1280.jpg"
    },
    {
        "id": "7686641",
        "src640": "https://cdn.pixabay.com/photo/2022/12/30/10/49/giant-water-lilies-7686641_640.jpg",
        "src1280": "https://cdn.pixabay.com/photo/2022/12/30/10/49/giant-water-lilies-7686641_1280.jpg"
    },
    {
        "id": "8452730",
        "src640": "https://cdn.pixabay.com/photo/2023/12/16/15/41/horses-8452730_640.jpg",
        "src1280": "https://cdn.pixabay.com/photo/2023/12/16/15/41/horses-8452730_1280.jpg"
    },
    {
        "id": "875152",
        "src640": "https://cdn.pixabay.com/photo/2015/08/04/20/00/bird-875152_640.jpg",
        "src1280": "https://cdn.pixabay.com/photo/2015/08/04/20/00/bird-875152_1280.jpg"
    },
    {
        "id": "1162241",
        "src640": "https://cdn.pixabay.com/photo/2016/01/26/11/09/design-1162241_640.jpg",
        "src1280": "https://cdn.pixabay.com/photo/2016/01/26/11/09/design-1162241_1280.jpg"
    },
    {
        "id": "2957821",
        "src640": "https://cdn.pixabay.com/photo/2017/11/17/16/12/winter-2957821_640.jpg",
        "src1280": "https://cdn.pixabay.com/photo/2017/11/17/16/12/winter-2957821_1280.jpg"
    },
    {
        "id": "2809498",
        "src640": "https://cdn.pixabay.com/photo/2017/10/02/17/21/autumn-2809498_640.jpg",
        "src1280": "https://cdn.pixabay.com/photo/2017/10/02/17/21/autumn-2809498_1280.jpg"
    },
    {
        "id": "1129226",
        "src640": "https://cdn.pixabay.com/photo/2016/01/08/21/00/seaweed-1129226_640.jpg",
        "src1280": "https://cdn.pixabay.com/photo/2016/01/08/21/00/seaweed-1129226_1280.jpg"
    },
    {
        "id": "4567519",
        "src640": "https://cdn.pixabay.com/photo/2019/10/22/02/46/black-4567519_640.jpg",
        "src1280": "https://cdn.pixabay.com/photo/2019/10/22/02/46/black-4567519_1280.jpg"
    },
    {
        "id": "547989",
        "src640": "https://cdn.pixabay.com/photo/2014/11/27/18/14/oil-painting-547989_640.jpg",
        "src1280": "https://cdn.pixabay.com/photo/2014/11/27/18/14/oil-painting-547989_1280.jpg"
    },
    {
        "id": "419156",
        "src640": "https://cdn.pixabay.com/photo/2014/08/16/02/42/horse-419156_640.jpg",
        "src1280": "https://cdn.pixabay.com/photo/2014/08/16/02/42/horse-419156_1280.jpg"
    },
    {
        "id": "1721918",
        "src640": "https://cdn.pixabay.com/photo/2016/10/07/16/02/vintage-1721918_640.jpg",
        "src1280": "https://cdn.pixabay.com/photo/2016/10/07/16/02/vintage-1721918_1280.jpg"
    },
    {
        "id": "8450870",
        "src640": "https://cdn.pixabay.com/photo/2023/12/15/15/26/bird-8450870_640.jpg",
        "src1280": "https://cdn.pixabay.com/photo/2023/12/15/15/26/bird-8450870_1280.jpg"
    },
    {
        "id": "1835150",
        "src640": "https://cdn.pixabay.com/photo/2016/11/18/14/59/vintage-1835150_640.jpg",
        "src1280": "https://cdn.pixabay.com/photo/2016/11/18/14/59/vintage-1835150_1280.jpg"
    },
    {
        "id": "2075302",
        "src640": "https://cdn.pixabay.com/photo/2017/02/17/21/03/autumn-mood-2075302_640.jpg",
        "src1280": "https://cdn.pixabay.com/photo/2017/02/17/21/03/autumn-mood-2075302_1280.jpg"
    },
    {
        "id": "1722329",
        "src640": "https://cdn.pixabay.com/photo/2016/10/07/18/32/vintage-1722329_640.jpg",
        "src1280": "https://cdn.pixabay.com/photo/2016/10/07/18/32/vintage-1722329_1280.jpg"
    },
    {
        "id": "140113",
        "src640": "https://cdn.pixabay.com/photo/2013/06/19/13/45/california-140113_640.jpg",
        "src1280": "https://cdn.pixabay.com/photo/2013/06/19/13/45/california-140113_1280.jpg"
    },
    {
        "id": "1276628",
        "src640": "https://cdn.pixabay.com/photo/2016/03/24/12/27/bunny-1276628_640.jpg",
        "src1280": "https://cdn.pixabay.com/photo/2016/03/24/12/27/bunny-1276628_1280.jpg"
    },
    {
        "id": "4544929",
        "src640": "https://cdn.pixabay.com/photo/2019/10/12/21/19/fantasy-4544929_640.jpg",
        "src1280": "https://cdn.pixabay.com/photo/2019/10/12/21/19/fantasy-4544929_1280.jpg"
    },
    {
        "id": "8475883",
        "src640": "https://cdn.pixabay.com/photo/2023/12/29/09/35/egret-8475883_640.jpg",
        "src1280": "https://cdn.pixabay.com/photo/2023/12/29/09/35/egret-8475883_1280.jpg"
    },
    {
        "id": "4765248",
        "src640": "https://cdn.pixabay.com/photo/2020/01/14/14/41/forest-4765248_640.jpg",
        "src1280": "https://cdn.pixabay.com/photo/2020/01/14/14/41/forest-4765248_1280.jpg"
    },
    {
        "id": "269870",
        "src640": "https://cdn.pixabay.com/photo/2014/02/19/13/38/drawing-269870_640.jpg",
        "src1280": "https://cdn.pixabay.com/photo/2014/02/19/13/38/drawing-269870_1280.jpg"
    },
    {
        "id": "1938677",
        "src640": "https://cdn.pixabay.com/photo/2016/12/29/15/00/hourglass-1938677_640.jpg",
        "src1280": "https://cdn.pixabay.com/photo/2016/12/29/15/00/hourglass-1938677_1280.jpg"
    },
    {
        "id": "946710",
        "src640": "https://cdn.pixabay.com/photo/2015/09/19/01/09/creek-946710_640.jpg",
        "src1280": "https://cdn.pixabay.com/photo/2015/09/19/01/09/creek-946710_1280.jpg"
    },
    {
        "id": "2597931",
        "src640": "https://cdn.pixabay.com/photo/2017/08/07/00/25/sea-2597931_640.jpg",
        "src1280": "https://cdn.pixabay.com/photo/2017/08/07/00/25/sea-2597931_1280.jpg"
    },
    {
        "id": "1395534",
        "src640": "https://cdn.pixabay.com/photo/2016/05/16/12/19/ivy-1395534_640.jpg",
        "src1280": "https://cdn.pixabay.com/photo/2016/05/16/12/19/ivy-1395534_1280.jpg"
    }
]