[
    {
        "id": "747405",
        "src640": "https://cdn.pixabay.com/photo/2015/04/30/20/11/daisy-747405_640.jpg",
        "src1280": "https://cdn.pixabay.com/photo/2015/04/30/20/11/daisy-747405_1280.jpg"
    },
    {
        "id": "8458422",
        "src640": "https://cdn.pixabay.com/photo/2023/12/19/21/24/young-woman-8458422_640.jpg",
        "src1280": "https://cdn.pixabay.com/photo/2023/12/19/21/24/young-woman-8458422_1280.jpg"
    },
    {
        "id": "2615040",
        "src640": "https://cdn.pixabay.com/photo/2017/08/09/16/21/fantasy-2615040_640.jpg",
        "src1280": "https://cdn.pixabay.com/photo/2017/08/09/16/21/fantasy-2615040_1280.jpg"
    },
    {
        "id": "4353444",
        "src640": "https://cdn.pixabay.com/photo/2019/07/21/19/37/mermaid-4353444_640.jpg",
        "src1280": "https://cdn.pixabay.com/photo/2019/07/21/19/37/mermaid-4353444_1280.jpg"
    },
    {
        "id": "4621233",
        "src640": "https://cdn.pixabay.com/photo/2019/11/12/14/57/sunflower-4621233_640.jpg",
        "src1280": "https://cdn.pixabay.com/photo/2019/11/12/14/57/sunflower-4621233_1280.jpg"
    },
    {
        "id": "2565913",
        "src640": "https://cdn.pixabay.com/photo/2017/08/01/14/38/cupcake-2565913_640.jpg",
        "src1280": "https://cdn.pixabay.com/photo/2017/08/01/14/38/cupcake-2565913_1280.jpg"
    },
    {
        "id": "3532037",
        "src640": "https://cdn.pixabay.com/photo/2018/07/11/21/57/poster-3532037_640.jpg",
        "src1280": "https://cdn.pixabay.com/photo/2018/07/11/21/57/poster-3532037_1280.jpg"
    },
    {
        "id": "4384303",
        "src640": "https://cdn.pixabay.com/photo/2019/08/04/17/38/bird-4384303_640.jpg",
        "src1280": "https://cdn.pixabay.com/photo/2019/08/04/17/38/bird-4384303_1280.jpg"
    },
    {
        "id": "4853354",
        "src640": "https://cdn.pixabay.com/photo/2020/02/16/12/08/vintage-4853354_640.jpg",
        "src1280": "https://cdn.pixabay.com/photo/2020/02/16/12/08/vintage-4853354_1280.jpg"
    },
    {
        "id": "2889926",
        "src640": "https://cdn.pixabay.com/photo/2017/10/26/02/05/tree-2889926_640.jpg",
        "src1280": "https://cdn.pixabay.com/photo/2017/10/26/02/05/tree-2889926_1280.jpg"
    },
    {
        "id": "8478074",
        "src640": "https://cdn.pixabay.com/photo/2023/12/30/12/56/insects-8478074_640.jpg",
        "src1280": "https://cdn.pixabay.com/photo/2023/12/30/12/56/insects-8478074_1280.jpg"
    },
    {
        "id": "2139297",
        "src640": "https://cdn.pixabay.com/photo/2017/03/13/10/31/quetzal-2139297_640.jpg",
        "src1280": "https://cdn.pixabay.com/photo/2017/03/13/10/31/quetzal-2139297_1280.jpg"
    },
    {
        "id": "822850",
        "src640": "https://cdn.pixabay.com/photo/2015/06/26/19/30/person-822850_640.jpg",
        "src1280": "https://cdn.pixabay.com/photo/2015/06/26/19/30/person-822850_1280.jpg"
    },
    {
        "id": "3502870",
        "src640": "https://cdn.pixabay.com/photo/2018/06/27/23/36/poppy-3502870_640.jpg",
        "src1280": "https://cdn.pixabay.com/photo/2018/06/27/23/36/poppy-3502870_1280.jpg"
    },
    {
        "id": "8464583",
        "src640": "https://cdn.pixabay.com/photo/2023/12/22/23/39/ai-generated-8464583_640.jpg",
        "src1280": "https://cdn.pixabay.com/photo/2023/12/22/23/39/ai-generated-8464583_1280.jpg"
    },
    {
        "id": "138576",
        "src640": "https://cdn.pixabay.com/photo/2013/06/11/23/04/otter-138576_640.jpg",
        "src1280": "https://cdn.pixabay.com/photo/2013/06/11/23/04/otter-138576_1280.jpg"
    },
    {
        "id": "1510617",
        "src640": "https://cdn.pixabay.com/photo/2016/07/11/20/41/seagull-1510617_640.jpg",
        "src1280": "https://cdn.pixabay.com/photo/2016/07/11/20/41/seagull-1510617_1280.jpg"
    },
    {
        "id": "5609692",
        "src640": "https://cdn.pixabay.com/photo/2020/09/28/12/34/pumpkin-5609692_640.jpg",
        "src1280": "https://cdn.pixabay.com/photo/2020/09/28/12/34/pumpkin-5609692_1280.jpg"
    },
    {
        "id": "1281253",
        "src640": "https://cdn.pixabay.com/photo/2016/03/26/20/29/meditation-1281253_640.jpg",
        "src1280": "https://cdn.pixabay.com/photo/2016/03/26/20/29/meditation-1281253_1280.jpg"
    },
    {
        "id": "657743",
        "src640": "https://cdn.pixabay.com/photo/2015/03/03/18/49/girl-657743_640.jpg",
        "src1280": "https://cdn.pixabay.com/photo/2015/03/03/18/49/girl-657743_1280.jpg"
    },
    {
        "id": "2065802",
        "src640": "https://cdn.pixabay.com/photo/2017/02/14/12/24/woman-2065802_640.jpg",
        "src1280": "https://cdn.pixabay.com/photo/2017/02/14/12/24/woman-2065802_1280.jpg"
    },
    {
        "id": "1052752",
        "src640": "https://cdn.pixabay.com/photo/2015/11/20/10/36/nymph-1052752_640.jpg",
        "src1280": "https://cdn.pixabay.com/photo/2015/11/20/10/36/nymph-1052752_1280.jpg"
    },
    {
        "id": "593194",
        "src640": "https://cdn.pixabay.com/photo/2015/01/08/15/56/girl-593194_640.jpg",
        "src1280": "https://cdn.pixabay.com/photo/2015/01/08/15/56/girl-593194_1280.jpg"
    },
    {
        "id": "2089902",
        "src640": "https://cdn.pixabay.com/photo/2017/02/22/16/50/multnomah-falls-2089902_640.jpg",
        "src1280": "https://cdn.pixabay.com/photo/2017/02/22/16/50/multnomah-falls-2089902_1280.jpg"
    },
    {
        "id": "8461676",
        "src640": "https://cdn.pixabay.com/photo/2023/12/21/10/50/grass-8461676_640.jpg",
        "src1280": "https://cdn.pixabay.com/photo/2023/12/21/10/50/grass-8461676_1280.jpg"
    },
    {
        "id": "7765199",
        "src640": "https://cdn.pixabay.com/photo/2023/02/03/14/01/sea-7765199_640.jpg",
        "src1280": "https://cdn.pixabay.com/photo/2023/02/03/14/01/sea-7765199_1280.jpg"
    },
    {
        "id": "7998788",
        "src640": "https://cdn.pixabay.com/photo/2023/05/16/23/40/tiger-lilies-7998788_640.jpg",
        "src1280": "https://cdn.pixabay.com/photo/2023/05/16/23/40/tiger-lilies-7998788_1280.jpg"
    },
    {
        "id": "2148654",
        "src640": "https://cdn.pixabay.com/photo/2017/03/16/10/07/tulips-2148654_640.jpg",
        "src1280": "https://cdn.pixabay.com/photo/2017/03/16/10/07/tulips-2148654_1280.jpg"
    },
    {
        "id": "5960101",
        "src640": "https://cdn.pixabay.com/photo/2021/01/29/08/09/flowers-5960101_640.jpg",
        "src1280": "https://cdn.pixabay.com/photo/2021/01/29/08/09/flowers-5960101_1280.jpg"
    },
    {
        "id": "853993",
        "src640": "https://cdn.pixabay.com/photo/2015/07/21/14/48/girl-853993_640.jpg",
        "src1280": "https://cdn.pixabay.com/photo/2015/07/21/14/48/girl-853993_1280.jpg"
    },
    {
        "id": "4451296",
        "src640": "https://cdn.pixabay.com/photo/2019/09/04/11/10/flower-4451296_640.jpg",
        "src1280": "https://cdn.pixabay.com/photo/2019/09/04/11/10/flower-4451296_1280.jpg"
    },
    {
        "id": "419083",
        "src640": "https://cdn.pixabay.com/photo/2014/08/15/22/47/cowboy-419083_640.jpg",
        "src1280": "https://cdn.pixabay.com/photo/2014/08/15/22/47/cowboy-419083_1280.jpg"
    },
    {
        "id": "1217725",
        "src640": "https://cdn.pixabay.com/photo/2016/02/23/14/21/moon-1217725_640.jpg",
        "src1280": "https://cdn.pixabay.com/photo/2016/02/23/14/21/moon-1217725_1280.jpg"
    },
    {
        "id": "3245149",
        "src640": "https://cdn.pixabay.com/photo/2018/03/20/23/54/horse-3245149_640.jpg",
        "src1280": "https://cdn.pixabay.com/photo/2018/03/20/23/54/horse-3245149_1280.jpg"
    },
    {
        "id": "1646954",
        "src640": "https://cdn.pixabay.com/photo/2016/09/05/16/13/building-1646954_640.jpg",
        "src1280": "https://cdn.pixabay.com/photo/2016/09/05/16/13/building-1646954_1280.jpg"
    },
    {
        "id": "8453384",
        "src640": "https://cdn.pixabay.com/photo/2023/12/17/00/06/ai-generated-8453384_640.jpg",
        "src1280": "https://cdn.pixabay.com/photo/2023/12/17/00/06/ai-generated-8453384_1280.jpg"
    }
]