[
    {
        "id": "3222534",
        "src640": "https://cdn.pixabay.com/photo/2018/03/13/13/28/blue-3222534_640.jpg",
        "src1280": "https://cdn.pixabay.com/photo/2018/03/13/13/28/blue-3222534_1280.jpg"
    },
    {
        "id": "163651",
        "src640": "https://cdn.pixabay.com/photo/2013/07/18/10/58/peacock-feather-163651_640.jpg",
        "src1280": "https://cdn.pixabay.com/photo/2013/07/18/10/58/peacock-feather-163651_1280.jpg"
    },
    {
        "id": "2494601",
        "src640": "https://cdn.pixabay.com/photo/2017/07/11/18/34/fantasy-2494601_640.jpg",
        "src1280": "https://cdn.pixabay.com/photo/2017/07/11/18/34/fantasy-2494601_1280.jpg"
    },
    {
        "id": "4318826",
        "src640": "https://cdn.pixabay.com/photo/2019/07/05/15/07/summer-4318826_640.jpg",
        "src1280": "https://cdn.pixabay.com/photo/2019/07/05/15/07/summer-4318826_1280.jpg"
    },
    {
        "id": "1258311",
        "src640": "https://cdn.pixabay.com/photo/2016/03/15/14/27/ivy-1258311_640.jpg",
        "src1280": "https://cdn.pixabay.com/photo/2016/03/15/14/27/ivy-1258311_1280.jpg"
    },
    {
        "id": "1332013",
        "src640": "https://cdn.pixabay.com/photo/2016/04/15/21/37/paper-1332013_640.jpg",
        "src1280": "https://cdn.pixabay.com/photo/2016/04/15/21/37/paper-1332013_1280.jpg"
    },
    {
        "id": "3785368",
        "src640": "https://cdn.pixabay.com/photo/2018/10/31/08/25/wolf-3785368_640.jpg",
        "src1280": "https://cdn.pixabay.com/photo/2018/10/31/08/25/wolf-3785368_1280.jpg"
    },
    {
        "id": "4718805",
        "src640": "https://cdn.pixabay.com/photo/2019/12/25/15/24/trees-4718805_640.jpg",
        "src1280": "https://cdn.pixabay.com/photo/2019/12/25/15/24/trees-4718805_1280.jpg"
    },
    {
        "id": "1198001",
        "src640": "https://cdn.pixabay.com/photo/2016/02/13/15/25/horse-1198001_640.jpg",
        "src1280": "https://cdn.pixabay.com/photo/2016/02/13/15/25/horse-1198001_1280.jpg"
    },
    {
        "id": "7685872",
        "src640": "https://cdn.pixabay.com/photo/2022/12/29/21/31/ai-7685872_640.jpg",
        "src1280": "https://cdn.pixabay.com/photo/2022/12/29/21/31/ai-7685872_1280.jpg"
    },
    {
        "id": "8463184",
        "src640": "https://cdn.pixabay.com/photo/2023/12/22/06/21/girl-8463184_640.jpg",
        "src1280": "https://cdn.pixabay.com/photo/2023/12/22/06/21/girl-8463184_1280.jpg"
    },
    {
        "id": "2766253",
        "src640": "https://cdn.pixabay.com/photo/2017/09/19/19/13/siam-2766253_640.jpg",
        "src1280": "https://cdn.pixabay.com/photo/2017/09/19/19/13/siam-2766253_1280.jpg"
    },
    {
        "id": "718448",
        "src640": "https://cdn.pixabay.com/photo/2015/04/12/02/14/skull-and-crossbones-718448_640.jpg",
        "src1280": "https://cdn.pixabay.com/photo/2015/04/12/02/14/skull-and-crossbones-718448_1280.jpg"
    },
    {
        "id": "8445570",
        "src640": "https://cdn.pixabay.com/photo/2023/12/12/16/16/leaf-8445570_640.jpg",
        "src1280": "https://cdn.pixabay.com/photo/2023/12/12/16/16/leaf-8445570_1280.jpg"
    },
    {
        "id": "4395622",
        "src640": "https://cdn.pixabay.com/photo/2019/08/09/18/40/watercolour-flowers-4395622_640.jpg",
        "src1280": "https://cdn.pixabay.com/photo/2019/08/09/18/40/watercolour-flowers-4395622_1280.jpg"
    },
    {
        "id": "8462032",
        "src640": "https://cdn.pixabay.com/photo/2023/12/21/15/30/christmas-tree-8462032_640.jpg",
        "src1280": "https://cdn.pixabay.com/photo/2023/12/21/15/30/christmas-tree-8462032_1280.jpg"
    },
    {
        "id": "5404967",
        "src640": "https://cdn.pixabay.com/photo/2020/07/14/17/08/summer-5404967_640.jpg",
        "src1280": "https://cdn.pixabay.com/photo/2020/07/14/17/08/summer-5404967_1280.jpg"
    },
    {
        "id": "1509954",
        "src640": "https://cdn.pixabay.com/photo/2016/07/11/15/42/young-woman-1509954_640.jpg",
        "src1280": "https://cdn.pixabay.com/photo/2016/07/11/15/42/young-woman-1509954_1280.jpg"
    },
    {
        "id": "1281079",
        "src640": "https://cdn.pixabay.com/photo/2016/03/26/18/35/tree-1281079_640.jpg",
        "src1280": "https://cdn.pixabay.com/photo/2016/03/26/18/35/tree-1281079_1280.jpg"
    },
    {
        "id": "1240961",
        "src640": "https://cdn.pixabay.com/photo/2016/03/06/18/35/owl-1240961_640.jpg",
        "src1280": "https://cdn.pixabay.com/photo/2016/03/06/18/35/owl-1240961_1280.jpg"
    },
    {
        "id": "83550",
        "src640": "https://cdn.pixabay.com/photo/2013/02/20/07/10/tree-83550_640.jpg",
        "src1280": "https://cdn.pixabay.com/photo/2013/02/20/07/10/tree-83550_1280.jpg"
    },
    {
        "id": "675909",
        "src640": "https://cdn.pixabay.com/photo/2015/03/16/12/30/stairs-675909_640.jpg",
        "src1280": "https://cdn.pixabay.com/photo/2015/03/16/12/30/stairs-675909_1280.jpg"
    },
    {
        "id": "1599683",
        "src640": "https://cdn.pixabay.com/photo/2016/08/17/04/53/sunflowers-1599683_640.jpg",
        "src1280": "https://cdn.pixabay.com/photo/2016/08/17/04/53/sunflowers-1599683_1280.jpg"
    },
    {
        "id": "7318578",
        "src640": "https://cdn.pixabay.com/photo/2022/07/13/05/25/unicorn-7318578_640.jpg",
        "src1280": "https://cdn.pixabay.com/photo/2022/07/13/05/25/unicorn-7318578_1280.jpg"
    },
    {
        "id": "7481916",
        "src640": "https://cdn.pixabay.com/photo/2022/09/27/03/04/roses-7481916_640.jpg",
        "src1280": "https://cdn.pixabay.com/photo/2022/09/27/03/04/roses-7481916_1280.jpg"
    },
    {
        "id": "4870511",
        "src640": "https://cdn.pixabay.com/photo/2020/02/22/13/05/fantasy-4870511_640.jpg",
        "src1280": "https://cdn.pixabay.com/photo/2020/02/22/13/05/fantasy-4870511_1280.jpg"
    },
    {
        "id": "5974489",
        "src640": "https://cdn.pixabay.com/photo/2021/02/02/16/07/woman-5974489_640.jpg",
        "src1280": "https://cdn.pixabay.com/photo/2021/02/02/16/07/woman-5974489_1280.jpg"
    },
    {
        "id": "3065350",
        "src640": "https://cdn.pixabay.com/photo/2018/01/06/16/42/snow-3065350_640.jpg",
        "src1280": "https://cdn.pixabay.com/photo/2018/01/06/16/42/snow-3065350_1280.jpg"
    },
    {
        "id": "7577684",
        "src640": "https://cdn.pixabay.com/photo/2022/11/08/04/55/white-wolf-7577684_640.jpg",
        "src1280": "https://cdn.pixabay.com/photo/2022/11/08/04/55/white-wolf-7577684_1280.jpg"
    },
    {
        "id": "613090",
        "src640": "https://cdn.pixabay.com/photo/2015/01/26/20/47/stork-613090_640.jpg",
        "src1280": "https://cdn.pixabay.com/photo/2015/01/26/20/47/stork-613090_1280.jpg"
    },
    {
        "id": "2432909",
        "src640": "https://cdn.pixabay.com/photo/2017/06/22/23/22/dance-2432909_640.jpg",
        "src1280": "https://cdn.pixabay.com/photo/2017/06/22/23/22/dance-2432909_1280.jpg"
    },
    {
        "id": "3369269",
        "src640": "https://cdn.pixabay.com/photo/2018/05/02/18/14/lilac-3369269_640.jpg",
        "src1280": "https://cdn.pixabay.com/photo/2018/05/02/18/14/lilac-3369269_1280.jpg"
    },
    {
        "id": "138895",
        "src640": "https://cdn.pixabay.com/photo/2013/06/12/14/40/anemone-138895_640.jpg",
        "src1280": "https://cdn.pixabay.com/photo/2013/06/12/14/40/anemone-138895_1280.jpg"
    },
    {
        "id": "4698803",
        "src640": "https://cdn.pixabay.com/photo/2019/12/16/08/03/light-4698803_640.jpg",
        "src1280": "https://cdn.pixabay.com/photo/2019/12/16/08/03/light-4698803_1280.jpg"
    },
    {
        "id": "6006756",
        "src640": "https://cdn.pixabay.com/photo/2021/02/11/23/38/island-6006756_640.jpg",
        "src1280": "https://cdn.pixabay.com/photo/2021/02/11/23/38/island-6006756_1280.jpg"
    },
    {
        "id": "3092804",
        "src640": "https://cdn.pixabay.com/photo/2018/01/19/16/54/tomcat-3092804_640.jpg",
        "src1280": "https://cdn.pixabay.com/photo/2018/01/19/16/54/tomcat-3092804_1280.jpg"
    },
    {
        "id": "1054305",
        "src640": "https://cdn.pixabay.com/photo/2015/11/21/04/10/beautiful-girl-1054305_640.jpg",
        "src1280": "https://cdn.pixabay.com/photo/2015/11/21/04/10/beautiful-girl-1054305_1280.jpg"
    },
    {
        "id": "4744764",
        "src640": "https://cdn.pixabay.com/photo/2020/01/06/07/03/carp-4744764_640.jpg",
        "src1280": "https://cdn.pixabay.com/photo/2020/01/06/07/03/carp-4744764_1280.jpg"
    },
    {
        "id": "1401495",
        "src640": "https://cdn.pixabay.com/photo/2016/05/18/20/43/goldfinch-1401495_640.jpg",
        "src1280": "https://cdn.pixabay.com/photo/2016/05/18/20/43/goldfinch-1401495_1280.jpg"
    },
    {
        "id": "2609843",
        "src640": "https://cdn.pixabay.com/photo/2017/08/08/00/57/plants-2609843_640.jpg",
        "src1280": "https://cdn.pixabay.com/photo/2017/08/08/00/57/plants-2609843_1280.jpg"
    },
    {
        "id": "3125752",
        "src640": "https://cdn.pixabay.com/photo/2018/02/02/16/11/flower-3125752_640.jpg",
        "src1280": "https://cdn.pixabay.com/photo/2018/02/02/16/11/flower-3125752_1280.jpg"
    }
]