[
    {
        "id": "961860",
        "src640": "https://cdn.pixabay.com/photo/2015/09/28/10/25/ranunculus-961860_640.jpg",
        "src1280": "https://cdn.pixabay.com/photo/2015/09/28/10/25/ranunculus-961860_1280.jpg"
    },
    {
        "id": "2032364",
        "src640": "https://cdn.pixabay.com/photo/2017/02/02/09/58/theravada-buddhism-2032364_640.jpg",
        "src1280": "https://cdn.pixabay.com/photo/2017/02/02/09/58/theravada-buddhism-2032364_1280.jpg"
    },
    {
        "id": "1448610",
        "src640": "https://cdn.pixabay.com/photo/2016/06/10/18/06/rose-1448610_640.jpg",
        "src1280": "https://cdn.pixabay.com/photo/2016/06/10/18/06/rose-1448610_1280.jpg"
    },
    {
        "id": "773032",
        "src640": "https://cdn.pixabay.com/photo/2015/05/19/01/31/little-girl-in-wind-773032_640.jpg",
        "src1280": "https://cdn.pixabay.com/photo/2015/05/19/01/31/little-girl-in-wind-773032_1280.jpg"
    },
    {
        "id": "555323",
        "src640": "https://cdn.pixabay.com/photo/2014/12/03/11/21/snow-man-555323_640.jpg",
        "src1280": "https://cdn.pixabay.com/photo/2014/12/03/11/21/snow-man-555323_1280.jpg"
    },
    {
        "id": "833779",
        "src640": "https://cdn.pixabay.com/photo/2015/07/06/21/14/person-833779_640.jpg",
        "src1280": "https://cdn.pixabay.com/photo/2015/07/06/21/14/person-833779_1280.jpg"
    },
    {
        "id": "3552734",
        "src640": "https://cdn.pixabay.com/photo/2018/07/21/15/32/horse-3552734_640.jpg",
        "src1280": "https://cdn.pixabay.com/photo/2018/07/21/15/32/horse-3552734_1280.jpg"
    },
    {
        "id": "2482375",
        "src640": "https://cdn.pixabay.com/photo/2017/07/07/19/06/lavender-2482375_640.jpg",
        "src1280": "https://cdn.pixabay.com/photo/2017/07/07/19/06/lavender-2482375_1280.jpg"
    },
    {
        "id": "503134",
        "src640": "https://cdn.pixabay.com/photo/2014/10/25/21/47/rainbow-503134_640.jpg",
        "src1280": "https://cdn.pixabay.com/photo/2014/10/25/21/47/rainbow-503134_1280.jpg"
    },
    {
        "id": "8073882",
        "src640": "https://cdn.pixabay.com/photo/2023/06/19/08/54/rye-8073882_640.jpg",
        "src1280": "https://cdn.pixabay.com/photo/2023/06/19/08/54/rye-8073882_1280.jpg"
    },
    {
        "id": "8466066",
        "src640": "https://cdn.pixabay.com/photo/2023/12/23/17/32/ai-generated-8466066_640.jpg",
        "src1280": "https://cdn.pixabay.com/photo/2023/12/23/17/32/ai-generated-8466066_1280.jpg"
    },
    {
        "id": "8433835",
        "src640": "https://cdn.pixabay.com/photo/2023/12/06/14/48/leaves-8433835_640.jpg",
        "src1280": "https://cdn.pixabay.com/photo/2023/12/06/14/48/leaves-8433835_1280.jpg"
    },
    {
        "id": "8337100",
        "src640": "https://cdn.pixabay.com/photo/2023/10/23/22/25/pond-8337100_640.jpg",
        "src1280": "https://cdn.pixabay.com/photo/2023/10/23/22/25/pond-8337100_1280.jpg"
    },
    {
        "id": "7754150",
        "src640": "https://cdn.pixabay.com/photo/2023/01/29/21/12/snow-crystals-7754150_640.jpg",
        "src1280": "https://cdn.pixabay.com/photo/2023/01/29/21/12/snow-crystals-7754150_1280.jpg"
    },
    {
        "id": "2712135",
        "src640": "https://cdn.pixabay.com/photo/2017/09/03/21/28/apple-2712135_640.jpg",
        "src1280": "https://cdn.pixabay.com/photo/2017/09/03/21/28/apple-2712135_1280.jpg"
    },
    {
        "id": "300414",
        "src640": "https://cdn.pixabay.com/photo/2014/03/28/23/40/hot-300414_640.jpg",
        "src1280": "https://cdn.pixabay.com/photo/2014/03/28/23/40/hot-300414_1280.jpg"
    },
    {
        "id": "698660",
        "src640": "https://cdn.pixabay.com/photo/2015/03/30/12/48/couple-698660_640.jpg",
        "src1280": "https://cdn.pixabay.com/photo/2015/03/30/12/48/couple-698660_1280.jpg"
    },
    {
        "id": "1281835",
        "src640": "https://cdn.pixabay.com/photo/2016/03/26/23/18/hands-1281835_640.jpg",
        "src1280": "https://cdn.pixabay.com/photo/2016/03/26/23/18/hands-1281835_1280.jpg"
    },
    {
        "id": "1721429",
        "src640": "https://cdn.pixabay.com/photo/2016/10/07/12/19/girl-1721429_640.jpg",
        "src1280": "https://cdn.pixabay.com/photo/2016/10/07/12/19/girl-1721429_1280.jpg"
    },
    {
        "id": "3994353",
        "src640": "https://cdn.pixabay.com/photo/2019/02/13/13/15/the-lion-3994353_640.jpg",
        "src1280": "https://cdn.pixabay.com/photo/2019/02/13/13/15/the-lion-3994353_1280.jpg"
    },
    {
        "id": "2514408",
        "src640": "https://cdn.pixabay.com/photo/2017/07/18/00/42/meditation-2514408_640.jpg",
        "src1280": "https://cdn.pixabay.com/photo/2017/07/18/00/42/meditation-2514408_1280.jpg"
    },
    {
        "id": "8468348",
        "src640": "https://cdn.pixabay.com/photo/2023/12/25/11/16/girl-8468348_640.jpg",
        "src1280": "https://cdn.pixabay.com/photo/2023/12/25/11/16/girl-8468348_1280.jpg"
    },
    {
        "id": "2601927",
        "src640": "https://cdn.pixabay.com/photo/2017/08/07/09/31/stars-2601927_640.jpg",
        "src1280": "https://cdn.pixabay.com/photo/2017/08/07/09/31/stars-2601927_1280.jpg"
    },
    {
        "id": "8481979",
        "src640": "https://cdn.pixabay.com/photo/2024/01/01/18/49/ai-generated-8481979_640.jpg",
        "src1280": "https://cdn.pixabay.com/photo/2024/01/01/18/49/ai-generated-8481979_1280.jpg"
    },
    {
        "id": "111214",
        "src640": "https://cdn.pixabay.com/photo/2013/05/14/20/12/tree-alley-111214_640.jpg",
        "src1280": "https://cdn.pixabay.com/photo/2013/05/14/20/12/tree-alley-111214_1280.jpg"
    },
    {
        "id": "1486237",
        "src640": "https://cdn.pixabay.com/photo/2016/06/29/08/36/wedding-dresses-1486237_640.jpg",
        "src1280": "https://cdn.pixabay.com/photo/2016/06/29/08/36/wedding-dresses-1486237_1280.jpg"
    },
    {
        "id": "4286688",
        "src640": "https://cdn.pixabay.com/photo/2019/06/20/10/05/picture-puzzle-4286688_640.jpg",
        "src1280": "https://cdn.pixabay.com/photo/2019/06/20/10/05/picture-puzzle-4286688_1280.jpg"
    },
    {
        "id": "4330494",
        "src640": "https://cdn.pixabay.com/photo/2019/07/11/10/56/fantasy-4330494_640.jpg",
        "src1280": "https://cdn.pixabay.com/photo/2019/07/11/10/56/fantasy-4330494_1280.jpg"
    },
    {
        "id": "4395241",
        "src640": "https://cdn.pixabay.com/photo/2019/08/09/15/10/watercolour-flowers-4395241_640.jpg",
        "src1280": "https://cdn.pixabay.com/photo/2019/08/09/15/10/watercolour-flowers-4395241_1280.jpg"
    },
    {
        "id": "343955",
        "src640": "https://cdn.pixabay.com/photo/2014/05/14/08/14/cactus-343955_640.jpg",
        "src1280": "https://cdn.pixabay.com/photo/2014/05/14/08/14/cactus-343955_1280.jpg"
    },
    {
        "id": "805062",
        "src640": "https://cdn.pixabay.com/photo/2015/06/10/19/17/flower-805062_640.jpg",
        "src1280": "https://cdn.pixabay.com/photo/2015/06/10/19/17/flower-805062_1280.jpg"
    },
    {
        "id": "3095272",
        "src640": "https://cdn.pixabay.com/photo/2018/01/20/19/57/rodent-3095272_640.jpg",
        "src1280": "https://cdn.pixabay.com/photo/2018/01/20/19/57/rodent-3095272_1280.jpg"
    },
    {
        "id": "273825",
        "src640": "https://cdn.pixabay.com/photo/2014/02/24/18/24/wood-273825_640.jpg",
        "src1280": "https://cdn.pixabay.com/photo/2014/02/24/18/24/wood-273825_1280.jpg"
    },
    {
        "id": "1274184",
        "src640": "https://cdn.pixabay.com/photo/2016/03/23/06/14/dryad-1274184_640.jpg",
        "src1280": "https://cdn.pixabay.com/photo/2016/03/23/06/14/dryad-1274184_1280.jpg"
    },
    {
        "id": "3539242",
        "src640": "https://cdn.pixabay.com/photo/2018/07/15/09/46/bouquet-3539242_640.jpg",
        "src1280": "https://cdn.pixabay.com/photo/2018/07/15/09/46/bouquet-3539242_1280.jpg"
    },
    {
        "id": "8446511",
        "src640": "https://cdn.pixabay.com/photo/2023/12/13/07/45/ai-generated-8446511_640.jpg",
        "src1280": "https://cdn.pixabay.com/photo/2023/12/13/07/45/ai-generated-8446511_1280.jpg"
    },
    {
        "id": "8436142",
        "src640": "https://cdn.pixabay.com/photo/2023/12/07/18/41/ai-generated-8436142_640.jpg",
        "src1280": "https://cdn.pixabay.com/photo/2023/12/07/18/41/ai-generated-8436142_1280.jpg"
    },
    {
        "id": "1829863",
        "src640": "https://cdn.pixabay.com/photo/2016/11/16/19/56/vintage-1829863_640.jpg",
        "src1280": "https://cdn.pixabay.com/photo/2016/11/16/19/56/vintage-1829863_1280.jpg"
    }
]