[
    {
        "id": "7610652",
        "src640": "https://cdn.pixabay.com/photo/2022/11/22/21/14/pinecone-7610652_640.jpg",
        "src1280": "https://cdn.pixabay.com/photo/2022/11/22/21/14/pinecone-7610652_1280.jpg"
    },
    {
        "id": "7167175",
        "src640": "https://cdn.pixabay.com/photo/2022/05/01/09/18/church-7167175_640.jpg",
        "src1280": "https://cdn.pixabay.com/photo/2022/05/01/09/18/church-7167175_1280.jpg"
    },
    {
        "id": "699693",
        "src640": "https://cdn.pixabay.com/photo/2015/03/30/17/37/texture-699693_640.jpg",
        "src1280": "https://cdn.pixabay.com/photo/2015/03/30/17/37/texture-699693_1280.jpg"
    },
    {
        "id": "3148039",
        "src640": "https://cdn.pixabay.com/photo/2018/02/12/11/14/healthy-3148039_640.jpg",
        "src1280": "https://cdn.pixabay.com/photo/2018/02/12/11/14/healthy-3148039_1280.jpg"
    },
    {
        "id": "4542622",
        "src640": "https://cdn.pixabay.com/photo/2019/10/11/19/43/fly-agaric-4542622_640.jpg",
        "src1280": "https://cdn.pixabay.com/photo/2019/10/11/19/43/fly-agaric-4542622_1280.jpg"
    },
    {
        "id": "1027235",
        "src640": "https://cdn.pixabay.com/photo/2015/11/06/12/43/dog-1027235_640.jpg",
        "src1280": "https://cdn.pixabay.com/photo/2015/11/06/12/43/dog-1027235_1280.jpg"
    },
    {
        "id": "8454748",
        "src640": "https://cdn.pixabay.com/photo/2023/12/17/19/02/ai-generated-8454748_640.jpg",
        "src1280": "https://cdn.pixabay.com/photo/2023/12/17/19/02/ai-generated-8454748_1280.jpg"
    },
    {
        "id": "2191502",
        "src640": "https://cdn.pixabay.com/photo/2017/03/31/14/44/woman-2191502_640.jpg",
        "src1280": "https://cdn.pixabay.com/photo/2017/03/31/14/44/woman-2191502_1280.jpg"
    },
    {
        "id": "940927",
        "src640": "https://cdn.pixabay.com/photo/2015/09/15/12/10/eagle-940927_640.jpg",
        "src1280": "https://cdn.pixabay.com/photo/2015/09/15/12/10/eagle-940927_1280.jpg"
    },
    {
        "id": "2766011",
        "src640": "https://cdn.pixabay.com/photo/2017/09/19/18/07/essential-oils-2766011_640.jpg",
        "src1280": "https://cdn.pixabay.com/photo/2017/09/19/18/07/essential-oils-2766011_1280.jpg"
    },
    {
        "id": "374385",
        "src640": "https://cdn.pixabay.com/photo/2014/06/22/10/22/seagull-374385_640.jpg",
        "src1280": "https://cdn.pixabay.com/photo/2014/06/22/10/22/seagull-374385_1280.jpg"
    },
    {
        "id": "142700",
        "src640": "https://cdn.pixabay.com/photo/2013/07/01/17/38/eagles-nest-142700_640.jpg",
        "src1280": "https://cdn.pixabay.com/photo/2013/07/01/17/38/eagles-nest-142700_1280.jpg"
    },
    {
        "id": "1813790",
        "src640": "https://cdn.pixabay.com/photo/2016/11/10/09/10/illustration-1813790_640.jpg",
        "src1280": "https://cdn.pixabay.com/photo/2016/11/10/09/10/illustration-1813790_1280.jpg"
    },
    {
        "id": "5357881",
        "src640": "https://cdn.pixabay.com/photo/2020/06/30/23/29/vanguard-5357881_640.jpg",
        "src1280": "https://cdn.pixabay.com/photo/2020/06/30/23/29/vanguard-5357881_1280.jpg"
    },
    {
        "id": "367605",
        "src640": "https://cdn.pixabay.com/photo/2014/06/12/17/37/syringa-vulgaris-367605_640.jpg",
        "src1280": "https://cdn.pixabay.com/photo/2014/06/12/17/37/syringa-vulgaris-367605_1280.jpg"
    },
    {
        "id": "3564784",
        "src640": "https://cdn.pixabay.com/photo/2018/07/26/22/33/lily-3564784_640.jpg",
        "src1280": "https://cdn.pixabay.com/photo/2018/07/26/22/33/lily-3564784_1280.jpg"
    },
    {
        "id": "1298642",
        "src640": "https://cdn.pixabay.com/photo/2016/04/01/07/12/sunlight-1298642_640.jpg",
        "src1280": "https://cdn.pixabay.com/photo/2016/04/01/07/12/sunlight-1298642_1280.jpg"
    },
    {
        "id": "4528490",
        "src640": "https://cdn.pixabay.com/photo/2019/10/05/18/32/heart-4528490_640.jpg",
        "src1280": "https://cdn.pixabay.com/photo/2019/10/05/18/32/heart-4528490_1280.jpg"
    },
    {
        "id": "258224",
        "src640": "https://cdn.pixabay.com/photo/2014/02/04/18/19/fog-258224_640.jpg",
        "src1280": "https://cdn.pixabay.com/photo/2014/02/04/18/19/fog-258224_1280.jpg"
    },
    {
        "id": "3365855",
        "src640": "https://cdn.pixabay.com/photo/2018/05/01/15/13/summer-3365855_640.jpg",
        "src1280": "https://cdn.pixabay.com/photo/2018/05/01/15/13/summer-3365855_1280.jpg"
    },
    {
        "id": "4051339",
        "src640": "https://cdn.pixabay.com/photo/2019/03/12/17/35/girls-4051339_640.jpg",
        "src1280": "https://cdn.pixabay.com/photo/2019/03/12/17/35/girls-4051339_1280.jpg"
    },
    {
        "id": "7415679",
        "src640": "https://cdn.pixabay.com/photo/2022/08/28/04/02/grey-fantail-7415679_640.jpg",
        "src1280": "https://cdn.pixabay.com/photo/2022/08/28/04/02/grey-fantail-7415679_1280.jpg"
    },
    {
        "id": "906136",
        "src640": "https://cdn.pixabay.com/photo/2015/08/25/03/50/alternative-906136_640.jpg",
        "src1280": "https://cdn.pixabay.com/photo/2015/08/25/03/50/alternative-906136_1280.jpg"
    },
    {
        "id": "3417045",
        "src640": "https://cdn.pixabay.com/photo/2018/05/20/22/55/forest-3417045_640.jpg",
        "src1280": "https://cdn.pixabay.com/photo/2018/05/20/22/55/forest-3417045_1280.jpg"
    },
    {
        "id": "2211990",
        "src640": "https://cdn.pixabay.com/photo/2017/04/07/22/21/eagle-2211990_640.jpg",
        "src1280": "https://cdn.pixabay.com/photo/2017/04/07/22/21/eagle-2211990_1280.jpg"
    },
    {
        "id": "4870351",
        "src640": "https://cdn.pixabay.com/photo/2020/02/22/11/45/kangaroo-4870351_640.jpg",
        "src1280": "https://cdn.pixabay.com/photo/2020/02/22/11/45/kangaroo-4870351_1280.jpg"
    },
    {
        "id": "4826072",
        "src640": "https://cdn.pixabay.com/photo/2020/02/07/04/35/painting-4826072_640.jpg",
        "src1280": "https://cdn.pixabay.com/photo/2020/02/07/04/35/painting-4826072_1280.jpg"
    },
    {
        "id": "4721943",
        "src640": "https://cdn.pixabay.com/photo/2019/12/27/08/48/willow-4721943_640.jpg",
        "src1280": "https://cdn.pixabay.com/photo/2019/12/27/08/48/willow-4721943_1280.jpg"
    },
    {
        "id": "5239805",
        "src640": "https://cdn.pixabay.com/photo/2020/05/30/17/56/flower-5239805_640.jpg",
        "src1280": "https://cdn.pixabay.com/photo/2020/05/30/17/56/flower-5239805_1280.jpg"
    },
    {
        "id": "5239809",
        "src640": "https://cdn.pixabay.com/photo/2020/05/30/17/56/flower-5239809_640.jpg",
        "src1280": "https://cdn.pixabay.com/photo/2020/05/30/17/56/flower-5239809_1280.jpg"
    },
    {
        "id": "8419569",
        "src640": "https://cdn.pixabay.com/photo/2023/11/29/13/05/red-bauble-8419569_640.jpg",
        "src1280": "https://cdn.pixabay.com/photo/2023/11/29/13/05/red-bauble-8419569_1280.jpg"
    },
    {
        "id": "4759525",
        "src640": "https://cdn.pixabay.com/photo/2020/01/12/08/28/vintage-4759525_640.jpg",
        "src1280": "https://cdn.pixabay.com/photo/2020/01/12/08/28/vintage-4759525_1280.jpg"
    },
    {
        "id": "1052751",
        "src640": "https://cdn.pixabay.com/photo/2015/11/20/10/36/nymph-1052751_640.jpg",
        "src1280": "https://cdn.pixabay.com/photo/2015/11/20/10/36/nymph-1052751_1280.jpg"
    },
    {
        "id": "2037648",
        "src640": "https://cdn.pixabay.com/photo/2017/02/04/16/13/dog-2037648_640.jpg",
        "src1280": "https://cdn.pixabay.com/photo/2017/02/04/16/13/dog-2037648_1280.jpg"
    },
    {
        "id": "1509958",
        "src640": "https://cdn.pixabay.com/photo/2016/07/11/15/43/pretty-woman-1509958_640.jpg",
        "src1280": "https://cdn.pixabay.com/photo/2016/07/11/15/43/pretty-woman-1509958_1280.jpg"
    },
    {
        "id": "1473282",
        "src640": "https://cdn.pixabay.com/photo/2016/06/22/16/19/sailing-vessel-1473282_640.jpg",
        "src1280": "https://cdn.pixabay.com/photo/2016/06/22/16/19/sailing-vessel-1473282_1280.jpg"
    },
    {
        "id": "2235131",
        "src640": "https://cdn.pixabay.com/photo/2017/04/16/16/20/cat-2235131_640.jpg",
        "src1280": "https://cdn.pixabay.com/photo/2017/04/16/16/20/cat-2235131_1280.jpg"
    },
    {
        "id": "2133472",
        "src640": "https://cdn.pixabay.com/photo/2017/03/10/18/36/background-2133472_640.jpg",
        "src1280": "https://cdn.pixabay.com/photo/2017/03/10/18/36/background-2133472_1280.jpg"
    },
    {
        "id": "7781386",
        "src640": "https://cdn.pixabay.com/photo/2023/02/10/17/37/blue-tit-7781386_640.jpg",
        "src1280": "https://cdn.pixabay.com/photo/2023/02/10/17/37/blue-tit-7781386_1280.jpg"
    },
    {
        "id": "5347513",
        "src640": "https://cdn.pixabay.com/photo/2020/06/28/01/05/lighthouse-5347513_640.jpg",
        "src1280": "https://cdn.pixabay.com/photo/2020/06/28/01/05/lighthouse-5347513_1280.jpg"
    },
    {
        "id": "3792427",
        "src640": "https://cdn.pixabay.com/photo/2018/11/03/17/04/cat-3792427_640.jpg",
        "src1280": "https://cdn.pixabay.com/photo/2018/11/03/17/04/cat-3792427_1280.jpg"
    },
    {
        "id": "7566036",
        "src640": "https://cdn.pixabay.com/photo/2022/11/02/21/22/woman-7566036_640.jpg",
        "src1280": "https://cdn.pixabay.com/photo/2022/11/02/21/22/woman-7566036_1280.jpg"
    },
    {
        "id": "7754443",
        "src640": "https://cdn.pixabay.com/photo/2023/01/30/01/17/ai-generated-7754443_640.jpg",
        "src1280": "https://cdn.pixabay.com/photo/2023/01/30/01/17/ai-generated-7754443_1280.jpg"
    },
    {
        "id": "8015434",
        "src640": "https://cdn.pixabay.com/photo/2023/05/24/17/56/mushroom-8015434_640.jpg",
        "src1280": "https://cdn.pixabay.com/photo/2023/05/24/17/56/mushroom-8015434_1280.jpg"
    },
    {
        "id": "1568020",
        "src640": "https://cdn.pixabay.com/photo/2016/08/03/22/29/seahorse-1568020_640.jpg",
        "src1280": "https://cdn.pixabay.com/photo/2016/08/03/22/29/seahorse-1568020_1280.jpg"
    },
    {
        "id": "2478033",
        "src640": "https://cdn.pixabay.com/photo/2017/07/06/13/29/cat-2478033_640.jpg",
        "src1280": "https://cdn.pixabay.com/photo/2017/07/06/13/29/cat-2478033_1280.jpg"
    },
    {
        "id": "8492974",
        "src640": "https://cdn.pixabay.com/photo/2024/01/07/11/54/white-fronted-bee-eater-8492974_640.jpg",
        "src1280": "https://cdn.pixabay.com/photo/2024/01/07/11/54/white-fronted-bee-eater-8492974_1280.jpg"
    },
    {
        "id": "6323113",
        "src640": "https://cdn.pixabay.com/photo/2021/06/09/11/00/poppy-6323113_640.jpg",
        "src1280": "https://cdn.pixabay.com/photo/2021/06/09/11/00/poppy-6323113_1280.jpg"
    },
    {
        "id": "8165146",
        "src640": "https://cdn.pixabay.com/photo/2023/08/02/12/47/valle-daosta-8165146_640.jpg",
        "src1280": "https://cdn.pixabay.com/photo/2023/08/02/12/47/valle-daosta-8165146_1280.jpg"
    },
    {
        "id": "3344617",
        "src640": "https://cdn.pixabay.com/photo/2018/04/23/15/37/witch-3344617_640.jpg",
        "src1280": "https://cdn.pixabay.com/photo/2018/04/23/15/37/witch-3344617_1280.jpg"
    },
    {
        "id": "3162125",
        "src640": "https://cdn.pixabay.com/photo/2018/02/18/12/29/flower-3162125_640.jpg",
        "src1280": "https://cdn.pixabay.com/photo/2018/02/18/12/29/flower-3162125_1280.jpg"
    },
    {
        "id": "3237116",
        "src640": "https://cdn.pixabay.com/photo/2018/03/18/15/27/nature-3237116_640.jpg",
        "src1280": "https://cdn.pixabay.com/photo/2018/03/18/15/27/nature-3237116_1280.jpg"
    },
    {
        "id": "1605993",
        "src640": "https://cdn.pixabay.com/photo/2016/08/19/19/23/away-1605993_640.jpg",
        "src1280": "https://cdn.pixabay.com/photo/2016/08/19/19/23/away-1605993_1280.jpg"
    }
]