[
    {
        "id": "7470320",
        "src640": "https://cdn.pixabay.com/photo/2022/09/21/13/08/mountains-7470320_640.jpg",
        "src1280": "https://cdn.pixabay.com/photo/2022/09/21/13/08/mountains-7470320_1280.jpg"
    },
    {
        "id": "382486",
        "src640": "https://cdn.pixabay.com/photo/2014/07/02/20/29/glacier-382486_640.jpg",
        "src1280": "https://cdn.pixabay.com/photo/2014/07/02/20/29/glacier-382486_1280.jpg"
    },
    {
        "id": "5347089",
        "src640": "https://cdn.pixabay.com/photo/2020/06/27/20/11/woman-5347089_640.jpg",
        "src1280": "https://cdn.pixabay.com/photo/2020/06/27/20/11/woman-5347089_1280.jpg"
    },
    {
        "id": "4712655",
        "src640": "https://cdn.pixabay.com/photo/2019/12/22/14/14/fern-4712655_640.jpg",
        "src1280": "https://cdn.pixabay.com/photo/2019/12/22/14/14/fern-4712655_1280.jpg"
    },
    {
        "id": "2436597",
        "src640": "https://cdn.pixabay.com/photo/2017/06/24/03/19/dog-2436597_640.jpg",
        "src1280": "https://cdn.pixabay.com/photo/2017/06/24/03/19/dog-2436597_1280.jpg"
    },
    {
        "id": "113331",
        "src640": "https://cdn.pixabay.com/photo/2013/05/24/16/43/matterhorn-113331_640.jpg",
        "src1280": "https://cdn.pixabay.com/photo/2013/05/24/16/43/matterhorn-113331_1280.jpg"
    },
    {
        "id": "1484854",
        "src640": "https://cdn.pixabay.com/photo/2016/06/28/15/26/bonsai-1484854_640.jpg",
        "src1280": "https://cdn.pixabay.com/photo/2016/06/28/15/26/bonsai-1484854_1280.jpg"
    },
    {
        "id": "821600",
        "src640": "https://cdn.pixabay.com/photo/2015/06/25/17/50/boat-821600_640.jpg",
        "src1280": "https://cdn.pixabay.com/photo/2015/06/25/17/50/boat-821600_1280.jpg"
    },
    {
        "id": "4490852",
        "src640": "https://cdn.pixabay.com/photo/2019/09/20/05/28/ship-4490852_640.jpg",
        "src1280": "https://cdn.pixabay.com/photo/2019/09/20/05/28/ship-4490852_1280.jpg"
    },
    {
        "id": "2411736",
        "src640": "https://cdn.pixabay.com/photo/2017/06/17/10/13/girl-2411736_640.jpg",
        "src1280": "https://cdn.pixabay.com/photo/2017/06/17/10/13/girl-2411736_1280.jpg"
    },
    {
        "id": "383116",
        "src640": "https://cdn.pixabay.com/photo/2014/07/03/17/43/chive-383116_640.jpg",
        "src1280": "https://cdn.pixabay.com/photo/2014/07/03/17/43/chive-383116_1280.jpg"
    },
    {
        "id": "7698193",
        "src640": "https://cdn.pixabay.com/photo/2023/01/05/06/23/black-heron-7698193_640.jpg",
        "src1280": "https://cdn.pixabay.com/photo/2023/01/05/06/23/black-heron-7698193_1280.jpg"
    },
    {
        "id": "6997791",
        "src640": "https://cdn.pixabay.com/photo/2022/02/06/18/03/hot-air-balloon-6997791_640.jpg",
        "src1280": "https://cdn.pixabay.com/photo/2022/02/06/18/03/hot-air-balloon-6997791_1280.jpg"
    },
    {
        "id": "6624115",
        "src640": "https://cdn.pixabay.com/photo/2021/09/14/14/09/book-cover-6624115_640.jpg",
        "src1280": "https://cdn.pixabay.com/photo/2021/09/14/14/09/book-cover-6624115_1280.jpg"
    },
    {
        "id": "1168845",
        "src640": "https://cdn.pixabay.com/photo/2016/01/29/23/37/cat-1168845_640.jpg",
        "src1280": "https://cdn.pixabay.com/photo/2016/01/29/23/37/cat-1168845_1280.jpg"
    },
    {
        "id": "3054684",
        "src640": "https://cdn.pixabay.com/photo/2018/01/01/18/30/horse-3054684_640.jpg",
        "src1280": "https://cdn.pixabay.com/photo/2018/01/01/18/30/horse-3054684_1280.jpg"
    },
    {
        "id": "404029",
        "src640": "https://cdn.pixabay.com/photo/2014/07/28/20/05/alphabet-404029_640.jpg",
        "src1280": "https://cdn.pixabay.com/photo/2014/07/28/20/05/alphabet-404029_1280.jpg"
    },
    {
        "id": "1626409",
        "src640": "https://cdn.pixabay.com/photo/2016/08/28/17/04/flamingo-1626409_640.jpg",
        "src1280": "https://cdn.pixabay.com/photo/2016/08/28/17/04/flamingo-1626409_1280.jpg"
    },
    {
        "id": "2563857",
        "src640": "https://cdn.pixabay.com/photo/2017/08/01/09/18/relax-2563857_640.jpg",
        "src1280": "https://cdn.pixabay.com/photo/2017/08/01/09/18/relax-2563857_1280.jpg"
    },
    {
        "id": "679850",
        "src640": "https://cdn.pixabay.com/photo/2015/03/18/19/33/flowers-679850_640.jpg",
        "src1280": "https://cdn.pixabay.com/photo/2015/03/18/19/33/flowers-679850_1280.jpg"
    },
    {
        "id": "1049815",
        "src640": "https://cdn.pixabay.com/photo/2015/11/18/19/09/red-1049815_640.jpg",
        "src1280": "https://cdn.pixabay.com/photo/2015/11/18/19/09/red-1049815_1280.jpg"
    },
    {
        "id": "3091322",
        "src640": "https://cdn.pixabay.com/photo/2018/01/18/21/53/christmas-3091322_640.jpg",
        "src1280": "https://cdn.pixabay.com/photo/2018/01/18/21/53/christmas-3091322_1280.jpg"
    },
    {
        "id": "8467757",
        "src640": "https://cdn.pixabay.com/photo/2023/12/24/21/48/flowers-8467757_640.jpg",
        "src1280": "https://cdn.pixabay.com/photo/2023/12/24/21/48/flowers-8467757_1280.jpg"
    },
    {
        "id": "7242208",
        "src640": "https://cdn.pixabay.com/photo/2022/06/04/15/18/animal-7242208_640.jpg",
        "src1280": "https://cdn.pixabay.com/photo/2022/06/04/15/18/animal-7242208_1280.jpg"
    },
    {
        "id": "4509412",
        "src640": "https://cdn.pixabay.com/photo/2019/09/27/20/53/mushroom-4509412_640.jpg",
        "src1280": "https://cdn.pixabay.com/photo/2019/09/27/20/53/mushroom-4509412_1280.jpg"
    },
    {
        "id": "8027764",
        "src640": "https://cdn.pixabay.com/photo/2023/05/30/07/03/tree-8027764_640.jpg",
        "src1280": "https://cdn.pixabay.com/photo/2023/05/30/07/03/tree-8027764_1280.jpg"
    },
    {
        "id": "2084138",
        "src640": "https://cdn.pixabay.com/photo/2017/02/20/22/58/london-2084138_640.jpg",
        "src1280": "https://cdn.pixabay.com/photo/2017/02/20/22/58/london-2084138_1280.jpg"
    },
    {
        "id": "1207312",
        "src640": "https://cdn.pixabay.com/photo/2016/02/18/15/08/lion-1207312_640.jpg",
        "src1280": "https://cdn.pixabay.com/photo/2016/02/18/15/08/lion-1207312_1280.jpg"
    },
    {
        "id": "8463813",
        "src640": "https://cdn.pixabay.com/photo/2023/12/22/14/31/snowman-8463813_640.jpg",
        "src1280": "https://cdn.pixabay.com/photo/2023/12/22/14/31/snowman-8463813_1280.jpg"
    },
    {
        "id": "1182788",
        "src640": "https://cdn.pixabay.com/photo/2016/02/06/11/18/girl-1182788_640.jpg",
        "src1280": "https://cdn.pixabay.com/photo/2016/02/06/11/18/girl-1182788_1280.jpg"
    },
    {
        "id": "2670728",
        "src640": "https://cdn.pixabay.com/photo/2017/08/22/22/27/desirable-2670728_640.jpg",
        "src1280": "https://cdn.pixabay.com/photo/2017/08/22/22/27/desirable-2670728_1280.jpg"
    },
    {
        "id": "7296660",
        "src640": "https://cdn.pixabay.com/photo/2022/07/02/05/54/sparrows-7296660_640.jpg",
        "src1280": "https://cdn.pixabay.com/photo/2022/07/02/05/54/sparrows-7296660_1280.jpg"
    },
    {
        "id": "91905",
        "src640": "https://cdn.pixabay.com/photo/2013/03/09/15/31/blizzard-91905_640.jpg",
        "src1280": "https://cdn.pixabay.com/photo/2013/03/09/15/31/blizzard-91905_1280.jpg"
    },
    {
        "id": "4110727",
        "src640": "https://cdn.pixabay.com/photo/2019/04/07/20/20/hyacinth-4110727_640.jpg",
        "src1280": "https://cdn.pixabay.com/photo/2019/04/07/20/20/hyacinth-4110727_1280.jpg"
    },
    {
        "id": "3899495",
        "src640": "https://cdn.pixabay.com/photo/2018/12/28/12/37/christmas-decor-3899495_640.jpg",
        "src1280": "https://cdn.pixabay.com/photo/2018/12/28/12/37/christmas-decor-3899495_1280.jpg"
    },
    {
        "id": "7604662",
        "src640": "https://cdn.pixabay.com/photo/2022/11/20/16/12/fields-7604662_640.jpg",
        "src1280": "https://cdn.pixabay.com/photo/2022/11/20/16/12/fields-7604662_1280.jpg"
    },
    {
        "id": "2591314",
        "src640": "https://cdn.pixabay.com/photo/2017/08/06/11/03/gantrischseeli-2591314_640.jpg",
        "src1280": "https://cdn.pixabay.com/photo/2017/08/06/11/03/gantrischseeli-2591314_1280.jpg"
    },
    {
        "id": "2130760",
        "src640": "https://cdn.pixabay.com/photo/2017/03/09/20/29/parrot-2130760_640.jpg",
        "src1280": "https://cdn.pixabay.com/photo/2017/03/09/20/29/parrot-2130760_1280.jpg"
    },
    {
        "id": "1963743",
        "src640": "https://cdn.pixabay.com/photo/2017/01/08/19/30/drops-1963743_640.jpg",
        "src1280": "https://cdn.pixabay.com/photo/2017/01/08/19/30/drops-1963743_1280.jpg"
    },
    {
        "id": "2041765",
        "src640": "https://cdn.pixabay.com/photo/2017/02/05/23/51/winter-2041765_640.jpg",
        "src1280": "https://cdn.pixabay.com/photo/2017/02/05/23/51/winter-2041765_1280.jpg"
    },
    {
        "id": "5446888",
        "src640": "https://cdn.pixabay.com/photo/2020/07/29/04/41/woman-5446888_640.jpg",
        "src1280": "https://cdn.pixabay.com/photo/2020/07/29/04/41/woman-5446888_1280.jpg"
    },
    {
        "id": "1404652",
        "src640": "https://cdn.pixabay.com/photo/2016/05/20/08/18/smiley-1404652_640.jpg",
        "src1280": "https://cdn.pixabay.com/photo/2016/05/20/08/18/smiley-1404652_1280.jpg"
    },
    {
        "id": "7686623",
        "src640": "https://cdn.pixabay.com/photo/2022/12/30/10/40/red-sky-7686623_640.jpg",
        "src1280": "https://cdn.pixabay.com/photo/2022/12/30/10/40/red-sky-7686623_1280.jpg"
    },
    {
        "id": "4928265",
        "src640": "https://cdn.pixabay.com/photo/2020/03/13/15/38/landscape-4928265_640.jpg",
        "src1280": "https://cdn.pixabay.com/photo/2020/03/13/15/38/landscape-4928265_1280.jpg"
    },
    {
        "id": "397967",
        "src640": "https://cdn.pixabay.com/photo/2014/07/20/17/36/horse-397967_640.jpg",
        "src1280": "https://cdn.pixabay.com/photo/2014/07/20/17/36/horse-397967_1280.jpg"
    },
    {
        "id": "1758801",
        "src640": "https://cdn.pixabay.com/photo/2016/10/21/18/58/flower-1758801_640.jpg",
        "src1280": "https://cdn.pixabay.com/photo/2016/10/21/18/58/flower-1758801_1280.jpg"
    },
    {
        "id": "3624916",
        "src640": "https://cdn.pixabay.com/photo/2018/08/23/00/00/black-white-3624916_640.jpg",
        "src1280": "https://cdn.pixabay.com/photo/2018/08/23/00/00/black-white-3624916_1280.jpg"
    },
    {
        "id": "374198",
        "src640": "https://cdn.pixabay.com/photo/2014/06/21/21/47/horse-374198_640.jpg",
        "src1280": "https://cdn.pixabay.com/photo/2014/06/21/21/47/horse-374198_1280.jpg"
    },
    {
        "id": "1275080",
        "src640": "https://cdn.pixabay.com/photo/2016/03/23/16/36/sky-1275080_640.jpg",
        "src1280": "https://cdn.pixabay.com/photo/2016/03/23/16/36/sky-1275080_1280.jpg"
    },
    {
        "id": "245192",
        "src640": "https://cdn.pixabay.com/photo/2014/01/14/21/29/cassowary-245192_640.jpg",
        "src1280": "https://cdn.pixabay.com/photo/2014/01/14/21/29/cassowary-245192_1280.jpg"
    },
    {
        "id": "4382540",
        "src640": "https://cdn.pixabay.com/photo/2019/08/03/19/49/germany-4382540_640.jpg",
        "src1280": "https://cdn.pixabay.com/photo/2019/08/03/19/49/germany-4382540_1280.jpg"
    },
    {
        "id": "1635696",
        "src640": "https://cdn.pixabay.com/photo/2016/09/01/10/07/seagull-1635696_640.jpg",
        "src1280": "https://cdn.pixabay.com/photo/2016/09/01/10/07/seagull-1635696_1280.jpg"
    },
    {
        "id": "1839653",
        "src640": "https://cdn.pixabay.com/photo/2016/11/19/14/45/balance-1839653_640.jpg",
        "src1280": "https://cdn.pixabay.com/photo/2016/11/19/14/45/balance-1839653_1280.jpg"
    },
    {
        "id": "3281232",
        "src640": "https://cdn.pixabay.com/photo/2018/04/01/15/28/cute-3281232_640.jpg",
        "src1280": "https://cdn.pixabay.com/photo/2018/04/01/15/28/cute-3281232_1280.jpg"
    }
]