[
    {
        "id": "3394198",
        "src640": "https://cdn.pixabay.com/photo/2018/05/12/18/15/water-3394198_640.jpg",
        "src1280": "https://cdn.pixabay.com/photo/2018/05/12/18/15/water-3394198_1280.jpg"
    },
    {
        "id": "8426519",
        "src640": "https://cdn.pixabay.com/photo/2023/12/02/22/13/ai-generated-8426519_640.jpg",
        "src1280": "https://cdn.pixabay.com/photo/2023/12/02/22/13/ai-generated-8426519_1280.jpg"
    },
    {
        "id": "2254938",
        "src640": "https://cdn.pixabay.com/photo/2017/04/23/20/21/figure-2254938_640.jpg",
        "src1280": "https://cdn.pixabay.com/photo/2017/04/23/20/21/figure-2254938_1280.jpg"
    },
    {
        "id": "5282517",
        "src640": "https://cdn.pixabay.com/photo/2020/06/10/12/36/house-5282517_640.jpg",
        "src1280": "https://cdn.pixabay.com/photo/2020/06/10/12/36/house-5282517_1280.jpg"
    },
    {
        "id": "4912935",
        "src640": "https://cdn.pixabay.com/photo/2020/03/08/16/22/forest-4912935_640.jpg",
        "src1280": "https://cdn.pixabay.com/photo/2020/03/08/16/22/forest-4912935_1280.jpg"
    },
    {
        "id": "2160347",
        "src640": "https://cdn.pixabay.com/photo/2017/03/20/21/08/night-2160347_640.jpg",
        "src1280": "https://cdn.pixabay.com/photo/2017/03/20/21/08/night-2160347_1280.jpg"
    },
    {
        "id": "6153325",
        "src640": "https://cdn.pixabay.com/photo/2021/04/05/12/50/bug-6153325_640.jpg",
        "src1280": "https://cdn.pixabay.com/photo/2021/04/05/12/50/bug-6153325_1280.jpg"
    },
    {
        "id": "1227511",
        "src640": "https://cdn.pixabay.com/photo/2016/02/28/19/47/deco-1227511_640.jpg",
        "src1280": "https://cdn.pixabay.com/photo/2016/02/28/19/47/deco-1227511_1280.jpg"
    },
    {
        "id": "2569770",
        "src640": "https://cdn.pixabay.com/photo/2017/08/02/02/02/sky-2569770_640.jpg",
        "src1280": "https://cdn.pixabay.com/photo/2017/08/02/02/02/sky-2569770_1280.jpg"
    },
    {
        "id": "5880432",
        "src640": "https://cdn.pixabay.com/photo/2021/01/02/01/35/trees-5880432_640.jpg",
        "src1280": "https://cdn.pixabay.com/photo/2021/01/02/01/35/trees-5880432_1280.jpg"
    },
    {
        "id": "1311866",
        "src640": "https://cdn.pixabay.com/photo/2016/04/06/14/34/night-1311866_640.jpg",
        "src1280": "https://cdn.pixabay.com/photo/2016/04/06/14/34/night-1311866_1280.jpg"
    },
    {
        "id": "6088871",
        "src640": "https://cdn.pixabay.com/photo/2021/03/12/06/45/magazine-6088871_640.jpg",
        "src1280": "https://cdn.pixabay.com/photo/2021/03/12/06/45/magazine-6088871_1280.jpg"
    },
    {
        "id": "4260803",
        "src640": "https://cdn.pixabay.com/photo/2019/06/08/18/52/spathiphyllum-4260803_640.jpg",
        "src1280": "https://cdn.pixabay.com/photo/2019/06/08/18/52/spathiphyllum-4260803_1280.jpg"
    },
    {
        "id": "2208916",
        "src640": "https://cdn.pixabay.com/photo/2017/04/06/17/43/faith-2208916_640.jpg",
        "src1280": "https://cdn.pixabay.com/photo/2017/04/06/17/43/faith-2208916_1280.jpg"
    },
    {
        "id": "2597440",
        "src640": "https://cdn.pixabay.com/photo/2017/08/06/23/20/people-2597440_640.jpg",
        "src1280": "https://cdn.pixabay.com/photo/2017/08/06/23/20/people-2597440_1280.jpg"
    },
    {
        "id": "1258312",
        "src640": "https://cdn.pixabay.com/photo/2016/03/15/14/28/ivy-1258312_640.jpg",
        "src1280": "https://cdn.pixabay.com/photo/2016/03/15/14/28/ivy-1258312_1280.jpg"
    },
    {
        "id": "7551560",
        "src640": "https://cdn.pixabay.com/photo/2022/10/27/19/04/woman-7551560_640.jpg",
        "src1280": "https://cdn.pixabay.com/photo/2022/10/27/19/04/woman-7551560_1280.jpg"
    },
    {
        "id": "1590491",
        "src640": "https://cdn.pixabay.com/photo/2016/08/13/10/53/child-1590491_640.jpg",
        "src1280": "https://cdn.pixabay.com/photo/2016/08/13/10/53/child-1590491_1280.jpg"
    },
    {
        "id": "5267657",
        "src640": "https://cdn.pixabay.com/photo/2020/06/06/18/09/cat-5267657_640.jpg",
        "src1280": "https://cdn.pixabay.com/photo/2020/06/06/18/09/cat-5267657_1280.jpg"
    },
    {
        "id": "298820",
        "src640": "https://cdn.pixabay.com/photo/2014/03/26/16/46/ouzoud-298820_640.jpg",
        "src1280": "https://cdn.pixabay.com/photo/2014/03/26/16/46/ouzoud-298820_1280.jpg"
    },
    {
        "id": "5169875",
        "src640": "https://cdn.pixabay.com/photo/2020/05/14/04/24/nature-5169875_640.jpg",
        "src1280": "https://cdn.pixabay.com/photo/2020/05/14/04/24/nature-5169875_1280.jpg"
    },
    {
        "id": "2839133",
        "src640": "https://cdn.pixabay.com/photo/2017/10/10/22/29/kiss-2839133_640.jpg",
        "src1280": "https://cdn.pixabay.com/photo/2017/10/10/22/29/kiss-2839133_1280.jpg"
    },
    {
        "id": "3160036",
        "src640": "https://cdn.pixabay.com/photo/2018/02/17/14/21/bikini-3160036_640.jpg",
        "src1280": "https://cdn.pixabay.com/photo/2018/02/17/14/21/bikini-3160036_1280.jpg"
    },
    {
        "id": "2710504",
        "src640": "https://cdn.pixabay.com/photo/2017/09/03/14/32/flower-2710504_640.jpg",
        "src1280": "https://cdn.pixabay.com/photo/2017/09/03/14/32/flower-2710504_1280.jpg"
    },
    {
        "id": "3191086",
        "src640": "https://cdn.pixabay.com/photo/2018/03/01/16/37/tree-3191086_640.jpg",
        "src1280": "https://cdn.pixabay.com/photo/2018/03/01/16/37/tree-3191086_1280.jpg"
    },
    {
        "id": "3359683",
        "src640": "https://cdn.pixabay.com/photo/2018/04/29/11/27/people-3359683_640.jpg",
        "src1280": "https://cdn.pixabay.com/photo/2018/04/29/11/27/people-3359683_1280.jpg"
    },
    {
        "id": "7600064",
        "src640": "https://cdn.pixabay.com/photo/2022/11/18/12/33/laughing-kookaburra-7600064_640.jpg",
        "src1280": "https://cdn.pixabay.com/photo/2022/11/18/12/33/laughing-kookaburra-7600064_1280.jpg"
    },
    {
        "id": "8375103",
        "src640": "https://cdn.pixabay.com/photo/2023/11/08/15/32/ai-generated-8375103_640.jpg",
        "src1280": "https://cdn.pixabay.com/photo/2023/11/08/15/32/ai-generated-8375103_1280.jpg"
    },
    {
        "id": "511886",
        "src640": "https://cdn.pixabay.com/photo/2014/11/01/11/35/girl-511886_640.jpg",
        "src1280": "https://cdn.pixabay.com/photo/2014/11/01/11/35/girl-511886_1280.jpg"
    },
    {
        "id": "7723446",
        "src640": "https://cdn.pixabay.com/photo/2023/01/16/22/27/ai-generated-7723446_640.jpg",
        "src1280": "https://cdn.pixabay.com/photo/2023/01/16/22/27/ai-generated-7723446_1280.jpg"
    },
    {
        "id": "2425326",
        "src640": "https://cdn.pixabay.com/photo/2017/06/20/23/20/plant-2425326_640.jpg",
        "src1280": "https://cdn.pixabay.com/photo/2017/06/20/23/20/plant-2425326_1280.jpg"
    },
    {
        "id": "3341382",
        "src640": "https://cdn.pixabay.com/photo/2018/04/22/15/34/mammal-3341382_640.jpg",
        "src1280": "https://cdn.pixabay.com/photo/2018/04/22/15/34/mammal-3341382_1280.jpg"
    },
    {
        "id": "1275748",
        "src640": "https://cdn.pixabay.com/photo/2016/03/23/22/08/bulldog-1275748_640.jpg",
        "src1280": "https://cdn.pixabay.com/photo/2016/03/23/22/08/bulldog-1275748_1280.jpg"
    },
    {
        "id": "2584000",
        "src640": "https://cdn.pixabay.com/photo/2017/08/05/14/27/rocks-2584000_640.jpg",
        "src1280": "https://cdn.pixabay.com/photo/2017/08/05/14/27/rocks-2584000_1280.jpg"
    },
    {
        "id": "8427581",
        "src640": "https://cdn.pixabay.com/photo/2023/12/03/14/15/ai-generated-8427581_640.jpg",
        "src1280": "https://cdn.pixabay.com/photo/2023/12/03/14/15/ai-generated-8427581_1280.jpg"
    },
    {
        "id": "8052288",
        "src640": "https://cdn.pixabay.com/photo/2023/06/09/17/32/bumblebee-8052288_640.jpg",
        "src1280": "https://cdn.pixabay.com/photo/2023/06/09/17/32/bumblebee-8052288_1280.jpg"
    },
    {
        "id": "6336350",
        "src640": "https://cdn.pixabay.com/photo/2021/06/14/16/48/waxworms-6336350_640.jpg",
        "src1280": "https://cdn.pixabay.com/photo/2021/06/14/16/48/waxworms-6336350_1280.jpg"
    },
    {
        "id": "7466426",
        "src640": "https://cdn.pixabay.com/photo/2022/09/19/20/39/ai-generated-7466426_640.jpg",
        "src1280": "https://cdn.pixabay.com/photo/2022/09/19/20/39/ai-generated-7466426_1280.jpg"
    },
    {
        "id": "4376835",
        "src640": "https://cdn.pixabay.com/photo/2019/08/01/06/45/sunset-4376835_640.jpg",
        "src1280": "https://cdn.pixabay.com/photo/2019/08/01/06/45/sunset-4376835_1280.jpg"
    },
    {
        "id": "2557075",
        "src640": "https://cdn.pixabay.com/photo/2017/07/31/09/52/temple-2557075_640.jpg",
        "src1280": "https://cdn.pixabay.com/photo/2017/07/31/09/52/temple-2557075_1280.jpg"
    },
    {
        "id": "4245867",
        "src640": "https://cdn.pixabay.com/photo/2019/06/02/08/32/flowers-4245867_640.jpg",
        "src1280": "https://cdn.pixabay.com/photo/2019/06/02/08/32/flowers-4245867_1280.jpg"
    },
    {
        "id": "3730793",
        "src640": "https://cdn.pixabay.com/photo/2018/10/07/17/33/bat-3730793_640.jpg",
        "src1280": "https://cdn.pixabay.com/photo/2018/10/07/17/33/bat-3730793_1280.jpg"
    },
    {
        "id": "8431304",
        "src640": "https://cdn.pixabay.com/photo/2023/12/05/10/32/mystical-8431304_640.jpg",
        "src1280": "https://cdn.pixabay.com/photo/2023/12/05/10/32/mystical-8431304_1280.jpg"
    },
    {
        "id": "2562097",
        "src640": "https://cdn.pixabay.com/photo/2017/07/31/23/49/waterfalls-2562097_640.jpg",
        "src1280": "https://cdn.pixabay.com/photo/2017/07/31/23/49/waterfalls-2562097_1280.jpg"
    },
    {
        "id": "3940726",
        "src640": "https://cdn.pixabay.com/photo/2019/01/18/21/29/bathroom-sink-3940726_640.jpg",
        "src1280": "https://cdn.pixabay.com/photo/2019/01/18/21/29/bathroom-sink-3940726_1280.jpg"
    },
    {
        "id": "8420066",
        "src640": "https://cdn.pixabay.com/photo/2023/11/29/17/39/bird-8420066_640.jpg",
        "src1280": "https://cdn.pixabay.com/photo/2023/11/29/17/39/bird-8420066_1280.jpg"
    },
    {
        "id": "8325620",
        "src640": "https://cdn.pixabay.com/photo/2023/10/19/05/45/flower-8325620_640.jpg",
        "src1280": "https://cdn.pixabay.com/photo/2023/10/19/05/45/flower-8325620_1280.jpg"
    },
    {
        "id": "343265",
        "src640": "https://cdn.pixabay.com/photo/2014/05/13/09/06/deckchair-343265_640.jpg",
        "src1280": "https://cdn.pixabay.com/photo/2014/05/13/09/06/deckchair-343265_1280.jpg"
    },
    {
        "id": "182144",
        "src640": "https://cdn.pixabay.com/photo/2013/09/14/11/21/erawan-182144_640.jpg",
        "src1280": "https://cdn.pixabay.com/photo/2013/09/14/11/21/erawan-182144_1280.jpg"
    },
    {
        "id": "495266",
        "src640": "https://cdn.pixabay.com/photo/2014/10/20/13/15/street-495266_640.jpg",
        "src1280": "https://cdn.pixabay.com/photo/2014/10/20/13/15/street-495266_1280.jpg"
    },
    {
        "id": "2519484",
        "src640": "https://cdn.pixabay.com/photo/2017/07/19/15/43/vanilla-2519484_640.jpg",
        "src1280": "https://cdn.pixabay.com/photo/2017/07/19/15/43/vanilla-2519484_1280.jpg"
    },
    {
        "id": "816662",
        "src640": "https://cdn.pixabay.com/photo/2015/06/21/14/55/christmas-816662_640.jpg",
        "src1280": "https://cdn.pixabay.com/photo/2015/06/21/14/55/christmas-816662_1280.jpg"
    },
    {
        "id": "4990113",
        "src640": "https://cdn.pixabay.com/photo/2020/04/01/06/32/model-4990113_640.jpg",
        "src1280": "https://cdn.pixabay.com/photo/2020/04/01/06/32/model-4990113_1280.jpg"
    },
    {
        "id": "8397536",
        "src640": "https://cdn.pixabay.com/photo/2023/11/19/01/08/maple-8397536_640.jpg",
        "src1280": "https://cdn.pixabay.com/photo/2023/11/19/01/08/maple-8397536_1280.jpg"
    },
    {
        "id": "3930488",
        "src640": "https://cdn.pixabay.com/photo/2019/01/13/14/25/light-bulb-3930488_640.jpg",
        "src1280": "https://cdn.pixabay.com/photo/2019/01/13/14/25/light-bulb-3930488_1280.jpg"
    },
    {
        "id": "552868",
        "src640": "https://cdn.pixabay.com/photo/2014/12/01/15/06/forest-552868_640.jpg",
        "src1280": "https://cdn.pixabay.com/photo/2014/12/01/15/06/forest-552868_1280.jpg"
    },
    {
        "id": "4585417",
        "src640": "https://cdn.pixabay.com/photo/2019/10/28/19/26/goldfinch-4585417_640.jpg",
        "src1280": "https://cdn.pixabay.com/photo/2019/10/28/19/26/goldfinch-4585417_1280.jpg"
    },
    {
        "id": "2456097",
        "src640": "https://cdn.pixabay.com/photo/2017/06/29/20/16/lilies-of-the-valley-2456097_640.jpg",
        "src1280": "https://cdn.pixabay.com/photo/2017/06/29/20/16/lilies-of-the-valley-2456097_1280.jpg"
    },
    {
        "id": "3189874",
        "src640": "https://cdn.pixabay.com/photo/2018/03/01/06/53/people-3189874_640.jpg",
        "src1280": "https://cdn.pixabay.com/photo/2018/03/01/06/53/people-3189874_1280.jpg"
    },
    {
        "id": "5471848",
        "src640": "https://cdn.pixabay.com/photo/2020/08/07/23/51/dogs-5471848_640.jpg",
        "src1280": "https://cdn.pixabay.com/photo/2020/08/07/23/51/dogs-5471848_1280.jpg"
    },
    {
        "id": "2585557",
        "src640": "https://cdn.pixabay.com/photo/2017/08/05/21/01/nature-2585557_640.jpg",
        "src1280": "https://cdn.pixabay.com/photo/2017/08/05/21/01/nature-2585557_1280.jpg"
    },
    {
        "id": "1913905",
        "src640": "https://cdn.pixabay.com/photo/2016/12/17/17/18/christmas-ornament-1913905_640.jpg",
        "src1280": "https://cdn.pixabay.com/photo/2016/12/17/17/18/christmas-ornament-1913905_1280.jpg"
    }
]