[
    {
        "id": "3269412",
        "src640": "https://cdn.pixabay.com/photo/2018/03/28/14/26/architecture-3269412_640.jpg",
        "src1280": "https://cdn.pixabay.com/photo/2018/03/28/14/26/architecture-3269412_1280.jpg"
    },
    {
        "id": "7526462",
        "src640": "https://cdn.pixabay.com/photo/2022/10/17/02/14/toronto-7526462_640.jpg",
        "src1280": "https://cdn.pixabay.com/photo/2022/10/17/02/14/toronto-7526462_1280.jpg"
    },
    {
        "id": "2564366",
        "src640": "https://cdn.pixabay.com/photo/2017/08/01/10/26/architecture-2564366_640.jpg",
        "src1280": "https://cdn.pixabay.com/photo/2017/08/01/10/26/architecture-2564366_1280.jpg"
    },
    {
        "id": "5110598",
        "src640": "https://cdn.pixabay.com/photo/2020/04/29/21/15/of-the-van-5110598_640.jpg",
        "src1280": "https://cdn.pixabay.com/photo/2020/04/29/21/15/of-the-van-5110598_1280.jpg"
    },
    {
        "id": "2571003",
        "src640": "https://cdn.pixabay.com/photo/2017/08/02/11/23/buildings-2571003_640.jpg",
        "src1280": "https://cdn.pixabay.com/photo/2017/08/02/11/23/buildings-2571003_1280.jpg"
    },
    {
        "id": "2289401",
        "src640": "https://cdn.pixabay.com/photo/2017/05/06/10/08/malaysia-2289401_640.jpg",
        "src1280": "https://cdn.pixabay.com/photo/2017/05/06/10/08/malaysia-2289401_1280.jpg"
    },
    {
        "id": "2559683",
        "src640": "https://cdn.pixabay.com/photo/2017/07/31/18/14/architecture-2559683_640.jpg",
        "src1280": "https://cdn.pixabay.com/photo/2017/07/31/18/14/architecture-2559683_1280.jpg"
    },
    {
        "id": "4500776",
        "src640": "https://cdn.pixabay.com/photo/2019/09/24/08/50/home-4500776_640.jpg",
        "src1280": "https://cdn.pixabay.com/photo/2019/09/24/08/50/home-4500776_1280.jpg"
    },
    {
        "id": "7284793",
        "src640": "https://cdn.pixabay.com/photo/2022/06/26/08/03/city-7284793_640.jpg",
        "src1280": "https://cdn.pixabay.com/photo/2022/06/26/08/03/city-7284793_1280.jpg"
    },
    {
        "id": "5899086",
        "src640": "https://cdn.pixabay.com/photo/2021/01/08/06/33/buildings-5899086_640.jpg",
        "src1280": "https://cdn.pixabay.com/photo/2021/01/08/06/33/buildings-5899086_1280.jpg"
    },
    {
        "id": "2589120",
        "src640": "https://cdn.pixabay.com/photo/2017/08/06/05/32/urban-2589120_640.jpg",
        "src1280": "https://cdn.pixabay.com/photo/2017/08/06/05/32/urban-2589120_1280.jpg"
    },
    {
        "id": "2602896",
        "src640": "https://cdn.pixabay.com/photo/2017/08/07/11/35/sky-2602896_640.jpg",
        "src1280": "https://cdn.pixabay.com/photo/2017/08/07/11/35/sky-2602896_1280.jpg"
    },
    {
        "id": "6309220",
        "src640": "https://cdn.pixabay.com/photo/2021/06/04/08/45/frankfurt-6309220_640.jpg",
        "src1280": "https://cdn.pixabay.com/photo/2021/06/04/08/45/frankfurt-6309220_1280.jpg"
    },
    {
        "id": "7091711",
        "src640": "https://cdn.pixabay.com/photo/2022/03/25/20/03/city-7091711_640.jpg",
        "src1280": "https://cdn.pixabay.com/photo/2022/03/25/20/03/city-7091711_1280.jpg"
    },
    {
        "id": "286988",
        "src640": "https://cdn.pixabay.com/photo/2014/03/14/02/23/twin-towers-286988_640.jpg",
        "src1280": "https://cdn.pixabay.com/photo/2014/03/14/02/23/twin-towers-286988_1280.jpg"
    },
    {
        "id": "2561375",
        "src640": "https://cdn.pixabay.com/photo/2017/07/31/21/43/nature-2561375_640.jpg",
        "src1280": "https://cdn.pixabay.com/photo/2017/07/31/21/43/nature-2561375_1280.jpg"
    },
    {
        "id": "4788153",
        "src640": "https://cdn.pixabay.com/photo/2020/01/23/16/38/architecture-4788153_640.jpg",
        "src1280": "https://cdn.pixabay.com/photo/2020/01/23/16/38/architecture-4788153_1280.jpg"
    },
    {
        "id": "3628774",
        "src640": "https://cdn.pixabay.com/photo/2018/08/24/20/06/husum-3628774_640.jpg",
        "src1280": "https://cdn.pixabay.com/photo/2018/08/24/20/06/husum-3628774_1280.jpg"
    },
    {
        "id": "2606632",
        "src640": "https://cdn.pixabay.com/photo/2017/08/07/18/41/train-2606632_640.jpg",
        "src1280": "https://cdn.pixabay.com/photo/2017/08/07/18/41/train-2606632_1280.jpg"
    },
    {
        "id": "903881",
        "src640": "https://cdn.pixabay.com/photo/2015/08/23/23/19/saint-john-the-evangelist-903881_640.jpg",
        "src1280": "https://cdn.pixabay.com/photo/2015/08/23/23/19/saint-john-the-evangelist-903881_1280.jpg"
    },
    {
        "id": "2751006",
        "src640": "https://cdn.pixabay.com/photo/2017/09/15/02/44/new-york-2751006_640.jpg",
        "src1280": "https://cdn.pixabay.com/photo/2017/09/15/02/44/new-york-2751006_1280.jpg"
    },
    {
        "id": "196104",
        "src640": "https://cdn.pixabay.com/photo/2013/10/15/19/54/spinnaker-196104_640.jpg",
        "src1280": "https://cdn.pixabay.com/photo/2013/10/15/19/54/spinnaker-196104_1280.jpg"
    },
    {
        "id": "232170",
        "src640": "https://cdn.pixabay.com/photo/2013/12/22/05/28/lindau-232170_640.jpg",
        "src1280": "https://cdn.pixabay.com/photo/2013/12/22/05/28/lindau-232170_1280.jpg"
    },
    {
        "id": "4981749",
        "src640": "https://cdn.pixabay.com/photo/2020/03/29/18/29/st-peters-church-4981749_640.jpg",
        "src1280": "https://cdn.pixabay.com/photo/2020/03/29/18/29/st-peters-church-4981749_1280.jpg"
    },
    {
        "id": "6360334",
        "src640": "https://cdn.pixabay.com/photo/2021/06/24/06/49/river-6360334_640.jpg",
        "src1280": "https://cdn.pixabay.com/photo/2021/06/24/06/49/river-6360334_1280.jpg"
    },
    {
        "id": "2588088",
        "src640": "https://cdn.pixabay.com/photo/2017/08/06/02/54/urban-2588088_640.jpg",
        "src1280": "https://cdn.pixabay.com/photo/2017/08/06/02/54/urban-2588088_1280.jpg"
    },
    {
        "id": "7382214",
        "src640": "https://cdn.pixabay.com/photo/2022/08/12/18/07/church-7382214_640.jpg",
        "src1280": "https://cdn.pixabay.com/photo/2022/08/12/18/07/church-7382214_1280.jpg"
    },
    {
        "id": "6555990",
        "src640": "https://cdn.pixabay.com/photo/2021/08/18/16/08/buildings-6555990_640.jpg",
        "src1280": "https://cdn.pixabay.com/photo/2021/08/18/16/08/buildings-6555990_1280.jpg"
    },
    {
        "id": "2594194",
        "src640": "https://cdn.pixabay.com/photo/2017/08/06/17/00/architecture-2594194_640.jpg",
        "src1280": "https://cdn.pixabay.com/photo/2017/08/06/17/00/architecture-2594194_1280.jpg"
    },
    {
        "id": "1844943",
        "src640": "https://cdn.pixabay.com/photo/2016/11/21/12/06/architecture-1844943_640.jpg",
        "src1280": "https://cdn.pixabay.com/photo/2016/11/21/12/06/architecture-1844943_1280.jpg"
    },
    {
        "id": "450430",
        "src640": "https://cdn.pixabay.com/photo/2014/09/18/04/04/skyscraper-450430_640.jpg",
        "src1280": "https://cdn.pixabay.com/photo/2014/09/18/04/04/skyscraper-450430_1280.jpg"
    },
    {
        "id": "6990851",
        "src640": "https://cdn.pixabay.com/photo/2022/02/03/17/25/window-6990851_640.jpg",
        "src1280": "https://cdn.pixabay.com/photo/2022/02/03/17/25/window-6990851_1280.jpg"
    },
    {
        "id": "6128912",
        "src640": "https://cdn.pixabay.com/photo/2021/03/27/16/28/city-6128912_640.jpg",
        "src1280": "https://cdn.pixabay.com/photo/2021/03/27/16/28/city-6128912_1280.jpg"
    },
    {
        "id": "248633",
        "src640": "https://cdn.pixabay.com/photo/2014/01/20/15/13/old-brickyard-248633_640.jpg",
        "src1280": "https://cdn.pixabay.com/photo/2014/01/20/15/13/old-brickyard-248633_1280.jpg"
    },
    {
        "id": "3275016",
        "src640": "https://cdn.pixabay.com/photo/2018/03/30/10/33/arches-3275016_640.jpg",
        "src1280": "https://cdn.pixabay.com/photo/2018/03/30/10/33/arches-3275016_1280.jpg"
    },
    {
        "id": "2592945",
        "src640": "https://cdn.pixabay.com/photo/2017/08/06/14/22/building-2592945_640.jpg",
        "src1280": "https://cdn.pixabay.com/photo/2017/08/06/14/22/building-2592945_1280.jpg"
    },
    {
        "id": "4705203",
        "src640": "https://cdn.pixabay.com/photo/2019/12/19/01/50/sculpture-4705203_640.jpg",
        "src1280": "https://cdn.pixabay.com/photo/2019/12/19/01/50/sculpture-4705203_1280.jpg"
    },
    {
        "id": "7414429",
        "src640": "https://cdn.pixabay.com/photo/2022/08/27/13/16/houses-7414429_640.jpg",
        "src1280": "https://cdn.pixabay.com/photo/2022/08/27/13/16/houses-7414429_1280.jpg"
    },
    {
        "id": "7364323",
        "src640": "https://cdn.pixabay.com/photo/2022/08/04/09/48/london-7364323_640.jpg",
        "src1280": "https://cdn.pixabay.com/photo/2022/08/04/09/48/london-7364323_1280.jpg"
    },
    {
        "id": "2878123",
        "src640": "https://cdn.pixabay.com/photo/2017/10/22/15/41/palazzo-2878123_640.jpg",
        "src1280": "https://cdn.pixabay.com/photo/2017/10/22/15/41/palazzo-2878123_1280.jpg"
    },
    {
        "id": "654744",
        "src640": "https://cdn.pixabay.com/photo/2015/03/01/14/17/church-654744_640.jpg",
        "src1280": "https://cdn.pixabay.com/photo/2015/03/01/14/17/church-654744_1280.jpg"
    },
    {
        "id": "2671811",
        "src640": "https://cdn.pixabay.com/photo/2017/08/23/07/44/the-scenery-2671811_640.jpg",
        "src1280": "https://cdn.pixabay.com/photo/2017/08/23/07/44/the-scenery-2671811_1280.jpg"
    },
    {
        "id": "4728723",
        "src640": "https://cdn.pixabay.com/photo/2019/12/30/03/20/house-4728723_640.jpg",
        "src1280": "https://cdn.pixabay.com/photo/2019/12/30/03/20/house-4728723_1280.jpg"
    },
    {
        "id": "1011906",
        "src640": "https://cdn.pixabay.com/photo/2015/10/29/08/22/cologne-1011906_640.jpg",
        "src1280": "https://cdn.pixabay.com/photo/2015/10/29/08/22/cologne-1011906_1280.jpg"
    },
    {
        "id": "7393687",
        "src640": "https://cdn.pixabay.com/photo/2022/08/17/23/54/building-7393687_640.jpg",
        "src1280": "https://cdn.pixabay.com/photo/2022/08/17/23/54/building-7393687_1280.jpg"
    },
    {
        "id": "1650226",
        "src640": "https://cdn.pixabay.com/photo/2016/09/06/21/14/truss-1650226_640.jpg",
        "src1280": "https://cdn.pixabay.com/photo/2016/09/06/21/14/truss-1650226_1280.jpg"
    },
    {
        "id": "2673858",
        "src640": "https://cdn.pixabay.com/photo/2017/08/23/18/47/city-2673858_640.jpg",
        "src1280": "https://cdn.pixabay.com/photo/2017/08/23/18/47/city-2673858_1280.jpg"
    },
    {
        "id": "5900976",
        "src640": "https://cdn.pixabay.com/photo/2021/01/08/22/39/traffic-light-5900976_640.jpg",
        "src1280": "https://cdn.pixabay.com/photo/2021/01/08/22/39/traffic-light-5900976_1280.jpg"
    },
    {
        "id": "3275794",
        "src640": "https://cdn.pixabay.com/photo/2018/03/30/16/36/mallorca-3275794_640.jpg",
        "src1280": "https://cdn.pixabay.com/photo/2018/03/30/16/36/mallorca-3275794_1280.jpg"
    },
    {
        "id": "7151968",
        "src640": "https://cdn.pixabay.com/photo/2022/04/23/15/21/buildings-7151968_640.jpg",
        "src1280": "https://cdn.pixabay.com/photo/2022/04/23/15/21/buildings-7151968_1280.jpg"
    },
    {
        "id": "2813092",
        "src640": "https://cdn.pixabay.com/photo/2017/10/03/16/24/building-2813092_640.jpg",
        "src1280": "https://cdn.pixabay.com/photo/2017/10/03/16/24/building-2813092_1280.jpg"
    },
    {
        "id": "909853",
        "src640": "https://cdn.pixabay.com/photo/2015/08/27/10/17/san-luis-beltran-909853_640.jpg",
        "src1280": "https://cdn.pixabay.com/photo/2015/08/27/10/17/san-luis-beltran-909853_1280.jpg"
    },
    {
        "id": "7307740",
        "src640": "https://cdn.pixabay.com/photo/2022/07/07/18/43/teen-7307740_640.jpg",
        "src1280": "https://cdn.pixabay.com/photo/2022/07/07/18/43/teen-7307740_1280.jpg"
    },
    {
        "id": "3864000",
        "src640": "https://cdn.pixabay.com/photo/2018/12/08/20/45/skyscraper-3864000_640.jpg",
        "src1280": "https://cdn.pixabay.com/photo/2018/12/08/20/45/skyscraper-3864000_1280.jpg"
    },
    {
        "id": "2548039",
        "src640": "https://cdn.pixabay.com/photo/2017/07/28/08/57/architecture-2548039_640.jpg",
        "src1280": "https://cdn.pixabay.com/photo/2017/07/28/08/57/architecture-2548039_1280.jpg"
    },
    {
        "id": "7699686",
        "src640": "https://cdn.pixabay.com/photo/2023/01/05/20/08/london-7699686_640.jpg",
        "src1280": "https://cdn.pixabay.com/photo/2023/01/05/20/08/london-7699686_1280.jpg"
    },
    {
        "id": "2597847",
        "src640": "https://cdn.pixabay.com/photo/2017/08/07/00/11/building-2597847_640.jpg",
        "src1280": "https://cdn.pixabay.com/photo/2017/08/07/00/11/building-2597847_1280.jpg"
    },
    {
        "id": "4569457",
        "src640": "https://cdn.pixabay.com/photo/2019/10/22/18/30/cross-4569457_640.jpg",
        "src1280": "https://cdn.pixabay.com/photo/2019/10/22/18/30/cross-4569457_1280.jpg"
    },
    {
        "id": "4438299",
        "src640": "https://cdn.pixabay.com/photo/2019/08/29/06/26/castle-aarwangen-4438299_640.jpg",
        "src1280": "https://cdn.pixabay.com/photo/2019/08/29/06/26/castle-aarwangen-4438299_1280.jpg"
    },
    {
        "id": "185117",
        "src640": "https://cdn.pixabay.com/photo/2013/09/22/22/31/spain-185117_640.jpg",
        "src1280": "https://cdn.pixabay.com/photo/2013/09/22/22/31/spain-185117_1280.jpg"
    },
    {
        "id": "1840313",
        "src640": "https://cdn.pixabay.com/photo/2016/11/19/16/57/architecture-1840313_640.jpg",
        "src1280": "https://cdn.pixabay.com/photo/2016/11/19/16/57/architecture-1840313_1280.jpg"
    },
    {
        "id": "109009",
        "src640": "https://cdn.pixabay.com/photo/2013/05/05/21/56/washington-109009_640.jpg",
        "src1280": "https://cdn.pixabay.com/photo/2013/05/05/21/56/washington-109009_1280.jpg"
    },
    {
        "id": "2191813",
        "src640": "https://cdn.pixabay.com/photo/2017/03/31/17/08/view-2191813_640.jpg",
        "src1280": "https://cdn.pixabay.com/photo/2017/03/31/17/08/view-2191813_1280.jpg"
    },
    {
        "id": "164223",
        "src640": "https://cdn.pixabay.com/photo/2013/07/18/14/59/sydney-tower-164223_640.jpg",
        "src1280": "https://cdn.pixabay.com/photo/2013/07/18/14/59/sydney-tower-164223_1280.jpg"
    },
    {
        "id": "2886607",
        "src640": "https://cdn.pixabay.com/photo/2017/10/24/23/55/building-2886607_640.jpg",
        "src1280": "https://cdn.pixabay.com/photo/2017/10/24/23/55/building-2886607_1280.jpg"
    },
    {
        "id": "2562276",
        "src640": "https://cdn.pixabay.com/photo/2017/08/01/00/30/architecture-2562276_640.jpg",
        "src1280": "https://cdn.pixabay.com/photo/2017/08/01/00/30/architecture-2562276_1280.jpg"
    },
    {
        "id": "2136165",
        "src640": "https://cdn.pixabay.com/photo/2017/03/12/00/25/church-2136165_640.jpg",
        "src1280": "https://cdn.pixabay.com/photo/2017/03/12/00/25/church-2136165_1280.jpg"
    },
    {
        "id": "7161641",
        "src640": "https://cdn.pixabay.com/photo/2022/04/28/02/12/building-7161641_640.jpg",
        "src1280": "https://cdn.pixabay.com/photo/2022/04/28/02/12/building-7161641_1280.jpg"
    },
    {
        "id": "73730",
        "src640": "https://cdn.pixabay.com/photo/2013/01/05/11/14/caravanserai-73730_640.jpg",
        "src1280": "https://cdn.pixabay.com/photo/2013/01/05/11/14/caravanserai-73730_1280.jpg"
    },
    {
        "id": "333612",
        "src640": "https://cdn.pixabay.com/photo/2014/04/27/22/48/boston-333612_640.jpg",
        "src1280": "https://cdn.pixabay.com/photo/2014/04/27/22/48/boston-333612_1280.jpg"
    },
    {
        "id": "3428320",
        "src640": "https://cdn.pixabay.com/photo/2018/05/25/05/04/building-3428320_640.jpg",
        "src1280": "https://cdn.pixabay.com/photo/2018/05/25/05/04/building-3428320_1280.jpg"
    },
    {
        "id": "5040971",
        "src640": "https://cdn.pixabay.com/photo/2020/04/14/05/35/budapest-5040971_640.jpg",
        "src1280": "https://cdn.pixabay.com/photo/2020/04/14/05/35/budapest-5040971_1280.jpg"
    },
    {
        "id": "7207443",
        "src640": "https://cdn.pixabay.com/photo/2022/05/19/14/01/building-7207443_640.jpg",
        "src1280": "https://cdn.pixabay.com/photo/2022/05/19/14/01/building-7207443_1280.jpg"
    },
    {
        "id": "1936630",
        "src640": "https://cdn.pixabay.com/photo/2016/12/28/17/54/laveque-tower-1936630_640.jpg",
        "src1280": "https://cdn.pixabay.com/photo/2016/12/28/17/54/laveque-tower-1936630_1280.jpg"
    },
    {
        "id": "6930538",
        "src640": "https://cdn.pixabay.com/photo/2022/01/11/12/38/entrance-6930538_640.jpg",
        "src1280": "https://cdn.pixabay.com/photo/2022/01/11/12/38/entrance-6930538_1280.jpg"
    },
    {
        "id": "2714915",
        "src640": "https://cdn.pixabay.com/photo/2017/09/04/18/18/cars-2714915_640.jpg",
        "src1280": "https://cdn.pixabay.com/photo/2017/09/04/18/18/cars-2714915_1280.jpg"
    },
    {
        "id": "1619189",
        "src640": "https://cdn.pixabay.com/photo/2016/08/25/10/10/stairs-1619189_640.jpg",
        "src1280": "https://cdn.pixabay.com/photo/2016/08/25/10/10/stairs-1619189_1280.jpg"
    },
    {
        "id": "6570225",
        "src640": "https://cdn.pixabay.com/photo/2021/08/24/10/17/water-tower-6570225_640.jpg",
        "src1280": "https://cdn.pixabay.com/photo/2021/08/24/10/17/water-tower-6570225_1280.jpg"
    },
    {
        "id": "7409786",
        "src640": "https://cdn.pixabay.com/photo/2022/08/25/09/35/frankfurt-7409786_640.jpg",
        "src1280": "https://cdn.pixabay.com/photo/2022/08/25/09/35/frankfurt-7409786_1280.jpg"
    },
    {
        "id": "201449",
        "src640": "https://cdn.pixabay.com/photo/2013/10/27/14/33/temple-201449_640.jpg",
        "src1280": "https://cdn.pixabay.com/photo/2013/10/27/14/33/temple-201449_1280.jpg"
    },
    {
        "id": "6233684",
        "src640": "https://cdn.pixabay.com/photo/2021/05/06/15/17/kharkiv-6233684_640.jpg",
        "src1280": "https://cdn.pixabay.com/photo/2021/05/06/15/17/kharkiv-6233684_1280.jpg"
    },
    {
        "id": "2289391",
        "src640": "https://cdn.pixabay.com/photo/2017/05/06/10/06/malaysia-2289391_640.jpg",
        "src1280": "https://cdn.pixabay.com/photo/2017/05/06/10/06/malaysia-2289391_1280.jpg"
    },
    {
        "id": "7306940",
        "src640": "https://cdn.pixabay.com/photo/2022/07/07/10/21/building-7306940_640.jpg",
        "src1280": "https://cdn.pixabay.com/photo/2022/07/07/10/21/building-7306940_1280.jpg"
    },
    {
        "id": "2561320",
        "src640": "https://cdn.pixabay.com/photo/2017/07/31/21/37/architecture-2561320_640.jpg",
        "src1280": "https://cdn.pixabay.com/photo/2017/07/31/21/37/architecture-2561320_1280.jpg"
    },
    {
        "id": "652516",
        "src640": "https://cdn.pixabay.com/photo/2015/02/27/18/08/rail-652516_640.jpg",
        "src1280": "https://cdn.pixabay.com/photo/2015/02/27/18/08/rail-652516_1280.jpg"
    },
    {
        "id": "5375714",
        "src640": "https://cdn.pixabay.com/photo/2020/07/06/06/37/castle-5375714_640.jpg",
        "src1280": "https://cdn.pixabay.com/photo/2020/07/06/06/37/castle-5375714_1280.jpg"
    },
    {
        "id": "2596067",
        "src640": "https://cdn.pixabay.com/photo/2017/08/06/20/34/urban-2596067_640.jpg",
        "src1280": "https://cdn.pixabay.com/photo/2017/08/06/20/34/urban-2596067_1280.jpg"
    },
    {
        "id": "2600399",
        "src640": "https://cdn.pixabay.com/photo/2017/08/07/05/51/architecture-2600399_640.jpg",
        "src1280": "https://cdn.pixabay.com/photo/2017/08/07/05/51/architecture-2600399_1280.jpg"
    },
    {
        "id": "7241716",
        "src640": "https://cdn.pixabay.com/photo/2022/06/04/11/18/han-river-7241716_640.jpg",
        "src1280": "https://cdn.pixabay.com/photo/2022/06/04/11/18/han-river-7241716_1280.jpg"
    },
    {
        "id": "5384555",
        "src640": "https://cdn.pixabay.com/photo/2020/07/08/17/04/buildings-5384555_640.jpg",
        "src1280": "https://cdn.pixabay.com/photo/2020/07/08/17/04/buildings-5384555_1280.jpg"
    },
    {
        "id": "875990",
        "src640": "https://cdn.pixabay.com/photo/2015/08/05/10/10/americus-hotel-875990_640.jpg",
        "src1280": "https://cdn.pixabay.com/photo/2015/08/05/10/10/americus-hotel-875990_1280.jpg"
    },
    {
        "id": "270784",
        "src640": "https://cdn.pixabay.com/photo/2014/02/20/19/55/steeple-270784_640.jpg",
        "src1280": "https://cdn.pixabay.com/photo/2014/02/20/19/55/steeple-270784_1280.jpg"
    },
    {
        "id": "87053",
        "src640": "https://cdn.pixabay.com/photo/2013/03/01/16/46/abechuko-87053_640.jpg",
        "src1280": "https://cdn.pixabay.com/photo/2013/03/01/16/46/abechuko-87053_1280.jpg"
    },
    {
        "id": "3542930",
        "src640": "https://cdn.pixabay.com/photo/2018/07/16/21/16/input-3542930_640.jpg",
        "src1280": "https://cdn.pixabay.com/photo/2018/07/16/21/16/input-3542930_1280.jpg"
    },
    {
        "id": "2462938",
        "src640": "https://cdn.pixabay.com/photo/2017/07/01/22/14/architecture-2462938_640.jpg",
        "src1280": "https://cdn.pixabay.com/photo/2017/07/01/22/14/architecture-2462938_1280.jpg"
    },
    {
        "id": "792145",
        "src640": "https://cdn.pixabay.com/photo/2015/05/31/15/12/tenement-792145_640.jpg",
        "src1280": "https://cdn.pixabay.com/photo/2015/05/31/15/12/tenement-792145_1280.jpg"
    }
]