[
    {
        "id": "6811319",
        "src640": "https://cdn.pixabay.com/photo/2021/11/20/09/57/church-6811319_640.jpg",
        "src1280": "https://cdn.pixabay.com/photo/2021/11/20/09/57/church-6811319_1280.jpg"
    },
    {
        "id": "2672546",
        "src640": "https://cdn.pixabay.com/photo/2017/08/23/11/24/lighthouse-2672546_640.jpg",
        "src1280": "https://cdn.pixabay.com/photo/2017/08/23/11/24/lighthouse-2672546_1280.jpg"
    },
    {
        "id": "465530",
        "src640": "https://cdn.pixabay.com/photo/2014/09/29/00/37/gable-house-465530_640.jpg",
        "src1280": "https://cdn.pixabay.com/photo/2014/09/29/00/37/gable-house-465530_1280.jpg"
    },
    {
        "id": "7030121",
        "src640": "https://cdn.pixabay.com/photo/2022/02/23/06/09/tree-7030121_640.jpg",
        "src1280": "https://cdn.pixabay.com/photo/2022/02/23/06/09/tree-7030121_1280.jpg"
    },
    {
        "id": "5843929",
        "src640": "https://cdn.pixabay.com/photo/2020/12/19/09/55/rome-5843929_640.jpg",
        "src1280": "https://cdn.pixabay.com/photo/2020/12/19/09/55/rome-5843929_1280.jpg"
    },
    {
        "id": "2575172",
        "src640": "https://cdn.pixabay.com/photo/2017/08/03/09/23/segovia-spain-2575172_640.jpg",
        "src1280": "https://cdn.pixabay.com/photo/2017/08/03/09/23/segovia-spain-2575172_1280.jpg"
    },
    {
        "id": "5465336",
        "src640": "https://cdn.pixabay.com/photo/2020/08/05/12/36/tower-5465336_640.jpg",
        "src1280": "https://cdn.pixabay.com/photo/2020/08/05/12/36/tower-5465336_1280.jpg"
    },
    {
        "id": "7881258",
        "src640": "https://cdn.pixabay.com/photo/2023/03/27/17/25/buildings-7881258_640.jpg",
        "src1280": "https://cdn.pixabay.com/photo/2023/03/27/17/25/buildings-7881258_1280.jpg"
    },
    {
        "id": "5977612",
        "src640": "https://cdn.pixabay.com/photo/2021/02/03/11/34/man-5977612_640.jpg",
        "src1280": "https://cdn.pixabay.com/photo/2021/02/03/11/34/man-5977612_1280.jpg"
    },
    {
        "id": "1705994",
        "src640": "https://cdn.pixabay.com/photo/2016/09/30/18/33/crane-1705994_640.jpg",
        "src1280": "https://cdn.pixabay.com/photo/2016/09/30/18/33/crane-1705994_1280.jpg"
    },
    {
        "id": "836254",
        "src640": "https://cdn.pixabay.com/photo/2015/07/08/11/46/ludwigskirche-836254_640.jpg",
        "src1280": "https://cdn.pixabay.com/photo/2015/07/08/11/46/ludwigskirche-836254_1280.jpg"
    },
    {
        "id": "7771797",
        "src640": "https://cdn.pixabay.com/photo/2023/02/06/11/18/buildings-7771797_640.jpg",
        "src1280": "https://cdn.pixabay.com/photo/2023/02/06/11/18/buildings-7771797_1280.jpg"
    },
    {
        "id": "3969913",
        "src640": "https://cdn.pixabay.com/photo/2019/02/01/22/03/chesapeake-bay-3969913_640.jpg",
        "src1280": "https://cdn.pixabay.com/photo/2019/02/01/22/03/chesapeake-bay-3969913_1280.jpg"
    },
    {
        "id": "239578",
        "src640": "https://cdn.pixabay.com/photo/2014/01/06/20/06/umhlanga-lighthouse-239578_640.jpg",
        "src1280": "https://cdn.pixabay.com/photo/2014/01/06/20/06/umhlanga-lighthouse-239578_1280.jpg"
    },
    {
        "id": "2724720",
        "src640": "https://cdn.pixabay.com/photo/2017/09/07/11/13/city-2724720_640.jpg",
        "src1280": "https://cdn.pixabay.com/photo/2017/09/07/11/13/city-2724720_1280.jpg"
    },
    {
        "id": "1237170",
        "src640": "https://cdn.pixabay.com/photo/2016/03/05/04/31/lighthouse-1237170_640.jpg",
        "src1280": "https://cdn.pixabay.com/photo/2016/03/05/04/31/lighthouse-1237170_1280.jpg"
    },
    {
        "id": "6793530",
        "src640": "https://cdn.pixabay.com/photo/2021/11/14/07/23/buildings-6793530_640.jpg",
        "src1280": "https://cdn.pixabay.com/photo/2021/11/14/07/23/buildings-6793530_1280.jpg"
    },
    {
        "id": "6559659",
        "src640": "https://cdn.pixabay.com/photo/2021/08/20/07/04/building-6559659_640.jpg",
        "src1280": "https://cdn.pixabay.com/photo/2021/08/20/07/04/building-6559659_1280.jpg"
    },
    {
        "id": "6590209",
        "src640": "https://cdn.pixabay.com/photo/2021/08/31/22/07/buildings-6590209_640.jpg",
        "src1280": "https://cdn.pixabay.com/photo/2021/08/31/22/07/buildings-6590209_1280.jpg"
    }
]