[
    {
        "id": "372670",
        "src640": "https://cdn.pixabay.com/photo/2014/06/19/19/59/door-372670_640.jpg",
        "src1280": "https://cdn.pixabay.com/photo/2014/06/19/19/59/door-372670_1280.jpg"
    },
    {
        "id": "6340809",
        "src640": "https://cdn.pixabay.com/photo/2021/06/16/10/15/beijing-galaxy-soho-6340809_640.jpg",
        "src1280": "https://cdn.pixabay.com/photo/2021/06/16/10/15/beijing-galaxy-soho-6340809_1280.jpg"
    },
    {
        "id": "102179",
        "src640": "https://cdn.pixabay.com/photo/2013/04/09/12/38/bamberg-102179_640.jpg",
        "src1280": "https://cdn.pixabay.com/photo/2013/04/09/12/38/bamberg-102179_1280.jpg"
    },
    {
        "id": "8459",
        "src640": "https://cdn.pixabay.com/photo/2011/08/03/01/57/baukran-8459_640.jpg",
        "src1280": "https://cdn.pixabay.com/photo/2011/08/03/01/57/baukran-8459_1280.jpg"
    },
    {
        "id": "4898277",
        "src640": "https://cdn.pixabay.com/photo/2020/03/03/10/22/building-4898277_640.jpg",
        "src1280": "https://cdn.pixabay.com/photo/2020/03/03/10/22/building-4898277_1280.jpg"
    },
    {
        "id": "900005",
        "src640": "https://cdn.pixabay.com/photo/2015/08/22/00/47/teamwork-900005_640.jpg",
        "src1280": "https://cdn.pixabay.com/photo/2015/08/22/00/47/teamwork-900005_1280.jpg"
    },
    {
        "id": "2710842",
        "src640": "https://cdn.pixabay.com/photo/2017/09/03/15/48/scaffold-2710842_640.jpg",
        "src1280": "https://cdn.pixabay.com/photo/2017/09/03/15/48/scaffold-2710842_1280.jpg"
    },
    {
        "id": "3558356",
        "src640": "https://cdn.pixabay.com/photo/2018/07/24/02/53/building-3558356_640.jpg",
        "src1280": "https://cdn.pixabay.com/photo/2018/07/24/02/53/building-3558356_1280.jpg"
    },
    {
        "id": "5073136",
        "src640": "https://cdn.pixabay.com/photo/2020/04/21/13/34/yard-5073136_640.jpg",
        "src1280": "https://cdn.pixabay.com/photo/2020/04/21/13/34/yard-5073136_1280.jpg"
    },
    {
        "id": "4928722",
        "src640": "https://cdn.pixabay.com/photo/2020/03/13/18/00/colombia-4928722_640.jpg",
        "src1280": "https://cdn.pixabay.com/photo/2020/03/13/18/00/colombia-4928722_1280.jpg"
    },
    {
        "id": "2555775",
        "src640": "https://cdn.pixabay.com/photo/2017/07/30/21/54/auschwitz-2555775_640.jpg",
        "src1280": "https://cdn.pixabay.com/photo/2017/07/30/21/54/auschwitz-2555775_1280.jpg"
    },
    {
        "id": "3832069",
        "src640": "https://cdn.pixabay.com/photo/2018/11/22/14/31/liver-building-3832069_640.jpg",
        "src1280": "https://cdn.pixabay.com/photo/2018/11/22/14/31/liver-building-3832069_1280.jpg"
    },
    {
        "id": "3724880",
        "src640": "https://cdn.pixabay.com/photo/2018/10/05/01/16/stairs-3724880_640.jpg",
        "src1280": "https://cdn.pixabay.com/photo/2018/10/05/01/16/stairs-3724880_1280.jpg"
    },
    {
        "id": "1362399",
        "src640": "https://cdn.pixabay.com/photo/2016/04/30/05/00/tower-1362399_640.jpg",
        "src1280": "https://cdn.pixabay.com/photo/2016/04/30/05/00/tower-1362399_1280.jpg"
    },
    {
        "id": "4679160",
        "src640": "https://cdn.pixabay.com/photo/2019/12/07/11/23/gdansk-4679160_640.jpg",
        "src1280": "https://cdn.pixabay.com/photo/2019/12/07/11/23/gdansk-4679160_1280.jpg"
    },
    {
        "id": "2599056",
        "src640": "https://cdn.pixabay.com/photo/2017/08/07/02/58/architecture-2599056_640.jpg",
        "src1280": "https://cdn.pixabay.com/photo/2017/08/07/02/58/architecture-2599056_1280.jpg"
    },
    {
        "id": "3193574",
        "src640": "https://cdn.pixabay.com/photo/2018/03/02/16/33/skyscraper-3193574_640.jpg",
        "src1280": "https://cdn.pixabay.com/photo/2018/03/02/16/33/skyscraper-3193574_1280.jpg"
    },
    {
        "id": "5330624",
        "src640": "https://cdn.pixabay.com/photo/2020/06/22/21/14/city-5330624_640.jpg",
        "src1280": "https://cdn.pixabay.com/photo/2020/06/22/21/14/city-5330624_1280.jpg"
    },
    {
        "id": "4939494",
        "src640": "https://cdn.pixabay.com/photo/2020/03/17/09/03/munich-4939494_640.jpg",
        "src1280": "https://cdn.pixabay.com/photo/2020/03/17/09/03/munich-4939494_1280.jpg"
    },
    {
        "id": "792043",
        "src640": "https://cdn.pixabay.com/photo/2015/05/31/14/56/brick-792043_640.jpg",
        "src1280": "https://cdn.pixabay.com/photo/2015/05/31/14/56/brick-792043_1280.jpg"
    },
    {
        "id": "5200542",
        "src640": "https://cdn.pixabay.com/photo/2020/05/21/12/22/mill-5200542_640.jpg",
        "src1280": "https://cdn.pixabay.com/photo/2020/05/21/12/22/mill-5200542_1280.jpg"
    },
    {
        "id": "326841",
        "src640": "https://cdn.pixabay.com/photo/2014/04/17/21/43/chicago-326841_640.jpg",
        "src1280": "https://cdn.pixabay.com/photo/2014/04/17/21/43/chicago-326841_1280.jpg"
    },
    {
        "id": "3357333",
        "src640": "https://cdn.pixabay.com/photo/2018/04/28/13/49/architecture-3357333_640.jpg",
        "src1280": "https://cdn.pixabay.com/photo/2018/04/28/13/49/architecture-3357333_1280.jpg"
    },
    {
        "id": "7063869",
        "src640": "https://cdn.pixabay.com/photo/2022/03/12/09/47/statue-7063869_640.jpg",
        "src1280": "https://cdn.pixabay.com/photo/2022/03/12/09/47/statue-7063869_1280.jpg"
    },
    {
        "id": "832",
        "src640": "https://cdn.pixabay.com/photo/2010/12/02/tower-832_640.jpg",
        "src1280": "https://cdn.pixabay.com/photo/2010/12/02/tower-832_1280.jpg"
    },
    {
        "id": "2571291",
        "src640": "https://cdn.pixabay.com/photo/2017/08/02/12/11/architecture-2571291_640.jpg",
        "src1280": "https://cdn.pixabay.com/photo/2017/08/02/12/11/architecture-2571291_1280.jpg"
    },
    {
        "id": "7989834",
        "src640": "https://cdn.pixabay.com/photo/2023/05/13/07/06/girlie-7989834_640.jpg",
        "src1280": "https://cdn.pixabay.com/photo/2023/05/13/07/06/girlie-7989834_1280.jpg"
    },
    {
        "id": "6967573",
        "src640": "https://cdn.pixabay.com/photo/2022/01/25/23/58/door-6967573_640.jpg",
        "src1280": "https://cdn.pixabay.com/photo/2022/01/25/23/58/door-6967573_1280.jpg"
    },
    {
        "id": "5761939",
        "src640": "https://cdn.pixabay.com/photo/2020/11/20/15/33/lake-5761939_640.jpg",
        "src1280": "https://cdn.pixabay.com/photo/2020/11/20/15/33/lake-5761939_1280.jpg"
    },
    {
        "id": "5201103",
        "src640": "https://cdn.pixabay.com/photo/2020/05/21/14/43/ruin-5201103_640.jpg",
        "src1280": "https://cdn.pixabay.com/photo/2020/05/21/14/43/ruin-5201103_1280.jpg"
    },
    {
        "id": "5377673",
        "src640": "https://cdn.pixabay.com/photo/2020/07/06/17/03/konigstein-5377673_640.jpg",
        "src1280": "https://cdn.pixabay.com/photo/2020/07/06/17/03/konigstein-5377673_1280.jpg"
    },
    {
        "id": "4724134",
        "src640": "https://cdn.pixabay.com/photo/2019/12/28/08/27/staircase-4724134_640.jpg",
        "src1280": "https://cdn.pixabay.com/photo/2019/12/28/08/27/staircase-4724134_1280.jpg"
    },
    {
        "id": "8133333",
        "src640": "https://cdn.pixabay.com/photo/2023/07/17/19/02/ai-generated-8133333_640.jpg",
        "src1280": "https://cdn.pixabay.com/photo/2023/07/17/19/02/ai-generated-8133333_1280.jpg"
    },
    {
        "id": "4304477",
        "src640": "https://cdn.pixabay.com/photo/2019/06/28/16/25/capitol-4304477_640.jpg",
        "src1280": "https://cdn.pixabay.com/photo/2019/06/28/16/25/capitol-4304477_1280.jpg"
    },
    {
        "id": "4265310",
        "src640": "https://cdn.pixabay.com/photo/2019/06/10/20/51/dubai-4265310_640.jpg",
        "src1280": "https://cdn.pixabay.com/photo/2019/06/10/20/51/dubai-4265310_1280.jpg"
    },
    {
        "id": "326473",
        "src640": "https://cdn.pixabay.com/photo/2014/04/17/13/16/segovia-326473_640.jpg",
        "src1280": "https://cdn.pixabay.com/photo/2014/04/17/13/16/segovia-326473_1280.jpg"
    },
    {
        "id": "252107",
        "src640": "https://cdn.pixabay.com/photo/2014/01/26/12/37/ghent-252107_640.jpg",
        "src1280": "https://cdn.pixabay.com/photo/2014/01/26/12/37/ghent-252107_1280.jpg"
    },
    {
        "id": "3424628",
        "src640": "https://cdn.pixabay.com/photo/2018/05/23/18/00/germany-3424628_640.jpg",
        "src1280": "https://cdn.pixabay.com/photo/2018/05/23/18/00/germany-3424628_1280.jpg"
    },
    {
        "id": "2589384",
        "src640": "https://cdn.pixabay.com/photo/2017/08/06/06/13/architecture-2589384_640.jpg",
        "src1280": "https://cdn.pixabay.com/photo/2017/08/06/06/13/architecture-2589384_1280.jpg"
    },
    {
        "id": "3726131",
        "src640": "https://cdn.pixabay.com/photo/2018/10/05/15/23/building-3726131_640.jpg",
        "src1280": "https://cdn.pixabay.com/photo/2018/10/05/15/23/building-3726131_1280.jpg"
    },
    {
        "id": "4161615",
        "src640": "https://cdn.pixabay.com/photo/2019/04/27/23/16/cologne-4161615_640.jpg",
        "src1280": "https://cdn.pixabay.com/photo/2019/04/27/23/16/cologne-4161615_1280.jpg"
    },
    {
        "id": "4000027",
        "src640": "https://cdn.pixabay.com/photo/2019/02/16/10/15/great-wall-4000027_640.jpg",
        "src1280": "https://cdn.pixabay.com/photo/2019/02/16/10/15/great-wall-4000027_1280.jpg"
    },
    {
        "id": "3737044",
        "src640": "https://cdn.pixabay.com/photo/2018/10/10/11/35/sochi-3737044_640.jpg",
        "src1280": "https://cdn.pixabay.com/photo/2018/10/10/11/35/sochi-3737044_1280.jpg"
    },
    {
        "id": "2156816",
        "src640": "https://cdn.pixabay.com/photo/2017/03/19/15/20/limburger-dom-2156816_640.jpg",
        "src1280": "https://cdn.pixabay.com/photo/2017/03/19/15/20/limburger-dom-2156816_1280.jpg"
    },
    {
        "id": "5442071",
        "src640": "https://cdn.pixabay.com/photo/2020/07/27/10/53/building-5442071_640.jpg",
        "src1280": "https://cdn.pixabay.com/photo/2020/07/27/10/53/building-5442071_1280.jpg"
    },
    {
        "id": "3645968",
        "src640": "https://cdn.pixabay.com/photo/2018/09/01/03/03/greece-3645968_640.jpg",
        "src1280": "https://cdn.pixabay.com/photo/2018/09/01/03/03/greece-3645968_1280.jpg"
    },
    {
        "id": "1066330",
        "src640": "https://cdn.pixabay.com/photo/2015/11/27/20/29/siena-cathedral-1066330_640.jpg",
        "src1280": "https://cdn.pixabay.com/photo/2015/11/27/20/29/siena-cathedral-1066330_1280.jpg"
    },
    {
        "id": "184530",
        "src640": "https://cdn.pixabay.com/photo/2013/09/21/14/21/architecture-184530_640.jpg",
        "src1280": "https://cdn.pixabay.com/photo/2013/09/21/14/21/architecture-184530_1280.jpg"
    },
    {
        "id": "5962974",
        "src640": "https://cdn.pixabay.com/photo/2021/01/30/06/24/man-5962974_640.jpg",
        "src1280": "https://cdn.pixabay.com/photo/2021/01/30/06/24/man-5962974_1280.jpg"
    },
    {
        "id": "7885490",
        "src640": "https://cdn.pixabay.com/photo/2023/03/29/13/40/urban-7885490_640.jpg",
        "src1280": "https://cdn.pixabay.com/photo/2023/03/29/13/40/urban-7885490_1280.jpg"
    },
    {
        "id": "4821080",
        "src640": "https://cdn.pixabay.com/photo/2020/02/05/12/22/church-4821080_640.jpg",
        "src1280": "https://cdn.pixabay.com/photo/2020/02/05/12/22/church-4821080_1280.jpg"
    },
    {
        "id": "4392946",
        "src640": "https://cdn.pixabay.com/photo/2019/08/08/12/50/japan-4392946_640.jpg",
        "src1280": "https://cdn.pixabay.com/photo/2019/08/08/12/50/japan-4392946_1280.jpg"
    },
    {
        "id": "7014434",
        "src640": "https://cdn.pixabay.com/photo/2022/02/15/07/28/building-7014434_640.jpg",
        "src1280": "https://cdn.pixabay.com/photo/2022/02/15/07/28/building-7014434_1280.jpg"
    },
    {
        "id": "7931568",
        "src640": "https://cdn.pixabay.com/photo/2023/04/17/03/26/man-7931568_640.jpg",
        "src1280": "https://cdn.pixabay.com/photo/2023/04/17/03/26/man-7931568_1280.jpg"
    },
    {
        "id": "6777019",
        "src640": "https://cdn.pixabay.com/photo/2021/11/07/16/20/art-6777019_640.jpg",
        "src1280": "https://cdn.pixabay.com/photo/2021/11/07/16/20/art-6777019_1280.jpg"
    },
    {
        "id": "5024131",
        "src640": "https://cdn.pixabay.com/photo/2020/04/10/05/31/skyscraper-5024131_640.jpg",
        "src1280": "https://cdn.pixabay.com/photo/2020/04/10/05/31/skyscraper-5024131_1280.jpg"
    },
    {
        "id": "6526514",
        "src640": "https://cdn.pixabay.com/photo/2021/08/06/14/59/architecture-6526514_640.jpg",
        "src1280": "https://cdn.pixabay.com/photo/2021/08/06/14/59/architecture-6526514_1280.jpg"
    },
    {
        "id": "4840582",
        "src640": "https://cdn.pixabay.com/photo/2020/02/11/18/27/asia-4840582_640.jpg",
        "src1280": "https://cdn.pixabay.com/photo/2020/02/11/18/27/asia-4840582_1280.jpg"
    },
    {
        "id": "3679310",
        "src640": "https://cdn.pixabay.com/photo/2018/09/15/12/38/scaffolding-3679310_640.jpg",
        "src1280": "https://cdn.pixabay.com/photo/2018/09/15/12/38/scaffolding-3679310_1280.jpg"
    },
    {
        "id": "4517772",
        "src640": "https://cdn.pixabay.com/photo/2019/10/01/10/11/door-4517772_640.jpg",
        "src1280": "https://cdn.pixabay.com/photo/2019/10/01/10/11/door-4517772_1280.jpg"
    },
    {
        "id": "3983864",
        "src640": "https://cdn.pixabay.com/photo/2019/02/08/19/50/tower-3983864_640.jpg",
        "src1280": "https://cdn.pixabay.com/photo/2019/02/08/19/50/tower-3983864_1280.jpg"
    },
    {
        "id": "4806184",
        "src640": "https://cdn.pixabay.com/photo/2020/01/30/18/25/city-4806184_640.jpg",
        "src1280": "https://cdn.pixabay.com/photo/2020/01/30/18/25/city-4806184_1280.jpg"
    },
    {
        "id": "2645984",
        "src640": "https://cdn.pixabay.com/photo/2017/08/15/23/27/london-2645984_640.jpg",
        "src1280": "https://cdn.pixabay.com/photo/2017/08/15/23/27/london-2645984_1280.jpg"
    },
    {
        "id": "466531",
        "src640": "https://cdn.pixabay.com/photo/2014/09/29/21/19/us-capitol-466531_640.jpg",
        "src1280": "https://cdn.pixabay.com/photo/2014/09/29/21/19/us-capitol-466531_1280.jpg"
    },
    {
        "id": "3632924",
        "src640": "https://cdn.pixabay.com/photo/2018/08/26/18/36/architecture-3632924_640.jpg",
        "src1280": "https://cdn.pixabay.com/photo/2018/08/26/18/36/architecture-3632924_1280.jpg"
    },
    {
        "id": "456334",
        "src640": "https://cdn.pixabay.com/photo/2014/09/22/14/17/sighisoara-456334_640.jpg",
        "src1280": "https://cdn.pixabay.com/photo/2014/09/22/14/17/sighisoara-456334_1280.jpg"
    },
    {
        "id": "2107370",
        "src640": "https://cdn.pixabay.com/photo/2017/03/01/03/03/blue-sky-2107370_640.jpg",
        "src1280": "https://cdn.pixabay.com/photo/2017/03/01/03/03/blue-sky-2107370_1280.jpg"
    },
    {
        "id": "7671373",
        "src640": "https://cdn.pixabay.com/photo/2022/12/22/03/06/ai-generated-7671373_640.jpg",
        "src1280": "https://cdn.pixabay.com/photo/2022/12/22/03/06/ai-generated-7671373_1280.jpg"
    },
    {
        "id": "4692335",
        "src640": "https://cdn.pixabay.com/photo/2019/12/13/06/45/city-view-4692335_640.jpg",
        "src1280": "https://cdn.pixabay.com/photo/2019/12/13/06/45/city-view-4692335_1280.jpg"
    },
    {
        "id": "4478329",
        "src640": "https://cdn.pixabay.com/photo/2019/09/15/13/57/avenue-4478329_640.jpg",
        "src1280": "https://cdn.pixabay.com/photo/2019/09/15/13/57/avenue-4478329_1280.jpg"
    },
    {
        "id": "1753767",
        "src640": "https://cdn.pixabay.com/photo/2016/10/19/19/19/glass-ball-1753767_640.jpg",
        "src1280": "https://cdn.pixabay.com/photo/2016/10/19/19/19/glass-ball-1753767_1280.jpg"
    },
    {
        "id": "21531",
        "src640": "https://cdn.pixabay.com/photo/2012/03/03/23/06/architecture-21531_640.jpg",
        "src1280": "https://cdn.pixabay.com/photo/2012/03/03/23/06/architecture-21531_1280.jpg"
    },
    {
        "id": "547396",
        "src640": "https://cdn.pixabay.com/photo/2014/11/27/11/11/university-of-stuttgart-547396_640.jpg",
        "src1280": "https://cdn.pixabay.com/photo/2014/11/27/11/11/university-of-stuttgart-547396_1280.jpg"
    },
    {
        "id": "4952160",
        "src640": "https://cdn.pixabay.com/photo/2020/03/20/22/16/sky-4952160_640.jpg",
        "src1280": "https://cdn.pixabay.com/photo/2020/03/20/22/16/sky-4952160_1280.jpg"
    },
    {
        "id": "231682",
        "src640": "https://cdn.pixabay.com/photo/2013/12/21/13/37/facade-231682_640.jpg",
        "src1280": "https://cdn.pixabay.com/photo/2013/12/21/13/37/facade-231682_1280.jpg"
    },
    {
        "id": "3157613",
        "src640": "https://cdn.pixabay.com/photo/2018/02/16/12/43/architecture-3157613_640.jpg",
        "src1280": "https://cdn.pixabay.com/photo/2018/02/16/12/43/architecture-3157613_1280.jpg"
    },
    {
        "id": "5682387",
        "src640": "https://cdn.pixabay.com/photo/2020/10/24/19/12/castle-5682387_640.jpg",
        "src1280": "https://cdn.pixabay.com/photo/2020/10/24/19/12/castle-5682387_1280.jpg"
    },
    {
        "id": "5761940",
        "src640": "https://cdn.pixabay.com/photo/2020/11/20/15/33/lake-5761940_640.jpg",
        "src1280": "https://cdn.pixabay.com/photo/2020/11/20/15/33/lake-5761940_1280.jpg"
    },
    {
        "id": "4777896",
        "src640": "https://cdn.pixabay.com/photo/2020/01/19/13/49/dom-4777896_640.jpg",
        "src1280": "https://cdn.pixabay.com/photo/2020/01/19/13/49/dom-4777896_1280.jpg"
    },
    {
        "id": "4495258",
        "src640": "https://cdn.pixabay.com/photo/2019/09/22/06/47/torre-agbar-4495258_640.jpg",
        "src1280": "https://cdn.pixabay.com/photo/2019/09/22/06/47/torre-agbar-4495258_1280.jpg"
    },
    {
        "id": "1029558",
        "src640": "https://cdn.pixabay.com/photo/2015/11/06/16/31/church-1029558_640.jpg",
        "src1280": "https://cdn.pixabay.com/photo/2015/11/06/16/31/church-1029558_1280.jpg"
    },
    {
        "id": "106722",
        "src640": "https://cdn.pixabay.com/photo/2013/04/23/13/43/france-106722_640.jpg",
        "src1280": "https://cdn.pixabay.com/photo/2013/04/23/13/43/france-106722_1280.jpg"
    },
    {
        "id": "2645400",
        "src640": "https://cdn.pixabay.com/photo/2017/08/15/20/15/capital-hill-2645400_640.jpg",
        "src1280": "https://cdn.pixabay.com/photo/2017/08/15/20/15/capital-hill-2645400_1280.jpg"
    },
    {
        "id": "3170789",
        "src640": "https://cdn.pixabay.com/photo/2018/02/21/16/32/architecture-3170789_640.jpg",
        "src1280": "https://cdn.pixabay.com/photo/2018/02/21/16/32/architecture-3170789_1280.jpg"
    },
    {
        "id": "3591127",
        "src640": "https://cdn.pixabay.com/photo/2018/08/08/00/42/architecture-3591127_640.jpg",
        "src1280": "https://cdn.pixabay.com/photo/2018/08/08/00/42/architecture-3591127_1280.jpg"
    },
    {
        "id": "5162455",
        "src640": "https://cdn.pixabay.com/photo/2020/05/12/11/11/city-5162455_640.jpg",
        "src1280": "https://cdn.pixabay.com/photo/2020/05/12/11/11/city-5162455_1280.jpg"
    },
    {
        "id": "4694915",
        "src640": "https://cdn.pixabay.com/photo/2019/12/14/14/05/taj-mahal-4694915_640.jpg",
        "src1280": "https://cdn.pixabay.com/photo/2019/12/14/14/05/taj-mahal-4694915_1280.jpg"
    },
    {
        "id": "3304817",
        "src640": "https://cdn.pixabay.com/photo/2018/04/09/17/43/wall-3304817_640.jpg",
        "src1280": "https://cdn.pixabay.com/photo/2018/04/09/17/43/wall-3304817_1280.jpg"
    },
    {
        "id": "85537",
        "src640": "https://cdn.pixabay.com/photo/2013/02/23/21/03/washington-dc-85537_640.jpg",
        "src1280": "https://cdn.pixabay.com/photo/2013/02/23/21/03/washington-dc-85537_1280.jpg"
    },
    {
        "id": "5178729",
        "src640": "https://cdn.pixabay.com/photo/2020/05/16/18/53/russia-5178729_640.jpg",
        "src1280": "https://cdn.pixabay.com/photo/2020/05/16/18/53/russia-5178729_1280.jpg"
    },
    {
        "id": "5756762",
        "src640": "https://cdn.pixabay.com/photo/2020/11/18/21/12/lighthouse-5756762_640.jpg",
        "src1280": "https://cdn.pixabay.com/photo/2020/11/18/21/12/lighthouse-5756762_1280.jpg"
    },
    {
        "id": "173209",
        "src640": "https://cdn.pixabay.com/photo/2013/08/16/18/03/great-wall-173209_640.jpg",
        "src1280": "https://cdn.pixabay.com/photo/2013/08/16/18/03/great-wall-173209_1280.jpg"
    },
    {
        "id": "4811919",
        "src640": "https://cdn.pixabay.com/photo/2020/02/02/03/25/watercolour-4811919_640.jpg",
        "src1280": "https://cdn.pixabay.com/photo/2020/02/02/03/25/watercolour-4811919_1280.jpg"
    },
    {
        "id": "4438479",
        "src640": "https://cdn.pixabay.com/photo/2019/08/29/08/21/architecture-4438479_640.jpg",
        "src1280": "https://cdn.pixabay.com/photo/2019/08/29/08/21/architecture-4438479_1280.jpg"
    },
    {
        "id": "834491",
        "src640": "https://cdn.pixabay.com/photo/2015/07/07/15/51/italy-834491_640.jpg",
        "src1280": "https://cdn.pixabay.com/photo/2015/07/07/15/51/italy-834491_1280.jpg"
    }
]