[
    {
        "id": "398845",
        "src640": "https://cdn.pixabay.com/photo/2014/07/21/19/20/lobby-398845_640.jpg",
        "src1280": "https://cdn.pixabay.com/photo/2014/07/21/19/20/lobby-398845_1280.jpg"
    },
    {
        "id": "4884852",
        "src640": "https://cdn.pixabay.com/photo/2020/02/27/14/33/building-4884852_640.jpg",
        "src1280": "https://cdn.pixabay.com/photo/2020/02/27/14/33/building-4884852_1280.jpg"
    },
    {
        "id": "4335215",
        "src640": "https://cdn.pixabay.com/photo/2019/07/13/16/30/architecture-4335215_640.jpg",
        "src1280": "https://cdn.pixabay.com/photo/2019/07/13/16/30/architecture-4335215_1280.jpg"
    },
    {
        "id": "7518536",
        "src640": "https://cdn.pixabay.com/photo/2022/10/13/07/54/crane-houses-7518536_640.jpg",
        "src1280": "https://cdn.pixabay.com/photo/2022/10/13/07/54/crane-houses-7518536_1280.jpg"
    },
    {
        "id": "8198875",
        "src640": "https://cdn.pixabay.com/photo/2023/08/18/16/15/stairs-8198875_640.jpg",
        "src1280": "https://cdn.pixabay.com/photo/2023/08/18/16/15/stairs-8198875_1280.jpg"
    },
    {
        "id": "4119806",
        "src640": "https://cdn.pixabay.com/photo/2019/04/11/13/38/city-4119806_640.jpg",
        "src1280": "https://cdn.pixabay.com/photo/2019/04/11/13/38/city-4119806_1280.jpg"
    },
    {
        "id": "5818603",
        "src640": "https://cdn.pixabay.com/photo/2020/12/09/21/11/stairs-5818603_640.jpg",
        "src1280": "https://cdn.pixabay.com/photo/2020/12/09/21/11/stairs-5818603_1280.jpg"
    },
    {
        "id": "2178868",
        "src640": "https://cdn.pixabay.com/photo/2017/03/27/13/52/person-2178868_640.jpg",
        "src1280": "https://cdn.pixabay.com/photo/2017/03/27/13/52/person-2178868_1280.jpg"
    },
    {
        "id": "1846023",
        "src640": "https://cdn.pixabay.com/photo/2016/11/21/15/40/architecture-1846023_640.jpg",
        "src1280": "https://cdn.pixabay.com/photo/2016/11/21/15/40/architecture-1846023_1280.jpg"
    },
    {
        "id": "5747420",
        "src640": "https://cdn.pixabay.com/photo/2020/11/15/22/08/temple-5747420_640.jpg",
        "src1280": "https://cdn.pixabay.com/photo/2020/11/15/22/08/temple-5747420_1280.jpg"
    },
    {
        "id": "2289426",
        "src640": "https://cdn.pixabay.com/photo/2017/05/06/10/18/bridge-2289426_640.jpg",
        "src1280": "https://cdn.pixabay.com/photo/2017/05/06/10/18/bridge-2289426_1280.jpg"
    },
    {
        "id": "5582974",
        "src640": "https://cdn.pixabay.com/photo/2020/09/18/21/12/buildings-5582974_640.jpg",
        "src1280": "https://cdn.pixabay.com/photo/2020/09/18/21/12/buildings-5582974_1280.jpg"
    },
    {
        "id": "6384758",
        "src640": "https://cdn.pixabay.com/photo/2021/07/03/19/56/paris-6384758_640.jpg",
        "src1280": "https://cdn.pixabay.com/photo/2021/07/03/19/56/paris-6384758_1280.jpg"
    },
    {
        "id": "5677823",
        "src640": "https://cdn.pixabay.com/photo/2020/10/23/06/23/city-5677823_640.jpg",
        "src1280": "https://cdn.pixabay.com/photo/2020/10/23/06/23/city-5677823_1280.jpg"
    },
    {
        "id": "4029048",
        "src640": "https://cdn.pixabay.com/photo/2019/03/02/02/02/neon-4029048_640.jpg",
        "src1280": "https://cdn.pixabay.com/photo/2019/03/02/02/02/neon-4029048_1280.jpg"
    },
    {
        "id": "3572287",
        "src640": "https://cdn.pixabay.com/photo/2018/07/30/10/54/moon-3572287_640.jpg",
        "src1280": "https://cdn.pixabay.com/photo/2018/07/30/10/54/moon-3572287_1280.jpg"
    },
    {
        "id": "2212102",
        "src640": "https://cdn.pixabay.com/photo/2017/04/07/23/22/washington-state-2212102_640.jpg",
        "src1280": "https://cdn.pixabay.com/photo/2017/04/07/23/22/washington-state-2212102_1280.jpg"
    },
    {
        "id": "3475649",
        "src640": "https://cdn.pixabay.com/photo/2018/06/14/21/11/girl-3475649_640.jpg",
        "src1280": "https://cdn.pixabay.com/photo/2018/06/14/21/11/girl-3475649_1280.jpg"
    },
    {
        "id": "4303275",
        "src640": "https://cdn.pixabay.com/photo/2019/06/28/00/16/london-4303275_640.jpg",
        "src1280": "https://cdn.pixabay.com/photo/2019/06/28/00/16/london-4303275_1280.jpg"
    },
    {
        "id": "5523630",
        "src640": "https://cdn.pixabay.com/photo/2020/08/28/06/13/building-5523630_640.jpg",
        "src1280": "https://cdn.pixabay.com/photo/2020/08/28/06/13/building-5523630_1280.jpg"
    },
    {
        "id": "4226137",
        "src640": "https://cdn.pixabay.com/photo/2019/05/24/12/19/lighthouse-4226137_640.jpg",
        "src1280": "https://cdn.pixabay.com/photo/2019/05/24/12/19/lighthouse-4226137_1280.jpg"
    },
    {
        "id": "7711283",
        "src640": "https://cdn.pixabay.com/photo/2023/01/11/09/30/trees-7711283_640.jpg",
        "src1280": "https://cdn.pixabay.com/photo/2023/01/11/09/30/trees-7711283_1280.jpg"
    },
    {
        "id": "6290417",
        "src640": "https://cdn.pixabay.com/photo/2021/05/28/10/05/kunsthistorisches-museum-6290417_640.jpg",
        "src1280": "https://cdn.pixabay.com/photo/2021/05/28/10/05/kunsthistorisches-museum-6290417_1280.jpg"
    },
    {
        "id": "540830",
        "src640": "https://cdn.pixabay.com/photo/2014/11/21/17/37/abandoned-540830_640.jpg",
        "src1280": "https://cdn.pixabay.com/photo/2014/11/21/17/37/abandoned-540830_1280.jpg"
    },
    {
        "id": "2435391",
        "src640": "https://cdn.pixabay.com/photo/2017/06/23/17/41/morocco-2435391_640.jpg",
        "src1280": "https://cdn.pixabay.com/photo/2017/06/23/17/41/morocco-2435391_1280.jpg"
    },
    {
        "id": "410266",
        "src640": "https://cdn.pixabay.com/photo/2014/08/05/09/37/building-410266_640.jpg",
        "src1280": "https://cdn.pixabay.com/photo/2014/08/05/09/37/building-410266_1280.jpg"
    },
    {
        "id": "2893844",
        "src640": "https://cdn.pixabay.com/photo/2017/10/27/10/27/architecture-2893844_640.jpg",
        "src1280": "https://cdn.pixabay.com/photo/2017/10/27/10/27/architecture-2893844_1280.jpg"
    },
    {
        "id": "4011964",
        "src640": "https://cdn.pixabay.com/photo/2019/02/21/18/52/paris-4011964_640.jpg",
        "src1280": "https://cdn.pixabay.com/photo/2019/02/21/18/52/paris-4011964_1280.jpg"
    },
    {
        "id": "3592777",
        "src640": "https://cdn.pixabay.com/photo/2018/08/08/17/48/man-3592777_640.jpg",
        "src1280": "https://cdn.pixabay.com/photo/2018/08/08/17/48/man-3592777_1280.jpg"
    },
    {
        "id": "5519945",
        "src640": "https://cdn.pixabay.com/photo/2020/08/26/16/15/taj-mahal-5519945_640.jpg",
        "src1280": "https://cdn.pixabay.com/photo/2020/08/26/16/15/taj-mahal-5519945_1280.jpg"
    },
    {
        "id": "5317948",
        "src640": "https://cdn.pixabay.com/photo/2020/06/19/16/00/city-5317948_640.jpg",
        "src1280": "https://cdn.pixabay.com/photo/2020/06/19/16/00/city-5317948_1280.jpg"
    },
    {
        "id": "6210374",
        "src640": "https://cdn.pixabay.com/photo/2021/04/27/02/49/batemans-tower-6210374_640.jpg",
        "src1280": "https://cdn.pixabay.com/photo/2021/04/27/02/49/batemans-tower-6210374_1280.jpg"
    },
    {
        "id": "7405403",
        "src640": "https://cdn.pixabay.com/photo/2022/08/23/09/03/house-7405403_640.jpg",
        "src1280": "https://cdn.pixabay.com/photo/2022/08/23/09/03/house-7405403_1280.jpg"
    },
    {
        "id": "7130386",
        "src640": "https://cdn.pixabay.com/photo/2022/04/13/13/56/old-building-7130386_640.jpg",
        "src1280": "https://cdn.pixabay.com/photo/2022/04/13/13/56/old-building-7130386_1280.jpg"
    },
    {
        "id": "6604492",
        "src640": "https://cdn.pixabay.com/photo/2021/09/07/17/26/sultan-ahmet-mosque-6604492_640.jpg",
        "src1280": "https://cdn.pixabay.com/photo/2021/09/07/17/26/sultan-ahmet-mosque-6604492_1280.jpg"
    },
    {
        "id": "1850092",
        "src640": "https://cdn.pixabay.com/photo/2016/11/22/19/10/architecture-1850092_640.jpg",
        "src1280": "https://cdn.pixabay.com/photo/2016/11/22/19/10/architecture-1850092_1280.jpg"
    },
    {
        "id": "7947727",
        "src640": "https://cdn.pixabay.com/photo/2023/04/24/10/16/architecture-7947727_640.jpg",
        "src1280": "https://cdn.pixabay.com/photo/2023/04/24/10/16/architecture-7947727_1280.jpg"
    },
    {
        "id": "7231312",
        "src640": "https://cdn.pixabay.com/photo/2022/05/30/14/24/stairs-7231312_640.jpg",
        "src1280": "https://cdn.pixabay.com/photo/2022/05/30/14/24/stairs-7231312_1280.jpg"
    },
    {
        "id": "7568043",
        "src640": "https://cdn.pixabay.com/photo/2022/11/03/17/55/hall-7568043_640.jpg",
        "src1280": "https://cdn.pixabay.com/photo/2022/11/03/17/55/hall-7568043_1280.jpg"
    },
    {
        "id": "5987976",
        "src640": "https://cdn.pixabay.com/photo/2021/02/06/12/31/dresden-5987976_640.jpg",
        "src1280": "https://cdn.pixabay.com/photo/2021/02/06/12/31/dresden-5987976_1280.jpg"
    },
    {
        "id": "4321233",
        "src640": "https://cdn.pixabay.com/photo/2019/07/06/20/47/arch-4321233_640.jpg",
        "src1280": "https://cdn.pixabay.com/photo/2019/07/06/20/47/arch-4321233_1280.jpg"
    },
    {
        "id": "6153752",
        "src640": "https://cdn.pixabay.com/photo/2021/04/05/14/55/mosque-6153752_640.jpg",
        "src1280": "https://cdn.pixabay.com/photo/2021/04/05/14/55/mosque-6153752_1280.jpg"
    },
    {
        "id": "5697134",
        "src640": "https://cdn.pixabay.com/photo/2020/10/29/19/56/lighthouse-5697134_640.jpg",
        "src1280": "https://cdn.pixabay.com/photo/2020/10/29/19/56/lighthouse-5697134_1280.jpg"
    },
    {
        "id": "5051779",
        "src640": "https://cdn.pixabay.com/photo/2020/04/16/18/05/stairs-5051779_640.jpg",
        "src1280": "https://cdn.pixabay.com/photo/2020/04/16/18/05/stairs-5051779_1280.jpg"
    },
    {
        "id": "4368774",
        "src640": "https://cdn.pixabay.com/photo/2019/07/28/14/00/street-4368774_640.jpg",
        "src1280": "https://cdn.pixabay.com/photo/2019/07/28/14/00/street-4368774_1280.jpg"
    },
    {
        "id": "2179337",
        "src640": "https://cdn.pixabay.com/photo/2017/03/27/15/17/apartment-2179337_640.jpg",
        "src1280": "https://cdn.pixabay.com/photo/2017/03/27/15/17/apartment-2179337_1280.jpg"
    },
    {
        "id": "3117027",
        "src640": "https://cdn.pixabay.com/photo/2018/01/29/19/53/doors-3117027_640.jpg",
        "src1280": "https://cdn.pixabay.com/photo/2018/01/29/19/53/doors-3117027_1280.jpg"
    },
    {
        "id": "108198",
        "src640": "https://cdn.pixabay.com/photo/2013/04/30/15/28/door-108198_640.jpg",
        "src1280": "https://cdn.pixabay.com/photo/2013/04/30/15/28/door-108198_1280.jpg"
    },
    {
        "id": "7518551",
        "src640": "https://cdn.pixabay.com/photo/2022/10/13/08/01/crane-houses-7518551_640.jpg",
        "src1280": "https://cdn.pixabay.com/photo/2022/10/13/08/01/crane-houses-7518551_1280.jpg"
    },
    {
        "id": "4433572",
        "src640": "https://cdn.pixabay.com/photo/2019/08/27/07/33/skyscraper-4433572_640.jpg",
        "src1280": "https://cdn.pixabay.com/photo/2019/08/27/07/33/skyscraper-4433572_1280.jpg"
    },
    {
        "id": "418189",
        "src640": "https://cdn.pixabay.com/photo/2014/08/14/18/51/skyscraper-418189_640.jpg",
        "src1280": "https://cdn.pixabay.com/photo/2014/08/14/18/51/skyscraper-418189_1280.jpg"
    },
    {
        "id": "7314495",
        "src640": "https://cdn.pixabay.com/photo/2022/07/11/08/44/tower-7314495_640.jpg",
        "src1280": "https://cdn.pixabay.com/photo/2022/07/11/08/44/tower-7314495_1280.jpg"
    },
    {
        "id": "6115719",
        "src640": "https://cdn.pixabay.com/photo/2021/03/22/21/04/house-6115719_640.jpg",
        "src1280": "https://cdn.pixabay.com/photo/2021/03/22/21/04/house-6115719_1280.jpg"
    },
    {
        "id": "246224",
        "src640": "https://cdn.pixabay.com/photo/2014/01/16/08/06/skyscrapers-246224_640.jpg",
        "src1280": "https://cdn.pixabay.com/photo/2014/01/16/08/06/skyscrapers-246224_1280.jpg"
    },
    {
        "id": "2845272",
        "src640": "https://cdn.pixabay.com/photo/2017/10/12/18/09/venice-2845272_640.jpg",
        "src1280": "https://cdn.pixabay.com/photo/2017/10/12/18/09/venice-2845272_1280.jpg"
    },
    {
        "id": "1707664",
        "src640": "https://cdn.pixabay.com/photo/2016/10/01/14/27/dom-1707664_640.jpg",
        "src1280": "https://cdn.pixabay.com/photo/2016/10/01/14/27/dom-1707664_1280.jpg"
    },
    {
        "id": "5691858",
        "src640": "https://cdn.pixabay.com/photo/2020/10/27/20/28/church-5691858_640.jpg",
        "src1280": "https://cdn.pixabay.com/photo/2020/10/27/20/28/church-5691858_1280.jpg"
    },
    {
        "id": "3728729",
        "src640": "https://cdn.pixabay.com/photo/2018/10/06/21/03/church-3728729_640.jpg",
        "src1280": "https://cdn.pixabay.com/photo/2018/10/06/21/03/church-3728729_1280.jpg"
    },
    {
        "id": "5773586",
        "src640": "https://cdn.pixabay.com/photo/2020/11/24/18/58/mosque-5773586_640.jpg",
        "src1280": "https://cdn.pixabay.com/photo/2020/11/24/18/58/mosque-5773586_1280.jpg"
    },
    {
        "id": "7454482",
        "src640": "https://cdn.pixabay.com/photo/2022/09/14/14/36/window-7454482_640.jpg",
        "src1280": "https://cdn.pixabay.com/photo/2022/09/14/14/36/window-7454482_1280.jpg"
    },
    {
        "id": "7305702",
        "src640": "https://cdn.pixabay.com/photo/2022/07/06/17/52/window-7305702_640.jpg",
        "src1280": "https://cdn.pixabay.com/photo/2022/07/06/17/52/window-7305702_1280.jpg"
    },
    {
        "id": "3460420",
        "src640": "https://cdn.pixabay.com/photo/2018/06/07/16/37/church-3460420_640.jpg",
        "src1280": "https://cdn.pixabay.com/photo/2018/06/07/16/37/church-3460420_1280.jpg"
    },
    {
        "id": "6276653",
        "src640": "https://cdn.pixabay.com/photo/2021/05/23/16/21/switzerland-6276653_640.jpg",
        "src1280": "https://cdn.pixabay.com/photo/2021/05/23/16/21/switzerland-6276653_1280.jpg"
    },
    {
        "id": "5043172",
        "src640": "https://cdn.pixabay.com/photo/2020/04/14/15/35/capital-5043172_640.jpg",
        "src1280": "https://cdn.pixabay.com/photo/2020/04/14/15/35/capital-5043172_1280.jpg"
    },
    {
        "id": "5475279",
        "src640": "https://cdn.pixabay.com/photo/2020/08/09/11/30/bar-5475279_640.jpg",
        "src1280": "https://cdn.pixabay.com/photo/2020/08/09/11/30/bar-5475279_1280.jpg"
    },
    {
        "id": "3862645",
        "src640": "https://cdn.pixabay.com/photo/2018/12/08/00/30/rome-3862645_640.jpg",
        "src1280": "https://cdn.pixabay.com/photo/2018/12/08/00/30/rome-3862645_1280.jpg"
    },
    {
        "id": "8229349",
        "src640": "https://cdn.pixabay.com/photo/2023/09/02/18/07/berlin-8229349_640.jpg",
        "src1280": "https://cdn.pixabay.com/photo/2023/09/02/18/07/berlin-8229349_1280.jpg"
    },
    {
        "id": "6603394",
        "src640": "https://cdn.pixabay.com/photo/2021/09/07/09/23/building-6603394_640.jpg",
        "src1280": "https://cdn.pixabay.com/photo/2021/09/07/09/23/building-6603394_1280.jpg"
    },
    {
        "id": "5736078",
        "src640": "https://cdn.pixabay.com/photo/2020/11/12/16/55/road-5736078_640.jpg",
        "src1280": "https://cdn.pixabay.com/photo/2020/11/12/16/55/road-5736078_1280.jpg"
    },
    {
        "id": "8373618",
        "src640": "https://cdn.pixabay.com/photo/2023/11/07/22/59/building-8373618_640.jpg",
        "src1280": "https://cdn.pixabay.com/photo/2023/11/07/22/59/building-8373618_1280.jpg"
    },
    {
        "id": "5880068",
        "src640": "https://cdn.pixabay.com/photo/2021/01/01/21/31/halloween-5880068_640.jpg",
        "src1280": "https://cdn.pixabay.com/photo/2021/01/01/21/31/halloween-5880068_1280.jpg"
    },
    {
        "id": "7579247",
        "src640": "https://cdn.pixabay.com/photo/2022/11/08/20/20/building-7579247_640.jpg",
        "src1280": "https://cdn.pixabay.com/photo/2022/11/08/20/20/building-7579247_1280.jpg"
    },
    {
        "id": "4270853",
        "src640": "https://cdn.pixabay.com/photo/2019/06/13/06/41/arch-4270853_640.jpg",
        "src1280": "https://cdn.pixabay.com/photo/2019/06/13/06/41/arch-4270853_1280.jpg"
    },
    {
        "id": "5303864",
        "src640": "https://cdn.pixabay.com/photo/2020/06/16/01/40/buildings-5303864_640.jpg",
        "src1280": "https://cdn.pixabay.com/photo/2020/06/16/01/40/buildings-5303864_1280.jpg"
    },
    {
        "id": "8173913",
        "src640": "https://cdn.pixabay.com/photo/2023/08/06/22/35/lifeguard-tower-8173913_640.jpg",
        "src1280": "https://cdn.pixabay.com/photo/2023/08/06/22/35/lifeguard-tower-8173913_1280.jpg"
    },
    {
        "id": "6508068",
        "src640": "https://cdn.pixabay.com/photo/2021/07/29/20/47/church-6508068_640.jpg",
        "src1280": "https://cdn.pixabay.com/photo/2021/07/29/20/47/church-6508068_1280.jpg"
    },
    {
        "id": "4353082",
        "src640": "https://cdn.pixabay.com/photo/2019/07/21/16/29/paris-4353082_640.jpg",
        "src1280": "https://cdn.pixabay.com/photo/2019/07/21/16/29/paris-4353082_1280.jpg"
    },
    {
        "id": "7101309",
        "src640": "https://cdn.pixabay.com/photo/2022/03/30/14/55/holiday-home-7101309_640.jpg",
        "src1280": "https://cdn.pixabay.com/photo/2022/03/30/14/55/holiday-home-7101309_1280.jpg"
    },
    {
        "id": "1581920",
        "src640": "https://cdn.pixabay.com/photo/2016/08/09/22/01/church-1581920_640.jpg",
        "src1280": "https://cdn.pixabay.com/photo/2016/08/09/22/01/church-1581920_1280.jpg"
    },
    {
        "id": "4009534",
        "src640": "https://cdn.pixabay.com/photo/2019/02/20/17/00/nubble-4009534_640.jpg",
        "src1280": "https://cdn.pixabay.com/photo/2019/02/20/17/00/nubble-4009534_1280.jpg"
    },
    {
        "id": "6528080",
        "src640": "https://cdn.pixabay.com/photo/2021/08/07/08/50/staircase-6528080_640.jpg",
        "src1280": "https://cdn.pixabay.com/photo/2021/08/07/08/50/staircase-6528080_1280.jpg"
    },
    {
        "id": "4542153",
        "src640": "https://cdn.pixabay.com/photo/2019/10/11/15/56/mill-4542153_640.jpg",
        "src1280": "https://cdn.pixabay.com/photo/2019/10/11/15/56/mill-4542153_1280.jpg"
    },
    {
        "id": "6792168",
        "src640": "https://cdn.pixabay.com/photo/2021/11/13/19/27/architecture-6792168_640.jpg",
        "src1280": "https://cdn.pixabay.com/photo/2021/11/13/19/27/architecture-6792168_1280.jpg"
    },
    {
        "id": "6467081",
        "src640": "https://cdn.pixabay.com/photo/2021/07/14/21/53/building-6467081_640.jpg",
        "src1280": "https://cdn.pixabay.com/photo/2021/07/14/21/53/building-6467081_1280.jpg"
    },
    {
        "id": "6276765",
        "src640": "https://cdn.pixabay.com/photo/2021/05/23/17/17/man-6276765_640.jpg",
        "src1280": "https://cdn.pixabay.com/photo/2021/05/23/17/17/man-6276765_1280.jpg"
    },
    {
        "id": "4989538",
        "src640": "https://cdn.pixabay.com/photo/2020/03/31/23/27/rome-4989538_640.jpg",
        "src1280": "https://cdn.pixabay.com/photo/2020/03/31/23/27/rome-4989538_1280.jpg"
    },
    {
        "id": "4775942",
        "src640": "https://cdn.pixabay.com/photo/2020/01/18/17/33/street-4775942_640.jpg",
        "src1280": "https://cdn.pixabay.com/photo/2020/01/18/17/33/street-4775942_1280.jpg"
    },
    {
        "id": "4778380",
        "src640": "https://cdn.pixabay.com/photo/2020/01/19/16/42/image-4778380_640.jpg",
        "src1280": "https://cdn.pixabay.com/photo/2020/01/19/16/42/image-4778380_1280.jpg"
    },
    {
        "id": "5729165",
        "src640": "https://cdn.pixabay.com/photo/2020/11/10/10/08/architecture-5729165_640.jpg",
        "src1280": "https://cdn.pixabay.com/photo/2020/11/10/10/08/architecture-5729165_1280.jpg"
    },
    {
        "id": "5587351",
        "src640": "https://cdn.pixabay.com/photo/2020/09/20/14/53/corridor-5587351_640.jpg",
        "src1280": "https://cdn.pixabay.com/photo/2020/09/20/14/53/corridor-5587351_1280.jpg"
    },
    {
        "id": "5446839",
        "src640": "https://cdn.pixabay.com/photo/2020/07/29/03/58/child-5446839_640.jpg",
        "src1280": "https://cdn.pixabay.com/photo/2020/07/29/03/58/child-5446839_1280.jpg"
    },
    {
        "id": "6023441",
        "src640": "https://cdn.pixabay.com/photo/2021/02/17/08/02/woman-6023441_640.jpg",
        "src1280": "https://cdn.pixabay.com/photo/2021/02/17/08/02/woman-6023441_1280.jpg"
    },
    {
        "id": "4843615",
        "src640": "https://cdn.pixabay.com/photo/2020/02/12/18/57/architecture-4843615_640.jpg",
        "src1280": "https://cdn.pixabay.com/photo/2020/02/12/18/57/architecture-4843615_1280.jpg"
    },
    {
        "id": "4810454",
        "src640": "https://cdn.pixabay.com/photo/2020/02/01/14/06/architecture-4810454_640.jpg",
        "src1280": "https://cdn.pixabay.com/photo/2020/02/01/14/06/architecture-4810454_1280.jpg"
    }
]