[
    {
        "id": "7696196",
        "src640": "https://cdn.pixabay.com/photo/2023/01/04/08/34/building-7696196_640.jpg",
        "src1280": "https://cdn.pixabay.com/photo/2023/01/04/08/34/building-7696196_1280.jpg"
    },
    {
        "id": "2778467",
        "src640": "https://cdn.pixabay.com/photo/2017/09/23/10/59/crane-2778467_640.jpg",
        "src1280": "https://cdn.pixabay.com/photo/2017/09/23/10/59/crane-2778467_1280.jpg"
    },
    {
        "id": "6077890",
        "src640": "https://cdn.pixabay.com/photo/2021/03/08/01/04/clock-tower-6077890_640.jpg",
        "src1280": "https://cdn.pixabay.com/photo/2021/03/08/01/04/clock-tower-6077890_1280.jpg"
    },
    {
        "id": "4936846",
        "src640": "https://cdn.pixabay.com/photo/2020/03/16/12/13/antique-4936846_640.jpg",
        "src1280": "https://cdn.pixabay.com/photo/2020/03/16/12/13/antique-4936846_1280.jpg"
    },
    {
        "id": "5505361",
        "src640": "https://cdn.pixabay.com/photo/2020/08/21/06/12/building-5505361_640.jpg",
        "src1280": "https://cdn.pixabay.com/photo/2020/08/21/06/12/building-5505361_1280.jpg"
    },
    {
        "id": "6838499",
        "src640": "https://cdn.pixabay.com/photo/2021/12/01/16/43/city-6838499_640.jpg",
        "src1280": "https://cdn.pixabay.com/photo/2021/12/01/16/43/city-6838499_1280.jpg"
    },
    {
        "id": "4964184",
        "src640": "https://cdn.pixabay.com/photo/2020/03/24/14/00/church-4964184_640.jpg",
        "src1280": "https://cdn.pixabay.com/photo/2020/03/24/14/00/church-4964184_1280.jpg"
    },
    {
        "id": "4350178",
        "src640": "https://cdn.pixabay.com/photo/2019/07/20/05/59/window-4350178_640.jpg",
        "src1280": "https://cdn.pixabay.com/photo/2019/07/20/05/59/window-4350178_1280.jpg"
    },
    {
        "id": "183885",
        "src640": "https://cdn.pixabay.com/photo/2013/09/19/16/58/space-183885_640.jpg",
        "src1280": "https://cdn.pixabay.com/photo/2013/09/19/16/58/space-183885_1280.jpg"
    },
    {
        "id": "370594",
        "src640": "https://cdn.pixabay.com/photo/2014/06/17/16/58/manhattan-370594_640.jpg",
        "src1280": "https://cdn.pixabay.com/photo/2014/06/17/16/58/manhattan-370594_1280.jpg"
    },
    {
        "id": "3287818",
        "src640": "https://cdn.pixabay.com/photo/2018/04/03/19/53/house-3287818_640.jpg",
        "src1280": "https://cdn.pixabay.com/photo/2018/04/03/19/53/house-3287818_1280.jpg"
    },
    {
        "id": "4613391",
        "src640": "https://cdn.pixabay.com/photo/2019/11/09/11/39/marseille-4613391_640.jpg",
        "src1280": "https://cdn.pixabay.com/photo/2019/11/09/11/39/marseille-4613391_1280.jpg"
    },
    {
        "id": "5772196",
        "src640": "https://cdn.pixabay.com/photo/2020/11/24/11/09/building-5772196_640.jpg",
        "src1280": "https://cdn.pixabay.com/photo/2020/11/24/11/09/building-5772196_1280.jpg"
    },
    {
        "id": "4881509",
        "src640": "https://cdn.pixabay.com/photo/2020/02/26/11/42/building-4881509_640.jpg",
        "src1280": "https://cdn.pixabay.com/photo/2020/02/26/11/42/building-4881509_1280.jpg"
    },
    {
        "id": "4738837",
        "src640": "https://cdn.pixabay.com/photo/2020/01/03/18/39/galata-4738837_640.jpg",
        "src1280": "https://cdn.pixabay.com/photo/2020/01/03/18/39/galata-4738837_1280.jpg"
    },
    {
        "id": "2787572",
        "src640": "https://cdn.pixabay.com/photo/2017/09/26/03/04/man-2787572_640.jpg",
        "src1280": "https://cdn.pixabay.com/photo/2017/09/26/03/04/man-2787572_1280.jpg"
    },
    {
        "id": "7103485",
        "src640": "https://cdn.pixabay.com/photo/2022/03/31/17/55/kungure-7103485_640.jpg",
        "src1280": "https://cdn.pixabay.com/photo/2022/03/31/17/55/kungure-7103485_1280.jpg"
    },
    {
        "id": "4457816",
        "src640": "https://cdn.pixabay.com/photo/2019/09/07/02/27/bogota-4457816_640.jpg",
        "src1280": "https://cdn.pixabay.com/photo/2019/09/07/02/27/bogota-4457816_1280.jpg"
    },
    {
        "id": "4971616",
        "src640": "https://cdn.pixabay.com/photo/2020/03/26/19/46/basel-4971616_640.jpg",
        "src1280": "https://cdn.pixabay.com/photo/2020/03/26/19/46/basel-4971616_1280.jpg"
    },
    {
        "id": "3867845",
        "src640": "https://cdn.pixabay.com/photo/2018/12/10/21/59/statue-3867845_640.jpg",
        "src1280": "https://cdn.pixabay.com/photo/2018/12/10/21/59/statue-3867845_1280.jpg"
    },
    {
        "id": "939129",
        "src640": "https://cdn.pixabay.com/photo/2015/09/14/04/53/nanjing-939129_640.jpg",
        "src1280": "https://cdn.pixabay.com/photo/2015/09/14/04/53/nanjing-939129_1280.jpg"
    },
    {
        "id": "6147958",
        "src640": "https://cdn.pixabay.com/photo/2021/04/03/15/16/church-6147958_640.jpg",
        "src1280": "https://cdn.pixabay.com/photo/2021/04/03/15/16/church-6147958_1280.jpg"
    },
    {
        "id": "4262931",
        "src640": "https://cdn.pixabay.com/photo/2019/06/09/20/57/architecture-4262931_640.jpg",
        "src1280": "https://cdn.pixabay.com/photo/2019/06/09/20/57/architecture-4262931_1280.jpg"
    },
    {
        "id": "1785802",
        "src640": "https://cdn.pixabay.com/photo/2016/10/31/15/09/siena-1785802_640.jpg",
        "src1280": "https://cdn.pixabay.com/photo/2016/10/31/15/09/siena-1785802_1280.jpg"
    },
    {
        "id": "5245324",
        "src640": "https://cdn.pixabay.com/photo/2020/06/01/06/10/buildings-5245324_640.jpg",
        "src1280": "https://cdn.pixabay.com/photo/2020/06/01/06/10/buildings-5245324_1280.jpg"
    },
    {
        "id": "5958809",
        "src640": "https://cdn.pixabay.com/photo/2021/01/28/19/07/houses-5958809_640.jpg",
        "src1280": "https://cdn.pixabay.com/photo/2021/01/28/19/07/houses-5958809_1280.jpg"
    },
    {
        "id": "4060276",
        "src640": "https://cdn.pixabay.com/photo/2019/03/17/04/04/detroit-4060276_640.jpg",
        "src1280": "https://cdn.pixabay.com/photo/2019/03/17/04/04/detroit-4060276_1280.jpg"
    },
    {
        "id": "5158795",
        "src640": "https://cdn.pixabay.com/photo/2020/05/11/15/28/building-5158795_640.jpg",
        "src1280": "https://cdn.pixabay.com/photo/2020/05/11/15/28/building-5158795_1280.jpg"
    },
    {
        "id": "5929449",
        "src640": "https://cdn.pixabay.com/photo/2021/01/18/21/20/man-5929449_640.jpg",
        "src1280": "https://cdn.pixabay.com/photo/2021/01/18/21/20/man-5929449_1280.jpg"
    },
    {
        "id": "7251833",
        "src640": "https://cdn.pixabay.com/photo/2022/06/09/06/58/apartment-7251833_640.jpg",
        "src1280": "https://cdn.pixabay.com/photo/2022/06/09/06/58/apartment-7251833_1280.jpg"
    },
    {
        "id": "5551309",
        "src640": "https://cdn.pixabay.com/photo/2020/09/07/09/19/puddle-5551309_640.jpg",
        "src1280": "https://cdn.pixabay.com/photo/2020/09/07/09/19/puddle-5551309_1280.jpg"
    },
    {
        "id": "5013809",
        "src640": "https://cdn.pixabay.com/photo/2020/04/07/15/22/window-5013809_640.jpg",
        "src1280": "https://cdn.pixabay.com/photo/2020/04/07/15/22/window-5013809_1280.jpg"
    },
    {
        "id": "7570967",
        "src640": "https://cdn.pixabay.com/photo/2022/11/05/02/02/city-7570967_640.jpg",
        "src1280": "https://cdn.pixabay.com/photo/2022/11/05/02/02/city-7570967_1280.jpg"
    },
    {
        "id": "4483692",
        "src640": "https://cdn.pixabay.com/photo/2019/09/17/14/33/cement-4483692_640.jpg",
        "src1280": "https://cdn.pixabay.com/photo/2019/09/17/14/33/cement-4483692_1280.jpg"
    },
    {
        "id": "7052828",
        "src640": "https://cdn.pixabay.com/photo/2022/03/07/02/13/hallway-7052828_640.jpg",
        "src1280": "https://cdn.pixabay.com/photo/2022/03/07/02/13/hallway-7052828_1280.jpg"
    },
    {
        "id": "1179822",
        "src640": "https://cdn.pixabay.com/photo/2016/02/04/20/36/temple-1179822_640.jpg",
        "src1280": "https://cdn.pixabay.com/photo/2016/02/04/20/36/temple-1179822_1280.jpg"
    },
    {
        "id": "5185010",
        "src640": "https://cdn.pixabay.com/photo/2020/05/18/07/43/architecture-5185010_640.jpg",
        "src1280": "https://cdn.pixabay.com/photo/2020/05/18/07/43/architecture-5185010_1280.jpg"
    },
    {
        "id": "5258080",
        "src640": "https://cdn.pixabay.com/photo/2020/06/04/09/51/vinhomes-central-park-5258080_640.jpg",
        "src1280": "https://cdn.pixabay.com/photo/2020/06/04/09/51/vinhomes-central-park-5258080_1280.jpg"
    },
    {
        "id": "4816590",
        "src640": "https://cdn.pixabay.com/photo/2020/02/03/20/19/istanbul-4816590_640.jpg",
        "src1280": "https://cdn.pixabay.com/photo/2020/02/03/20/19/istanbul-4816590_1280.jpg"
    },
    {
        "id": "4746309",
        "src640": "https://cdn.pixabay.com/photo/2020/01/06/21/14/florence-4746309_640.jpg",
        "src1280": "https://cdn.pixabay.com/photo/2020/01/06/21/14/florence-4746309_1280.jpg"
    },
    {
        "id": "4945087",
        "src640": "https://cdn.pixabay.com/photo/2020/03/18/18/22/dublin-4945087_640.jpg",
        "src1280": "https://cdn.pixabay.com/photo/2020/03/18/18/22/dublin-4945087_1280.jpg"
    },
    {
        "id": "216046",
        "src640": "https://cdn.pixabay.com/photo/2013/11/22/23/28/bodie-216046_640.jpg",
        "src1280": "https://cdn.pixabay.com/photo/2013/11/22/23/28/bodie-216046_1280.jpg"
    },
    {
        "id": "8051523",
        "src640": "https://cdn.pixabay.com/photo/2023/06/09/11/47/city-8051523_640.jpg",
        "src1280": "https://cdn.pixabay.com/photo/2023/06/09/11/47/city-8051523_1280.jpg"
    },
    {
        "id": "4487467",
        "src640": "https://cdn.pixabay.com/photo/2019/09/18/18/42/lighthouse-4487467_640.jpg",
        "src1280": "https://cdn.pixabay.com/photo/2019/09/18/18/42/lighthouse-4487467_1280.jpg"
    },
    {
        "id": "6281",
        "src640": "https://cdn.pixabay.com/photo/2011/04/08/22/10/ulm-cathedral-6281_640.jpg",
        "src1280": "https://cdn.pixabay.com/photo/2011/04/08/22/10/ulm-cathedral-6281_1280.jpg"
    },
    {
        "id": "4825345",
        "src640": "https://cdn.pixabay.com/photo/2020/02/06/19/48/building-4825345_640.jpg",
        "src1280": "https://cdn.pixabay.com/photo/2020/02/06/19/48/building-4825345_1280.jpg"
    },
    {
        "id": "5708",
        "src640": "https://cdn.pixabay.com/photo/2011/03/24/09/49/house-5708_640.jpg",
        "src1280": "https://cdn.pixabay.com/photo/2011/03/24/09/49/house-5708_1280.jpg"
    },
    {
        "id": "4746056",
        "src640": "https://cdn.pixabay.com/photo/2020/01/06/19/30/church-4746056_640.jpg",
        "src1280": "https://cdn.pixabay.com/photo/2020/01/06/19/30/church-4746056_1280.jpg"
    },
    {
        "id": "6819900",
        "src640": "https://cdn.pixabay.com/photo/2021/11/23/23/55/athens-6819900_640.jpg",
        "src1280": "https://cdn.pixabay.com/photo/2021/11/23/23/55/athens-6819900_1280.jpg"
    },
    {
        "id": "2583791",
        "src640": "https://cdn.pixabay.com/photo/2017/08/05/13/57/architecture-2583791_640.jpg",
        "src1280": "https://cdn.pixabay.com/photo/2017/08/05/13/57/architecture-2583791_1280.jpg"
    },
    {
        "id": "6589235",
        "src640": "https://cdn.pixabay.com/photo/2021/08/31/16/03/city-6589235_640.jpg",
        "src1280": "https://cdn.pixabay.com/photo/2021/08/31/16/03/city-6589235_1280.jpg"
    },
    {
        "id": "4985514",
        "src640": "https://cdn.pixabay.com/photo/2020/03/30/21/33/architecture-4985514_640.jpg",
        "src1280": "https://cdn.pixabay.com/photo/2020/03/30/21/33/architecture-4985514_1280.jpg"
    },
    {
        "id": "4678582",
        "src640": "https://cdn.pixabay.com/photo/2019/12/07/03/18/portugal-4678582_640.jpg",
        "src1280": "https://cdn.pixabay.com/photo/2019/12/07/03/18/portugal-4678582_1280.jpg"
    },
    {
        "id": "6850883",
        "src640": "https://cdn.pixabay.com/photo/2021/12/06/16/36/city-6850883_640.jpg",
        "src1280": "https://cdn.pixabay.com/photo/2021/12/06/16/36/city-6850883_1280.jpg"
    },
    {
        "id": "7001907",
        "src640": "https://cdn.pixabay.com/photo/2022/02/08/18/19/clock-7001907_640.jpg",
        "src1280": "https://cdn.pixabay.com/photo/2022/02/08/18/19/clock-7001907_1280.jpg"
    },
    {
        "id": "7102120",
        "src640": "https://cdn.pixabay.com/photo/2022/03/31/03/10/wall-7102120_640.jpg",
        "src1280": "https://cdn.pixabay.com/photo/2022/03/31/03/10/wall-7102120_1280.jpg"
    },
    {
        "id": "3872368",
        "src640": "https://cdn.pixabay.com/photo/2018/12/13/08/16/camden-town-3872368_640.jpg",
        "src1280": "https://cdn.pixabay.com/photo/2018/12/13/08/16/camden-town-3872368_1280.jpg"
    },
    {
        "id": "51230",
        "src640": "https://cdn.pixabay.com/photo/2012/07/03/15/19/tower-51230_640.jpg",
        "src1280": "https://cdn.pixabay.com/photo/2012/07/03/15/19/tower-51230_1280.jpg"
    },
    {
        "id": "7503740",
        "src640": "https://cdn.pixabay.com/photo/2022/10/06/23/56/brick-7503740_640.jpg",
        "src1280": "https://cdn.pixabay.com/photo/2022/10/06/23/56/brick-7503740_1280.jpg"
    },
    {
        "id": "2939867",
        "src640": "https://cdn.pixabay.com/photo/2017/11/11/18/19/city-2939867_640.jpg",
        "src1280": "https://cdn.pixabay.com/photo/2017/11/11/18/19/city-2939867_1280.jpg"
    },
    {
        "id": "4526815",
        "src640": "https://cdn.pixabay.com/photo/2019/10/05/02/07/closeup-4526815_640.jpg",
        "src1280": "https://cdn.pixabay.com/photo/2019/10/05/02/07/closeup-4526815_1280.jpg"
    },
    {
        "id": "5023281",
        "src640": "https://cdn.pixabay.com/photo/2020/04/09/22/09/lighthouse-5023281_640.jpg",
        "src1280": "https://cdn.pixabay.com/photo/2020/04/09/22/09/lighthouse-5023281_1280.jpg"
    },
    {
        "id": "3273900",
        "src640": "https://cdn.pixabay.com/photo/2018/03/29/22/38/road-3273900_640.jpg",
        "src1280": "https://cdn.pixabay.com/photo/2018/03/29/22/38/road-3273900_1280.jpg"
    },
    {
        "id": "2575781",
        "src640": "https://cdn.pixabay.com/photo/2017/08/03/11/47/synagogue-2575781_640.jpg",
        "src1280": "https://cdn.pixabay.com/photo/2017/08/03/11/47/synagogue-2575781_1280.jpg"
    },
    {
        "id": "5110683",
        "src640": "https://cdn.pixabay.com/photo/2020/04/29/21/39/house-5110683_640.jpg",
        "src1280": "https://cdn.pixabay.com/photo/2020/04/29/21/39/house-5110683_1280.jpg"
    },
    {
        "id": "4042041",
        "src640": "https://cdn.pixabay.com/photo/2019/03/08/09/58/durham-4042041_640.jpg",
        "src1280": "https://cdn.pixabay.com/photo/2019/03/08/09/58/durham-4042041_1280.jpg"
    },
    {
        "id": "5337930",
        "src640": "https://cdn.pixabay.com/photo/2020/06/24/22/45/moated-castle-5337930_640.jpg",
        "src1280": "https://cdn.pixabay.com/photo/2020/06/24/22/45/moated-castle-5337930_1280.jpg"
    },
    {
        "id": "4138563",
        "src640": "https://cdn.pixabay.com/photo/2019/04/19/04/03/tower-4138563_640.jpg",
        "src1280": "https://cdn.pixabay.com/photo/2019/04/19/04/03/tower-4138563_1280.jpg"
    },
    {
        "id": "4779681",
        "src640": "https://cdn.pixabay.com/photo/2020/01/20/07/21/building-4779681_640.jpg",
        "src1280": "https://cdn.pixabay.com/photo/2020/01/20/07/21/building-4779681_1280.jpg"
    },
    {
        "id": "2595468",
        "src640": "https://cdn.pixabay.com/photo/2017/08/06/19/22/structure-2595468_640.jpg",
        "src1280": "https://cdn.pixabay.com/photo/2017/08/06/19/22/structure-2595468_1280.jpg"
    },
    {
        "id": "4516489",
        "src640": "https://cdn.pixabay.com/photo/2019/09/30/18/21/speyer-4516489_640.jpg",
        "src1280": "https://cdn.pixabay.com/photo/2019/09/30/18/21/speyer-4516489_1280.jpg"
    },
    {
        "id": "6598099",
        "src640": "https://cdn.pixabay.com/photo/2021/09/04/15/37/pagoda-6598099_640.jpg",
        "src1280": "https://cdn.pixabay.com/photo/2021/09/04/15/37/pagoda-6598099_1280.jpg"
    },
    {
        "id": "4484548",
        "src640": "https://cdn.pixabay.com/photo/2019/09/17/21/00/venice-4484548_640.jpg",
        "src1280": "https://cdn.pixabay.com/photo/2019/09/17/21/00/venice-4484548_1280.jpg"
    },
    {
        "id": "4967606",
        "src640": "https://cdn.pixabay.com/photo/2020/03/25/15/15/karlstejn-4967606_640.jpg",
        "src1280": "https://cdn.pixabay.com/photo/2020/03/25/15/15/karlstejn-4967606_1280.jpg"
    },
    {
        "id": "5319108",
        "src640": "https://cdn.pixabay.com/photo/2020/06/19/23/03/neu-zauche-5319108_640.jpg",
        "src1280": "https://cdn.pixabay.com/photo/2020/06/19/23/03/neu-zauche-5319108_1280.jpg"
    },
    {
        "id": "6741711",
        "src640": "https://cdn.pixabay.com/photo/2021/10/25/18/19/bremervorde-6741711_640.jpg",
        "src1280": "https://cdn.pixabay.com/photo/2021/10/25/18/19/bremervorde-6741711_1280.jpg"
    },
    {
        "id": "82828",
        "src640": "https://cdn.pixabay.com/photo/2013/02/18/17/40/venice-82828_640.jpg",
        "src1280": "https://cdn.pixabay.com/photo/2013/02/18/17/40/venice-82828_1280.jpg"
    },
    {
        "id": "5353294",
        "src640": "https://cdn.pixabay.com/photo/2020/06/29/16/33/sky-5353294_640.jpg",
        "src1280": "https://cdn.pixabay.com/photo/2020/06/29/16/33/sky-5353294_1280.jpg"
    },
    {
        "id": "5312543",
        "src640": "https://cdn.pixabay.com/photo/2020/06/18/08/48/church-5312543_640.jpg",
        "src1280": "https://cdn.pixabay.com/photo/2020/06/18/08/48/church-5312543_1280.jpg"
    },
    {
        "id": "5181487",
        "src640": "https://cdn.pixabay.com/photo/2020/05/17/12/57/builders-5181487_640.jpg",
        "src1280": "https://cdn.pixabay.com/photo/2020/05/17/12/57/builders-5181487_1280.jpg"
    },
    {
        "id": "996532",
        "src640": "https://cdn.pixabay.com/photo/2015/10/19/18/56/architecture-996532_640.jpg",
        "src1280": "https://cdn.pixabay.com/photo/2015/10/19/18/56/architecture-996532_1280.jpg"
    },
    {
        "id": "4385513",
        "src640": "https://cdn.pixabay.com/photo/2019/08/05/08/52/time-4385513_640.jpg",
        "src1280": "https://cdn.pixabay.com/photo/2019/08/05/08/52/time-4385513_1280.jpg"
    },
    {
        "id": "6927622",
        "src640": "https://cdn.pixabay.com/photo/2022/01/10/08/19/street-6927622_640.jpg",
        "src1280": "https://cdn.pixabay.com/photo/2022/01/10/08/19/street-6927622_1280.jpg"
    },
    {
        "id": "4834727",
        "src640": "https://cdn.pixabay.com/photo/2020/02/09/22/01/graz-4834727_640.jpg",
        "src1280": "https://cdn.pixabay.com/photo/2020/02/09/22/01/graz-4834727_1280.jpg"
    },
    {
        "id": "5536265",
        "src640": "https://cdn.pixabay.com/photo/2020/09/01/19/40/woman-5536265_640.jpg",
        "src1280": "https://cdn.pixabay.com/photo/2020/09/01/19/40/woman-5536265_1280.jpg"
    },
    {
        "id": "5090475",
        "src640": "https://cdn.pixabay.com/photo/2020/04/25/11/54/city-5090475_640.jpg",
        "src1280": "https://cdn.pixabay.com/photo/2020/04/25/11/54/city-5090475_1280.jpg"
    },
    {
        "id": "4908094",
        "src640": "https://cdn.pixabay.com/photo/2020/03/06/20/29/building-4908094_640.jpg",
        "src1280": "https://cdn.pixabay.com/photo/2020/03/06/20/29/building-4908094_1280.jpg"
    },
    {
        "id": "5360064",
        "src640": "https://cdn.pixabay.com/photo/2020/07/01/15/50/skyscraper-5360064_640.jpg",
        "src1280": "https://cdn.pixabay.com/photo/2020/07/01/15/50/skyscraper-5360064_1280.jpg"
    },
    {
        "id": "4703470",
        "src640": "https://cdn.pixabay.com/photo/2019/12/18/08/56/columns-4703470_640.jpg",
        "src1280": "https://cdn.pixabay.com/photo/2019/12/18/08/56/columns-4703470_1280.jpg"
    },
    {
        "id": "5433410",
        "src640": "https://cdn.pixabay.com/photo/2020/07/24/09/42/architecture-5433410_640.jpg",
        "src1280": "https://cdn.pixabay.com/photo/2020/07/24/09/42/architecture-5433410_1280.jpg"
    },
    {
        "id": "4569661",
        "src640": "https://cdn.pixabay.com/photo/2019/10/22/19/35/bridge-4569661_640.jpg",
        "src1280": "https://cdn.pixabay.com/photo/2019/10/22/19/35/bridge-4569661_1280.jpg"
    },
    {
        "id": "4631261",
        "src640": "https://cdn.pixabay.com/photo/2019/11/16/22/43/gasometer-4631261_640.jpg",
        "src1280": "https://cdn.pixabay.com/photo/2019/11/16/22/43/gasometer-4631261_1280.jpg"
    },
    {
        "id": "1633813",
        "src640": "https://cdn.pixabay.com/photo/2016/08/31/15/11/duren-1633813_640.jpg",
        "src1280": "https://cdn.pixabay.com/photo/2016/08/31/15/11/duren-1633813_1280.jpg"
    },
    {
        "id": "1142035",
        "src640": "https://cdn.pixabay.com/photo/2016/01/15/16/51/london-1142035_640.jpg",
        "src1280": "https://cdn.pixabay.com/photo/2016/01/15/16/51/london-1142035_1280.jpg"
    },
    {
        "id": "3840860",
        "src640": "https://cdn.pixabay.com/photo/2018/11/27/06/30/architecture-3840860_640.jpg",
        "src1280": "https://cdn.pixabay.com/photo/2018/11/27/06/30/architecture-3840860_1280.jpg"
    },
    {
        "id": "4840088",
        "src640": "https://cdn.pixabay.com/photo/2020/02/11/16/26/firenze-4840088_640.jpg",
        "src1280": "https://cdn.pixabay.com/photo/2020/02/11/16/26/firenze-4840088_1280.jpg"
    },
    {
        "id": "2736446",
        "src640": "https://cdn.pixabay.com/photo/2017/09/10/18/21/nyc-2736446_640.jpg",
        "src1280": "https://cdn.pixabay.com/photo/2017/09/10/18/21/nyc-2736446_1280.jpg"
    },
    {
        "id": "4459560",
        "src640": "https://cdn.pixabay.com/photo/2019/09/07/19/26/tour-saint-antoine-4459560_640.jpg",
        "src1280": "https://cdn.pixabay.com/photo/2019/09/07/19/26/tour-saint-antoine-4459560_1280.jpg"
    }
]