[
    {
        "id": "52531",
        "src640": "https://cdn.pixabay.com/photo/2012/07/19/02/07/house-52531_640.jpg",
        "src1280": "https://cdn.pixabay.com/photo/2012/07/19/02/07/house-52531_1280.jpg"
    },
    {
        "id": "6995296",
        "src640": "https://cdn.pixabay.com/photo/2022/02/05/16/58/tower-6995296_640.jpg",
        "src1280": "https://cdn.pixabay.com/photo/2022/02/05/16/58/tower-6995296_1280.jpg"
    },
    {
        "id": "4729269",
        "src640": "https://cdn.pixabay.com/photo/2019/12/30/09/45/stairs-4729269_640.jpg",
        "src1280": "https://cdn.pixabay.com/photo/2019/12/30/09/45/stairs-4729269_1280.jpg"
    },
    {
        "id": "1612732",
        "src640": "https://cdn.pixabay.com/photo/2016/08/22/19/28/montgomery-1612732_640.jpg",
        "src1280": "https://cdn.pixabay.com/photo/2016/08/22/19/28/montgomery-1612732_1280.jpg"
    },
    {
        "id": "6128868",
        "src640": "https://cdn.pixabay.com/photo/2021/03/27/16/12/city-6128868_640.jpg",
        "src1280": "https://cdn.pixabay.com/photo/2021/03/27/16/12/city-6128868_1280.jpg"
    },
    {
        "id": "291920",
        "src640": "https://cdn.pixabay.com/photo/2014/03/21/09/33/bicycle-291920_640.jpg",
        "src1280": "https://cdn.pixabay.com/photo/2014/03/21/09/33/bicycle-291920_1280.jpg"
    },
    {
        "id": "6238445",
        "src640": "https://cdn.pixabay.com/photo/2021/05/08/13/39/hallstatt-6238445_640.jpg",
        "src1280": "https://cdn.pixabay.com/photo/2021/05/08/13/39/hallstatt-6238445_1280.jpg"
    },
    {
        "id": "2628923",
        "src640": "https://cdn.pixabay.com/photo/2017/08/10/23/36/york-2628923_640.jpg",
        "src1280": "https://cdn.pixabay.com/photo/2017/08/10/23/36/york-2628923_1280.jpg"
    },
    {
        "id": "7863045",
        "src640": "https://cdn.pixabay.com/photo/2023/03/19/17/39/brno-7863045_640.jpg",
        "src1280": "https://cdn.pixabay.com/photo/2023/03/19/17/39/brno-7863045_1280.jpg"
    },
    {
        "id": "7295489",
        "src640": "https://cdn.pixabay.com/photo/2022/07/01/11/58/building-7295489_640.jpg",
        "src1280": "https://cdn.pixabay.com/photo/2022/07/01/11/58/building-7295489_1280.jpg"
    },
    {
        "id": "5201110",
        "src640": "https://cdn.pixabay.com/photo/2020/05/21/14/45/brooklyn-bridge-5201110_640.jpg",
        "src1280": "https://cdn.pixabay.com/photo/2020/05/21/14/45/brooklyn-bridge-5201110_1280.jpg"
    },
    {
        "id": "4776331",
        "src640": "https://cdn.pixabay.com/photo/2020/01/18/20/13/city-4776331_640.jpg",
        "src1280": "https://cdn.pixabay.com/photo/2020/01/18/20/13/city-4776331_1280.jpg"
    },
    {
        "id": "70432",
        "src640": "https://cdn.pixabay.com/photo/2012/12/17/15/22/ancient-70432_640.jpg",
        "src1280": "https://cdn.pixabay.com/photo/2012/12/17/15/22/ancient-70432_1280.jpg"
    },
    {
        "id": "4929635",
        "src640": "https://cdn.pixabay.com/photo/2020/03/14/04/42/auckland-4929635_640.jpg",
        "src1280": "https://cdn.pixabay.com/photo/2020/03/14/04/42/auckland-4929635_1280.jpg"
    },
    {
        "id": "1090231",
        "src640": "https://cdn.pixabay.com/photo/2015/12/12/22/10/windmill-blades-1090231_640.jpg",
        "src1280": "https://cdn.pixabay.com/photo/2015/12/12/22/10/windmill-blades-1090231_1280.jpg"
    },
    {
        "id": "21732",
        "src640": "https://cdn.pixabay.com/photo/2012/03/04/00/02/architecture-21732_640.jpg",
        "src1280": "https://cdn.pixabay.com/photo/2012/03/04/00/02/architecture-21732_1280.jpg"
    },
    {
        "id": "52530",
        "src640": "https://cdn.pixabay.com/photo/2012/07/19/02/06/house-52530_640.jpg",
        "src1280": "https://cdn.pixabay.com/photo/2012/07/19/02/06/house-52530_1280.jpg"
    },
    {
        "id": "79202",
        "src640": "https://cdn.pixabay.com/photo/2013/02/07/21/43/paris-79202_640.jpg",
        "src1280": "https://cdn.pixabay.com/photo/2013/02/07/21/43/paris-79202_1280.jpg"
    },
    {
        "id": "4856823",
        "src640": "https://cdn.pixabay.com/photo/2020/02/17/15/33/wall-4856823_640.jpg",
        "src1280": "https://cdn.pixabay.com/photo/2020/02/17/15/33/wall-4856823_1280.jpg"
    },
    {
        "id": "3204787",
        "src640": "https://cdn.pixabay.com/photo/2018/03/06/22/25/architecture-3204787_640.jpg",
        "src1280": "https://cdn.pixabay.com/photo/2018/03/06/22/25/architecture-3204787_1280.jpg"
    },
    {
        "id": "54495",
        "src640": "https://cdn.pixabay.com/photo/2012/08/16/20/53/san-diego-54495_640.jpg",
        "src1280": "https://cdn.pixabay.com/photo/2012/08/16/20/53/san-diego-54495_1280.jpg"
    },
    {
        "id": "2928453",
        "src640": "https://cdn.pixabay.com/photo/2017/11/07/22/00/church-2928453_640.jpg",
        "src1280": "https://cdn.pixabay.com/photo/2017/11/07/22/00/church-2928453_1280.jpg"
    },
    {
        "id": "5083708",
        "src640": "https://cdn.pixabay.com/photo/2020/04/23/19/20/castle-5083708_640.jpg",
        "src1280": "https://cdn.pixabay.com/photo/2020/04/23/19/20/castle-5083708_1280.jpg"
    },
    {
        "id": "4774656",
        "src640": "https://cdn.pixabay.com/photo/2020/01/18/08/13/amman-4774656_640.jpg",
        "src1280": "https://cdn.pixabay.com/photo/2020/01/18/08/13/amman-4774656_1280.jpg"
    },
    {
        "id": "5252280",
        "src640": "https://cdn.pixabay.com/photo/2020/06/02/19/23/zurich-5252280_640.jpg",
        "src1280": "https://cdn.pixabay.com/photo/2020/06/02/19/23/zurich-5252280_1280.jpg"
    },
    {
        "id": "7707173",
        "src640": "https://cdn.pixabay.com/photo/2023/01/09/11/14/futuristic-building-7707173_640.jpg",
        "src1280": "https://cdn.pixabay.com/photo/2023/01/09/11/14/futuristic-building-7707173_1280.jpg"
    },
    {
        "id": "4427283",
        "src640": "https://cdn.pixabay.com/photo/2019/08/24/09/36/london-4427283_640.jpg",
        "src1280": "https://cdn.pixabay.com/photo/2019/08/24/09/36/london-4427283_1280.jpg"
    },
    {
        "id": "1341331",
        "src640": "https://cdn.pixabay.com/photo/2016/04/20/15/17/rotterdam-1341331_640.jpg",
        "src1280": "https://cdn.pixabay.com/photo/2016/04/20/15/17/rotterdam-1341331_1280.jpg"
    },
    {
        "id": "4991657",
        "src640": "https://cdn.pixabay.com/photo/2020/04/01/15/52/perspective-4991657_640.jpg",
        "src1280": "https://cdn.pixabay.com/photo/2020/04/01/15/52/perspective-4991657_1280.jpg"
    },
    {
        "id": "4502957",
        "src640": "https://cdn.pixabay.com/photo/2019/09/25/08/24/bell-tower-4502957_640.jpg",
        "src1280": "https://cdn.pixabay.com/photo/2019/09/25/08/24/bell-tower-4502957_1280.jpg"
    },
    {
        "id": "583417",
        "src640": "https://cdn.pixabay.com/photo/2014/12/29/23/29/graffiti-583417_640.jpg",
        "src1280": "https://cdn.pixabay.com/photo/2014/12/29/23/29/graffiti-583417_1280.jpg"
    },
    {
        "id": "4913287",
        "src640": "https://cdn.pixabay.com/photo/2020/03/08/18/02/castle-4913287_640.jpg",
        "src1280": "https://cdn.pixabay.com/photo/2020/03/08/18/02/castle-4913287_1280.jpg"
    },
    {
        "id": "5251590",
        "src640": "https://cdn.pixabay.com/photo/2020/06/02/16/10/high-school-5251590_640.jpg",
        "src1280": "https://cdn.pixabay.com/photo/2020/06/02/16/10/high-school-5251590_1280.jpg"
    },
    {
        "id": "232176",
        "src640": "https://cdn.pixabay.com/photo/2013/12/22/05/34/lindau-232176_640.jpg",
        "src1280": "https://cdn.pixabay.com/photo/2013/12/22/05/34/lindau-232176_1280.jpg"
    },
    {
        "id": "2584053",
        "src640": "https://cdn.pixabay.com/photo/2017/08/05/14/33/architecture-2584053_640.jpg",
        "src1280": "https://cdn.pixabay.com/photo/2017/08/05/14/33/architecture-2584053_1280.jpg"
    },
    {
        "id": "2871079",
        "src640": "https://cdn.pixabay.com/photo/2017/10/20/12/40/surveying-equipment-2871079_640.jpg",
        "src1280": "https://cdn.pixabay.com/photo/2017/10/20/12/40/surveying-equipment-2871079_1280.jpg"
    },
    {
        "id": "293283",
        "src640": "https://cdn.pixabay.com/photo/2014/03/23/14/50/ulm-293283_640.jpg",
        "src1280": "https://cdn.pixabay.com/photo/2014/03/23/14/50/ulm-293283_1280.jpg"
    },
    {
        "id": "7706648",
        "src640": "https://cdn.pixabay.com/photo/2023/01/09/05/03/taito-city-7706648_640.jpg",
        "src1280": "https://cdn.pixabay.com/photo/2023/01/09/05/03/taito-city-7706648_1280.jpg"
    },
    {
        "id": "340866",
        "src640": "https://cdn.pixabay.com/photo/2014/05/09/17/41/building-340866_640.jpg",
        "src1280": "https://cdn.pixabay.com/photo/2014/05/09/17/41/building-340866_1280.jpg"
    },
    {
        "id": "5776218",
        "src640": "https://cdn.pixabay.com/photo/2020/11/25/15/47/mexico-5776218_640.jpg",
        "src1280": "https://cdn.pixabay.com/photo/2020/11/25/15/47/mexico-5776218_1280.jpg"
    },
    {
        "id": "2674882",
        "src640": "https://cdn.pixabay.com/photo/2017/08/24/00/00/building-2674882_640.jpg",
        "src1280": "https://cdn.pixabay.com/photo/2017/08/24/00/00/building-2674882_1280.jpg"
    },
    {
        "id": "122995",
        "src640": "https://cdn.pixabay.com/photo/2013/06/08/00/55/town-hall-122995_640.jpg",
        "src1280": "https://cdn.pixabay.com/photo/2013/06/08/00/55/town-hall-122995_1280.jpg"
    },
    {
        "id": "2464972",
        "src640": "https://cdn.pixabay.com/photo/2017/07/02/16/57/stairs-2464972_640.jpg",
        "src1280": "https://cdn.pixabay.com/photo/2017/07/02/16/57/stairs-2464972_1280.jpg"
    },
    {
        "id": "4506286",
        "src640": "https://cdn.pixabay.com/photo/2019/09/26/15/31/excavator-4506286_640.jpg",
        "src1280": "https://cdn.pixabay.com/photo/2019/09/26/15/31/excavator-4506286_1280.jpg"
    },
    {
        "id": "4811301",
        "src640": "https://cdn.pixabay.com/photo/2020/02/01/20/08/moscow-4811301_640.jpg",
        "src1280": "https://cdn.pixabay.com/photo/2020/02/01/20/08/moscow-4811301_1280.jpg"
    },
    {
        "id": "4746314",
        "src640": "https://cdn.pixabay.com/photo/2020/01/06/21/17/roma-4746314_640.jpg",
        "src1280": "https://cdn.pixabay.com/photo/2020/01/06/21/17/roma-4746314_1280.jpg"
    },
    {
        "id": "104691",
        "src640": "https://cdn.pixabay.com/photo/2013/04/15/17/02/vlissingen-104691_640.jpg",
        "src1280": "https://cdn.pixabay.com/photo/2013/04/15/17/02/vlissingen-104691_1280.jpg"
    },
    {
        "id": "143979",
        "src640": "https://cdn.pixabay.com/photo/2013/07/08/13/33/las-vegas-143979_640.jpg",
        "src1280": "https://cdn.pixabay.com/photo/2013/07/08/13/33/las-vegas-143979_1280.jpg"
    },
    {
        "id": "5098256",
        "src640": "https://cdn.pixabay.com/photo/2020/04/27/05/57/temple-5098256_640.jpg",
        "src1280": "https://cdn.pixabay.com/photo/2020/04/27/05/57/temple-5098256_1280.jpg"
    },
    {
        "id": "4706600",
        "src640": "https://cdn.pixabay.com/photo/2019/12/19/16/57/windmill-4706600_640.jpg",
        "src1280": "https://cdn.pixabay.com/photo/2019/12/19/16/57/windmill-4706600_1280.jpg"
    },
    {
        "id": "1521474",
        "src640": "https://cdn.pixabay.com/photo/2016/07/16/12/42/avignon-1521474_640.jpg",
        "src1280": "https://cdn.pixabay.com/photo/2016/07/16/12/42/avignon-1521474_1280.jpg"
    },
    {
        "id": "5303155",
        "src640": "https://cdn.pixabay.com/photo/2020/06/15/19/33/congress-5303155_640.jpg",
        "src1280": "https://cdn.pixabay.com/photo/2020/06/15/19/33/congress-5303155_1280.jpg"
    },
    {
        "id": "5992250",
        "src640": "https://cdn.pixabay.com/photo/2021/02/07/18/24/castle-5992250_640.jpg",
        "src1280": "https://cdn.pixabay.com/photo/2021/02/07/18/24/castle-5992250_1280.jpg"
    },
    {
        "id": "240010",
        "src640": "https://cdn.pixabay.com/photo/2014/01/07/16/20/south-african-air-force-memorial-240010_640.jpg",
        "src1280": "https://cdn.pixabay.com/photo/2014/01/07/16/20/south-african-air-force-memorial-240010_1280.jpg"
    },
    {
        "id": "5655404",
        "src640": "https://cdn.pixabay.com/photo/2020/10/14/20/23/building-5655404_640.jpg",
        "src1280": "https://cdn.pixabay.com/photo/2020/10/14/20/23/building-5655404_1280.jpg"
    },
    {
        "id": "1601616",
        "src640": "https://cdn.pixabay.com/photo/2016/08/17/21/52/norwich-1601616_640.jpg",
        "src1280": "https://cdn.pixabay.com/photo/2016/08/17/21/52/norwich-1601616_1280.jpg"
    },
    {
        "id": "5080860",
        "src640": "https://cdn.pixabay.com/photo/2020/04/23/02/54/ferris-wheel-5080860_640.jpg",
        "src1280": "https://cdn.pixabay.com/photo/2020/04/23/02/54/ferris-wheel-5080860_1280.jpg"
    },
    {
        "id": "5016473",
        "src640": "https://cdn.pixabay.com/photo/2020/04/08/08/53/tower-5016473_640.jpg",
        "src1280": "https://cdn.pixabay.com/photo/2020/04/08/08/53/tower-5016473_1280.jpg"
    },
    {
        "id": "1844934",
        "src640": "https://cdn.pixabay.com/photo/2016/11/21/12/05/building-1844934_640.jpg",
        "src1280": "https://cdn.pixabay.com/photo/2016/11/21/12/05/building-1844934_1280.jpg"
    },
    {
        "id": "6565163",
        "src640": "https://cdn.pixabay.com/photo/2021/08/22/13/42/church-6565163_640.jpg",
        "src1280": "https://cdn.pixabay.com/photo/2021/08/22/13/42/church-6565163_1280.jpg"
    },
    {
        "id": "2092043",
        "src640": "https://cdn.pixabay.com/photo/2017/02/23/12/25/trail-treetops-2092043_640.jpg",
        "src1280": "https://cdn.pixabay.com/photo/2017/02/23/12/25/trail-treetops-2092043_1280.jpg"
    },
    {
        "id": "6332175",
        "src640": "https://cdn.pixabay.com/photo/2021/06/13/05/05/night-6332175_640.jpg",
        "src1280": "https://cdn.pixabay.com/photo/2021/06/13/05/05/night-6332175_1280.jpg"
    },
    {
        "id": "3894530",
        "src640": "https://cdn.pixabay.com/photo/2018/12/25/17/01/statue-3894530_640.jpg",
        "src1280": "https://cdn.pixabay.com/photo/2018/12/25/17/01/statue-3894530_1280.jpg"
    },
    {
        "id": "2463186",
        "src640": "https://cdn.pixabay.com/photo/2017/07/02/00/07/skyscraper-2463186_640.jpg",
        "src1280": "https://cdn.pixabay.com/photo/2017/07/02/00/07/skyscraper-2463186_1280.jpg"
    },
    {
        "id": "197836",
        "src640": "https://cdn.pixabay.com/photo/2013/10/19/09/03/pillar-197836_640.jpg",
        "src1280": "https://cdn.pixabay.com/photo/2013/10/19/09/03/pillar-197836_1280.jpg"
    },
    {
        "id": "4547846",
        "src640": "https://cdn.pixabay.com/photo/2019/10/14/05/15/window-4547846_640.jpg",
        "src1280": "https://cdn.pixabay.com/photo/2019/10/14/05/15/window-4547846_1280.jpg"
    },
    {
        "id": "2563729",
        "src640": "https://cdn.pixabay.com/photo/2017/08/01/09/01/architecture-2563729_640.jpg",
        "src1280": "https://cdn.pixabay.com/photo/2017/08/01/09/01/architecture-2563729_1280.jpg"
    },
    {
        "id": "4952853",
        "src640": "https://cdn.pixabay.com/photo/2020/03/21/07/02/market-4952853_640.jpg",
        "src1280": "https://cdn.pixabay.com/photo/2020/03/21/07/02/market-4952853_1280.jpg"
    },
    {
        "id": "5092325",
        "src640": "https://cdn.pixabay.com/photo/2020/04/25/19/27/man-5092325_640.jpg",
        "src1280": "https://cdn.pixabay.com/photo/2020/04/25/19/27/man-5092325_1280.jpg"
    },
    {
        "id": "7577215",
        "src640": "https://cdn.pixabay.com/photo/2022/11/07/20/58/cathedral-7577215_640.jpg",
        "src1280": "https://cdn.pixabay.com/photo/2022/11/07/20/58/cathedral-7577215_1280.jpg"
    },
    {
        "id": "8206",
        "src640": "https://cdn.pixabay.com/photo/2011/06/29/15/39/art-8206_640.jpg",
        "src1280": "https://cdn.pixabay.com/photo/2011/06/29/15/39/art-8206_1280.jpg"
    },
    {
        "id": "7638047",
        "src640": "https://cdn.pixabay.com/photo/2022/12/06/01/51/ai-generated-7638047_640.jpg",
        "src1280": "https://cdn.pixabay.com/photo/2022/12/06/01/51/ai-generated-7638047_1280.jpg"
    },
    {
        "id": "6881461",
        "src640": "https://cdn.pixabay.com/photo/2021/12/19/16/04/tower-6881461_640.jpg",
        "src1280": "https://cdn.pixabay.com/photo/2021/12/19/16/04/tower-6881461_1280.jpg"
    },
    {
        "id": "4396259",
        "src640": "https://cdn.pixabay.com/photo/2019/08/10/06/10/mosque-4396259_640.jpg",
        "src1280": "https://cdn.pixabay.com/photo/2019/08/10/06/10/mosque-4396259_1280.jpg"
    },
    {
        "id": "1675240",
        "src640": "https://cdn.pixabay.com/photo/2016/09/16/22/04/city-1675240_640.jpg",
        "src1280": "https://cdn.pixabay.com/photo/2016/09/16/22/04/city-1675240_1280.jpg"
    },
    {
        "id": "3339109",
        "src640": "https://cdn.pixabay.com/photo/2018/04/21/18/28/architecture-3339109_640.jpg",
        "src1280": "https://cdn.pixabay.com/photo/2018/04/21/18/28/architecture-3339109_1280.jpg"
    },
    {
        "id": "52162",
        "src640": "https://cdn.pixabay.com/photo/2012/07/09/12/56/fachwerkhauser-52162_640.jpg",
        "src1280": "https://cdn.pixabay.com/photo/2012/07/09/12/56/fachwerkhauser-52162_1280.jpg"
    },
    {
        "id": "640415",
        "src640": "https://cdn.pixabay.com/photo/2015/02/18/07/18/clock-640415_640.jpg",
        "src1280": "https://cdn.pixabay.com/photo/2015/02/18/07/18/clock-640415_1280.jpg"
    },
    {
        "id": "837637",
        "src640": "https://cdn.pixabay.com/photo/2015/07/09/12/39/city-hall-837637_640.jpg",
        "src1280": "https://cdn.pixabay.com/photo/2015/07/09/12/39/city-hall-837637_1280.jpg"
    },
    {
        "id": "740222",
        "src640": "https://cdn.pixabay.com/photo/2015/04/26/10/06/golden-city-740222_640.jpg",
        "src1280": "https://cdn.pixabay.com/photo/2015/04/26/10/06/golden-city-740222_1280.jpg"
    },
    {
        "id": "2098315",
        "src640": "https://cdn.pixabay.com/photo/2017/02/25/17/25/building-2098315_640.jpg",
        "src1280": "https://cdn.pixabay.com/photo/2017/02/25/17/25/building-2098315_1280.jpg"
    },
    {
        "id": "5927468",
        "src640": "https://cdn.pixabay.com/photo/2021/01/18/08/47/zaragoza-5927468_640.jpg",
        "src1280": "https://cdn.pixabay.com/photo/2021/01/18/08/47/zaragoza-5927468_1280.jpg"
    },
    {
        "id": "4322221",
        "src640": "https://cdn.pixabay.com/photo/2019/07/07/10/37/city-4322221_640.jpg",
        "src1280": "https://cdn.pixabay.com/photo/2019/07/07/10/37/city-4322221_1280.jpg"
    },
    {
        "id": "4677035",
        "src640": "https://cdn.pixabay.com/photo/2019/12/06/10/11/sweden-4677035_640.jpg",
        "src1280": "https://cdn.pixabay.com/photo/2019/12/06/10/11/sweden-4677035_1280.jpg"
    },
    {
        "id": "2625211",
        "src640": "https://cdn.pixabay.com/photo/2017/08/10/17/21/buildings-2625211_640.jpg",
        "src1280": "https://cdn.pixabay.com/photo/2017/08/10/17/21/buildings-2625211_1280.jpg"
    },
    {
        "id": "71044",
        "src640": "https://cdn.pixabay.com/photo/2012/12/19/18/14/church-71044_640.jpg",
        "src1280": "https://cdn.pixabay.com/photo/2012/12/19/18/14/church-71044_1280.jpg"
    },
    {
        "id": "6379573",
        "src640": "https://cdn.pixabay.com/photo/2021/07/01/14/42/street-6379573_640.jpg",
        "src1280": "https://cdn.pixabay.com/photo/2021/07/01/14/42/street-6379573_1280.jpg"
    },
    {
        "id": "232184",
        "src640": "https://cdn.pixabay.com/photo/2013/12/22/05/45/lindau-232184_640.jpg",
        "src1280": "https://cdn.pixabay.com/photo/2013/12/22/05/45/lindau-232184_1280.jpg"
    },
    {
        "id": "5122055",
        "src640": "https://cdn.pixabay.com/photo/2020/05/02/16/16/construction-site-5122055_640.jpg",
        "src1280": "https://cdn.pixabay.com/photo/2020/05/02/16/16/construction-site-5122055_1280.jpg"
    },
    {
        "id": "458326",
        "src640": "https://cdn.pixabay.com/photo/2014/09/23/23/26/man-458326_640.jpg",
        "src1280": "https://cdn.pixabay.com/photo/2014/09/23/23/26/man-458326_1280.jpg"
    },
    {
        "id": "5399009",
        "src640": "https://cdn.pixabay.com/photo/2020/07/12/23/36/tower-5399009_640.jpg",
        "src1280": "https://cdn.pixabay.com/photo/2020/07/12/23/36/tower-5399009_1280.jpg"
    },
    {
        "id": "183501",
        "src640": "https://cdn.pixabay.com/photo/2013/09/18/16/52/barcelona-183501_640.jpg",
        "src1280": "https://cdn.pixabay.com/photo/2013/09/18/16/52/barcelona-183501_1280.jpg"
    },
    {
        "id": "1195817",
        "src640": "https://cdn.pixabay.com/photo/2016/02/12/10/40/paderborn-1195817_640.jpg",
        "src1280": "https://cdn.pixabay.com/photo/2016/02/12/10/40/paderborn-1195817_1280.jpg"
    },
    {
        "id": "195301",
        "src640": "https://cdn.pixabay.com/photo/2013/10/13/23/28/decor-195301_640.jpg",
        "src1280": "https://cdn.pixabay.com/photo/2013/10/13/23/28/decor-195301_1280.jpg"
    },
    {
        "id": "3546352",
        "src640": "https://cdn.pixabay.com/photo/2018/07/18/13/49/facade-3546352_640.jpg",
        "src1280": "https://cdn.pixabay.com/photo/2018/07/18/13/49/facade-3546352_1280.jpg"
    },
    {
        "id": "884653",
        "src640": "https://cdn.pixabay.com/photo/2015/08/11/14/46/wurzburg-884653_640.jpg",
        "src1280": "https://cdn.pixabay.com/photo/2015/08/11/14/46/wurzburg-884653_1280.jpg"
    },
    {
        "id": "2674298",
        "src640": "https://cdn.pixabay.com/photo/2017/08/23/20/57/inside-2674298_640.jpg",
        "src1280": "https://cdn.pixabay.com/photo/2017/08/23/20/57/inside-2674298_1280.jpg"
    },
    {
        "id": "3036105",
        "src640": "https://cdn.pixabay.com/photo/2017/12/23/22/17/architecture-3036105_640.jpg",
        "src1280": "https://cdn.pixabay.com/photo/2017/12/23/22/17/architecture-3036105_1280.jpg"
    },
    {
        "id": "1559300",
        "src640": "https://cdn.pixabay.com/photo/2016/07/31/16/10/venice-1559300_640.jpg",
        "src1280": "https://cdn.pixabay.com/photo/2016/07/31/16/10/venice-1559300_1280.jpg"
    }
]