[
    {
        "id": "978368",
        "src640": "https://cdn.pixabay.com/photo/2015/10/08/20/41/castle-978368_640.jpg",
        "src1280": "https://cdn.pixabay.com/photo/2015/10/08/20/41/castle-978368_1280.jpg"
    },
    {
        "id": "7734346",
        "src640": "https://cdn.pixabay.com/photo/2023/01/21/15/17/ai-generated-7734346_640.jpg",
        "src1280": "https://cdn.pixabay.com/photo/2023/01/21/15/17/ai-generated-7734346_1280.jpg"
    },
    {
        "id": "95582",
        "src640": "https://cdn.pixabay.com/photo/2013/03/21/14/17/netherlands-95582_640.jpg",
        "src1280": "https://cdn.pixabay.com/photo/2013/03/21/14/17/netherlands-95582_1280.jpg"
    },
    {
        "id": "2556932",
        "src640": "https://cdn.pixabay.com/photo/2017/07/31/09/23/crossroads-2556932_640.jpg",
        "src1280": "https://cdn.pixabay.com/photo/2017/07/31/09/23/crossroads-2556932_1280.jpg"
    },
    {
        "id": "197317",
        "src640": "https://cdn.pixabay.com/photo/2013/10/18/08/34/ulm-cathedral-197317_640.jpg",
        "src1280": "https://cdn.pixabay.com/photo/2013/10/18/08/34/ulm-cathedral-197317_1280.jpg"
    },
    {
        "id": "4646405",
        "src640": "https://cdn.pixabay.com/photo/2019/11/23/07/20/goal-4646405_640.jpg",
        "src1280": "https://cdn.pixabay.com/photo/2019/11/23/07/20/goal-4646405_1280.jpg"
    },
    {
        "id": "5243135",
        "src640": "https://cdn.pixabay.com/photo/2020/05/31/16/22/helm-5243135_640.jpg",
        "src1280": "https://cdn.pixabay.com/photo/2020/05/31/16/22/helm-5243135_1280.jpg"
    },
    {
        "id": "5195403",
        "src640": "https://cdn.pixabay.com/photo/2020/05/20/08/15/jiangnan-5195403_640.jpg",
        "src1280": "https://cdn.pixabay.com/photo/2020/05/20/08/15/jiangnan-5195403_1280.jpg"
    },
    {
        "id": "328806",
        "src640": "https://cdn.pixabay.com/photo/2014/04/20/21/59/petronas-towers-328806_640.jpg",
        "src1280": "https://cdn.pixabay.com/photo/2014/04/20/21/59/petronas-towers-328806_1280.jpg"
    },
    {
        "id": "433231",
        "src640": "https://cdn.pixabay.com/photo/2014/09/01/21/41/erfurt-433231_640.jpg",
        "src1280": "https://cdn.pixabay.com/photo/2014/09/01/21/41/erfurt-433231_1280.jpg"
    },
    {
        "id": "6769335",
        "src640": "https://cdn.pixabay.com/photo/2021/11/04/21/20/pavement-6769335_640.jpg",
        "src1280": "https://cdn.pixabay.com/photo/2021/11/04/21/20/pavement-6769335_1280.jpg"
    },
    {
        "id": "5008058",
        "src640": "https://cdn.pixabay.com/photo/2020/04/06/02/00/vietnam-5008058_640.jpg",
        "src1280": "https://cdn.pixabay.com/photo/2020/04/06/02/00/vietnam-5008058_1280.jpg"
    },
    {
        "id": "4861274",
        "src640": "https://cdn.pixabay.com/photo/2020/02/19/04/20/bicycle-4861274_640.jpg",
        "src1280": "https://cdn.pixabay.com/photo/2020/02/19/04/20/bicycle-4861274_1280.jpg"
    },
    {
        "id": "890348",
        "src640": "https://cdn.pixabay.com/photo/2015/08/15/23/44/chicago-890348_640.jpg",
        "src1280": "https://cdn.pixabay.com/photo/2015/08/15/23/44/chicago-890348_1280.jpg"
    },
    {
        "id": "906614",
        "src640": "https://cdn.pixabay.com/photo/2015/08/25/10/49/chapel-906614_640.jpg",
        "src1280": "https://cdn.pixabay.com/photo/2015/08/25/10/49/chapel-906614_1280.jpg"
    },
    {
        "id": "826052",
        "src640": "https://cdn.pixabay.com/photo/2015/06/29/22/53/stairs-826052_640.jpg",
        "src1280": "https://cdn.pixabay.com/photo/2015/06/29/22/53/stairs-826052_1280.jpg"
    },
    {
        "id": "3748202",
        "src640": "https://cdn.pixabay.com/photo/2018/10/15/06/18/church-3748202_640.jpg",
        "src1280": "https://cdn.pixabay.com/photo/2018/10/15/06/18/church-3748202_1280.jpg"
    },
    {
        "id": "4094068",
        "src640": "https://cdn.pixabay.com/photo/2019/03/31/21/15/germany-4094068_640.jpg",
        "src1280": "https://cdn.pixabay.com/photo/2019/03/31/21/15/germany-4094068_1280.jpg"
    },
    {
        "id": "143388",
        "src640": "https://cdn.pixabay.com/photo/2013/07/05/01/03/bmw-world-143388_640.jpg",
        "src1280": "https://cdn.pixabay.com/photo/2013/07/05/01/03/bmw-world-143388_1280.jpg"
    },
    {
        "id": "1188370",
        "src640": "https://cdn.pixabay.com/photo/2016/02/09/05/39/alquezar-1188370_640.jpg",
        "src1280": "https://cdn.pixabay.com/photo/2016/02/09/05/39/alquezar-1188370_1280.jpg"
    },
    {
        "id": "694246",
        "src640": "https://cdn.pixabay.com/photo/2015/03/27/02/51/esslingen-694246_640.jpg",
        "src1280": "https://cdn.pixabay.com/photo/2015/03/27/02/51/esslingen-694246_1280.jpg"
    },
    {
        "id": "4181287",
        "src640": "https://cdn.pixabay.com/photo/2019/05/05/18/22/rosenborg-4181287_640.jpg",
        "src1280": "https://cdn.pixabay.com/photo/2019/05/05/18/22/rosenborg-4181287_1280.jpg"
    },
    {
        "id": "5434707",
        "src640": "https://cdn.pixabay.com/photo/2020/07/24/18/11/alley-5434707_640.jpg",
        "src1280": "https://cdn.pixabay.com/photo/2020/07/24/18/11/alley-5434707_1280.jpg"
    },
    {
        "id": "4275485",
        "src640": "https://cdn.pixabay.com/photo/2019/06/15/12/49/steeple-4275485_640.jpg",
        "src1280": "https://cdn.pixabay.com/photo/2019/06/15/12/49/steeple-4275485_1280.jpg"
    },
    {
        "id": "495722",
        "src640": "https://cdn.pixabay.com/photo/2014/10/20/20/00/home-495722_640.jpg",
        "src1280": "https://cdn.pixabay.com/photo/2014/10/20/20/00/home-495722_1280.jpg"
    },
    {
        "id": "4182658",
        "src640": "https://cdn.pixabay.com/photo/2019/05/06/10/01/tile-4182658_640.jpg",
        "src1280": "https://cdn.pixabay.com/photo/2019/05/06/10/01/tile-4182658_1280.jpg"
    },
    {
        "id": "346191",
        "src640": "https://cdn.pixabay.com/photo/2014/05/17/12/19/window-346191_640.jpg",
        "src1280": "https://cdn.pixabay.com/photo/2014/05/17/12/19/window-346191_1280.jpg"
    },
    {
        "id": "6989751",
        "src640": "https://cdn.pixabay.com/photo/2022/02/03/05/08/daegu-6989751_640.jpg",
        "src1280": "https://cdn.pixabay.com/photo/2022/02/03/05/08/daegu-6989751_1280.jpg"
    },
    {
        "id": "3217996",
        "src640": "https://cdn.pixabay.com/photo/2018/03/11/20/31/architecture-3217996_640.jpg",
        "src1280": "https://cdn.pixabay.com/photo/2018/03/11/20/31/architecture-3217996_1280.jpg"
    },
    {
        "id": "1563145",
        "src640": "https://cdn.pixabay.com/photo/2016/08/02/11/34/bell-tower-1563145_640.jpg",
        "src1280": "https://cdn.pixabay.com/photo/2016/08/02/11/34/bell-tower-1563145_1280.jpg"
    },
    {
        "id": "868708",
        "src640": "https://cdn.pixabay.com/photo/2015/07/31/06/07/square-868708_640.jpg",
        "src1280": "https://cdn.pixabay.com/photo/2015/07/31/06/07/square-868708_1280.jpg"
    },
    {
        "id": "6954755",
        "src640": "https://cdn.pixabay.com/photo/2022/01/21/12/58/chapel-6954755_640.jpg",
        "src1280": "https://cdn.pixabay.com/photo/2022/01/21/12/58/chapel-6954755_1280.jpg"
    },
    {
        "id": "3737173",
        "src640": "https://cdn.pixabay.com/photo/2018/10/10/12/44/augsburg-3737173_640.jpg",
        "src1280": "https://cdn.pixabay.com/photo/2018/10/10/12/44/augsburg-3737173_1280.jpg"
    },
    {
        "id": "6817313",
        "src640": "https://cdn.pixabay.com/photo/2021/11/22/19/50/city-6817313_640.jpg",
        "src1280": "https://cdn.pixabay.com/photo/2021/11/22/19/50/city-6817313_1280.jpg"
    },
    {
        "id": "844774",
        "src640": "https://cdn.pixabay.com/photo/2015/07/14/11/24/hl-michael-844774_640.jpg",
        "src1280": "https://cdn.pixabay.com/photo/2015/07/14/11/24/hl-michael-844774_1280.jpg"
    },
    {
        "id": "115678",
        "src640": "https://cdn.pixabay.com/photo/2013/06/02/13/07/tower-115678_640.jpg",
        "src1280": "https://cdn.pixabay.com/photo/2013/06/02/13/07/tower-115678_1280.jpg"
    },
    {
        "id": "5346357",
        "src640": "https://cdn.pixabay.com/photo/2020/06/27/16/09/city-5346357_640.jpg",
        "src1280": "https://cdn.pixabay.com/photo/2020/06/27/16/09/city-5346357_1280.jpg"
    },
    {
        "id": "4818152",
        "src640": "https://cdn.pixabay.com/photo/2020/02/04/13/21/decor-4818152_640.jpg",
        "src1280": "https://cdn.pixabay.com/photo/2020/02/04/13/21/decor-4818152_1280.jpg"
    },
    {
        "id": "6809774",
        "src640": "https://cdn.pixabay.com/photo/2021/11/19/16/18/building-6809774_640.jpg",
        "src1280": "https://cdn.pixabay.com/photo/2021/11/19/16/18/building-6809774_1280.jpg"
    },
    {
        "id": "4516715",
        "src640": "https://cdn.pixabay.com/photo/2019/09/30/20/53/venice-4516715_640.jpg",
        "src1280": "https://cdn.pixabay.com/photo/2019/09/30/20/53/venice-4516715_1280.jpg"
    },
    {
        "id": "4275215",
        "src640": "https://cdn.pixabay.com/photo/2019/06/15/10/26/buildings-4275215_640.jpg",
        "src1280": "https://cdn.pixabay.com/photo/2019/06/15/10/26/buildings-4275215_1280.jpg"
    },
    {
        "id": "3279576",
        "src640": "https://cdn.pixabay.com/photo/2018/03/31/23/13/buddhism-3279576_640.jpg",
        "src1280": "https://cdn.pixabay.com/photo/2018/03/31/23/13/buddhism-3279576_1280.jpg"
    },
    {
        "id": "4576424",
        "src640": "https://cdn.pixabay.com/photo/2019/10/25/09/09/road-4576424_640.jpg",
        "src1280": "https://cdn.pixabay.com/photo/2019/10/25/09/09/road-4576424_1280.jpg"
    },
    {
        "id": "1677896",
        "src640": "https://cdn.pixabay.com/photo/2016/09/18/11/26/crane-1677896_640.jpg",
        "src1280": "https://cdn.pixabay.com/photo/2016/09/18/11/26/crane-1677896_1280.jpg"
    },
    {
        "id": "4794961",
        "src640": "https://cdn.pixabay.com/photo/2020/01/26/15/53/view-4794961_640.jpg",
        "src1280": "https://cdn.pixabay.com/photo/2020/01/26/15/53/view-4794961_1280.jpg"
    },
    {
        "id": "1868100",
        "src640": "https://cdn.pixabay.com/photo/2016/11/29/07/28/architecture-1868100_640.jpg",
        "src1280": "https://cdn.pixabay.com/photo/2016/11/29/07/28/architecture-1868100_1280.jpg"
    },
    {
        "id": "21219",
        "src640": "https://cdn.pixabay.com/photo/2012/03/02/12/39/church-21219_640.jpg",
        "src1280": "https://cdn.pixabay.com/photo/2012/03/02/12/39/church-21219_1280.jpg"
    },
    {
        "id": "187109",
        "src640": "https://cdn.pixabay.com/photo/2013/09/27/16/48/skyscraper-187109_640.jpg",
        "src1280": "https://cdn.pixabay.com/photo/2013/09/27/16/48/skyscraper-187109_1280.jpg"
    },
    {
        "id": "51232",
        "src640": "https://cdn.pixabay.com/photo/2012/07/03/15/20/tower-51232_640.jpg",
        "src1280": "https://cdn.pixabay.com/photo/2012/07/03/15/20/tower-51232_1280.jpg"
    },
    {
        "id": "284325",
        "src640": "https://cdn.pixabay.com/photo/2014/03/10/07/53/austria-284325_640.jpg",
        "src1280": "https://cdn.pixabay.com/photo/2014/03/10/07/53/austria-284325_1280.jpg"
    },
    {
        "id": "6947880",
        "src640": "https://cdn.pixabay.com/photo/2022/01/18/18/26/church-6947880_640.jpg",
        "src1280": "https://cdn.pixabay.com/photo/2022/01/18/18/26/church-6947880_1280.jpg"
    },
    {
        "id": "938464",
        "src640": "https://cdn.pixabay.com/photo/2015/09/13/17/03/excavators-938464_640.jpg",
        "src1280": "https://cdn.pixabay.com/photo/2015/09/13/17/03/excavators-938464_1280.jpg"
    },
    {
        "id": "7003139",
        "src640": "https://cdn.pixabay.com/photo/2022/02/09/10/59/roof-7003139_640.jpg",
        "src1280": "https://cdn.pixabay.com/photo/2022/02/09/10/59/roof-7003139_1280.jpg"
    },
    {
        "id": "238634",
        "src640": "https://cdn.pixabay.com/photo/2014/01/04/16/11/luftlmalerei-238634_640.jpg",
        "src1280": "https://cdn.pixabay.com/photo/2014/01/04/16/11/luftlmalerei-238634_1280.jpg"
    },
    {
        "id": "483211",
        "src640": "https://cdn.pixabay.com/photo/2014/10/10/10/50/towers-483211_640.jpg",
        "src1280": "https://cdn.pixabay.com/photo/2014/10/10/10/50/towers-483211_1280.jpg"
    },
    {
        "id": "60340",
        "src640": "https://cdn.pixabay.com/photo/2012/10/09/03/56/cross-60340_640.jpg",
        "src1280": "https://cdn.pixabay.com/photo/2012/10/09/03/56/cross-60340_1280.jpg"
    },
    {
        "id": "4817444",
        "src640": "https://cdn.pixabay.com/photo/2020/02/04/07/12/bride-4817444_640.jpg",
        "src1280": "https://cdn.pixabay.com/photo/2020/02/04/07/12/bride-4817444_1280.jpg"
    },
    {
        "id": "4873714",
        "src640": "https://cdn.pixabay.com/photo/2020/02/23/15/47/buildings-4873714_640.jpg",
        "src1280": "https://cdn.pixabay.com/photo/2020/02/23/15/47/buildings-4873714_1280.jpg"
    },
    {
        "id": "7800634",
        "src640": "https://cdn.pixabay.com/photo/2023/02/19/17/14/church-7800634_640.jpg",
        "src1280": "https://cdn.pixabay.com/photo/2023/02/19/17/14/church-7800634_1280.jpg"
    },
    {
        "id": "3758520",
        "src640": "https://cdn.pixabay.com/photo/2018/10/19/12/13/church-3758520_640.jpg",
        "src1280": "https://cdn.pixabay.com/photo/2018/10/19/12/13/church-3758520_1280.jpg"
    },
    {
        "id": "783032",
        "src640": "https://cdn.pixabay.com/photo/2015/05/25/11/10/alley-783032_640.jpg",
        "src1280": "https://cdn.pixabay.com/photo/2015/05/25/11/10/alley-783032_1280.jpg"
    },
    {
        "id": "175902",
        "src640": "https://cdn.pixabay.com/photo/2013/08/26/02/25/glass-facade-175902_640.jpg",
        "src1280": "https://cdn.pixabay.com/photo/2013/08/26/02/25/glass-facade-175902_1280.jpg"
    },
    {
        "id": "53525",
        "src640": "https://cdn.pixabay.com/photo/2012/07/31/21/09/seville-53525_640.jpg",
        "src1280": "https://cdn.pixabay.com/photo/2012/07/31/21/09/seville-53525_1280.jpg"
    },
    {
        "id": "5052527",
        "src640": "https://cdn.pixabay.com/photo/2020/04/16/22/25/ash-5052527_640.jpg",
        "src1280": "https://cdn.pixabay.com/photo/2020/04/16/22/25/ash-5052527_1280.jpg"
    },
    {
        "id": "5596852",
        "src640": "https://cdn.pixabay.com/photo/2020/09/23/19/44/obelisk-5596852_640.jpg",
        "src1280": "https://cdn.pixabay.com/photo/2020/09/23/19/44/obelisk-5596852_1280.jpg"
    },
    {
        "id": "903728",
        "src640": "https://cdn.pixabay.com/photo/2015/08/23/23/11/tower-903728_640.jpg",
        "src1280": "https://cdn.pixabay.com/photo/2015/08/23/23/11/tower-903728_1280.jpg"
    },
    {
        "id": "2944163",
        "src640": "https://cdn.pixabay.com/photo/2017/11/12/23/28/steeple-2944163_640.jpg",
        "src1280": "https://cdn.pixabay.com/photo/2017/11/12/23/28/steeple-2944163_1280.jpg"
    },
    {
        "id": "5699051",
        "src640": "https://cdn.pixabay.com/photo/2020/10/30/16/33/tower-5699051_640.jpg",
        "src1280": "https://cdn.pixabay.com/photo/2020/10/30/16/33/tower-5699051_1280.jpg"
    },
    {
        "id": "103108",
        "src640": "https://cdn.pixabay.com/photo/2013/04/12/21/29/winter-103108_640.jpg",
        "src1280": "https://cdn.pixabay.com/photo/2013/04/12/21/29/winter-103108_1280.jpg"
    },
    {
        "id": "5810010",
        "src640": "https://cdn.pixabay.com/photo/2020/12/06/20/55/union-station-5810010_640.jpg",
        "src1280": "https://cdn.pixabay.com/photo/2020/12/06/20/55/union-station-5810010_1280.jpg"
    },
    {
        "id": "197900",
        "src640": "https://cdn.pixabay.com/photo/2013/10/19/12/09/two-piece-fish-bladder-197900_640.jpg",
        "src1280": "https://cdn.pixabay.com/photo/2013/10/19/12/09/two-piece-fish-bladder-197900_1280.jpg"
    },
    {
        "id": "7660971",
        "src640": "https://cdn.pixabay.com/photo/2022/12/17/04/41/ai-generated-7660971_640.jpg",
        "src1280": "https://cdn.pixabay.com/photo/2022/12/17/04/41/ai-generated-7660971_1280.jpg"
    },
    {
        "id": "4616730",
        "src640": "https://cdn.pixabay.com/photo/2019/11/10/21/02/silhouettes-4616730_640.jpg",
        "src1280": "https://cdn.pixabay.com/photo/2019/11/10/21/02/silhouettes-4616730_1280.jpg"
    },
    {
        "id": "16870",
        "src640": "https://cdn.pixabay.com/photo/2012/02/25/18/48/church-16870_640.jpg",
        "src1280": "https://cdn.pixabay.com/photo/2012/02/25/18/48/church-16870_1280.jpg"
    },
    {
        "id": "1011910",
        "src640": "https://cdn.pixabay.com/photo/2015/10/29/08/23/glass-facade-1011910_640.jpg",
        "src1280": "https://cdn.pixabay.com/photo/2015/10/29/08/23/glass-facade-1011910_1280.jpg"
    },
    {
        "id": "5829625",
        "src640": "https://cdn.pixabay.com/photo/2020/12/13/23/19/burj-khalifa-5829625_640.jpg",
        "src1280": "https://cdn.pixabay.com/photo/2020/12/13/23/19/burj-khalifa-5829625_1280.jpg"
    },
    {
        "id": "21220",
        "src640": "https://cdn.pixabay.com/photo/2012/03/02/12/39/building-21220_640.jpg",
        "src1280": "https://cdn.pixabay.com/photo/2012/03/02/12/39/building-21220_1280.jpg"
    },
    {
        "id": "6654567",
        "src640": "https://cdn.pixabay.com/photo/2021/09/25/10/07/berlin-6654567_640.jpg",
        "src1280": "https://cdn.pixabay.com/photo/2021/09/25/10/07/berlin-6654567_1280.jpg"
    },
    {
        "id": "68759",
        "src640": "https://cdn.pixabay.com/photo/2012/12/05/12/46/stuttgart-68759_640.jpg",
        "src1280": "https://cdn.pixabay.com/photo/2012/12/05/12/46/stuttgart-68759_1280.jpg"
    },
    {
        "id": "4471868",
        "src640": "https://cdn.pixabay.com/photo/2019/09/12/15/28/riga-4471868_640.jpg",
        "src1280": "https://cdn.pixabay.com/photo/2019/09/12/15/28/riga-4471868_1280.jpg"
    },
    {
        "id": "7519631",
        "src640": "https://cdn.pixabay.com/photo/2022/10/13/17/38/independence-hall-7519631_640.jpg",
        "src1280": "https://cdn.pixabay.com/photo/2022/10/13/17/38/independence-hall-7519631_1280.jpg"
    },
    {
        "id": "478527",
        "src640": "https://cdn.pixabay.com/photo/2014/10/07/22/26/tree-478527_640.jpg",
        "src1280": "https://cdn.pixabay.com/photo/2014/10/07/22/26/tree-478527_1280.jpg"
    },
    {
        "id": "4947314",
        "src640": "https://cdn.pixabay.com/photo/2020/03/19/12/12/tokyo-sky-tree-4947314_640.jpg",
        "src1280": "https://cdn.pixabay.com/photo/2020/03/19/12/12/tokyo-sky-tree-4947314_1280.jpg"
    },
    {
        "id": "7445234",
        "src640": "https://cdn.pixabay.com/photo/2022/09/10/15/08/glass-building-7445234_640.jpg",
        "src1280": "https://cdn.pixabay.com/photo/2022/09/10/15/08/glass-building-7445234_1280.jpg"
    },
    {
        "id": "4212409",
        "src640": "https://cdn.pixabay.com/photo/2019/05/18/19/40/monument-4212409_640.jpg",
        "src1280": "https://cdn.pixabay.com/photo/2019/05/18/19/40/monument-4212409_1280.jpg"
    },
    {
        "id": "4866122",
        "src640": "https://cdn.pixabay.com/photo/2020/02/20/22/42/sandburg-4866122_640.jpg",
        "src1280": "https://cdn.pixabay.com/photo/2020/02/20/22/42/sandburg-4866122_1280.jpg"
    },
    {
        "id": "5210093",
        "src640": "https://cdn.pixabay.com/photo/2020/05/23/15/31/basilica-5210093_640.jpg",
        "src1280": "https://cdn.pixabay.com/photo/2020/05/23/15/31/basilica-5210093_1280.jpg"
    },
    {
        "id": "313813",
        "src640": "https://cdn.pixabay.com/photo/2014/04/04/17/50/king-edward-hotel-313813_640.jpg",
        "src1280": "https://cdn.pixabay.com/photo/2014/04/04/17/50/king-edward-hotel-313813_1280.jpg"
    },
    {
        "id": "7111345",
        "src640": "https://cdn.pixabay.com/photo/2022/04/04/13/50/germany-7111345_640.jpg",
        "src1280": "https://cdn.pixabay.com/photo/2022/04/04/13/50/germany-7111345_1280.jpg"
    },
    {
        "id": "7493225",
        "src640": "https://cdn.pixabay.com/photo/2022/10/02/10/46/samcheong-7493225_640.jpg",
        "src1280": "https://cdn.pixabay.com/photo/2022/10/02/10/46/samcheong-7493225_1280.jpg"
    },
    {
        "id": "373987",
        "src640": "https://cdn.pixabay.com/photo/2014/06/21/17/49/columnar-373987_640.jpg",
        "src1280": "https://cdn.pixabay.com/photo/2014/06/21/17/49/columnar-373987_1280.jpg"
    },
    {
        "id": "4440678",
        "src640": "https://cdn.pixabay.com/photo/2019/08/30/07/42/sky-scrapper-4440678_640.jpg",
        "src1280": "https://cdn.pixabay.com/photo/2019/08/30/07/42/sky-scrapper-4440678_1280.jpg"
    },
    {
        "id": "7373851",
        "src640": "https://cdn.pixabay.com/photo/2022/08/09/00/49/chicago-7373851_640.jpg",
        "src1280": "https://cdn.pixabay.com/photo/2022/08/09/00/49/chicago-7373851_1280.jpg"
    },
    {
        "id": "5447280",
        "src640": "https://cdn.pixabay.com/photo/2020/07/29/07/55/united-nations-organization-5447280_640.jpg",
        "src1280": "https://cdn.pixabay.com/photo/2020/07/29/07/55/united-nations-organization-5447280_1280.jpg"
    },
    {
        "id": "122749",
        "src640": "https://cdn.pixabay.com/photo/2013/06/07/20/23/marian-column-122749_640.jpg",
        "src1280": "https://cdn.pixabay.com/photo/2013/06/07/20/23/marian-column-122749_1280.jpg"
    },
    {
        "id": "2960820",
        "src640": "https://cdn.pixabay.com/photo/2017/11/18/18/38/london-2960820_640.jpg",
        "src1280": "https://cdn.pixabay.com/photo/2017/11/18/18/38/london-2960820_1280.jpg"
    },
    {
        "id": "7660967",
        "src640": "https://cdn.pixabay.com/photo/2022/12/17/04/40/ai-generated-7660967_640.jpg",
        "src1280": "https://cdn.pixabay.com/photo/2022/12/17/04/40/ai-generated-7660967_1280.jpg"
    },
    {
        "id": "3208051",
        "src640": "https://cdn.pixabay.com/photo/2018/03/08/08/10/tourism-3208051_640.jpg",
        "src1280": "https://cdn.pixabay.com/photo/2018/03/08/08/10/tourism-3208051_1280.jpg"
    }
]