[
    {
        "id": "4867428",
        "src640": "https://cdn.pixabay.com/photo/2020/02/21/12/51/mosque-4867428_640.jpg",
        "src1280": "https://cdn.pixabay.com/photo/2020/02/21/12/51/mosque-4867428_1280.jpg"
    },
    {
        "id": "804645",
        "src640": "https://cdn.pixabay.com/photo/2015/06/10/09/11/korea-804645_640.jpg",
        "src1280": "https://cdn.pixabay.com/photo/2015/06/10/09/11/korea-804645_1280.jpg"
    },
    {
        "id": "5477676",
        "src640": "https://cdn.pixabay.com/photo/2020/08/10/12/17/flower-5477676_640.jpg",
        "src1280": "https://cdn.pixabay.com/photo/2020/08/10/12/17/flower-5477676_1280.jpg"
    },
    {
        "id": "2052854",
        "src640": "https://cdn.pixabay.com/photo/2017/02/09/16/58/palace-2052854_640.jpg",
        "src1280": "https://cdn.pixabay.com/photo/2017/02/09/16/58/palace-2052854_1280.jpg"
    },
    {
        "id": "5856773",
        "src640": "https://cdn.pixabay.com/photo/2020/12/24/08/08/car-5856773_640.jpg",
        "src1280": "https://cdn.pixabay.com/photo/2020/12/24/08/08/car-5856773_1280.jpg"
    },
    {
        "id": "7788178",
        "src640": "https://cdn.pixabay.com/photo/2023/02/13/19/19/metal-7788178_640.jpg",
        "src1280": "https://cdn.pixabay.com/photo/2023/02/13/19/19/metal-7788178_1280.jpg"
    },
    {
        "id": "5312357",
        "src640": "https://cdn.pixabay.com/photo/2020/06/18/07/57/castle-5312357_640.jpg",
        "src1280": "https://cdn.pixabay.com/photo/2020/06/18/07/57/castle-5312357_1280.jpg"
    },
    {
        "id": "4667777",
        "src640": "https://cdn.pixabay.com/photo/2019/12/02/13/46/concrete-4667777_640.jpg",
        "src1280": "https://cdn.pixabay.com/photo/2019/12/02/13/46/concrete-4667777_1280.jpg"
    },
    {
        "id": "4783017",
        "src640": "https://cdn.pixabay.com/photo/2020/01/21/14/41/crane-homes-4783017_640.jpg",
        "src1280": "https://cdn.pixabay.com/photo/2020/01/21/14/41/crane-homes-4783017_1280.jpg"
    },
    {
        "id": "5942144",
        "src640": "https://cdn.pixabay.com/photo/2021/01/23/10/58/fire-tower-5942144_640.jpg",
        "src1280": "https://cdn.pixabay.com/photo/2021/01/23/10/58/fire-tower-5942144_1280.jpg"
    },
    {
        "id": "4517768",
        "src640": "https://cdn.pixabay.com/photo/2019/10/01/10/09/architecture-4517768_640.jpg",
        "src1280": "https://cdn.pixabay.com/photo/2019/10/01/10/09/architecture-4517768_1280.jpg"
    },
    {
        "id": "4560276",
        "src640": "https://cdn.pixabay.com/photo/2019/10/18/23/31/wilhelm-storm-dillenburg-4560276_640.jpg",
        "src1280": "https://cdn.pixabay.com/photo/2019/10/18/23/31/wilhelm-storm-dillenburg-4560276_1280.jpg"
    },
    {
        "id": "1469706",
        "src640": "https://cdn.pixabay.com/photo/2016/06/20/20/18/wallfahrtskirche-la-visitation-1469706_640.jpg",
        "src1280": "https://cdn.pixabay.com/photo/2016/06/20/20/18/wallfahrtskirche-la-visitation-1469706_1280.jpg"
    },
    {
        "id": "4507609",
        "src640": "https://cdn.pixabay.com/photo/2019/09/27/06/10/portugal-4507609_640.jpg",
        "src1280": "https://cdn.pixabay.com/photo/2019/09/27/06/10/portugal-4507609_1280.jpg"
    },
    {
        "id": "4272422",
        "src640": "https://cdn.pixabay.com/photo/2019/06/13/20/40/rooftops-4272422_640.jpg",
        "src1280": "https://cdn.pixabay.com/photo/2019/06/13/20/40/rooftops-4272422_1280.jpg"
    },
    {
        "id": "4842805",
        "src640": "https://cdn.pixabay.com/photo/2020/02/12/13/45/cathedral-4842805_640.jpg",
        "src1280": "https://cdn.pixabay.com/photo/2020/02/12/13/45/cathedral-4842805_1280.jpg"
    },
    {
        "id": "2907731",
        "src640": "https://cdn.pixabay.com/photo/2017/11/01/11/35/church-2907731_640.jpg",
        "src1280": "https://cdn.pixabay.com/photo/2017/11/01/11/35/church-2907731_1280.jpg"
    },
    {
        "id": "142538",
        "src640": "https://cdn.pixabay.com/photo/2013/06/30/19/18/vancouver-142538_640.jpg",
        "src1280": "https://cdn.pixabay.com/photo/2013/06/30/19/18/vancouver-142538_1280.jpg"
    },
    {
        "id": "3865953",
        "src640": "https://cdn.pixabay.com/photo/2018/12/09/22/43/building-3865953_640.jpg",
        "src1280": "https://cdn.pixabay.com/photo/2018/12/09/22/43/building-3865953_1280.jpg"
    },
    {
        "id": "5185757",
        "src640": "https://cdn.pixabay.com/photo/2020/05/18/11/12/italy-5185757_640.jpg",
        "src1280": "https://cdn.pixabay.com/photo/2020/05/18/11/12/italy-5185757_1280.jpg"
    },
    {
        "id": "4738628",
        "src640": "https://cdn.pixabay.com/photo/2020/01/03/17/16/architecture-4738628_640.jpg",
        "src1280": "https://cdn.pixabay.com/photo/2020/01/03/17/16/architecture-4738628_1280.jpg"
    },
    {
        "id": "4795524",
        "src640": "https://cdn.pixabay.com/photo/2020/01/26/18/53/architecture-4795524_640.jpg",
        "src1280": "https://cdn.pixabay.com/photo/2020/01/26/18/53/architecture-4795524_1280.jpg"
    },
    {
        "id": "6989749",
        "src640": "https://cdn.pixabay.com/photo/2022/02/03/05/08/daegu-6989749_640.jpg",
        "src1280": "https://cdn.pixabay.com/photo/2022/02/03/05/08/daegu-6989749_1280.jpg"
    },
    {
        "id": "3909038",
        "src640": "https://cdn.pixabay.com/photo/2019/01/02/15/39/tower-3909038_640.jpg",
        "src1280": "https://cdn.pixabay.com/photo/2019/01/02/15/39/tower-3909038_1280.jpg"
    },
    {
        "id": "4954538",
        "src640": "https://cdn.pixabay.com/photo/2020/03/21/16/33/church-4954538_640.jpg",
        "src1280": "https://cdn.pixabay.com/photo/2020/03/21/16/33/church-4954538_1280.jpg"
    },
    {
        "id": "7228120",
        "src640": "https://cdn.pixabay.com/photo/2022/05/28/22/44/multi-storey-parking-garage-7228120_640.jpg",
        "src1280": "https://cdn.pixabay.com/photo/2022/05/28/22/44/multi-storey-parking-garage-7228120_1280.jpg"
    },
    {
        "id": "8393240",
        "src640": "https://cdn.pixabay.com/photo/2023/11/16/22/29/court-8393240_640.jpg",
        "src1280": "https://cdn.pixabay.com/photo/2023/11/16/22/29/court-8393240_1280.jpg"
    },
    {
        "id": "5185009",
        "src640": "https://cdn.pixabay.com/photo/2020/05/18/07/43/architecture-5185009_640.jpg",
        "src1280": "https://cdn.pixabay.com/photo/2020/05/18/07/43/architecture-5185009_1280.jpg"
    },
    {
        "id": "4777296",
        "src640": "https://cdn.pixabay.com/photo/2020/01/19/10/26/input-4777296_640.jpg",
        "src1280": "https://cdn.pixabay.com/photo/2020/01/19/10/26/input-4777296_1280.jpg"
    },
    {
        "id": "2438709",
        "src640": "https://cdn.pixabay.com/photo/2017/06/24/20/09/new-york-2438709_640.jpg",
        "src1280": "https://cdn.pixabay.com/photo/2017/06/24/20/09/new-york-2438709_1280.jpg"
    },
    {
        "id": "5185019",
        "src640": "https://cdn.pixabay.com/photo/2020/05/18/07/43/architecture-5185019_640.jpg",
        "src1280": "https://cdn.pixabay.com/photo/2020/05/18/07/43/architecture-5185019_1280.jpg"
    },
    {
        "id": "7279513",
        "src640": "https://cdn.pixabay.com/photo/2022/06/23/10/49/background-7279513_640.jpg",
        "src1280": "https://cdn.pixabay.com/photo/2022/06/23/10/49/background-7279513_1280.jpg"
    },
    {
        "id": "7100200",
        "src640": "https://cdn.pixabay.com/photo/2022/03/29/20/55/building-7100200_640.jpg",
        "src1280": "https://cdn.pixabay.com/photo/2022/03/29/20/55/building-7100200_1280.jpg"
    },
    {
        "id": "6563907",
        "src640": "https://cdn.pixabay.com/photo/2021/08/22/01/10/building-6563907_640.jpg",
        "src1280": "https://cdn.pixabay.com/photo/2021/08/22/01/10/building-6563907_1280.jpg"
    },
    {
        "id": "4193678",
        "src640": "https://cdn.pixabay.com/photo/2019/05/10/14/39/building-4193678_640.jpg",
        "src1280": "https://cdn.pixabay.com/photo/2019/05/10/14/39/building-4193678_1280.jpg"
    },
    {
        "id": "5396888",
        "src640": "https://cdn.pixabay.com/photo/2020/07/12/11/01/building-5396888_640.jpg",
        "src1280": "https://cdn.pixabay.com/photo/2020/07/12/11/01/building-5396888_1280.jpg"
    },
    {
        "id": "3541718",
        "src640": "https://cdn.pixabay.com/photo/2018/07/16/11/03/building-3541718_640.jpg",
        "src1280": "https://cdn.pixabay.com/photo/2018/07/16/11/03/building-3541718_1280.jpg"
    },
    {
        "id": "2340883",
        "src640": "https://cdn.pixabay.com/photo/2017/05/24/16/09/chicago-2340883_640.jpg",
        "src1280": "https://cdn.pixabay.com/photo/2017/05/24/16/09/chicago-2340883_1280.jpg"
    },
    {
        "id": "7496443",
        "src640": "https://cdn.pixabay.com/photo/2022/10/03/16/41/wall-7496443_640.jpg",
        "src1280": "https://cdn.pixabay.com/photo/2022/10/03/16/41/wall-7496443_1280.jpg"
    },
    {
        "id": "5170288",
        "src640": "https://cdn.pixabay.com/photo/2020/05/14/16/01/leeds-5170288_640.jpg",
        "src1280": "https://cdn.pixabay.com/photo/2020/05/14/16/01/leeds-5170288_1280.jpg"
    },
    {
        "id": "6000784",
        "src640": "https://cdn.pixabay.com/photo/2021/02/10/03/50/building-6000784_640.jpg",
        "src1280": "https://cdn.pixabay.com/photo/2021/02/10/03/50/building-6000784_1280.jpg"
    },
    {
        "id": "926381",
        "src640": "https://cdn.pixabay.com/photo/2015/09/05/23/46/buildings-926381_640.jpg",
        "src1280": "https://cdn.pixabay.com/photo/2015/09/05/23/46/buildings-926381_1280.jpg"
    },
    {
        "id": "7709608",
        "src640": "https://cdn.pixabay.com/photo/2023/01/10/12/19/church-7709608_640.jpg",
        "src1280": "https://cdn.pixabay.com/photo/2023/01/10/12/19/church-7709608_1280.jpg"
    },
    {
        "id": "5768406",
        "src640": "https://cdn.pixabay.com/photo/2020/11/23/02/03/castle-5768406_640.jpg",
        "src1280": "https://cdn.pixabay.com/photo/2020/11/23/02/03/castle-5768406_1280.jpg"
    },
    {
        "id": "5048150",
        "src640": "https://cdn.pixabay.com/photo/2020/04/15/20/44/apartment-5048150_640.jpg",
        "src1280": "https://cdn.pixabay.com/photo/2020/04/15/20/44/apartment-5048150_1280.jpg"
    },
    {
        "id": "4778882",
        "src640": "https://cdn.pixabay.com/photo/2020/01/19/20/02/landscape-4778882_640.jpg",
        "src1280": "https://cdn.pixabay.com/photo/2020/01/19/20/02/landscape-4778882_1280.jpg"
    },
    {
        "id": "2857085",
        "src640": "https://cdn.pixabay.com/photo/2017/10/16/12/09/building-2857085_640.jpg",
        "src1280": "https://cdn.pixabay.com/photo/2017/10/16/12/09/building-2857085_1280.jpg"
    },
    {
        "id": "3297598",
        "src640": "https://cdn.pixabay.com/photo/2018/04/07/02/28/architecture-3297598_640.jpg",
        "src1280": "https://cdn.pixabay.com/photo/2018/04/07/02/28/architecture-3297598_1280.jpg"
    },
    {
        "id": "4771897",
        "src640": "https://cdn.pixabay.com/photo/2020/01/16/21/56/building-4771897_640.jpg",
        "src1280": "https://cdn.pixabay.com/photo/2020/01/16/21/56/building-4771897_1280.jpg"
    },
    {
        "id": "7247484",
        "src640": "https://cdn.pixabay.com/photo/2022/06/07/04/57/couple-7247484_640.jpg",
        "src1280": "https://cdn.pixabay.com/photo/2022/06/07/04/57/couple-7247484_1280.jpg"
    },
    {
        "id": "4252736",
        "src640": "https://cdn.pixabay.com/photo/2019/06/05/01/24/locks-4252736_640.jpg",
        "src1280": "https://cdn.pixabay.com/photo/2019/06/05/01/24/locks-4252736_1280.jpg"
    },
    {
        "id": "6623975",
        "src640": "https://cdn.pixabay.com/photo/2021/09/14/13/09/buildings-6623975_640.jpg",
        "src1280": "https://cdn.pixabay.com/photo/2021/09/14/13/09/buildings-6623975_1280.jpg"
    },
    {
        "id": "7515037",
        "src640": "https://cdn.pixabay.com/photo/2022/10/11/19/41/cathedral-of-st-peter-and-paul-7515037_640.jpg",
        "src1280": "https://cdn.pixabay.com/photo/2022/10/11/19/41/cathedral-of-st-peter-and-paul-7515037_1280.jpg"
    },
    {
        "id": "4851890",
        "src640": "https://cdn.pixabay.com/photo/2020/02/15/19/42/toronto-4851890_640.jpg",
        "src1280": "https://cdn.pixabay.com/photo/2020/02/15/19/42/toronto-4851890_1280.jpg"
    },
    {
        "id": "3770556",
        "src640": "https://cdn.pixabay.com/photo/2018/10/24/15/40/architecture-3770556_640.jpg",
        "src1280": "https://cdn.pixabay.com/photo/2018/10/24/15/40/architecture-3770556_1280.jpg"
    },
    {
        "id": "4827308",
        "src640": "https://cdn.pixabay.com/photo/2020/02/07/14/27/nienburg-4827308_640.jpg",
        "src1280": "https://cdn.pixabay.com/photo/2020/02/07/14/27/nienburg-4827308_1280.jpg"
    },
    {
        "id": "2197528",
        "src640": "https://cdn.pixabay.com/photo/2017/04/03/05/00/incheon-2197528_640.jpg",
        "src1280": "https://cdn.pixabay.com/photo/2017/04/03/05/00/incheon-2197528_1280.jpg"
    },
    {
        "id": "4566396",
        "src640": "https://cdn.pixabay.com/photo/2019/10/21/15/17/city-4566396_640.jpg",
        "src1280": "https://cdn.pixabay.com/photo/2019/10/21/15/17/city-4566396_1280.jpg"
    },
    {
        "id": "4597814",
        "src640": "https://cdn.pixabay.com/photo/2019/11/03/04/28/munich-4597814_640.jpg",
        "src1280": "https://cdn.pixabay.com/photo/2019/11/03/04/28/munich-4597814_1280.jpg"
    },
    {
        "id": "972913",
        "src640": "https://cdn.pixabay.com/photo/2015/10/05/17/09/architecture-972913_640.jpg",
        "src1280": "https://cdn.pixabay.com/photo/2015/10/05/17/09/architecture-972913_1280.jpg"
    },
    {
        "id": "4417024",
        "src640": "https://cdn.pixabay.com/photo/2019/08/19/17/44/tool-4417024_640.jpg",
        "src1280": "https://cdn.pixabay.com/photo/2019/08/19/17/44/tool-4417024_1280.jpg"
    },
    {
        "id": "6710188",
        "src640": "https://cdn.pixabay.com/photo/2021/10/14/19/21/cappella-della-madonna-di-vitaleta-6710188_640.jpg",
        "src1280": "https://cdn.pixabay.com/photo/2021/10/14/19/21/cappella-della-madonna-di-vitaleta-6710188_1280.jpg"
    },
    {
        "id": "5663132",
        "src640": "https://cdn.pixabay.com/photo/2020/10/17/19/05/castle-5663132_640.jpg",
        "src1280": "https://cdn.pixabay.com/photo/2020/10/17/19/05/castle-5663132_1280.jpg"
    },
    {
        "id": "5103441",
        "src640": "https://cdn.pixabay.com/photo/2020/04/28/08/45/architecture-5103441_640.jpg",
        "src1280": "https://cdn.pixabay.com/photo/2020/04/28/08/45/architecture-5103441_1280.jpg"
    },
    {
        "id": "6472806",
        "src640": "https://cdn.pixabay.com/photo/2021/07/17/10/50/marian-column-6472806_640.jpg",
        "src1280": "https://cdn.pixabay.com/photo/2021/07/17/10/50/marian-column-6472806_1280.jpg"
    },
    {
        "id": "4814557",
        "src640": "https://cdn.pixabay.com/photo/2020/02/03/02/13/street-4814557_640.jpg",
        "src1280": "https://cdn.pixabay.com/photo/2020/02/03/02/13/street-4814557_1280.jpg"
    },
    {
        "id": "7735378",
        "src640": "https://cdn.pixabay.com/photo/2023/01/22/00/58/ai-generated-7735378_640.jpg",
        "src1280": "https://cdn.pixabay.com/photo/2023/01/22/00/58/ai-generated-7735378_1280.jpg"
    },
    {
        "id": "5666549",
        "src640": "https://cdn.pixabay.com/photo/2020/10/19/02/20/chair-5666549_640.jpg",
        "src1280": "https://cdn.pixabay.com/photo/2020/10/19/02/20/chair-5666549_1280.jpg"
    },
    {
        "id": "3762805",
        "src640": "https://cdn.pixabay.com/photo/2018/10/21/12/25/environment-3762805_640.jpg",
        "src1280": "https://cdn.pixabay.com/photo/2018/10/21/12/25/environment-3762805_1280.jpg"
    },
    {
        "id": "4012316",
        "src640": "https://cdn.pixabay.com/photo/2019/02/21/21/30/luneburg-4012316_640.jpg",
        "src1280": "https://cdn.pixabay.com/photo/2019/02/21/21/30/luneburg-4012316_1280.jpg"
    },
    {
        "id": "785038",
        "src640": "https://cdn.pixabay.com/photo/2015/05/26/17/05/ruins-785038_640.jpg",
        "src1280": "https://cdn.pixabay.com/photo/2015/05/26/17/05/ruins-785038_1280.jpg"
    },
    {
        "id": "5683587",
        "src640": "https://cdn.pixabay.com/photo/2020/10/25/08/52/buildings-5683587_640.jpg",
        "src1280": "https://cdn.pixabay.com/photo/2020/10/25/08/52/buildings-5683587_1280.jpg"
    },
    {
        "id": "905655",
        "src640": "https://cdn.pixabay.com/photo/2015/08/24/21/08/warehouse-905655_640.jpg",
        "src1280": "https://cdn.pixabay.com/photo/2015/08/24/21/08/warehouse-905655_1280.jpg"
    },
    {
        "id": "2837318",
        "src640": "https://cdn.pixabay.com/photo/2017/10/10/14/13/architecture-2837318_640.jpg",
        "src1280": "https://cdn.pixabay.com/photo/2017/10/10/14/13/architecture-2837318_1280.jpg"
    },
    {
        "id": "6749507",
        "src640": "https://cdn.pixabay.com/photo/2021/10/28/11/46/building-6749507_640.jpg",
        "src1280": "https://cdn.pixabay.com/photo/2021/10/28/11/46/building-6749507_1280.jpg"
    },
    {
        "id": "6758890",
        "src640": "https://cdn.pixabay.com/photo/2021/10/31/23/37/abandoned-6758890_640.jpg",
        "src1280": "https://cdn.pixabay.com/photo/2021/10/31/23/37/abandoned-6758890_1280.jpg"
    },
    {
        "id": "2569722",
        "src640": "https://cdn.pixabay.com/photo/2017/08/02/01/54/north-bridge-2569722_640.jpg",
        "src1280": "https://cdn.pixabay.com/photo/2017/08/02/01/54/north-bridge-2569722_1280.jpg"
    },
    {
        "id": "4732529",
        "src640": "https://cdn.pixabay.com/photo/2019/12/31/18/37/budapest-4732529_640.jpg",
        "src1280": "https://cdn.pixabay.com/photo/2019/12/31/18/37/budapest-4732529_1280.jpg"
    },
    {
        "id": "424822",
        "src640": "https://cdn.pixabay.com/photo/2014/08/22/22/24/palma-cathedral-424822_640.jpg",
        "src1280": "https://cdn.pixabay.com/photo/2014/08/22/22/24/palma-cathedral-424822_1280.jpg"
    },
    {
        "id": "5955037",
        "src640": "https://cdn.pixabay.com/photo/2021/01/27/14/18/giottos-bell-tower-5955037_640.jpg",
        "src1280": "https://cdn.pixabay.com/photo/2021/01/27/14/18/giottos-bell-tower-5955037_1280.jpg"
    },
    {
        "id": "1275765",
        "src640": "https://cdn.pixabay.com/photo/2016/03/23/22/16/architecture-1275765_640.jpg",
        "src1280": "https://cdn.pixabay.com/photo/2016/03/23/22/16/architecture-1275765_1280.jpg"
    },
    {
        "id": "4339966",
        "src640": "https://cdn.pixabay.com/photo/2019/07/15/17/28/the-boulevard-arjaan-4339966_640.jpg",
        "src1280": "https://cdn.pixabay.com/photo/2019/07/15/17/28/the-boulevard-arjaan-4339966_1280.jpg"
    },
    {
        "id": "4534979",
        "src640": "https://cdn.pixabay.com/photo/2019/10/08/12/56/house-4534979_640.jpg",
        "src1280": "https://cdn.pixabay.com/photo/2019/10/08/12/56/house-4534979_1280.jpg"
    },
    {
        "id": "2446888",
        "src640": "https://cdn.pixabay.com/photo/2017/06/27/09/51/omino-2446888_640.jpg",
        "src1280": "https://cdn.pixabay.com/photo/2017/06/27/09/51/omino-2446888_1280.jpg"
    },
    {
        "id": "2000451",
        "src640": "https://cdn.pixabay.com/photo/2017/01/22/18/16/hamburg-2000451_640.jpg",
        "src1280": "https://cdn.pixabay.com/photo/2017/01/22/18/16/hamburg-2000451_1280.jpg"
    },
    {
        "id": "4882694",
        "src640": "https://cdn.pixabay.com/photo/2020/02/26/20/20/vintage-door-4882694_640.jpg",
        "src1280": "https://cdn.pixabay.com/photo/2020/02/26/20/20/vintage-door-4882694_1280.jpg"
    },
    {
        "id": "7444696",
        "src640": "https://cdn.pixabay.com/photo/2022/09/10/10/49/church-7444696_640.jpg",
        "src1280": "https://cdn.pixabay.com/photo/2022/09/10/10/49/church-7444696_1280.jpg"
    },
    {
        "id": "7231966",
        "src640": "https://cdn.pixabay.com/photo/2022/05/30/19/49/building-7231966_640.jpg",
        "src1280": "https://cdn.pixabay.com/photo/2022/05/30/19/49/building-7231966_1280.jpg"
    },
    {
        "id": "4578946",
        "src640": "https://cdn.pixabay.com/photo/2019/10/26/08/15/church-4578946_640.jpg",
        "src1280": "https://cdn.pixabay.com/photo/2019/10/26/08/15/church-4578946_1280.jpg"
    },
    {
        "id": "6214820",
        "src640": "https://cdn.pixabay.com/photo/2021/04/28/18/58/building-6214820_640.jpg",
        "src1280": "https://cdn.pixabay.com/photo/2021/04/28/18/58/building-6214820_1280.jpg"
    },
    {
        "id": "4932094",
        "src640": "https://cdn.pixabay.com/photo/2020/03/14/23/49/hampton-4932094_640.jpg",
        "src1280": "https://cdn.pixabay.com/photo/2020/03/14/23/49/hampton-4932094_1280.jpg"
    },
    {
        "id": "5178214",
        "src640": "https://cdn.pixabay.com/photo/2020/05/16/16/44/alley-5178214_640.jpg",
        "src1280": "https://cdn.pixabay.com/photo/2020/05/16/16/44/alley-5178214_1280.jpg"
    },
    {
        "id": "265323",
        "src640": "https://cdn.pixabay.com/photo/2014/02/13/13/33/wrocaw-265323_640.jpg",
        "src1280": "https://cdn.pixabay.com/photo/2014/02/13/13/33/wrocaw-265323_1280.jpg"
    },
    {
        "id": "7635328",
        "src640": "https://cdn.pixabay.com/photo/2022/12/04/20/10/surveillance-7635328_640.jpg",
        "src1280": "https://cdn.pixabay.com/photo/2022/12/04/20/10/surveillance-7635328_1280.jpg"
    },
    {
        "id": "4464049",
        "src640": "https://cdn.pixabay.com/photo/2019/09/09/16/39/budapest-4464049_640.jpg",
        "src1280": "https://cdn.pixabay.com/photo/2019/09/09/16/39/budapest-4464049_1280.jpg"
    },
    {
        "id": "5428915",
        "src640": "https://cdn.pixabay.com/photo/2020/07/22/12/45/church-5428915_640.jpg",
        "src1280": "https://cdn.pixabay.com/photo/2020/07/22/12/45/church-5428915_1280.jpg"
    },
    {
        "id": "4819242",
        "src640": "https://cdn.pixabay.com/photo/2020/02/04/20/27/sculpture-4819242_640.jpg",
        "src1280": "https://cdn.pixabay.com/photo/2020/02/04/20/27/sculpture-4819242_1280.jpg"
    },
    {
        "id": "4648522",
        "src640": "https://cdn.pixabay.com/photo/2019/11/24/04/09/tower-4648522_640.jpg",
        "src1280": "https://cdn.pixabay.com/photo/2019/11/24/04/09/tower-4648522_1280.jpg"
    }
]