[
    {
        "id": "426986",
        "src640": "https://cdn.pixabay.com/photo/2014/08/25/08/51/dog-426986_640.jpg",
        "src1280": "https://cdn.pixabay.com/photo/2014/08/25/08/51/dog-426986_1280.jpg"
    },
    {
        "id": "6100486",
        "src640": "https://cdn.pixabay.com/photo/2021/03/16/17/22/dog-6100486_640.jpg",
        "src1280": "https://cdn.pixabay.com/photo/2021/03/16/17/22/dog-6100486_1280.jpg"
    },
    {
        "id": "6538094",
        "src640": "https://cdn.pixabay.com/photo/2021/08/11/10/29/cocker-spaniel-6538094_640.jpg",
        "src1280": "https://cdn.pixabay.com/photo/2021/08/11/10/29/cocker-spaniel-6538094_1280.jpg"
    },
    {
        "id": "5311981",
        "src640": "https://cdn.pixabay.com/photo/2020/06/18/05/32/dog-5311981_640.jpg",
        "src1280": "https://cdn.pixabay.com/photo/2020/06/18/05/32/dog-5311981_1280.jpg"
    },
    {
        "id": "6830115",
        "src640": "https://cdn.pixabay.com/photo/2021/11/28/12/38/greyhound-6830115_640.jpg",
        "src1280": "https://cdn.pixabay.com/photo/2021/11/28/12/38/greyhound-6830115_1280.jpg"
    },
    {
        "id": "6071319",
        "src640": "https://cdn.pixabay.com/photo/2021/03/05/13/40/havanese-6071319_640.jpg",
        "src1280": "https://cdn.pixabay.com/photo/2021/03/05/13/40/havanese-6071319_1280.jpg"
    },
    {
        "id": "672614",
        "src640": "https://cdn.pixabay.com/photo/2015/03/14/03/21/flower-meadow-672614_640.jpg",
        "src1280": "https://cdn.pixabay.com/photo/2015/03/14/03/21/flower-meadow-672614_1280.jpg"
    },
    {
        "id": "4137681",
        "src640": "https://cdn.pixabay.com/photo/2019/04/18/18/36/labrador-4137681_640.jpg",
        "src1280": "https://cdn.pixabay.com/photo/2019/04/18/18/36/labrador-4137681_1280.jpg"
    },
    {
        "id": "1140147",
        "src640": "https://cdn.pixabay.com/photo/2016/01/14/15/08/dog-1140147_640.jpg",
        "src1280": "https://cdn.pixabay.com/photo/2016/01/14/15/08/dog-1140147_1280.jpg"
    },
    {
        "id": "8255305",
        "src640": "https://cdn.pixabay.com/photo/2023/09/15/18/29/animal-8255305_640.jpg",
        "src1280": "https://cdn.pixabay.com/photo/2023/09/15/18/29/animal-8255305_1280.jpg"
    },
    {
        "id": "3656994",
        "src640": "https://cdn.pixabay.com/photo/2018/09/05/20/16/dog-3656994_640.jpg",
        "src1280": "https://cdn.pixabay.com/photo/2018/09/05/20/16/dog-3656994_1280.jpg"
    },
    {
        "id": "7667134",
        "src640": "https://cdn.pixabay.com/photo/2022/12/20/05/41/dog-7667134_640.jpg",
        "src1280": "https://cdn.pixabay.com/photo/2022/12/20/05/41/dog-7667134_1280.jpg"
    },
    {
        "id": "5281696",
        "src640": "https://cdn.pixabay.com/photo/2020/06/10/08/04/animal-5281696_640.jpg",
        "src1280": "https://cdn.pixabay.com/photo/2020/06/10/08/04/animal-5281696_1280.jpg"
    },
    {
        "id": "6018584",
        "src640": "https://cdn.pixabay.com/photo/2021/02/15/17/22/labrador-retriever-6018584_640.jpg",
        "src1280": "https://cdn.pixabay.com/photo/2021/02/15/17/22/labrador-retriever-6018584_1280.jpg"
    },
    {
        "id": "3232405",
        "src640": "https://cdn.pixabay.com/photo/2018/03/16/20/39/have-eser-3232405_640.jpg",
        "src1280": "https://cdn.pixabay.com/photo/2018/03/16/20/39/have-eser-3232405_1280.jpg"
    },
    {
        "id": "3800119",
        "src640": "https://cdn.pixabay.com/photo/2018/11/07/10/12/dog-3800119_640.jpg",
        "src1280": "https://cdn.pixabay.com/photo/2018/11/07/10/12/dog-3800119_1280.jpg"
    },
    {
        "id": "3244175",
        "src640": "https://cdn.pixabay.com/photo/2018/03/20/18/24/dog-3244175_640.jpg",
        "src1280": "https://cdn.pixabay.com/photo/2018/03/20/18/24/dog-3244175_1280.jpg"
    },
    {
        "id": "1541497",
        "src640": "https://cdn.pixabay.com/photo/2016/07/25/22/22/dog-1541497_640.jpg",
        "src1280": "https://cdn.pixabay.com/photo/2016/07/25/22/22/dog-1541497_1280.jpg"
    },
    {
        "id": "4755331",
        "src640": "https://cdn.pixabay.com/photo/2020/01/10/13/54/animal-4755331_640.jpg",
        "src1280": "https://cdn.pixabay.com/photo/2020/01/10/13/54/animal-4755331_1280.jpg"
    },
    {
        "id": "1681363",
        "src640": "https://cdn.pixabay.com/photo/2016/09/19/21/44/dog-1681363_640.jpg",
        "src1280": "https://cdn.pixabay.com/photo/2016/09/19/21/44/dog-1681363_1280.jpg"
    },
    {
        "id": "7487009",
        "src640": "https://cdn.pixabay.com/photo/2022/09/29/09/46/dog-7487009_640.jpg",
        "src1280": "https://cdn.pixabay.com/photo/2022/09/29/09/46/dog-7487009_1280.jpg"
    },
    {
        "id": "8136588",
        "src640": "https://cdn.pixabay.com/photo/2023/07/19/10/36/dog-8136588_640.jpg",
        "src1280": "https://cdn.pixabay.com/photo/2023/07/19/10/36/dog-8136588_1280.jpg"
    },
    {
        "id": "7460709",
        "src640": "https://cdn.pixabay.com/photo/2022/09/17/10/58/dog-7460709_640.jpg",
        "src1280": "https://cdn.pixabay.com/photo/2022/09/17/10/58/dog-7460709_1280.jpg"
    },
    {
        "id": "700815",
        "src640": "https://cdn.pixabay.com/photo/2015/03/31/10/46/slalom-700815_640.jpg",
        "src1280": "https://cdn.pixabay.com/photo/2015/03/31/10/46/slalom-700815_1280.jpg"
    },
    {
        "id": "2743",
        "src640": "https://cdn.pixabay.com/photo/2010/12/13/10/22/dog-2743_640.jpg",
        "src1280": "https://cdn.pixabay.com/photo/2010/12/13/10/22/dog-2743_1280.jpg"
    },
    {
        "id": "6640021",
        "src640": "https://cdn.pixabay.com/photo/2021/09/20/07/17/dog-6640021_640.jpg",
        "src1280": "https://cdn.pixabay.com/photo/2021/09/20/07/17/dog-6640021_1280.jpg"
    },
    {
        "id": "4171999",
        "src640": "https://cdn.pixabay.com/photo/2019/05/01/20/38/meerkat-4171999_640.jpg",
        "src1280": "https://cdn.pixabay.com/photo/2019/05/01/20/38/meerkat-4171999_1280.jpg"
    },
    {
        "id": "1853438",
        "src640": "https://cdn.pixabay.com/photo/2016/11/23/15/14/adorable-1853438_640.jpg",
        "src1280": "https://cdn.pixabay.com/photo/2016/11/23/15/14/adorable-1853438_1280.jpg"
    },
    {
        "id": "2421378",
        "src640": "https://cdn.pixabay.com/photo/2017/06/20/00/29/dog-2421378_640.jpg",
        "src1280": "https://cdn.pixabay.com/photo/2017/06/20/00/29/dog-2421378_1280.jpg"
    },
    {
        "id": "2795605",
        "src640": "https://cdn.pixabay.com/photo/2017/09/28/13/54/golden-retriever-2795605_640.jpg",
        "src1280": "https://cdn.pixabay.com/photo/2017/09/28/13/54/golden-retriever-2795605_1280.jpg"
    },
    {
        "id": "7742522",
        "src640": "https://cdn.pixabay.com/photo/2023/01/25/06/16/dog-7742522_640.jpg",
        "src1280": "https://cdn.pixabay.com/photo/2023/01/25/06/16/dog-7742522_1280.jpg"
    },
    {
        "id": "3072077",
        "src640": "https://cdn.pixabay.com/photo/2018/01/09/17/08/dog-3072077_640.jpg",
        "src1280": "https://cdn.pixabay.com/photo/2018/01/09/17/08/dog-3072077_1280.jpg"
    },
    {
        "id": "273416",
        "src640": "https://cdn.pixabay.com/photo/2014/02/24/08/51/husky-273416_640.jpg",
        "src1280": "https://cdn.pixabay.com/photo/2014/02/24/08/51/husky-273416_1280.jpg"
    },
    {
        "id": "2655103",
        "src640": "https://cdn.pixabay.com/photo/2017/08/18/14/03/boxer-2655103_640.jpg",
        "src1280": "https://cdn.pixabay.com/photo/2017/08/18/14/03/boxer-2655103_1280.jpg"
    },
    {
        "id": "1190018",
        "src640": "https://cdn.pixabay.com/photo/2016/02/09/17/44/dog-1190018_640.jpg",
        "src1280": "https://cdn.pixabay.com/photo/2016/02/09/17/44/dog-1190018_1280.jpg"
    },
    {
        "id": "2731416",
        "src640": "https://cdn.pixabay.com/photo/2017/09/09/09/11/dog-2731416_640.jpg",
        "src1280": "https://cdn.pixabay.com/photo/2017/09/09/09/11/dog-2731416_1280.jpg"
    },
    {
        "id": "7216639",
        "src640": "https://cdn.pixabay.com/photo/2022/05/23/16/32/dog-7216639_640.jpg",
        "src1280": "https://cdn.pixabay.com/photo/2022/05/23/16/32/dog-7216639_1280.jpg"
    },
    {
        "id": "5613767",
        "src640": "https://cdn.pixabay.com/photo/2020/09/29/19/34/poodle-5613767_640.jpg",
        "src1280": "https://cdn.pixabay.com/photo/2020/09/29/19/34/poodle-5613767_1280.jpg"
    },
    {
        "id": "8375590",
        "src640": "https://cdn.pixabay.com/photo/2023/11/08/18/50/ai-generated-8375590_640.jpg",
        "src1280": "https://cdn.pixabay.com/photo/2023/11/08/18/50/ai-generated-8375590_1280.jpg"
    },
    {
        "id": "5955173",
        "src640": "https://cdn.pixabay.com/photo/2021/01/27/15/06/border-collie-5955173_640.jpg",
        "src1280": "https://cdn.pixabay.com/photo/2021/01/27/15/06/border-collie-5955173_1280.jpg"
    },
    {
        "id": "2546070",
        "src640": "https://cdn.pixabay.com/photo/2017/07/27/17/28/dog-2546070_640.jpg",
        "src1280": "https://cdn.pixabay.com/photo/2017/07/27/17/28/dog-2546070_1280.jpg"
    },
    {
        "id": "6830181",
        "src640": "https://cdn.pixabay.com/photo/2021/11/28/12/46/greyhound-6830181_640.jpg",
        "src1280": "https://cdn.pixabay.com/photo/2021/11/28/12/46/greyhound-6830181_1280.jpg"
    },
    {
        "id": "672800",
        "src640": "https://cdn.pixabay.com/photo/2015/03/14/05/39/mastino-napoletano-672800_640.jpg",
        "src1280": "https://cdn.pixabay.com/photo/2015/03/14/05/39/mastino-napoletano-672800_1280.jpg"
    },
    {
        "id": "941952",
        "src640": "https://cdn.pixabay.com/photo/2015/09/15/23/16/dog-941952_640.jpg",
        "src1280": "https://cdn.pixabay.com/photo/2015/09/15/23/16/dog-941952_1280.jpg"
    },
    {
        "id": "14042",
        "src640": "https://cdn.pixabay.com/photo/2012/02/17/14/51/doberman-14042_640.jpg",
        "src1280": "https://cdn.pixabay.com/photo/2012/02/17/14/51/doberman-14042_1280.jpg"
    },
    {
        "id": "6527913",
        "src640": "https://cdn.pixabay.com/photo/2021/08/07/06/46/dog-6527913_640.jpg",
        "src1280": "https://cdn.pixabay.com/photo/2021/08/07/06/46/dog-6527913_1280.jpg"
    },
    {
        "id": "5977857",
        "src640": "https://cdn.pixabay.com/photo/2021/02/03/12/47/labrador-retriever-5977857_640.jpg",
        "src1280": "https://cdn.pixabay.com/photo/2021/02/03/12/47/labrador-retriever-5977857_1280.jpg"
    },
    {
        "id": "3567427",
        "src640": "https://cdn.pixabay.com/photo/2018/07/28/07/19/dog-3567427_640.jpg",
        "src1280": "https://cdn.pixabay.com/photo/2018/07/28/07/19/dog-3567427_1280.jpg"
    },
    {
        "id": "864178",
        "src640": "https://cdn.pixabay.com/photo/2015/07/28/10/04/pet-dogs-864178_640.jpg",
        "src1280": "https://cdn.pixabay.com/photo/2015/07/28/10/04/pet-dogs-864178_1280.jpg"
    },
    {
        "id": "7008689",
        "src640": "https://cdn.pixabay.com/photo/2022/02/12/09/23/dog-7008689_640.jpg",
        "src1280": "https://cdn.pixabay.com/photo/2022/02/12/09/23/dog-7008689_1280.jpg"
    },
    {
        "id": "749767",
        "src640": "https://cdn.pixabay.com/photo/2015/05/02/10/54/german-shepherd-749767_640.jpg",
        "src1280": "https://cdn.pixabay.com/photo/2015/05/02/10/54/german-shepherd-749767_1280.jpg"
    },
    {
        "id": "2704654",
        "src640": "https://cdn.pixabay.com/photo/2017/09/01/16/11/dog-by-the-stove-2704654_640.jpg",
        "src1280": "https://cdn.pixabay.com/photo/2017/09/01/16/11/dog-by-the-stove-2704654_1280.jpg"
    },
    {
        "id": "4538836",
        "src640": "https://cdn.pixabay.com/photo/2019/10/10/06/28/terrier-4538836_640.jpg",
        "src1280": "https://cdn.pixabay.com/photo/2019/10/10/06/28/terrier-4538836_1280.jpg"
    },
    {
        "id": "7795922",
        "src640": "https://cdn.pixabay.com/photo/2023/02/17/12/16/golden-retriever-7795922_640.jpg",
        "src1280": "https://cdn.pixabay.com/photo/2023/02/17/12/16/golden-retriever-7795922_1280.jpg"
    },
    {
        "id": "4580061",
        "src640": "https://cdn.pixabay.com/photo/2019/10/26/18/36/labrador-4580061_640.jpg",
        "src1280": "https://cdn.pixabay.com/photo/2019/10/26/18/36/labrador-4580061_1280.jpg"
    },
    {
        "id": "4833024",
        "src640": "https://cdn.pixabay.com/photo/2020/02/09/12/43/dog-4833024_640.jpg",
        "src1280": "https://cdn.pixabay.com/photo/2020/02/09/12/43/dog-4833024_1280.jpg"
    },
    {
        "id": "421714",
        "src640": "https://cdn.pixabay.com/photo/2014/08/19/16/34/dog-421714_640.jpg",
        "src1280": "https://cdn.pixabay.com/photo/2014/08/19/16/34/dog-421714_1280.jpg"
    },
    {
        "id": "4071437",
        "src640": "https://cdn.pixabay.com/photo/2019/03/21/17/11/dog-4071437_640.jpg",
        "src1280": "https://cdn.pixabay.com/photo/2019/03/21/17/11/dog-4071437_1280.jpg"
    },
    {
        "id": "83966",
        "src640": "https://cdn.pixabay.com/photo/2013/02/20/19/07/guard-dog-83966_640.jpg",
        "src1280": "https://cdn.pixabay.com/photo/2013/02/20/19/07/guard-dog-83966_1280.jpg"
    },
    {
        "id": "672615",
        "src640": "https://cdn.pixabay.com/photo/2015/03/14/03/24/ball-672615_640.jpg",
        "src1280": "https://cdn.pixabay.com/photo/2015/03/14/03/24/ball-672615_1280.jpg"
    },
    {
        "id": "7324620",
        "src640": "https://cdn.pixabay.com/photo/2022/07/16/07/30/boxer-7324620_640.jpg",
        "src1280": "https://cdn.pixabay.com/photo/2022/07/16/07/30/boxer-7324620_1280.jpg"
    },
    {
        "id": "3339466",
        "src640": "https://cdn.pixabay.com/photo/2018/04/21/20/41/yorkshire-terrier-3339466_640.jpg",
        "src1280": "https://cdn.pixabay.com/photo/2018/04/21/20/41/yorkshire-terrier-3339466_1280.jpg"
    },
    {
        "id": "5462771",
        "src640": "https://cdn.pixabay.com/photo/2020/08/04/12/46/dog-5462771_640.jpg",
        "src1280": "https://cdn.pixabay.com/photo/2020/08/04/12/46/dog-5462771_1280.jpg"
    },
    {
        "id": "4952764",
        "src640": "https://cdn.pixabay.com/photo/2020/03/21/06/12/portrait-4952764_640.jpg",
        "src1280": "https://cdn.pixabay.com/photo/2020/03/21/06/12/portrait-4952764_1280.jpg"
    },
    {
        "id": "2363439",
        "src640": "https://cdn.pixabay.com/photo/2017/06/01/12/54/dog-2363439_640.jpg",
        "src1280": "https://cdn.pixabay.com/photo/2017/06/01/12/54/dog-2363439_1280.jpg"
    },
    {
        "id": "7657123",
        "src640": "https://cdn.pixabay.com/photo/2022/12/15/07/49/merry-christmas-7657123_640.jpg",
        "src1280": "https://cdn.pixabay.com/photo/2022/12/15/07/49/merry-christmas-7657123_1280.jpg"
    },
    {
        "id": "2680819",
        "src640": "https://cdn.pixabay.com/photo/2017/08/25/17/26/dog-2680819_640.jpg",
        "src1280": "https://cdn.pixabay.com/photo/2017/08/25/17/26/dog-2680819_1280.jpg"
    },
    {
        "id": "112507",
        "src640": "https://cdn.pixabay.com/photo/2013/05/21/21/16/dwarf-spitz-112507_640.jpg",
        "src1280": "https://cdn.pixabay.com/photo/2013/05/21/21/16/dwarf-spitz-112507_1280.jpg"
    },
    {
        "id": "5227954",
        "src640": "https://cdn.pixabay.com/photo/2020/05/27/16/36/big-eyes-5227954_640.jpg",
        "src1280": "https://cdn.pixabay.com/photo/2020/05/27/16/36/big-eyes-5227954_1280.jpg"
    },
    {
        "id": "6241674",
        "src640": "https://cdn.pixabay.com/photo/2021/05/09/18/05/black-german-shepherd-6241674_640.jpg",
        "src1280": "https://cdn.pixabay.com/photo/2021/05/09/18/05/black-german-shepherd-6241674_1280.jpg"
    },
    {
        "id": "7563714",
        "src640": "https://cdn.pixabay.com/photo/2022/11/02/00/42/dog-7563714_640.jpg",
        "src1280": "https://cdn.pixabay.com/photo/2022/11/02/00/42/dog-7563714_1280.jpg"
    },
    {
        "id": "7907390",
        "src640": "https://cdn.pixabay.com/photo/2023/04/07/17/03/dog-7907390_640.jpg",
        "src1280": "https://cdn.pixabay.com/photo/2023/04/07/17/03/dog-7907390_1280.jpg"
    },
    {
        "id": "7795882",
        "src640": "https://cdn.pixabay.com/photo/2023/02/17/11/45/golden-retriever-7795882_640.jpg",
        "src1280": "https://cdn.pixabay.com/photo/2023/02/17/11/45/golden-retriever-7795882_1280.jpg"
    },
    {
        "id": "7741364",
        "src640": "https://cdn.pixabay.com/photo/2023/01/24/15/47/dog-7741364_640.jpg",
        "src1280": "https://cdn.pixabay.com/photo/2023/01/24/15/47/dog-7741364_1280.jpg"
    },
    {
        "id": "7714229",
        "src640": "https://cdn.pixabay.com/photo/2023/01/12/14/20/dog-7714229_640.jpg",
        "src1280": "https://cdn.pixabay.com/photo/2023/01/12/14/20/dog-7714229_1280.jpg"
    },
    {
        "id": "7328004",
        "src640": "https://cdn.pixabay.com/photo/2022/07/17/18/07/chihuahua-bolonka-7328004_640.jpg",
        "src1280": "https://cdn.pixabay.com/photo/2022/07/17/18/07/chihuahua-bolonka-7328004_1280.jpg"
    },
    {
        "id": "2994405",
        "src640": "https://cdn.pixabay.com/photo/2017/12/03/07/49/doberman-2994405_640.jpg",
        "src1280": "https://cdn.pixabay.com/photo/2017/12/03/07/49/doberman-2994405_1280.jpg"
    },
    {
        "id": "5142760",
        "src640": "https://cdn.pixabay.com/photo/2020/05/07/18/52/dog-5142760_640.jpg",
        "src1280": "https://cdn.pixabay.com/photo/2020/05/07/18/52/dog-5142760_1280.jpg"
    },
    {
        "id": "1273763",
        "src640": "https://cdn.pixabay.com/photo/2016/03/22/21/19/dog-1273763_640.jpg",
        "src1280": "https://cdn.pixabay.com/photo/2016/03/22/21/19/dog-1273763_1280.jpg"
    },
    {
        "id": "450079",
        "src640": "https://cdn.pixabay.com/photo/2014/09/17/21/36/dog-450079_640.jpg",
        "src1280": "https://cdn.pixabay.com/photo/2014/09/17/21/36/dog-450079_1280.jpg"
    },
    {
        "id": "933567",
        "src640": "https://cdn.pixabay.com/photo/2015/09/09/21/38/poodle-933567_640.jpg",
        "src1280": "https://cdn.pixabay.com/photo/2015/09/09/21/38/poodle-933567_1280.jpg"
    },
    {
        "id": "687142",
        "src640": "https://cdn.pixabay.com/photo/2015/03/24/06/37/dog-687142_640.jpg",
        "src1280": "https://cdn.pixabay.com/photo/2015/03/24/06/37/dog-687142_1280.jpg"
    },
    {
        "id": "1016063",
        "src640": "https://cdn.pixabay.com/photo/2015/10/31/18/28/australian-shepherd-mini-1016063_640.jpg",
        "src1280": "https://cdn.pixabay.com/photo/2015/10/31/18/28/australian-shepherd-mini-1016063_1280.jpg"
    },
    {
        "id": "7184020",
        "src640": "https://cdn.pixabay.com/photo/2022/05/09/08/36/cocker-spaniel-7184020_640.jpg",
        "src1280": "https://cdn.pixabay.com/photo/2022/05/09/08/36/cocker-spaniel-7184020_1280.jpg"
    },
    {
        "id": "6815395",
        "src640": "https://cdn.pixabay.com/photo/2021/11/21/22/24/animal-6815395_640.jpg",
        "src1280": "https://cdn.pixabay.com/photo/2021/11/21/22/24/animal-6815395_1280.jpg"
    },
    {
        "id": "4783833",
        "src640": "https://cdn.pixabay.com/photo/2020/01/21/19/48/dog-4783833_640.jpg",
        "src1280": "https://cdn.pixabay.com/photo/2020/01/21/19/48/dog-4783833_1280.jpg"
    },
    {
        "id": "4440866",
        "src640": "https://cdn.pixabay.com/photo/2019/08/30/09/47/street-4440866_640.jpg",
        "src1280": "https://cdn.pixabay.com/photo/2019/08/30/09/47/street-4440866_1280.jpg"
    },
    {
        "id": "672625",
        "src640": "https://cdn.pixabay.com/photo/2015/03/14/03/37/malinois-672625_640.jpg",
        "src1280": "https://cdn.pixabay.com/photo/2015/03/14/03/37/malinois-672625_1280.jpg"
    },
    {
        "id": "6549463",
        "src640": "https://cdn.pixabay.com/photo/2021/08/16/06/25/dog-6549463_640.jpg",
        "src1280": "https://cdn.pixabay.com/photo/2021/08/16/06/25/dog-6549463_1280.jpg"
    }
]