[
    {
        "id": "8203154",
        "src640": "https://cdn.pixabay.com/photo/2023/08/20/20/36/irish-setter-8203154_640.jpg",
        "src1280": "https://cdn.pixabay.com/photo/2023/08/20/20/36/irish-setter-8203154_1280.jpg"
    },
    {
        "id": "4652838",
        "src640": "https://cdn.pixabay.com/photo/2019/11/25/19/16/pool-4652838_640.jpg",
        "src1280": "https://cdn.pixabay.com/photo/2019/11/25/19/16/pool-4652838_1280.jpg"
    },
    {
        "id": "4350582",
        "src640": "https://cdn.pixabay.com/photo/2019/07/20/10/39/puppy-4350582_640.jpg",
        "src1280": "https://cdn.pixabay.com/photo/2019/07/20/10/39/puppy-4350582_1280.jpg"
    },
    {
        "id": "5275309",
        "src640": "https://cdn.pixabay.com/photo/2020/06/08/17/03/dog-5275309_640.jpg",
        "src1280": "https://cdn.pixabay.com/photo/2020/06/08/17/03/dog-5275309_1280.jpg"
    },
    {
        "id": "5735927",
        "src640": "https://cdn.pixabay.com/photo/2020/11/12/16/13/dog-5735927_640.jpg",
        "src1280": "https://cdn.pixabay.com/photo/2020/11/12/16/13/dog-5735927_1280.jpg"
    },
    {
        "id": "4085728",
        "src640": "https://cdn.pixabay.com/photo/2019/03/27/19/48/dog-4085728_640.jpg",
        "src1280": "https://cdn.pixabay.com/photo/2019/03/27/19/48/dog-4085728_1280.jpg"
    },
    {
        "id": "2502972",
        "src640": "https://cdn.pixabay.com/photo/2017/07/14/07/51/grilling-2502972_640.jpg",
        "src1280": "https://cdn.pixabay.com/photo/2017/07/14/07/51/grilling-2502972_1280.jpg"
    },
    {
        "id": "2503882",
        "src640": "https://cdn.pixabay.com/photo/2017/07/14/13/47/hide-and-seek-2503882_640.jpg",
        "src1280": "https://cdn.pixabay.com/photo/2017/07/14/13/47/hide-and-seek-2503882_1280.jpg"
    },
    {
        "id": "3697585",
        "src640": "https://cdn.pixabay.com/photo/2018/09/23/14/48/chihuahua-3697585_640.jpg",
        "src1280": "https://cdn.pixabay.com/photo/2018/09/23/14/48/chihuahua-3697585_1280.jpg"
    },
    {
        "id": "7515152",
        "src640": "https://cdn.pixabay.com/photo/2022/10/11/21/11/dog-7515152_640.jpg",
        "src1280": "https://cdn.pixabay.com/photo/2022/10/11/21/11/dog-7515152_1280.jpg"
    },
    {
        "id": "4012194",
        "src640": "https://cdn.pixabay.com/photo/2019/02/21/20/25/dog-4012194_640.jpg",
        "src1280": "https://cdn.pixabay.com/photo/2019/02/21/20/25/dog-4012194_1280.jpg"
    },
    {
        "id": "3199090",
        "src640": "https://cdn.pixabay.com/photo/2018/03/04/20/09/dog-3199090_640.jpg",
        "src1280": "https://cdn.pixabay.com/photo/2018/03/04/20/09/dog-3199090_1280.jpg"
    },
    {
        "id": "7513187",
        "src640": "https://cdn.pixabay.com/photo/2022/10/11/03/40/black-labrador-7513187_640.jpg",
        "src1280": "https://cdn.pixabay.com/photo/2022/10/11/03/40/black-labrador-7513187_1280.jpg"
    },
    {
        "id": "2390579",
        "src640": "https://cdn.pixabay.com/photo/2017/06/10/19/37/doberman-2390579_640.jpg",
        "src1280": "https://cdn.pixabay.com/photo/2017/06/10/19/37/doberman-2390579_1280.jpg"
    },
    {
        "id": "4669806",
        "src640": "https://cdn.pixabay.com/photo/2019/12/03/11/43/dog-4669806_640.jpg",
        "src1280": "https://cdn.pixabay.com/photo/2019/12/03/11/43/dog-4669806_1280.jpg"
    },
    {
        "id": "4228386",
        "src640": "https://cdn.pixabay.com/photo/2019/05/25/13/40/swiss-white-shepherd-4228386_640.jpg",
        "src1280": "https://cdn.pixabay.com/photo/2019/05/25/13/40/swiss-white-shepherd-4228386_1280.jpg"
    },
    {
        "id": "4585195",
        "src640": "https://cdn.pixabay.com/photo/2019/10/28/17/58/woman-4585195_640.jpg",
        "src1280": "https://cdn.pixabay.com/photo/2019/10/28/17/58/woman-4585195_1280.jpg"
    },
    {
        "id": "3637773",
        "src640": "https://cdn.pixabay.com/photo/2018/08/28/15/20/gundog-3637773_640.jpg",
        "src1280": "https://cdn.pixabay.com/photo/2018/08/28/15/20/gundog-3637773_1280.jpg"
    },
    {
        "id": "672744",
        "src640": "https://cdn.pixabay.com/photo/2015/03/14/05/12/husky-672744_640.jpg",
        "src1280": "https://cdn.pixabay.com/photo/2015/03/14/05/12/husky-672744_1280.jpg"
    },
    {
        "id": "6638426",
        "src640": "https://cdn.pixabay.com/photo/2021/09/19/16/07/sheltie-6638426_640.jpg",
        "src1280": "https://cdn.pixabay.com/photo/2021/09/19/16/07/sheltie-6638426_1280.jpg"
    },
    {
        "id": "3781209",
        "src640": "https://cdn.pixabay.com/photo/2018/10/29/13/40/black-dog-3781209_640.jpg",
        "src1280": "https://cdn.pixabay.com/photo/2018/10/29/13/40/black-dog-3781209_1280.jpg"
    },
    {
        "id": "5041458",
        "src640": "https://cdn.pixabay.com/photo/2020/04/14/08/28/animal-world-5041458_640.jpg",
        "src1280": "https://cdn.pixabay.com/photo/2020/04/14/08/28/animal-world-5041458_1280.jpg"
    },
    {
        "id": "4103659",
        "src640": "https://cdn.pixabay.com/photo/2019/04/04/19/59/puppy-4103659_640.jpg",
        "src1280": "https://cdn.pixabay.com/photo/2019/04/04/19/59/puppy-4103659_1280.jpg"
    },
    {
        "id": "4373412",
        "src640": "https://cdn.pixabay.com/photo/2019/07/30/17/03/prairie-dog-4373412_640.jpg",
        "src1280": "https://cdn.pixabay.com/photo/2019/07/30/17/03/prairie-dog-4373412_1280.jpg"
    },
    {
        "id": "7831218",
        "src640": "https://cdn.pixabay.com/photo/2023/03/05/12/18/yorkshire-terrier-7831218_640.jpg",
        "src1280": "https://cdn.pixabay.com/photo/2023/03/05/12/18/yorkshire-terrier-7831218_1280.jpg"
    },
    {
        "id": "7560503",
        "src640": "https://cdn.pixabay.com/photo/2022/10/31/18/21/dog-7560503_640.jpg",
        "src1280": "https://cdn.pixabay.com/photo/2022/10/31/18/21/dog-7560503_1280.jpg"
    },
    {
        "id": "2465264",
        "src640": "https://cdn.pixabay.com/photo/2017/07/02/18/14/animal-2465264_640.jpg",
        "src1280": "https://cdn.pixabay.com/photo/2017/07/02/18/14/animal-2465264_1280.jpg"
    },
    {
        "id": "662788",
        "src640": "https://cdn.pixabay.com/photo/2015/03/07/04/02/dog-is-662788_640.jpg",
        "src1280": "https://cdn.pixabay.com/photo/2015/03/07/04/02/dog-is-662788_1280.jpg"
    },
    {
        "id": "3467637",
        "src640": "https://cdn.pixabay.com/photo/2018/06/11/00/29/dog-3467637_640.jpg",
        "src1280": "https://cdn.pixabay.com/photo/2018/06/11/00/29/dog-3467637_1280.jpg"
    },
    {
        "id": "4496640",
        "src640": "https://cdn.pixabay.com/photo/2019/09/22/17/59/dog-4496640_640.jpg",
        "src1280": "https://cdn.pixabay.com/photo/2019/09/22/17/59/dog-4496640_1280.jpg"
    },
    {
        "id": "7881835",
        "src640": "https://cdn.pixabay.com/photo/2023/03/27/23/09/dog-7881835_640.jpg",
        "src1280": "https://cdn.pixabay.com/photo/2023/03/27/23/09/dog-7881835_1280.jpg"
    },
    {
        "id": "5026811",
        "src640": "https://cdn.pixabay.com/photo/2020/04/10/17/13/dog-5026811_640.jpg",
        "src1280": "https://cdn.pixabay.com/photo/2020/04/10/17/13/dog-5026811_1280.jpg"
    },
    {
        "id": "81165",
        "src640": "https://cdn.pixabay.com/photo/2013/02/13/00/21/nellis-afb-81165_640.jpg",
        "src1280": "https://cdn.pixabay.com/photo/2013/02/13/00/21/nellis-afb-81165_1280.jpg"
    },
    {
        "id": "5124949",
        "src640": "https://cdn.pixabay.com/photo/2020/05/03/13/10/puppy-5124949_640.jpg",
        "src1280": "https://cdn.pixabay.com/photo/2020/05/03/13/10/puppy-5124949_1280.jpg"
    },
    {
        "id": "8261788",
        "src640": "https://cdn.pixabay.com/photo/2023/09/19/04/32/ai-generated-8261788_640.jpg",
        "src1280": "https://cdn.pixabay.com/photo/2023/09/19/04/32/ai-generated-8261788_1280.jpg"
    },
    {
        "id": "3202637",
        "src640": "https://cdn.pixabay.com/photo/2018/03/06/06/14/german-shepherd-3202637_640.jpg",
        "src1280": "https://cdn.pixabay.com/photo/2018/03/06/06/14/german-shepherd-3202637_1280.jpg"
    },
    {
        "id": "4881942",
        "src640": "https://cdn.pixabay.com/photo/2020/02/26/14/52/puppy-4881942_640.jpg",
        "src1280": "https://cdn.pixabay.com/photo/2020/02/26/14/52/puppy-4881942_1280.jpg"
    },
    {
        "id": "2281901",
        "src640": "https://cdn.pixabay.com/photo/2017/05/03/19/09/window-2281901_640.jpg",
        "src1280": "https://cdn.pixabay.com/photo/2017/05/03/19/09/window-2281901_1280.jpg"
    },
    {
        "id": "2763247",
        "src640": "https://cdn.pixabay.com/photo/2017/09/18/20/59/golden-2763247_640.jpg",
        "src1280": "https://cdn.pixabay.com/photo/2017/09/18/20/59/golden-2763247_1280.jpg"
    },
    {
        "id": "2705780",
        "src640": "https://cdn.pixabay.com/photo/2017/09/01/22/56/hound-2705780_640.jpg",
        "src1280": "https://cdn.pixabay.com/photo/2017/09/01/22/56/hound-2705780_1280.jpg"
    },
    {
        "id": "8151556",
        "src640": "https://cdn.pixabay.com/photo/2023/07/26/15/49/animal-8151556_640.jpg",
        "src1280": "https://cdn.pixabay.com/photo/2023/07/26/15/49/animal-8151556_1280.jpg"
    },
    {
        "id": "3710343",
        "src640": "https://cdn.pixabay.com/photo/2018/09/28/22/03/dog-3710343_640.jpg",
        "src1280": "https://cdn.pixabay.com/photo/2018/09/28/22/03/dog-3710343_1280.jpg"
    },
    {
        "id": "6580147",
        "src640": "https://cdn.pixabay.com/photo/2021/08/28/06/21/dog-6580147_640.jpg",
        "src1280": "https://cdn.pixabay.com/photo/2021/08/28/06/21/dog-6580147_1280.jpg"
    },
    {
        "id": "7860848",
        "src640": "https://cdn.pixabay.com/photo/2023/03/18/15/48/dog-7860848_640.jpg",
        "src1280": "https://cdn.pixabay.com/photo/2023/03/18/15/48/dog-7860848_1280.jpg"
    },
    {
        "id": "4038759",
        "src640": "https://cdn.pixabay.com/photo/2019/03/06/18/23/dog-4038759_640.jpg",
        "src1280": "https://cdn.pixabay.com/photo/2019/03/06/18/23/dog-4038759_1280.jpg"
    },
    {
        "id": "7771348",
        "src640": "https://cdn.pixabay.com/photo/2023/02/06/07/27/dog-7771348_640.jpg",
        "src1280": "https://cdn.pixabay.com/photo/2023/02/06/07/27/dog-7771348_1280.jpg"
    },
    {
        "id": "1443614",
        "src640": "https://cdn.pixabay.com/photo/2016/06/08/10/56/dog-1443614_640.jpg",
        "src1280": "https://cdn.pixabay.com/photo/2016/06/08/10/56/dog-1443614_1280.jpg"
    },
    {
        "id": "4736681",
        "src640": "https://cdn.pixabay.com/photo/2020/01/02/19/33/dog-4736681_640.jpg",
        "src1280": "https://cdn.pixabay.com/photo/2020/01/02/19/33/dog-4736681_1280.jpg"
    },
    {
        "id": "6980927",
        "src640": "https://cdn.pixabay.com/photo/2022/01/30/13/46/man-6980927_640.jpg",
        "src1280": "https://cdn.pixabay.com/photo/2022/01/30/13/46/man-6980927_1280.jpg"
    },
    {
        "id": "4316938",
        "src640": "https://cdn.pixabay.com/photo/2019/07/04/17/11/puppy-4316938_640.jpg",
        "src1280": "https://cdn.pixabay.com/photo/2019/07/04/17/11/puppy-4316938_1280.jpg"
    },
    {
        "id": "6991205",
        "src640": "https://cdn.pixabay.com/photo/2022/02/03/19/31/rottweiler-6991205_640.jpg",
        "src1280": "https://cdn.pixabay.com/photo/2022/02/03/19/31/rottweiler-6991205_1280.jpg"
    },
    {
        "id": "5191563",
        "src640": "https://cdn.pixabay.com/photo/2020/05/19/16/26/dog-tags-5191563_640.jpg",
        "src1280": "https://cdn.pixabay.com/photo/2020/05/19/16/26/dog-tags-5191563_1280.jpg"
    },
    {
        "id": "7694676",
        "src640": "https://cdn.pixabay.com/photo/2023/01/03/16/00/dog-7694676_640.jpg",
        "src1280": "https://cdn.pixabay.com/photo/2023/01/03/16/00/dog-7694676_1280.jpg"
    },
    {
        "id": "4428459",
        "src640": "https://cdn.pixabay.com/photo/2019/08/24/21/59/puppy-4428459_640.jpg",
        "src1280": "https://cdn.pixabay.com/photo/2019/08/24/21/59/puppy-4428459_1280.jpg"
    },
    {
        "id": "4693480",
        "src640": "https://cdn.pixabay.com/photo/2019/12/13/17/22/dog-4693480_640.jpg",
        "src1280": "https://cdn.pixabay.com/photo/2019/12/13/17/22/dog-4693480_1280.jpg"
    },
    {
        "id": "7734487",
        "src640": "https://cdn.pixabay.com/photo/2023/01/21/15/26/ai-generated-7734487_640.jpg",
        "src1280": "https://cdn.pixabay.com/photo/2023/01/21/15/26/ai-generated-7734487_1280.jpg"
    },
    {
        "id": "5865608",
        "src640": "https://cdn.pixabay.com/photo/2020/12/28/01/01/man-5865608_640.jpg",
        "src1280": "https://cdn.pixabay.com/photo/2020/12/28/01/01/man-5865608_1280.jpg"
    },
    {
        "id": "2894857",
        "src640": "https://cdn.pixabay.com/photo/2017/10/27/16/42/eurasians-2894857_640.jpg",
        "src1280": "https://cdn.pixabay.com/photo/2017/10/27/16/42/eurasians-2894857_1280.jpg"
    },
    {
        "id": "7352051",
        "src640": "https://cdn.pixabay.com/photo/2022/07/29/15/31/rhodesian-ridgeback-7352051_640.jpg",
        "src1280": "https://cdn.pixabay.com/photo/2022/07/29/15/31/rhodesian-ridgeback-7352051_1280.jpg"
    },
    {
        "id": "4444697",
        "src640": "https://cdn.pixabay.com/photo/2019/09/01/09/39/doberman-4444697_640.jpg",
        "src1280": "https://cdn.pixabay.com/photo/2019/09/01/09/39/doberman-4444697_1280.jpg"
    },
    {
        "id": "741402",
        "src640": "https://cdn.pixabay.com/photo/2015/04/27/04/02/autumn-741402_640.jpg",
        "src1280": "https://cdn.pixabay.com/photo/2015/04/27/04/02/autumn-741402_1280.jpg"
    },
    {
        "id": "4675260",
        "src640": "https://cdn.pixabay.com/photo/2019/12/05/14/12/french-bulldog-4675260_640.jpg",
        "src1280": "https://cdn.pixabay.com/photo/2019/12/05/14/12/french-bulldog-4675260_1280.jpg"
    },
    {
        "id": "5057861",
        "src640": "https://cdn.pixabay.com/photo/2020/04/18/07/06/dog-5057861_640.jpg",
        "src1280": "https://cdn.pixabay.com/photo/2020/04/18/07/06/dog-5057861_1280.jpg"
    },
    {
        "id": "5572179",
        "src640": "https://cdn.pixabay.com/photo/2020/09/14/21/13/english-bulldog-5572179_640.jpg",
        "src1280": "https://cdn.pixabay.com/photo/2020/09/14/21/13/english-bulldog-5572179_1280.jpg"
    },
    {
        "id": "7847691",
        "src640": "https://cdn.pixabay.com/photo/2023/03/12/19/28/dog-7847691_640.jpg",
        "src1280": "https://cdn.pixabay.com/photo/2023/03/12/19/28/dog-7847691_1280.jpg"
    },
    {
        "id": "2884898",
        "src640": "https://cdn.pixabay.com/photo/2017/10/24/15/18/rottweiler-2884898_640.jpg",
        "src1280": "https://cdn.pixabay.com/photo/2017/10/24/15/18/rottweiler-2884898_1280.jpg"
    },
    {
        "id": "3712117",
        "src640": "https://cdn.pixabay.com/photo/2018/09/29/19/34/husky-3712117_640.jpg",
        "src1280": "https://cdn.pixabay.com/photo/2018/09/29/19/34/husky-3712117_1280.jpg"
    },
    {
        "id": "1063399",
        "src640": "https://cdn.pixabay.com/photo/2015/11/26/06/35/dog-1063399_640.jpg",
        "src1280": "https://cdn.pixabay.com/photo/2015/11/26/06/35/dog-1063399_1280.jpg"
    },
    {
        "id": "5220253",
        "src640": "https://cdn.pixabay.com/photo/2020/05/25/19/44/dog-halter-5220253_640.jpg",
        "src1280": "https://cdn.pixabay.com/photo/2020/05/25/19/44/dog-halter-5220253_1280.jpg"
    },
    {
        "id": "6963938",
        "src640": "https://cdn.pixabay.com/photo/2022/01/24/16/33/dog-6963938_640.jpg",
        "src1280": "https://cdn.pixabay.com/photo/2022/01/24/16/33/dog-6963938_1280.jpg"
    },
    {
        "id": "672628",
        "src640": "https://cdn.pixabay.com/photo/2015/03/14/03/38/malinois-672628_640.jpg",
        "src1280": "https://cdn.pixabay.com/photo/2015/03/14/03/38/malinois-672628_1280.jpg"
    },
    {
        "id": "7860188",
        "src640": "https://cdn.pixabay.com/photo/2023/03/18/09/19/dog-7860188_640.jpg",
        "src1280": "https://cdn.pixabay.com/photo/2023/03/18/09/19/dog-7860188_1280.jpg"
    },
    {
        "id": "6772114",
        "src640": "https://cdn.pixabay.com/photo/2021/11/05/22/02/sheltie-6772114_640.jpg",
        "src1280": "https://cdn.pixabay.com/photo/2021/11/05/22/02/sheltie-6772114_1280.jpg"
    },
    {
        "id": "3817699",
        "src640": "https://cdn.pixabay.com/photo/2018/11/15/17/47/halloween-3817699_640.jpg",
        "src1280": "https://cdn.pixabay.com/photo/2018/11/15/17/47/halloween-3817699_1280.jpg"
    },
    {
        "id": "3710948",
        "src640": "https://cdn.pixabay.com/photo/2018/09/29/08/33/dog-3710948_640.jpg",
        "src1280": "https://cdn.pixabay.com/photo/2018/09/29/08/33/dog-3710948_1280.jpg"
    },
    {
        "id": "3157707",
        "src640": "https://cdn.pixabay.com/photo/2018/02/16/13/40/dog-3157707_640.jpg",
        "src1280": "https://cdn.pixabay.com/photo/2018/02/16/13/40/dog-3157707_1280.jpg"
    },
    {
        "id": "5764670",
        "src640": "https://cdn.pixabay.com/photo/2020/11/21/17/22/dog-5764670_640.jpg",
        "src1280": "https://cdn.pixabay.com/photo/2020/11/21/17/22/dog-5764670_1280.jpg"
    },
    {
        "id": "4149489",
        "src640": "https://cdn.pixabay.com/photo/2019/04/23/13/05/dog-4149489_640.jpg",
        "src1280": "https://cdn.pixabay.com/photo/2019/04/23/13/05/dog-4149489_1280.jpg"
    },
    {
        "id": "2123654",
        "src640": "https://cdn.pixabay.com/photo/2017/03/07/11/01/bullmastiff-2123654_640.jpg",
        "src1280": "https://cdn.pixabay.com/photo/2017/03/07/11/01/bullmastiff-2123654_1280.jpg"
    },
    {
        "id": "2983742",
        "src640": "https://cdn.pixabay.com/photo/2017/11/28/14/00/staffordshire-bull-terrier-2983742_640.jpg",
        "src1280": "https://cdn.pixabay.com/photo/2017/11/28/14/00/staffordshire-bull-terrier-2983742_1280.jpg"
    },
    {
        "id": "1280566",
        "src640": "https://cdn.pixabay.com/photo/2016/03/26/13/18/action-1280566_640.jpg",
        "src1280": "https://cdn.pixabay.com/photo/2016/03/26/13/18/action-1280566_1280.jpg"
    },
    {
        "id": "2354453",
        "src640": "https://cdn.pixabay.com/photo/2017/05/29/18/09/dog-2354453_640.jpg",
        "src1280": "https://cdn.pixabay.com/photo/2017/05/29/18/09/dog-2354453_1280.jpg"
    },
    {
        "id": "4807356",
        "src640": "https://cdn.pixabay.com/photo/2020/01/31/07/37/cosmos-4807356_640.jpg",
        "src1280": "https://cdn.pixabay.com/photo/2020/01/31/07/37/cosmos-4807356_1280.jpg"
    },
    {
        "id": "2740663",
        "src640": "https://cdn.pixabay.com/photo/2017/09/11/22/37/dog-2740663_640.jpg",
        "src1280": "https://cdn.pixabay.com/photo/2017/09/11/22/37/dog-2740663_1280.jpg"
    },
    {
        "id": "2903129",
        "src640": "https://cdn.pixabay.com/photo/2017/10/30/18/34/the-mascot-2903129_640.jpg",
        "src1280": "https://cdn.pixabay.com/photo/2017/10/30/18/34/the-mascot-2903129_1280.jpg"
    },
    {
        "id": "2465263",
        "src640": "https://cdn.pixabay.com/photo/2017/07/02/18/14/crossing-2465263_640.jpg",
        "src1280": "https://cdn.pixabay.com/photo/2017/07/02/18/14/crossing-2465263_1280.jpg"
    },
    {
        "id": "6892",
        "src640": "https://cdn.pixabay.com/photo/2011/04/20/21/11/red-sausage-6892_640.jpg",
        "src1280": "https://cdn.pixabay.com/photo/2011/04/20/21/11/red-sausage-6892_1280.jpg"
    },
    {
        "id": "6769817",
        "src640": "https://cdn.pixabay.com/photo/2021/11/05/01/11/dog-6769817_640.jpg",
        "src1280": "https://cdn.pixabay.com/photo/2021/11/05/01/11/dog-6769817_1280.jpg"
    },
    {
        "id": "3058393",
        "src640": "https://cdn.pixabay.com/photo/2018/01/03/13/57/golden-retiver-3058393_640.jpg",
        "src1280": "https://cdn.pixabay.com/photo/2018/01/03/13/57/golden-retiver-3058393_1280.jpg"
    },
    {
        "id": "5574716",
        "src640": "https://cdn.pixabay.com/photo/2020/09/15/21/03/english-bulldog-5574716_640.jpg",
        "src1280": "https://cdn.pixabay.com/photo/2020/09/15/21/03/english-bulldog-5574716_1280.jpg"
    },
    {
        "id": "1265794",
        "src640": "https://cdn.pixabay.com/photo/2016/03/18/21/17/dog-1265794_640.jpg",
        "src1280": "https://cdn.pixabay.com/photo/2016/03/18/21/17/dog-1265794_1280.jpg"
    },
    {
        "id": "5913485",
        "src640": "https://cdn.pixabay.com/photo/2021/01/13/07/32/dog-5913485_640.jpg",
        "src1280": "https://cdn.pixabay.com/photo/2021/01/13/07/32/dog-5913485_1280.jpg"
    },
    {
        "id": "7668383",
        "src640": "https://cdn.pixabay.com/photo/2022/12/20/17/44/rose-7668383_640.jpg",
        "src1280": "https://cdn.pixabay.com/photo/2022/12/20/17/44/rose-7668383_1280.jpg"
    }
]