[
    {
        "id": "6387007",
        "src640": "https://cdn.pixabay.com/photo/2021/07/04/17/06/puppy-6387007_640.jpg",
        "src1280": "https://cdn.pixabay.com/photo/2021/07/04/17/06/puppy-6387007_1280.jpg"
    },
    {
        "id": "2256133",
        "src640": "https://cdn.pixabay.com/photo/2017/04/24/11/01/dog-2256133_640.jpg",
        "src1280": "https://cdn.pixabay.com/photo/2017/04/24/11/01/dog-2256133_1280.jpg"
    },
    {
        "id": "5312841",
        "src640": "https://cdn.pixabay.com/photo/2020/06/18/09/58/cat-5312841_640.jpg",
        "src1280": "https://cdn.pixabay.com/photo/2020/06/18/09/58/cat-5312841_1280.jpg"
    },
    {
        "id": "4348947",
        "src640": "https://cdn.pixabay.com/photo/2019/07/19/14/36/hiking-4348947_640.jpg",
        "src1280": "https://cdn.pixabay.com/photo/2019/07/19/14/36/hiking-4348947_1280.jpg"
    },
    {
        "id": "4932825",
        "src640": "https://cdn.pixabay.com/photo/2020/03/15/08/08/dog-4932825_640.jpg",
        "src1280": "https://cdn.pixabay.com/photo/2020/03/15/08/08/dog-4932825_1280.jpg"
    },
    {
        "id": "64475",
        "src640": "https://cdn.pixabay.com/photo/2012/11/06/22/02/dog-64475_640.jpg",
        "src1280": "https://cdn.pixabay.com/photo/2012/11/06/22/02/dog-64475_1280.jpg"
    },
    {
        "id": "6599846",
        "src640": "https://cdn.pixabay.com/photo/2021/09/05/15/37/dog-6599846_640.jpg",
        "src1280": "https://cdn.pixabay.com/photo/2021/09/05/15/37/dog-6599846_1280.jpg"
    },
    {
        "id": "1025137",
        "src640": "https://cdn.pixabay.com/photo/2015/11/05/23/33/german-shepherd-1025137_640.jpg",
        "src1280": "https://cdn.pixabay.com/photo/2015/11/05/23/33/german-shepherd-1025137_1280.jpg"
    },
    {
        "id": "8203156",
        "src640": "https://cdn.pixabay.com/photo/2023/08/20/20/36/irish-setter-8203156_640.jpg",
        "src1280": "https://cdn.pixabay.com/photo/2023/08/20/20/36/irish-setter-8203156_1280.jpg"
    },
    {
        "id": "7256789",
        "src640": "https://cdn.pixabay.com/photo/2022/06/11/19/17/jack-russel-7256789_640.jpg",
        "src1280": "https://cdn.pixabay.com/photo/2022/06/11/19/17/jack-russel-7256789_1280.jpg"
    },
    {
        "id": "2273547",
        "src640": "https://cdn.pixabay.com/photo/2017/04/30/18/13/nos-2273547_640.jpg",
        "src1280": "https://cdn.pixabay.com/photo/2017/04/30/18/13/nos-2273547_1280.jpg"
    },
    {
        "id": "6658018",
        "src640": "https://cdn.pixabay.com/photo/2021/09/26/15/05/dog-6658018_640.jpg",
        "src1280": "https://cdn.pixabay.com/photo/2021/09/26/15/05/dog-6658018_1280.jpg"
    },
    {
        "id": "4292255",
        "src640": "https://cdn.pixabay.com/photo/2019/06/22/19/01/dog-4292255_640.jpg",
        "src1280": "https://cdn.pixabay.com/photo/2019/06/22/19/01/dog-4292255_1280.jpg"
    },
    {
        "id": "7128736",
        "src640": "https://cdn.pixabay.com/photo/2022/04/12/19/35/animal-7128736_640.jpg",
        "src1280": "https://cdn.pixabay.com/photo/2022/04/12/19/35/animal-7128736_1280.jpg"
    },
    {
        "id": "8044243",
        "src640": "https://cdn.pixabay.com/photo/2023/06/06/09/12/ai-generated-8044243_640.jpg",
        "src1280": "https://cdn.pixabay.com/photo/2023/06/06/09/12/ai-generated-8044243_1280.jpg"
    },
    {
        "id": "4048818",
        "src640": "https://cdn.pixabay.com/photo/2019/03/11/15/50/dog-4048818_640.jpg",
        "src1280": "https://cdn.pixabay.com/photo/2019/03/11/15/50/dog-4048818_1280.jpg"
    },
    {
        "id": "7784610",
        "src640": "https://cdn.pixabay.com/photo/2023/02/12/09/46/dog-7784610_640.jpg",
        "src1280": "https://cdn.pixabay.com/photo/2023/02/12/09/46/dog-7784610_1280.jpg"
    },
    {
        "id": "6830115",
        "src640": "https://cdn.pixabay.com/photo/2021/11/28/12/38/greyhound-6830115_640.jpg",
        "src1280": "https://cdn.pixabay.com/photo/2021/11/28/12/38/greyhound-6830115_1280.jpg"
    },
    {
        "id": "6601867",
        "src640": "https://cdn.pixabay.com/photo/2021/09/06/15/01/dog-6601867_640.jpg",
        "src1280": "https://cdn.pixabay.com/photo/2021/09/06/15/01/dog-6601867_1280.jpg"
    },
    {
        "id": "5767337",
        "src640": "https://cdn.pixabay.com/photo/2020/11/22/17/28/dog-5767337_640.jpg",
        "src1280": "https://cdn.pixabay.com/photo/2020/11/22/17/28/dog-5767337_1280.jpg"
    },
    {
        "id": "5183046",
        "src640": "https://cdn.pixabay.com/photo/2020/05/17/18/30/dog-5183046_640.jpg",
        "src1280": "https://cdn.pixabay.com/photo/2020/05/17/18/30/dog-5183046_1280.jpg"
    },
    {
        "id": "4642833",
        "src640": "https://cdn.pixabay.com/photo/2019/11/21/16/01/prairie-dog-4642833_640.jpg",
        "src1280": "https://cdn.pixabay.com/photo/2019/11/21/16/01/prairie-dog-4642833_1280.jpg"
    },
    {
        "id": "3354702",
        "src640": "https://cdn.pixabay.com/photo/2018/04/27/13/20/dog-3354702_640.jpg",
        "src1280": "https://cdn.pixabay.com/photo/2018/04/27/13/20/dog-3354702_1280.jpg"
    },
    {
        "id": "3280786",
        "src640": "https://cdn.pixabay.com/photo/2018/04/01/12/16/dog-3280786_640.jpg",
        "src1280": "https://cdn.pixabay.com/photo/2018/04/01/12/16/dog-3280786_1280.jpg"
    },
    {
        "id": "1120549",
        "src640": "https://cdn.pixabay.com/photo/2016/01/04/09/53/snow-1120549_640.jpg",
        "src1280": "https://cdn.pixabay.com/photo/2016/01/04/09/53/snow-1120549_1280.jpg"
    },
    {
        "id": "7106368",
        "src640": "https://cdn.pixabay.com/photo/2022/04/02/05/58/dachshund-7106368_640.jpg",
        "src1280": "https://cdn.pixabay.com/photo/2022/04/02/05/58/dachshund-7106368_1280.jpg"
    },
    {
        "id": "7889811",
        "src640": "https://cdn.pixabay.com/photo/2023/03/31/11/45/dog-7889811_640.jpg",
        "src1280": "https://cdn.pixabay.com/photo/2023/03/31/11/45/dog-7889811_1280.jpg"
    },
    {
        "id": "7554751",
        "src640": "https://cdn.pixabay.com/photo/2022/10/29/08/28/german-shepherd-7554751_640.jpg",
        "src1280": "https://cdn.pixabay.com/photo/2022/10/29/08/28/german-shepherd-7554751_1280.jpg"
    },
    {
        "id": "163628",
        "src640": "https://cdn.pixabay.com/photo/2013/07/18/10/58/puppy-163628_640.jpg",
        "src1280": "https://cdn.pixabay.com/photo/2013/07/18/10/58/puppy-163628_1280.jpg"
    },
    {
        "id": "3598945",
        "src640": "https://cdn.pixabay.com/photo/2018/08/11/16/48/wild-rose-3598945_640.jpg",
        "src1280": "https://cdn.pixabay.com/photo/2018/08/11/16/48/wild-rose-3598945_1280.jpg"
    },
    {
        "id": "4990023",
        "src640": "https://cdn.pixabay.com/photo/2020/04/01/05/58/dog-4990023_640.jpg",
        "src1280": "https://cdn.pixabay.com/photo/2020/04/01/05/58/dog-4990023_1280.jpg"
    },
    {
        "id": "7162290",
        "src640": "https://cdn.pixabay.com/photo/2022/04/29/03/00/dog-7162290_640.jpg",
        "src1280": "https://cdn.pixabay.com/photo/2022/04/29/03/00/dog-7162290_1280.jpg"
    },
    {
        "id": "6830810",
        "src640": "https://cdn.pixabay.com/photo/2021/11/28/17/07/bernese-mountain-dog-6830810_640.jpg",
        "src1280": "https://cdn.pixabay.com/photo/2021/11/28/17/07/bernese-mountain-dog-6830810_1280.jpg"
    },
    {
        "id": "5355452",
        "src640": "https://cdn.pixabay.com/photo/2020/06/30/07/55/labrador-5355452_640.jpg",
        "src1280": "https://cdn.pixabay.com/photo/2020/06/30/07/55/labrador-5355452_1280.jpg"
    },
    {
        "id": "672660",
        "src640": "https://cdn.pixabay.com/photo/2015/03/14/04/04/border-collie-672660_640.jpg",
        "src1280": "https://cdn.pixabay.com/photo/2015/03/14/04/04/border-collie-672660_1280.jpg"
    },
    {
        "id": "5221545",
        "src640": "https://cdn.pixabay.com/photo/2020/05/26/05/37/dog-5221545_640.jpg",
        "src1280": "https://cdn.pixabay.com/photo/2020/05/26/05/37/dog-5221545_1280.jpg"
    },
    {
        "id": "750666",
        "src640": "https://cdn.pixabay.com/photo/2015/05/03/00/48/trick-goes-wrong-750666_640.jpg",
        "src1280": "https://cdn.pixabay.com/photo/2015/05/03/00/48/trick-goes-wrong-750666_1280.jpg"
    },
    {
        "id": "228702",
        "src640": "https://cdn.pixabay.com/photo/2013/12/14/19/13/english-bulldog-228702_640.jpg",
        "src1280": "https://cdn.pixabay.com/photo/2013/12/14/19/13/english-bulldog-228702_1280.jpg"
    },
    {
        "id": "6830110",
        "src640": "https://cdn.pixabay.com/photo/2021/11/28/12/37/greyhound-6830110_640.jpg",
        "src1280": "https://cdn.pixabay.com/photo/2021/11/28/12/37/greyhound-6830110_1280.jpg"
    },
    {
        "id": "6769879",
        "src640": "https://cdn.pixabay.com/photo/2021/11/05/01/25/dog-6769879_640.jpg",
        "src1280": "https://cdn.pixabay.com/photo/2021/11/05/01/25/dog-6769879_1280.jpg"
    },
    {
        "id": "87816",
        "src640": "https://cdn.pixabay.com/photo/2013/03/01/18/37/dog-87816_640.jpg",
        "src1280": "https://cdn.pixabay.com/photo/2013/03/01/18/37/dog-87816_1280.jpg"
    },
    {
        "id": "4717264",
        "src640": "https://cdn.pixabay.com/photo/2019/12/24/18/28/dog-4717264_640.jpg",
        "src1280": "https://cdn.pixabay.com/photo/2019/12/24/18/28/dog-4717264_1280.jpg"
    },
    {
        "id": "113515",
        "src640": "https://cdn.pixabay.com/photo/2013/05/24/22/09/dog-113515_640.jpg",
        "src1280": "https://cdn.pixabay.com/photo/2013/05/24/22/09/dog-113515_1280.jpg"
    },
    {
        "id": "4642732",
        "src640": "https://cdn.pixabay.com/photo/2019/11/21/15/15/background-4642732_640.jpg",
        "src1280": "https://cdn.pixabay.com/photo/2019/11/21/15/15/background-4642732_1280.jpg"
    },
    {
        "id": "3363840",
        "src640": "https://cdn.pixabay.com/photo/2018/04/30/19/53/black-tailed-prairie-dog-3363840_640.jpg",
        "src1280": "https://cdn.pixabay.com/photo/2018/04/30/19/53/black-tailed-prairie-dog-3363840_1280.jpg"
    },
    {
        "id": "3120381",
        "src640": "https://cdn.pixabay.com/photo/2018/01/31/06/32/doberman-3120381_640.jpg",
        "src1280": "https://cdn.pixabay.com/photo/2018/01/31/06/32/doberman-3120381_1280.jpg"
    },
    {
        "id": "5032211",
        "src640": "https://cdn.pixabay.com/photo/2020/04/11/22/24/dog-eurasier-5032211_640.jpg",
        "src1280": "https://cdn.pixabay.com/photo/2020/04/11/22/24/dog-eurasier-5032211_1280.jpg"
    },
    {
        "id": "7837848",
        "src640": "https://cdn.pixabay.com/photo/2023/03/08/14/02/dog-7837848_640.jpg",
        "src1280": "https://cdn.pixabay.com/photo/2023/03/08/14/02/dog-7837848_1280.jpg"
    },
    {
        "id": "5055032",
        "src640": "https://cdn.pixabay.com/photo/2020/04/17/12/35/dogs-5055032_640.jpg",
        "src1280": "https://cdn.pixabay.com/photo/2020/04/17/12/35/dogs-5055032_1280.jpg"
    },
    {
        "id": "6544837",
        "src640": "https://cdn.pixabay.com/photo/2021/08/14/08/42/dog-6544837_640.jpg",
        "src1280": "https://cdn.pixabay.com/photo/2021/08/14/08/42/dog-6544837_1280.jpg"
    },
    {
        "id": "388916",
        "src640": "https://cdn.pixabay.com/photo/2014/07/10/10/20/collie-388916_640.jpg",
        "src1280": "https://cdn.pixabay.com/photo/2014/07/10/10/20/collie-388916_1280.jpg"
    },
    {
        "id": "4244733",
        "src640": "https://cdn.pixabay.com/photo/2019/06/01/18/43/doberman-4244733_640.jpg",
        "src1280": "https://cdn.pixabay.com/photo/2019/06/01/18/43/doberman-4244733_1280.jpg"
    },
    {
        "id": "933648",
        "src640": "https://cdn.pixabay.com/photo/2015/09/09/21/59/dog-933648_640.jpg",
        "src1280": "https://cdn.pixabay.com/photo/2015/09/09/21/59/dog-933648_1280.jpg"
    },
    {
        "id": "2910279",
        "src640": "https://cdn.pixabay.com/photo/2017/11/02/07/19/dogs-2910279_640.jpg",
        "src1280": "https://cdn.pixabay.com/photo/2017/11/02/07/19/dogs-2910279_1280.jpg"
    },
    {
        "id": "3202641",
        "src640": "https://cdn.pixabay.com/photo/2018/03/06/06/15/doberman-3202641_640.jpg",
        "src1280": "https://cdn.pixabay.com/photo/2018/03/06/06/15/doberman-3202641_1280.jpg"
    },
    {
        "id": "5770579",
        "src640": "https://cdn.pixabay.com/photo/2020/11/23/18/14/collie-5770579_640.jpg",
        "src1280": "https://cdn.pixabay.com/photo/2020/11/23/18/14/collie-5770579_1280.jpg"
    },
    {
        "id": "4832452",
        "src640": "https://cdn.pixabay.com/photo/2020/02/09/09/22/dog-4832452_640.jpg",
        "src1280": "https://cdn.pixabay.com/photo/2020/02/09/09/22/dog-4832452_1280.jpg"
    },
    {
        "id": "2465268",
        "src640": "https://cdn.pixabay.com/photo/2017/07/02/18/15/happy-2465268_640.jpg",
        "src1280": "https://cdn.pixabay.com/photo/2017/07/02/18/15/happy-2465268_1280.jpg"
    },
    {
        "id": "7874072",
        "src640": "https://cdn.pixabay.com/photo/2023/03/24/13/47/dog-7874072_640.jpg",
        "src1280": "https://cdn.pixabay.com/photo/2023/03/24/13/47/dog-7874072_1280.jpg"
    },
    {
        "id": "5902399",
        "src640": "https://cdn.pixabay.com/photo/2021/01/09/14/02/boxer-5902399_640.jpg",
        "src1280": "https://cdn.pixabay.com/photo/2021/01/09/14/02/boxer-5902399_1280.jpg"
    },
    {
        "id": "76942",
        "src640": "https://cdn.pixabay.com/photo/2013/01/31/13/05/rat-terrier-76942_640.jpg",
        "src1280": "https://cdn.pixabay.com/photo/2013/01/31/13/05/rat-terrier-76942_1280.jpg"
    },
    {
        "id": "672707",
        "src640": "https://cdn.pixabay.com/photo/2015/03/14/04/36/elster-672707_640.jpg",
        "src1280": "https://cdn.pixabay.com/photo/2015/03/14/04/36/elster-672707_1280.jpg"
    },
    {
        "id": "7727443",
        "src640": "https://cdn.pixabay.com/photo/2023/01/18/17/07/animal-7727443_640.jpg",
        "src1280": "https://cdn.pixabay.com/photo/2023/01/18/17/07/animal-7727443_1280.jpg"
    },
    {
        "id": "5838764",
        "src640": "https://cdn.pixabay.com/photo/2020/12/17/09/39/dog-5838764_640.jpg",
        "src1280": "https://cdn.pixabay.com/photo/2020/12/17/09/39/dog-5838764_1280.jpg"
    },
    {
        "id": "5678538",
        "src640": "https://cdn.pixabay.com/photo/2020/10/23/11/58/dog-5678538_640.jpg",
        "src1280": "https://cdn.pixabay.com/photo/2020/10/23/11/58/dog-5678538_1280.jpg"
    },
    {
        "id": "6964318",
        "src640": "https://cdn.pixabay.com/photo/2022/01/24/18/16/dog-6964318_640.jpg",
        "src1280": "https://cdn.pixabay.com/photo/2022/01/24/18/16/dog-6964318_1280.jpg"
    },
    {
        "id": "3958997",
        "src640": "https://cdn.pixabay.com/photo/2019/01/27/20/50/dog-3958997_640.jpg",
        "src1280": "https://cdn.pixabay.com/photo/2019/01/27/20/50/dog-3958997_1280.jpg"
    },
    {
        "id": "7741368",
        "src640": "https://cdn.pixabay.com/photo/2023/01/24/15/47/dog-7741368_640.jpg",
        "src1280": "https://cdn.pixabay.com/photo/2023/01/24/15/47/dog-7741368_1280.jpg"
    },
    {
        "id": "4813167",
        "src640": "https://cdn.pixabay.com/photo/2020/02/02/14/26/german-shepherd-4813167_640.jpg",
        "src1280": "https://cdn.pixabay.com/photo/2020/02/02/14/26/german-shepherd-4813167_1280.jpg"
    },
    {
        "id": "4755366",
        "src640": "https://cdn.pixabay.com/photo/2020/01/10/14/04/animal-4755366_640.jpg",
        "src1280": "https://cdn.pixabay.com/photo/2020/01/10/14/04/animal-4755366_1280.jpg"
    },
    {
        "id": "1644251",
        "src640": "https://cdn.pixabay.com/photo/2016/09/04/15/19/view-1644251_640.jpg",
        "src1280": "https://cdn.pixabay.com/photo/2016/09/04/15/19/view-1644251_1280.jpg"
    },
    {
        "id": "3237772",
        "src640": "https://cdn.pixabay.com/photo/2018/03/18/18/16/doberman-3237772_640.jpg",
        "src1280": "https://cdn.pixabay.com/photo/2018/03/18/18/16/doberman-3237772_1280.jpg"
    },
    {
        "id": "5239152",
        "src640": "https://cdn.pixabay.com/photo/2020/05/30/14/49/dog-5239152_640.jpg",
        "src1280": "https://cdn.pixabay.com/photo/2020/05/30/14/49/dog-5239152_1280.jpg"
    },
    {
        "id": "2216874",
        "src640": "https://cdn.pixabay.com/photo/2017/04/09/20/58/horse-2216874_640.jpg",
        "src1280": "https://cdn.pixabay.com/photo/2017/04/09/20/58/horse-2216874_1280.jpg"
    },
    {
        "id": "195164",
        "src640": "https://cdn.pixabay.com/photo/2013/10/13/20/07/pirate-195164_640.jpg",
        "src1280": "https://cdn.pixabay.com/photo/2013/10/13/20/07/pirate-195164_1280.jpg"
    },
    {
        "id": "6830237",
        "src640": "https://cdn.pixabay.com/photo/2021/11/28/12/58/greyhound-6830237_640.jpg",
        "src1280": "https://cdn.pixabay.com/photo/2021/11/28/12/58/greyhound-6830237_1280.jpg"
    },
    {
        "id": "2092903",
        "src640": "https://cdn.pixabay.com/photo/2017/02/23/18/47/dog-2092903_640.jpg",
        "src1280": "https://cdn.pixabay.com/photo/2017/02/23/18/47/dog-2092903_1280.jpg"
    },
    {
        "id": "4322836",
        "src640": "https://cdn.pixabay.com/photo/2019/07/07/16/30/black-4322836_640.jpg",
        "src1280": "https://cdn.pixabay.com/photo/2019/07/07/16/30/black-4322836_1280.jpg"
    },
    {
        "id": "823736",
        "src640": "https://cdn.pixabay.com/photo/2015/06/27/18/55/belgian-shepherd-823736_640.jpg",
        "src1280": "https://cdn.pixabay.com/photo/2015/06/27/18/55/belgian-shepherd-823736_1280.jpg"
    },
    {
        "id": "6702630",
        "src640": "https://cdn.pixabay.com/photo/2021/10/12/06/55/dog-6702630_640.jpg",
        "src1280": "https://cdn.pixabay.com/photo/2021/10/12/06/55/dog-6702630_1280.jpg"
    },
    {
        "id": "7459",
        "src640": "https://cdn.pixabay.com/photo/2011/05/18/17/55/dog-rose-7459_640.jpg",
        "src1280": "https://cdn.pixabay.com/photo/2011/05/18/17/55/dog-rose-7459_1280.jpg"
    },
    {
        "id": "4163477",
        "src640": "https://cdn.pixabay.com/photo/2019/04/28/15/34/terrier-4163477_640.jpg",
        "src1280": "https://cdn.pixabay.com/photo/2019/04/28/15/34/terrier-4163477_1280.jpg"
    },
    {
        "id": "672677",
        "src640": "https://cdn.pixabay.com/photo/2015/03/14/04/16/malinois-672677_640.jpg",
        "src1280": "https://cdn.pixabay.com/photo/2015/03/14/04/16/malinois-672677_1280.jpg"
    },
    {
        "id": "5005545",
        "src640": "https://cdn.pixabay.com/photo/2020/04/05/10/36/easter-dog-5005545_640.jpg",
        "src1280": "https://cdn.pixabay.com/photo/2020/04/05/10/36/easter-dog-5005545_1280.jpg"
    },
    {
        "id": "3981537",
        "src640": "https://cdn.pixabay.com/photo/2019/02/07/16/13/terrier-3981537_640.jpg",
        "src1280": "https://cdn.pixabay.com/photo/2019/02/07/16/13/terrier-3981537_1280.jpg"
    },
    {
        "id": "6724614",
        "src640": "https://cdn.pixabay.com/photo/2021/10/19/21/17/puppy-6724614_640.jpg",
        "src1280": "https://cdn.pixabay.com/photo/2021/10/19/21/17/puppy-6724614_1280.jpg"
    },
    {
        "id": "741322",
        "src640": "https://cdn.pixabay.com/photo/2015/04/27/02/58/border-collie-741322_640.jpg",
        "src1280": "https://cdn.pixabay.com/photo/2015/04/27/02/58/border-collie-741322_1280.jpg"
    },
    {
        "id": "2308475",
        "src640": "https://cdn.pixabay.com/photo/2017/05/13/00/18/dog-2308475_640.jpg",
        "src1280": "https://cdn.pixabay.com/photo/2017/05/13/00/18/dog-2308475_1280.jpg"
    },
    {
        "id": "3544751",
        "src640": "https://cdn.pixabay.com/photo/2018/07/17/18/12/bremen-3544751_640.jpg",
        "src1280": "https://cdn.pixabay.com/photo/2018/07/17/18/12/bremen-3544751_1280.jpg"
    },
    {
        "id": "4803450",
        "src640": "https://cdn.pixabay.com/photo/2020/01/29/19/42/golden-4803450_640.jpg",
        "src1280": "https://cdn.pixabay.com/photo/2020/01/29/19/42/golden-4803450_1280.jpg"
    },
    {
        "id": "2351149",
        "src640": "https://cdn.pixabay.com/photo/2017/05/28/14/08/labrador-2351149_640.jpg",
        "src1280": "https://cdn.pixabay.com/photo/2017/05/28/14/08/labrador-2351149_1280.jpg"
    },
    {
        "id": "6184797",
        "src640": "https://cdn.pixabay.com/photo/2021/04/17/00/55/yorkie-6184797_640.jpg",
        "src1280": "https://cdn.pixabay.com/photo/2021/04/17/00/55/yorkie-6184797_1280.jpg"
    },
    {
        "id": "5053245",
        "src640": "https://cdn.pixabay.com/photo/2020/04/17/05/09/dog-5053245_640.jpg",
        "src1280": "https://cdn.pixabay.com/photo/2020/04/17/05/09/dog-5053245_1280.jpg"
    },
    {
        "id": "6960719",
        "src640": "https://cdn.pixabay.com/photo/2022/01/23/12/43/dog-6960719_640.jpg",
        "src1280": "https://cdn.pixabay.com/photo/2022/01/23/12/43/dog-6960719_1280.jpg"
    },
    {
        "id": "4028755",
        "src640": "https://cdn.pixabay.com/photo/2019/03/01/21/43/dog-4028755_640.jpg",
        "src1280": "https://cdn.pixabay.com/photo/2019/03/01/21/43/dog-4028755_1280.jpg"
    },
    {
        "id": "7689534",
        "src640": "https://cdn.pixabay.com/photo/2023/01/01/02/42/dog-7689534_640.jpg",
        "src1280": "https://cdn.pixabay.com/photo/2023/01/01/02/42/dog-7689534_1280.jpg"
    }
]