[
    {
        "id": "7350855",
        "src640": "https://cdn.pixabay.com/photo/2022/07/29/01/23/pet-7350855_640.jpg",
        "src1280": "https://cdn.pixabay.com/photo/2022/07/29/01/23/pet-7350855_1280.jpg"
    },
    {
        "id": "5227954",
        "src640": "https://cdn.pixabay.com/photo/2020/05/27/16/36/big-eyes-5227954_640.jpg",
        "src1280": "https://cdn.pixabay.com/photo/2020/05/27/16/36/big-eyes-5227954_1280.jpg"
    },
    {
        "id": "4980003",
        "src640": "https://cdn.pixabay.com/photo/2020/03/29/09/41/husky-4980003_640.jpg",
        "src1280": "https://cdn.pixabay.com/photo/2020/03/29/09/41/husky-4980003_1280.jpg"
    },
    {
        "id": "1910378",
        "src640": "https://cdn.pixabay.com/photo/2016/12/16/01/03/dog-1910378_640.jpg",
        "src1280": "https://cdn.pixabay.com/photo/2016/12/16/01/03/dog-1910378_1280.jpg"
    },
    {
        "id": "8213325",
        "src640": "https://cdn.pixabay.com/photo/2023/08/25/16/13/pet-8213325_640.jpg",
        "src1280": "https://cdn.pixabay.com/photo/2023/08/25/16/13/pet-8213325_1280.jpg"
    },
    {
        "id": "8381485",
        "src640": "https://cdn.pixabay.com/photo/2023/11/11/16/35/dog-8381485_640.jpg",
        "src1280": "https://cdn.pixabay.com/photo/2023/11/11/16/35/dog-8381485_1280.jpg"
    },
    {
        "id": "4333339",
        "src640": "https://cdn.pixabay.com/photo/2019/07/12/18/29/agility-4333339_640.jpg",
        "src1280": "https://cdn.pixabay.com/photo/2019/07/12/18/29/agility-4333339_1280.jpg"
    },
    {
        "id": "4980028",
        "src640": "https://cdn.pixabay.com/photo/2020/03/29/09/55/husky-4980028_640.jpg",
        "src1280": "https://cdn.pixabay.com/photo/2020/03/29/09/55/husky-4980028_1280.jpg"
    },
    {
        "id": "7016095",
        "src640": "https://cdn.pixabay.com/photo/2022/02/16/06/18/dog-7016095_640.jpg",
        "src1280": "https://cdn.pixabay.com/photo/2022/02/16/06/18/dog-7016095_1280.jpg"
    },
    {
        "id": "3953864",
        "src640": "https://cdn.pixabay.com/photo/2019/01/25/06/58/dog-3953864_640.jpg",
        "src1280": "https://cdn.pixabay.com/photo/2019/01/25/06/58/dog-3953864_1280.jpg"
    },
    {
        "id": "3819796",
        "src640": "https://cdn.pixabay.com/photo/2018/11/16/16/46/dog-3819796_640.jpg",
        "src1280": "https://cdn.pixabay.com/photo/2018/11/16/16/46/dog-3819796_1280.jpg"
    },
    {
        "id": "2394418",
        "src640": "https://cdn.pixabay.com/photo/2017/06/12/06/01/dog-2394418_640.jpg",
        "src1280": "https://cdn.pixabay.com/photo/2017/06/12/06/01/dog-2394418_1280.jpg"
    },
    {
        "id": "4700479",
        "src640": "https://cdn.pixabay.com/photo/2019/12/16/23/56/dog-4700479_640.jpg",
        "src1280": "https://cdn.pixabay.com/photo/2019/12/16/23/56/dog-4700479_1280.jpg"
    },
    {
        "id": "4301212",
        "src640": "https://cdn.pixabay.com/photo/2019/06/26/20/42/golden-retriever-4301212_640.jpg",
        "src1280": "https://cdn.pixabay.com/photo/2019/06/26/20/42/golden-retriever-4301212_1280.jpg"
    },
    {
        "id": "5441160",
        "src640": "https://cdn.pixabay.com/photo/2020/07/27/02/16/cbd-oil-dogs-5441160_640.jpg",
        "src1280": "https://cdn.pixabay.com/photo/2020/07/27/02/16/cbd-oil-dogs-5441160_1280.jpg"
    },
    {
        "id": "4927291",
        "src640": "https://cdn.pixabay.com/photo/2020/03/13/08/34/thirsty-4927291_640.jpg",
        "src1280": "https://cdn.pixabay.com/photo/2020/03/13/08/34/thirsty-4927291_1280.jpg"
    },
    {
        "id": "5441161",
        "src640": "https://cdn.pixabay.com/photo/2020/07/27/02/16/cbd-oil-dogs-5441161_640.jpg",
        "src1280": "https://cdn.pixabay.com/photo/2020/07/27/02/16/cbd-oil-dogs-5441161_1280.jpg"
    },
    {
        "id": "4233127",
        "src640": "https://cdn.pixabay.com/photo/2019/05/27/16/58/welsh-corgi-pembroke-4233127_640.jpg",
        "src1280": "https://cdn.pixabay.com/photo/2019/05/27/16/58/welsh-corgi-pembroke-4233127_1280.jpg"
    },
    {
        "id": "5533827",
        "src640": "https://cdn.pixabay.com/photo/2020/08/31/22/50/dog-5533827_640.jpg",
        "src1280": "https://cdn.pixabay.com/photo/2020/08/31/22/50/dog-5533827_1280.jpg"
    },
    {
        "id": "4592265",
        "src640": "https://cdn.pixabay.com/photo/2019/10/31/16/33/dog-4592265_640.jpg",
        "src1280": "https://cdn.pixabay.com/photo/2019/10/31/16/33/dog-4592265_1280.jpg"
    },
    {
        "id": "2564050",
        "src640": "https://cdn.pixabay.com/photo/2017/08/01/09/45/dog-2564050_640.jpg",
        "src1280": "https://cdn.pixabay.com/photo/2017/08/01/09/45/dog-2564050_1280.jpg"
    },
    {
        "id": "5934817",
        "src640": "https://cdn.pixabay.com/photo/2021/01/20/16/16/dog-5934817_640.jpg",
        "src1280": "https://cdn.pixabay.com/photo/2021/01/20/16/16/dog-5934817_1280.jpg"
    },
    {
        "id": "1046645",
        "src640": "https://cdn.pixabay.com/photo/2015/11/16/22/37/dog-1046645_640.jpg",
        "src1280": "https://cdn.pixabay.com/photo/2015/11/16/22/37/dog-1046645_1280.jpg"
    },
    {
        "id": "6797378",
        "src640": "https://cdn.pixabay.com/photo/2021/11/15/07/51/animal-6797378_640.jpg",
        "src1280": "https://cdn.pixabay.com/photo/2021/11/15/07/51/animal-6797378_1280.jpg"
    },
    {
        "id": "3858140",
        "src640": "https://cdn.pixabay.com/photo/2018/12/05/16/48/dog-3858140_640.jpg",
        "src1280": "https://cdn.pixabay.com/photo/2018/12/05/16/48/dog-3858140_1280.jpg"
    },
    {
        "id": "182780",
        "src640": "https://cdn.pixabay.com/photo/2013/09/16/09/09/dog-182780_640.jpg",
        "src1280": "https://cdn.pixabay.com/photo/2013/09/16/09/09/dog-182780_1280.jpg"
    },
    {
        "id": "656114",
        "src640": "https://cdn.pixabay.com/photo/2015/03/02/16/09/dog-656114_640.jpg",
        "src1280": "https://cdn.pixabay.com/photo/2015/03/02/16/09/dog-656114_1280.jpg"
    },
    {
        "id": "3682615",
        "src640": "https://cdn.pixabay.com/photo/2018/09/16/23/21/dog-on-beach-3682615_640.jpg",
        "src1280": "https://cdn.pixabay.com/photo/2018/09/16/23/21/dog-on-beach-3682615_1280.jpg"
    },
    {
        "id": "950000",
        "src640": "https://cdn.pixabay.com/photo/2015/09/21/15/14/bull-terrier-950000_640.jpg",
        "src1280": "https://cdn.pixabay.com/photo/2015/09/21/15/14/bull-terrier-950000_1280.jpg"
    },
    {
        "id": "7574988",
        "src640": "https://cdn.pixabay.com/photo/2022/11/06/20/25/dog-7574988_640.jpg",
        "src1280": "https://cdn.pixabay.com/photo/2022/11/06/20/25/dog-7574988_1280.jpg"
    },
    {
        "id": "672704",
        "src640": "https://cdn.pixabay.com/photo/2015/03/14/04/30/malinois-672704_640.jpg",
        "src1280": "https://cdn.pixabay.com/photo/2015/03/14/04/30/malinois-672704_1280.jpg"
    },
    {
        "id": "7906748",
        "src640": "https://cdn.pixabay.com/photo/2023/04/07/15/26/ai-generated-7906748_640.jpg",
        "src1280": "https://cdn.pixabay.com/photo/2023/04/07/15/26/ai-generated-7906748_1280.jpg"
    },
    {
        "id": "16700",
        "src640": "https://cdn.pixabay.com/photo/2012/02/24/16/56/dachshund-16700_640.jpg",
        "src1280": "https://cdn.pixabay.com/photo/2012/02/24/16/56/dachshund-16700_1280.jpg"
    },
    {
        "id": "2049579",
        "src640": "https://cdn.pixabay.com/photo/2017/02/08/17/27/eb-2049579_640.jpg",
        "src1280": "https://cdn.pixabay.com/photo/2017/02/08/17/27/eb-2049579_1280.jpg"
    },
    {
        "id": "4121404",
        "src640": "https://cdn.pixabay.com/photo/2019/04/12/05/54/husky-4121404_640.jpg",
        "src1280": "https://cdn.pixabay.com/photo/2019/04/12/05/54/husky-4121404_1280.jpg"
    },
    {
        "id": "4048819",
        "src640": "https://cdn.pixabay.com/photo/2019/03/11/15/51/dog-4048819_640.jpg",
        "src1280": "https://cdn.pixabay.com/photo/2019/03/11/15/51/dog-4048819_1280.jpg"
    },
    {
        "id": "6710203",
        "src640": "https://cdn.pixabay.com/photo/2021/10/14/19/26/dog-6710203_640.jpg",
        "src1280": "https://cdn.pixabay.com/photo/2021/10/14/19/26/dog-6710203_1280.jpg"
    },
    {
        "id": "7987238",
        "src640": "https://cdn.pixabay.com/photo/2023/05/11/21/12/vizsla-7987238_640.jpg",
        "src1280": "https://cdn.pixabay.com/photo/2023/05/11/21/12/vizsla-7987238_1280.jpg"
    },
    {
        "id": "7258122",
        "src640": "https://cdn.pixabay.com/photo/2022/06/12/14/26/english-bulldog-7258122_640.jpg",
        "src1280": "https://cdn.pixabay.com/photo/2022/06/12/14/26/english-bulldog-7258122_1280.jpg"
    },
    {
        "id": "3885740",
        "src640": "https://cdn.pixabay.com/photo/2018/12/20/11/13/street-3885740_640.jpg",
        "src1280": "https://cdn.pixabay.com/photo/2018/12/20/11/13/street-3885740_1280.jpg"
    },
    {
        "id": "3182241",
        "src640": "https://cdn.pixabay.com/photo/2018/02/26/03/44/people-3182241_640.jpg",
        "src1280": "https://cdn.pixabay.com/photo/2018/02/26/03/44/people-3182241_1280.jpg"
    },
    {
        "id": "7109835",
        "src640": "https://cdn.pixabay.com/photo/2022/04/03/20/32/yorkie-7109835_640.jpg",
        "src1280": "https://cdn.pixabay.com/photo/2022/04/03/20/32/yorkie-7109835_1280.jpg"
    },
    {
        "id": "2506471",
        "src640": "https://cdn.pixabay.com/photo/2017/07/15/13/35/dog-2506471_640.jpg",
        "src1280": "https://cdn.pixabay.com/photo/2017/07/15/13/35/dog-2506471_1280.jpg"
    },
    {
        "id": "96509",
        "src640": "https://cdn.pixabay.com/photo/2013/03/24/19/32/hydrant-96509_640.jpg",
        "src1280": "https://cdn.pixabay.com/photo/2013/03/24/19/32/hydrant-96509_1280.jpg"
    },
    {
        "id": "5105987",
        "src640": "https://cdn.pixabay.com/photo/2020/04/28/19/07/dog-5105987_640.jpg",
        "src1280": "https://cdn.pixabay.com/photo/2020/04/28/19/07/dog-5105987_1280.jpg"
    },
    {
        "id": "679002",
        "src640": "https://cdn.pixabay.com/photo/2015/03/18/09/25/dog-679002_640.jpg",
        "src1280": "https://cdn.pixabay.com/photo/2015/03/18/09/25/dog-679002_1280.jpg"
    },
    {
        "id": "7854676",
        "src640": "https://cdn.pixabay.com/photo/2023/03/15/14/21/couple-7854676_640.jpg",
        "src1280": "https://cdn.pixabay.com/photo/2023/03/15/14/21/couple-7854676_1280.jpg"
    },
    {
        "id": "8324888",
        "src640": "https://cdn.pixabay.com/photo/2023/10/18/18/17/animal-8324888_640.jpg",
        "src1280": "https://cdn.pixabay.com/photo/2023/10/18/18/17/animal-8324888_1280.jpg"
    },
    {
        "id": "5939199",
        "src640": "https://cdn.pixabay.com/photo/2021/01/22/06/06/dog-5939199_640.jpg",
        "src1280": "https://cdn.pixabay.com/photo/2021/01/22/06/06/dog-5939199_1280.jpg"
    },
    {
        "id": "6997607",
        "src640": "https://cdn.pixabay.com/photo/2022/02/06/16/34/animal-6997607_640.jpg",
        "src1280": "https://cdn.pixabay.com/photo/2022/02/06/16/34/animal-6997607_1280.jpg"
    },
    {
        "id": "5296833",
        "src640": "https://cdn.pixabay.com/photo/2020/06/14/07/32/dog-5296833_640.jpg",
        "src1280": "https://cdn.pixabay.com/photo/2020/06/14/07/32/dog-5296833_1280.jpg"
    },
    {
        "id": "6797774",
        "src640": "https://cdn.pixabay.com/photo/2021/11/15/11/07/dog-6797774_640.jpg",
        "src1280": "https://cdn.pixabay.com/photo/2021/11/15/11/07/dog-6797774_1280.jpg"
    },
    {
        "id": "2367290",
        "src640": "https://cdn.pixabay.com/photo/2017/06/02/20/48/pets-2367290_640.jpg",
        "src1280": "https://cdn.pixabay.com/photo/2017/06/02/20/48/pets-2367290_1280.jpg"
    },
    {
        "id": "7189708",
        "src640": "https://cdn.pixabay.com/photo/2022/05/11/16/27/husky-7189708_640.jpg",
        "src1280": "https://cdn.pixabay.com/photo/2022/05/11/16/27/husky-7189708_1280.jpg"
    },
    {
        "id": "1527906",
        "src640": "https://cdn.pixabay.com/photo/2016/07/19/10/18/dog-1527906_640.jpg",
        "src1280": "https://cdn.pixabay.com/photo/2016/07/19/10/18/dog-1527906_1280.jpg"
    },
    {
        "id": "7660958",
        "src640": "https://cdn.pixabay.com/photo/2022/12/17/04/32/ai-generated-7660958_640.jpg",
        "src1280": "https://cdn.pixabay.com/photo/2022/12/17/04/32/ai-generated-7660958_1280.jpg"
    },
    {
        "id": "4932580",
        "src640": "https://cdn.pixabay.com/photo/2020/03/15/06/43/dog-4932580_640.jpg",
        "src1280": "https://cdn.pixabay.com/photo/2020/03/15/06/43/dog-4932580_1280.jpg"
    },
    {
        "id": "5489326",
        "src640": "https://cdn.pixabay.com/photo/2020/08/14/23/51/dog-5489326_640.jpg",
        "src1280": "https://cdn.pixabay.com/photo/2020/08/14/23/51/dog-5489326_1280.jpg"
    },
    {
        "id": "4476061",
        "src640": "https://cdn.pixabay.com/photo/2019/09/14/13/31/dog-4476061_640.jpg",
        "src1280": "https://cdn.pixabay.com/photo/2019/09/14/13/31/dog-4476061_1280.jpg"
    },
    {
        "id": "3222883",
        "src640": "https://cdn.pixabay.com/photo/2018/03/13/15/52/flower-3222883_640.jpg",
        "src1280": "https://cdn.pixabay.com/photo/2018/03/13/15/52/flower-3222883_1280.jpg"
    },
    {
        "id": "5056769",
        "src640": "https://cdn.pixabay.com/photo/2020/04/17/20/20/dog-5056769_640.jpg",
        "src1280": "https://cdn.pixabay.com/photo/2020/04/17/20/20/dog-5056769_1280.jpg"
    },
    {
        "id": "4961759",
        "src640": "https://cdn.pixabay.com/photo/2020/03/23/18/52/dog-4961759_640.jpg",
        "src1280": "https://cdn.pixabay.com/photo/2020/03/23/18/52/dog-4961759_1280.jpg"
    },
    {
        "id": "8036632",
        "src640": "https://cdn.pixabay.com/photo/2023/06/02/22/28/animal-8036632_640.jpg",
        "src1280": "https://cdn.pixabay.com/photo/2023/06/02/22/28/animal-8036632_1280.jpg"
    },
    {
        "id": "6850487",
        "src640": "https://cdn.pixabay.com/photo/2021/12/06/14/18/animal-6850487_640.jpg",
        "src1280": "https://cdn.pixabay.com/photo/2021/12/06/14/18/animal-6850487_1280.jpg"
    },
    {
        "id": "662787",
        "src640": "https://cdn.pixabay.com/photo/2015/03/07/04/02/lying-dog-662787_640.jpg",
        "src1280": "https://cdn.pixabay.com/photo/2015/03/07/04/02/lying-dog-662787_1280.jpg"
    },
    {
        "id": "7914092",
        "src640": "https://cdn.pixabay.com/photo/2023/04/10/15/51/dog-7914092_640.jpg",
        "src1280": "https://cdn.pixabay.com/photo/2023/04/10/15/51/dog-7914092_1280.jpg"
    },
    {
        "id": "5219702",
        "src640": "https://cdn.pixabay.com/photo/2020/05/25/17/46/perro-5219702_640.jpg",
        "src1280": "https://cdn.pixabay.com/photo/2020/05/25/17/46/perro-5219702_1280.jpg"
    },
    {
        "id": "4405796",
        "src640": "https://cdn.pixabay.com/photo/2019/08/14/13/27/girl-4405796_640.jpg",
        "src1280": "https://cdn.pixabay.com/photo/2019/08/14/13/27/girl-4405796_1280.jpg"
    },
    {
        "id": "3577448",
        "src640": "https://cdn.pixabay.com/photo/2018/08/01/15/53/dog-3577448_640.jpg",
        "src1280": "https://cdn.pixabay.com/photo/2018/08/01/15/53/dog-3577448_1280.jpg"
    },
    {
        "id": "3202640",
        "src640": "https://cdn.pixabay.com/photo/2018/03/06/06/15/doberman-3202640_640.jpg",
        "src1280": "https://cdn.pixabay.com/photo/2018/03/06/06/15/doberman-3202640_1280.jpg"
    },
    {
        "id": "3796337",
        "src640": "https://cdn.pixabay.com/photo/2018/11/05/15/38/dogs-3796337_640.jpg",
        "src1280": "https://cdn.pixabay.com/photo/2018/11/05/15/38/dogs-3796337_1280.jpg"
    },
    {
        "id": "5086963",
        "src640": "https://cdn.pixabay.com/photo/2020/04/24/14/00/dog-5086963_640.jpg",
        "src1280": "https://cdn.pixabay.com/photo/2020/04/24/14/00/dog-5086963_1280.jpg"
    },
    {
        "id": "7142387",
        "src640": "https://cdn.pixabay.com/photo/2022/04/19/09/03/woman-7142387_640.jpg",
        "src1280": "https://cdn.pixabay.com/photo/2022/04/19/09/03/woman-7142387_1280.jpg"
    },
    {
        "id": "3864158",
        "src640": "https://cdn.pixabay.com/photo/2018/12/08/22/46/dog-3864158_640.jpg",
        "src1280": "https://cdn.pixabay.com/photo/2018/12/08/22/46/dog-3864158_1280.jpg"
    },
    {
        "id": "4655223",
        "src640": "https://cdn.pixabay.com/photo/2019/11/26/18/48/beautiful-dog-4655223_640.jpg",
        "src1280": "https://cdn.pixabay.com/photo/2019/11/26/18/48/beautiful-dog-4655223_1280.jpg"
    },
    {
        "id": "7835643",
        "src640": "https://cdn.pixabay.com/photo/2023/03/07/12/30/white-7835643_640.jpg",
        "src1280": "https://cdn.pixabay.com/photo/2023/03/07/12/30/white-7835643_1280.jpg"
    },
    {
        "id": "7376114",
        "src640": "https://cdn.pixabay.com/photo/2022/08/10/00/36/dog-7376114_640.jpg",
        "src1280": "https://cdn.pixabay.com/photo/2022/08/10/00/36/dog-7376114_1280.jpg"
    },
    {
        "id": "7246484",
        "src640": "https://cdn.pixabay.com/photo/2022/06/06/16/47/dog-7246484_640.jpg",
        "src1280": "https://cdn.pixabay.com/photo/2022/06/06/16/47/dog-7246484_1280.jpg"
    },
    {
        "id": "2367292",
        "src640": "https://cdn.pixabay.com/photo/2017/06/02/20/48/pets-2367292_640.jpg",
        "src1280": "https://cdn.pixabay.com/photo/2017/06/02/20/48/pets-2367292_1280.jpg"
    },
    {
        "id": "5219675",
        "src640": "https://cdn.pixabay.com/photo/2020/05/25/17/44/perro-5219675_640.jpg",
        "src1280": "https://cdn.pixabay.com/photo/2020/05/25/17/44/perro-5219675_1280.jpg"
    },
    {
        "id": "1394414",
        "src640": "https://cdn.pixabay.com/photo/2016/05/15/21/02/parson-russell-terrier-1394414_640.jpg",
        "src1280": "https://cdn.pixabay.com/photo/2016/05/15/21/02/parson-russell-terrier-1394414_1280.jpg"
    },
    {
        "id": "5045507",
        "src640": "https://cdn.pixabay.com/photo/2020/04/15/07/39/border-collie-5045507_640.jpg",
        "src1280": "https://cdn.pixabay.com/photo/2020/04/15/07/39/border-collie-5045507_1280.jpg"
    },
    {
        "id": "7063560",
        "src640": "https://cdn.pixabay.com/photo/2022/03/12/07/37/dog-7063560_640.jpg",
        "src1280": "https://cdn.pixabay.com/photo/2022/03/12/07/37/dog-7063560_1280.jpg"
    },
    {
        "id": "3569040",
        "src640": "https://cdn.pixabay.com/photo/2018/07/28/21/43/dog-3569040_640.jpg",
        "src1280": "https://cdn.pixabay.com/photo/2018/07/28/21/43/dog-3569040_1280.jpg"
    },
    {
        "id": "6498879",
        "src640": "https://cdn.pixabay.com/photo/2021/07/28/10/42/dog-6498879_640.jpg",
        "src1280": "https://cdn.pixabay.com/photo/2021/07/28/10/42/dog-6498879_1280.jpg"
    },
    {
        "id": "326653",
        "src640": "https://cdn.pixabay.com/photo/2014/04/17/17/43/dog-326653_640.jpg",
        "src1280": "https://cdn.pixabay.com/photo/2014/04/17/17/43/dog-326653_1280.jpg"
    },
    {
        "id": "4466166",
        "src640": "https://cdn.pixabay.com/photo/2019/09/10/13/43/chihuahua-4466166_640.jpg",
        "src1280": "https://cdn.pixabay.com/photo/2019/09/10/13/43/chihuahua-4466166_1280.jpg"
    },
    {
        "id": "3731194",
        "src640": "https://cdn.pixabay.com/photo/2018/10/07/19/55/late-summer-3731194_640.jpg",
        "src1280": "https://cdn.pixabay.com/photo/2018/10/07/19/55/late-summer-3731194_1280.jpg"
    },
    {
        "id": "5281696",
        "src640": "https://cdn.pixabay.com/photo/2020/06/10/08/04/animal-5281696_640.jpg",
        "src1280": "https://cdn.pixabay.com/photo/2020/06/10/08/04/animal-5281696_1280.jpg"
    },
    {
        "id": "5306994",
        "src640": "https://cdn.pixabay.com/photo/2020/06/16/19/33/border-5306994_640.jpg",
        "src1280": "https://cdn.pixabay.com/photo/2020/06/16/19/33/border-5306994_1280.jpg"
    },
    {
        "id": "3719559",
        "src640": "https://cdn.pixabay.com/photo/2018/10/02/18/21/dog-3719559_640.jpg",
        "src1280": "https://cdn.pixabay.com/photo/2018/10/02/18/21/dog-3719559_1280.jpg"
    },
    {
        "id": "5061907",
        "src640": "https://cdn.pixabay.com/photo/2020/04/19/05/33/bulldog-5061907_640.jpg",
        "src1280": "https://cdn.pixabay.com/photo/2020/04/19/05/33/bulldog-5061907_1280.jpg"
    },
    {
        "id": "6384675",
        "src640": "https://cdn.pixabay.com/photo/2021/07/03/19/04/girl-6384675_640.jpg",
        "src1280": "https://cdn.pixabay.com/photo/2021/07/03/19/04/girl-6384675_1280.jpg"
    },
    {
        "id": "2600346",
        "src640": "https://cdn.pixabay.com/photo/2017/08/07/05/42/dog-2600346_640.jpg",
        "src1280": "https://cdn.pixabay.com/photo/2017/08/07/05/42/dog-2600346_1280.jpg"
    },
    {
        "id": "5224667",
        "src640": "https://cdn.pixabay.com/photo/2020/05/26/20/18/dog-5224667_640.jpg",
        "src1280": "https://cdn.pixabay.com/photo/2020/05/26/20/18/dog-5224667_1280.jpg"
    },
    {
        "id": "2767444",
        "src640": "https://cdn.pixabay.com/photo/2017/09/20/05/05/dog-2767444_640.jpg",
        "src1280": "https://cdn.pixabay.com/photo/2017/09/20/05/05/dog-2767444_1280.jpg"
    }
]