[
    {
        "id": "1983145",
        "src640": "https://cdn.pixabay.com/photo/2017/01/16/02/10/dog-1983145_640.jpg",
        "src1280": "https://cdn.pixabay.com/photo/2017/01/16/02/10/dog-1983145_1280.jpg"
    },
    {
        "id": "5220270",
        "src640": "https://cdn.pixabay.com/photo/2020/05/25/19/46/cocker-spaniel-5220270_640.jpg",
        "src1280": "https://cdn.pixabay.com/photo/2020/05/25/19/46/cocker-spaniel-5220270_1280.jpg"
    },
    {
        "id": "2061727",
        "src640": "https://cdn.pixabay.com/photo/2017/02/13/04/06/chow-chow-2061727_640.jpg",
        "src1280": "https://cdn.pixabay.com/photo/2017/02/13/04/06/chow-chow-2061727_1280.jpg"
    },
    {
        "id": "5320362",
        "src640": "https://cdn.pixabay.com/photo/2020/06/20/09/50/poodle-5320362_640.jpg",
        "src1280": "https://cdn.pixabay.com/photo/2020/06/20/09/50/poodle-5320362_1280.jpg"
    },
    {
        "id": "3072076",
        "src640": "https://cdn.pixabay.com/photo/2018/01/09/17/07/dog-3072076_640.jpg",
        "src1280": "https://cdn.pixabay.com/photo/2018/01/09/17/07/dog-3072076_1280.jpg"
    },
    {
        "id": "1045307",
        "src640": "https://cdn.pixabay.com/photo/2015/11/16/07/15/luna-baby-and-me-1045307_640.jpg",
        "src1280": "https://cdn.pixabay.com/photo/2015/11/16/07/15/luna-baby-and-me-1045307_1280.jpg"
    },
    {
        "id": "7068731",
        "src640": "https://cdn.pixabay.com/photo/2022/03/14/18/58/dog-7068731_640.jpg",
        "src1280": "https://cdn.pixabay.com/photo/2022/03/14/18/58/dog-7068731_1280.jpg"
    },
    {
        "id": "4254469",
        "src640": "https://cdn.pixabay.com/photo/2019/06/05/20/19/black-4254469_640.jpg",
        "src1280": "https://cdn.pixabay.com/photo/2019/06/05/20/19/black-4254469_1280.jpg"
    },
    {
        "id": "6100486",
        "src640": "https://cdn.pixabay.com/photo/2021/03/16/17/22/dog-6100486_640.jpg",
        "src1280": "https://cdn.pixabay.com/photo/2021/03/16/17/22/dog-6100486_1280.jpg"
    },
    {
        "id": "5230244",
        "src640": "https://cdn.pixabay.com/photo/2020/05/28/07/32/dog-dogs-5230244_640.jpg",
        "src1280": "https://cdn.pixabay.com/photo/2020/05/28/07/32/dog-dogs-5230244_1280.jpg"
    },
    {
        "id": "4798301",
        "src640": "https://cdn.pixabay.com/photo/2020/01/27/20/38/german-shepherd-4798301_640.jpg",
        "src1280": "https://cdn.pixabay.com/photo/2020/01/27/20/38/german-shepherd-4798301_1280.jpg"
    },
    {
        "id": "694030",
        "src640": "https://cdn.pixabay.com/photo/2015/03/27/01/29/rose-hip-694030_640.jpg",
        "src1280": "https://cdn.pixabay.com/photo/2015/03/27/01/29/rose-hip-694030_1280.jpg"
    },
    {
        "id": "6975141",
        "src640": "https://cdn.pixabay.com/photo/2022/01/28/17/04/dachshund-6975141_640.jpg",
        "src1280": "https://cdn.pixabay.com/photo/2022/01/28/17/04/dachshund-6975141_1280.jpg"
    },
    {
        "id": "4545234",
        "src640": "https://cdn.pixabay.com/photo/2019/10/13/02/22/dog-4545234_640.jpg",
        "src1280": "https://cdn.pixabay.com/photo/2019/10/13/02/22/dog-4545234_1280.jpg"
    },
    {
        "id": "3418913",
        "src640": "https://cdn.pixabay.com/photo/2018/05/21/17/56/yorkshire-terrier-3418913_640.jpg",
        "src1280": "https://cdn.pixabay.com/photo/2018/05/21/17/56/yorkshire-terrier-3418913_1280.jpg"
    },
    {
        "id": "4579571",
        "src640": "https://cdn.pixabay.com/photo/2019/10/26/13/48/pet-4579571_640.jpg",
        "src1280": "https://cdn.pixabay.com/photo/2019/10/26/13/48/pet-4579571_1280.jpg"
    },
    {
        "id": "5470305",
        "src640": "https://cdn.pixabay.com/photo/2020/08/07/10/34/dog-5470305_640.jpg",
        "src1280": "https://cdn.pixabay.com/photo/2020/08/07/10/34/dog-5470305_1280.jpg"
    },
    {
        "id": "4844799",
        "src640": "https://cdn.pixabay.com/photo/2020/02/13/07/55/border-collie-4844799_640.jpg",
        "src1280": "https://cdn.pixabay.com/photo/2020/02/13/07/55/border-collie-4844799_1280.jpg"
    },
    {
        "id": "5442237",
        "src640": "https://cdn.pixabay.com/photo/2020/07/27/12/13/dog-5442237_640.jpg",
        "src1280": "https://cdn.pixabay.com/photo/2020/07/27/12/13/dog-5442237_1280.jpg"
    },
    {
        "id": "7164131",
        "src640": "https://cdn.pixabay.com/photo/2022/04/29/17/23/women-7164131_640.jpg",
        "src1280": "https://cdn.pixabay.com/photo/2022/04/29/17/23/women-7164131_1280.jpg"
    },
    {
        "id": "4138395",
        "src640": "https://cdn.pixabay.com/photo/2019/04/19/01/02/dog-4138395_640.jpg",
        "src1280": "https://cdn.pixabay.com/photo/2019/04/19/01/02/dog-4138395_1280.jpg"
    },
    {
        "id": "7096801",
        "src640": "https://cdn.pixabay.com/photo/2022/03/28/07/22/dogs-7096801_640.jpg",
        "src1280": "https://cdn.pixabay.com/photo/2022/03/28/07/22/dogs-7096801_1280.jpg"
    },
    {
        "id": "3818808",
        "src640": "https://cdn.pixabay.com/photo/2018/11/16/05/44/dog-in-a-river-3818808_640.jpg",
        "src1280": "https://cdn.pixabay.com/photo/2018/11/16/05/44/dog-in-a-river-3818808_1280.jpg"
    },
    {
        "id": "6895626",
        "src640": "https://cdn.pixabay.com/photo/2021/12/26/17/44/couple-6895626_640.jpg",
        "src1280": "https://cdn.pixabay.com/photo/2021/12/26/17/44/couple-6895626_1280.jpg"
    },
    {
        "id": "4894163",
        "src640": "https://cdn.pixabay.com/photo/2020/03/01/21/15/pittbull-4894163_640.jpg",
        "src1280": "https://cdn.pixabay.com/photo/2020/03/01/21/15/pittbull-4894163_1280.jpg"
    },
    {
        "id": "421707",
        "src640": "https://cdn.pixabay.com/photo/2014/08/19/16/30/jack-russell-421707_640.jpg",
        "src1280": "https://cdn.pixabay.com/photo/2014/08/19/16/30/jack-russell-421707_1280.jpg"
    },
    {
        "id": "6196554",
        "src640": "https://cdn.pixabay.com/photo/2021/04/21/14/23/dog-6196554_640.jpg",
        "src1280": "https://cdn.pixabay.com/photo/2021/04/21/14/23/dog-6196554_1280.jpg"
    },
    {
        "id": "3232753",
        "src640": "https://cdn.pixabay.com/photo/2018/03/16/22/56/dogs-3232753_640.jpg",
        "src1280": "https://cdn.pixabay.com/photo/2018/03/16/22/56/dogs-3232753_1280.jpg"
    },
    {
        "id": "707044",
        "src640": "https://cdn.pixabay.com/photo/2015/04/04/20/27/german-shepherd-707044_640.jpg",
        "src1280": "https://cdn.pixabay.com/photo/2015/04/04/20/27/german-shepherd-707044_1280.jpg"
    },
    {
        "id": "7224772",
        "src640": "https://cdn.pixabay.com/photo/2022/05/27/09/24/meadow-7224772_640.jpg",
        "src1280": "https://cdn.pixabay.com/photo/2022/05/27/09/24/meadow-7224772_1280.jpg"
    },
    {
        "id": "2620077",
        "src640": "https://cdn.pixabay.com/photo/2017/08/10/08/41/dog-2620077_640.jpg",
        "src1280": "https://cdn.pixabay.com/photo/2017/08/10/08/41/dog-2620077_1280.jpg"
    },
    {
        "id": "791945",
        "src640": "https://cdn.pixabay.com/photo/2015/05/31/14/25/dog-791945_640.jpg",
        "src1280": "https://cdn.pixabay.com/photo/2015/05/31/14/25/dog-791945_1280.jpg"
    },
    {
        "id": "6494773",
        "src640": "https://cdn.pixabay.com/photo/2021/07/26/16/56/dog-6494773_640.jpg",
        "src1280": "https://cdn.pixabay.com/photo/2021/07/26/16/56/dog-6494773_1280.jpg"
    },
    {
        "id": "2469021",
        "src640": "https://cdn.pixabay.com/photo/2017/07/03/21/20/dog-2469021_640.jpg",
        "src1280": "https://cdn.pixabay.com/photo/2017/07/03/21/20/dog-2469021_1280.jpg"
    },
    {
        "id": "7574405",
        "src640": "https://cdn.pixabay.com/photo/2022/11/06/16/20/dog-7574405_640.jpg",
        "src1280": "https://cdn.pixabay.com/photo/2022/11/06/16/20/dog-7574405_1280.jpg"
    },
    {
        "id": "6703958",
        "src640": "https://cdn.pixabay.com/photo/2021/10/12/16/04/dog-6703958_640.jpg",
        "src1280": "https://cdn.pixabay.com/photo/2021/10/12/16/04/dog-6703958_1280.jpg"
    },
    {
        "id": "4506205",
        "src640": "https://cdn.pixabay.com/photo/2019/09/26/14/57/nature-4506205_640.jpg",
        "src1280": "https://cdn.pixabay.com/photo/2019/09/26/14/57/nature-4506205_1280.jpg"
    },
    {
        "id": "7471498",
        "src640": "https://cdn.pixabay.com/photo/2022/09/22/02/30/dog-7471498_640.jpg",
        "src1280": "https://cdn.pixabay.com/photo/2022/09/22/02/30/dog-7471498_1280.jpg"
    },
    {
        "id": "3643747",
        "src640": "https://cdn.pixabay.com/photo/2018/08/31/02/59/dog-3643747_640.jpg",
        "src1280": "https://cdn.pixabay.com/photo/2018/08/31/02/59/dog-3643747_1280.jpg"
    },
    {
        "id": "6922965",
        "src640": "https://cdn.pixabay.com/photo/2022/01/07/23/55/cane-corso-6922965_640.jpg",
        "src1280": "https://cdn.pixabay.com/photo/2022/01/07/23/55/cane-corso-6922965_1280.jpg"
    },
    {
        "id": "2704654",
        "src640": "https://cdn.pixabay.com/photo/2017/09/01/16/11/dog-by-the-stove-2704654_640.jpg",
        "src1280": "https://cdn.pixabay.com/photo/2017/09/01/16/11/dog-by-the-stove-2704654_1280.jpg"
    },
    {
        "id": "4528789",
        "src640": "https://cdn.pixabay.com/photo/2019/10/05/21/00/schrankogel-4528789_640.jpg",
        "src1280": "https://cdn.pixabay.com/photo/2019/10/05/21/00/schrankogel-4528789_1280.jpg"
    },
    {
        "id": "5290551",
        "src640": "https://cdn.pixabay.com/photo/2020/06/12/14/30/dog-5290551_640.jpg",
        "src1280": "https://cdn.pixabay.com/photo/2020/06/12/14/30/dog-5290551_1280.jpg"
    },
    {
        "id": "4548220",
        "src640": "https://cdn.pixabay.com/photo/2019/10/14/08/44/dog-4548220_640.jpg",
        "src1280": "https://cdn.pixabay.com/photo/2019/10/14/08/44/dog-4548220_1280.jpg"
    },
    {
        "id": "3869172",
        "src640": "https://cdn.pixabay.com/photo/2018/12/11/15/50/dog-3869172_640.jpg",
        "src1280": "https://cdn.pixabay.com/photo/2018/12/11/15/50/dog-3869172_1280.jpg"
    },
    {
        "id": "7683071",
        "src640": "https://cdn.pixabay.com/photo/2022/12/28/14/45/golden-retriever-7683071_640.jpg",
        "src1280": "https://cdn.pixabay.com/photo/2022/12/28/14/45/golden-retriever-7683071_1280.jpg"
    },
    {
        "id": "4295049",
        "src640": "https://cdn.pixabay.com/photo/2019/06/24/02/22/dog-4295049_640.jpg",
        "src1280": "https://cdn.pixabay.com/photo/2019/06/24/02/22/dog-4295049_1280.jpg"
    },
    {
        "id": "5098289",
        "src640": "https://cdn.pixabay.com/photo/2020/04/27/06/11/dog-5098289_640.jpg",
        "src1280": "https://cdn.pixabay.com/photo/2020/04/27/06/11/dog-5098289_1280.jpg"
    },
    {
        "id": "6889103",
        "src640": "https://cdn.pixabay.com/photo/2021/12/23/09/55/animal-6889103_640.jpg",
        "src1280": "https://cdn.pixabay.com/photo/2021/12/23/09/55/animal-6889103_1280.jpg"
    },
    {
        "id": "7453754",
        "src640": "https://cdn.pixabay.com/photo/2022/09/14/08/50/rose-7453754_640.jpg",
        "src1280": "https://cdn.pixabay.com/photo/2022/09/14/08/50/rose-7453754_1280.jpg"
    },
    {
        "id": "4730710",
        "src640": "https://cdn.pixabay.com/photo/2019/12/30/21/47/woman-4730710_640.jpg",
        "src1280": "https://cdn.pixabay.com/photo/2019/12/30/21/47/woman-4730710_1280.jpg"
    },
    {
        "id": "7151742",
        "src640": "https://cdn.pixabay.com/photo/2022/04/23/13/27/dog-7151742_640.jpg",
        "src1280": "https://cdn.pixabay.com/photo/2022/04/23/13/27/dog-7151742_1280.jpg"
    },
    {
        "id": "2899457",
        "src640": "https://cdn.pixabay.com/photo/2017/10/29/11/12/dog-2899457_640.jpg",
        "src1280": "https://cdn.pixabay.com/photo/2017/10/29/11/12/dog-2899457_1280.jpg"
    },
    {
        "id": "4801253",
        "src640": "https://cdn.pixabay.com/photo/2020/01/28/23/07/groundhog-4801253_640.jpg",
        "src1280": "https://cdn.pixabay.com/photo/2020/01/28/23/07/groundhog-4801253_1280.jpg"
    },
    {
        "id": "5932455",
        "src640": "https://cdn.pixabay.com/photo/2021/01/19/21/08/dog-5932455_640.jpg",
        "src1280": "https://cdn.pixabay.com/photo/2021/01/19/21/08/dog-5932455_1280.jpg"
    },
    {
        "id": "1430819",
        "src640": "https://cdn.pixabay.com/photo/2016/06/02/11/26/dog-1430819_640.jpg",
        "src1280": "https://cdn.pixabay.com/photo/2016/06/02/11/26/dog-1430819_1280.jpg"
    },
    {
        "id": "6527913",
        "src640": "https://cdn.pixabay.com/photo/2021/08/07/06/46/dog-6527913_640.jpg",
        "src1280": "https://cdn.pixabay.com/photo/2021/08/07/06/46/dog-6527913_1280.jpg"
    },
    {
        "id": "7124315",
        "src640": "https://cdn.pixabay.com/photo/2022/04/10/21/11/dog-7124315_640.jpg",
        "src1280": "https://cdn.pixabay.com/photo/2022/04/10/21/11/dog-7124315_1280.jpg"
    },
    {
        "id": "4719014",
        "src640": "https://cdn.pixabay.com/photo/2019/12/25/17/53/dog-4719014_640.jpg",
        "src1280": "https://cdn.pixabay.com/photo/2019/12/25/17/53/dog-4719014_1280.jpg"
    },
    {
        "id": "4820203",
        "src640": "https://cdn.pixabay.com/photo/2020/02/05/06/24/animal-4820203_640.jpg",
        "src1280": "https://cdn.pixabay.com/photo/2020/02/05/06/24/animal-4820203_1280.jpg"
    },
    {
        "id": "6693887",
        "src640": "https://cdn.pixabay.com/photo/2021/10/09/11/04/woman-6693887_640.jpg",
        "src1280": "https://cdn.pixabay.com/photo/2021/10/09/11/04/woman-6693887_1280.jpg"
    },
    {
        "id": "6797775",
        "src640": "https://cdn.pixabay.com/photo/2021/11/15/11/07/dog-6797775_640.jpg",
        "src1280": "https://cdn.pixabay.com/photo/2021/11/15/11/07/dog-6797775_1280.jpg"
    },
    {
        "id": "5497269",
        "src640": "https://cdn.pixabay.com/photo/2020/08/18/06/29/dog-5497269_640.jpg",
        "src1280": "https://cdn.pixabay.com/photo/2020/08/18/06/29/dog-5497269_1280.jpg"
    },
    {
        "id": "4752353",
        "src640": "https://cdn.pixabay.com/photo/2020/01/09/09/06/jogging-4752353_640.jpg",
        "src1280": "https://cdn.pixabay.com/photo/2020/01/09/09/06/jogging-4752353_1280.jpg"
    },
    {
        "id": "4842675",
        "src640": "https://cdn.pixabay.com/photo/2020/02/12/12/49/dog-4842675_640.jpg",
        "src1280": "https://cdn.pixabay.com/photo/2020/02/12/12/49/dog-4842675_1280.jpg"
    },
    {
        "id": "964826",
        "src640": "https://cdn.pixabay.com/photo/2015/09/30/01/41/dog-964826_640.jpg",
        "src1280": "https://cdn.pixabay.com/photo/2015/09/30/01/41/dog-964826_1280.jpg"
    },
    {
        "id": "7216253",
        "src640": "https://cdn.pixabay.com/photo/2022/05/23/13/46/yorkshire-terrier-7216253_640.jpg",
        "src1280": "https://cdn.pixabay.com/photo/2022/05/23/13/46/yorkshire-terrier-7216253_1280.jpg"
    },
    {
        "id": "7866827",
        "src640": "https://cdn.pixabay.com/photo/2023/03/21/09/26/dog-7866827_640.jpg",
        "src1280": "https://cdn.pixabay.com/photo/2023/03/21/09/26/dog-7866827_1280.jpg"
    },
    {
        "id": "4662821",
        "src640": "https://cdn.pixabay.com/photo/2019/11/30/08/43/dog-4662821_640.jpg",
        "src1280": "https://cdn.pixabay.com/photo/2019/11/30/08/43/dog-4662821_1280.jpg"
    },
    {
        "id": "5311028",
        "src640": "https://cdn.pixabay.com/photo/2020/06/17/20/21/pet-5311028_640.jpg",
        "src1280": "https://cdn.pixabay.com/photo/2020/06/17/20/21/pet-5311028_1280.jpg"
    },
    {
        "id": "315251",
        "src640": "https://cdn.pixabay.com/photo/2014/04/05/11/20/dog-315251_640.jpg",
        "src1280": "https://cdn.pixabay.com/photo/2014/04/05/11/20/dog-315251_1280.jpg"
    },
    {
        "id": "6752097",
        "src640": "https://cdn.pixabay.com/photo/2021/10/29/14/56/pinscher-6752097_640.jpg",
        "src1280": "https://cdn.pixabay.com/photo/2021/10/29/14/56/pinscher-6752097_1280.jpg"
    },
    {
        "id": "7755268",
        "src640": "https://cdn.pixabay.com/photo/2023/01/30/10/06/bulldog-7755268_640.jpg",
        "src1280": "https://cdn.pixabay.com/photo/2023/01/30/10/06/bulldog-7755268_1280.jpg"
    },
    {
        "id": "4832451",
        "src640": "https://cdn.pixabay.com/photo/2020/02/09/09/21/dog-4832451_640.jpg",
        "src1280": "https://cdn.pixabay.com/photo/2020/02/09/09/21/dog-4832451_1280.jpg"
    },
    {
        "id": "18584",
        "src640": "https://cdn.pixabay.com/photo/2012/02/28/15/51/sleeping-18584_640.jpg",
        "src1280": "https://cdn.pixabay.com/photo/2012/02/28/15/51/sleeping-18584_1280.jpg"
    },
    {
        "id": "7494325",
        "src640": "https://cdn.pixabay.com/photo/2022/10/02/19/54/dog-7494325_640.jpg",
        "src1280": "https://cdn.pixabay.com/photo/2022/10/02/19/54/dog-7494325_1280.jpg"
    },
    {
        "id": "261246",
        "src640": "https://cdn.pixabay.com/photo/2014/02/07/19/20/dog-261246_640.jpg",
        "src1280": "https://cdn.pixabay.com/photo/2014/02/07/19/20/dog-261246_1280.jpg"
    },
    {
        "id": "6767064",
        "src640": "https://cdn.pixabay.com/photo/2021/11/04/00/12/dog-6767064_640.jpg",
        "src1280": "https://cdn.pixabay.com/photo/2021/11/04/00/12/dog-6767064_1280.jpg"
    },
    {
        "id": "2662476",
        "src640": "https://cdn.pixabay.com/photo/2017/08/20/17/19/prairie-dog-2662476_640.jpg",
        "src1280": "https://cdn.pixabay.com/photo/2017/08/20/17/19/prairie-dog-2662476_1280.jpg"
    },
    {
        "id": "7519160",
        "src640": "https://cdn.pixabay.com/photo/2022/10/13/13/50/english-cocker-spaniel-7519160_640.jpg",
        "src1280": "https://cdn.pixabay.com/photo/2022/10/13/13/50/english-cocker-spaniel-7519160_1280.jpg"
    },
    {
        "id": "4992495",
        "src640": "https://cdn.pixabay.com/photo/2020/04/01/20/03/dog-4992495_640.jpg",
        "src1280": "https://cdn.pixabay.com/photo/2020/04/01/20/03/dog-4992495_1280.jpg"
    },
    {
        "id": "7532133",
        "src640": "https://cdn.pixabay.com/photo/2022/10/19/11/15/rose-7532133_640.jpg",
        "src1280": "https://cdn.pixabay.com/photo/2022/10/19/11/15/rose-7532133_1280.jpg"
    },
    {
        "id": "1642410",
        "src640": "https://cdn.pixabay.com/photo/2016/09/03/18/16/dogs-1642410_640.jpg",
        "src1280": "https://cdn.pixabay.com/photo/2016/09/03/18/16/dogs-1642410_1280.jpg"
    },
    {
        "id": "792159",
        "src640": "https://cdn.pixabay.com/photo/2015/05/31/15/14/dog-792159_640.jpg",
        "src1280": "https://cdn.pixabay.com/photo/2015/05/31/15/14/dog-792159_1280.jpg"
    },
    {
        "id": "6852946",
        "src640": "https://cdn.pixabay.com/photo/2021/12/07/10/31/animal-6852946_640.jpg",
        "src1280": "https://cdn.pixabay.com/photo/2021/12/07/10/31/animal-6852946_1280.jpg"
    },
    {
        "id": "7377947",
        "src640": "https://cdn.pixabay.com/photo/2022/08/10/18/59/dog-7377947_640.jpg",
        "src1280": "https://cdn.pixabay.com/photo/2022/08/10/18/59/dog-7377947_1280.jpg"
    },
    {
        "id": "2600670",
        "src640": "https://cdn.pixabay.com/photo/2017/08/07/06/31/sea-2600670_640.jpg",
        "src1280": "https://cdn.pixabay.com/photo/2017/08/07/06/31/sea-2600670_1280.jpg"
    },
    {
        "id": "5017966",
        "src640": "https://cdn.pixabay.com/photo/2020/04/08/16/28/dog-5017966_640.jpg",
        "src1280": "https://cdn.pixabay.com/photo/2020/04/08/16/28/dog-5017966_1280.jpg"
    },
    {
        "id": "698407",
        "src640": "https://cdn.pixabay.com/photo/2015/03/30/12/21/dog-698407_640.jpg",
        "src1280": "https://cdn.pixabay.com/photo/2015/03/30/12/21/dog-698407_1280.jpg"
    },
    {
        "id": "665146",
        "src640": "https://cdn.pixabay.com/photo/2015/03/09/07/24/dog-665146_640.jpg",
        "src1280": "https://cdn.pixabay.com/photo/2015/03/09/07/24/dog-665146_1280.jpg"
    },
    {
        "id": "4944826",
        "src640": "https://cdn.pixabay.com/photo/2020/03/18/17/04/dog-4944826_640.jpg",
        "src1280": "https://cdn.pixabay.com/photo/2020/03/18/17/04/dog-4944826_1280.jpg"
    },
    {
        "id": "4376574",
        "src640": "https://cdn.pixabay.com/photo/2019/08/01/03/52/cat-4376574_640.jpg",
        "src1280": "https://cdn.pixabay.com/photo/2019/08/01/03/52/cat-4376574_1280.jpg"
    },
    {
        "id": "4900666",
        "src640": "https://cdn.pixabay.com/photo/2020/03/04/06/30/dog-4900666_640.jpg",
        "src1280": "https://cdn.pixabay.com/photo/2020/03/04/06/30/dog-4900666_1280.jpg"
    },
    {
        "id": "4190105",
        "src640": "https://cdn.pixabay.com/photo/2019/05/09/00/22/animal-4190105_640.jpg",
        "src1280": "https://cdn.pixabay.com/photo/2019/05/09/00/22/animal-4190105_1280.jpg"
    },
    {
        "id": "705986",
        "src640": "https://cdn.pixabay.com/photo/2015/04/03/22/37/friend-705986_640.jpg",
        "src1280": "https://cdn.pixabay.com/photo/2015/04/03/22/37/friend-705986_1280.jpg"
    },
    {
        "id": "4676991",
        "src640": "https://cdn.pixabay.com/photo/2019/12/06/09/13/dog-4676991_640.jpg",
        "src1280": "https://cdn.pixabay.com/photo/2019/12/06/09/13/dog-4676991_1280.jpg"
    }
]