[
    {
        "id": "6960719",
        "src640": "https://cdn.pixabay.com/photo/2022/01/23/12/43/dog-6960719_640.jpg",
        "src1280": "https://cdn.pixabay.com/photo/2022/01/23/12/43/dog-6960719_1280.jpg"
    },
    {
        "id": "3915194",
        "src640": "https://cdn.pixabay.com/photo/2019/01/05/14/55/dog-3915194_640.jpg",
        "src1280": "https://cdn.pixabay.com/photo/2019/01/05/14/55/dog-3915194_1280.jpg"
    },
    {
        "id": "1675483",
        "src640": "https://cdn.pixabay.com/photo/2016/09/17/02/51/german-shepherd-1675483_640.jpg",
        "src1280": "https://cdn.pixabay.com/photo/2016/09/17/02/51/german-shepherd-1675483_1280.jpg"
    },
    {
        "id": "7246604",
        "src640": "https://cdn.pixabay.com/photo/2022/06/06/17/44/woman-7246604_640.jpg",
        "src1280": "https://cdn.pixabay.com/photo/2022/06/06/17/44/woman-7246604_1280.jpg"
    },
    {
        "id": "7010084",
        "src640": "https://cdn.pixabay.com/photo/2022/02/12/23/45/shih-tzu-7010084_640.jpg",
        "src1280": "https://cdn.pixabay.com/photo/2022/02/12/23/45/shih-tzu-7010084_1280.jpg"
    },
    {
        "id": "2654260",
        "src640": "https://cdn.pixabay.com/photo/2017/08/18/08/47/doggie-viridis-2654260_640.jpg",
        "src1280": "https://cdn.pixabay.com/photo/2017/08/18/08/47/doggie-viridis-2654260_1280.jpg"
    },
    {
        "id": "242876",
        "src640": "https://cdn.pixabay.com/photo/2014/01/12/15/03/teddy-242876_640.jpg",
        "src1280": "https://cdn.pixabay.com/photo/2014/01/12/15/03/teddy-242876_1280.jpg"
    },
    {
        "id": "848479",
        "src640": "https://cdn.pixabay.com/photo/2015/07/17/05/31/guatemala-848479_640.jpg",
        "src1280": "https://cdn.pixabay.com/photo/2015/07/17/05/31/guatemala-848479_1280.jpg"
    },
    {
        "id": "7073057",
        "src640": "https://cdn.pixabay.com/photo/2022/03/16/18/36/animal-7073057_640.jpg",
        "src1280": "https://cdn.pixabay.com/photo/2022/03/16/18/36/animal-7073057_1280.jpg"
    },
    {
        "id": "5161807",
        "src640": "https://cdn.pixabay.com/photo/2020/05/12/08/33/puppy-5161807_640.jpg",
        "src1280": "https://cdn.pixabay.com/photo/2020/05/12/08/33/puppy-5161807_1280.jpg"
    },
    {
        "id": "7914093",
        "src640": "https://cdn.pixabay.com/photo/2023/04/10/15/51/dog-7914093_640.jpg",
        "src1280": "https://cdn.pixabay.com/photo/2023/04/10/15/51/dog-7914093_1280.jpg"
    },
    {
        "id": "5149045",
        "src640": "https://cdn.pixabay.com/photo/2020/05/09/10/14/landscape-5149045_640.jpg",
        "src1280": "https://cdn.pixabay.com/photo/2020/05/09/10/14/landscape-5149045_1280.jpg"
    },
    {
        "id": "2049577",
        "src640": "https://cdn.pixabay.com/photo/2017/02/08/17/26/dog-2049577_640.jpg",
        "src1280": "https://cdn.pixabay.com/photo/2017/02/08/17/26/dog-2049577_1280.jpg"
    },
    {
        "id": "7390809",
        "src640": "https://cdn.pixabay.com/photo/2022/08/16/16/57/bat-7390809_640.jpg",
        "src1280": "https://cdn.pixabay.com/photo/2022/08/16/16/57/bat-7390809_1280.jpg"
    },
    {
        "id": "1925216",
        "src640": "https://cdn.pixabay.com/photo/2016/12/22/10/55/dog-1925216_640.jpg",
        "src1280": "https://cdn.pixabay.com/photo/2016/12/22/10/55/dog-1925216_1280.jpg"
    },
    {
        "id": "7138315",
        "src640": "https://cdn.pixabay.com/photo/2022/04/17/15/06/dog-7138315_640.jpg",
        "src1280": "https://cdn.pixabay.com/photo/2022/04/17/15/06/dog-7138315_1280.jpg"
    },
    {
        "id": "965789",
        "src640": "https://cdn.pixabay.com/photo/2015/09/30/17/11/dog-965789_640.jpg",
        "src1280": "https://cdn.pixabay.com/photo/2015/09/30/17/11/dog-965789_1280.jpg"
    },
    {
        "id": "5441196",
        "src640": "https://cdn.pixabay.com/photo/2020/07/27/02/29/cbd-oil-5441196_640.jpg",
        "src1280": "https://cdn.pixabay.com/photo/2020/07/27/02/29/cbd-oil-5441196_1280.jpg"
    },
    {
        "id": "4308844",
        "src640": "https://cdn.pixabay.com/photo/2019/06/30/21/52/beagle-4308844_640.jpg",
        "src1280": "https://cdn.pixabay.com/photo/2019/06/30/21/52/beagle-4308844_1280.jpg"
    },
    {
        "id": "4093650",
        "src640": "https://cdn.pixabay.com/photo/2019/03/31/18/06/dog-4093650_640.jpg",
        "src1280": "https://cdn.pixabay.com/photo/2019/03/31/18/06/dog-4093650_1280.jpg"
    },
    {
        "id": "3767627",
        "src640": "https://cdn.pixabay.com/photo/2018/10/23/11/28/diana-3767627_640.jpg",
        "src1280": "https://cdn.pixabay.com/photo/2018/10/23/11/28/diana-3767627_1280.jpg"
    },
    {
        "id": "6874016",
        "src640": "https://cdn.pixabay.com/photo/2021/12/16/07/59/dog-6874016_640.jpg",
        "src1280": "https://cdn.pixabay.com/photo/2021/12/16/07/59/dog-6874016_1280.jpg"
    },
    {
        "id": "2178146",
        "src640": "https://cdn.pixabay.com/photo/2017/03/27/11/24/dog-2178146_640.jpg",
        "src1280": "https://cdn.pixabay.com/photo/2017/03/27/11/24/dog-2178146_1280.jpg"
    },
    {
        "id": "6850676",
        "src640": "https://cdn.pixabay.com/photo/2021/12/06/15/43/dog-6850676_640.jpg",
        "src1280": "https://cdn.pixabay.com/photo/2021/12/06/15/43/dog-6850676_1280.jpg"
    },
    {
        "id": "3710335",
        "src640": "https://cdn.pixabay.com/photo/2018/09/28/22/01/bernedoodle-3710335_640.jpg",
        "src1280": "https://cdn.pixabay.com/photo/2018/09/28/22/01/bernedoodle-3710335_1280.jpg"
    },
    {
        "id": "8379462",
        "src640": "https://cdn.pixabay.com/photo/2023/11/10/14/40/ai-generated-8379462_640.jpg",
        "src1280": "https://cdn.pixabay.com/photo/2023/11/10/14/40/ai-generated-8379462_1280.jpg"
    },
    {
        "id": "4668189",
        "src640": "https://cdn.pixabay.com/photo/2019/12/02/17/00/autumn-dress-4668189_640.jpg",
        "src1280": "https://cdn.pixabay.com/photo/2019/12/02/17/00/autumn-dress-4668189_1280.jpg"
    },
    {
        "id": "2308475",
        "src640": "https://cdn.pixabay.com/photo/2017/05/13/00/18/dog-2308475_640.jpg",
        "src1280": "https://cdn.pixabay.com/photo/2017/05/13/00/18/dog-2308475_1280.jpg"
    },
    {
        "id": "3404931",
        "src640": "https://cdn.pixabay.com/photo/2018/05/16/05/34/dog-3404931_640.jpg",
        "src1280": "https://cdn.pixabay.com/photo/2018/05/16/05/34/dog-3404931_1280.jpg"
    },
    {
        "id": "3980047",
        "src640": "https://cdn.pixabay.com/photo/2019/02/06/21/24/sunlight-3980047_640.jpg",
        "src1280": "https://cdn.pixabay.com/photo/2019/02/06/21/24/sunlight-3980047_1280.jpg"
    },
    {
        "id": "4327218",
        "src640": "https://cdn.pixabay.com/photo/2019/07/09/17/49/nager-4327218_640.jpg",
        "src1280": "https://cdn.pixabay.com/photo/2019/07/09/17/49/nager-4327218_1280.jpg"
    },
    {
        "id": "1724533",
        "src640": "https://cdn.pixabay.com/photo/2016/10/08/20/12/dog-1724533_640.jpg",
        "src1280": "https://cdn.pixabay.com/photo/2016/10/08/20/12/dog-1724533_1280.jpg"
    },
    {
        "id": "2256133",
        "src640": "https://cdn.pixabay.com/photo/2017/04/24/11/01/dog-2256133_640.jpg",
        "src1280": "https://cdn.pixabay.com/photo/2017/04/24/11/01/dog-2256133_1280.jpg"
    },
    {
        "id": "5352005",
        "src640": "https://cdn.pixabay.com/photo/2020/06/29/09/02/puppy-5352005_640.jpg",
        "src1280": "https://cdn.pixabay.com/photo/2020/06/29/09/02/puppy-5352005_1280.jpg"
    },
    {
        "id": "1120538",
        "src640": "https://cdn.pixabay.com/photo/2016/01/04/09/53/snow-1120538_640.jpg",
        "src1280": "https://cdn.pixabay.com/photo/2016/01/04/09/53/snow-1120538_1280.jpg"
    },
    {
        "id": "5830730",
        "src640": "https://cdn.pixabay.com/photo/2020/12/14/12/42/labrador-5830730_640.jpg",
        "src1280": "https://cdn.pixabay.com/photo/2020/12/14/12/42/labrador-5830730_1280.jpg"
    },
    {
        "id": "4073343",
        "src640": "https://cdn.pixabay.com/photo/2019/03/22/13/56/animals-4073343_640.jpg",
        "src1280": "https://cdn.pixabay.com/photo/2019/03/22/13/56/animals-4073343_1280.jpg"
    },
    {
        "id": "5141065",
        "src640": "https://cdn.pixabay.com/photo/2020/05/07/10/56/animals-5141065_640.jpg",
        "src1280": "https://cdn.pixabay.com/photo/2020/05/07/10/56/animals-5141065_1280.jpg"
    },
    {
        "id": "750572",
        "src640": "https://cdn.pixabay.com/photo/2015/05/02/23/42/flower-750572_640.jpg",
        "src1280": "https://cdn.pixabay.com/photo/2015/05/02/23/42/flower-750572_1280.jpg"
    },
    {
        "id": "7224773",
        "src640": "https://cdn.pixabay.com/photo/2022/05/27/09/24/meadow-7224773_640.jpg",
        "src1280": "https://cdn.pixabay.com/photo/2022/05/27/09/24/meadow-7224773_1280.jpg"
    },
    {
        "id": "7234501",
        "src640": "https://cdn.pixabay.com/photo/2022/06/01/00/27/boy-7234501_640.jpg",
        "src1280": "https://cdn.pixabay.com/photo/2022/06/01/00/27/boy-7234501_1280.jpg"
    },
    {
        "id": "6950268",
        "src640": "https://cdn.pixabay.com/photo/2022/01/19/15/51/beach-6950268_640.jpg",
        "src1280": "https://cdn.pixabay.com/photo/2022/01/19/15/51/beach-6950268_1280.jpg"
    },
    {
        "id": "3796515",
        "src640": "https://cdn.pixabay.com/photo/2018/11/05/17/30/dog-3796515_640.jpg",
        "src1280": "https://cdn.pixabay.com/photo/2018/11/05/17/30/dog-3796515_1280.jpg"
    },
    {
        "id": "4750888",
        "src640": "https://cdn.pixabay.com/photo/2020/01/08/18/18/dog-4750888_640.jpg",
        "src1280": "https://cdn.pixabay.com/photo/2020/01/08/18/18/dog-4750888_1280.jpg"
    },
    {
        "id": "5290556",
        "src640": "https://cdn.pixabay.com/photo/2020/06/12/14/30/dog-5290556_640.jpg",
        "src1280": "https://cdn.pixabay.com/photo/2020/06/12/14/30/dog-5290556_1280.jpg"
    },
    {
        "id": "220203",
        "src640": "https://cdn.pixabay.com/photo/2013/11/28/11/29/dog-220203_640.jpg",
        "src1280": "https://cdn.pixabay.com/photo/2013/11/28/11/29/dog-220203_1280.jpg"
    },
    {
        "id": "216676",
        "src640": "https://cdn.pixabay.com/photo/2013/11/24/01/33/cocker-spaniel-216676_640.jpg",
        "src1280": "https://cdn.pixabay.com/photo/2013/11/24/01/33/cocker-spaniel-216676_1280.jpg"
    },
    {
        "id": "4807242",
        "src640": "https://cdn.pixabay.com/photo/2020/01/31/07/05/boxer-4807242_640.jpg",
        "src1280": "https://cdn.pixabay.com/photo/2020/01/31/07/05/boxer-4807242_1280.jpg"
    },
    {
        "id": "4444518",
        "src640": "https://cdn.pixabay.com/photo/2019/09/01/07/46/dog-4444518_640.jpg",
        "src1280": "https://cdn.pixabay.com/photo/2019/09/01/07/46/dog-4444518_1280.jpg"
    },
    {
        "id": "1974280",
        "src640": "https://cdn.pixabay.com/photo/2017/01/12/10/10/dog-looking-at-you-1974280_640.jpg",
        "src1280": "https://cdn.pixabay.com/photo/2017/01/12/10/10/dog-looking-at-you-1974280_1280.jpg"
    },
    {
        "id": "2530861",
        "src640": "https://cdn.pixabay.com/photo/2017/07/23/09/23/dog-2530861_640.jpg",
        "src1280": "https://cdn.pixabay.com/photo/2017/07/23/09/23/dog-2530861_1280.jpg"
    },
    {
        "id": "8379551",
        "src640": "https://cdn.pixabay.com/photo/2023/11/10/15/04/dog-8379551_640.jpg",
        "src1280": "https://cdn.pixabay.com/photo/2023/11/10/15/04/dog-8379551_1280.jpg"
    },
    {
        "id": "6874229",
        "src640": "https://cdn.pixabay.com/photo/2021/12/16/09/13/dog-6874229_640.jpg",
        "src1280": "https://cdn.pixabay.com/photo/2021/12/16/09/13/dog-6874229_1280.jpg"
    },
    {
        "id": "6922956",
        "src640": "https://cdn.pixabay.com/photo/2022/01/07/23/49/cane-corso-6922956_640.jpg",
        "src1280": "https://cdn.pixabay.com/photo/2022/01/07/23/49/cane-corso-6922956_1280.jpg"
    },
    {
        "id": "4990023",
        "src640": "https://cdn.pixabay.com/photo/2020/04/01/05/58/dog-4990023_640.jpg",
        "src1280": "https://cdn.pixabay.com/photo/2020/04/01/05/58/dog-4990023_1280.jpg"
    },
    {
        "id": "862942",
        "src640": "https://cdn.pixabay.com/photo/2015/07/27/18/08/dog-862942_640.jpg",
        "src1280": "https://cdn.pixabay.com/photo/2015/07/27/18/08/dog-862942_1280.jpg"
    },
    {
        "id": "4476984",
        "src640": "https://cdn.pixabay.com/photo/2019/09/14/21/44/dog-4476984_640.jpg",
        "src1280": "https://cdn.pixabay.com/photo/2019/09/14/21/44/dog-4476984_1280.jpg"
    },
    {
        "id": "4925774",
        "src640": "https://cdn.pixabay.com/photo/2020/03/12/17/29/terrier-4925774_640.jpg",
        "src1280": "https://cdn.pixabay.com/photo/2020/03/12/17/29/terrier-4925774_1280.jpg"
    },
    {
        "id": "3796514",
        "src640": "https://cdn.pixabay.com/photo/2018/11/05/17/30/dog-3796514_640.jpg",
        "src1280": "https://cdn.pixabay.com/photo/2018/11/05/17/30/dog-3796514_1280.jpg"
    },
    {
        "id": "7619852",
        "src640": "https://cdn.pixabay.com/photo/2022/11/27/14/07/rose-7619852_640.jpg",
        "src1280": "https://cdn.pixabay.com/photo/2022/11/27/14/07/rose-7619852_1280.jpg"
    },
    {
        "id": "7073056",
        "src640": "https://cdn.pixabay.com/photo/2022/03/16/18/36/animal-7073056_640.jpg",
        "src1280": "https://cdn.pixabay.com/photo/2022/03/16/18/36/animal-7073056_1280.jpg"
    },
    {
        "id": "7045436",
        "src640": "https://cdn.pixabay.com/photo/2022/03/03/14/01/animal-7045436_640.jpg",
        "src1280": "https://cdn.pixabay.com/photo/2022/03/03/14/01/animal-7045436_1280.jpg"
    },
    {
        "id": "2985281",
        "src640": "https://cdn.pixabay.com/photo/2017/11/29/05/45/blonde-woman-2985281_640.jpg",
        "src1280": "https://cdn.pixabay.com/photo/2017/11/29/05/45/blonde-woman-2985281_1280.jpg"
    },
    {
        "id": "5534775",
        "src640": "https://cdn.pixabay.com/photo/2020/09/01/10/03/dog-5534775_640.jpg",
        "src1280": "https://cdn.pixabay.com/photo/2020/09/01/10/03/dog-5534775_1280.jpg"
    },
    {
        "id": "6872876",
        "src640": "https://cdn.pixabay.com/photo/2021/12/15/15/37/animal-6872876_640.jpg",
        "src1280": "https://cdn.pixabay.com/photo/2021/12/15/15/37/animal-6872876_1280.jpg"
    },
    {
        "id": "4344723",
        "src640": "https://cdn.pixabay.com/photo/2019/07/17/19/19/dog-4344723_640.jpg",
        "src1280": "https://cdn.pixabay.com/photo/2019/07/17/19/19/dog-4344723_1280.jpg"
    },
    {
        "id": "4838960",
        "src640": "https://cdn.pixabay.com/photo/2020/02/11/09/52/labrador-4838960_640.jpg",
        "src1280": "https://cdn.pixabay.com/photo/2020/02/11/09/52/labrador-4838960_1280.jpg"
    },
    {
        "id": "167429",
        "src640": "https://cdn.pixabay.com/photo/2013/07/26/05/05/rosebush-167429_640.jpg",
        "src1280": "https://cdn.pixabay.com/photo/2013/07/26/05/05/rosebush-167429_1280.jpg"
    },
    {
        "id": "3615379",
        "src640": "https://cdn.pixabay.com/photo/2018/08/18/19/52/dog-3615379_640.jpg",
        "src1280": "https://cdn.pixabay.com/photo/2018/08/18/19/52/dog-3615379_1280.jpg"
    },
    {
        "id": "62556",
        "src640": "https://cdn.pixabay.com/photo/2012/10/22/20/51/leaves-62556_640.jpg",
        "src1280": "https://cdn.pixabay.com/photo/2012/10/22/20/51/leaves-62556_1280.jpg"
    },
    {
        "id": "4354959",
        "src640": "https://cdn.pixabay.com/photo/2019/07/22/12/15/my-puppy-and-me-4354959_640.jpg",
        "src1280": "https://cdn.pixabay.com/photo/2019/07/22/12/15/my-puppy-and-me-4354959_1280.jpg"
    },
    {
        "id": "7128729",
        "src640": "https://cdn.pixabay.com/photo/2022/04/12/19/34/animal-7128729_640.jpg",
        "src1280": "https://cdn.pixabay.com/photo/2022/04/12/19/34/animal-7128729_1280.jpg"
    },
    {
        "id": "5377526",
        "src640": "https://cdn.pixabay.com/photo/2020/07/06/16/27/dog-5377526_640.jpg",
        "src1280": "https://cdn.pixabay.com/photo/2020/07/06/16/27/dog-5377526_1280.jpg"
    },
    {
        "id": "6642050",
        "src640": "https://cdn.pixabay.com/photo/2021/09/20/23/08/man-6642050_640.jpg",
        "src1280": "https://cdn.pixabay.com/photo/2021/09/20/23/08/man-6642050_1280.jpg"
    },
    {
        "id": "869028",
        "src640": "https://cdn.pixabay.com/photo/2015/07/31/11/43/bordeaux-869028_640.jpg",
        "src1280": "https://cdn.pixabay.com/photo/2015/07/31/11/43/bordeaux-869028_1280.jpg"
    },
    {
        "id": "5981780",
        "src640": "https://cdn.pixabay.com/photo/2021/02/04/15/57/paw-5981780_640.jpg",
        "src1280": "https://cdn.pixabay.com/photo/2021/02/04/15/57/paw-5981780_1280.jpg"
    },
    {
        "id": "8204",
        "src640": "https://cdn.pixabay.com/photo/2011/06/29/15/36/art-8204_640.jpg",
        "src1280": "https://cdn.pixabay.com/photo/2011/06/29/15/36/art-8204_1280.jpg"
    },
    {
        "id": "143274",
        "src640": "https://cdn.pixabay.com/photo/2013/07/04/20/21/dog-rose-143274_640.jpg",
        "src1280": "https://cdn.pixabay.com/photo/2013/07/04/20/21/dog-rose-143274_1280.jpg"
    },
    {
        "id": "868987",
        "src640": "https://cdn.pixabay.com/photo/2015/07/31/11/42/dog-868987_640.jpg",
        "src1280": "https://cdn.pixabay.com/photo/2015/07/31/11/42/dog-868987_1280.jpg"
    },
    {
        "id": "4506358",
        "src640": "https://cdn.pixabay.com/photo/2019/09/26/16/11/dog-4506358_640.jpg",
        "src1280": "https://cdn.pixabay.com/photo/2019/09/26/16/11/dog-4506358_1280.jpg"
    },
    {
        "id": "2048424",
        "src640": "https://cdn.pixabay.com/photo/2017/02/08/11/00/dog-2048424_640.jpg",
        "src1280": "https://cdn.pixabay.com/photo/2017/02/08/11/00/dog-2048424_1280.jpg"
    },
    {
        "id": "4979248",
        "src640": "https://cdn.pixabay.com/photo/2020/03/29/04/10/dog-4979248_640.jpg",
        "src1280": "https://cdn.pixabay.com/photo/2020/03/29/04/10/dog-4979248_1280.jpg"
    },
    {
        "id": "5355452",
        "src640": "https://cdn.pixabay.com/photo/2020/06/30/07/55/labrador-5355452_640.jpg",
        "src1280": "https://cdn.pixabay.com/photo/2020/06/30/07/55/labrador-5355452_1280.jpg"
    },
    {
        "id": "8100756",
        "src640": "https://cdn.pixabay.com/photo/2023/07/01/18/56/dog-8100756_640.jpg",
        "src1280": "https://cdn.pixabay.com/photo/2023/07/01/18/56/dog-8100756_1280.jpg"
    },
    {
        "id": "7461740",
        "src640": "https://cdn.pixabay.com/photo/2022/09/17/20/05/buildings-7461740_640.jpg",
        "src1280": "https://cdn.pixabay.com/photo/2022/09/17/20/05/buildings-7461740_1280.jpg"
    },
    {
        "id": "4736678",
        "src640": "https://cdn.pixabay.com/photo/2020/01/02/19/33/dog-dogs-4736678_640.jpg",
        "src1280": "https://cdn.pixabay.com/photo/2020/01/02/19/33/dog-dogs-4736678_1280.jpg"
    },
    {
        "id": "2101836",
        "src640": "https://cdn.pixabay.com/photo/2017/02/27/00/42/bluetick-coonhound-2101836_640.jpg",
        "src1280": "https://cdn.pixabay.com/photo/2017/02/27/00/42/bluetick-coonhound-2101836_1280.jpg"
    },
    {
        "id": "7769118",
        "src640": "https://cdn.pixabay.com/photo/2023/02/05/10/24/forest-7769118_640.jpg",
        "src1280": "https://cdn.pixabay.com/photo/2023/02/05/10/24/forest-7769118_1280.jpg"
    },
    {
        "id": "1455493",
        "src640": "https://cdn.pixabay.com/photo/2016/06/14/00/29/horse-1455493_640.jpg",
        "src1280": "https://cdn.pixabay.com/photo/2016/06/14/00/29/horse-1455493_1280.jpg"
    },
    {
        "id": "5469767",
        "src640": "https://cdn.pixabay.com/photo/2020/08/07/06/11/german-shepherd-5469767_640.jpg",
        "src1280": "https://cdn.pixabay.com/photo/2020/08/07/06/11/german-shepherd-5469767_1280.jpg"
    },
    {
        "id": "5565767",
        "src640": "https://cdn.pixabay.com/photo/2020/09/12/14/11/dog-5565767_640.jpg",
        "src1280": "https://cdn.pixabay.com/photo/2020/09/12/14/11/dog-5565767_1280.jpg"
    },
    {
        "id": "5377530",
        "src640": "https://cdn.pixabay.com/photo/2020/07/06/16/27/dog-5377530_640.jpg",
        "src1280": "https://cdn.pixabay.com/photo/2020/07/06/16/27/dog-5377530_1280.jpg"
    },
    {
        "id": "4511337",
        "src640": "https://cdn.pixabay.com/photo/2019/09/28/17/26/dog-4511337_640.jpg",
        "src1280": "https://cdn.pixabay.com/photo/2019/09/28/17/26/dog-4511337_1280.jpg"
    },
    {
        "id": "6518211",
        "src640": "https://cdn.pixabay.com/photo/2021/08/03/02/01/woman-6518211_640.jpg",
        "src1280": "https://cdn.pixabay.com/photo/2021/08/03/02/01/woman-6518211_1280.jpg"
    },
    {
        "id": "2473709",
        "src640": "https://cdn.pixabay.com/photo/2017/07/05/07/43/road-2473709_640.jpg",
        "src1280": "https://cdn.pixabay.com/photo/2017/07/05/07/43/road-2473709_1280.jpg"
    },
    {
        "id": "1027235",
        "src640": "https://cdn.pixabay.com/photo/2015/11/06/12/43/dog-1027235_640.jpg",
        "src1280": "https://cdn.pixabay.com/photo/2015/11/06/12/43/dog-1027235_1280.jpg"
    },
    {
        "id": "5161801",
        "src640": "https://cdn.pixabay.com/photo/2020/05/12/08/33/puppy-5161801_640.jpg",
        "src1280": "https://cdn.pixabay.com/photo/2020/05/12/08/33/puppy-5161801_1280.jpg"
    },
    {
        "id": "5565008",
        "src640": "https://cdn.pixabay.com/photo/2020/09/12/06/39/bernese-mountain-dogs-5565008_640.jpg",
        "src1280": "https://cdn.pixabay.com/photo/2020/09/12/06/39/bernese-mountain-dogs-5565008_1280.jpg"
    }
]