[
    {
        "id": "792661",
        "src640": "https://cdn.pixabay.com/photo/2015/05/31/21/06/american-cocker-792661_640.jpg",
        "src1280": "https://cdn.pixabay.com/photo/2015/05/31/21/06/american-cocker-792661_1280.jpg"
    },
    {
        "id": "5646143",
        "src640": "https://cdn.pixabay.com/photo/2020/10/11/14/59/dog-5646143_640.jpg",
        "src1280": "https://cdn.pixabay.com/photo/2020/10/11/14/59/dog-5646143_1280.jpg"
    },
    {
        "id": "6879203",
        "src640": "https://cdn.pixabay.com/photo/2021/12/18/16/11/dog-6879203_640.jpg",
        "src1280": "https://cdn.pixabay.com/photo/2021/12/18/16/11/dog-6879203_1280.jpg"
    },
    {
        "id": "8100756",
        "src640": "https://cdn.pixabay.com/photo/2023/07/01/18/56/dog-8100756_640.jpg",
        "src1280": "https://cdn.pixabay.com/photo/2023/07/01/18/56/dog-8100756_1280.jpg"
    },
    {
        "id": "6703957",
        "src640": "https://cdn.pixabay.com/photo/2021/10/12/16/04/dog-6703957_640.jpg",
        "src1280": "https://cdn.pixabay.com/photo/2021/10/12/16/04/dog-6703957_1280.jpg"
    },
    {
        "id": "6351943",
        "src640": "https://cdn.pixabay.com/photo/2021/06/20/20/26/dog-6351943_640.jpg",
        "src1280": "https://cdn.pixabay.com/photo/2021/06/20/20/26/dog-6351943_1280.jpg"
    },
    {
        "id": "5013589",
        "src640": "https://cdn.pixabay.com/photo/2020/04/07/14/27/french-bulldog-5013589_640.jpg",
        "src1280": "https://cdn.pixabay.com/photo/2020/04/07/14/27/french-bulldog-5013589_1280.jpg"
    },
    {
        "id": "4523155",
        "src640": "https://cdn.pixabay.com/photo/2019/10/03/12/40/girl-4523155_640.jpg",
        "src1280": "https://cdn.pixabay.com/photo/2019/10/03/12/40/girl-4523155_1280.jpg"
    },
    {
        "id": "7082442",
        "src640": "https://cdn.pixabay.com/photo/2022/03/21/06/38/dog-7082442_640.jpg",
        "src1280": "https://cdn.pixabay.com/photo/2022/03/21/06/38/dog-7082442_1280.jpg"
    },
    {
        "id": "314908",
        "src640": "https://cdn.pixabay.com/photo/2014/04/05/11/10/bordeaux-dog-314908_640.jpg",
        "src1280": "https://cdn.pixabay.com/photo/2014/04/05/11/10/bordeaux-dog-314908_1280.jpg"
    },
    {
        "id": "5010561",
        "src640": "https://cdn.pixabay.com/photo/2020/04/06/17/34/puppy-5010561_640.jpg",
        "src1280": "https://cdn.pixabay.com/photo/2020/04/06/17/34/puppy-5010561_1280.jpg"
    },
    {
        "id": "4529339",
        "src640": "https://cdn.pixabay.com/photo/2019/10/06/05/58/yorkie-4529339_640.jpg",
        "src1280": "https://cdn.pixabay.com/photo/2019/10/06/05/58/yorkie-4529339_1280.jpg"
    },
    {
        "id": "5556220",
        "src640": "https://cdn.pixabay.com/photo/2020/09/09/01/09/dog-5556220_640.jpg",
        "src1280": "https://cdn.pixabay.com/photo/2020/09/09/01/09/dog-5556220_1280.jpg"
    },
    {
        "id": "7128741",
        "src640": "https://cdn.pixabay.com/photo/2022/04/12/19/35/animal-7128741_640.jpg",
        "src1280": "https://cdn.pixabay.com/photo/2022/04/12/19/35/animal-7128741_1280.jpg"
    },
    {
        "id": "5445740",
        "src640": "https://cdn.pixabay.com/photo/2020/07/28/17/28/dog-5445740_640.jpg",
        "src1280": "https://cdn.pixabay.com/photo/2020/07/28/17/28/dog-5445740_1280.jpg"
    },
    {
        "id": "4749900",
        "src640": "https://cdn.pixabay.com/photo/2020/01/08/11/52/boxer-4749900_640.jpg",
        "src1280": "https://cdn.pixabay.com/photo/2020/01/08/11/52/boxer-4749900_1280.jpg"
    },
    {
        "id": "5669891",
        "src640": "https://cdn.pixabay.com/photo/2020/10/20/09/01/dog-5669891_640.jpg",
        "src1280": "https://cdn.pixabay.com/photo/2020/10/20/09/01/dog-5669891_1280.jpg"
    },
    {
        "id": "4963813",
        "src640": "https://cdn.pixabay.com/photo/2020/03/24/11/48/bitch-4963813_640.jpg",
        "src1280": "https://cdn.pixabay.com/photo/2020/03/24/11/48/bitch-4963813_1280.jpg"
    },
    {
        "id": "2625185",
        "src640": "https://cdn.pixabay.com/photo/2017/08/10/17/19/dog-2625185_640.jpg",
        "src1280": "https://cdn.pixabay.com/photo/2017/08/10/17/19/dog-2625185_1280.jpg"
    },
    {
        "id": "3827579",
        "src640": "https://cdn.pixabay.com/photo/2018/11/20/14/50/dog-3827579_640.jpg",
        "src1280": "https://cdn.pixabay.com/photo/2018/11/20/14/50/dog-3827579_1280.jpg"
    },
    {
        "id": "672723",
        "src640": "https://cdn.pixabay.com/photo/2015/03/14/04/48/summer-672723_640.jpg",
        "src1280": "https://cdn.pixabay.com/photo/2015/03/14/04/48/summer-672723_1280.jpg"
    },
    {
        "id": "167429",
        "src640": "https://cdn.pixabay.com/photo/2013/07/26/05/05/rosebush-167429_640.jpg",
        "src1280": "https://cdn.pixabay.com/photo/2013/07/26/05/05/rosebush-167429_1280.jpg"
    },
    {
        "id": "7428853",
        "src640": "https://cdn.pixabay.com/photo/2022/09/03/06/29/dog-7428853_640.jpg",
        "src1280": "https://cdn.pixabay.com/photo/2022/09/03/06/29/dog-7428853_1280.jpg"
    },
    {
        "id": "4594903",
        "src640": "https://cdn.pixabay.com/photo/2019/11/01/18/20/dog-4594903_640.jpg",
        "src1280": "https://cdn.pixabay.com/photo/2019/11/01/18/20/dog-4594903_1280.jpg"
    },
    {
        "id": "5256836",
        "src640": "https://cdn.pixabay.com/photo/2020/06/04/01/02/airedale-terrier-5256836_640.jpg",
        "src1280": "https://cdn.pixabay.com/photo/2020/06/04/01/02/airedale-terrier-5256836_1280.jpg"
    },
    {
        "id": "7519478",
        "src640": "https://cdn.pixabay.com/photo/2022/10/13/16/29/pug-7519478_640.jpg",
        "src1280": "https://cdn.pixabay.com/photo/2022/10/13/16/29/pug-7519478_1280.jpg"
    },
    {
        "id": "5161807",
        "src640": "https://cdn.pixabay.com/photo/2020/05/12/08/33/puppy-5161807_640.jpg",
        "src1280": "https://cdn.pixabay.com/photo/2020/05/12/08/33/puppy-5161807_1280.jpg"
    },
    {
        "id": "4774191",
        "src640": "https://cdn.pixabay.com/photo/2020/01/17/22/59/dog-eye-4774191_640.jpg",
        "src1280": "https://cdn.pixabay.com/photo/2020/01/17/22/59/dog-eye-4774191_1280.jpg"
    },
    {
        "id": "7695786",
        "src640": "https://cdn.pixabay.com/photo/2023/01/04/03/24/dog-7695786_640.jpg",
        "src1280": "https://cdn.pixabay.com/photo/2023/01/04/03/24/dog-7695786_1280.jpg"
    },
    {
        "id": "5105981",
        "src640": "https://cdn.pixabay.com/photo/2020/04/28/19/04/dog-5105981_640.jpg",
        "src1280": "https://cdn.pixabay.com/photo/2020/04/28/19/04/dog-5105981_1280.jpg"
    },
    {
        "id": "5437227",
        "src640": "https://cdn.pixabay.com/photo/2020/07/25/16/37/dog-5437227_640.jpg",
        "src1280": "https://cdn.pixabay.com/photo/2020/07/25/16/37/dog-5437227_1280.jpg"
    },
    {
        "id": "4496629",
        "src640": "https://cdn.pixabay.com/photo/2019/09/22/17/52/dog-4496629_640.jpg",
        "src1280": "https://cdn.pixabay.com/photo/2019/09/22/17/52/dog-4496629_1280.jpg"
    },
    {
        "id": "3669415",
        "src640": "https://cdn.pixabay.com/photo/2018/09/11/12/57/tongue-3669415_640.jpg",
        "src1280": "https://cdn.pixabay.com/photo/2018/09/11/12/57/tongue-3669415_1280.jpg"
    },
    {
        "id": "1035308",
        "src640": "https://cdn.pixabay.com/photo/2015/11/09/14/19/along-with-the-kutyusaimmal-1035308_640.jpg",
        "src1280": "https://cdn.pixabay.com/photo/2015/11/09/14/19/along-with-the-kutyusaimmal-1035308_1280.jpg"
    },
    {
        "id": "5220269",
        "src640": "https://cdn.pixabay.com/photo/2020/05/25/19/46/cocker-spaniel-5220269_640.jpg",
        "src1280": "https://cdn.pixabay.com/photo/2020/05/25/19/46/cocker-spaniel-5220269_1280.jpg"
    },
    {
        "id": "4511337",
        "src640": "https://cdn.pixabay.com/photo/2019/09/28/17/26/dog-4511337_640.jpg",
        "src1280": "https://cdn.pixabay.com/photo/2019/09/28/17/26/dog-4511337_1280.jpg"
    },
    {
        "id": "2360252",
        "src640": "https://cdn.pixabay.com/photo/2017/05/31/12/33/cute-dogs-2360252_640.jpg",
        "src1280": "https://cdn.pixabay.com/photo/2017/05/31/12/33/cute-dogs-2360252_1280.jpg"
    },
    {
        "id": "4826512",
        "src640": "https://cdn.pixabay.com/photo/2020/02/07/08/08/dog-4826512_640.jpg",
        "src1280": "https://cdn.pixabay.com/photo/2020/02/07/08/08/dog-4826512_1280.jpg"
    },
    {
        "id": "5068785",
        "src640": "https://cdn.pixabay.com/photo/2020/04/20/16/07/woman-5068785_640.jpg",
        "src1280": "https://cdn.pixabay.com/photo/2020/04/20/16/07/woman-5068785_1280.jpg"
    },
    {
        "id": "7128735",
        "src640": "https://cdn.pixabay.com/photo/2022/04/12/19/35/animal-7128735_640.jpg",
        "src1280": "https://cdn.pixabay.com/photo/2022/04/12/19/35/animal-7128735_1280.jpg"
    },
    {
        "id": "5142936",
        "src640": "https://cdn.pixabay.com/photo/2020/05/07/19/45/sign-5142936_640.jpg",
        "src1280": "https://cdn.pixabay.com/photo/2020/05/07/19/45/sign-5142936_1280.jpg"
    },
    {
        "id": "5494444",
        "src640": "https://cdn.pixabay.com/photo/2020/08/17/06/05/dog-5494444_640.jpg",
        "src1280": "https://cdn.pixabay.com/photo/2020/08/17/06/05/dog-5494444_1280.jpg"
    },
    {
        "id": "7667217",
        "src640": "https://cdn.pixabay.com/photo/2022/12/20/07/25/dog-7667217_640.jpg",
        "src1280": "https://cdn.pixabay.com/photo/2022/12/20/07/25/dog-7667217_1280.jpg"
    },
    {
        "id": "6992773",
        "src640": "https://cdn.pixabay.com/photo/2022/02/04/14/04/woman-6992773_640.jpg",
        "src1280": "https://cdn.pixabay.com/photo/2022/02/04/14/04/woman-6992773_1280.jpg"
    },
    {
        "id": "4766347",
        "src640": "https://cdn.pixabay.com/photo/2020/01/14/21/12/mountains-4766347_640.jpg",
        "src1280": "https://cdn.pixabay.com/photo/2020/01/14/21/12/mountains-4766347_1280.jpg"
    },
    {
        "id": "6724074",
        "src640": "https://cdn.pixabay.com/photo/2021/10/19/16/50/dog-6724074_640.jpg",
        "src1280": "https://cdn.pixabay.com/photo/2021/10/19/16/50/dog-6724074_1280.jpg"
    },
    {
        "id": "216675",
        "src640": "https://cdn.pixabay.com/photo/2013/11/24/01/33/sheepdog-216675_640.jpg",
        "src1280": "https://cdn.pixabay.com/photo/2013/11/24/01/33/sheepdog-216675_1280.jpg"
    },
    {
        "id": "2541250",
        "src640": "https://cdn.pixabay.com/photo/2017/07/26/11/07/dog-2541250_640.jpg",
        "src1280": "https://cdn.pixabay.com/photo/2017/07/26/11/07/dog-2541250_1280.jpg"
    },
    {
        "id": "3792746",
        "src640": "https://cdn.pixabay.com/photo/2018/11/03/20/20/dog-3792746_640.jpg",
        "src1280": "https://cdn.pixabay.com/photo/2018/11/03/20/20/dog-3792746_1280.jpg"
    },
    {
        "id": "3911158",
        "src640": "https://cdn.pixabay.com/photo/2019/01/03/15/10/puppy-3911158_640.jpg",
        "src1280": "https://cdn.pixabay.com/photo/2019/01/03/15/10/puppy-3911158_1280.jpg"
    },
    {
        "id": "7202031",
        "src640": "https://cdn.pixabay.com/photo/2022/05/17/08/01/theater-7202031_640.jpg",
        "src1280": "https://cdn.pixabay.com/photo/2022/05/17/08/01/theater-7202031_1280.jpg"
    },
    {
        "id": "7564660",
        "src640": "https://cdn.pixabay.com/photo/2022/11/02/11/38/terrier-7564660_640.jpg",
        "src1280": "https://cdn.pixabay.com/photo/2022/11/02/11/38/terrier-7564660_1280.jpg"
    },
    {
        "id": "4946453",
        "src640": "https://cdn.pixabay.com/photo/2020/03/19/06/17/easter-dog-4946453_640.jpg",
        "src1280": "https://cdn.pixabay.com/photo/2020/03/19/06/17/easter-dog-4946453_1280.jpg"
    },
    {
        "id": "7607131",
        "src640": "https://cdn.pixabay.com/photo/2022/11/21/14/07/cairn-terrier-7607131_640.jpg",
        "src1280": "https://cdn.pixabay.com/photo/2022/11/21/14/07/cairn-terrier-7607131_1280.jpg"
    },
    {
        "id": "5149045",
        "src640": "https://cdn.pixabay.com/photo/2020/05/09/10/14/landscape-5149045_640.jpg",
        "src1280": "https://cdn.pixabay.com/photo/2020/05/09/10/14/landscape-5149045_1280.jpg"
    },
    {
        "id": "705431",
        "src640": "https://cdn.pixabay.com/photo/2015/04/03/16/43/dog-705431_640.jpg",
        "src1280": "https://cdn.pixabay.com/photo/2015/04/03/16/43/dog-705431_1280.jpg"
    },
    {
        "id": "7140972",
        "src640": "https://cdn.pixabay.com/photo/2022/04/18/16/20/walking-trail-7140972_640.jpg",
        "src1280": "https://cdn.pixabay.com/photo/2022/04/18/16/20/walking-trail-7140972_1280.jpg"
    },
    {
        "id": "5296842",
        "src640": "https://cdn.pixabay.com/photo/2020/06/14/07/33/dog-5296842_640.jpg",
        "src1280": "https://cdn.pixabay.com/photo/2020/06/14/07/33/dog-5296842_1280.jpg"
    },
    {
        "id": "7025908",
        "src640": "https://cdn.pixabay.com/photo/2022/02/21/06/51/dog-7025908_640.jpg",
        "src1280": "https://cdn.pixabay.com/photo/2022/02/21/06/51/dog-7025908_1280.jpg"
    },
    {
        "id": "4308844",
        "src640": "https://cdn.pixabay.com/photo/2019/06/30/21/52/beagle-4308844_640.jpg",
        "src1280": "https://cdn.pixabay.com/photo/2019/06/30/21/52/beagle-4308844_1280.jpg"
    },
    {
        "id": "5838213",
        "src640": "https://cdn.pixabay.com/photo/2020/12/17/04/13/dog-5838213_640.jpg",
        "src1280": "https://cdn.pixabay.com/photo/2020/12/17/04/13/dog-5838213_1280.jpg"
    },
    {
        "id": "7300869",
        "src640": "https://cdn.pixabay.com/photo/2022/07/04/10/45/chihuahua-7300869_640.jpg",
        "src1280": "https://cdn.pixabay.com/photo/2022/07/04/10/45/chihuahua-7300869_1280.jpg"
    },
    {
        "id": "4292258",
        "src640": "https://cdn.pixabay.com/photo/2019/06/22/19/01/dog-4292258_640.jpg",
        "src1280": "https://cdn.pixabay.com/photo/2019/06/22/19/01/dog-4292258_1280.jpg"
    },
    {
        "id": "7071005",
        "src640": "https://cdn.pixabay.com/photo/2022/03/15/19/14/forest-7071005_640.jpg",
        "src1280": "https://cdn.pixabay.com/photo/2022/03/15/19/14/forest-7071005_1280.jpg"
    },
    {
        "id": "4883971",
        "src640": "https://cdn.pixabay.com/photo/2020/02/27/09/12/dog-4883971_640.jpg",
        "src1280": "https://cdn.pixabay.com/photo/2020/02/27/09/12/dog-4883971_1280.jpg"
    },
    {
        "id": "8263034",
        "src640": "https://cdn.pixabay.com/photo/2023/09/19/16/45/dog-8263034_640.jpg",
        "src1280": "https://cdn.pixabay.com/photo/2023/09/19/16/45/dog-8263034_1280.jpg"
    },
    {
        "id": "1283376",
        "src640": "https://cdn.pixabay.com/photo/2016/03/27/18/14/me-and-luna-1283376_640.jpg",
        "src1280": "https://cdn.pixabay.com/photo/2016/03/27/18/14/me-and-luna-1283376_1280.jpg"
    },
    {
        "id": "3608198",
        "src640": "https://cdn.pixabay.com/photo/2018/08/15/14/57/dog-3608198_640.jpg",
        "src1280": "https://cdn.pixabay.com/photo/2018/08/15/14/57/dog-3608198_1280.jpg"
    },
    {
        "id": "5451798",
        "src640": "https://cdn.pixabay.com/photo/2020/07/31/02/47/dog-5451798_640.jpg",
        "src1280": "https://cdn.pixabay.com/photo/2020/07/31/02/47/dog-5451798_1280.jpg"
    },
    {
        "id": "1641977",
        "src640": "https://cdn.pixabay.com/photo/2016/09/03/15/12/dog-1641977_640.jpg",
        "src1280": "https://cdn.pixabay.com/photo/2016/09/03/15/12/dog-1641977_1280.jpg"
    },
    {
        "id": "5307778",
        "src640": "https://cdn.pixabay.com/photo/2020/06/17/01/31/dog-5307778_640.jpg",
        "src1280": "https://cdn.pixabay.com/photo/2020/06/17/01/31/dog-5307778_1280.jpg"
    },
    {
        "id": "7073010",
        "src640": "https://cdn.pixabay.com/photo/2022/03/16/18/16/animals-7073010_640.jpg",
        "src1280": "https://cdn.pixabay.com/photo/2022/03/16/18/16/animals-7073010_1280.jpg"
    },
    {
        "id": "6002266",
        "src640": "https://cdn.pixabay.com/photo/2021/02/10/14/28/dog-6002266_640.jpg",
        "src1280": "https://cdn.pixabay.com/photo/2021/02/10/14/28/dog-6002266_1280.jpg"
    },
    {
        "id": "7452385",
        "src640": "https://cdn.pixabay.com/photo/2022/09/13/16/46/boston-terrier-7452385_640.jpg",
        "src1280": "https://cdn.pixabay.com/photo/2022/09/13/16/46/boston-terrier-7452385_1280.jpg"
    },
    {
        "id": "187175",
        "src640": "https://cdn.pixabay.com/photo/2013/09/27/17/14/oleander-187175_640.jpg",
        "src1280": "https://cdn.pixabay.com/photo/2013/09/27/17/14/oleander-187175_1280.jpg"
    },
    {
        "id": "5459570",
        "src640": "https://cdn.pixabay.com/photo/2020/08/03/09/05/warning-5459570_640.jpg",
        "src1280": "https://cdn.pixabay.com/photo/2020/08/03/09/05/warning-5459570_1280.jpg"
    },
    {
        "id": "2603402",
        "src640": "https://cdn.pixabay.com/photo/2017/08/07/12/36/dogs-2603402_640.jpg",
        "src1280": "https://cdn.pixabay.com/photo/2017/08/07/12/36/dogs-2603402_1280.jpg"
    },
    {
        "id": "6658015",
        "src640": "https://cdn.pixabay.com/photo/2021/09/26/15/02/dog-6658015_640.jpg",
        "src1280": "https://cdn.pixabay.com/photo/2021/09/26/15/02/dog-6658015_1280.jpg"
    },
    {
        "id": "7717554",
        "src640": "https://cdn.pixabay.com/photo/2023/01/14/06/24/dogs-7717554_640.jpg",
        "src1280": "https://cdn.pixabay.com/photo/2023/01/14/06/24/dogs-7717554_1280.jpg"
    },
    {
        "id": "5211923",
        "src640": "https://cdn.pixabay.com/photo/2020/05/24/00/52/cocker-spaniel-5211923_640.jpg",
        "src1280": "https://cdn.pixabay.com/photo/2020/05/24/00/52/cocker-spaniel-5211923_1280.jpg"
    },
    {
        "id": "210652",
        "src640": "https://cdn.pixabay.com/photo/2013/11/14/20/39/dog-210652_640.jpg",
        "src1280": "https://cdn.pixabay.com/photo/2013/11/14/20/39/dog-210652_1280.jpg"
    },
    {
        "id": "1117733",
        "src640": "https://cdn.pixabay.com/photo/2016/01/02/02/24/barbed-wire-fence-1117733_640.jpg",
        "src1280": "https://cdn.pixabay.com/photo/2016/01/02/02/24/barbed-wire-fence-1117733_1280.jpg"
    },
    {
        "id": "6958450",
        "src640": "https://cdn.pixabay.com/photo/2022/01/22/18/16/dog-6958450_640.jpg",
        "src1280": "https://cdn.pixabay.com/photo/2022/01/22/18/16/dog-6958450_1280.jpg"
    },
    {
        "id": "4750888",
        "src640": "https://cdn.pixabay.com/photo/2020/01/08/18/18/dog-4750888_640.jpg",
        "src1280": "https://cdn.pixabay.com/photo/2020/01/08/18/18/dog-4750888_1280.jpg"
    },
    {
        "id": "5197524",
        "src640": "https://cdn.pixabay.com/photo/2020/05/20/17/42/fur-5197524_640.jpg",
        "src1280": "https://cdn.pixabay.com/photo/2020/05/20/17/42/fur-5197524_1280.jpg"
    },
    {
        "id": "7619360",
        "src640": "https://cdn.pixabay.com/photo/2022/11/27/10/47/dog-7619360_640.jpg",
        "src1280": "https://cdn.pixabay.com/photo/2022/11/27/10/47/dog-7619360_1280.jpg"
    },
    {
        "id": "5504877",
        "src640": "https://cdn.pixabay.com/photo/2020/08/20/23/40/dog-5504877_640.jpg",
        "src1280": "https://cdn.pixabay.com/photo/2020/08/20/23/40/dog-5504877_1280.jpg"
    },
    {
        "id": "5219677",
        "src640": "https://cdn.pixabay.com/photo/2020/05/25/17/44/perro-5219677_640.jpg",
        "src1280": "https://cdn.pixabay.com/photo/2020/05/25/17/44/perro-5219677_1280.jpg"
    },
    {
        "id": "3280558",
        "src640": "https://cdn.pixabay.com/photo/2018/04/01/10/38/paw-3280558_640.jpg",
        "src1280": "https://cdn.pixabay.com/photo/2018/04/01/10/38/paw-3280558_1280.jpg"
    },
    {
        "id": "2049577",
        "src640": "https://cdn.pixabay.com/photo/2017/02/08/17/26/dog-2049577_640.jpg",
        "src1280": "https://cdn.pixabay.com/photo/2017/02/08/17/26/dog-2049577_1280.jpg"
    },
    {
        "id": "4814359",
        "src640": "https://cdn.pixabay.com/photo/2020/02/02/23/08/dog-4814359_640.jpg",
        "src1280": "https://cdn.pixabay.com/photo/2020/02/02/23/08/dog-4814359_1280.jpg"
    },
    {
        "id": "1925216",
        "src640": "https://cdn.pixabay.com/photo/2016/12/22/10/55/dog-1925216_640.jpg",
        "src1280": "https://cdn.pixabay.com/photo/2016/12/22/10/55/dog-1925216_1280.jpg"
    },
    {
        "id": "498974",
        "src640": "https://cdn.pixabay.com/photo/2014/10/22/21/02/stachys-wool-498974_640.jpg",
        "src1280": "https://cdn.pixabay.com/photo/2014/10/22/21/02/stachys-wool-498974_1280.jpg"
    },
    {
        "id": "4421389",
        "src640": "https://cdn.pixabay.com/photo/2019/08/21/16/02/trek-4421389_640.jpg",
        "src1280": "https://cdn.pixabay.com/photo/2019/08/21/16/02/trek-4421389_1280.jpg"
    },
    {
        "id": "4881953",
        "src640": "https://cdn.pixabay.com/photo/2020/02/26/14/56/pup-4881953_640.jpg",
        "src1280": "https://cdn.pixabay.com/photo/2020/02/26/14/56/pup-4881953_1280.jpg"
    },
    {
        "id": "6581725",
        "src640": "https://cdn.pixabay.com/photo/2021/08/28/19/15/dog-6581725_640.jpg",
        "src1280": "https://cdn.pixabay.com/photo/2021/08/28/19/15/dog-6581725_1280.jpg"
    },
    {
        "id": "2394425",
        "src640": "https://cdn.pixabay.com/photo/2017/06/12/06/05/dog-2394425_640.jpg",
        "src1280": "https://cdn.pixabay.com/photo/2017/06/12/06/05/dog-2394425_1280.jpg"
    },
    {
        "id": "5690162",
        "src640": "https://cdn.pixabay.com/photo/2020/10/27/09/39/dog-5690162_640.jpg",
        "src1280": "https://cdn.pixabay.com/photo/2020/10/27/09/39/dog-5690162_1280.jpg"
    }
]