[
    {
        "id": "2130223",
        "src640": "https://cdn.pixabay.com/photo/2017/03/09/16/48/chihuahua-2130223_640.jpg",
        "src1280": "https://cdn.pixabay.com/photo/2017/03/09/16/48/chihuahua-2130223_1280.jpg"
    },
    {
        "id": "3811977",
        "src640": "https://cdn.pixabay.com/photo/2018/11/12/23/07/dog-3811977_640.jpg",
        "src1280": "https://cdn.pixabay.com/photo/2018/11/12/23/07/dog-3811977_1280.jpg"
    },
    {
        "id": "3947702",
        "src640": "https://cdn.pixabay.com/photo/2019/01/22/09/12/dog-3947702_640.jpg",
        "src1280": "https://cdn.pixabay.com/photo/2019/01/22/09/12/dog-3947702_1280.jpg"
    },
    {
        "id": "952033",
        "src640": "https://cdn.pixabay.com/photo/2015/09/22/16/51/dog-952033_640.jpg",
        "src1280": "https://cdn.pixabay.com/photo/2015/09/22/16/51/dog-952033_1280.jpg"
    },
    {
        "id": "3676070",
        "src640": "https://cdn.pixabay.com/photo/2018/09/14/00/41/dog-3676070_640.jpg",
        "src1280": "https://cdn.pixabay.com/photo/2018/09/14/00/41/dog-3676070_1280.jpg"
    },
    {
        "id": "8050166",
        "src640": "https://cdn.pixabay.com/photo/2023/06/08/18/26/dog-8050166_640.jpg",
        "src1280": "https://cdn.pixabay.com/photo/2023/06/08/18/26/dog-8050166_1280.jpg"
    },
    {
        "id": "6935553",
        "src640": "https://cdn.pixabay.com/photo/2022/01/13/16/04/bulldog-6935553_640.jpg",
        "src1280": "https://cdn.pixabay.com/photo/2022/01/13/16/04/bulldog-6935553_1280.jpg"
    },
    {
        "id": "8432606",
        "src640": "https://cdn.pixabay.com/photo/2023/12/05/23/17/santa-8432606_640.jpg",
        "src1280": "https://cdn.pixabay.com/photo/2023/12/05/23/17/santa-8432606_1280.jpg"
    },
    {
        "id": "3461132",
        "src640": "https://cdn.pixabay.com/photo/2018/06/07/21/58/dog-3461132_640.jpg",
        "src1280": "https://cdn.pixabay.com/photo/2018/06/07/21/58/dog-3461132_1280.jpg"
    },
    {
        "id": "7253081",
        "src640": "https://cdn.pixabay.com/photo/2022/06/09/18/33/dog-7253081_640.jpg",
        "src1280": "https://cdn.pixabay.com/photo/2022/06/09/18/33/dog-7253081_1280.jpg"
    },
    {
        "id": "3799371",
        "src640": "https://cdn.pixabay.com/photo/2018/11/07/00/00/dog-pet-3799371_640.jpg",
        "src1280": "https://cdn.pixabay.com/photo/2018/11/07/00/00/dog-pet-3799371_1280.jpg"
    },
    {
        "id": "8186524",
        "src640": "https://cdn.pixabay.com/photo/2023/08/12/22/16/dog-8186524_640.jpg",
        "src1280": "https://cdn.pixabay.com/photo/2023/08/12/22/16/dog-8186524_1280.jpg"
    },
    {
        "id": "3448901",
        "src640": "https://cdn.pixabay.com/photo/2018/06/02/18/42/spaniel-3448901_640.jpg",
        "src1280": "https://cdn.pixabay.com/photo/2018/06/02/18/42/spaniel-3448901_1280.jpg"
    },
    {
        "id": "317014",
        "src640": "https://cdn.pixabay.com/photo/2014/04/05/12/24/dog-317014_640.jpg",
        "src1280": "https://cdn.pixabay.com/photo/2014/04/05/12/24/dog-317014_1280.jpg"
    },
    {
        "id": "2436035",
        "src640": "https://cdn.pixabay.com/photo/2017/06/23/21/42/dog-2436035_640.jpg",
        "src1280": "https://cdn.pixabay.com/photo/2017/06/23/21/42/dog-2436035_1280.jpg"
    },
    {
        "id": "4207842",
        "src640": "https://cdn.pixabay.com/photo/2019/05/16/18/37/dog-4207842_640.jpg",
        "src1280": "https://cdn.pixabay.com/photo/2019/05/16/18/37/dog-4207842_1280.jpg"
    },
    {
        "id": "2908057",
        "src640": "https://cdn.pixabay.com/photo/2017/11/01/14/02/dog-2908057_640.jpg",
        "src1280": "https://cdn.pixabay.com/photo/2017/11/01/14/02/dog-2908057_1280.jpg"
    },
    {
        "id": "1382005",
        "src640": "https://cdn.pixabay.com/photo/2016/05/09/17/26/girl-1382005_640.jpg",
        "src1280": "https://cdn.pixabay.com/photo/2016/05/09/17/26/girl-1382005_1280.jpg"
    },
    {
        "id": "3970984",
        "src640": "https://cdn.pixabay.com/photo/2019/02/02/17/07/air-ambulance-3970984_640.jpg",
        "src1280": "https://cdn.pixabay.com/photo/2019/02/02/17/07/air-ambulance-3970984_1280.jpg"
    },
    {
        "id": "1603226",
        "src640": "https://cdn.pixabay.com/photo/2016/08/18/15/22/husky-1603226_640.jpg",
        "src1280": "https://cdn.pixabay.com/photo/2016/08/18/15/22/husky-1603226_1280.jpg"
    },
    {
        "id": "7378636",
        "src640": "https://cdn.pixabay.com/photo/2022/08/11/06/03/german-shepherd-dog-7378636_640.jpg",
        "src1280": "https://cdn.pixabay.com/photo/2022/08/11/06/03/german-shepherd-dog-7378636_1280.jpg"
    },
    {
        "id": "3943699",
        "src640": "https://cdn.pixabay.com/photo/2019/01/20/12/41/dog-3943699_640.jpg",
        "src1280": "https://cdn.pixabay.com/photo/2019/01/20/12/41/dog-3943699_1280.jpg"
    },
    {
        "id": "79545",
        "src640": "https://cdn.pixabay.com/photo/2013/02/09/01/20/puppy-79545_640.jpg",
        "src1280": "https://cdn.pixabay.com/photo/2013/02/09/01/20/puppy-79545_1280.jpg"
    },
    {
        "id": "164373",
        "src640": "https://cdn.pixabay.com/photo/2013/07/18/15/02/fox-terrier-164373_640.jpg",
        "src1280": "https://cdn.pixabay.com/photo/2013/07/18/15/02/fox-terrier-164373_1280.jpg"
    },
    {
        "id": "3232406",
        "src640": "https://cdn.pixabay.com/photo/2018/03/16/20/40/have-eser-3232406_640.jpg",
        "src1280": "https://cdn.pixabay.com/photo/2018/03/16/20/40/have-eser-3232406_1280.jpg"
    },
    {
        "id": "2021582",
        "src640": "https://cdn.pixabay.com/photo/2017/01/30/17/55/dwarf-spitz-2021582_640.jpg",
        "src1280": "https://cdn.pixabay.com/photo/2017/01/30/17/55/dwarf-spitz-2021582_1280.jpg"
    },
    {
        "id": "8175378",
        "src640": "https://cdn.pixabay.com/photo/2023/08/07/15/47/alaskan-malamute-8175378_640.jpg",
        "src1280": "https://cdn.pixabay.com/photo/2023/08/07/15/47/alaskan-malamute-8175378_1280.jpg"
    },
    {
        "id": "2148862",
        "src640": "https://cdn.pixabay.com/photo/2017/03/16/11/33/bernese-mountain-dog-2148862_640.jpg",
        "src1280": "https://cdn.pixabay.com/photo/2017/03/16/11/33/bernese-mountain-dog-2148862_1280.jpg"
    },
    {
        "id": "172994",
        "src640": "https://cdn.pixabay.com/photo/2013/08/16/07/13/german-shepherd-172994_640.jpg",
        "src1280": "https://cdn.pixabay.com/photo/2013/08/16/07/13/german-shepherd-172994_1280.jpg"
    },
    {
        "id": "8316525",
        "src640": "https://cdn.pixabay.com/photo/2023/10/15/09/32/dog-8316525_640.jpg",
        "src1280": "https://cdn.pixabay.com/photo/2023/10/15/09/32/dog-8316525_1280.jpg"
    },
    {
        "id": "682041",
        "src640": "https://cdn.pixabay.com/photo/2015/03/20/11/16/dog-682041_640.jpg",
        "src1280": "https://cdn.pixabay.com/photo/2015/03/20/11/16/dog-682041_1280.jpg"
    },
    {
        "id": "6307409",
        "src640": "https://cdn.pixabay.com/photo/2021/06/03/16/09/bernese-mountain-dog-6307409_640.jpg",
        "src1280": "https://cdn.pixabay.com/photo/2021/06/03/16/09/bernese-mountain-dog-6307409_1280.jpg"
    },
    {
        "id": "7124421",
        "src640": "https://cdn.pixabay.com/photo/2022/04/10/22/59/gordon-setter-7124421_640.jpg",
        "src1280": "https://cdn.pixabay.com/photo/2022/04/10/22/59/gordon-setter-7124421_1280.jpg"
    },
    {
        "id": "185880",
        "src640": "https://cdn.pixabay.com/photo/2013/09/24/20/57/dog-185880_640.jpg",
        "src1280": "https://cdn.pixabay.com/photo/2013/09/24/20/57/dog-185880_1280.jpg"
    },
    {
        "id": "1098805",
        "src640": "https://cdn.pixabay.com/photo/2015/12/18/16/55/dog-1098805_640.jpg",
        "src1280": "https://cdn.pixabay.com/photo/2015/12/18/16/55/dog-1098805_1280.jpg"
    },
    {
        "id": "3746810",
        "src640": "https://cdn.pixabay.com/photo/2018/10/14/16/04/dog-3746810_640.jpg",
        "src1280": "https://cdn.pixabay.com/photo/2018/10/14/16/04/dog-3746810_1280.jpg"
    },
    {
        "id": "8083857",
        "src640": "https://cdn.pixabay.com/photo/2023/06/23/17/11/ai-generated-8083857_640.jpg",
        "src1280": "https://cdn.pixabay.com/photo/2023/06/23/17/11/ai-generated-8083857_1280.jpg"
    },
    {
        "id": "742622",
        "src640": "https://cdn.pixabay.com/photo/2015/04/27/20/58/girl-742622_640.jpg",
        "src1280": "https://cdn.pixabay.com/photo/2015/04/27/20/58/girl-742622_1280.jpg"
    },
    {
        "id": "8282159",
        "src640": "https://cdn.pixabay.com/photo/2023/09/28/17/29/border-terrier-8282159_640.jpg",
        "src1280": "https://cdn.pixabay.com/photo/2023/09/28/17/29/border-terrier-8282159_1280.jpg"
    },
    {
        "id": "8403508",
        "src640": "https://cdn.pixabay.com/photo/2023/11/21/14/25/show-cocker-spaniel-8403508_640.jpg",
        "src1280": "https://cdn.pixabay.com/photo/2023/11/21/14/25/show-cocker-spaniel-8403508_1280.jpg"
    },
    {
        "id": "4000972",
        "src640": "https://cdn.pixabay.com/photo/2019/02/16/20/41/dog-4000972_640.jpg",
        "src1280": "https://cdn.pixabay.com/photo/2019/02/16/20/41/dog-4000972_1280.jpg"
    },
    {
        "id": "5729937",
        "src640": "https://cdn.pixabay.com/photo/2020/11/10/14/23/kid-5729937_640.jpg",
        "src1280": "https://cdn.pixabay.com/photo/2020/11/10/14/23/kid-5729937_1280.jpg"
    },
    {
        "id": "1907475",
        "src640": "https://cdn.pixabay.com/photo/2016/12/14/20/52/papillon-1907475_640.jpg",
        "src1280": "https://cdn.pixabay.com/photo/2016/12/14/20/52/papillon-1907475_1280.jpg"
    },
    {
        "id": "3702586",
        "src640": "https://cdn.pixabay.com/photo/2018/09/25/16/25/girl-3702586_640.jpg",
        "src1280": "https://cdn.pixabay.com/photo/2018/09/25/16/25/girl-3702586_1280.jpg"
    },
    {
        "id": "3184881",
        "src640": "https://cdn.pixabay.com/photo/2018/02/27/07/34/yorki-3184881_640.jpg",
        "src1280": "https://cdn.pixabay.com/photo/2018/02/27/07/34/yorki-3184881_1280.jpg"
    },
    {
        "id": "2863372",
        "src640": "https://cdn.pixabay.com/photo/2017/10/18/09/16/dachshund-2863372_640.jpg",
        "src1280": "https://cdn.pixabay.com/photo/2017/10/18/09/16/dachshund-2863372_1280.jpg"
    },
    {
        "id": "3759595",
        "src640": "https://cdn.pixabay.com/photo/2018/10/19/21/03/dog-3759595_640.jpg",
        "src1280": "https://cdn.pixabay.com/photo/2018/10/19/21/03/dog-3759595_1280.jpg"
    },
    {
        "id": "2734908",
        "src640": "https://cdn.pixabay.com/photo/2017/09/10/09/48/black-labrador-2734908_640.jpg",
        "src1280": "https://cdn.pixabay.com/photo/2017/09/10/09/48/black-labrador-2734908_1280.jpg"
    },
    {
        "id": "1873247",
        "src640": "https://cdn.pixabay.com/photo/2016/11/30/16/28/dog-1873247_640.jpg",
        "src1280": "https://cdn.pixabay.com/photo/2016/11/30/16/28/dog-1873247_1280.jpg"
    },
    {
        "id": "1374530",
        "src640": "https://cdn.pixabay.com/photo/2016/05/05/18/51/dog-1374530_640.jpg",
        "src1280": "https://cdn.pixabay.com/photo/2016/05/05/18/51/dog-1374530_1280.jpg"
    },
    {
        "id": "8348564",
        "src640": "https://cdn.pixabay.com/photo/2023/10/29/02/04/tree-8348564_640.jpg",
        "src1280": "https://cdn.pixabay.com/photo/2023/10/29/02/04/tree-8348564_1280.jpg"
    },
    {
        "id": "164085",
        "src640": "https://cdn.pixabay.com/photo/2013/07/18/14/58/anatolian-shepherd-164085_640.jpg",
        "src1280": "https://cdn.pixabay.com/photo/2013/07/18/14/58/anatolian-shepherd-164085_1280.jpg"
    },
    {
        "id": "1722435",
        "src640": "https://cdn.pixabay.com/photo/2016/10/07/19/23/dog-1722435_640.jpg",
        "src1280": "https://cdn.pixabay.com/photo/2016/10/07/19/23/dog-1722435_1280.jpg"
    },
    {
        "id": "8269280",
        "src640": "https://cdn.pixabay.com/photo/2023/09/22/15/01/dog-8269280_640.jpg",
        "src1280": "https://cdn.pixabay.com/photo/2023/09/22/15/01/dog-8269280_1280.jpg"
    },
    {
        "id": "86734",
        "src640": "https://cdn.pixabay.com/photo/2013/02/28/03/23/jacques-agasse-86734_640.jpg",
        "src1280": "https://cdn.pixabay.com/photo/2013/02/28/03/23/jacques-agasse-86734_1280.jpg"
    },
    {
        "id": "726289",
        "src640": "https://cdn.pixabay.com/photo/2015/04/16/21/54/dog-726289_640.jpg",
        "src1280": "https://cdn.pixabay.com/photo/2015/04/16/21/54/dog-726289_1280.jpg"
    },
    {
        "id": "8197715",
        "src640": "https://cdn.pixabay.com/photo/2023/08/18/04/04/dog-8197715_640.jpg",
        "src1280": "https://cdn.pixabay.com/photo/2023/08/18/04/04/dog-8197715_1280.jpg"
    },
    {
        "id": "2581707",
        "src640": "https://cdn.pixabay.com/photo/2017/08/04/22/39/statue-2581707_640.jpg",
        "src1280": "https://cdn.pixabay.com/photo/2017/08/04/22/39/statue-2581707_1280.jpg"
    },
    {
        "id": "465572",
        "src640": "https://cdn.pixabay.com/photo/2014/09/29/01/24/chihuahua-465572_640.jpg",
        "src1280": "https://cdn.pixabay.com/photo/2014/09/29/01/24/chihuahua-465572_1280.jpg"
    },
    {
        "id": "3590303",
        "src640": "https://cdn.pixabay.com/photo/2018/08/07/17/38/tower-3590303_640.jpg",
        "src1280": "https://cdn.pixabay.com/photo/2018/08/07/17/38/tower-3590303_1280.jpg"
    },
    {
        "id": "316930",
        "src640": "https://cdn.pixabay.com/photo/2014/04/05/12/20/dog-316930_640.jpg",
        "src1280": "https://cdn.pixabay.com/photo/2014/04/05/12/20/dog-316930_1280.jpg"
    },
    {
        "id": "994235",
        "src640": "https://cdn.pixabay.com/photo/2015/10/18/12/12/dog-994235_640.jpg",
        "src1280": "https://cdn.pixabay.com/photo/2015/10/18/12/12/dog-994235_1280.jpg"
    },
    {
        "id": "1744066",
        "src640": "https://cdn.pixabay.com/photo/2016/10/16/00/02/cocker-spaniel-1744066_640.jpg",
        "src1280": "https://cdn.pixabay.com/photo/2016/10/16/00/02/cocker-spaniel-1744066_1280.jpg"
    },
    {
        "id": "216115",
        "src640": "https://cdn.pixabay.com/photo/2013/11/23/01/05/dog-216115_640.jpg",
        "src1280": "https://cdn.pixabay.com/photo/2013/11/23/01/05/dog-216115_1280.jpg"
    },
    {
        "id": "6006783",
        "src640": "https://cdn.pixabay.com/photo/2021/02/12/00/13/pug-6006783_640.jpg",
        "src1280": "https://cdn.pixabay.com/photo/2021/02/12/00/13/pug-6006783_1280.jpg"
    },
    {
        "id": "2289836",
        "src640": "https://cdn.pixabay.com/photo/2017/05/06/13/23/dog-2289836_640.jpg",
        "src1280": "https://cdn.pixabay.com/photo/2017/05/06/13/23/dog-2289836_1280.jpg"
    },
    {
        "id": "888907",
        "src640": "https://cdn.pixabay.com/photo/2015/08/14/21/14/dog-888907_640.jpg",
        "src1280": "https://cdn.pixabay.com/photo/2015/08/14/21/14/dog-888907_1280.jpg"
    },
    {
        "id": "8228697",
        "src640": "https://cdn.pixabay.com/photo/2023/09/02/11/27/ai-generated-8228697_640.jpg",
        "src1280": "https://cdn.pixabay.com/photo/2023/09/02/11/27/ai-generated-8228697_1280.jpg"
    },
    {
        "id": "2958197",
        "src640": "https://cdn.pixabay.com/photo/2017/11/17/18/57/dogs-2958197_640.jpg",
        "src1280": "https://cdn.pixabay.com/photo/2017/11/17/18/57/dogs-2958197_1280.jpg"
    },
    {
        "id": "8021949",
        "src640": "https://cdn.pixabay.com/photo/2023/05/27/17/29/ai-generated-8021949_640.jpg",
        "src1280": "https://cdn.pixabay.com/photo/2023/05/27/17/29/ai-generated-8021949_1280.jpg"
    },
    {
        "id": "665151",
        "src640": "https://cdn.pixabay.com/photo/2015/03/09/07/26/dog-trick-665151_640.jpg",
        "src1280": "https://cdn.pixabay.com/photo/2015/03/09/07/26/dog-trick-665151_1280.jpg"
    },
    {
        "id": "7901024",
        "src640": "https://cdn.pixabay.com/photo/2023/04/05/09/20/ai-generated-7901024_640.jpg",
        "src1280": "https://cdn.pixabay.com/photo/2023/04/05/09/20/ai-generated-7901024_1280.jpg"
    },
    {
        "id": "257921",
        "src640": "https://cdn.pixabay.com/photo/2014/02/04/10/19/dog-owner-257921_640.jpg",
        "src1280": "https://cdn.pixabay.com/photo/2014/02/04/10/19/dog-owner-257921_1280.jpg"
    },
    {
        "id": "3562373",
        "src640": "https://cdn.pixabay.com/photo/2018/07/25/22/05/shetland-sheepdog-3562373_640.jpg",
        "src1280": "https://cdn.pixabay.com/photo/2018/07/25/22/05/shetland-sheepdog-3562373_1280.jpg"
    },
    {
        "id": "2015152",
        "src640": "https://cdn.pixabay.com/photo/2017/01/28/11/16/dog-2015152_640.jpg",
        "src1280": "https://cdn.pixabay.com/photo/2017/01/28/11/16/dog-2015152_1280.jpg"
    },
    {
        "id": "7299822",
        "src640": "https://cdn.pixabay.com/photo/2022/07/03/18/59/bulldog-7299822_640.jpg",
        "src1280": "https://cdn.pixabay.com/photo/2022/07/03/18/59/bulldog-7299822_1280.jpg"
    },
    {
        "id": "1122916",
        "src640": "https://cdn.pixabay.com/photo/2016/01/05/16/58/husky-1122916_640.jpg",
        "src1280": "https://cdn.pixabay.com/photo/2016/01/05/16/58/husky-1122916_1280.jpg"
    },
    {
        "id": "5249184",
        "src640": "https://cdn.pixabay.com/photo/2020/06/02/03/21/cocker-spaniel-5249184_640.jpg",
        "src1280": "https://cdn.pixabay.com/photo/2020/06/02/03/21/cocker-spaniel-5249184_1280.jpg"
    },
    {
        "id": "8242288",
        "src640": "https://cdn.pixabay.com/photo/2023/09/09/01/48/ai-generated-8242288_640.jpg",
        "src1280": "https://cdn.pixabay.com/photo/2023/09/09/01/48/ai-generated-8242288_1280.jpg"
    },
    {
        "id": "4849736",
        "src640": "https://cdn.pixabay.com/photo/2020/02/15/01/15/animals-4849736_640.jpg",
        "src1280": "https://cdn.pixabay.com/photo/2020/02/15/01/15/animals-4849736_1280.jpg"
    },
    {
        "id": "3844681",
        "src640": "https://cdn.pixabay.com/photo/2018/11/28/22/22/dog-3844681_640.jpg",
        "src1280": "https://cdn.pixabay.com/photo/2018/11/28/22/22/dog-3844681_1280.jpg"
    },
    {
        "id": "1307470",
        "src640": "https://cdn.pixabay.com/photo/2016/04/04/15/53/dog-1307470_640.jpg",
        "src1280": "https://cdn.pixabay.com/photo/2016/04/04/15/53/dog-1307470_1280.jpg"
    },
    {
        "id": "7914413",
        "src640": "https://cdn.pixabay.com/photo/2023/04/10/18/40/dog-7914413_640.jpg",
        "src1280": "https://cdn.pixabay.com/photo/2023/04/10/18/40/dog-7914413_1280.jpg"
    }
]