[
    {
        "id": "8196490",
        "src640": "https://cdn.pixabay.com/photo/2023/08/17/12/21/basset-hound-8196490_640.jpg",
        "src1280": "https://cdn.pixabay.com/photo/2023/08/17/12/21/basset-hound-8196490_1280.jpg"
    },
    {
        "id": "1577818",
        "src640": "https://cdn.pixabay.com/photo/2016/08/08/07/54/cicada-1577818_640.jpg",
        "src1280": "https://cdn.pixabay.com/photo/2016/08/08/07/54/cicada-1577818_1280.jpg"
    },
    {
        "id": "6087964",
        "src640": "https://cdn.pixabay.com/photo/2021/03/11/19/28/french-bulldog-6087964_640.jpg",
        "src1280": "https://cdn.pixabay.com/photo/2021/03/11/19/28/french-bulldog-6087964_1280.jpg"
    },
    {
        "id": "5792690",
        "src640": "https://cdn.pixabay.com/photo/2020/12/01/00/46/schafer-dog-5792690_640.jpg",
        "src1280": "https://cdn.pixabay.com/photo/2020/12/01/00/46/schafer-dog-5792690_1280.jpg"
    },
    {
        "id": "3236172",
        "src640": "https://cdn.pixabay.com/photo/2018/03/18/10/10/dog-3236172_640.jpg",
        "src1280": "https://cdn.pixabay.com/photo/2018/03/18/10/10/dog-3236172_1280.jpg"
    },
    {
        "id": "3437656",
        "src640": "https://cdn.pixabay.com/photo/2018/05/29/00/27/dog-3437656_640.jpg",
        "src1280": "https://cdn.pixabay.com/photo/2018/05/29/00/27/dog-3437656_1280.jpg"
    },
    {
        "id": "5455481",
        "src640": "https://cdn.pixabay.com/photo/2020/08/01/14/15/dog-5455481_640.jpg",
        "src1280": "https://cdn.pixabay.com/photo/2020/08/01/14/15/dog-5455481_1280.jpg"
    },
    {
        "id": "7614211",
        "src640": "https://cdn.pixabay.com/photo/2022/11/24/12/11/german-shepherd-7614211_640.jpg",
        "src1280": "https://cdn.pixabay.com/photo/2022/11/24/12/11/german-shepherd-7614211_1280.jpg"
    },
    {
        "id": "8155490",
        "src640": "https://cdn.pixabay.com/photo/2023/07/28/16/01/dog-8155490_640.jpg",
        "src1280": "https://cdn.pixabay.com/photo/2023/07/28/16/01/dog-8155490_1280.jpg"
    },
    {
        "id": "6056265",
        "src640": "https://cdn.pixabay.com/photo/2021/02/28/03/00/puppy-6056265_640.jpg",
        "src1280": "https://cdn.pixabay.com/photo/2021/02/28/03/00/puppy-6056265_1280.jpg"
    },
    {
        "id": "7370745",
        "src640": "https://cdn.pixabay.com/photo/2022/08/07/14/52/eurasier-puppy-7370745_640.jpg",
        "src1280": "https://cdn.pixabay.com/photo/2022/08/07/14/52/eurasier-puppy-7370745_1280.jpg"
    },
    {
        "id": "3434801",
        "src640": "https://cdn.pixabay.com/photo/2018/05/27/22/31/dog-3434801_640.jpg",
        "src1280": "https://cdn.pixabay.com/photo/2018/05/27/22/31/dog-3434801_1280.jpg"
    },
    {
        "id": "317004",
        "src640": "https://cdn.pixabay.com/photo/2014/04/05/12/24/dog-317004_640.jpg",
        "src1280": "https://cdn.pixabay.com/photo/2014/04/05/12/24/dog-317004_1280.jpg"
    },
    {
        "id": "3109041",
        "src640": "https://cdn.pixabay.com/photo/2018/01/26/16/16/winter-3109041_640.jpg",
        "src1280": "https://cdn.pixabay.com/photo/2018/01/26/16/16/winter-3109041_1280.jpg"
    },
    {
        "id": "569992",
        "src640": "https://cdn.pixabay.com/photo/2014/12/16/06/27/dog-569992_640.jpg",
        "src1280": "https://cdn.pixabay.com/photo/2014/12/16/06/27/dog-569992_1280.jpg"
    },
    {
        "id": "6691346",
        "src640": "https://cdn.pixabay.com/photo/2021/10/08/13/26/dog-6691346_640.jpg",
        "src1280": "https://cdn.pixabay.com/photo/2021/10/08/13/26/dog-6691346_1280.jpg"
    },
    {
        "id": "525804",
        "src640": "https://cdn.pixabay.com/photo/2014/11/10/19/16/german-shepherd-525804_640.jpg",
        "src1280": "https://cdn.pixabay.com/photo/2014/11/10/19/16/german-shepherd-525804_1280.jpg"
    },
    {
        "id": "8348565",
        "src640": "https://cdn.pixabay.com/photo/2023/10/29/02/04/tree-8348565_640.jpg",
        "src1280": "https://cdn.pixabay.com/photo/2023/10/29/02/04/tree-8348565_1280.jpg"
    },
    {
        "id": "2840625",
        "src640": "https://cdn.pixabay.com/photo/2017/10/11/10/29/boerboel-2840625_640.jpg",
        "src1280": "https://cdn.pixabay.com/photo/2017/10/11/10/29/boerboel-2840625_1280.jpg"
    },
    {
        "id": "6057135",
        "src640": "https://cdn.pixabay.com/photo/2021/02/28/13/01/puppy-6057135_640.jpg",
        "src1280": "https://cdn.pixabay.com/photo/2021/02/28/13/01/puppy-6057135_1280.jpg"
    },
    {
        "id": "6156401",
        "src640": "https://cdn.pixabay.com/photo/2021/04/06/13/32/dog-6156401_640.jpg",
        "src1280": "https://cdn.pixabay.com/photo/2021/04/06/13/32/dog-6156401_1280.jpg"
    },
    {
        "id": "8078001",
        "src640": "https://cdn.pixabay.com/photo/2023/06/20/20/51/animal-8078001_640.jpg",
        "src1280": "https://cdn.pixabay.com/photo/2023/06/20/20/51/animal-8078001_1280.jpg"
    },
    {
        "id": "6741640",
        "src640": "https://cdn.pixabay.com/photo/2021/10/25/17/32/dog-6741640_640.jpg",
        "src1280": "https://cdn.pixabay.com/photo/2021/10/25/17/32/dog-6741640_1280.jpg"
    },
    {
        "id": "725753",
        "src640": "https://cdn.pixabay.com/photo/2015/04/16/14/44/dog-725753_640.jpg",
        "src1280": "https://cdn.pixabay.com/photo/2015/04/16/14/44/dog-725753_1280.jpg"
    },
    {
        "id": "235027",
        "src640": "https://cdn.pixabay.com/photo/2013/12/29/09/05/flower-235027_640.jpg",
        "src1280": "https://cdn.pixabay.com/photo/2013/12/29/09/05/flower-235027_1280.jpg"
    },
    {
        "id": "2336532",
        "src640": "https://cdn.pixabay.com/photo/2017/05/23/08/35/treat-2336532_640.jpg",
        "src1280": "https://cdn.pixabay.com/photo/2017/05/23/08/35/treat-2336532_1280.jpg"
    },
    {
        "id": "8301345",
        "src640": "https://cdn.pixabay.com/photo/2023/10/08/02/36/dog-8301345_640.jpg",
        "src1280": "https://cdn.pixabay.com/photo/2023/10/08/02/36/dog-8301345_1280.jpg"
    },
    {
        "id": "8191960",
        "src640": "https://cdn.pixabay.com/photo/2023/08/15/13/19/husky-8191960_640.jpg",
        "src1280": "https://cdn.pixabay.com/photo/2023/08/15/13/19/husky-8191960_1280.jpg"
    },
    {
        "id": "8425048",
        "src640": "https://cdn.pixabay.com/photo/2023/12/02/06/45/baubles-8425048_640.jpg",
        "src1280": "https://cdn.pixabay.com/photo/2023/12/02/06/45/baubles-8425048_1280.jpg"
    },
    {
        "id": "7758859",
        "src640": "https://cdn.pixabay.com/photo/2023/01/31/19/43/ai-generated-7758859_640.jpg",
        "src1280": "https://cdn.pixabay.com/photo/2023/01/31/19/43/ai-generated-7758859_1280.jpg"
    },
    {
        "id": "726005",
        "src640": "https://cdn.pixabay.com/photo/2015/04/16/17/41/saint-bernard-726005_640.jpg",
        "src1280": "https://cdn.pixabay.com/photo/2015/04/16/17/41/saint-bernard-726005_1280.jpg"
    },
    {
        "id": "7823892",
        "src640": "https://cdn.pixabay.com/photo/2023/03/01/19/33/golden-retriever-7823892_640.jpg",
        "src1280": "https://cdn.pixabay.com/photo/2023/03/01/19/33/golden-retriever-7823892_1280.jpg"
    },
    {
        "id": "1234691",
        "src640": "https://cdn.pixabay.com/photo/2016/03/03/17/38/puppy-1234691_640.jpg",
        "src1280": "https://cdn.pixabay.com/photo/2016/03/03/17/38/puppy-1234691_1280.jpg"
    },
    {
        "id": "8115298",
        "src640": "https://cdn.pixabay.com/photo/2023/07/08/23/07/canine-8115298_640.jpg",
        "src1280": "https://cdn.pixabay.com/photo/2023/07/08/23/07/canine-8115298_1280.jpg"
    },
    {
        "id": "3788778",
        "src640": "https://cdn.pixabay.com/photo/2018/11/01/18/35/dog-3788778_640.jpg",
        "src1280": "https://cdn.pixabay.com/photo/2018/11/01/18/35/dog-3788778_1280.jpg"
    },
    {
        "id": "8166596",
        "src640": "https://cdn.pixabay.com/photo/2023/08/03/09/01/ai-generated-8166596_640.jpg",
        "src1280": "https://cdn.pixabay.com/photo/2023/08/03/09/01/ai-generated-8166596_1280.jpg"
    },
    {
        "id": "8480489",
        "src640": "https://cdn.pixabay.com/photo/2023/12/31/18/35/ai-generated-8480489_640.jpg",
        "src1280": "https://cdn.pixabay.com/photo/2023/12/31/18/35/ai-generated-8480489_1280.jpg"
    },
    {
        "id": "8316306",
        "src640": "https://cdn.pixabay.com/photo/2023/10/15/07/03/ai-generated-8316306_640.jpg",
        "src1280": "https://cdn.pixabay.com/photo/2023/10/15/07/03/ai-generated-8316306_1280.jpg"
    },
    {
        "id": "4855338",
        "src640": "https://cdn.pixabay.com/photo/2020/02/17/03/49/dog-4855338_640.jpg",
        "src1280": "https://cdn.pixabay.com/photo/2020/02/17/03/49/dog-4855338_1280.jpg"
    },
    {
        "id": "7131519",
        "src640": "https://cdn.pixabay.com/photo/2022/04/14/02/30/animal-7131519_640.jpg",
        "src1280": "https://cdn.pixabay.com/photo/2022/04/14/02/30/animal-7131519_1280.jpg"
    },
    {
        "id": "3864161",
        "src640": "https://cdn.pixabay.com/photo/2018/12/08/22/50/dog-3864161_640.jpg",
        "src1280": "https://cdn.pixabay.com/photo/2018/12/08/22/50/dog-3864161_1280.jpg"
    },
    {
        "id": "656663",
        "src640": "https://cdn.pixabay.com/photo/2015/03/02/22/28/great-danes-656663_640.jpg",
        "src1280": "https://cdn.pixabay.com/photo/2015/03/02/22/28/great-danes-656663_1280.jpg"
    },
    {
        "id": "4728114",
        "src640": "https://cdn.pixabay.com/photo/2019/12/29/20/26/dog-4728114_640.jpg",
        "src1280": "https://cdn.pixabay.com/photo/2019/12/29/20/26/dog-4728114_1280.jpg"
    },
    {
        "id": "4419959",
        "src640": "https://cdn.pixabay.com/photo/2019/08/21/01/53/silhouette-4419959_640.jpg",
        "src1280": "https://cdn.pixabay.com/photo/2019/08/21/01/53/silhouette-4419959_1280.jpg"
    },
    {
        "id": "8095054",
        "src640": "https://cdn.pixabay.com/photo/2023/06/28/19/23/dog-8095054_640.jpg",
        "src1280": "https://cdn.pixabay.com/photo/2023/06/28/19/23/dog-8095054_1280.jpg"
    },
    {
        "id": "8175379",
        "src640": "https://cdn.pixabay.com/photo/2023/08/07/15/47/alaskan-malamute-8175379_640.jpg",
        "src1280": "https://cdn.pixabay.com/photo/2023/08/07/15/47/alaskan-malamute-8175379_1280.jpg"
    },
    {
        "id": "8193447",
        "src640": "https://cdn.pixabay.com/photo/2023/08/16/06/27/ai-generated-8193447_640.jpg",
        "src1280": "https://cdn.pixabay.com/photo/2023/08/16/06/27/ai-generated-8193447_1280.jpg"
    },
    {
        "id": "5662337",
        "src640": "https://cdn.pixabay.com/photo/2020/10/17/14/47/dog-5662337_640.jpg",
        "src1280": "https://cdn.pixabay.com/photo/2020/10/17/14/47/dog-5662337_1280.jpg"
    },
    {
        "id": "5563584",
        "src640": "https://cdn.pixabay.com/photo/2020/09/11/16/14/human-5563584_640.jpg",
        "src1280": "https://cdn.pixabay.com/photo/2020/09/11/16/14/human-5563584_1280.jpg"
    },
    {
        "id": "8455359",
        "src640": "https://cdn.pixabay.com/photo/2023/12/18/06/38/ai-generated-8455359_640.jpg",
        "src1280": "https://cdn.pixabay.com/photo/2023/12/18/06/38/ai-generated-8455359_1280.jpg"
    },
    {
        "id": "5099414",
        "src640": "https://cdn.pixabay.com/photo/2020/04/27/11/31/dog-5099414_640.jpg",
        "src1280": "https://cdn.pixabay.com/photo/2020/04/27/11/31/dog-5099414_1280.jpg"
    },
    {
        "id": "5450337",
        "src640": "https://cdn.pixabay.com/photo/2020/07/30/13/22/dog-5450337_640.jpg",
        "src1280": "https://cdn.pixabay.com/photo/2020/07/30/13/22/dog-5450337_1280.jpg"
    },
    {
        "id": "7614210",
        "src640": "https://cdn.pixabay.com/photo/2022/11/24/12/11/german-shepherd-7614210_640.jpg",
        "src1280": "https://cdn.pixabay.com/photo/2022/11/24/12/11/german-shepherd-7614210_1280.jpg"
    },
    {
        "id": "7642384",
        "src640": "https://cdn.pixabay.com/photo/2022/12/08/02/53/dog-7642384_640.jpg",
        "src1280": "https://cdn.pixabay.com/photo/2022/12/08/02/53/dog-7642384_1280.jpg"
    },
    {
        "id": "8204767",
        "src640": "https://cdn.pixabay.com/photo/2023/08/21/17/31/dog-8204767_640.jpg",
        "src1280": "https://cdn.pixabay.com/photo/2023/08/21/17/31/dog-8204767_1280.jpg"
    },
    {
        "id": "2580231",
        "src640": "https://cdn.pixabay.com/photo/2017/08/04/14/42/farm-collie-2580231_640.jpg",
        "src1280": "https://cdn.pixabay.com/photo/2017/08/04/14/42/farm-collie-2580231_1280.jpg"
    },
    {
        "id": "3658298",
        "src640": "https://cdn.pixabay.com/photo/2018/09/06/13/27/dog-3658298_640.jpg",
        "src1280": "https://cdn.pixabay.com/photo/2018/09/06/13/27/dog-3658298_1280.jpg"
    },
    {
        "id": "242862",
        "src640": "https://cdn.pixabay.com/photo/2014/01/12/14/51/teddy-242862_640.jpg",
        "src1280": "https://cdn.pixabay.com/photo/2014/01/12/14/51/teddy-242862_1280.jpg"
    },
    {
        "id": "4560540",
        "src640": "https://cdn.pixabay.com/photo/2019/10/19/03/55/dog-4560540_640.jpg",
        "src1280": "https://cdn.pixabay.com/photo/2019/10/19/03/55/dog-4560540_1280.jpg"
    },
    {
        "id": "3877423",
        "src640": "https://cdn.pixabay.com/photo/2018/12/15/18/31/shepherd-3877423_640.jpg",
        "src1280": "https://cdn.pixabay.com/photo/2018/12/15/18/31/shepherd-3877423_1280.jpg"
    },
    {
        "id": "438216",
        "src640": "https://cdn.pixabay.com/photo/2014/09/07/19/09/dachshund-438216_640.jpg",
        "src1280": "https://cdn.pixabay.com/photo/2014/09/07/19/09/dachshund-438216_1280.jpg"
    },
    {
        "id": "5519909",
        "src640": "https://cdn.pixabay.com/photo/2020/08/26/16/06/woman-5519909_640.jpg",
        "src1280": "https://cdn.pixabay.com/photo/2020/08/26/16/06/woman-5519909_1280.jpg"
    },
    {
        "id": "4190429",
        "src640": "https://cdn.pixabay.com/photo/2019/05/09/05/10/cowgirl-4190429_640.jpg",
        "src1280": "https://cdn.pixabay.com/photo/2019/05/09/05/10/cowgirl-4190429_1280.jpg"
    },
    {
        "id": "2168336",
        "src640": "https://cdn.pixabay.com/photo/2017/03/23/13/44/husky-2168336_640.jpg",
        "src1280": "https://cdn.pixabay.com/photo/2017/03/23/13/44/husky-2168336_1280.jpg"
    },
    {
        "id": "4292331",
        "src640": "https://cdn.pixabay.com/photo/2019/06/22/19/43/ottothechowchow-4292331_640.jpg",
        "src1280": "https://cdn.pixabay.com/photo/2019/06/22/19/43/ottothechowchow-4292331_1280.jpg"
    },
    {
        "id": "220414",
        "src640": "https://cdn.pixabay.com/photo/2013/11/28/12/05/dog-220414_640.jpg",
        "src1280": "https://cdn.pixabay.com/photo/2013/11/28/12/05/dog-220414_1280.jpg"
    },
    {
        "id": "660784",
        "src640": "https://cdn.pixabay.com/photo/2015/03/05/19/04/dog-660784_640.jpg",
        "src1280": "https://cdn.pixabay.com/photo/2015/03/05/19/04/dog-660784_1280.jpg"
    },
    {
        "id": "5563585",
        "src640": "https://cdn.pixabay.com/photo/2020/09/11/16/14/human-5563585_640.jpg",
        "src1280": "https://cdn.pixabay.com/photo/2020/09/11/16/14/human-5563585_1280.jpg"
    },
    {
        "id": "7519910",
        "src640": "https://cdn.pixabay.com/photo/2022/10/13/20/03/mastiff-7519910_640.jpg",
        "src1280": "https://cdn.pixabay.com/photo/2022/10/13/20/03/mastiff-7519910_1280.jpg"
    },
    {
        "id": "8348455",
        "src640": "https://cdn.pixabay.com/photo/2023/10/28/23/00/ai-generated-8348455_640.jpg",
        "src1280": "https://cdn.pixabay.com/photo/2023/10/28/23/00/ai-generated-8348455_1280.jpg"
    },
    {
        "id": "7700265",
        "src640": "https://cdn.pixabay.com/photo/2023/01/06/02/01/ai-generated-7700265_640.jpg",
        "src1280": "https://cdn.pixabay.com/photo/2023/01/06/02/01/ai-generated-7700265_1280.jpg"
    },
    {
        "id": "164112",
        "src640": "https://cdn.pixabay.com/photo/2013/07/18/14/58/rough-collie-164112_640.jpg",
        "src1280": "https://cdn.pixabay.com/photo/2013/07/18/14/58/rough-collie-164112_1280.jpg"
    },
    {
        "id": "8137383",
        "src640": "https://cdn.pixabay.com/photo/2023/07/19/16/49/dog-8137383_640.jpg",
        "src1280": "https://cdn.pixabay.com/photo/2023/07/19/16/49/dog-8137383_1280.jpg"
    },
    {
        "id": "7648099",
        "src640": "https://cdn.pixabay.com/photo/2022/12/11/02/58/dog-7648099_640.jpg",
        "src1280": "https://cdn.pixabay.com/photo/2022/12/11/02/58/dog-7648099_1280.jpg"
    },
    {
        "id": "6202488",
        "src640": "https://cdn.pixabay.com/photo/2021/04/23/18/57/dog-6202488_640.jpg",
        "src1280": "https://cdn.pixabay.com/photo/2021/04/23/18/57/dog-6202488_1280.jpg"
    },
    {
        "id": "3271041",
        "src640": "https://cdn.pixabay.com/photo/2018/03/29/01/08/cairn-terrier-3271041_640.jpg",
        "src1280": "https://cdn.pixabay.com/photo/2018/03/29/01/08/cairn-terrier-3271041_1280.jpg"
    },
    {
        "id": "7459003",
        "src640": "https://cdn.pixabay.com/photo/2022/09/16/16/17/bush-rose-7459003_640.jpg",
        "src1280": "https://cdn.pixabay.com/photo/2022/09/16/16/17/bush-rose-7459003_1280.jpg"
    },
    {
        "id": "1394422",
        "src640": "https://cdn.pixabay.com/photo/2016/05/15/21/14/cute-1394422_640.jpg",
        "src1280": "https://cdn.pixabay.com/photo/2016/05/15/21/14/cute-1394422_1280.jpg"
    },
    {
        "id": "8099723",
        "src640": "https://cdn.pixabay.com/photo/2023/07/01/08/20/dog-8099723_640.jpg",
        "src1280": "https://cdn.pixabay.com/photo/2023/07/01/08/20/dog-8099723_1280.jpg"
    },
    {
        "id": "70661",
        "src640": "https://cdn.pixabay.com/photo/2012/12/18/18/02/white-70661_640.jpg",
        "src1280": "https://cdn.pixabay.com/photo/2012/12/18/18/02/white-70661_1280.jpg"
    },
    {
        "id": "8469958",
        "src640": "https://cdn.pixabay.com/photo/2023/12/26/11/08/dog-8469958_640.jpg",
        "src1280": "https://cdn.pixabay.com/photo/2023/12/26/11/08/dog-8469958_1280.jpg"
    },
    {
        "id": "1782923",
        "src640": "https://cdn.pixabay.com/photo/2016/10/30/11/38/french-bulldog-1782923_640.jpg",
        "src1280": "https://cdn.pixabay.com/photo/2016/10/30/11/38/french-bulldog-1782923_1280.jpg"
    },
    {
        "id": "1589490",
        "src640": "https://cdn.pixabay.com/photo/2016/08/12/19/37/dog-1589490_640.jpg",
        "src1280": "https://cdn.pixabay.com/photo/2016/08/12/19/37/dog-1589490_1280.jpg"
    },
    {
        "id": "6224402",
        "src640": "https://cdn.pixabay.com/photo/2021/05/02/18/23/dog-6224402_640.jpg",
        "src1280": "https://cdn.pixabay.com/photo/2021/05/02/18/23/dog-6224402_1280.jpg"
    },
    {
        "id": "8456898",
        "src640": "https://cdn.pixabay.com/photo/2023/12/19/01/19/dog-8456898_640.jpg",
        "src1280": "https://cdn.pixabay.com/photo/2023/12/19/01/19/dog-8456898_1280.jpg"
    },
    {
        "id": "7947829",
        "src640": "https://cdn.pixabay.com/photo/2023/04/24/11/14/dog-7947829_640.jpg",
        "src1280": "https://cdn.pixabay.com/photo/2023/04/24/11/14/dog-7947829_1280.jpg"
    },
    {
        "id": "1824978",
        "src640": "https://cdn.pixabay.com/photo/2016/11/15/00/01/dog-1824978_640.jpg",
        "src1280": "https://cdn.pixabay.com/photo/2016/11/15/00/01/dog-1824978_1280.jpg"
    },
    {
        "id": "2974575",
        "src640": "https://cdn.pixabay.com/photo/2017/11/24/10/02/dog-2974575_640.jpg",
        "src1280": "https://cdn.pixabay.com/photo/2017/11/24/10/02/dog-2974575_1280.jpg"
    },
    {
        "id": "4744089",
        "src640": "https://cdn.pixabay.com/photo/2020/01/05/21/02/dog-4744089_640.jpg",
        "src1280": "https://cdn.pixabay.com/photo/2020/01/05/21/02/dog-4744089_1280.jpg"
    },
    {
        "id": "4560818",
        "src640": "https://cdn.pixabay.com/photo/2019/10/19/08/03/boston-terrier-4560818_640.jpg",
        "src1280": "https://cdn.pixabay.com/photo/2019/10/19/08/03/boston-terrier-4560818_1280.jpg"
    },
    {
        "id": "1274715",
        "src640": "https://cdn.pixabay.com/photo/2016/03/23/13/07/wintry-1274715_640.jpg",
        "src1280": "https://cdn.pixabay.com/photo/2016/03/23/13/07/wintry-1274715_1280.jpg"
    },
    {
        "id": "4507897",
        "src640": "https://cdn.pixabay.com/photo/2019/09/27/08/49/entlebucher-4507897_640.jpg",
        "src1280": "https://cdn.pixabay.com/photo/2019/09/27/08/49/entlebucher-4507897_1280.jpg"
    }
]