[
    {
        "id": "2735983",
        "src640": "https://cdn.pixabay.com/photo/2017/09/10/15/40/boy-2735983_640.jpg",
        "src1280": "https://cdn.pixabay.com/photo/2017/09/10/15/40/boy-2735983_1280.jpg"
    },
    {
        "id": "8168183",
        "src640": "https://cdn.pixabay.com/photo/2023/08/03/23/52/ai-generated-8168183_640.jpg",
        "src1280": "https://cdn.pixabay.com/photo/2023/08/03/23/52/ai-generated-8168183_1280.jpg"
    },
    {
        "id": "3567227",
        "src640": "https://cdn.pixabay.com/photo/2018/07/28/03/35/dog-3567227_640.jpg",
        "src1280": "https://cdn.pixabay.com/photo/2018/07/28/03/35/dog-3567227_1280.jpg"
    },
    {
        "id": "5574722",
        "src640": "https://cdn.pixabay.com/photo/2020/09/15/21/04/english-bulldog-5574722_640.jpg",
        "src1280": "https://cdn.pixabay.com/photo/2020/09/15/21/04/english-bulldog-5574722_1280.jpg"
    },
    {
        "id": "269603",
        "src640": "https://cdn.pixabay.com/photo/2014/02/19/02/12/dog-269603_640.jpg",
        "src1280": "https://cdn.pixabay.com/photo/2014/02/19/02/12/dog-269603_1280.jpg"
    },
    {
        "id": "1221322",
        "src640": "https://cdn.pixabay.com/photo/2016/02/25/05/13/dog-1221322_640.jpg",
        "src1280": "https://cdn.pixabay.com/photo/2016/02/25/05/13/dog-1221322_1280.jpg"
    },
    {
        "id": "7952283",
        "src640": "https://cdn.pixabay.com/photo/2023/04/26/12/14/dog-7952283_640.jpg",
        "src1280": "https://cdn.pixabay.com/photo/2023/04/26/12/14/dog-7952283_1280.jpg"
    },
    {
        "id": "6492809",
        "src640": "https://cdn.pixabay.com/photo/2021/07/25/21/36/dog-6492809_640.jpg",
        "src1280": "https://cdn.pixabay.com/photo/2021/07/25/21/36/dog-6492809_1280.jpg"
    },
    {
        "id": "6341281",
        "src640": "https://cdn.pixabay.com/photo/2021/06/16/13/14/puppy-6341281_640.jpg",
        "src1280": "https://cdn.pixabay.com/photo/2021/06/16/13/14/puppy-6341281_1280.jpg"
    },
    {
        "id": "5563796",
        "src640": "https://cdn.pixabay.com/photo/2020/09/11/17/50/dog-5563796_640.jpg",
        "src1280": "https://cdn.pixabay.com/photo/2020/09/11/17/50/dog-5563796_1280.jpg"
    },
    {
        "id": "395655",
        "src640": "https://cdn.pixabay.com/photo/2014/07/17/18/19/dog-395655_640.jpg",
        "src1280": "https://cdn.pixabay.com/photo/2014/07/17/18/19/dog-395655_1280.jpg"
    },
    {
        "id": "5106880",
        "src640": "https://cdn.pixabay.com/photo/2020/04/29/01/38/dog-5106880_640.jpg",
        "src1280": "https://cdn.pixabay.com/photo/2020/04/29/01/38/dog-5106880_1280.jpg"
    },
    {
        "id": "2709190",
        "src640": "https://cdn.pixabay.com/photo/2017/09/03/02/48/monument-2709190_640.jpg",
        "src1280": "https://cdn.pixabay.com/photo/2017/09/03/02/48/monument-2709190_1280.jpg"
    },
    {
        "id": "4066291",
        "src640": "https://cdn.pixabay.com/photo/2019/03/19/17/16/dog-4066291_640.jpg",
        "src1280": "https://cdn.pixabay.com/photo/2019/03/19/17/16/dog-4066291_1280.jpg"
    },
    {
        "id": "579250",
        "src640": "https://cdn.pixabay.com/photo/2014/12/24/20/38/fox-579250_640.jpg",
        "src1280": "https://cdn.pixabay.com/photo/2014/12/24/20/38/fox-579250_1280.jpg"
    },
    {
        "id": "3767223",
        "src640": "https://cdn.pixabay.com/photo/2018/10/23/07/41/cute-3767223_640.jpg",
        "src1280": "https://cdn.pixabay.com/photo/2018/10/23/07/41/cute-3767223_1280.jpg"
    },
    {
        "id": "1039285",
        "src640": "https://cdn.pixabay.com/photo/2015/11/11/21/25/dog-1039285_640.jpg",
        "src1280": "https://cdn.pixabay.com/photo/2015/11/11/21/25/dog-1039285_1280.jpg"
    },
    {
        "id": "8313822",
        "src640": "https://cdn.pixabay.com/photo/2023/10/14/02/36/dog-8313822_640.jpg",
        "src1280": "https://cdn.pixabay.com/photo/2023/10/14/02/36/dog-8313822_1280.jpg"
    },
    {
        "id": "5111268",
        "src640": "https://cdn.pixabay.com/photo/2020/04/30/03/31/dogs-on-beach-5111268_640.jpg",
        "src1280": "https://cdn.pixabay.com/photo/2020/04/30/03/31/dogs-on-beach-5111268_1280.jpg"
    },
    {
        "id": "7515118",
        "src640": "https://cdn.pixabay.com/photo/2022/10/11/20/38/dog-7515118_640.jpg",
        "src1280": "https://cdn.pixabay.com/photo/2022/10/11/20/38/dog-7515118_1280.jpg"
    },
    {
        "id": "662781",
        "src640": "https://cdn.pixabay.com/photo/2015/03/07/04/02/bird-bath-662781_640.jpg",
        "src1280": "https://cdn.pixabay.com/photo/2015/03/07/04/02/bird-bath-662781_1280.jpg"
    },
    {
        "id": "263603",
        "src640": "https://cdn.pixabay.com/photo/2014/02/10/18/05/dog-263603_640.jpg",
        "src1280": "https://cdn.pixabay.com/photo/2014/02/10/18/05/dog-263603_1280.jpg"
    },
    {
        "id": "3717477",
        "src640": "https://cdn.pixabay.com/photo/2018/10/01/22/36/labrador-3717477_640.jpg",
        "src1280": "https://cdn.pixabay.com/photo/2018/10/01/22/36/labrador-3717477_1280.jpg"
    },
    {
        "id": "1420761",
        "src640": "https://cdn.pixabay.com/photo/2016/05/27/22/54/dog-1420761_640.jpg",
        "src1280": "https://cdn.pixabay.com/photo/2016/05/27/22/54/dog-1420761_1280.jpg"
    },
    {
        "id": "958976",
        "src640": "https://cdn.pixabay.com/photo/2015/09/26/11/23/dog-958976_640.jpg",
        "src1280": "https://cdn.pixabay.com/photo/2015/09/26/11/23/dog-958976_1280.jpg"
    },
    {
        "id": "5909864",
        "src640": "https://cdn.pixabay.com/photo/2021/01/11/22/12/dog-5909864_640.jpg",
        "src1280": "https://cdn.pixabay.com/photo/2021/01/11/22/12/dog-5909864_1280.jpg"
    },
    {
        "id": "1773548",
        "src640": "https://cdn.pixabay.com/photo/2016/10/27/06/50/dog-1773548_640.jpg",
        "src1280": "https://cdn.pixabay.com/photo/2016/10/27/06/50/dog-1773548_1280.jpg"
    },
    {
        "id": "8306665",
        "src640": "https://cdn.pixabay.com/photo/2023/10/10/14/45/haunted-8306665_640.jpg",
        "src1280": "https://cdn.pixabay.com/photo/2023/10/10/14/45/haunted-8306665_1280.jpg"
    },
    {
        "id": "8168127",
        "src640": "https://cdn.pixabay.com/photo/2023/08/03/23/15/ai-generated-8168127_640.jpg",
        "src1280": "https://cdn.pixabay.com/photo/2023/08/03/23/15/ai-generated-8168127_1280.jpg"
    },
    {
        "id": "5196397",
        "src640": "https://cdn.pixabay.com/photo/2020/05/20/12/50/yorkshire-terrier-5196397_640.jpg",
        "src1280": "https://cdn.pixabay.com/photo/2020/05/20/12/50/yorkshire-terrier-5196397_1280.jpg"
    },
    {
        "id": "3219895",
        "src640": "https://cdn.pixabay.com/photo/2018/03/12/15/10/dog-3219895_640.jpg",
        "src1280": "https://cdn.pixabay.com/photo/2018/03/12/15/10/dog-3219895_1280.jpg"
    },
    {
        "id": "1558655",
        "src640": "https://cdn.pixabay.com/photo/2016/07/31/09/15/animal-shelter-1558655_640.jpg",
        "src1280": "https://cdn.pixabay.com/photo/2016/07/31/09/15/animal-shelter-1558655_1280.jpg"
    },
    {
        "id": "6542802",
        "src640": "https://cdn.pixabay.com/photo/2021/08/13/10/55/dog-6542802_640.jpg",
        "src1280": "https://cdn.pixabay.com/photo/2021/08/13/10/55/dog-6542802_1280.jpg"
    },
    {
        "id": "746226",
        "src640": "https://cdn.pixabay.com/photo/2015/04/29/22/49/dog-746226_640.jpg",
        "src1280": "https://cdn.pixabay.com/photo/2015/04/29/22/49/dog-746226_1280.jpg"
    },
    {
        "id": "5763981",
        "src640": "https://cdn.pixabay.com/photo/2020/11/21/13/13/dogs-5763981_640.jpg",
        "src1280": "https://cdn.pixabay.com/photo/2020/11/21/13/13/dogs-5763981_1280.jpg"
    },
    {
        "id": "8313828",
        "src640": "https://cdn.pixabay.com/photo/2023/10/14/02/36/dog-8313828_640.jpg",
        "src1280": "https://cdn.pixabay.com/photo/2023/10/14/02/36/dog-8313828_1280.jpg"
    },
    {
        "id": "6265701",
        "src640": "https://cdn.pixabay.com/photo/2021/05/19/11/46/finnish-spitz-6265701_640.jpg",
        "src1280": "https://cdn.pixabay.com/photo/2021/05/19/11/46/finnish-spitz-6265701_1280.jpg"
    },
    {
        "id": "7715034",
        "src640": "https://cdn.pixabay.com/photo/2023/01/12/23/49/ai-generated-7715034_640.jpg",
        "src1280": "https://cdn.pixabay.com/photo/2023/01/12/23/49/ai-generated-7715034_1280.jpg"
    },
    {
        "id": "2239445",
        "src640": "https://cdn.pixabay.com/photo/2017/04/18/15/24/beach-2239445_640.jpg",
        "src1280": "https://cdn.pixabay.com/photo/2017/04/18/15/24/beach-2239445_1280.jpg"
    },
    {
        "id": "8155488",
        "src640": "https://cdn.pixabay.com/photo/2023/07/28/16/01/dog-8155488_640.jpg",
        "src1280": "https://cdn.pixabay.com/photo/2023/07/28/16/01/dog-8155488_1280.jpg"
    },
    {
        "id": "3381898",
        "src640": "https://cdn.pixabay.com/photo/2018/05/07/23/00/husky-3381898_640.jpg",
        "src1280": "https://cdn.pixabay.com/photo/2018/05/07/23/00/husky-3381898_1280.jpg"
    },
    {
        "id": "4942008",
        "src640": "https://cdn.pixabay.com/photo/2020/03/17/21/52/scared-dog-4942008_640.jpg",
        "src1280": "https://cdn.pixabay.com/photo/2020/03/17/21/52/scared-dog-4942008_1280.jpg"
    },
    {
        "id": "1201350",
        "src640": "https://cdn.pixabay.com/photo/2016/02/15/15/21/dog-1201350_640.jpg",
        "src1280": "https://cdn.pixabay.com/photo/2016/02/15/15/21/dog-1201350_1280.jpg"
    },
    {
        "id": "1122992",
        "src640": "https://cdn.pixabay.com/photo/2016/01/05/17/43/dog-1122992_640.jpg",
        "src1280": "https://cdn.pixabay.com/photo/2016/01/05/17/43/dog-1122992_1280.jpg"
    },
    {
        "id": "195166",
        "src640": "https://cdn.pixabay.com/photo/2013/10/13/20/11/pirate-195166_640.jpg",
        "src1280": "https://cdn.pixabay.com/photo/2013/10/13/20/11/pirate-195166_1280.jpg"
    },
    {
        "id": "5405392",
        "src640": "https://cdn.pixabay.com/photo/2020/07/14/19/16/dog-5405392_640.jpg",
        "src1280": "https://cdn.pixabay.com/photo/2020/07/14/19/16/dog-5405392_1280.jpg"
    },
    {
        "id": "683344",
        "src640": "https://cdn.pixabay.com/photo/2015/03/21/09/26/dog-683344_640.jpg",
        "src1280": "https://cdn.pixabay.com/photo/2015/03/21/09/26/dog-683344_1280.jpg"
    },
    {
        "id": "1159770",
        "src640": "https://cdn.pixabay.com/photo/2016/01/24/22/47/cat-1159770_640.jpg",
        "src1280": "https://cdn.pixabay.com/photo/2016/01/24/22/47/cat-1159770_1280.jpg"
    },
    {
        "id": "8353470",
        "src640": "https://cdn.pixabay.com/photo/2023/10/30/18/25/halloween-8353470_640.jpg",
        "src1280": "https://cdn.pixabay.com/photo/2023/10/30/18/25/halloween-8353470_1280.jpg"
    },
    {
        "id": "5780433",
        "src640": "https://cdn.pixabay.com/photo/2020/11/26/23/04/border-collie-5780433_640.jpg",
        "src1280": "https://cdn.pixabay.com/photo/2020/11/26/23/04/border-collie-5780433_1280.jpg"
    },
    {
        "id": "2908066",
        "src640": "https://cdn.pixabay.com/photo/2017/11/01/14/03/dog-2908066_640.jpg",
        "src1280": "https://cdn.pixabay.com/photo/2017/11/01/14/03/dog-2908066_1280.jpg"
    },
    {
        "id": "8206391",
        "src640": "https://cdn.pixabay.com/photo/2023/08/22/13/10/weimaraner-8206391_640.jpg",
        "src1280": "https://cdn.pixabay.com/photo/2023/08/22/13/10/weimaraner-8206391_1280.jpg"
    },
    {
        "id": "7841330",
        "src640": "https://cdn.pixabay.com/photo/2023/03/10/03/42/jack-russell-terrier-7841330_640.jpg",
        "src1280": "https://cdn.pixabay.com/photo/2023/03/10/03/42/jack-russell-terrier-7841330_1280.jpg"
    },
    {
        "id": "6964295",
        "src640": "https://cdn.pixabay.com/photo/2022/01/24/18/06/dog-6964295_640.jpg",
        "src1280": "https://cdn.pixabay.com/photo/2022/01/24/18/06/dog-6964295_1280.jpg"
    },
    {
        "id": "2014450",
        "src640": "https://cdn.pixabay.com/photo/2017/01/27/23/39/bulldog-2014450_640.jpg",
        "src1280": "https://cdn.pixabay.com/photo/2017/01/27/23/39/bulldog-2014450_1280.jpg"
    },
    {
        "id": "8331719",
        "src640": "https://cdn.pixabay.com/photo/2023/10/21/15/58/ai-generated-8331719_640.jpg",
        "src1280": "https://cdn.pixabay.com/photo/2023/10/21/15/58/ai-generated-8331719_1280.jpg"
    },
    {
        "id": "7939059",
        "src640": "https://cdn.pixabay.com/photo/2023/04/20/06/28/golden-retriever-7939059_640.jpg",
        "src1280": "https://cdn.pixabay.com/photo/2023/04/20/06/28/golden-retriever-7939059_1280.jpg"
    },
    {
        "id": "5167931",
        "src640": "https://cdn.pixabay.com/photo/2020/05/13/15/43/corgi-5167931_640.jpg",
        "src1280": "https://cdn.pixabay.com/photo/2020/05/13/15/43/corgi-5167931_1280.jpg"
    },
    {
        "id": "8342962",
        "src640": "https://cdn.pixabay.com/photo/2023/10/26/15/33/dog-training-8342962_640.jpg",
        "src1280": "https://cdn.pixabay.com/photo/2023/10/26/15/33/dog-training-8342962_1280.jpg"
    },
    {
        "id": "6905516",
        "src640": "https://cdn.pixabay.com/photo/2021/12/31/11/10/border-collie-6905516_640.jpg",
        "src1280": "https://cdn.pixabay.com/photo/2021/12/31/11/10/border-collie-6905516_1280.jpg"
    },
    {
        "id": "732000",
        "src640": "https://cdn.pixabay.com/photo/2015/04/20/18/54/dog-732000_640.jpg",
        "src1280": "https://cdn.pixabay.com/photo/2015/04/20/18/54/dog-732000_1280.jpg"
    },
    {
        "id": "7368062",
        "src640": "https://cdn.pixabay.com/photo/2022/08/06/07/19/dog-7368062_640.jpg",
        "src1280": "https://cdn.pixabay.com/photo/2022/08/06/07/19/dog-7368062_1280.jpg"
    },
    {
        "id": "4012682",
        "src640": "https://cdn.pixabay.com/photo/2019/02/22/01/55/german-shepherd-4012682_640.jpg",
        "src1280": "https://cdn.pixabay.com/photo/2019/02/22/01/55/german-shepherd-4012682_1280.jpg"
    },
    {
        "id": "6025749",
        "src640": "https://cdn.pixabay.com/photo/2021/02/18/01/05/sheepdog-6025749_640.jpg",
        "src1280": "https://cdn.pixabay.com/photo/2021/02/18/01/05/sheepdog-6025749_1280.jpg"
    },
    {
        "id": "7433155",
        "src640": "https://cdn.pixabay.com/photo/2022/09/05/03/12/dog-7433155_640.jpg",
        "src1280": "https://cdn.pixabay.com/photo/2022/09/05/03/12/dog-7433155_1280.jpg"
    },
    {
        "id": "8014409",
        "src640": "https://cdn.pixabay.com/photo/2023/05/24/08/40/cocker-spaniel-8014409_640.jpg",
        "src1280": "https://cdn.pixabay.com/photo/2023/05/24/08/40/cocker-spaniel-8014409_1280.jpg"
    },
    {
        "id": "6056274",
        "src640": "https://cdn.pixabay.com/photo/2021/02/28/03/01/veterinarian-6056274_640.jpg",
        "src1280": "https://cdn.pixabay.com/photo/2021/02/28/03/01/veterinarian-6056274_1280.jpg"
    },
    {
        "id": "471347",
        "src640": "https://cdn.pixabay.com/photo/2014/10/03/11/19/golden-retriever-471347_640.jpg",
        "src1280": "https://cdn.pixabay.com/photo/2014/10/03/11/19/golden-retriever-471347_1280.jpg"
    },
    {
        "id": "8189764",
        "src640": "https://cdn.pixabay.com/photo/2023/08/14/11/54/animal-8189764_640.jpg",
        "src1280": "https://cdn.pixabay.com/photo/2023/08/14/11/54/animal-8189764_1280.jpg"
    },
    {
        "id": "7133300",
        "src640": "https://cdn.pixabay.com/photo/2022/04/14/22/00/puppy-7133300_640.jpg",
        "src1280": "https://cdn.pixabay.com/photo/2022/04/14/22/00/puppy-7133300_1280.jpg"
    },
    {
        "id": "3184767",
        "src640": "https://cdn.pixabay.com/photo/2018/02/27/05/53/dog-3184767_640.jpg",
        "src1280": "https://cdn.pixabay.com/photo/2018/02/27/05/53/dog-3184767_1280.jpg"
    },
    {
        "id": "1919136",
        "src640": "https://cdn.pixabay.com/photo/2016/12/19/21/35/hundepo-1919136_640.jpg",
        "src1280": "https://cdn.pixabay.com/photo/2016/12/19/21/35/hundepo-1919136_1280.jpg"
    },
    {
        "id": "8168155",
        "src640": "https://cdn.pixabay.com/photo/2023/08/03/23/45/ai-generated-8168155_640.jpg",
        "src1280": "https://cdn.pixabay.com/photo/2023/08/03/23/45/ai-generated-8168155_1280.jpg"
    },
    {
        "id": "666857",
        "src640": "https://cdn.pixabay.com/photo/2015/03/10/07/46/lion-666857_640.jpg",
        "src1280": "https://cdn.pixabay.com/photo/2015/03/10/07/46/lion-666857_1280.jpg"
    },
    {
        "id": "4955886",
        "src640": "https://cdn.pixabay.com/photo/2020/03/22/05/30/dog-4955886_640.jpg",
        "src1280": "https://cdn.pixabay.com/photo/2020/03/22/05/30/dog-4955886_1280.jpg"
    },
    {
        "id": "8168191",
        "src640": "https://cdn.pixabay.com/photo/2023/08/04/00/00/ai-generated-8168191_640.jpg",
        "src1280": "https://cdn.pixabay.com/photo/2023/08/04/00/00/ai-generated-8168191_1280.jpg"
    },
    {
        "id": "1083900",
        "src640": "https://cdn.pixabay.com/photo/2015/12/08/22/40/face-1083900_640.jpg",
        "src1280": "https://cdn.pixabay.com/photo/2015/12/08/22/40/face-1083900_1280.jpg"
    },
    {
        "id": "410954",
        "src640": "https://cdn.pixabay.com/photo/2014/08/05/20/18/dog-410954_640.jpg",
        "src1280": "https://cdn.pixabay.com/photo/2014/08/05/20/18/dog-410954_1280.jpg"
    },
    {
        "id": "4876632",
        "src640": "https://cdn.pixabay.com/photo/2020/02/24/15/53/dog-4876632_640.jpg",
        "src1280": "https://cdn.pixabay.com/photo/2020/02/24/15/53/dog-4876632_1280.jpg"
    },
    {
        "id": "549160",
        "src640": "https://cdn.pixabay.com/photo/2014/11/28/19/59/rose-549160_640.jpg",
        "src1280": "https://cdn.pixabay.com/photo/2014/11/28/19/59/rose-549160_1280.jpg"
    },
    {
        "id": "8061537",
        "src640": "https://cdn.pixabay.com/photo/2023/06/13/18/19/dog-8061537_640.jpg",
        "src1280": "https://cdn.pixabay.com/photo/2023/06/13/18/19/dog-8061537_1280.jpg"
    },
    {
        "id": "4298592",
        "src640": "https://cdn.pixabay.com/photo/2019/06/25/17/22/white-dog-4298592_640.jpg",
        "src1280": "https://cdn.pixabay.com/photo/2019/06/25/17/22/white-dog-4298592_1280.jpg"
    },
    {
        "id": "956677",
        "src640": "https://cdn.pixabay.com/photo/2015/09/25/04/24/japanese-chin-956677_640.jpg",
        "src1280": "https://cdn.pixabay.com/photo/2015/09/25/04/24/japanese-chin-956677_1280.jpg"
    },
    {
        "id": "8371527",
        "src640": "https://cdn.pixabay.com/photo/2023/11/07/09/18/ai-generated-8371527_640.jpg",
        "src1280": "https://cdn.pixabay.com/photo/2023/11/07/09/18/ai-generated-8371527_1280.jpg"
    },
    {
        "id": "842252",
        "src640": "https://cdn.pixabay.com/photo/2015/07/12/18/15/huskies-842252_640.jpg",
        "src1280": "https://cdn.pixabay.com/photo/2015/07/12/18/15/huskies-842252_1280.jpg"
    },
    {
        "id": "453000",
        "src640": "https://cdn.pixabay.com/photo/2014/09/19/20/27/poodle-453000_640.jpg",
        "src1280": "https://cdn.pixabay.com/photo/2014/09/19/20/27/poodle-453000_1280.jpg"
    },
    {
        "id": "1343079",
        "src640": "https://cdn.pixabay.com/photo/2016/04/21/10/59/cute-1343079_640.jpg",
        "src1280": "https://cdn.pixabay.com/photo/2016/04/21/10/59/cute-1343079_1280.jpg"
    },
    {
        "id": "7617751",
        "src640": "https://cdn.pixabay.com/photo/2022/11/26/12/11/pyrenees-7617751_640.jpg",
        "src1280": "https://cdn.pixabay.com/photo/2022/11/26/12/11/pyrenees-7617751_1280.jpg"
    },
    {
        "id": "6987374",
        "src640": "https://cdn.pixabay.com/photo/2022/02/02/01/59/dog-6987374_640.jpg",
        "src1280": "https://cdn.pixabay.com/photo/2022/02/02/01/59/dog-6987374_1280.jpg"
    },
    {
        "id": "1394406",
        "src640": "https://cdn.pixabay.com/photo/2016/05/15/21/00/king-charles-cavalier-spaniel-1394406_640.jpg",
        "src1280": "https://cdn.pixabay.com/photo/2016/05/15/21/00/king-charles-cavalier-spaniel-1394406_1280.jpg"
    }
]