[
    {
        "id": "115336",
        "src640": "https://cdn.pixabay.com/photo/2013/06/01/02/51/chard-115336_640.jpg",
        "src1280": "https://cdn.pixabay.com/photo/2013/06/01/02/51/chard-115336_1280.jpg"
    },
    {
        "id": "6414252",
        "src640": "https://cdn.pixabay.com/photo/2021/07/12/17/58/flower-6414252_640.jpg",
        "src1280": "https://cdn.pixabay.com/photo/2021/07/12/17/58/flower-6414252_1280.jpg"
    },
    {
        "id": "2388520",
        "src640": "https://cdn.pixabay.com/photo/2017/06/09/23/03/leaf-2388520_640.jpg",
        "src1280": "https://cdn.pixabay.com/photo/2017/06/09/23/03/leaf-2388520_1280.jpg"
    },
    {
        "id": "5125497",
        "src640": "https://cdn.pixabay.com/photo/2020/05/03/15/33/flower-5125497_640.jpg",
        "src1280": "https://cdn.pixabay.com/photo/2020/05/03/15/33/flower-5125497_1280.jpg"
    },
    {
        "id": "7128298",
        "src640": "https://cdn.pixabay.com/photo/2022/04/12/16/15/wisteria-7128298_640.jpg",
        "src1280": "https://cdn.pixabay.com/photo/2022/04/12/16/15/wisteria-7128298_1280.jpg"
    },
    {
        "id": "6568826",
        "src640": "https://cdn.pixabay.com/photo/2021/08/23/20/58/sunflower-6568826_640.jpg",
        "src1280": "https://cdn.pixabay.com/photo/2021/08/23/20/58/sunflower-6568826_1280.jpg"
    },
    {
        "id": "7893687",
        "src640": "https://cdn.pixabay.com/photo/2023/04/02/05/42/flowers-7893687_640.jpg",
        "src1280": "https://cdn.pixabay.com/photo/2023/04/02/05/42/flowers-7893687_1280.jpg"
    },
    {
        "id": "7468110",
        "src640": "https://cdn.pixabay.com/photo/2022/09/20/15/06/monstera-7468110_640.jpg",
        "src1280": "https://cdn.pixabay.com/photo/2022/09/20/15/06/monstera-7468110_1280.jpg"
    },
    {
        "id": "167885",
        "src640": "https://cdn.pixabay.com/photo/2013/07/26/17/21/antirrhinum-majus-167885_640.jpg",
        "src1280": "https://cdn.pixabay.com/photo/2013/07/26/17/21/antirrhinum-majus-167885_1280.jpg"
    },
    {
        "id": "6816211",
        "src640": "https://cdn.pixabay.com/photo/2021/11/22/09/13/plant-6816211_640.jpg",
        "src1280": "https://cdn.pixabay.com/photo/2021/11/22/09/13/plant-6816211_1280.jpg"
    },
    {
        "id": "5018605",
        "src640": "https://cdn.pixabay.com/photo/2020/04/08/19/05/plant-5018605_640.jpg",
        "src1280": "https://cdn.pixabay.com/photo/2020/04/08/19/05/plant-5018605_1280.jpg"
    },
    {
        "id": "1004284",
        "src640": "https://cdn.pixabay.com/photo/2015/10/24/11/38/plant-1004284_640.jpg",
        "src1280": "https://cdn.pixabay.com/photo/2015/10/24/11/38/plant-1004284_1280.jpg"
    },
    {
        "id": "223052",
        "src640": "https://cdn.pixabay.com/photo/2013/12/03/14/52/white-fuzzy-groundsel-223052_640.jpg",
        "src1280": "https://cdn.pixabay.com/photo/2013/12/03/14/52/white-fuzzy-groundsel-223052_1280.jpg"
    },
    {
        "id": "4050672",
        "src640": "https://cdn.pixabay.com/photo/2019/03/12/12/35/flowers-4050672_640.jpg",
        "src1280": "https://cdn.pixabay.com/photo/2019/03/12/12/35/flowers-4050672_1280.jpg"
    },
    {
        "id": "4261700",
        "src640": "https://cdn.pixabay.com/photo/2019/06/09/09/18/poppy-4261700_640.jpg",
        "src1280": "https://cdn.pixabay.com/photo/2019/06/09/09/18/poppy-4261700_1280.jpg"
    },
    {
        "id": "5357457",
        "src640": "https://cdn.pixabay.com/photo/2020/06/30/19/51/nature-5357457_640.jpg",
        "src1280": "https://cdn.pixabay.com/photo/2020/06/30/19/51/nature-5357457_1280.jpg"
    },
    {
        "id": "4170515",
        "src640": "https://cdn.pixabay.com/photo/2019/05/01/10/53/lily-of-the-valley-4170515_640.jpg",
        "src1280": "https://cdn.pixabay.com/photo/2019/05/01/10/53/lily-of-the-valley-4170515_1280.jpg"
    },
    {
        "id": "3728944",
        "src640": "https://cdn.pixabay.com/photo/2018/10/06/23/15/reflection-3728944_640.jpg",
        "src1280": "https://cdn.pixabay.com/photo/2018/10/06/23/15/reflection-3728944_1280.jpg"
    },
    {
        "id": "4045917",
        "src640": "https://cdn.pixabay.com/photo/2019/03/10/11/02/tulip-4045917_640.jpg",
        "src1280": "https://cdn.pixabay.com/photo/2019/03/10/11/02/tulip-4045917_1280.jpg"
    },
    {
        "id": "1734500",
        "src640": "https://cdn.pixabay.com/photo/2016/10/12/13/35/lavender-flower-1734500_640.jpg",
        "src1280": "https://cdn.pixabay.com/photo/2016/10/12/13/35/lavender-flower-1734500_1280.jpg"
    },
    {
        "id": "4623282",
        "src640": "https://cdn.pixabay.com/photo/2019/11/13/11/08/stinging-nettle-4623282_640.jpg",
        "src1280": "https://cdn.pixabay.com/photo/2019/11/13/11/08/stinging-nettle-4623282_1280.jpg"
    },
    {
        "id": "7227650",
        "src640": "https://cdn.pixabay.com/photo/2022/05/28/16/36/woman-7227650_640.jpg",
        "src1280": "https://cdn.pixabay.com/photo/2022/05/28/16/36/woman-7227650_1280.jpg"
    },
    {
        "id": "6311559",
        "src640": "https://cdn.pixabay.com/photo/2021/06/05/05/36/lotus-6311559_640.jpg",
        "src1280": "https://cdn.pixabay.com/photo/2021/06/05/05/36/lotus-6311559_1280.jpg"
    },
    {
        "id": "2635453",
        "src640": "https://cdn.pixabay.com/photo/2017/08/12/21/41/flower-2635453_640.jpg",
        "src1280": "https://cdn.pixabay.com/photo/2017/08/12/21/41/flower-2635453_1280.jpg"
    },
    {
        "id": "4875463",
        "src640": "https://cdn.pixabay.com/photo/2020/02/24/07/50/flower-4875463_640.jpg",
        "src1280": "https://cdn.pixabay.com/photo/2020/02/24/07/50/flower-4875463_1280.jpg"
    },
    {
        "id": "8309142",
        "src640": "https://cdn.pixabay.com/photo/2023/10/11/17/34/crocus-8309142_640.jpg",
        "src1280": "https://cdn.pixabay.com/photo/2023/10/11/17/34/crocus-8309142_1280.jpg"
    },
    {
        "id": "3530646",
        "src640": "https://cdn.pixabay.com/photo/2018/07/11/09/37/phlox-3530646_640.jpg",
        "src1280": "https://cdn.pixabay.com/photo/2018/07/11/09/37/phlox-3530646_1280.jpg"
    },
    {
        "id": "6202884",
        "src640": "https://cdn.pixabay.com/photo/2021/04/23/23/16/lotus-6202884_640.jpg",
        "src1280": "https://cdn.pixabay.com/photo/2021/04/23/23/16/lotus-6202884_1280.jpg"
    },
    {
        "id": "8236105",
        "src640": "https://cdn.pixabay.com/photo/2023/09/06/02/18/ai-generated-8236105_640.jpg",
        "src1280": "https://cdn.pixabay.com/photo/2023/09/06/02/18/ai-generated-8236105_1280.jpg"
    },
    {
        "id": "6270767",
        "src640": "https://cdn.pixabay.com/photo/2021/05/21/10/25/lotus-6270767_640.jpg",
        "src1280": "https://cdn.pixabay.com/photo/2021/05/21/10/25/lotus-6270767_1280.jpg"
    },
    {
        "id": "5092179",
        "src640": "https://cdn.pixabay.com/photo/2020/04/25/18/55/succulent-5092179_640.jpg",
        "src1280": "https://cdn.pixabay.com/photo/2020/04/25/18/55/succulent-5092179_1280.jpg"
    },
    {
        "id": "1367911",
        "src640": "https://cdn.pixabay.com/photo/2016/05/02/19/23/flower-1367911_640.jpg",
        "src1280": "https://cdn.pixabay.com/photo/2016/05/02/19/23/flower-1367911_1280.jpg"
    },
    {
        "id": "4953493",
        "src640": "https://cdn.pixabay.com/photo/2020/03/21/11/22/plum-4953493_640.jpg",
        "src1280": "https://cdn.pixabay.com/photo/2020/03/21/11/22/plum-4953493_1280.jpg"
    },
    {
        "id": "7242815",
        "src640": "https://cdn.pixabay.com/photo/2022/06/04/20/48/rose-7242815_640.jpg",
        "src1280": "https://cdn.pixabay.com/photo/2022/06/04/20/48/rose-7242815_1280.jpg"
    },
    {
        "id": "4816799",
        "src640": "https://cdn.pixabay.com/photo/2020/02/03/22/03/lycaena-phlaeas-4816799_640.jpg",
        "src1280": "https://cdn.pixabay.com/photo/2020/02/03/22/03/lycaena-phlaeas-4816799_1280.jpg"
    },
    {
        "id": "6590339",
        "src640": "https://cdn.pixabay.com/photo/2021/09/01/01/26/flower-6590339_640.jpg",
        "src1280": "https://cdn.pixabay.com/photo/2021/09/01/01/26/flower-6590339_1280.jpg"
    },
    {
        "id": "2072250",
        "src640": "https://cdn.pixabay.com/photo/2017/02/16/19/46/daisy-2072250_640.jpg",
        "src1280": "https://cdn.pixabay.com/photo/2017/02/16/19/46/daisy-2072250_1280.jpg"
    },
    {
        "id": "3163427",
        "src640": "https://cdn.pixabay.com/photo/2018/02/18/20/25/flower-3163427_640.jpg",
        "src1280": "https://cdn.pixabay.com/photo/2018/02/18/20/25/flower-3163427_1280.jpg"
    },
    {
        "id": "3233438",
        "src640": "https://cdn.pixabay.com/photo/2018/03/17/09/05/wheat-3233438_640.jpg",
        "src1280": "https://cdn.pixabay.com/photo/2018/03/17/09/05/wheat-3233438_1280.jpg"
    },
    {
        "id": "7963446",
        "src640": "https://cdn.pixabay.com/photo/2023/05/01/17/00/monstera-7963446_640.jpg",
        "src1280": "https://cdn.pixabay.com/photo/2023/05/01/17/00/monstera-7963446_1280.jpg"
    },
    {
        "id": "6620632",
        "src640": "https://cdn.pixabay.com/photo/2021/09/13/08/24/flower-6620632_640.jpg",
        "src1280": "https://cdn.pixabay.com/photo/2021/09/13/08/24/flower-6620632_1280.jpg"
    },
    {
        "id": "123495",
        "src640": "https://cdn.pixabay.com/photo/2013/06/08/22/55/mammoth-sheet-123495_640.jpg",
        "src1280": "https://cdn.pixabay.com/photo/2013/06/08/22/55/mammoth-sheet-123495_1280.jpg"
    },
    {
        "id": "4701957",
        "src640": "https://cdn.pixabay.com/photo/2019/12/17/16/17/purple-4701957_640.jpg",
        "src1280": "https://cdn.pixabay.com/photo/2019/12/17/16/17/purple-4701957_1280.jpg"
    },
    {
        "id": "3568685",
        "src640": "https://cdn.pixabay.com/photo/2018/07/28/18/21/flower-3568685_640.jpg",
        "src1280": "https://cdn.pixabay.com/photo/2018/07/28/18/21/flower-3568685_1280.jpg"
    },
    {
        "id": "5076194",
        "src640": "https://cdn.pixabay.com/photo/2020/04/22/06/35/fern-5076194_640.jpg",
        "src1280": "https://cdn.pixabay.com/photo/2020/04/22/06/35/fern-5076194_1280.jpg"
    },
    {
        "id": "3184752",
        "src640": "https://cdn.pixabay.com/photo/2018/02/27/05/32/nature-3184752_640.jpg",
        "src1280": "https://cdn.pixabay.com/photo/2018/02/27/05/32/nature-3184752_1280.jpg"
    },
    {
        "id": "7863050",
        "src640": "https://cdn.pixabay.com/photo/2023/03/19/17/45/flower-7863050_640.jpg",
        "src1280": "https://cdn.pixabay.com/photo/2023/03/19/17/45/flower-7863050_1280.jpg"
    },
    {
        "id": "5377500",
        "src640": "https://cdn.pixabay.com/photo/2020/07/06/16/25/flower-5377500_640.jpg",
        "src1280": "https://cdn.pixabay.com/photo/2020/07/06/16/25/flower-5377500_1280.jpg"
    },
    {
        "id": "115306",
        "src640": "https://cdn.pixabay.com/photo/2013/06/01/02/12/prunus-laurocerasus-115306_640.jpg",
        "src1280": "https://cdn.pixabay.com/photo/2013/06/01/02/12/prunus-laurocerasus-115306_1280.jpg"
    },
    {
        "id": "7896391",
        "src640": "https://cdn.pixabay.com/photo/2023/04/03/09/27/flowers-7896391_640.jpg",
        "src1280": "https://cdn.pixabay.com/photo/2023/04/03/09/27/flowers-7896391_1280.jpg"
    },
    {
        "id": "6358368",
        "src640": "https://cdn.pixabay.com/photo/2021/06/23/10/40/cone-and-6358368_640.jpg",
        "src1280": "https://cdn.pixabay.com/photo/2021/06/23/10/40/cone-and-6358368_1280.jpg"
    },
    {
        "id": "6404565",
        "src640": "https://cdn.pixabay.com/photo/2021/07/11/18/19/canna-lilies-6404565_640.jpg",
        "src1280": "https://cdn.pixabay.com/photo/2021/07/11/18/19/canna-lilies-6404565_1280.jpg"
    },
    {
        "id": "7252914",
        "src640": "https://cdn.pixabay.com/photo/2022/06/09/16/44/flower-7252914_640.jpg",
        "src1280": "https://cdn.pixabay.com/photo/2022/06/09/16/44/flower-7252914_1280.jpg"
    },
    {
        "id": "2777337",
        "src640": "https://cdn.pixabay.com/photo/2017/09/22/22/28/green-2777337_640.jpg",
        "src1280": "https://cdn.pixabay.com/photo/2017/09/22/22/28/green-2777337_1280.jpg"
    },
    {
        "id": "3314325",
        "src640": "https://cdn.pixabay.com/photo/2018/04/12/18/22/nature-3314325_640.jpg",
        "src1280": "https://cdn.pixabay.com/photo/2018/04/12/18/22/nature-3314325_1280.jpg"
    },
    {
        "id": "19091",
        "src640": "https://cdn.pixabay.com/photo/2012/02/29/15/41/autumn-19091_640.jpg",
        "src1280": "https://cdn.pixabay.com/photo/2012/02/29/15/41/autumn-19091_1280.jpg"
    },
    {
        "id": "3356211",
        "src640": "https://cdn.pixabay.com/photo/2018/04/27/23/34/flowers-3356211_640.jpg",
        "src1280": "https://cdn.pixabay.com/photo/2018/04/27/23/34/flowers-3356211_1280.jpg"
    },
    {
        "id": "376302",
        "src640": "https://cdn.pixabay.com/photo/2014/06/24/12/05/rose-376302_640.jpg",
        "src1280": "https://cdn.pixabay.com/photo/2014/06/24/12/05/rose-376302_1280.jpg"
    },
    {
        "id": "6593185",
        "src640": "https://cdn.pixabay.com/photo/2021/09/02/10/48/tulips-6593185_640.jpg",
        "src1280": "https://cdn.pixabay.com/photo/2021/09/02/10/48/tulips-6593185_1280.jpg"
    },
    {
        "id": "6333491",
        "src640": "https://cdn.pixabay.com/photo/2021/06/13/14/29/lotus-flower-6333491_640.jpg",
        "src1280": "https://cdn.pixabay.com/photo/2021/06/13/14/29/lotus-flower-6333491_1280.jpg"
    },
    {
        "id": "7531560",
        "src640": "https://cdn.pixabay.com/photo/2022/10/19/04/30/plant-7531560_640.jpg",
        "src1280": "https://cdn.pixabay.com/photo/2022/10/19/04/30/plant-7531560_1280.jpg"
    },
    {
        "id": "7876894",
        "src640": "https://cdn.pixabay.com/photo/2023/03/25/21/01/flowers-7876894_640.jpg",
        "src1280": "https://cdn.pixabay.com/photo/2023/03/25/21/01/flowers-7876894_1280.jpg"
    },
    {
        "id": "3166526",
        "src640": "https://cdn.pixabay.com/photo/2018/02/19/23/16/nature-3166526_640.jpg",
        "src1280": "https://cdn.pixabay.com/photo/2018/02/19/23/16/nature-3166526_1280.jpg"
    },
    {
        "id": "3316685",
        "src640": "https://cdn.pixabay.com/photo/2018/04/13/14/58/bullrush-3316685_640.jpg",
        "src1280": "https://cdn.pixabay.com/photo/2018/04/13/14/58/bullrush-3316685_1280.jpg"
    },
    {
        "id": "3369748",
        "src640": "https://cdn.pixabay.com/photo/2018/05/02/21/31/flower-3369748_640.jpg",
        "src1280": "https://cdn.pixabay.com/photo/2018/05/02/21/31/flower-3369748_1280.jpg"
    },
    {
        "id": "4600851",
        "src640": "https://cdn.pixabay.com/photo/2019/11/04/11/13/firethorn-4600851_640.jpg",
        "src1280": "https://cdn.pixabay.com/photo/2019/11/04/11/13/firethorn-4600851_1280.jpg"
    },
    {
        "id": "6483475",
        "src640": "https://cdn.pixabay.com/photo/2021/07/21/16/50/cushion-phlox-6483475_640.jpg",
        "src1280": "https://cdn.pixabay.com/photo/2021/07/21/16/50/cushion-phlox-6483475_1280.jpg"
    },
    {
        "id": "3251593",
        "src640": "https://cdn.pixabay.com/photo/2018/03/22/19/28/tulips-3251593_640.jpg",
        "src1280": "https://cdn.pixabay.com/photo/2018/03/22/19/28/tulips-3251593_1280.jpg"
    },
    {
        "id": "3736997",
        "src640": "https://cdn.pixabay.com/photo/2018/10/10/11/22/branch-3736997_640.jpg",
        "src1280": "https://cdn.pixabay.com/photo/2018/10/10/11/22/branch-3736997_1280.jpg"
    },
    {
        "id": "5351196",
        "src640": "https://cdn.pixabay.com/photo/2020/06/29/03/13/raindrops-5351196_640.jpg",
        "src1280": "https://cdn.pixabay.com/photo/2020/06/29/03/13/raindrops-5351196_1280.jpg"
    },
    {
        "id": "3358446",
        "src640": "https://cdn.pixabay.com/photo/2018/04/28/21/58/natural-3358446_640.jpg",
        "src1280": "https://cdn.pixabay.com/photo/2018/04/28/21/58/natural-3358446_1280.jpg"
    },
    {
        "id": "3918397",
        "src640": "https://cdn.pixabay.com/photo/2019/01/07/03/24/flower-3918397_640.jpg",
        "src1280": "https://cdn.pixabay.com/photo/2019/01/07/03/24/flower-3918397_1280.jpg"
    },
    {
        "id": "5880990",
        "src640": "https://cdn.pixabay.com/photo/2021/01/02/09/28/smoke-5880990_640.jpg",
        "src1280": "https://cdn.pixabay.com/photo/2021/01/02/09/28/smoke-5880990_1280.jpg"
    },
    {
        "id": "8139526",
        "src640": "https://cdn.pixabay.com/photo/2023/07/20/14/44/fuchsia-8139526_640.jpg",
        "src1280": "https://cdn.pixabay.com/photo/2023/07/20/14/44/fuchsia-8139526_1280.jpg"
    },
    {
        "id": "4067935",
        "src640": "https://cdn.pixabay.com/photo/2019/03/20/08/15/flowers-4067935_640.jpg",
        "src1280": "https://cdn.pixabay.com/photo/2019/03/20/08/15/flowers-4067935_1280.jpg"
    },
    {
        "id": "167881",
        "src640": "https://cdn.pixabay.com/photo/2013/07/26/17/18/antirrhinum-majus-167881_640.jpg",
        "src1280": "https://cdn.pixabay.com/photo/2013/07/26/17/18/antirrhinum-majus-167881_1280.jpg"
    },
    {
        "id": "6540953",
        "src640": "https://cdn.pixabay.com/photo/2021/08/12/13/51/dahlia-6540953_640.jpg",
        "src1280": "https://cdn.pixabay.com/photo/2021/08/12/13/51/dahlia-6540953_1280.jpg"
    },
    {
        "id": "6202881",
        "src640": "https://cdn.pixabay.com/photo/2021/04/23/23/15/lotus-6202881_640.jpg",
        "src1280": "https://cdn.pixabay.com/photo/2021/04/23/23/15/lotus-6202881_1280.jpg"
    },
    {
        "id": "7739843",
        "src640": "https://cdn.pixabay.com/photo/2023/01/23/22/13/flower-7739843_640.jpg",
        "src1280": "https://cdn.pixabay.com/photo/2023/01/23/22/13/flower-7739843_1280.jpg"
    },
    {
        "id": "7747155",
        "src640": "https://cdn.pixabay.com/photo/2023/01/26/22/14/ai-generated-7747155_640.jpg",
        "src1280": "https://cdn.pixabay.com/photo/2023/01/26/22/14/ai-generated-7747155_1280.jpg"
    },
    {
        "id": "919885",
        "src640": "https://cdn.pixabay.com/photo/2015/09/03/00/07/bamboo-919885_640.jpg",
        "src1280": "https://cdn.pixabay.com/photo/2015/09/03/00/07/bamboo-919885_1280.jpg"
    },
    {
        "id": "167756",
        "src640": "https://cdn.pixabay.com/photo/2013/07/26/16/14/lavender-167756_640.jpg",
        "src1280": "https://cdn.pixabay.com/photo/2013/07/26/16/14/lavender-167756_1280.jpg"
    },
    {
        "id": "324196",
        "src640": "https://cdn.pixabay.com/photo/2014/04/14/20/25/summer-magnolia-324196_640.jpg",
        "src1280": "https://cdn.pixabay.com/photo/2014/04/14/20/25/summer-magnolia-324196_1280.jpg"
    },
    {
        "id": "6358021",
        "src640": "https://cdn.pixabay.com/photo/2021/06/23/08/25/lotuses-6358021_640.jpg",
        "src1280": "https://cdn.pixabay.com/photo/2021/06/23/08/25/lotuses-6358021_1280.jpg"
    },
    {
        "id": "8390544",
        "src640": "https://cdn.pixabay.com/photo/2023/11/15/17/05/ai-generated-8390544_640.jpg",
        "src1280": "https://cdn.pixabay.com/photo/2023/11/15/17/05/ai-generated-8390544_1280.jpg"
    },
    {
        "id": "711550",
        "src640": "https://cdn.pixabay.com/photo/2015/04/07/18/55/monkshood-711550_640.jpg",
        "src1280": "https://cdn.pixabay.com/photo/2015/04/07/18/55/monkshood-711550_1280.jpg"
    },
    {
        "id": "3179841",
        "src640": "https://cdn.pixabay.com/photo/2018/02/25/06/57/flower-3179841_640.jpg",
        "src1280": "https://cdn.pixabay.com/photo/2018/02/25/06/57/flower-3179841_1280.jpg"
    },
    {
        "id": "4693698",
        "src640": "https://cdn.pixabay.com/photo/2019/12/13/19/21/flower-4693698_640.jpg",
        "src1280": "https://cdn.pixabay.com/photo/2019/12/13/19/21/flower-4693698_1280.jpg"
    },
    {
        "id": "3765019",
        "src640": "https://cdn.pixabay.com/photo/2018/10/22/10/58/flower-3765019_640.jpg",
        "src1280": "https://cdn.pixabay.com/photo/2018/10/22/10/58/flower-3765019_1280.jpg"
    },
    {
        "id": "1720599",
        "src640": "https://cdn.pixabay.com/photo/2016/10/07/02/53/lotus-1720599_640.jpg",
        "src1280": "https://cdn.pixabay.com/photo/2016/10/07/02/53/lotus-1720599_1280.jpg"
    },
    {
        "id": "6381144",
        "src640": "https://cdn.pixabay.com/photo/2021/07/02/07/16/lotus-6381144_640.jpg",
        "src1280": "https://cdn.pixabay.com/photo/2021/07/02/07/16/lotus-6381144_1280.jpg"
    },
    {
        "id": "3374945",
        "src640": "https://cdn.pixabay.com/photo/2018/05/04/20/40/thistle-3374945_640.jpg",
        "src1280": "https://cdn.pixabay.com/photo/2018/05/04/20/40/thistle-3374945_1280.jpg"
    },
    {
        "id": "3341522",
        "src640": "https://cdn.pixabay.com/photo/2018/04/22/16/27/flower-3341522_640.jpg",
        "src1280": "https://cdn.pixabay.com/photo/2018/04/22/16/27/flower-3341522_1280.jpg"
    },
    {
        "id": "6289489",
        "src640": "https://cdn.pixabay.com/photo/2021/05/28/00/28/lotus-6289489_640.jpg",
        "src1280": "https://cdn.pixabay.com/photo/2021/05/28/00/28/lotus-6289489_1280.jpg"
    },
    {
        "id": "278049",
        "src640": "https://cdn.pixabay.com/photo/2014/03/02/12/15/creeper-278049_640.jpg",
        "src1280": "https://cdn.pixabay.com/photo/2014/03/02/12/15/creeper-278049_1280.jpg"
    }
]