[
    {
        "id": "7268477",
        "src640": "https://cdn.pixabay.com/photo/2022/06/17/17/43/carnation-7268477_640.jpg",
        "src1280": "https://cdn.pixabay.com/photo/2022/06/17/17/43/carnation-7268477_1280.jpg"
    },
    {
        "id": "7715392",
        "src640": "https://cdn.pixabay.com/photo/2023/01/13/06/34/gerbera-7715392_640.jpg",
        "src1280": "https://cdn.pixabay.com/photo/2023/01/13/06/34/gerbera-7715392_1280.jpg"
    },
    {
        "id": "1936950",
        "src640": "https://cdn.pixabay.com/photo/2016/12/28/19/59/plant-1936950_640.jpg",
        "src1280": "https://cdn.pixabay.com/photo/2016/12/28/19/59/plant-1936950_1280.jpg"
    },
    {
        "id": "3453114",
        "src640": "https://cdn.pixabay.com/photo/2018/06/04/13/00/flowers-3453114_640.jpg",
        "src1280": "https://cdn.pixabay.com/photo/2018/06/04/13/00/flowers-3453114_1280.jpg"
    },
    {
        "id": "70641",
        "src640": "https://cdn.pixabay.com/photo/2012/12/18/18/02/daffodils-70641_640.jpg",
        "src1280": "https://cdn.pixabay.com/photo/2012/12/18/18/02/daffodils-70641_1280.jpg"
    },
    {
        "id": "8808",
        "src640": "https://cdn.pixabay.com/photo/2011/08/17/14/10/aerosol-8808_640.jpg",
        "src1280": "https://cdn.pixabay.com/photo/2011/08/17/14/10/aerosol-8808_1280.jpg"
    },
    {
        "id": "1062421",
        "src640": "https://cdn.pixabay.com/photo/2015/11/25/16/14/artichoke-1062421_640.jpg",
        "src1280": "https://cdn.pixabay.com/photo/2015/11/25/16/14/artichoke-1062421_1280.jpg"
    },
    {
        "id": "3396319",
        "src640": "https://cdn.pixabay.com/photo/2018/05/13/12/42/te-male-flowers-3396319_640.jpg",
        "src1280": "https://cdn.pixabay.com/photo/2018/05/13/12/42/te-male-flowers-3396319_1280.jpg"
    },
    {
        "id": "5401661",
        "src640": "https://cdn.pixabay.com/photo/2020/07/13/18/30/flower-5401661_640.jpg",
        "src1280": "https://cdn.pixabay.com/photo/2020/07/13/18/30/flower-5401661_1280.jpg"
    },
    {
        "id": "5898542",
        "src640": "https://cdn.pixabay.com/photo/2021/01/07/22/09/dandelion-5898542_640.jpg",
        "src1280": "https://cdn.pixabay.com/photo/2021/01/07/22/09/dandelion-5898542_1280.jpg"
    },
    {
        "id": "972285",
        "src640": "https://cdn.pixabay.com/photo/2015/10/05/08/04/cornfield-972285_640.jpg",
        "src1280": "https://cdn.pixabay.com/photo/2015/10/05/08/04/cornfield-972285_1280.jpg"
    },
    {
        "id": "7160443",
        "src640": "https://cdn.pixabay.com/photo/2022/04/27/14/22/flowers-7160443_640.jpg",
        "src1280": "https://cdn.pixabay.com/photo/2022/04/27/14/22/flowers-7160443_1280.jpg"
    },
    {
        "id": "555312",
        "src640": "https://cdn.pixabay.com/photo/2014/12/03/10/57/palm-tree-555312_640.jpg",
        "src1280": "https://cdn.pixabay.com/photo/2014/12/03/10/57/palm-tree-555312_1280.jpg"
    },
    {
        "id": "2557073",
        "src640": "https://cdn.pixabay.com/photo/2017/07/31/09/51/summer-2557073_640.jpg",
        "src1280": "https://cdn.pixabay.com/photo/2017/07/31/09/51/summer-2557073_1280.jpg"
    },
    {
        "id": "846464",
        "src640": "https://cdn.pixabay.com/photo/2015/07/15/16/18/lamium-maculatum-846464_640.jpg",
        "src1280": "https://cdn.pixabay.com/photo/2015/07/15/16/18/lamium-maculatum-846464_1280.jpg"
    },
    {
        "id": "4946705",
        "src640": "https://cdn.pixabay.com/photo/2020/03/19/08/18/weed-4946705_640.jpg",
        "src1280": "https://cdn.pixabay.com/photo/2020/03/19/08/18/weed-4946705_1280.jpg"
    },
    {
        "id": "1865190",
        "src640": "https://cdn.pixabay.com/photo/2016/11/28/14/39/plant-1865190_640.jpg",
        "src1280": "https://cdn.pixabay.com/photo/2016/11/28/14/39/plant-1865190_1280.jpg"
    },
    {
        "id": "7002259",
        "src640": "https://cdn.pixabay.com/photo/2022/02/08/22/38/flower-7002259_640.jpg",
        "src1280": "https://cdn.pixabay.com/photo/2022/02/08/22/38/flower-7002259_1280.jpg"
    },
    {
        "id": "7058814",
        "src640": "https://cdn.pixabay.com/photo/2022/03/09/23/20/flower-7058814_640.jpg",
        "src1280": "https://cdn.pixabay.com/photo/2022/03/09/23/20/flower-7058814_1280.jpg"
    },
    {
        "id": "324003",
        "src640": "https://cdn.pixabay.com/photo/2014/04/14/17/23/wald-violet-324003_640.jpg",
        "src1280": "https://cdn.pixabay.com/photo/2014/04/14/17/23/wald-violet-324003_1280.jpg"
    },
    {
        "id": "7230023",
        "src640": "https://cdn.pixabay.com/photo/2022/05/29/22/05/poppy-7230023_640.jpg",
        "src1280": "https://cdn.pixabay.com/photo/2022/05/29/22/05/poppy-7230023_1280.jpg"
    },
    {
        "id": "7255337",
        "src640": "https://cdn.pixabay.com/photo/2022/06/10/22/46/rose-7255337_640.jpg",
        "src1280": "https://cdn.pixabay.com/photo/2022/06/10/22/46/rose-7255337_1280.jpg"
    },
    {
        "id": "2976231",
        "src640": "https://cdn.pixabay.com/photo/2017/11/25/06/14/floral-2976231_640.jpg",
        "src1280": "https://cdn.pixabay.com/photo/2017/11/25/06/14/floral-2976231_1280.jpg"
    },
    {
        "id": "5393060",
        "src640": "https://cdn.pixabay.com/photo/2020/07/11/07/56/macro-5393060_640.jpg",
        "src1280": "https://cdn.pixabay.com/photo/2020/07/11/07/56/macro-5393060_1280.jpg"
    },
    {
        "id": "3629731",
        "src640": "https://cdn.pixabay.com/photo/2018/08/25/10/13/plant-3629731_640.jpg",
        "src1280": "https://cdn.pixabay.com/photo/2018/08/25/10/13/plant-3629731_1280.jpg"
    },
    {
        "id": "3794339",
        "src640": "https://cdn.pixabay.com/photo/2018/11/04/16/19/tree-3794339_640.jpg",
        "src1280": "https://cdn.pixabay.com/photo/2018/11/04/16/19/tree-3794339_1280.jpg"
    },
    {
        "id": "3352593",
        "src640": "https://cdn.pixabay.com/photo/2018/04/26/18/02/flower-3352593_640.jpg",
        "src1280": "https://cdn.pixabay.com/photo/2018/04/26/18/02/flower-3352593_1280.jpg"
    },
    {
        "id": "7715393",
        "src640": "https://cdn.pixabay.com/photo/2023/01/13/06/34/gerbera-7715393_640.jpg",
        "src1280": "https://cdn.pixabay.com/photo/2023/01/13/06/34/gerbera-7715393_1280.jpg"
    },
    {
        "id": "5240871",
        "src640": "https://cdn.pixabay.com/photo/2020/05/31/01/18/queen-annes-lace-5240871_640.jpg",
        "src1280": "https://cdn.pixabay.com/photo/2020/05/31/01/18/queen-annes-lace-5240871_1280.jpg"
    },
    {
        "id": "3070377",
        "src640": "https://cdn.pixabay.com/photo/2018/01/08/21/53/food-3070377_640.jpg",
        "src1280": "https://cdn.pixabay.com/photo/2018/01/08/21/53/food-3070377_1280.jpg"
    },
    {
        "id": "605302",
        "src640": "https://cdn.pixabay.com/photo/2015/01/20/09/17/gerbera-605302_640.jpg",
        "src1280": "https://cdn.pixabay.com/photo/2015/01/20/09/17/gerbera-605302_1280.jpg"
    },
    {
        "id": "2603260",
        "src640": "https://cdn.pixabay.com/photo/2017/08/07/12/22/leaf-2603260_640.jpg",
        "src1280": "https://cdn.pixabay.com/photo/2017/08/07/12/22/leaf-2603260_1280.jpg"
    },
    {
        "id": "2778086",
        "src640": "https://cdn.pixabay.com/photo/2017/09/23/08/27/monk-pepper-2778086_640.jpg",
        "src1280": "https://cdn.pixabay.com/photo/2017/09/23/08/27/monk-pepper-2778086_1280.jpg"
    },
    {
        "id": "5227518",
        "src640": "https://cdn.pixabay.com/photo/2020/05/27/14/57/cranesbill-5227518_640.jpg",
        "src1280": "https://cdn.pixabay.com/photo/2020/05/27/14/57/cranesbill-5227518_1280.jpg"
    },
    {
        "id": "1611544",
        "src640": "https://cdn.pixabay.com/photo/2016/08/22/09/35/stock-rose-1611544_640.jpg",
        "src1280": "https://cdn.pixabay.com/photo/2016/08/22/09/35/stock-rose-1611544_1280.jpg"
    },
    {
        "id": "4530010",
        "src640": "https://cdn.pixabay.com/photo/2019/10/06/11/50/cherry-blossom-4530010_640.jpg",
        "src1280": "https://cdn.pixabay.com/photo/2019/10/06/11/50/cherry-blossom-4530010_1280.jpg"
    },
    {
        "id": "5480994",
        "src640": "https://cdn.pixabay.com/photo/2020/08/11/19/42/burdock-5480994_640.jpg",
        "src1280": "https://cdn.pixabay.com/photo/2020/08/11/19/42/burdock-5480994_1280.jpg"
    },
    {
        "id": "4296322",
        "src640": "https://cdn.pixabay.com/photo/2019/06/24/15/38/rose-4296322_640.jpg",
        "src1280": "https://cdn.pixabay.com/photo/2019/06/24/15/38/rose-4296322_1280.jpg"
    },
    {
        "id": "3297716",
        "src640": "https://cdn.pixabay.com/photo/2018/04/07/04/51/nature-3297716_640.jpg",
        "src1280": "https://cdn.pixabay.com/photo/2018/04/07/04/51/nature-3297716_1280.jpg"
    },
    {
        "id": "392566",
        "src640": "https://cdn.pixabay.com/photo/2014/07/13/16/15/lily-392566_640.jpg",
        "src1280": "https://cdn.pixabay.com/photo/2014/07/13/16/15/lily-392566_1280.jpg"
    },
    {
        "id": "3331097",
        "src640": "https://cdn.pixabay.com/photo/2018/04/18/17/51/poplar-3331097_640.jpg",
        "src1280": "https://cdn.pixabay.com/photo/2018/04/18/17/51/poplar-3331097_1280.jpg"
    },
    {
        "id": "6798286",
        "src640": "https://cdn.pixabay.com/photo/2021/11/15/14/17/common-blue-butterfly-6798286_640.jpg",
        "src1280": "https://cdn.pixabay.com/photo/2021/11/15/14/17/common-blue-butterfly-6798286_1280.jpg"
    },
    {
        "id": "3297724",
        "src640": "https://cdn.pixabay.com/photo/2018/04/07/04/52/nature-3297724_640.jpg",
        "src1280": "https://cdn.pixabay.com/photo/2018/04/07/04/52/nature-3297724_1280.jpg"
    },
    {
        "id": "3344129",
        "src640": "https://cdn.pixabay.com/photo/2018/04/23/12/51/flower-3344129_640.jpg",
        "src1280": "https://cdn.pixabay.com/photo/2018/04/23/12/51/flower-3344129_1280.jpg"
    },
    {
        "id": "165012",
        "src640": "https://cdn.pixabay.com/photo/2013/07/18/20/26/tulip-165012_640.jpg",
        "src1280": "https://cdn.pixabay.com/photo/2013/07/18/20/26/tulip-165012_1280.jpg"
    },
    {
        "id": "4927513",
        "src640": "https://cdn.pixabay.com/photo/2020/03/13/10/13/park-4927513_640.jpg",
        "src1280": "https://cdn.pixabay.com/photo/2020/03/13/10/13/park-4927513_1280.jpg"
    },
    {
        "id": "5588210",
        "src640": "https://cdn.pixabay.com/photo/2020/09/20/20/10/flowers-5588210_640.jpg",
        "src1280": "https://cdn.pixabay.com/photo/2020/09/20/20/10/flowers-5588210_1280.jpg"
    },
    {
        "id": "3762801",
        "src640": "https://cdn.pixabay.com/photo/2018/10/21/12/23/pool-3762801_640.jpg",
        "src1280": "https://cdn.pixabay.com/photo/2018/10/21/12/23/pool-3762801_1280.jpg"
    },
    {
        "id": "2123381",
        "src640": "https://cdn.pixabay.com/photo/2017/03/07/08/04/flower-2123381_640.jpg",
        "src1280": "https://cdn.pixabay.com/photo/2017/03/07/08/04/flower-2123381_1280.jpg"
    },
    {
        "id": "6766892",
        "src640": "https://cdn.pixabay.com/photo/2021/11/03/21/30/flower-6766892_640.jpg",
        "src1280": "https://cdn.pixabay.com/photo/2021/11/03/21/30/flower-6766892_1280.jpg"
    },
    {
        "id": "3739019",
        "src640": "https://cdn.pixabay.com/photo/2018/10/11/06/42/basil-3739019_640.jpg",
        "src1280": "https://cdn.pixabay.com/photo/2018/10/11/06/42/basil-3739019_1280.jpg"
    },
    {
        "id": "4141635",
        "src640": "https://cdn.pixabay.com/photo/2019/04/20/11/57/spring-4141635_640.jpg",
        "src1280": "https://cdn.pixabay.com/photo/2019/04/20/11/57/spring-4141635_1280.jpg"
    },
    {
        "id": "8273329",
        "src640": "https://cdn.pixabay.com/photo/2023/09/24/16/15/flower-8273329_640.jpg",
        "src1280": "https://cdn.pixabay.com/photo/2023/09/24/16/15/flower-8273329_1280.jpg"
    },
    {
        "id": "5642151",
        "src640": "https://cdn.pixabay.com/photo/2020/10/10/06/30/plant-5642151_640.jpg",
        "src1280": "https://cdn.pixabay.com/photo/2020/10/10/06/30/plant-5642151_1280.jpg"
    },
    {
        "id": "7002381",
        "src640": "https://cdn.pixabay.com/photo/2022/02/08/23/49/flower-7002381_640.jpg",
        "src1280": "https://cdn.pixabay.com/photo/2022/02/08/23/49/flower-7002381_1280.jpg"
    },
    {
        "id": "348562",
        "src640": "https://cdn.pixabay.com/photo/2014/05/19/22/02/daisy-348562_640.jpg",
        "src1280": "https://cdn.pixabay.com/photo/2014/05/19/22/02/daisy-348562_1280.jpg"
    },
    {
        "id": "3151857",
        "src640": "https://cdn.pixabay.com/photo/2018/02/13/23/27/pointed-flower-3151857_640.jpg",
        "src1280": "https://cdn.pixabay.com/photo/2018/02/13/23/27/pointed-flower-3151857_1280.jpg"
    },
    {
        "id": "2062600",
        "src640": "https://cdn.pixabay.com/photo/2017/02/13/13/15/flower-2062600_640.jpg",
        "src1280": "https://cdn.pixabay.com/photo/2017/02/13/13/15/flower-2062600_1280.jpg"
    },
    {
        "id": "4056100",
        "src640": "https://cdn.pixabay.com/photo/2019/03/14/23/01/tulips-4056100_640.jpg",
        "src1280": "https://cdn.pixabay.com/photo/2019/03/14/23/01/tulips-4056100_1280.jpg"
    },
    {
        "id": "202429",
        "src640": "https://cdn.pixabay.com/photo/2013/10/29/15/50/tree-202429_640.jpg",
        "src1280": "https://cdn.pixabay.com/photo/2013/10/29/15/50/tree-202429_1280.jpg"
    },
    {
        "id": "7003208",
        "src640": "https://cdn.pixabay.com/photo/2022/02/09/11/41/flower-7003208_640.jpg",
        "src1280": "https://cdn.pixabay.com/photo/2022/02/09/11/41/flower-7003208_1280.jpg"
    },
    {
        "id": "3558166",
        "src640": "https://cdn.pixabay.com/photo/2018/07/23/23/55/lily-3558166_640.jpg",
        "src1280": "https://cdn.pixabay.com/photo/2018/07/23/23/55/lily-3558166_1280.jpg"
    },
    {
        "id": "5329027",
        "src640": "https://cdn.pixabay.com/photo/2020/06/22/12/34/iris-5329027_640.jpg",
        "src1280": "https://cdn.pixabay.com/photo/2020/06/22/12/34/iris-5329027_1280.jpg"
    },
    {
        "id": "3077285",
        "src640": "https://cdn.pixabay.com/photo/2018/01/12/00/07/needle-3077285_640.jpg",
        "src1280": "https://cdn.pixabay.com/photo/2018/01/12/00/07/needle-3077285_1280.jpg"
    },
    {
        "id": "1604483",
        "src640": "https://cdn.pixabay.com/photo/2016/08/19/03/37/florida-1604483_640.jpg",
        "src1280": "https://cdn.pixabay.com/photo/2016/08/19/03/37/florida-1604483_1280.jpg"
    },
    {
        "id": "3393147",
        "src640": "https://cdn.pixabay.com/photo/2018/05/12/12/10/grape-3393147_640.jpg",
        "src1280": "https://cdn.pixabay.com/photo/2018/05/12/12/10/grape-3393147_1280.jpg"
    },
    {
        "id": "4783830",
        "src640": "https://cdn.pixabay.com/photo/2020/01/21/19/48/lupine-4783830_640.jpg",
        "src1280": "https://cdn.pixabay.com/photo/2020/01/21/19/48/lupine-4783830_1280.jpg"
    },
    {
        "id": "7996716",
        "src640": "https://cdn.pixabay.com/photo/2023/05/16/07/09/dandelion-7996716_640.jpg",
        "src1280": "https://cdn.pixabay.com/photo/2023/05/16/07/09/dandelion-7996716_1280.jpg"
    },
    {
        "id": "4070196",
        "src640": "https://cdn.pixabay.com/photo/2019/03/21/03/48/cosmos-4070196_640.jpg",
        "src1280": "https://cdn.pixabay.com/photo/2019/03/21/03/48/cosmos-4070196_1280.jpg"
    },
    {
        "id": "709589",
        "src640": "https://cdn.pixabay.com/photo/2015/04/06/16/02/berry-red-709589_640.jpg",
        "src1280": "https://cdn.pixabay.com/photo/2015/04/06/16/02/berry-red-709589_1280.jpg"
    },
    {
        "id": "5306068",
        "src640": "https://cdn.pixabay.com/photo/2020/06/16/15/12/leaf-5306068_640.jpg",
        "src1280": "https://cdn.pixabay.com/photo/2020/06/16/15/12/leaf-5306068_1280.jpg"
    },
    {
        "id": "2099078",
        "src640": "https://cdn.pixabay.com/photo/2017/02/25/23/54/flower-2099078_640.jpg",
        "src1280": "https://cdn.pixabay.com/photo/2017/02/25/23/54/flower-2099078_1280.jpg"
    },
    {
        "id": "4084626",
        "src640": "https://cdn.pixabay.com/photo/2019/03/27/09/39/gerbera-4084626_640.jpg",
        "src1280": "https://cdn.pixabay.com/photo/2019/03/27/09/39/gerbera-4084626_1280.jpg"
    },
    {
        "id": "7011977",
        "src640": "https://cdn.pixabay.com/photo/2022/02/13/21/03/tulip-7011977_640.jpg",
        "src1280": "https://cdn.pixabay.com/photo/2022/02/13/21/03/tulip-7011977_1280.jpg"
    },
    {
        "id": "5192701",
        "src640": "https://cdn.pixabay.com/photo/2020/05/19/21/21/plant-5192701_640.jpg",
        "src1280": "https://cdn.pixabay.com/photo/2020/05/19/21/21/plant-5192701_1280.jpg"
    },
    {
        "id": "3532411",
        "src640": "https://cdn.pixabay.com/photo/2018/07/12/02/21/kite-3532411_640.jpg",
        "src1280": "https://cdn.pixabay.com/photo/2018/07/12/02/21/kite-3532411_1280.jpg"
    },
    {
        "id": "69200",
        "src640": "https://cdn.pixabay.com/photo/2012/12/10/12/00/statue-69200_640.jpg",
        "src1280": "https://cdn.pixabay.com/photo/2012/12/10/12/00/statue-69200_1280.jpg"
    },
    {
        "id": "3214563",
        "src640": "https://cdn.pixabay.com/photo/2018/03/10/17/08/blossom-3214563_640.jpg",
        "src1280": "https://cdn.pixabay.com/photo/2018/03/10/17/08/blossom-3214563_1280.jpg"
    },
    {
        "id": "7172293",
        "src640": "https://cdn.pixabay.com/photo/2022/05/03/17/34/flower-7172293_640.jpg",
        "src1280": "https://cdn.pixabay.com/photo/2022/05/03/17/34/flower-7172293_1280.jpg"
    },
    {
        "id": "7454828",
        "src640": "https://cdn.pixabay.com/photo/2022/09/14/17/14/ragweed-7454828_640.jpg",
        "src1280": "https://cdn.pixabay.com/photo/2022/09/14/17/14/ragweed-7454828_1280.jpg"
    },
    {
        "id": "314458",
        "src640": "https://cdn.pixabay.com/photo/2014/04/05/11/06/aloe-vera-314458_640.jpg",
        "src1280": "https://cdn.pixabay.com/photo/2014/04/05/11/06/aloe-vera-314458_1280.jpg"
    },
    {
        "id": "1317128",
        "src640": "https://cdn.pixabay.com/photo/2016/04/08/22/15/grape-1317128_640.jpg",
        "src1280": "https://cdn.pixabay.com/photo/2016/04/08/22/15/grape-1317128_1280.jpg"
    },
    {
        "id": "4145675",
        "src640": "https://cdn.pixabay.com/photo/2019/04/22/04/50/flower-4145675_640.jpg",
        "src1280": "https://cdn.pixabay.com/photo/2019/04/22/04/50/flower-4145675_1280.jpg"
    },
    {
        "id": "6766768",
        "src640": "https://cdn.pixabay.com/photo/2021/11/03/20/07/reed-6766768_640.jpg",
        "src1280": "https://cdn.pixabay.com/photo/2021/11/03/20/07/reed-6766768_1280.jpg"
    },
    {
        "id": "3729723",
        "src640": "https://cdn.pixabay.com/photo/2018/10/07/11/18/spindle-3729723_640.jpg",
        "src1280": "https://cdn.pixabay.com/photo/2018/10/07/11/18/spindle-3729723_1280.jpg"
    },
    {
        "id": "836978",
        "src640": "https://cdn.pixabay.com/photo/2015/07/08/22/10/water-lily-836978_640.jpg",
        "src1280": "https://cdn.pixabay.com/photo/2015/07/08/22/10/water-lily-836978_1280.jpg"
    },
    {
        "id": "3689991",
        "src640": "https://cdn.pixabay.com/photo/2018/09/20/04/30/grapes-3689991_640.jpg",
        "src1280": "https://cdn.pixabay.com/photo/2018/09/20/04/30/grapes-3689991_1280.jpg"
    },
    {
        "id": "3217894",
        "src640": "https://cdn.pixabay.com/photo/2018/03/11/19/53/hibiscus-3217894_640.jpg",
        "src1280": "https://cdn.pixabay.com/photo/2018/03/11/19/53/hibiscus-3217894_1280.jpg"
    },
    {
        "id": "3578502",
        "src640": "https://cdn.pixabay.com/photo/2018/08/01/23/25/lotus-flower-3578502_640.jpg",
        "src1280": "https://cdn.pixabay.com/photo/2018/08/01/23/25/lotus-flower-3578502_1280.jpg"
    },
    {
        "id": "2366835",
        "src640": "https://cdn.pixabay.com/photo/2017/06/02/16/56/rose-2366835_640.jpg",
        "src1280": "https://cdn.pixabay.com/photo/2017/06/02/16/56/rose-2366835_1280.jpg"
    },
    {
        "id": "4245888",
        "src640": "https://cdn.pixabay.com/photo/2019/06/02/08/40/poppy-4245888_640.jpg",
        "src1280": "https://cdn.pixabay.com/photo/2019/06/02/08/40/poppy-4245888_1280.jpg"
    },
    {
        "id": "8084641",
        "src640": "https://cdn.pixabay.com/photo/2023/06/24/06/51/flowers-8084641_640.jpg",
        "src1280": "https://cdn.pixabay.com/photo/2023/06/24/06/51/flowers-8084641_1280.jpg"
    },
    {
        "id": "1455410",
        "src640": "https://cdn.pixabay.com/photo/2016/06/13/23/08/prickly-pear-1455410_640.jpg",
        "src1280": "https://cdn.pixabay.com/photo/2016/06/13/23/08/prickly-pear-1455410_1280.jpg"
    },
    {
        "id": "58262",
        "src640": "https://cdn.pixabay.com/photo/2012/09/28/04/56/marigold-58262_640.jpg",
        "src1280": "https://cdn.pixabay.com/photo/2012/09/28/04/56/marigold-58262_1280.jpg"
    },
    {
        "id": "737064",
        "src640": "https://cdn.pixabay.com/photo/2015/04/24/00/25/common-maple-737064_640.jpg",
        "src1280": "https://cdn.pixabay.com/photo/2015/04/24/00/25/common-maple-737064_1280.jpg"
    },
    {
        "id": "116272",
        "src640": "https://cdn.pixabay.com/photo/2013/06/04/19/19/greater-celandine-116272_640.jpg",
        "src1280": "https://cdn.pixabay.com/photo/2013/06/04/19/19/greater-celandine-116272_1280.jpg"
    }
]