[
    {
        "id": "3762801",
        "src640": "https://cdn.pixabay.com/photo/2018/10/21/12/23/pool-3762801_640.jpg",
        "src1280": "https://cdn.pixabay.com/photo/2018/10/21/12/23/pool-3762801_1280.jpg"
    },
    {
        "id": "4227398",
        "src640": "https://cdn.pixabay.com/photo/2019/05/24/22/15/rose-4227398_640.jpg",
        "src1280": "https://cdn.pixabay.com/photo/2019/05/24/22/15/rose-4227398_1280.jpg"
    },
    {
        "id": "2440187",
        "src640": "https://cdn.pixabay.com/photo/2017/06/25/09/56/rose-2440187_640.jpg",
        "src1280": "https://cdn.pixabay.com/photo/2017/06/25/09/56/rose-2440187_1280.jpg"
    },
    {
        "id": "3342979",
        "src640": "https://cdn.pixabay.com/photo/2018/04/23/01/42/lavender-3342979_640.jpg",
        "src1280": "https://cdn.pixabay.com/photo/2018/04/23/01/42/lavender-3342979_1280.jpg"
    },
    {
        "id": "58918",
        "src640": "https://cdn.pixabay.com/photo/2012/10/02/13/22/summer-toadflax-58918_640.jpg",
        "src1280": "https://cdn.pixabay.com/photo/2012/10/02/13/22/summer-toadflax-58918_1280.jpg"
    },
    {
        "id": "7711323",
        "src640": "https://cdn.pixabay.com/photo/2023/01/11/10/01/lemon-7711323_640.jpg",
        "src1280": "https://cdn.pixabay.com/photo/2023/01/11/10/01/lemon-7711323_1280.jpg"
    },
    {
        "id": "2093705",
        "src640": "https://cdn.pixabay.com/photo/2017/02/24/02/18/orchid-2093705_640.jpg",
        "src1280": "https://cdn.pixabay.com/photo/2017/02/24/02/18/orchid-2093705_1280.jpg"
    },
    {
        "id": "1274414",
        "src640": "https://cdn.pixabay.com/photo/2016/03/23/09/35/tussilago-farfara-1274414_640.jpg",
        "src1280": "https://cdn.pixabay.com/photo/2016/03/23/09/35/tussilago-farfara-1274414_1280.jpg"
    },
    {
        "id": "5950801",
        "src640": "https://cdn.pixabay.com/photo/2021/01/26/08/35/map-butterfly-5950801_640.jpg",
        "src1280": "https://cdn.pixabay.com/photo/2021/01/26/08/35/map-butterfly-5950801_1280.jpg"
    },
    {
        "id": "3143373",
        "src640": "https://cdn.pixabay.com/photo/2018/02/10/11/26/flower-3143373_640.jpg",
        "src1280": "https://cdn.pixabay.com/photo/2018/02/10/11/26/flower-3143373_1280.jpg"
    },
    {
        "id": "7177697",
        "src640": "https://cdn.pixabay.com/photo/2022/05/06/07/10/factory-7177697_640.jpg",
        "src1280": "https://cdn.pixabay.com/photo/2022/05/06/07/10/factory-7177697_1280.jpg"
    },
    {
        "id": "3980815",
        "src640": "https://cdn.pixabay.com/photo/2019/02/07/09/51/climate-protection-3980815_640.jpg",
        "src1280": "https://cdn.pixabay.com/photo/2019/02/07/09/51/climate-protection-3980815_1280.jpg"
    },
    {
        "id": "5032284",
        "src640": "https://cdn.pixabay.com/photo/2020/04/11/23/16/spider-5032284_640.jpg",
        "src1280": "https://cdn.pixabay.com/photo/2020/04/11/23/16/spider-5032284_1280.jpg"
    },
    {
        "id": "3349871",
        "src640": "https://cdn.pixabay.com/photo/2018/04/25/15/51/cushion-flower-3349871_640.jpg",
        "src1280": "https://cdn.pixabay.com/photo/2018/04/25/15/51/cushion-flower-3349871_1280.jpg"
    },
    {
        "id": "3517102",
        "src640": "https://cdn.pixabay.com/photo/2018/07/04/22/03/flower-3517102_640.jpg",
        "src1280": "https://cdn.pixabay.com/photo/2018/07/04/22/03/flower-3517102_1280.jpg"
    },
    {
        "id": "1926155",
        "src640": "https://cdn.pixabay.com/photo/2016/12/22/20/09/sun-flower-1926155_640.jpg",
        "src1280": "https://cdn.pixabay.com/photo/2016/12/22/20/09/sun-flower-1926155_1280.jpg"
    },
    {
        "id": "533335",
        "src640": "https://cdn.pixabay.com/photo/2014/11/16/12/16/hyacinth-533335_640.jpg",
        "src1280": "https://cdn.pixabay.com/photo/2014/11/16/12/16/hyacinth-533335_1280.jpg"
    },
    {
        "id": "5300959",
        "src640": "https://cdn.pixabay.com/photo/2020/06/15/09/13/poppy-5300959_640.jpg",
        "src1280": "https://cdn.pixabay.com/photo/2020/06/15/09/13/poppy-5300959_1280.jpg"
    },
    {
        "id": "1530425",
        "src640": "https://cdn.pixabay.com/photo/2016/07/20/13/59/gladiolus-1530425_640.jpg",
        "src1280": "https://cdn.pixabay.com/photo/2016/07/20/13/59/gladiolus-1530425_1280.jpg"
    },
    {
        "id": "7259036",
        "src640": "https://cdn.pixabay.com/photo/2022/06/12/23/06/rose-7259036_640.jpg",
        "src1280": "https://cdn.pixabay.com/photo/2022/06/12/23/06/rose-7259036_1280.jpg"
    },
    {
        "id": "1517014",
        "src640": "https://cdn.pixabay.com/photo/2016/07/14/15/53/senecio-cephaluphorus-1517014_640.jpg",
        "src1280": "https://cdn.pixabay.com/photo/2016/07/14/15/53/senecio-cephaluphorus-1517014_1280.jpg"
    },
    {
        "id": "2008788",
        "src640": "https://cdn.pixabay.com/photo/2017/01/25/19/18/hyacinth-2008788_640.jpg",
        "src1280": "https://cdn.pixabay.com/photo/2017/01/25/19/18/hyacinth-2008788_1280.jpg"
    },
    {
        "id": "4792927",
        "src640": "https://cdn.pixabay.com/photo/2020/01/25/17/19/flowers-4792927_640.jpg",
        "src1280": "https://cdn.pixabay.com/photo/2020/01/25/17/19/flowers-4792927_1280.jpg"
    },
    {
        "id": "5306068",
        "src640": "https://cdn.pixabay.com/photo/2020/06/16/15/12/leaf-5306068_640.jpg",
        "src1280": "https://cdn.pixabay.com/photo/2020/06/16/15/12/leaf-5306068_1280.jpg"
    },
    {
        "id": "831738",
        "src640": "https://cdn.pixabay.com/photo/2015/07/04/20/47/iris-831738_640.jpg",
        "src1280": "https://cdn.pixabay.com/photo/2015/07/04/20/47/iris-831738_1280.jpg"
    },
    {
        "id": "1690908",
        "src640": "https://cdn.pixabay.com/photo/2016/09/24/01/51/flower-1690908_640.jpg",
        "src1280": "https://cdn.pixabay.com/photo/2016/09/24/01/51/flower-1690908_1280.jpg"
    },
    {
        "id": "3163989",
        "src640": "https://cdn.pixabay.com/photo/2018/02/19/01/14/erika-3163989_640.jpg",
        "src1280": "https://cdn.pixabay.com/photo/2018/02/19/01/14/erika-3163989_1280.jpg"
    },
    {
        "id": "2392929",
        "src640": "https://cdn.pixabay.com/photo/2017/06/11/17/14/orchids-2392929_640.jpg",
        "src1280": "https://cdn.pixabay.com/photo/2017/06/11/17/14/orchids-2392929_1280.jpg"
    },
    {
        "id": "3437100",
        "src640": "https://cdn.pixabay.com/photo/2018/05/28/20/46/orchid-3437100_640.jpg",
        "src1280": "https://cdn.pixabay.com/photo/2018/05/28/20/46/orchid-3437100_1280.jpg"
    },
    {
        "id": "7861262",
        "src640": "https://cdn.pixabay.com/photo/2023/03/18/19/47/botany-7861262_640.jpg",
        "src1280": "https://cdn.pixabay.com/photo/2023/03/18/19/47/botany-7861262_1280.jpg"
    },
    {
        "id": "950862",
        "src640": "https://cdn.pixabay.com/photo/2015/09/21/22/56/nature-950862_640.jpg",
        "src1280": "https://cdn.pixabay.com/photo/2015/09/21/22/56/nature-950862_1280.jpg"
    },
    {
        "id": "4062592",
        "src640": "https://cdn.pixabay.com/photo/2019/03/18/08/20/bleeding-heart-4062592_640.jpg",
        "src1280": "https://cdn.pixabay.com/photo/2019/03/18/08/20/bleeding-heart-4062592_1280.jpg"
    },
    {
        "id": "1489278",
        "src640": "https://cdn.pixabay.com/photo/2016/06/30/15/59/lupine-1489278_640.jpg",
        "src1280": "https://cdn.pixabay.com/photo/2016/06/30/15/59/lupine-1489278_1280.jpg"
    },
    {
        "id": "7224443",
        "src640": "https://cdn.pixabay.com/photo/2022/05/27/05/54/poppies-7224443_640.jpg",
        "src1280": "https://cdn.pixabay.com/photo/2022/05/27/05/54/poppies-7224443_1280.jpg"
    },
    {
        "id": "7042976",
        "src640": "https://cdn.pixabay.com/photo/2022/03/02/11/45/rose-7042976_640.jpg",
        "src1280": "https://cdn.pixabay.com/photo/2022/03/02/11/45/rose-7042976_1280.jpg"
    },
    {
        "id": "5472726",
        "src640": "https://cdn.pixabay.com/photo/2020/08/08/11/12/sunflower-5472726_640.jpg",
        "src1280": "https://cdn.pixabay.com/photo/2020/08/08/11/12/sunflower-5472726_1280.jpg"
    },
    {
        "id": "1616817",
        "src640": "https://cdn.pixabay.com/photo/2016/08/24/11/55/flowers-1616817_640.jpg",
        "src1280": "https://cdn.pixabay.com/photo/2016/08/24/11/55/flowers-1616817_1280.jpg"
    },
    {
        "id": "6349805",
        "src640": "https://cdn.pixabay.com/photo/2021/06/20/02/13/lotus-6349805_640.jpg",
        "src1280": "https://cdn.pixabay.com/photo/2021/06/20/02/13/lotus-6349805_1280.jpg"
    },
    {
        "id": "5530781",
        "src640": "https://cdn.pixabay.com/photo/2020/08/30/21/49/flower-5530781_640.jpg",
        "src1280": "https://cdn.pixabay.com/photo/2020/08/30/21/49/flower-5530781_1280.jpg"
    },
    {
        "id": "5100756",
        "src640": "https://cdn.pixabay.com/photo/2020/04/27/17/12/leaf-leafs-5100756_640.jpg",
        "src1280": "https://cdn.pixabay.com/photo/2020/04/27/17/12/leaf-leafs-5100756_1280.jpg"
    },
    {
        "id": "2419145",
        "src640": "https://cdn.pixabay.com/photo/2017/06/19/12/22/lupins-2419145_640.jpg",
        "src1280": "https://cdn.pixabay.com/photo/2017/06/19/12/22/lupins-2419145_1280.jpg"
    },
    {
        "id": "4897654",
        "src640": "https://cdn.pixabay.com/photo/2020/03/03/06/38/grass-4897654_640.jpg",
        "src1280": "https://cdn.pixabay.com/photo/2020/03/03/06/38/grass-4897654_1280.jpg"
    },
    {
        "id": "5914920",
        "src640": "https://cdn.pixabay.com/photo/2021/01/13/18/37/ornamental-5914920_640.jpg",
        "src1280": "https://cdn.pixabay.com/photo/2021/01/13/18/37/ornamental-5914920_1280.jpg"
    },
    {
        "id": "7208793",
        "src640": "https://cdn.pixabay.com/photo/2022/05/20/06/54/tulips-7208793_640.jpg",
        "src1280": "https://cdn.pixabay.com/photo/2022/05/20/06/54/tulips-7208793_1280.jpg"
    },
    {
        "id": "2479079",
        "src640": "https://cdn.pixabay.com/photo/2017/07/06/19/14/dahlia-2479079_640.jpg",
        "src1280": "https://cdn.pixabay.com/photo/2017/07/06/19/14/dahlia-2479079_1280.jpg"
    },
    {
        "id": "6349496",
        "src640": "https://cdn.pixabay.com/photo/2021/06/19/21/32/tulips-6349496_640.jpg",
        "src1280": "https://cdn.pixabay.com/photo/2021/06/19/21/32/tulips-6349496_1280.jpg"
    },
    {
        "id": "1025051",
        "src640": "https://cdn.pixabay.com/photo/2015/11/05/22/41/bee-1025051_640.jpg",
        "src1280": "https://cdn.pixabay.com/photo/2015/11/05/22/41/bee-1025051_1280.jpg"
    },
    {
        "id": "737064",
        "src640": "https://cdn.pixabay.com/photo/2015/04/24/00/25/common-maple-737064_640.jpg",
        "src1280": "https://cdn.pixabay.com/photo/2015/04/24/00/25/common-maple-737064_1280.jpg"
    },
    {
        "id": "2099078",
        "src640": "https://cdn.pixabay.com/photo/2017/02/25/23/54/flower-2099078_640.jpg",
        "src1280": "https://cdn.pixabay.com/photo/2017/02/25/23/54/flower-2099078_1280.jpg"
    },
    {
        "id": "2270732",
        "src640": "https://cdn.pixabay.com/photo/2017/04/29/13/16/plant-2270732_640.jpg",
        "src1280": "https://cdn.pixabay.com/photo/2017/04/29/13/16/plant-2270732_1280.jpg"
    },
    {
        "id": "275328",
        "src640": "https://cdn.pixabay.com/photo/2014/02/26/17/14/snowflake-275328_640.jpg",
        "src1280": "https://cdn.pixabay.com/photo/2014/02/26/17/14/snowflake-275328_1280.jpg"
    },
    {
        "id": "1076354",
        "src640": "https://cdn.pixabay.com/photo/2015/12/04/10/24/tulips-1076354_640.jpg",
        "src1280": "https://cdn.pixabay.com/photo/2015/12/04/10/24/tulips-1076354_1280.jpg"
    },
    {
        "id": "7296189",
        "src640": "https://cdn.pixabay.com/photo/2022/07/01/20/00/rose-7296189_640.jpg",
        "src1280": "https://cdn.pixabay.com/photo/2022/07/01/20/00/rose-7296189_1280.jpg"
    },
    {
        "id": "7584713",
        "src640": "https://cdn.pixabay.com/photo/2022/11/11/11/01/japanese-anemone-7584713_640.jpg",
        "src1280": "https://cdn.pixabay.com/photo/2022/11/11/11/01/japanese-anemone-7584713_1280.jpg"
    },
    {
        "id": "305850",
        "src640": "https://cdn.pixabay.com/photo/2014/04/02/11/40/rose-305850_640.jpg",
        "src1280": "https://cdn.pixabay.com/photo/2014/04/02/11/40/rose-305850_1280.jpg"
    },
    {
        "id": "2643422",
        "src640": "https://cdn.pixabay.com/photo/2017/08/15/10/26/flower-2643422_640.jpg",
        "src1280": "https://cdn.pixabay.com/photo/2017/08/15/10/26/flower-2643422_1280.jpg"
    },
    {
        "id": "7707157",
        "src640": "https://cdn.pixabay.com/photo/2023/01/09/11/07/wineglass-7707157_640.jpg",
        "src1280": "https://cdn.pixabay.com/photo/2023/01/09/11/07/wineglass-7707157_1280.jpg"
    },
    {
        "id": "5983650",
        "src640": "https://cdn.pixabay.com/photo/2021/02/05/07/28/flower-5983650_640.jpg",
        "src1280": "https://cdn.pixabay.com/photo/2021/02/05/07/28/flower-5983650_1280.jpg"
    },
    {
        "id": "5151690",
        "src640": "https://cdn.pixabay.com/photo/2020/05/09/22/52/grasshopper-5151690_640.jpg",
        "src1280": "https://cdn.pixabay.com/photo/2020/05/09/22/52/grasshopper-5151690_1280.jpg"
    },
    {
        "id": "7146011",
        "src640": "https://cdn.pixabay.com/photo/2022/04/20/19/24/lewisia-7146011_640.jpg",
        "src1280": "https://cdn.pixabay.com/photo/2022/04/20/19/24/lewisia-7146011_1280.jpg"
    },
    {
        "id": "1396927",
        "src640": "https://cdn.pixabay.com/photo/2016/05/16/22/04/poppy-flower-1396927_640.jpg",
        "src1280": "https://cdn.pixabay.com/photo/2016/05/16/22/04/poppy-flower-1396927_1280.jpg"
    },
    {
        "id": "7921884",
        "src640": "https://cdn.pixabay.com/photo/2023/04/13/07/21/tree-7921884_640.jpg",
        "src1280": "https://cdn.pixabay.com/photo/2023/04/13/07/21/tree-7921884_1280.jpg"
    },
    {
        "id": "1159622",
        "src640": "https://cdn.pixabay.com/photo/2016/01/24/21/09/lavender-1159622_640.jpg",
        "src1280": "https://cdn.pixabay.com/photo/2016/01/24/21/09/lavender-1159622_1280.jpg"
    },
    {
        "id": "6691937",
        "src640": "https://cdn.pixabay.com/photo/2021/10/08/17/35/purple-copper-butterfly-6691937_640.jpg",
        "src1280": "https://cdn.pixabay.com/photo/2021/10/08/17/35/purple-copper-butterfly-6691937_1280.jpg"
    },
    {
        "id": "3124444",
        "src640": "https://cdn.pixabay.com/photo/2018/02/02/01/35/flowers-3124444_640.jpg",
        "src1280": "https://cdn.pixabay.com/photo/2018/02/02/01/35/flowers-3124444_1280.jpg"
    },
    {
        "id": "7447690",
        "src640": "https://cdn.pixabay.com/photo/2022/09/11/18/23/colors-7447690_640.jpg",
        "src1280": "https://cdn.pixabay.com/photo/2022/09/11/18/23/colors-7447690_1280.jpg"
    },
    {
        "id": "1077124",
        "src640": "https://cdn.pixabay.com/photo/2015/12/04/20/11/scented-violets-1077124_640.jpg",
        "src1280": "https://cdn.pixabay.com/photo/2015/12/04/20/11/scented-violets-1077124_1280.jpg"
    },
    {
        "id": "1260716",
        "src640": "https://cdn.pixabay.com/photo/2016/03/16/13/50/cherry-blossom-1260716_640.jpg",
        "src1280": "https://cdn.pixabay.com/photo/2016/03/16/13/50/cherry-blossom-1260716_1280.jpg"
    },
    {
        "id": "989289",
        "src640": "https://cdn.pixabay.com/photo/2015/10/15/12/15/tulip-989289_640.jpg",
        "src1280": "https://cdn.pixabay.com/photo/2015/10/15/12/15/tulip-989289_1280.jpg"
    },
    {
        "id": "276855",
        "src640": "https://cdn.pixabay.com/photo/2014/02/28/12/14/wildflower-276855_640.jpg",
        "src1280": "https://cdn.pixabay.com/photo/2014/02/28/12/14/wildflower-276855_1280.jpg"
    },
    {
        "id": "5393060",
        "src640": "https://cdn.pixabay.com/photo/2020/07/11/07/56/macro-5393060_640.jpg",
        "src1280": "https://cdn.pixabay.com/photo/2020/07/11/07/56/macro-5393060_1280.jpg"
    },
    {
        "id": "116272",
        "src640": "https://cdn.pixabay.com/photo/2013/06/04/19/19/greater-celandine-116272_640.jpg",
        "src1280": "https://cdn.pixabay.com/photo/2013/06/04/19/19/greater-celandine-116272_1280.jpg"
    },
    {
        "id": "4062578",
        "src640": "https://cdn.pixabay.com/photo/2019/03/18/08/17/hoverfly-4062578_640.jpg",
        "src1280": "https://cdn.pixabay.com/photo/2019/03/18/08/17/hoverfly-4062578_1280.jpg"
    },
    {
        "id": "96042",
        "src640": "https://cdn.pixabay.com/photo/2013/03/22/23/29/mushroom-96042_640.jpg",
        "src1280": "https://cdn.pixabay.com/photo/2013/03/22/23/29/mushroom-96042_1280.jpg"
    },
    {
        "id": "2799611",
        "src640": "https://cdn.pixabay.com/photo/2017/09/29/16/24/monkshood-2799611_640.jpg",
        "src1280": "https://cdn.pixabay.com/photo/2017/09/29/16/24/monkshood-2799611_1280.jpg"
    },
    {
        "id": "6481702",
        "src640": "https://cdn.pixabay.com/photo/2021/07/20/20/37/red-hot-poker-6481702_640.jpg",
        "src1280": "https://cdn.pixabay.com/photo/2021/07/20/20/37/red-hot-poker-6481702_1280.jpg"
    },
    {
        "id": "2909476",
        "src640": "https://cdn.pixabay.com/photo/2017/11/01/21/37/cattail-2909476_640.jpg",
        "src1280": "https://cdn.pixabay.com/photo/2017/11/01/21/37/cattail-2909476_1280.jpg"
    },
    {
        "id": "5975994",
        "src640": "https://cdn.pixabay.com/photo/2021/02/03/00/29/sunflower-5975994_640.jpg",
        "src1280": "https://cdn.pixabay.com/photo/2021/02/03/00/29/sunflower-5975994_1280.jpg"
    },
    {
        "id": "269327",
        "src640": "https://cdn.pixabay.com/photo/2014/02/18/17/39/vines-269327_640.jpg",
        "src1280": "https://cdn.pixabay.com/photo/2014/02/18/17/39/vines-269327_1280.jpg"
    },
    {
        "id": "6466843",
        "src640": "https://cdn.pixabay.com/photo/2021/07/14/18/39/honeysuckle-6466843_640.jpg",
        "src1280": "https://cdn.pixabay.com/photo/2021/07/14/18/39/honeysuckle-6466843_1280.jpg"
    },
    {
        "id": "793298",
        "src640": "https://cdn.pixabay.com/photo/2015/06/01/13/02/lily-793298_640.jpg",
        "src1280": "https://cdn.pixabay.com/photo/2015/06/01/13/02/lily-793298_1280.jpg"
    },
    {
        "id": "4946990",
        "src640": "https://cdn.pixabay.com/photo/2020/03/19/10/22/pansy-4946990_640.jpg",
        "src1280": "https://cdn.pixabay.com/photo/2020/03/19/10/22/pansy-4946990_1280.jpg"
    },
    {
        "id": "6403343",
        "src640": "https://cdn.pixabay.com/photo/2021/07/11/10/03/red-hot-poker-6403343_640.jpg",
        "src1280": "https://cdn.pixabay.com/photo/2021/07/11/10/03/red-hot-poker-6403343_1280.jpg"
    },
    {
        "id": "4795",
        "src640": "https://cdn.pixabay.com/photo/2011/02/06/21/59/dragon-fruit-4795_640.jpg",
        "src1280": "https://cdn.pixabay.com/photo/2011/02/06/21/59/dragon-fruit-4795_1280.jpg"
    },
    {
        "id": "3290436",
        "src640": "https://cdn.pixabay.com/photo/2018/04/04/17/29/branch-3290436_640.jpg",
        "src1280": "https://cdn.pixabay.com/photo/2018/04/04/17/29/branch-3290436_1280.jpg"
    },
    {
        "id": "3345633",
        "src640": "https://cdn.pixabay.com/photo/2018/04/23/21/33/tulip-3345633_640.jpg",
        "src1280": "https://cdn.pixabay.com/photo/2018/04/23/21/33/tulip-3345633_1280.jpg"
    },
    {
        "id": "1984537",
        "src640": "https://cdn.pixabay.com/photo/2017/01/16/16/45/roses-1984537_640.jpg",
        "src1280": "https://cdn.pixabay.com/photo/2017/01/16/16/45/roses-1984537_1280.jpg"
    },
    {
        "id": "1316718",
        "src640": "https://cdn.pixabay.com/photo/2016/04/08/18/17/narcissus-1316718_640.jpg",
        "src1280": "https://cdn.pixabay.com/photo/2016/04/08/18/17/narcissus-1316718_1280.jpg"
    },
    {
        "id": "5550074",
        "src640": "https://cdn.pixabay.com/photo/2020/09/06/20/25/rose-5550074_640.jpg",
        "src1280": "https://cdn.pixabay.com/photo/2020/09/06/20/25/rose-5550074_1280.jpg"
    },
    {
        "id": "52783",
        "src640": "https://cdn.pixabay.com/photo/2012/07/24/17/29/mist-52783_640.jpg",
        "src1280": "https://cdn.pixabay.com/photo/2012/07/24/17/29/mist-52783_1280.jpg"
    },
    {
        "id": "165085",
        "src640": "https://cdn.pixabay.com/photo/2013/07/18/20/27/tropical-165085_640.jpg",
        "src1280": "https://cdn.pixabay.com/photo/2013/07/18/20/27/tropical-165085_1280.jpg"
    },
    {
        "id": "1524875",
        "src640": "https://cdn.pixabay.com/photo/2016/07/17/22/09/heath-spotted-orchid-1524875_640.jpg",
        "src1280": "https://cdn.pixabay.com/photo/2016/07/17/22/09/heath-spotted-orchid-1524875_1280.jpg"
    },
    {
        "id": "1260766",
        "src640": "https://cdn.pixabay.com/photo/2016/03/16/13/58/pointed-flower-1260766_640.jpg",
        "src1280": "https://cdn.pixabay.com/photo/2016/03/16/13/58/pointed-flower-1260766_1280.jpg"
    },
    {
        "id": "22429",
        "src640": "https://cdn.pixabay.com/photo/2012/03/06/23/05/blue-22429_640.jpg",
        "src1280": "https://cdn.pixabay.com/photo/2012/03/06/23/05/blue-22429_1280.jpg"
    },
    {
        "id": "197028",
        "src640": "https://cdn.pixabay.com/photo/2013/10/17/14/36/pumpkin-197028_640.jpg",
        "src1280": "https://cdn.pixabay.com/photo/2013/10/17/14/36/pumpkin-197028_1280.jpg"
    }
]