[
    {
        "id": "3880087",
        "src640": "https://cdn.pixabay.com/photo/2018/12/17/10/12/green-3880087_640.jpg",
        "src1280": "https://cdn.pixabay.com/photo/2018/12/17/10/12/green-3880087_1280.jpg"
    },
    {
        "id": "6527233",
        "src640": "https://cdn.pixabay.com/photo/2021/08/06/21/24/dahlia-6527233_640.jpg",
        "src1280": "https://cdn.pixabay.com/photo/2021/08/06/21/24/dahlia-6527233_1280.jpg"
    },
    {
        "id": "7783372",
        "src640": "https://cdn.pixabay.com/photo/2023/02/11/16/59/honeybee-7783372_640.jpg",
        "src1280": "https://cdn.pixabay.com/photo/2023/02/11/16/59/honeybee-7783372_1280.jpg"
    },
    {
        "id": "1349952",
        "src640": "https://cdn.pixabay.com/photo/2016/04/24/16/21/sun-flower-1349952_640.jpg",
        "src1280": "https://cdn.pixabay.com/photo/2016/04/24/16/21/sun-flower-1349952_1280.jpg"
    },
    {
        "id": "1640608",
        "src640": "https://cdn.pixabay.com/photo/2016/09/02/23/25/field-1640608_640.jpg",
        "src1280": "https://cdn.pixabay.com/photo/2016/09/02/23/25/field-1640608_1280.jpg"
    },
    {
        "id": "6839",
        "src640": "https://cdn.pixabay.com/photo/2011/04/20/19/23/red-maple-6839_640.jpg",
        "src1280": "https://cdn.pixabay.com/photo/2011/04/20/19/23/red-maple-6839_1280.jpg"
    },
    {
        "id": "7101237",
        "src640": "https://cdn.pixabay.com/photo/2022/03/30/14/01/roses-7101237_640.jpg",
        "src1280": "https://cdn.pixabay.com/photo/2022/03/30/14/01/roses-7101237_1280.jpg"
    },
    {
        "id": "3111480",
        "src640": "https://cdn.pixabay.com/photo/2018/01/27/15/42/flower-3111480_640.jpg",
        "src1280": "https://cdn.pixabay.com/photo/2018/01/27/15/42/flower-3111480_1280.jpg"
    },
    {
        "id": "4193758",
        "src640": "https://cdn.pixabay.com/photo/2019/05/10/15/30/without-4193758_640.jpg",
        "src1280": "https://cdn.pixabay.com/photo/2019/05/10/15/30/without-4193758_1280.jpg"
    },
    {
        "id": "4876891",
        "src640": "https://cdn.pixabay.com/photo/2020/02/24/17/24/tea-garden-4876891_640.jpg",
        "src1280": "https://cdn.pixabay.com/photo/2020/02/24/17/24/tea-garden-4876891_1280.jpg"
    },
    {
        "id": "6419",
        "src640": "https://cdn.pixabay.com/photo/2011/04/13/01/11/magnolia-6419_640.jpg",
        "src1280": "https://cdn.pixabay.com/photo/2011/04/13/01/11/magnolia-6419_1280.jpg"
    },
    {
        "id": "167246",
        "src640": "https://cdn.pixabay.com/photo/2013/07/26/01/42/clematis-167246_640.jpg",
        "src1280": "https://cdn.pixabay.com/photo/2013/07/26/01/42/clematis-167246_1280.jpg"
    },
    {
        "id": "4570814",
        "src640": "https://cdn.pixabay.com/photo/2019/10/23/08/23/mushroom-4570814_640.jpg",
        "src1280": "https://cdn.pixabay.com/photo/2019/10/23/08/23/mushroom-4570814_1280.jpg"
    },
    {
        "id": "2811786",
        "src640": "https://cdn.pixabay.com/photo/2017/10/03/10/06/poppy-2811786_640.jpg",
        "src1280": "https://cdn.pixabay.com/photo/2017/10/03/10/06/poppy-2811786_1280.jpg"
    },
    {
        "id": "6538661",
        "src640": "https://cdn.pixabay.com/photo/2021/08/11/14/47/orchid-6538661_640.jpg",
        "src1280": "https://cdn.pixabay.com/photo/2021/08/11/14/47/orchid-6538661_1280.jpg"
    },
    {
        "id": "5725669",
        "src640": "https://cdn.pixabay.com/photo/2020/11/09/05/35/sunflower-5725669_640.jpg",
        "src1280": "https://cdn.pixabay.com/photo/2020/11/09/05/35/sunflower-5725669_1280.jpg"
    },
    {
        "id": "6284704",
        "src640": "https://cdn.pixabay.com/photo/2021/05/26/09/56/lilac-6284704_640.jpg",
        "src1280": "https://cdn.pixabay.com/photo/2021/05/26/09/56/lilac-6284704_1280.jpg"
    },
    {
        "id": "655022",
        "src640": "https://cdn.pixabay.com/photo/2015/03/01/17/16/bellis-655022_640.jpg",
        "src1280": "https://cdn.pixabay.com/photo/2015/03/01/17/16/bellis-655022_1280.jpg"
    },
    {
        "id": "6917716",
        "src640": "https://cdn.pixabay.com/photo/2022/01/05/18/07/tree-6917716_640.jpg",
        "src1280": "https://cdn.pixabay.com/photo/2022/01/05/18/07/tree-6917716_1280.jpg"
    },
    {
        "id": "4533868",
        "src640": "https://cdn.pixabay.com/photo/2019/10/07/23/38/mallow-4533868_640.jpg",
        "src1280": "https://cdn.pixabay.com/photo/2019/10/07/23/38/mallow-4533868_1280.jpg"
    },
    {
        "id": "5570964",
        "src640": "https://cdn.pixabay.com/photo/2020/09/14/13/08/dahlias-5570964_640.jpg",
        "src1280": "https://cdn.pixabay.com/photo/2020/09/14/13/08/dahlias-5570964_1280.jpg"
    },
    {
        "id": "5231860",
        "src640": "https://cdn.pixabay.com/photo/2020/05/28/17/01/poppies-5231860_640.jpg",
        "src1280": "https://cdn.pixabay.com/photo/2020/05/28/17/01/poppies-5231860_1280.jpg"
    },
    {
        "id": "7148099",
        "src640": "https://cdn.pixabay.com/photo/2022/04/21/18/42/flower-7148099_640.jpg",
        "src1280": "https://cdn.pixabay.com/photo/2022/04/21/18/42/flower-7148099_1280.jpg"
    },
    {
        "id": "7125913",
        "src640": "https://cdn.pixabay.com/photo/2022/04/11/14/30/flowers-7125913_640.jpg",
        "src1280": "https://cdn.pixabay.com/photo/2022/04/11/14/30/flowers-7125913_1280.jpg"
    },
    {
        "id": "7144882",
        "src640": "https://cdn.pixabay.com/photo/2022/04/20/09/58/spring-snowflake-7144882_640.jpg",
        "src1280": "https://cdn.pixabay.com/photo/2022/04/20/09/58/spring-snowflake-7144882_1280.jpg"
    },
    {
        "id": "4141028",
        "src640": "https://cdn.pixabay.com/photo/2019/04/20/06/15/tulip-4141028_640.jpg",
        "src1280": "https://cdn.pixabay.com/photo/2019/04/20/06/15/tulip-4141028_1280.jpg"
    },
    {
        "id": "93674",
        "src640": "https://cdn.pixabay.com/photo/2013/03/14/20/32/leaf-93674_640.jpg",
        "src1280": "https://cdn.pixabay.com/photo/2013/03/14/20/32/leaf-93674_1280.jpg"
    },
    {
        "id": "716871",
        "src640": "https://cdn.pixabay.com/photo/2015/04/10/20/37/rose-716871_640.jpg",
        "src1280": "https://cdn.pixabay.com/photo/2015/04/10/20/37/rose-716871_1280.jpg"
    },
    {
        "id": "4466153",
        "src640": "https://cdn.pixabay.com/photo/2019/09/10/13/35/bourdon-4466153_640.jpg",
        "src1280": "https://cdn.pixabay.com/photo/2019/09/10/13/35/bourdon-4466153_1280.jpg"
    },
    {
        "id": "7091227",
        "src640": "https://cdn.pixabay.com/photo/2022/03/25/14/43/hyacinth-7091227_640.jpg",
        "src1280": "https://cdn.pixabay.com/photo/2022/03/25/14/43/hyacinth-7091227_1280.jpg"
    },
    {
        "id": "6364947",
        "src640": "https://cdn.pixabay.com/photo/2021/06/25/23/45/lotuses-6364947_640.jpg",
        "src1280": "https://cdn.pixabay.com/photo/2021/06/25/23/45/lotuses-6364947_1280.jpg"
    },
    {
        "id": "54740",
        "src640": "https://cdn.pixabay.com/photo/2012/08/23/19/32/flower-54740_640.jpg",
        "src1280": "https://cdn.pixabay.com/photo/2012/08/23/19/32/flower-54740_1280.jpg"
    },
    {
        "id": "8105470",
        "src640": "https://cdn.pixabay.com/photo/2023/07/04/06/02/flower-8105470_640.jpg",
        "src1280": "https://cdn.pixabay.com/photo/2023/07/04/06/02/flower-8105470_1280.jpg"
    },
    {
        "id": "7296929",
        "src640": "https://cdn.pixabay.com/photo/2022/07/02/09/20/white-7296929_640.jpg",
        "src1280": "https://cdn.pixabay.com/photo/2022/07/02/09/20/white-7296929_1280.jpg"
    },
    {
        "id": "6652561",
        "src640": "https://cdn.pixabay.com/photo/2021/09/24/13/36/rose-6652561_640.jpg",
        "src1280": "https://cdn.pixabay.com/photo/2021/09/24/13/36/rose-6652561_1280.jpg"
    },
    {
        "id": "6197695",
        "src640": "https://cdn.pixabay.com/photo/2021/04/21/22/56/flowers-6197695_640.jpg",
        "src1280": "https://cdn.pixabay.com/photo/2021/04/21/22/56/flowers-6197695_1280.jpg"
    },
    {
        "id": "1959161",
        "src640": "https://cdn.pixabay.com/photo/2017/01/06/22/52/wig-brush-1959161_640.jpg",
        "src1280": "https://cdn.pixabay.com/photo/2017/01/06/22/52/wig-brush-1959161_1280.jpg"
    },
    {
        "id": "2477967",
        "src640": "https://cdn.pixabay.com/photo/2017/07/06/12/59/hydrangeas-2477967_640.jpg",
        "src1280": "https://cdn.pixabay.com/photo/2017/07/06/12/59/hydrangeas-2477967_1280.jpg"
    },
    {
        "id": "167457",
        "src640": "https://cdn.pixabay.com/photo/2013/07/26/05/40/ordinary-natternkopf-167457_640.jpg",
        "src1280": "https://cdn.pixabay.com/photo/2013/07/26/05/40/ordinary-natternkopf-167457_1280.jpg"
    },
    {
        "id": "405323",
        "src640": "https://cdn.pixabay.com/photo/2014/07/30/15/59/daisies-405323_640.jpg",
        "src1280": "https://cdn.pixabay.com/photo/2014/07/30/15/59/daisies-405323_1280.jpg"
    },
    {
        "id": "2561999",
        "src640": "https://cdn.pixabay.com/photo/2017/07/31/23/31/blossom-2561999_640.jpg",
        "src1280": "https://cdn.pixabay.com/photo/2017/07/31/23/31/blossom-2561999_1280.jpg"
    },
    {
        "id": "3534042",
        "src640": "https://cdn.pixabay.com/photo/2018/07/12/17/50/blossoms-3534042_640.jpg",
        "src1280": "https://cdn.pixabay.com/photo/2018/07/12/17/50/blossoms-3534042_1280.jpg"
    },
    {
        "id": "50993",
        "src640": "https://cdn.pixabay.com/photo/2012/06/29/18/08/flower-50993_640.jpg",
        "src1280": "https://cdn.pixabay.com/photo/2012/06/29/18/08/flower-50993_1280.jpg"
    },
    {
        "id": "7280177",
        "src640": "https://cdn.pixabay.com/photo/2022/06/23/16/22/lake-7280177_640.jpg",
        "src1280": "https://cdn.pixabay.com/photo/2022/06/23/16/22/lake-7280177_1280.jpg"
    },
    {
        "id": "748996",
        "src640": "https://cdn.pixabay.com/photo/2015/05/01/20/31/flower-748996_640.jpg",
        "src1280": "https://cdn.pixabay.com/photo/2015/05/01/20/31/flower-748996_1280.jpg"
    },
    {
        "id": "910099",
        "src640": "https://cdn.pixabay.com/photo/2015/08/27/10/46/strelizie-910099_640.jpg",
        "src1280": "https://cdn.pixabay.com/photo/2015/08/27/10/46/strelizie-910099_1280.jpg"
    },
    {
        "id": "7268714",
        "src640": "https://cdn.pixabay.com/photo/2022/06/17/20/48/tulip-7268714_640.jpg",
        "src1280": "https://cdn.pixabay.com/photo/2022/06/17/20/48/tulip-7268714_1280.jpg"
    },
    {
        "id": "3391156",
        "src640": "https://cdn.pixabay.com/photo/2018/05/11/17/51/plant-3391156_640.jpg",
        "src1280": "https://cdn.pixabay.com/photo/2018/05/11/17/51/plant-3391156_1280.jpg"
    },
    {
        "id": "22004",
        "src640": "https://cdn.pixabay.com/photo/2012/03/04/00/39/beautiful-22004_640.jpg",
        "src1280": "https://cdn.pixabay.com/photo/2012/03/04/00/39/beautiful-22004_1280.jpg"
    },
    {
        "id": "7200845",
        "src640": "https://cdn.pixabay.com/photo/2022/05/16/18/03/ginkgo-7200845_640.jpg",
        "src1280": "https://cdn.pixabay.com/photo/2022/05/16/18/03/ginkgo-7200845_1280.jpg"
    },
    {
        "id": "7129985",
        "src640": "https://cdn.pixabay.com/photo/2022/04/13/10/02/chestnut-leaf-7129985_640.jpg",
        "src1280": "https://cdn.pixabay.com/photo/2022/04/13/10/02/chestnut-leaf-7129985_1280.jpg"
    },
    {
        "id": "6403602",
        "src640": "https://cdn.pixabay.com/photo/2021/07/11/12/02/rose-6403602_640.jpg",
        "src1280": "https://cdn.pixabay.com/photo/2021/07/11/12/02/rose-6403602_1280.jpg"
    },
    {
        "id": "164502",
        "src640": "https://cdn.pixabay.com/photo/2013/07/18/15/06/tillandsia-albida-164502_640.jpg",
        "src1280": "https://cdn.pixabay.com/photo/2013/07/18/15/06/tillandsia-albida-164502_1280.jpg"
    },
    {
        "id": "7267844",
        "src640": "https://cdn.pixabay.com/photo/2022/06/17/12/45/silver-studded-blue-butterfly-7267844_640.jpg",
        "src1280": "https://cdn.pixabay.com/photo/2022/06/17/12/45/silver-studded-blue-butterfly-7267844_1280.jpg"
    },
    {
        "id": "4160106",
        "src640": "https://cdn.pixabay.com/photo/2019/04/27/14/29/beech-4160106_640.jpg",
        "src1280": "https://cdn.pixabay.com/photo/2019/04/27/14/29/beech-4160106_1280.jpg"
    },
    {
        "id": "4350773",
        "src640": "https://cdn.pixabay.com/photo/2019/07/20/13/08/moss-4350773_640.jpg",
        "src1280": "https://cdn.pixabay.com/photo/2019/07/20/13/08/moss-4350773_1280.jpg"
    },
    {
        "id": "7837752",
        "src640": "https://cdn.pixabay.com/photo/2023/03/08/13/16/flower-7837752_640.jpg",
        "src1280": "https://cdn.pixabay.com/photo/2023/03/08/13/16/flower-7837752_1280.jpg"
    },
    {
        "id": "242468",
        "src640": "https://cdn.pixabay.com/photo/2014/01/11/22/06/wildflower-242468_640.jpg",
        "src1280": "https://cdn.pixabay.com/photo/2014/01/11/22/06/wildflower-242468_1280.jpg"
    },
    {
        "id": "6187012",
        "src640": "https://cdn.pixabay.com/photo/2021/04/17/23/40/milk-thistle-6187012_640.jpg",
        "src1280": "https://cdn.pixabay.com/photo/2021/04/17/23/40/milk-thistle-6187012_1280.jpg"
    },
    {
        "id": "6326655",
        "src640": "https://cdn.pixabay.com/photo/2021/06/10/17/57/red-hot-poker-6326655_640.jpg",
        "src1280": "https://cdn.pixabay.com/photo/2021/06/10/17/57/red-hot-poker-6326655_1280.jpg"
    },
    {
        "id": "5805841",
        "src640": "https://cdn.pixabay.com/photo/2020/12/05/13/05/flowers-5805841_640.jpg",
        "src1280": "https://cdn.pixabay.com/photo/2020/12/05/13/05/flowers-5805841_1280.jpg"
    },
    {
        "id": "6153378",
        "src640": "https://cdn.pixabay.com/photo/2021/04/05/13/07/daffodil-6153378_640.jpg",
        "src1280": "https://cdn.pixabay.com/photo/2021/04/05/13/07/daffodil-6153378_1280.jpg"
    },
    {
        "id": "6834658",
        "src640": "https://cdn.pixabay.com/photo/2021/11/30/07/46/lotus-6834658_640.jpg",
        "src1280": "https://cdn.pixabay.com/photo/2021/11/30/07/46/lotus-6834658_1280.jpg"
    },
    {
        "id": "7311065",
        "src640": "https://cdn.pixabay.com/photo/2022/07/09/14/56/hydrangea-7311065_640.jpg",
        "src1280": "https://cdn.pixabay.com/photo/2022/07/09/14/56/hydrangea-7311065_1280.jpg"
    },
    {
        "id": "7172570",
        "src640": "https://cdn.pixabay.com/photo/2022/05/03/19/53/flower-7172570_640.jpg",
        "src1280": "https://cdn.pixabay.com/photo/2022/05/03/19/53/flower-7172570_1280.jpg"
    },
    {
        "id": "5983383",
        "src640": "https://cdn.pixabay.com/photo/2021/02/05/04/39/false-sunflower-5983383_640.jpg",
        "src1280": "https://cdn.pixabay.com/photo/2021/02/05/04/39/false-sunflower-5983383_1280.jpg"
    },
    {
        "id": "5527965",
        "src640": "https://cdn.pixabay.com/photo/2020/08/29/20/56/flower-5527965_640.jpg",
        "src1280": "https://cdn.pixabay.com/photo/2020/08/29/20/56/flower-5527965_1280.jpg"
    },
    {
        "id": "7231552",
        "src640": "https://cdn.pixabay.com/photo/2022/05/30/16/09/magnolia-7231552_640.jpg",
        "src1280": "https://cdn.pixabay.com/photo/2022/05/30/16/09/magnolia-7231552_1280.jpg"
    },
    {
        "id": "5154507",
        "src640": "https://cdn.pixabay.com/photo/2020/05/10/15/39/plant-5154507_640.jpg",
        "src1280": "https://cdn.pixabay.com/photo/2020/05/10/15/39/plant-5154507_1280.jpg"
    },
    {
        "id": "6474688",
        "src640": "https://cdn.pixabay.com/photo/2021/07/18/05/47/lotus-6474688_640.jpg",
        "src1280": "https://cdn.pixabay.com/photo/2021/07/18/05/47/lotus-6474688_1280.jpg"
    },
    {
        "id": "7134430",
        "src640": "https://cdn.pixabay.com/photo/2022/04/15/12/56/woman-7134430_640.jpg",
        "src1280": "https://cdn.pixabay.com/photo/2022/04/15/12/56/woman-7134430_1280.jpg"
    },
    {
        "id": "6421",
        "src640": "https://cdn.pixabay.com/photo/2011/04/13/01/13/rob-roy-6421_640.jpg",
        "src1280": "https://cdn.pixabay.com/photo/2011/04/13/01/13/rob-roy-6421_1280.jpg"
    },
    {
        "id": "6316237",
        "src640": "https://cdn.pixabay.com/photo/2021/06/06/19/51/lilac-6316237_640.jpg",
        "src1280": "https://cdn.pixabay.com/photo/2021/06/06/19/51/lilac-6316237_1280.jpg"
    },
    {
        "id": "3311410",
        "src640": "https://cdn.pixabay.com/photo/2018/04/11/19/02/flower-3311410_640.jpg",
        "src1280": "https://cdn.pixabay.com/photo/2018/04/11/19/02/flower-3311410_1280.jpg"
    },
    {
        "id": "3300962",
        "src640": "https://cdn.pixabay.com/photo/2018/04/08/11/28/flower-3300962_640.jpg",
        "src1280": "https://cdn.pixabay.com/photo/2018/04/08/11/28/flower-3300962_1280.jpg"
    },
    {
        "id": "6664957",
        "src640": "https://cdn.pixabay.com/photo/2021/09/28/16/13/lotus-6664957_640.jpg",
        "src1280": "https://cdn.pixabay.com/photo/2021/09/28/16/13/lotus-6664957_1280.jpg"
    },
    {
        "id": "5786697",
        "src640": "https://cdn.pixabay.com/photo/2020/11/29/07/14/poppy-5786697_640.jpg",
        "src1280": "https://cdn.pixabay.com/photo/2020/11/29/07/14/poppy-5786697_1280.jpg"
    },
    {
        "id": "6604482",
        "src640": "https://cdn.pixabay.com/photo/2021/09/07/17/19/grapes-6604482_640.jpg",
        "src1280": "https://cdn.pixabay.com/photo/2021/09/07/17/19/grapes-6604482_1280.jpg"
    },
    {
        "id": "6343316",
        "src640": "https://cdn.pixabay.com/photo/2021/06/17/10/52/tulip-6343316_640.jpg",
        "src1280": "https://cdn.pixabay.com/photo/2021/06/17/10/52/tulip-6343316_1280.jpg"
    },
    {
        "id": "20926",
        "src640": "https://cdn.pixabay.com/photo/2012/03/02/10/36/cactus-20926_640.jpg",
        "src1280": "https://cdn.pixabay.com/photo/2012/03/02/10/36/cactus-20926_1280.jpg"
    },
    {
        "id": "3398925",
        "src640": "https://cdn.pixabay.com/photo/2018/05/14/07/42/plant-3398925_640.jpg",
        "src1280": "https://cdn.pixabay.com/photo/2018/05/14/07/42/plant-3398925_1280.jpg"
    },
    {
        "id": "7136156",
        "src640": "https://cdn.pixabay.com/photo/2022/04/16/11/29/fern-7136156_640.jpg",
        "src1280": "https://cdn.pixabay.com/photo/2022/04/16/11/29/fern-7136156_1280.jpg"
    },
    {
        "id": "2765113",
        "src640": "https://cdn.pixabay.com/photo/2017/09/19/12/05/saffron-2765113_640.jpg",
        "src1280": "https://cdn.pixabay.com/photo/2017/09/19/12/05/saffron-2765113_1280.jpg"
    },
    {
        "id": "62387",
        "src640": "https://cdn.pixabay.com/photo/2012/10/22/18/29/climbing-mauerwein-62387_640.jpg",
        "src1280": "https://cdn.pixabay.com/photo/2012/10/22/18/29/climbing-mauerwein-62387_1280.jpg"
    },
    {
        "id": "2603190",
        "src640": "https://cdn.pixabay.com/photo/2017/08/07/12/13/bridge-2603190_640.jpg",
        "src1280": "https://cdn.pixabay.com/photo/2017/08/07/12/13/bridge-2603190_1280.jpg"
    },
    {
        "id": "7140525",
        "src640": "https://cdn.pixabay.com/photo/2022/04/18/13/16/tomatoes-7140525_640.jpg",
        "src1280": "https://cdn.pixabay.com/photo/2022/04/18/13/16/tomatoes-7140525_1280.jpg"
    },
    {
        "id": "2479089",
        "src640": "https://cdn.pixabay.com/photo/2017/07/06/19/17/dahlia-2479089_640.jpg",
        "src1280": "https://cdn.pixabay.com/photo/2017/07/06/19/17/dahlia-2479089_1280.jpg"
    },
    {
        "id": "2574270",
        "src640": "https://cdn.pixabay.com/photo/2017/08/03/00/08/green-2574270_640.jpg",
        "src1280": "https://cdn.pixabay.com/photo/2017/08/03/00/08/green-2574270_1280.jpg"
    },
    {
        "id": "6393363",
        "src640": "https://cdn.pixabay.com/photo/2021/07/07/06/27/japanese-iris-6393363_640.jpg",
        "src1280": "https://cdn.pixabay.com/photo/2021/07/07/06/27/japanese-iris-6393363_1280.jpg"
    },
    {
        "id": "976178",
        "src640": "https://cdn.pixabay.com/photo/2015/10/07/13/15/lotus-976178_640.jpg",
        "src1280": "https://cdn.pixabay.com/photo/2015/10/07/13/15/lotus-976178_1280.jpg"
    },
    {
        "id": "5773311",
        "src640": "https://cdn.pixabay.com/photo/2020/11/24/17/20/rose-5773311_640.jpg",
        "src1280": "https://cdn.pixabay.com/photo/2020/11/24/17/20/rose-5773311_1280.jpg"
    },
    {
        "id": "2328652",
        "src640": "https://cdn.pixabay.com/photo/2017/05/20/11/27/dandelion-2328652_640.jpg",
        "src1280": "https://cdn.pixabay.com/photo/2017/05/20/11/27/dandelion-2328652_1280.jpg"
    },
    {
        "id": "4944294",
        "src640": "https://cdn.pixabay.com/photo/2020/03/18/14/52/marguerite-4944294_640.jpg",
        "src1280": "https://cdn.pixabay.com/photo/2020/03/18/14/52/marguerite-4944294_1280.jpg"
    },
    {
        "id": "375625",
        "src640": "https://cdn.pixabay.com/photo/2014/06/23/21/11/bird-of-paradise-flower-375625_640.jpg",
        "src1280": "https://cdn.pixabay.com/photo/2014/06/23/21/11/bird-of-paradise-flower-375625_1280.jpg"
    },
    {
        "id": "5904758",
        "src640": "https://cdn.pixabay.com/photo/2021/01/10/11/04/persimmon-5904758_640.jpg",
        "src1280": "https://cdn.pixabay.com/photo/2021/01/10/11/04/persimmon-5904758_1280.jpg"
    }
]