[
    {
        "id": "3508713",
        "src640": "https://cdn.pixabay.com/photo/2018/07/01/01/07/flowers-3508713_640.jpg",
        "src1280": "https://cdn.pixabay.com/photo/2018/07/01/01/07/flowers-3508713_1280.jpg"
    },
    {
        "id": "2676758",
        "src640": "https://cdn.pixabay.com/photo/2017/08/24/13/10/hops-2676758_640.jpg",
        "src1280": "https://cdn.pixabay.com/photo/2017/08/24/13/10/hops-2676758_1280.jpg"
    },
    {
        "id": "6091034",
        "src640": "https://cdn.pixabay.com/photo/2021/03/13/04/44/lotus-6091034_640.jpg",
        "src1280": "https://cdn.pixabay.com/photo/2021/03/13/04/44/lotus-6091034_1280.jpg"
    },
    {
        "id": "2627657",
        "src640": "https://cdn.pixabay.com/photo/2017/08/10/20/46/drops-2627657_640.jpg",
        "src1280": "https://cdn.pixabay.com/photo/2017/08/10/20/46/drops-2627657_1280.jpg"
    },
    {
        "id": "563472",
        "src640": "https://cdn.pixabay.com/photo/2014/12/10/21/55/painting-563472_640.jpg",
        "src1280": "https://cdn.pixabay.com/photo/2014/12/10/21/55/painting-563472_1280.jpg"
    },
    {
        "id": "3294017",
        "src640": "https://cdn.pixabay.com/photo/2018/04/05/20/18/flower-3294017_640.jpg",
        "src1280": "https://cdn.pixabay.com/photo/2018/04/05/20/18/flower-3294017_1280.jpg"
    },
    {
        "id": "4942188",
        "src640": "https://cdn.pixabay.com/photo/2020/03/17/23/34/butterfly-4942188_640.jpg",
        "src1280": "https://cdn.pixabay.com/photo/2020/03/17/23/34/butterfly-4942188_1280.jpg"
    },
    {
        "id": "5429622",
        "src640": "https://cdn.pixabay.com/photo/2020/07/22/19/45/ornamental-flowerpot-5429622_640.jpg",
        "src1280": "https://cdn.pixabay.com/photo/2020/07/22/19/45/ornamental-flowerpot-5429622_1280.jpg"
    },
    {
        "id": "3193599",
        "src640": "https://cdn.pixabay.com/photo/2018/03/02/16/38/flower-3193599_640.jpg",
        "src1280": "https://cdn.pixabay.com/photo/2018/03/02/16/38/flower-3193599_1280.jpg"
    },
    {
        "id": "5441538",
        "src640": "https://cdn.pixabay.com/photo/2020/07/27/07/05/flower-5441538_640.jpg",
        "src1280": "https://cdn.pixabay.com/photo/2020/07/27/07/05/flower-5441538_1280.jpg"
    },
    {
        "id": "3457662",
        "src640": "https://cdn.pixabay.com/photo/2018/06/06/10/56/kite-3457662_640.jpg",
        "src1280": "https://cdn.pixabay.com/photo/2018/06/06/10/56/kite-3457662_1280.jpg"
    },
    {
        "id": "1315114",
        "src640": "https://cdn.pixabay.com/photo/2016/04/07/23/13/landscape-1315114_640.jpg",
        "src1280": "https://cdn.pixabay.com/photo/2016/04/07/23/13/landscape-1315114_1280.jpg"
    },
    {
        "id": "5655464",
        "src640": "https://cdn.pixabay.com/photo/2020/10/14/20/54/flower-5655464_640.jpg",
        "src1280": "https://cdn.pixabay.com/photo/2020/10/14/20/54/flower-5655464_1280.jpg"
    },
    {
        "id": "7517089",
        "src640": "https://cdn.pixabay.com/photo/2022/10/12/17/03/jitterbug-dahlia-7517089_640.jpg",
        "src1280": "https://cdn.pixabay.com/photo/2022/10/12/17/03/jitterbug-dahlia-7517089_1280.jpg"
    },
    {
        "id": "3588811",
        "src640": "https://cdn.pixabay.com/photo/2018/08/07/00/33/alps-3588811_640.jpg",
        "src1280": "https://cdn.pixabay.com/photo/2018/08/07/00/33/alps-3588811_1280.jpg"
    },
    {
        "id": "7180449",
        "src640": "https://cdn.pixabay.com/photo/2022/05/07/14/26/blossoms-7180449_640.jpg",
        "src1280": "https://cdn.pixabay.com/photo/2022/05/07/14/26/blossoms-7180449_1280.jpg"
    },
    {
        "id": "201565",
        "src640": "https://cdn.pixabay.com/photo/2013/10/27/22/45/flower-201565_640.jpg",
        "src1280": "https://cdn.pixabay.com/photo/2013/10/27/22/45/flower-201565_1280.jpg"
    },
    {
        "id": "8240102",
        "src640": "https://cdn.pixabay.com/photo/2023/09/07/23/56/inchplant-8240102_640.jpg",
        "src1280": "https://cdn.pixabay.com/photo/2023/09/07/23/56/inchplant-8240102_1280.jpg"
    },
    {
        "id": "5151358",
        "src640": "https://cdn.pixabay.com/photo/2020/05/09/20/20/succulent-5151358_640.jpg",
        "src1280": "https://cdn.pixabay.com/photo/2020/05/09/20/20/succulent-5151358_1280.jpg"
    },
    {
        "id": "3536724",
        "src640": "https://cdn.pixabay.com/photo/2018/07/13/22/50/hosta-3536724_640.jpg",
        "src1280": "https://cdn.pixabay.com/photo/2018/07/13/22/50/hosta-3536724_1280.jpg"
    },
    {
        "id": "3281034",
        "src640": "https://cdn.pixabay.com/photo/2018/04/01/14/05/easter-3281034_640.jpg",
        "src1280": "https://cdn.pixabay.com/photo/2018/04/01/14/05/easter-3281034_1280.jpg"
    },
    {
        "id": "6586792",
        "src640": "https://cdn.pixabay.com/photo/2021/08/30/18/57/leaf-6586792_640.jpg",
        "src1280": "https://cdn.pixabay.com/photo/2021/08/30/18/57/leaf-6586792_1280.jpg"
    },
    {
        "id": "7747196",
        "src640": "https://cdn.pixabay.com/photo/2023/01/26/22/17/ai-generated-7747196_640.jpg",
        "src1280": "https://cdn.pixabay.com/photo/2023/01/26/22/17/ai-generated-7747196_1280.jpg"
    },
    {
        "id": "5374538",
        "src640": "https://cdn.pixabay.com/photo/2020/07/05/20/36/fuchsia-5374538_640.jpg",
        "src1280": "https://cdn.pixabay.com/photo/2020/07/05/20/36/fuchsia-5374538_1280.jpg"
    },
    {
        "id": "5491207",
        "src640": "https://cdn.pixabay.com/photo/2020/08/15/19/09/meadow-5491207_640.jpg",
        "src1280": "https://cdn.pixabay.com/photo/2020/08/15/19/09/meadow-5491207_1280.jpg"
    },
    {
        "id": "1340071",
        "src640": "https://cdn.pixabay.com/photo/2016/04/19/22/22/chimney-pipe-1340071_640.jpg",
        "src1280": "https://cdn.pixabay.com/photo/2016/04/19/22/22/chimney-pipe-1340071_1280.jpg"
    },
    {
        "id": "3579293",
        "src640": "https://cdn.pixabay.com/photo/2018/08/02/10/56/green-3579293_640.jpg",
        "src1280": "https://cdn.pixabay.com/photo/2018/08/02/10/56/green-3579293_1280.jpg"
    },
    {
        "id": "6277886",
        "src640": "https://cdn.pixabay.com/photo/2021/05/24/06/16/tulip-bud-6277886_640.jpg",
        "src1280": "https://cdn.pixabay.com/photo/2021/05/24/06/16/tulip-bud-6277886_1280.jpg"
    },
    {
        "id": "809615",
        "src640": "https://cdn.pixabay.com/photo/2015/06/14/21/32/flowers-809615_640.jpg",
        "src1280": "https://cdn.pixabay.com/photo/2015/06/14/21/32/flowers-809615_1280.jpg"
    },
    {
        "id": "5446550",
        "src640": "https://cdn.pixabay.com/photo/2020/07/28/23/43/leaves-5446550_640.jpg",
        "src1280": "https://cdn.pixabay.com/photo/2020/07/28/23/43/leaves-5446550_1280.jpg"
    },
    {
        "id": "5560591",
        "src640": "https://cdn.pixabay.com/photo/2020/09/10/14/48/cattail-5560591_640.jpg",
        "src1280": "https://cdn.pixabay.com/photo/2020/09/10/14/48/cattail-5560591_1280.jpg"
    },
    {
        "id": "5482341",
        "src640": "https://cdn.pixabay.com/photo/2020/08/12/10/55/flower-5482341_640.jpg",
        "src1280": "https://cdn.pixabay.com/photo/2020/08/12/10/55/flower-5482341_1280.jpg"
    },
    {
        "id": "994384",
        "src640": "https://cdn.pixabay.com/photo/2015/10/18/13/29/cactus-994384_640.jpg",
        "src1280": "https://cdn.pixabay.com/photo/2015/10/18/13/29/cactus-994384_1280.jpg"
    },
    {
        "id": "3489803",
        "src640": "https://cdn.pixabay.com/photo/2018/06/22/01/26/trim-chive-3489803_640.jpg",
        "src1280": "https://cdn.pixabay.com/photo/2018/06/22/01/26/trim-chive-3489803_1280.jpg"
    },
    {
        "id": "591320",
        "src640": "https://cdn.pixabay.com/photo/2015/01/07/10/24/sedum-591320_640.jpg",
        "src1280": "https://cdn.pixabay.com/photo/2015/01/07/10/24/sedum-591320_1280.jpg"
    },
    {
        "id": "632405",
        "src640": "https://cdn.pixabay.com/photo/2015/02/11/13/08/cactus-632405_640.jpg",
        "src1280": "https://cdn.pixabay.com/photo/2015/02/11/13/08/cactus-632405_1280.jpg"
    },
    {
        "id": "434645",
        "src640": "https://cdn.pixabay.com/photo/2014/09/03/14/43/plant-434645_640.jpg",
        "src1280": "https://cdn.pixabay.com/photo/2014/09/03/14/43/plant-434645_1280.jpg"
    },
    {
        "id": "639596",
        "src640": "https://cdn.pixabay.com/photo/2015/02/17/16/33/black-cherry-639596_640.jpg",
        "src1280": "https://cdn.pixabay.com/photo/2015/02/17/16/33/black-cherry-639596_1280.jpg"
    },
    {
        "id": "4117053",
        "src640": "https://cdn.pixabay.com/photo/2019/04/10/13/10/flowers-4117053_640.jpg",
        "src1280": "https://cdn.pixabay.com/photo/2019/04/10/13/10/flowers-4117053_1280.jpg"
    },
    {
        "id": "4423610",
        "src640": "https://cdn.pixabay.com/photo/2019/08/22/14/09/garden-4423610_640.jpg",
        "src1280": "https://cdn.pixabay.com/photo/2019/08/22/14/09/garden-4423610_1280.jpg"
    },
    {
        "id": "6903134",
        "src640": "https://cdn.pixabay.com/photo/2021/12/30/03/23/grass-6903134_640.jpg",
        "src1280": "https://cdn.pixabay.com/photo/2021/12/30/03/23/grass-6903134_1280.jpg"
    },
    {
        "id": "1225188",
        "src640": "https://cdn.pixabay.com/photo/2016/02/27/06/44/cosmos-1225188_640.jpg",
        "src1280": "https://cdn.pixabay.com/photo/2016/02/27/06/44/cosmos-1225188_1280.jpg"
    },
    {
        "id": "3100355",
        "src640": "https://cdn.pixabay.com/photo/2018/01/23/00/09/flowers-3100355_640.jpg",
        "src1280": "https://cdn.pixabay.com/photo/2018/01/23/00/09/flowers-3100355_1280.jpg"
    },
    {
        "id": "7887163",
        "src640": "https://cdn.pixabay.com/photo/2023/03/30/09/15/cannabis-7887163_640.jpg",
        "src1280": "https://cdn.pixabay.com/photo/2023/03/30/09/15/cannabis-7887163_1280.jpg"
    },
    {
        "id": "7044102",
        "src640": "https://cdn.pixabay.com/photo/2022/03/02/21/41/leaves-7044102_640.jpg",
        "src1280": "https://cdn.pixabay.com/photo/2022/03/02/21/41/leaves-7044102_1280.jpg"
    },
    {
        "id": "77893",
        "src640": "https://cdn.pixabay.com/photo/2013/02/04/20/43/thistle-77893_640.jpg",
        "src1280": "https://cdn.pixabay.com/photo/2013/02/04/20/43/thistle-77893_1280.jpg"
    },
    {
        "id": "7648531",
        "src640": "https://cdn.pixabay.com/photo/2022/12/11/09/36/fruit-7648531_640.jpg",
        "src1280": "https://cdn.pixabay.com/photo/2022/12/11/09/36/fruit-7648531_1280.jpg"
    },
    {
        "id": "7047729",
        "src640": "https://cdn.pixabay.com/photo/2022/03/04/16/57/flower-7047729_640.jpg",
        "src1280": "https://cdn.pixabay.com/photo/2022/03/04/16/57/flower-7047729_1280.jpg"
    },
    {
        "id": "1771528",
        "src640": "https://cdn.pixabay.com/photo/2016/10/26/13/43/leaf-1771528_640.jpg",
        "src1280": "https://cdn.pixabay.com/photo/2016/10/26/13/43/leaf-1771528_1280.jpg"
    },
    {
        "id": "7668603",
        "src640": "https://cdn.pixabay.com/photo/2022/12/20/19/48/nature-7668603_640.jpg",
        "src1280": "https://cdn.pixabay.com/photo/2022/12/20/19/48/nature-7668603_1280.jpg"
    },
    {
        "id": "1185677",
        "src640": "https://cdn.pixabay.com/photo/2016/02/07/21/17/palm-1185677_640.jpg",
        "src1280": "https://cdn.pixabay.com/photo/2016/02/07/21/17/palm-1185677_1280.jpg"
    },
    {
        "id": "6132614",
        "src640": "https://cdn.pixabay.com/photo/2021/03/29/00/11/lotus-6132614_640.jpg",
        "src1280": "https://cdn.pixabay.com/photo/2021/03/29/00/11/lotus-6132614_1280.jpg"
    },
    {
        "id": "1634886",
        "src640": "https://cdn.pixabay.com/photo/2016/08/31/23/29/mullein-1634886_640.jpg",
        "src1280": "https://cdn.pixabay.com/photo/2016/08/31/23/29/mullein-1634886_1280.jpg"
    },
    {
        "id": "7786214",
        "src640": "https://cdn.pixabay.com/photo/2023/02/12/23/33/lizard-7786214_640.jpg",
        "src1280": "https://cdn.pixabay.com/photo/2023/02/12/23/33/lizard-7786214_1280.jpg"
    },
    {
        "id": "2589866",
        "src640": "https://cdn.pixabay.com/photo/2017/08/06/07/28/plant-2589866_640.jpg",
        "src1280": "https://cdn.pixabay.com/photo/2017/08/06/07/28/plant-2589866_1280.jpg"
    },
    {
        "id": "7609621",
        "src640": "https://cdn.pixabay.com/photo/2022/11/22/13/08/butterfly-7609621_640.jpg",
        "src1280": "https://cdn.pixabay.com/photo/2022/11/22/13/08/butterfly-7609621_1280.jpg"
    },
    {
        "id": "6807909",
        "src640": "https://cdn.pixabay.com/photo/2021/11/19/02/21/weed-6807909_640.jpg",
        "src1280": "https://cdn.pixabay.com/photo/2021/11/19/02/21/weed-6807909_1280.jpg"
    },
    {
        "id": "5511712",
        "src640": "https://cdn.pixabay.com/photo/2020/08/23/18/35/moth-5511712_640.jpg",
        "src1280": "https://cdn.pixabay.com/photo/2020/08/23/18/35/moth-5511712_1280.jpg"
    },
    {
        "id": "3209897",
        "src640": "https://cdn.pixabay.com/photo/2018/03/08/21/10/flower-3209897_640.jpg",
        "src1280": "https://cdn.pixabay.com/photo/2018/03/08/21/10/flower-3209897_1280.jpg"
    },
    {
        "id": "6777887",
        "src640": "https://cdn.pixabay.com/photo/2021/11/07/20/44/grass-6777887_640.jpg",
        "src1280": "https://cdn.pixabay.com/photo/2021/11/07/20/44/grass-6777887_1280.jpg"
    },
    {
        "id": "7132269",
        "src640": "https://cdn.pixabay.com/photo/2022/04/14/11/52/yew-7132269_640.jpg",
        "src1280": "https://cdn.pixabay.com/photo/2022/04/14/11/52/yew-7132269_1280.jpg"
    },
    {
        "id": "3354127",
        "src640": "https://cdn.pixabay.com/photo/2018/04/27/09/12/nature-3354127_640.jpg",
        "src1280": "https://cdn.pixabay.com/photo/2018/04/27/09/12/nature-3354127_1280.jpg"
    },
    {
        "id": "4882477",
        "src640": "https://cdn.pixabay.com/photo/2020/02/26/18/26/flower-4882477_640.jpg",
        "src1280": "https://cdn.pixabay.com/photo/2020/02/26/18/26/flower-4882477_1280.jpg"
    },
    {
        "id": "4533246",
        "src640": "https://cdn.pixabay.com/photo/2019/10/07/18/34/tulips-4533246_640.jpg",
        "src1280": "https://cdn.pixabay.com/photo/2019/10/07/18/34/tulips-4533246_1280.jpg"
    },
    {
        "id": "5574013",
        "src640": "https://cdn.pixabay.com/photo/2020/09/15/15/52/rose-5574013_640.jpg",
        "src1280": "https://cdn.pixabay.com/photo/2020/09/15/15/52/rose-5574013_1280.jpg"
    },
    {
        "id": "4750080",
        "src640": "https://cdn.pixabay.com/photo/2020/01/08/13/24/leaves-4750080_640.jpg",
        "src1280": "https://cdn.pixabay.com/photo/2020/01/08/13/24/leaves-4750080_1280.jpg"
    },
    {
        "id": "471898",
        "src640": "https://cdn.pixabay.com/photo/2014/10/03/16/00/flower-471898_640.jpg",
        "src1280": "https://cdn.pixabay.com/photo/2014/10/03/16/00/flower-471898_1280.jpg"
    },
    {
        "id": "5353471",
        "src640": "https://cdn.pixabay.com/photo/2020/06/29/17/18/poppy-5353471_640.jpg",
        "src1280": "https://cdn.pixabay.com/photo/2020/06/29/17/18/poppy-5353471_1280.jpg"
    },
    {
        "id": "7747483",
        "src640": "https://cdn.pixabay.com/photo/2023/01/26/23/46/flower-7747483_640.jpg",
        "src1280": "https://cdn.pixabay.com/photo/2023/01/26/23/46/flower-7747483_1280.jpg"
    },
    {
        "id": "7846915",
        "src640": "https://cdn.pixabay.com/photo/2023/03/12/13/33/boho-7846915_640.jpg",
        "src1280": "https://cdn.pixabay.com/photo/2023/03/12/13/33/boho-7846915_1280.jpg"
    },
    {
        "id": "6076208",
        "src640": "https://cdn.pixabay.com/photo/2021/03/07/13/23/lotus-6076208_640.jpg",
        "src1280": "https://cdn.pixabay.com/photo/2021/03/07/13/23/lotus-6076208_1280.jpg"
    },
    {
        "id": "3189234",
        "src640": "https://cdn.pixabay.com/photo/2018/02/28/22/10/flower-3189234_640.jpg",
        "src1280": "https://cdn.pixabay.com/photo/2018/02/28/22/10/flower-3189234_1280.jpg"
    },
    {
        "id": "2652986",
        "src640": "https://cdn.pixabay.com/photo/2017/08/17/21/39/pattern-2652986_640.jpg",
        "src1280": "https://cdn.pixabay.com/photo/2017/08/17/21/39/pattern-2652986_1280.jpg"
    },
    {
        "id": "5596504",
        "src640": "https://cdn.pixabay.com/photo/2020/09/23/16/42/flowers-5596504_640.jpg",
        "src1280": "https://cdn.pixabay.com/photo/2020/09/23/16/42/flowers-5596504_1280.jpg"
    },
    {
        "id": "8181803",
        "src640": "https://cdn.pixabay.com/photo/2023/08/10/14/24/ai-generated-8181803_640.jpg",
        "src1280": "https://cdn.pixabay.com/photo/2023/08/10/14/24/ai-generated-8181803_1280.jpg"
    },
    {
        "id": "7223433",
        "src640": "https://cdn.pixabay.com/photo/2022/05/26/17/39/flower-7223433_640.jpg",
        "src1280": "https://cdn.pixabay.com/photo/2022/05/26/17/39/flower-7223433_1280.jpg"
    },
    {
        "id": "7965637",
        "src640": "https://cdn.pixabay.com/photo/2023/05/02/17/03/flower-7965637_640.jpg",
        "src1280": "https://cdn.pixabay.com/photo/2023/05/02/17/03/flower-7965637_1280.jpg"
    },
    {
        "id": "7747376",
        "src640": "https://cdn.pixabay.com/photo/2023/01/26/22/30/ai-generated-7747376_640.jpg",
        "src1280": "https://cdn.pixabay.com/photo/2023/01/26/22/30/ai-generated-7747376_1280.jpg"
    },
    {
        "id": "3318495",
        "src640": "https://cdn.pixabay.com/photo/2018/04/14/08/07/nature-3318495_640.jpg",
        "src1280": "https://cdn.pixabay.com/photo/2018/04/14/08/07/nature-3318495_1280.jpg"
    },
    {
        "id": "5217915",
        "src640": "https://cdn.pixabay.com/photo/2020/05/25/09/46/macro-5217915_640.jpg",
        "src1280": "https://cdn.pixabay.com/photo/2020/05/25/09/46/macro-5217915_1280.jpg"
    },
    {
        "id": "6398678",
        "src640": "https://cdn.pixabay.com/photo/2021/07/09/08/52/common-darter-dragonfly-6398678_640.jpg",
        "src1280": "https://cdn.pixabay.com/photo/2021/07/09/08/52/common-darter-dragonfly-6398678_1280.jpg"
    },
    {
        "id": "8090695",
        "src640": "https://cdn.pixabay.com/photo/2023/06/26/20/17/boho-8090695_640.jpg",
        "src1280": "https://cdn.pixabay.com/photo/2023/06/26/20/17/boho-8090695_1280.jpg"
    },
    {
        "id": "7312410",
        "src640": "https://cdn.pixabay.com/photo/2022/07/10/08/23/flowers-7312410_640.jpg",
        "src1280": "https://cdn.pixabay.com/photo/2022/07/10/08/23/flowers-7312410_1280.jpg"
    },
    {
        "id": "6769973",
        "src640": "https://cdn.pixabay.com/photo/2021/11/05/01/45/nature-6769973_640.jpg",
        "src1280": "https://cdn.pixabay.com/photo/2021/11/05/01/45/nature-6769973_1280.jpg"
    },
    {
        "id": "3729723",
        "src640": "https://cdn.pixabay.com/photo/2018/10/07/11/18/spindle-3729723_640.jpg",
        "src1280": "https://cdn.pixabay.com/photo/2018/10/07/11/18/spindle-3729723_1280.jpg"
    },
    {
        "id": "6270767",
        "src640": "https://cdn.pixabay.com/photo/2021/05/21/10/25/lotus-6270767_640.jpg",
        "src1280": "https://cdn.pixabay.com/photo/2021/05/21/10/25/lotus-6270767_1280.jpg"
    },
    {
        "id": "7041538",
        "src640": "https://cdn.pixabay.com/photo/2022/03/01/15/34/flower-7041538_640.jpg",
        "src1280": "https://cdn.pixabay.com/photo/2022/03/01/15/34/flower-7041538_1280.jpg"
    }
]