[
    {
        "id": "2444103",
        "src640": "https://cdn.pixabay.com/photo/2017/06/26/15/44/poppy-2444103_640.jpg",
        "src1280": "https://cdn.pixabay.com/photo/2017/06/26/15/44/poppy-2444103_1280.jpg"
    },
    {
        "id": "7893136",
        "src640": "https://cdn.pixabay.com/photo/2023/04/01/21/25/water-lily-7893136_640.jpg",
        "src1280": "https://cdn.pixabay.com/photo/2023/04/01/21/25/water-lily-7893136_1280.jpg"
    },
    {
        "id": "1547577",
        "src640": "https://cdn.pixabay.com/photo/2016/07/28/11/19/pepperoni-1547577_640.jpg",
        "src1280": "https://cdn.pixabay.com/photo/2016/07/28/11/19/pepperoni-1547577_1280.jpg"
    },
    {
        "id": "8300734",
        "src640": "https://cdn.pixabay.com/photo/2023/10/07/18/15/plant-8300734_640.jpg",
        "src1280": "https://cdn.pixabay.com/photo/2023/10/07/18/15/plant-8300734_1280.jpg"
    },
    {
        "id": "4287345",
        "src640": "https://cdn.pixabay.com/photo/2019/06/20/15/11/cactus-4287345_640.jpg",
        "src1280": "https://cdn.pixabay.com/photo/2019/06/20/15/11/cactus-4287345_1280.jpg"
    },
    {
        "id": "3740851",
        "src640": "https://cdn.pixabay.com/photo/2018/10/11/20/50/watercolor-3740851_640.jpg",
        "src1280": "https://cdn.pixabay.com/photo/2018/10/11/20/50/watercolor-3740851_1280.jpg"
    },
    {
        "id": "7802998",
        "src640": "https://cdn.pixabay.com/photo/2023/02/20/19/37/sunflower-7802998_640.jpg",
        "src1280": "https://cdn.pixabay.com/photo/2023/02/20/19/37/sunflower-7802998_1280.jpg"
    },
    {
        "id": "4678933",
        "src640": "https://cdn.pixabay.com/photo/2019/12/07/09/06/orchid-4678933_640.jpg",
        "src1280": "https://cdn.pixabay.com/photo/2019/12/07/09/06/orchid-4678933_1280.jpg"
    },
    {
        "id": "1598425",
        "src640": "https://cdn.pixabay.com/photo/2016/08/16/17/16/yellow-adonis-1598425_640.jpg",
        "src1280": "https://cdn.pixabay.com/photo/2016/08/16/17/16/yellow-adonis-1598425_1280.jpg"
    },
    {
        "id": "316715",
        "src640": "https://cdn.pixabay.com/photo/2014/04/05/11/40/rose-316715_640.jpg",
        "src1280": "https://cdn.pixabay.com/photo/2014/04/05/11/40/rose-316715_1280.jpg"
    },
    {
        "id": "2958988",
        "src640": "https://cdn.pixabay.com/photo/2017/11/18/01/16/global-warming-2958988_640.jpg",
        "src1280": "https://cdn.pixabay.com/photo/2017/11/18/01/16/global-warming-2958988_1280.jpg"
    },
    {
        "id": "3464255",
        "src640": "https://cdn.pixabay.com/photo/2018/06/09/12/20/orchid-3464255_640.jpg",
        "src1280": "https://cdn.pixabay.com/photo/2018/06/09/12/20/orchid-3464255_1280.jpg"
    },
    {
        "id": "1839106",
        "src640": "https://cdn.pixabay.com/photo/2016/11/19/12/47/close-up-1839106_640.jpg",
        "src1280": "https://cdn.pixabay.com/photo/2016/11/19/12/47/close-up-1839106_1280.jpg"
    },
    {
        "id": "4066319",
        "src640": "https://cdn.pixabay.com/photo/2019/03/19/17/24/flower-4066319_640.jpg",
        "src1280": "https://cdn.pixabay.com/photo/2019/03/19/17/24/flower-4066319_1280.jpg"
    },
    {
        "id": "2586277",
        "src640": "https://cdn.pixabay.com/photo/2017/08/05/22/39/woman-2586277_640.jpg",
        "src1280": "https://cdn.pixabay.com/photo/2017/08/05/22/39/woman-2586277_1280.jpg"
    },
    {
        "id": "8345821",
        "src640": "https://cdn.pixabay.com/photo/2023/10/27/17/16/poinsettia-8345821_640.jpg",
        "src1280": "https://cdn.pixabay.com/photo/2023/10/27/17/16/poinsettia-8345821_1280.jpg"
    },
    {
        "id": "1142855",
        "src640": "https://cdn.pixabay.com/photo/2016/01/16/04/34/cactus-1142855_640.jpg",
        "src1280": "https://cdn.pixabay.com/photo/2016/01/16/04/34/cactus-1142855_1280.jpg"
    },
    {
        "id": "356761",
        "src640": "https://cdn.pixabay.com/photo/2014/05/28/20/00/poppy-356761_640.jpg",
        "src1280": "https://cdn.pixabay.com/photo/2014/05/28/20/00/poppy-356761_1280.jpg"
    },
    {
        "id": "2573419",
        "src640": "https://cdn.pixabay.com/photo/2017/08/02/21/00/interior-2573419_640.jpg",
        "src1280": "https://cdn.pixabay.com/photo/2017/08/02/21/00/interior-2573419_1280.jpg"
    },
    {
        "id": "4493591",
        "src640": "https://cdn.pixabay.com/photo/2019/09/21/10/56/fern-4493591_640.jpg",
        "src1280": "https://cdn.pixabay.com/photo/2019/09/21/10/56/fern-4493591_1280.jpg"
    },
    {
        "id": "2000617",
        "src640": "https://cdn.pixabay.com/photo/2017/01/22/19/21/house-plant-2000617_640.jpg",
        "src1280": "https://cdn.pixabay.com/photo/2017/01/22/19/21/house-plant-2000617_1280.jpg"
    },
    {
        "id": "1835114",
        "src640": "https://cdn.pixabay.com/photo/2016/11/18/14/56/vintage-1835114_640.jpg",
        "src1280": "https://cdn.pixabay.com/photo/2016/11/18/14/56/vintage-1835114_1280.jpg"
    },
    {
        "id": "2754775",
        "src640": "https://cdn.pixabay.com/photo/2017/09/16/08/12/flowerpots-2754775_640.jpg",
        "src1280": "https://cdn.pixabay.com/photo/2017/09/16/08/12/flowerpots-2754775_1280.jpg"
    },
    {
        "id": "1519992",
        "src640": "https://cdn.pixabay.com/photo/2016/07/15/18/57/kate-greenaway-1519992_640.jpg",
        "src1280": "https://cdn.pixabay.com/photo/2016/07/15/18/57/kate-greenaway-1519992_1280.jpg"
    },
    {
        "id": "2304975",
        "src640": "https://cdn.pixabay.com/photo/2017/05/11/18/20/cool-2304975_640.jpg",
        "src1280": "https://cdn.pixabay.com/photo/2017/05/11/18/20/cool-2304975_1280.jpg"
    },
    {
        "id": "8202414",
        "src640": "https://cdn.pixabay.com/photo/2023/08/20/14/02/tufted-air-plant-8202414_640.jpg",
        "src1280": "https://cdn.pixabay.com/photo/2023/08/20/14/02/tufted-air-plant-8202414_1280.jpg"
    },
    {
        "id": "7902354",
        "src640": "https://cdn.pixabay.com/photo/2023/04/05/21/31/flower-7902354_640.jpg",
        "src1280": "https://cdn.pixabay.com/photo/2023/04/05/21/31/flower-7902354_1280.jpg"
    },
    {
        "id": "1540866",
        "src640": "https://cdn.pixabay.com/photo/2016/07/25/16/59/mallow-1540866_640.jpg",
        "src1280": "https://cdn.pixabay.com/photo/2016/07/25/16/59/mallow-1540866_1280.jpg"
    },
    {
        "id": "1539357",
        "src640": "https://cdn.pixabay.com/photo/2016/07/24/21/43/pokeweed-1539357_640.jpg",
        "src1280": "https://cdn.pixabay.com/photo/2016/07/24/21/43/pokeweed-1539357_1280.jpg"
    },
    {
        "id": "2594952",
        "src640": "https://cdn.pixabay.com/photo/2017/08/06/18/31/green-2594952_640.jpg",
        "src1280": "https://cdn.pixabay.com/photo/2017/08/06/18/31/green-2594952_1280.jpg"
    }
]