[
    {
        "id": "4533285",
        "src640": "https://cdn.pixabay.com/photo/2019/10/07/18/41/sunflower-4533285_640.jpg",
        "src1280": "https://cdn.pixabay.com/photo/2019/10/07/18/41/sunflower-4533285_1280.jpg"
    },
    {
        "id": "4304572",
        "src640": "https://cdn.pixabay.com/photo/2019/06/28/17/13/poppy-4304572_640.jpg",
        "src1280": "https://cdn.pixabay.com/photo/2019/06/28/17/13/poppy-4304572_1280.jpg"
    },
    {
        "id": "2612295",
        "src640": "https://cdn.pixabay.com/photo/2017/08/08/18/39/sunset-2612295_640.jpg",
        "src1280": "https://cdn.pixabay.com/photo/2017/08/08/18/39/sunset-2612295_1280.jpg"
    },
    {
        "id": "7962847",
        "src640": "https://cdn.pixabay.com/photo/2023/05/01/12/08/flowers-7962847_640.jpg",
        "src1280": "https://cdn.pixabay.com/photo/2023/05/01/12/08/flowers-7962847_1280.jpg"
    },
    {
        "id": "7698176",
        "src640": "https://cdn.pixabay.com/photo/2023/01/05/06/13/clover-7698176_640.jpg",
        "src1280": "https://cdn.pixabay.com/photo/2023/01/05/06/13/clover-7698176_1280.jpg"
    },
    {
        "id": "2589125",
        "src640": "https://cdn.pixabay.com/photo/2017/08/06/05/33/snow-2589125_640.jpg",
        "src1280": "https://cdn.pixabay.com/photo/2017/08/06/05/33/snow-2589125_1280.jpg"
    },
    {
        "id": "5305719",
        "src640": "https://cdn.pixabay.com/photo/2020/06/16/13/39/nightcap-5305719_640.jpg",
        "src1280": "https://cdn.pixabay.com/photo/2020/06/16/13/39/nightcap-5305719_1280.jpg"
    },
    {
        "id": "4356447",
        "src640": "https://cdn.pixabay.com/photo/2019/07/23/02/02/banksia-4356447_640.jpg",
        "src1280": "https://cdn.pixabay.com/photo/2019/07/23/02/02/banksia-4356447_1280.jpg"
    },
    {
        "id": "3757372",
        "src640": "https://cdn.pixabay.com/photo/2018/10/18/21/01/rose-3757372_640.jpg",
        "src1280": "https://cdn.pixabay.com/photo/2018/10/18/21/01/rose-3757372_1280.jpg"
    },
    {
        "id": "4078490",
        "src640": "https://cdn.pixabay.com/photo/2019/03/24/19/38/flower-4078490_640.jpg",
        "src1280": "https://cdn.pixabay.com/photo/2019/03/24/19/38/flower-4078490_1280.jpg"
    },
    {
        "id": "1968018",
        "src640": "https://cdn.pixabay.com/photo/2017/01/10/00/08/sun-flower-1968018_640.jpg",
        "src1280": "https://cdn.pixabay.com/photo/2017/01/10/00/08/sun-flower-1968018_1280.jpg"
    },
    {
        "id": "6090626",
        "src640": "https://cdn.pixabay.com/photo/2021/03/12/22/09/tulips-6090626_640.jpg",
        "src1280": "https://cdn.pixabay.com/photo/2021/03/12/22/09/tulips-6090626_1280.jpg"
    },
    {
        "id": "452463",
        "src640": "https://cdn.pixabay.com/photo/2014/09/19/13/05/lily-452463_640.jpg",
        "src1280": "https://cdn.pixabay.com/photo/2014/09/19/13/05/lily-452463_1280.jpg"
    },
    {
        "id": "2762743",
        "src640": "https://cdn.pixabay.com/photo/2017/09/18/18/41/stonecrop-2762743_640.jpg",
        "src1280": "https://cdn.pixabay.com/photo/2017/09/18/18/41/stonecrop-2762743_1280.jpg"
    },
    {
        "id": "855530",
        "src640": "https://cdn.pixabay.com/photo/2015/07/22/13/39/mentha-spicata-855530_640.jpg",
        "src1280": "https://cdn.pixabay.com/photo/2015/07/22/13/39/mentha-spicata-855530_1280.jpg"
    },
    {
        "id": "3433273",
        "src640": "https://cdn.pixabay.com/photo/2018/05/27/10/56/rose-3433273_640.jpg",
        "src1280": "https://cdn.pixabay.com/photo/2018/05/27/10/56/rose-3433273_1280.jpg"
    },
    {
        "id": "2458576",
        "src640": "https://cdn.pixabay.com/photo/2017/06/30/15/53/passiflora-2458576_640.jpg",
        "src1280": "https://cdn.pixabay.com/photo/2017/06/30/15/53/passiflora-2458576_1280.jpg"
    },
    {
        "id": "3705862",
        "src640": "https://cdn.pixabay.com/photo/2018/09/26/22/57/buckeye-3705862_640.jpg",
        "src1280": "https://cdn.pixabay.com/photo/2018/09/26/22/57/buckeye-3705862_1280.jpg"
    },
    {
        "id": "3999882",
        "src640": "https://cdn.pixabay.com/photo/2019/02/16/08/48/butterfly-3999882_640.jpg",
        "src1280": "https://cdn.pixabay.com/photo/2019/02/16/08/48/butterfly-3999882_1280.jpg"
    },
    {
        "id": "7642218",
        "src640": "https://cdn.pixabay.com/photo/2022/12/07/22/14/painted-daisy-7642218_640.jpg",
        "src1280": "https://cdn.pixabay.com/photo/2022/12/07/22/14/painted-daisy-7642218_1280.jpg"
    },
    {
        "id": "7599300",
        "src640": "https://cdn.pixabay.com/photo/2022/11/18/01/49/lotus-7599300_640.jpg",
        "src1280": "https://cdn.pixabay.com/photo/2022/11/18/01/49/lotus-7599300_1280.jpg"
    },
    {
        "id": "5187510",
        "src640": "https://cdn.pixabay.com/photo/2020/05/18/17/03/cornflower-5187510_640.jpg",
        "src1280": "https://cdn.pixabay.com/photo/2020/05/18/17/03/cornflower-5187510_1280.jpg"
    },
    {
        "id": "54110",
        "src640": "https://cdn.pixabay.com/photo/2012/08/11/14/45/tulips-54110_640.jpg",
        "src1280": "https://cdn.pixabay.com/photo/2012/08/11/14/45/tulips-54110_1280.jpg"
    },
    {
        "id": "6663300",
        "src640": "https://cdn.pixabay.com/photo/2021/09/28/05/43/honey-bee-6663300_640.jpg",
        "src1280": "https://cdn.pixabay.com/photo/2021/09/28/05/43/honey-bee-6663300_1280.jpg"
    },
    {
        "id": "1915437",
        "src640": "https://cdn.pixabay.com/photo/2016/12/18/10/59/flowers-1915437_640.jpg",
        "src1280": "https://cdn.pixabay.com/photo/2016/12/18/10/59/flowers-1915437_1280.jpg"
    },
    {
        "id": "1117482",
        "src640": "https://cdn.pixabay.com/photo/2016/01/02/01/29/oranges-1117482_640.jpg",
        "src1280": "https://cdn.pixabay.com/photo/2016/01/02/01/29/oranges-1117482_1280.jpg"
    },
    {
        "id": "6373097",
        "src640": "https://cdn.pixabay.com/photo/2021/06/29/03/15/lotus-6373097_640.jpg",
        "src1280": "https://cdn.pixabay.com/photo/2021/06/29/03/15/lotus-6373097_1280.jpg"
    },
    {
        "id": "7852925",
        "src640": "https://cdn.pixabay.com/photo/2023/03/14/18/22/boho-7852925_640.jpg",
        "src1280": "https://cdn.pixabay.com/photo/2023/03/14/18/22/boho-7852925_1280.jpg"
    },
    {
        "id": "4872450",
        "src640": "https://cdn.pixabay.com/photo/2020/02/23/07/03/cactus-4872450_640.jpg",
        "src1280": "https://cdn.pixabay.com/photo/2020/02/23/07/03/cactus-4872450_1280.jpg"
    },
    {
        "id": "4260731",
        "src640": "https://cdn.pixabay.com/photo/2019/06/08/18/14/rose-4260731_640.jpg",
        "src1280": "https://cdn.pixabay.com/photo/2019/06/08/18/14/rose-4260731_1280.jpg"
    },
    {
        "id": "5532167",
        "src640": "https://cdn.pixabay.com/photo/2020/08/31/11/20/flowers-5532167_640.jpg",
        "src1280": "https://cdn.pixabay.com/photo/2020/08/31/11/20/flowers-5532167_1280.jpg"
    },
    {
        "id": "971817",
        "src640": "https://cdn.pixabay.com/photo/2015/10/04/20/27/mullein-971817_640.jpg",
        "src1280": "https://cdn.pixabay.com/photo/2015/10/04/20/27/mullein-971817_1280.jpg"
    },
    {
        "id": "4222563",
        "src640": "https://cdn.pixabay.com/photo/2019/05/22/21/19/tulip-4222563_640.jpg",
        "src1280": "https://cdn.pixabay.com/photo/2019/05/22/21/19/tulip-4222563_1280.jpg"
    },
    {
        "id": "393404",
        "src640": "https://cdn.pixabay.com/photo/2014/07/14/20/28/cycad-393404_640.jpg",
        "src1280": "https://cdn.pixabay.com/photo/2014/07/14/20/28/cycad-393404_1280.jpg"
    },
    {
        "id": "4689392",
        "src640": "https://cdn.pixabay.com/photo/2019/12/11/21/56/green-4689392_640.jpg",
        "src1280": "https://cdn.pixabay.com/photo/2019/12/11/21/56/green-4689392_1280.jpg"
    },
    {
        "id": "8344966",
        "src640": "https://cdn.pixabay.com/photo/2023/10/27/10/29/posing-8344966_640.jpg",
        "src1280": "https://cdn.pixabay.com/photo/2023/10/27/10/29/posing-8344966_1280.jpg"
    },
    {
        "id": "301863",
        "src640": "https://cdn.pixabay.com/photo/2014/03/31/11/32/rose-301863_640.jpg",
        "src1280": "https://cdn.pixabay.com/photo/2014/03/31/11/32/rose-301863_1280.jpg"
    },
    {
        "id": "7715381",
        "src640": "https://cdn.pixabay.com/photo/2023/01/13/06/29/gerbera-7715381_640.jpg",
        "src1280": "https://cdn.pixabay.com/photo/2023/01/13/06/29/gerbera-7715381_1280.jpg"
    },
    {
        "id": "6655382",
        "src640": "https://cdn.pixabay.com/photo/2021/09/25/16/57/butterfly-6655382_640.jpg",
        "src1280": "https://cdn.pixabay.com/photo/2021/09/25/16/57/butterfly-6655382_1280.jpg"
    },
    {
        "id": "940243",
        "src640": "https://cdn.pixabay.com/photo/2015/09/14/22/09/trees-940243_640.jpg",
        "src1280": "https://cdn.pixabay.com/photo/2015/09/14/22/09/trees-940243_1280.jpg"
    },
    {
        "id": "5188785",
        "src640": "https://cdn.pixabay.com/photo/2020/05/18/23/44/bee-5188785_640.jpg",
        "src1280": "https://cdn.pixabay.com/photo/2020/05/18/23/44/bee-5188785_1280.jpg"
    },
    {
        "id": "3894159",
        "src640": "https://cdn.pixabay.com/photo/2018/12/25/11/55/gladiolus-3894159_640.jpg",
        "src1280": "https://cdn.pixabay.com/photo/2018/12/25/11/55/gladiolus-3894159_1280.jpg"
    },
    {
        "id": "3796809",
        "src640": "https://cdn.pixabay.com/photo/2018/11/05/20/22/flower-3796809_640.jpg",
        "src1280": "https://cdn.pixabay.com/photo/2018/11/05/20/22/flower-3796809_1280.jpg"
    },
    {
        "id": "2564172",
        "src640": "https://cdn.pixabay.com/photo/2017/08/01/10/00/flower-2564172_640.jpg",
        "src1280": "https://cdn.pixabay.com/photo/2017/08/01/10/00/flower-2564172_1280.jpg"
    },
    {
        "id": "399676",
        "src640": "https://cdn.pixabay.com/photo/2014/07/22/20/59/climber-plant-399676_640.jpg",
        "src1280": "https://cdn.pixabay.com/photo/2014/07/22/20/59/climber-plant-399676_1280.jpg"
    },
    {
        "id": "5346511",
        "src640": "https://cdn.pixabay.com/photo/2020/06/27/16/55/bloom-5346511_640.jpg",
        "src1280": "https://cdn.pixabay.com/photo/2020/06/27/16/55/bloom-5346511_1280.jpg"
    },
    {
        "id": "5283314",
        "src640": "https://cdn.pixabay.com/photo/2020/06/10/16/15/flowers-5283314_640.jpg",
        "src1280": "https://cdn.pixabay.com/photo/2020/06/10/16/15/flowers-5283314_1280.jpg"
    },
    {
        "id": "3385286",
        "src640": "https://cdn.pixabay.com/photo/2018/05/09/13/33/cute-3385286_640.jpg",
        "src1280": "https://cdn.pixabay.com/photo/2018/05/09/13/33/cute-3385286_1280.jpg"
    },
    {
        "id": "2603266",
        "src640": "https://cdn.pixabay.com/photo/2017/08/07/12/23/dark-2603266_640.jpg",
        "src1280": "https://cdn.pixabay.com/photo/2017/08/07/12/23/dark-2603266_1280.jpg"
    },
    {
        "id": "4511604",
        "src640": "https://cdn.pixabay.com/photo/2019/09/28/19/20/chamomile-4511604_640.jpg",
        "src1280": "https://cdn.pixabay.com/photo/2019/09/28/19/20/chamomile-4511604_1280.jpg"
    },
    {
        "id": "2398379",
        "src640": "https://cdn.pixabay.com/photo/2017/06/13/10/41/dandelion-2398379_640.jpg",
        "src1280": "https://cdn.pixabay.com/photo/2017/06/13/10/41/dandelion-2398379_1280.jpg"
    },
    {
        "id": "1539664",
        "src640": "https://cdn.pixabay.com/photo/2016/07/25/01/03/bindweed-1539664_640.jpg",
        "src1280": "https://cdn.pixabay.com/photo/2016/07/25/01/03/bindweed-1539664_1280.jpg"
    },
    {
        "id": "6220646",
        "src640": "https://cdn.pixabay.com/photo/2021/05/01/09/22/lotus-flower-6220646_640.jpg",
        "src1280": "https://cdn.pixabay.com/photo/2021/05/01/09/22/lotus-flower-6220646_1280.jpg"
    },
    {
        "id": "4471325",
        "src640": "https://cdn.pixabay.com/photo/2019/09/12/11/33/sight-glass-4471325_640.jpg",
        "src1280": "https://cdn.pixabay.com/photo/2019/09/12/11/33/sight-glass-4471325_1280.jpg"
    },
    {
        "id": "3420999",
        "src640": "https://cdn.pixabay.com/photo/2018/05/22/10/23/rose-3420999_640.jpg",
        "src1280": "https://cdn.pixabay.com/photo/2018/05/22/10/23/rose-3420999_1280.jpg"
    },
    {
        "id": "1044119",
        "src640": "https://cdn.pixabay.com/photo/2015/11/15/08/21/flower-1044119_640.jpg",
        "src1280": "https://cdn.pixabay.com/photo/2015/11/15/08/21/flower-1044119_1280.jpg"
    },
    {
        "id": "7624321",
        "src640": "https://cdn.pixabay.com/photo/2022/11/29/11/24/mushrooms-7624321_640.jpg",
        "src1280": "https://cdn.pixabay.com/photo/2022/11/29/11/24/mushrooms-7624321_1280.jpg"
    },
    {
        "id": "5472887",
        "src640": "https://cdn.pixabay.com/photo/2020/08/08/12/20/flower-5472887_640.jpg",
        "src1280": "https://cdn.pixabay.com/photo/2020/08/08/12/20/flower-5472887_1280.jpg"
    },
    {
        "id": "2218458",
        "src640": "https://cdn.pixabay.com/photo/2017/04/10/12/52/wind-turbine-2218458_640.jpg",
        "src1280": "https://cdn.pixabay.com/photo/2017/04/10/12/52/wind-turbine-2218458_1280.jpg"
    },
    {
        "id": "4745258",
        "src640": "https://cdn.pixabay.com/photo/2020/01/06/12/38/thistle-4745258_640.jpg",
        "src1280": "https://cdn.pixabay.com/photo/2020/01/06/12/38/thistle-4745258_1280.jpg"
    },
    {
        "id": "1377281",
        "src640": "https://cdn.pixabay.com/photo/2016/05/07/10/29/chamomile-1377281_640.jpg",
        "src1280": "https://cdn.pixabay.com/photo/2016/05/07/10/29/chamomile-1377281_1280.jpg"
    },
    {
        "id": "144844",
        "src640": "https://cdn.pixabay.com/photo/2013/07/12/09/42/rosebush-144844_640.jpg",
        "src1280": "https://cdn.pixabay.com/photo/2013/07/12/09/42/rosebush-144844_1280.jpg"
    },
    {
        "id": "4323280",
        "src640": "https://cdn.pixabay.com/photo/2019/07/07/21/10/rose-4323280_640.jpg",
        "src1280": "https://cdn.pixabay.com/photo/2019/07/07/21/10/rose-4323280_1280.jpg"
    },
    {
        "id": "1117670",
        "src640": "https://cdn.pixabay.com/photo/2016/01/02/02/09/tribe-1117670_640.jpg",
        "src1280": "https://cdn.pixabay.com/photo/2016/01/02/02/09/tribe-1117670_1280.jpg"
    },
    {
        "id": "7406876",
        "src640": "https://cdn.pixabay.com/photo/2022/08/24/04/11/flower-7406876_640.jpg",
        "src1280": "https://cdn.pixabay.com/photo/2022/08/24/04/11/flower-7406876_1280.jpg"
    },
    {
        "id": "2793592",
        "src640": "https://cdn.pixabay.com/photo/2017/09/27/21/52/green-plant-2793592_640.jpg",
        "src1280": "https://cdn.pixabay.com/photo/2017/09/27/21/52/green-plant-2793592_1280.jpg"
    },
    {
        "id": "5080263",
        "src640": "https://cdn.pixabay.com/photo/2020/04/22/22/04/wild-strawberry-5080263_640.jpg",
        "src1280": "https://cdn.pixabay.com/photo/2020/04/22/22/04/wild-strawberry-5080263_1280.jpg"
    },
    {
        "id": "8308005",
        "src640": "https://cdn.pixabay.com/photo/2023/10/11/08/08/bee-8308005_640.jpg",
        "src1280": "https://cdn.pixabay.com/photo/2023/10/11/08/08/bee-8308005_1280.jpg"
    },
    {
        "id": "2124737",
        "src640": "https://cdn.pixabay.com/photo/2017/03/07/17/33/insect-2124737_640.jpg",
        "src1280": "https://cdn.pixabay.com/photo/2017/03/07/17/33/insect-2124737_1280.jpg"
    },
    {
        "id": "4855667",
        "src640": "https://cdn.pixabay.com/photo/2020/02/17/07/14/cactus-4855667_640.jpg",
        "src1280": "https://cdn.pixabay.com/photo/2020/02/17/07/14/cactus-4855667_1280.jpg"
    },
    {
        "id": "6143176",
        "src640": "https://cdn.pixabay.com/photo/2021/04/01/20/02/willow-6143176_640.jpg",
        "src1280": "https://cdn.pixabay.com/photo/2021/04/01/20/02/willow-6143176_1280.jpg"
    },
    {
        "id": "4997457",
        "src640": "https://cdn.pixabay.com/photo/2020/04/03/05/21/vine-4997457_640.jpg",
        "src1280": "https://cdn.pixabay.com/photo/2020/04/03/05/21/vine-4997457_1280.jpg"
    },
    {
        "id": "4929183",
        "src640": "https://cdn.pixabay.com/photo/2020/03/13/21/22/heliconia-4929183_640.jpg",
        "src1280": "https://cdn.pixabay.com/photo/2020/03/13/21/22/heliconia-4929183_1280.jpg"
    },
    {
        "id": "218473",
        "src640": "https://cdn.pixabay.com/photo/2013/11/26/01/10/flower-218473_640.jpg",
        "src1280": "https://cdn.pixabay.com/photo/2013/11/26/01/10/flower-218473_1280.jpg"
    },
    {
        "id": "387468",
        "src640": "https://cdn.pixabay.com/photo/2014/07/08/14/17/pears-387468_640.jpg",
        "src1280": "https://cdn.pixabay.com/photo/2014/07/08/14/17/pears-387468_1280.jpg"
    },
    {
        "id": "3532042",
        "src640": "https://cdn.pixabay.com/photo/2018/07/11/21/57/cranesbill-3532042_640.jpg",
        "src1280": "https://cdn.pixabay.com/photo/2018/07/11/21/57/cranesbill-3532042_1280.jpg"
    },
    {
        "id": "3476261",
        "src640": "https://cdn.pixabay.com/photo/2018/06/15/07/00/bee-3476261_640.jpg",
        "src1280": "https://cdn.pixabay.com/photo/2018/06/15/07/00/bee-3476261_1280.jpg"
    },
    {
        "id": "4068985",
        "src640": "https://cdn.pixabay.com/photo/2019/03/20/16/51/hyacinth-4068985_640.jpg",
        "src1280": "https://cdn.pixabay.com/photo/2019/03/20/16/51/hyacinth-4068985_1280.jpg"
    },
    {
        "id": "3543644",
        "src640": "https://cdn.pixabay.com/photo/2018/07/17/06/49/hydroponic-3543644_640.jpg",
        "src1280": "https://cdn.pixabay.com/photo/2018/07/17/06/49/hydroponic-3543644_1280.jpg"
    },
    {
        "id": "4595792",
        "src640": "https://cdn.pixabay.com/photo/2019/11/02/06/56/rose-4595792_640.jpg",
        "src1280": "https://cdn.pixabay.com/photo/2019/11/02/06/56/rose-4595792_1280.jpg"
    },
    {
        "id": "7829687",
        "src640": "https://cdn.pixabay.com/photo/2023/03/04/14/55/crocus-7829687_640.jpg",
        "src1280": "https://cdn.pixabay.com/photo/2023/03/04/14/55/crocus-7829687_1280.jpg"
    },
    {
        "id": "3283803",
        "src640": "https://cdn.pixabay.com/photo/2018/04/02/12/52/nature-3283803_640.jpg",
        "src1280": "https://cdn.pixabay.com/photo/2018/04/02/12/52/nature-3283803_1280.jpg"
    },
    {
        "id": "3680991",
        "src640": "https://cdn.pixabay.com/photo/2018/09/16/09/48/autumn-3680991_640.jpg",
        "src1280": "https://cdn.pixabay.com/photo/2018/09/16/09/48/autumn-3680991_1280.jpg"
    },
    {
        "id": "270298",
        "src640": "https://cdn.pixabay.com/photo/2014/02/19/22/46/hoverfly-270298_640.jpg",
        "src1280": "https://cdn.pixabay.com/photo/2014/02/19/22/46/hoverfly-270298_1280.jpg"
    },
    {
        "id": "641390",
        "src640": "https://cdn.pixabay.com/photo/2015/02/18/20/02/tender-641390_640.jpg",
        "src1280": "https://cdn.pixabay.com/photo/2015/02/18/20/02/tender-641390_1280.jpg"
    },
    {
        "id": "1282392",
        "src640": "https://cdn.pixabay.com/photo/2016/03/27/09/21/flower-1282392_640.jpg",
        "src1280": "https://cdn.pixabay.com/photo/2016/03/27/09/21/flower-1282392_1280.jpg"
    },
    {
        "id": "3844110",
        "src640": "https://cdn.pixabay.com/photo/2018/11/28/17/07/flower-3844110_640.jpg",
        "src1280": "https://cdn.pixabay.com/photo/2018/11/28/17/07/flower-3844110_1280.jpg"
    },
    {
        "id": "3741913",
        "src640": "https://cdn.pixabay.com/photo/2018/10/12/11/11/beautiful-3741913_640.jpg",
        "src1280": "https://cdn.pixabay.com/photo/2018/10/12/11/11/beautiful-3741913_1280.jpg"
    },
    {
        "id": "5335405",
        "src640": "https://cdn.pixabay.com/photo/2020/06/24/09/21/bud-5335405_640.jpg",
        "src1280": "https://cdn.pixabay.com/photo/2020/06/24/09/21/bud-5335405_1280.jpg"
    },
    {
        "id": "6889111",
        "src640": "https://cdn.pixabay.com/photo/2021/12/23/09/58/hazelnut-6889111_640.jpg",
        "src1280": "https://cdn.pixabay.com/photo/2021/12/23/09/58/hazelnut-6889111_1280.jpg"
    },
    {
        "id": "3230972",
        "src640": "https://cdn.pixabay.com/photo/2018/03/16/11/38/nature-3230972_640.jpg",
        "src1280": "https://cdn.pixabay.com/photo/2018/03/16/11/38/nature-3230972_1280.jpg"
    },
    {
        "id": "3251414",
        "src640": "https://cdn.pixabay.com/photo/2018/03/22/18/28/nature-3251414_640.jpg",
        "src1280": "https://cdn.pixabay.com/photo/2018/03/22/18/28/nature-3251414_1280.jpg"
    }
]