[
    {
        "id": "4581742",
        "src640": "https://cdn.pixabay.com/photo/2019/10/27/13/21/rose-4581742_640.jpg",
        "src1280": "https://cdn.pixabay.com/photo/2019/10/27/13/21/rose-4581742_1280.jpg"
    },
    {
        "id": "7749128",
        "src640": "https://cdn.pixabay.com/photo/2023/01/27/17/04/hazelnut-7749128_640.jpg",
        "src1280": "https://cdn.pixabay.com/photo/2023/01/27/17/04/hazelnut-7749128_1280.jpg"
    },
    {
        "id": "4947118",
        "src640": "https://cdn.pixabay.com/photo/2020/03/19/10/57/pansy-4947118_640.jpg",
        "src1280": "https://cdn.pixabay.com/photo/2020/03/19/10/57/pansy-4947118_1280.jpg"
    },
    {
        "id": "4929327",
        "src640": "https://cdn.pixabay.com/photo/2020/03/13/23/38/spring-flower-4929327_640.jpg",
        "src1280": "https://cdn.pixabay.com/photo/2020/03/13/23/38/spring-flower-4929327_1280.jpg"
    },
    {
        "id": "3359433",
        "src640": "https://cdn.pixabay.com/photo/2018/04/29/09/20/flowers-3359433_640.jpg",
        "src1280": "https://cdn.pixabay.com/photo/2018/04/29/09/20/flowers-3359433_1280.jpg"
    },
    {
        "id": "4112347",
        "src640": "https://cdn.pixabay.com/photo/2019/04/08/16/48/nature-4112347_640.jpg",
        "src1280": "https://cdn.pixabay.com/photo/2019/04/08/16/48/nature-4112347_1280.jpg"
    },
    {
        "id": "3380063",
        "src640": "https://cdn.pixabay.com/photo/2018/05/07/04/39/nature-3380063_640.jpg",
        "src1280": "https://cdn.pixabay.com/photo/2018/05/07/04/39/nature-3380063_1280.jpg"
    },
    {
        "id": "4263341",
        "src640": "https://cdn.pixabay.com/photo/2019/06/10/01/16/plant-4263341_640.jpg",
        "src1280": "https://cdn.pixabay.com/photo/2019/06/10/01/16/plant-4263341_1280.jpg"
    },
    {
        "id": "620846",
        "src640": "https://cdn.pixabay.com/photo/2015/02/02/11/28/magnolia-620846_640.jpg",
        "src1280": "https://cdn.pixabay.com/photo/2015/02/02/11/28/magnolia-620846_1280.jpg"
    },
    {
        "id": "6494365",
        "src640": "https://cdn.pixabay.com/photo/2021/07/26/13/40/lotus-6494365_640.jpg",
        "src1280": "https://cdn.pixabay.com/photo/2021/07/26/13/40/lotus-6494365_1280.jpg"
    },
    {
        "id": "4356449",
        "src640": "https://cdn.pixabay.com/photo/2019/07/23/02/04/red-4356449_640.jpg",
        "src1280": "https://cdn.pixabay.com/photo/2019/07/23/02/04/red-4356449_1280.jpg"
    },
    {
        "id": "614923",
        "src640": "https://cdn.pixabay.com/photo/2015/01/28/14/44/drop-614923_640.jpg",
        "src1280": "https://cdn.pixabay.com/photo/2015/01/28/14/44/drop-614923_1280.jpg"
    },
    {
        "id": "8186824",
        "src640": "https://cdn.pixabay.com/photo/2023/08/13/05/24/sun-8186824_640.jpg",
        "src1280": "https://cdn.pixabay.com/photo/2023/08/13/05/24/sun-8186824_1280.jpg"
    },
    {
        "id": "8440149",
        "src640": "https://cdn.pixabay.com/photo/2023/12/09/20/53/vase-8440149_640.jpg",
        "src1280": "https://cdn.pixabay.com/photo/2023/12/09/20/53/vase-8440149_1280.jpg"
    },
    {
        "id": "6265104",
        "src640": "https://cdn.pixabay.com/photo/2021/05/19/06/33/tulips-6265104_640.jpg",
        "src1280": "https://cdn.pixabay.com/photo/2021/05/19/06/33/tulips-6265104_1280.jpg"
    },
    {
        "id": "3233425",
        "src640": "https://cdn.pixabay.com/photo/2018/03/17/09/01/flower-3233425_640.jpg",
        "src1280": "https://cdn.pixabay.com/photo/2018/03/17/09/01/flower-3233425_1280.jpg"
    },
    {
        "id": "7732580",
        "src640": "https://cdn.pixabay.com/photo/2023/01/20/21/31/adonis-blue-butterfly-7732580_640.jpg",
        "src1280": "https://cdn.pixabay.com/photo/2023/01/20/21/31/adonis-blue-butterfly-7732580_1280.jpg"
    },
    {
        "id": "3189481",
        "src640": "https://cdn.pixabay.com/photo/2018/03/01/00/45/flower-3189481_640.jpg",
        "src1280": "https://cdn.pixabay.com/photo/2018/03/01/00/45/flower-3189481_1280.jpg"
    },
    {
        "id": "7609824",
        "src640": "https://cdn.pixabay.com/photo/2022/11/22/14/11/tulip-7609824_640.jpg",
        "src1280": "https://cdn.pixabay.com/photo/2022/11/22/14/11/tulip-7609824_1280.jpg"
    },
    {
        "id": "3287723",
        "src640": "https://cdn.pixabay.com/photo/2018/04/03/19/15/nature-3287723_640.jpg",
        "src1280": "https://cdn.pixabay.com/photo/2018/04/03/19/15/nature-3287723_1280.jpg"
    },
    {
        "id": "6734602",
        "src640": "https://cdn.pixabay.com/photo/2021/10/23/10/08/waratah-6734602_640.jpg",
        "src1280": "https://cdn.pixabay.com/photo/2021/10/23/10/08/waratah-6734602_1280.jpg"
    },
    {
        "id": "7208091",
        "src640": "https://cdn.pixabay.com/photo/2022/05/19/19/56/margueritte-7208091_640.jpg",
        "src1280": "https://cdn.pixabay.com/photo/2022/05/19/19/56/margueritte-7208091_1280.jpg"
    },
    {
        "id": "2806310",
        "src640": "https://cdn.pixabay.com/photo/2017/10/01/17/28/gourd-2806310_640.jpg",
        "src1280": "https://cdn.pixabay.com/photo/2017/10/01/17/28/gourd-2806310_1280.jpg"
    },
    {
        "id": "6343348",
        "src640": "https://cdn.pixabay.com/photo/2021/06/17/11/27/leaf-6343348_640.jpg",
        "src1280": "https://cdn.pixabay.com/photo/2021/06/17/11/27/leaf-6343348_1280.jpg"
    },
    {
        "id": "4275872",
        "src640": "https://cdn.pixabay.com/photo/2019/06/15/15/23/thimble-4275872_640.jpg",
        "src1280": "https://cdn.pixabay.com/photo/2019/06/15/15/23/thimble-4275872_1280.jpg"
    },
    {
        "id": "4937971",
        "src640": "https://cdn.pixabay.com/photo/2020/03/16/18/44/bananas-4937971_640.jpg",
        "src1280": "https://cdn.pixabay.com/photo/2020/03/16/18/44/bananas-4937971_1280.jpg"
    },
    {
        "id": "2389769",
        "src640": "https://cdn.pixabay.com/photo/2017/06/10/12/08/rose-2389769_640.jpg",
        "src1280": "https://cdn.pixabay.com/photo/2017/06/10/12/08/rose-2389769_1280.jpg"
    },
    {
        "id": "850358",
        "src640": "https://cdn.pixabay.com/photo/2015/07/18/13/24/lupine-850358_640.jpg",
        "src1280": "https://cdn.pixabay.com/photo/2015/07/18/13/24/lupine-850358_1280.jpg"
    },
    {
        "id": "4958293",
        "src640": "https://cdn.pixabay.com/photo/2020/03/22/19/28/tuiipa-4958293_640.jpg",
        "src1280": "https://cdn.pixabay.com/photo/2020/03/22/19/28/tuiipa-4958293_1280.jpg"
    },
    {
        "id": "3341451",
        "src640": "https://cdn.pixabay.com/photo/2018/04/22/15/59/flower-3341451_640.jpg",
        "src1280": "https://cdn.pixabay.com/photo/2018/04/22/15/59/flower-3341451_1280.jpg"
    },
    {
        "id": "705110",
        "src640": "https://cdn.pixabay.com/photo/2015/04/03/14/02/osterglocken-705110_640.jpg",
        "src1280": "https://cdn.pixabay.com/photo/2015/04/03/14/02/osterglocken-705110_1280.jpg"
    },
    {
        "id": "2672717",
        "src640": "https://cdn.pixabay.com/photo/2017/08/23/11/59/chickasha-pong-2672717_640.jpg",
        "src1280": "https://cdn.pixabay.com/photo/2017/08/23/11/59/chickasha-pong-2672717_1280.jpg"
    },
    {
        "id": "3677223",
        "src640": "https://cdn.pixabay.com/photo/2018/09/14/14/01/gladiolus-3677223_640.jpg",
        "src1280": "https://cdn.pixabay.com/photo/2018/09/14/14/01/gladiolus-3677223_1280.jpg"
    },
    {
        "id": "6646621",
        "src640": "https://cdn.pixabay.com/photo/2021/09/22/11/54/hummingbird-hawk-moth-6646621_640.jpg",
        "src1280": "https://cdn.pixabay.com/photo/2021/09/22/11/54/hummingbird-hawk-moth-6646621_1280.jpg"
    },
    {
        "id": "4956527",
        "src640": "https://cdn.pixabay.com/photo/2020/03/22/10/07/magnolia-4956527_640.jpg",
        "src1280": "https://cdn.pixabay.com/photo/2020/03/22/10/07/magnolia-4956527_1280.jpg"
    },
    {
        "id": "4415682",
        "src640": "https://cdn.pixabay.com/photo/2019/08/19/07/52/potato-beetle-4415682_640.jpg",
        "src1280": "https://cdn.pixabay.com/photo/2019/08/19/07/52/potato-beetle-4415682_1280.jpg"
    },
    {
        "id": "7864979",
        "src640": "https://cdn.pixabay.com/photo/2023/03/20/14/50/environment-7864979_640.jpg",
        "src1280": "https://cdn.pixabay.com/photo/2023/03/20/14/50/environment-7864979_1280.jpg"
    },
    {
        "id": "7238139",
        "src640": "https://cdn.pixabay.com/photo/2022/06/02/14/29/chives-7238139_640.jpg",
        "src1280": "https://cdn.pixabay.com/photo/2022/06/02/14/29/chives-7238139_1280.jpg"
    },
    {
        "id": "5762072",
        "src640": "https://cdn.pixabay.com/photo/2020/11/20/16/10/dandelion-5762072_640.jpg",
        "src1280": "https://cdn.pixabay.com/photo/2020/11/20/16/10/dandelion-5762072_1280.jpg"
    },
    {
        "id": "3275386",
        "src640": "https://cdn.pixabay.com/photo/2018/03/30/13/33/dahlia-3275386_640.jpg",
        "src1280": "https://cdn.pixabay.com/photo/2018/03/30/13/33/dahlia-3275386_1280.jpg"
    },
    {
        "id": "3433609",
        "src640": "https://cdn.pixabay.com/photo/2018/05/27/14/19/iris-3433609_640.jpg",
        "src1280": "https://cdn.pixabay.com/photo/2018/05/27/14/19/iris-3433609_1280.jpg"
    },
    {
        "id": "3406381",
        "src640": "https://cdn.pixabay.com/photo/2018/05/16/17/10/peony-3406381_640.jpg",
        "src1280": "https://cdn.pixabay.com/photo/2018/05/16/17/10/peony-3406381_1280.jpg"
    },
    {
        "id": "4731313",
        "src640": "https://cdn.pixabay.com/photo/2019/12/31/06/26/flower-4731313_640.jpg",
        "src1280": "https://cdn.pixabay.com/photo/2019/12/31/06/26/flower-4731313_1280.jpg"
    },
    {
        "id": "4881492",
        "src640": "https://cdn.pixabay.com/photo/2020/02/26/11/29/crocus-4881492_640.jpg",
        "src1280": "https://cdn.pixabay.com/photo/2020/02/26/11/29/crocus-4881492_1280.jpg"
    },
    {
        "id": "2387940",
        "src640": "https://cdn.pixabay.com/photo/2017/06/09/18/49/clover-2387940_640.jpg",
        "src1280": "https://cdn.pixabay.com/photo/2017/06/09/18/49/clover-2387940_1280.jpg"
    },
    {
        "id": "178685",
        "src640": "https://cdn.pixabay.com/photo/2013/09/03/19/09/flower-178685_640.jpg",
        "src1280": "https://cdn.pixabay.com/photo/2013/09/03/19/09/flower-178685_1280.jpg"
    },
    {
        "id": "8051871",
        "src640": "https://cdn.pixabay.com/photo/2023/06/09/14/31/flowers-8051871_640.jpg",
        "src1280": "https://cdn.pixabay.com/photo/2023/06/09/14/31/flowers-8051871_1280.jpg"
    },
    {
        "id": "1183584",
        "src640": "https://cdn.pixabay.com/photo/2016/02/06/20/19/bonsai-1183584_640.jpg",
        "src1280": "https://cdn.pixabay.com/photo/2016/02/06/20/19/bonsai-1183584_1280.jpg"
    },
    {
        "id": "5203973",
        "src640": "https://cdn.pixabay.com/photo/2020/05/22/06/22/lupine-5203973_640.jpg",
        "src1280": "https://cdn.pixabay.com/photo/2020/05/22/06/22/lupine-5203973_1280.jpg"
    },
    {
        "id": "4337718",
        "src640": "https://cdn.pixabay.com/photo/2019/07/14/17/44/herbstzeitlose-4337718_640.jpg",
        "src1280": "https://cdn.pixabay.com/photo/2019/07/14/17/44/herbstzeitlose-4337718_1280.jpg"
    },
    {
        "id": "5257459",
        "src640": "https://cdn.pixabay.com/photo/2020/06/04/06/32/wheat-5257459_640.jpg",
        "src1280": "https://cdn.pixabay.com/photo/2020/06/04/06/32/wheat-5257459_1280.jpg"
    },
    {
        "id": "7762619",
        "src640": "https://cdn.pixabay.com/photo/2023/02/02/11/44/flower-7762619_640.jpg",
        "src1280": "https://cdn.pixabay.com/photo/2023/02/02/11/44/flower-7762619_1280.jpg"
    },
    {
        "id": "1493464",
        "src640": "https://cdn.pixabay.com/photo/2016/07/02/18/07/flower-1493464_640.jpg",
        "src1280": "https://cdn.pixabay.com/photo/2016/07/02/18/07/flower-1493464_1280.jpg"
    },
    {
        "id": "7306609",
        "src640": "https://cdn.pixabay.com/photo/2022/07/07/06/31/loosestrife-7306609_640.jpg",
        "src1280": "https://cdn.pixabay.com/photo/2022/07/07/06/31/loosestrife-7306609_1280.jpg"
    },
    {
        "id": "5491209",
        "src640": "https://cdn.pixabay.com/photo/2020/08/15/19/11/meadow-5491209_640.jpg",
        "src1280": "https://cdn.pixabay.com/photo/2020/08/15/19/11/meadow-5491209_1280.jpg"
    },
    {
        "id": "7747360",
        "src640": "https://cdn.pixabay.com/photo/2023/01/26/22/29/ai-generated-7747360_640.jpg",
        "src1280": "https://cdn.pixabay.com/photo/2023/01/26/22/29/ai-generated-7747360_1280.jpg"
    },
    {
        "id": "5220406",
        "src640": "https://cdn.pixabay.com/photo/2020/05/25/20/14/high-beard-iris-5220406_640.jpg",
        "src1280": "https://cdn.pixabay.com/photo/2020/05/25/20/14/high-beard-iris-5220406_1280.jpg"
    },
    {
        "id": "3396936",
        "src640": "https://cdn.pixabay.com/photo/2018/05/13/16/08/prairie-lily-3396936_640.jpg",
        "src1280": "https://cdn.pixabay.com/photo/2018/05/13/16/08/prairie-lily-3396936_1280.jpg"
    },
    {
        "id": "2809395",
        "src640": "https://cdn.pixabay.com/photo/2017/10/02/16/51/autumn-leaves-2809395_640.jpg",
        "src1280": "https://cdn.pixabay.com/photo/2017/10/02/16/51/autumn-leaves-2809395_1280.jpg"
    },
    {
        "id": "7869189",
        "src640": "https://cdn.pixabay.com/photo/2023/03/22/11/07/seeds-7869189_640.jpg",
        "src1280": "https://cdn.pixabay.com/photo/2023/03/22/11/07/seeds-7869189_1280.jpg"
    },
    {
        "id": "262868",
        "src640": "https://cdn.pixabay.com/photo/2014/02/09/16/11/plant-262868_640.jpg",
        "src1280": "https://cdn.pixabay.com/photo/2014/02/09/16/11/plant-262868_1280.jpg"
    },
    {
        "id": "4002991",
        "src640": "https://cdn.pixabay.com/photo/2019/02/17/19/30/flower-4002991_640.jpg",
        "src1280": "https://cdn.pixabay.com/photo/2019/02/17/19/30/flower-4002991_1280.jpg"
    },
    {
        "id": "3220539",
        "src640": "https://cdn.pixabay.com/photo/2018/03/12/19/12/flower-3220539_640.jpg",
        "src1280": "https://cdn.pixabay.com/photo/2018/03/12/19/12/flower-3220539_1280.jpg"
    },
    {
        "id": "4016674",
        "src640": "https://cdn.pixabay.com/photo/2019/02/23/22/34/dalia-4016674_640.jpg",
        "src1280": "https://cdn.pixabay.com/photo/2019/02/23/22/34/dalia-4016674_1280.jpg"
    },
    {
        "id": "7517022",
        "src640": "https://cdn.pixabay.com/photo/2022/10/12/16/17/drop-7517022_640.jpg",
        "src1280": "https://cdn.pixabay.com/photo/2022/10/12/16/17/drop-7517022_1280.jpg"
    },
    {
        "id": "7747239",
        "src640": "https://cdn.pixabay.com/photo/2023/01/26/22/20/ai-generated-7747239_640.jpg",
        "src1280": "https://cdn.pixabay.com/photo/2023/01/26/22/20/ai-generated-7747239_1280.jpg"
    },
    {
        "id": "1379031",
        "src640": "https://cdn.pixabay.com/photo/2016/05/08/11/46/reed-1379031_640.jpg",
        "src1280": "https://cdn.pixabay.com/photo/2016/05/08/11/46/reed-1379031_1280.jpg"
    },
    {
        "id": "3328192",
        "src640": "https://cdn.pixabay.com/photo/2018/04/17/17/36/nature-3328192_640.jpg",
        "src1280": "https://cdn.pixabay.com/photo/2018/04/17/17/36/nature-3328192_1280.jpg"
    },
    {
        "id": "205177",
        "src640": "https://cdn.pixabay.com/photo/2013/11/04/05/27/floating-plant-205177_640.jpg",
        "src1280": "https://cdn.pixabay.com/photo/2013/11/04/05/27/floating-plant-205177_1280.jpg"
    },
    {
        "id": "179477",
        "src640": "https://cdn.pixabay.com/photo/2013/09/06/17/08/flower-179477_640.jpg",
        "src1280": "https://cdn.pixabay.com/photo/2013/09/06/17/08/flower-179477_1280.jpg"
    },
    {
        "id": "347038",
        "src640": "https://cdn.pixabay.com/photo/2014/05/18/12/44/japonica-347038_640.jpg",
        "src1280": "https://cdn.pixabay.com/photo/2014/05/18/12/44/japonica-347038_1280.jpg"
    },
    {
        "id": "3346070",
        "src640": "https://cdn.pixabay.com/photo/2018/04/24/01/20/nature-3346070_640.jpg",
        "src1280": "https://cdn.pixabay.com/photo/2018/04/24/01/20/nature-3346070_1280.jpg"
    },
    {
        "id": "54050",
        "src640": "https://cdn.pixabay.com/photo/2012/08/11/13/56/tulips-54050_640.jpg",
        "src1280": "https://cdn.pixabay.com/photo/2012/08/11/13/56/tulips-54050_1280.jpg"
    },
    {
        "id": "8227072",
        "src640": "https://cdn.pixabay.com/photo/2023/09/01/14/21/bumblebee-8227072_640.jpg",
        "src1280": "https://cdn.pixabay.com/photo/2023/09/01/14/21/bumblebee-8227072_1280.jpg"
    },
    {
        "id": "4471204",
        "src640": "https://cdn.pixabay.com/photo/2019/09/12/10/27/rose-of-sharon-4471204_640.jpg",
        "src1280": "https://cdn.pixabay.com/photo/2019/09/12/10/27/rose-of-sharon-4471204_1280.jpg"
    },
    {
        "id": "3298274",
        "src640": "https://cdn.pixabay.com/photo/2018/04/07/11/32/nature-3298274_640.jpg",
        "src1280": "https://cdn.pixabay.com/photo/2018/04/07/11/32/nature-3298274_1280.jpg"
    },
    {
        "id": "3176354",
        "src640": "https://cdn.pixabay.com/photo/2018/02/23/19/14/flowers-3176354_640.jpg",
        "src1280": "https://cdn.pixabay.com/photo/2018/02/23/19/14/flowers-3176354_1280.jpg"
    },
    {
        "id": "3212730",
        "src640": "https://cdn.pixabay.com/photo/2018/03/09/21/51/fractalius-3212730_640.jpg",
        "src1280": "https://cdn.pixabay.com/photo/2018/03/09/21/51/fractalius-3212730_1280.jpg"
    },
    {
        "id": "4115082",
        "src640": "https://cdn.pixabay.com/photo/2019/04/09/17/27/heather-4115082_640.jpg",
        "src1280": "https://cdn.pixabay.com/photo/2019/04/09/17/27/heather-4115082_1280.jpg"
    },
    {
        "id": "8348052",
        "src640": "https://cdn.pixabay.com/photo/2023/10/28/17/28/ai-generated-8348052_640.jpg",
        "src1280": "https://cdn.pixabay.com/photo/2023/10/28/17/28/ai-generated-8348052_1280.jpg"
    },
    {
        "id": "1212475",
        "src640": "https://cdn.pixabay.com/photo/2016/02/20/17/44/headframe-1212475_640.jpg",
        "src1280": "https://cdn.pixabay.com/photo/2016/02/20/17/44/headframe-1212475_1280.jpg"
    },
    {
        "id": "3756715",
        "src640": "https://cdn.pixabay.com/photo/2018/10/18/15/49/nature-3756715_640.jpg",
        "src1280": "https://cdn.pixabay.com/photo/2018/10/18/15/49/nature-3756715_1280.jpg"
    },
    {
        "id": "3352582",
        "src640": "https://cdn.pixabay.com/photo/2018/04/26/17/59/poppy-3352582_640.jpg",
        "src1280": "https://cdn.pixabay.com/photo/2018/04/26/17/59/poppy-3352582_1280.jpg"
    },
    {
        "id": "5232619",
        "src640": "https://cdn.pixabay.com/photo/2020/05/28/20/47/cucumber-5232619_640.jpg",
        "src1280": "https://cdn.pixabay.com/photo/2020/05/28/20/47/cucumber-5232619_1280.jpg"
    },
    {
        "id": "3400237",
        "src640": "https://cdn.pixabay.com/photo/2018/05/14/14/42/kite-3400237_640.jpg",
        "src1280": "https://cdn.pixabay.com/photo/2018/05/14/14/42/kite-3400237_1280.jpg"
    },
    {
        "id": "1576895",
        "src640": "https://cdn.pixabay.com/photo/2016/08/07/19/06/corn-stalk-1576895_640.jpg",
        "src1280": "https://cdn.pixabay.com/photo/2016/08/07/19/06/corn-stalk-1576895_1280.jpg"
    },
    {
        "id": "5304349",
        "src640": "https://cdn.pixabay.com/photo/2020/06/16/06/12/thorns-5304349_640.jpg",
        "src1280": "https://cdn.pixabay.com/photo/2020/06/16/06/12/thorns-5304349_1280.jpg"
    },
    {
        "id": "4533753",
        "src640": "https://cdn.pixabay.com/photo/2019/10/07/21/20/blossom-4533753_640.jpg",
        "src1280": "https://cdn.pixabay.com/photo/2019/10/07/21/20/blossom-4533753_1280.jpg"
    },
    {
        "id": "64641",
        "src640": "https://cdn.pixabay.com/photo/2012/11/06/22/54/gazania-rigens-64641_640.jpg",
        "src1280": "https://cdn.pixabay.com/photo/2012/11/06/22/54/gazania-rigens-64641_1280.jpg"
    },
    {
        "id": "2598148",
        "src640": "https://cdn.pixabay.com/photo/2017/08/07/00/55/deer-2598148_640.jpg",
        "src1280": "https://cdn.pixabay.com/photo/2017/08/07/00/55/deer-2598148_1280.jpg"
    }
]