[
    {
        "id": "7300666",
        "src640": "https://cdn.pixabay.com/photo/2022/07/04/08/30/marguerite-7300666_640.jpg",
        "src1280": "https://cdn.pixabay.com/photo/2022/07/04/08/30/marguerite-7300666_1280.jpg"
    },
    {
        "id": "5976436",
        "src640": "https://cdn.pixabay.com/photo/2021/02/03/03/10/sunset-5976436_640.jpg",
        "src1280": "https://cdn.pixabay.com/photo/2021/02/03/03/10/sunset-5976436_1280.jpg"
    },
    {
        "id": "168420",
        "src640": "https://cdn.pixabay.com/photo/2013/07/28/17/10/lotus-168420_640.jpg",
        "src1280": "https://cdn.pixabay.com/photo/2013/07/28/17/10/lotus-168420_1280.jpg"
    },
    {
        "id": "3717186",
        "src640": "https://cdn.pixabay.com/photo/2018/10/01/20/26/silver-leaf-3717186_640.jpg",
        "src1280": "https://cdn.pixabay.com/photo/2018/10/01/20/26/silver-leaf-3717186_1280.jpg"
    },
    {
        "id": "6484246",
        "src640": "https://cdn.pixabay.com/photo/2021/07/22/01/42/houseplant-6484246_640.jpg",
        "src1280": "https://cdn.pixabay.com/photo/2021/07/22/01/42/houseplant-6484246_1280.jpg"
    },
    {
        "id": "8135749",
        "src640": "https://cdn.pixabay.com/photo/2023/07/18/22/42/heliopsis-8135749_640.jpg",
        "src1280": "https://cdn.pixabay.com/photo/2023/07/18/22/42/heliopsis-8135749_1280.jpg"
    },
    {
        "id": "3448758",
        "src640": "https://cdn.pixabay.com/photo/2018/06/02/17/09/blossom-3448758_640.jpg",
        "src1280": "https://cdn.pixabay.com/photo/2018/06/02/17/09/blossom-3448758_1280.jpg"
    },
    {
        "id": "2144171",
        "src640": "https://cdn.pixabay.com/photo/2017/03/14/19/29/dandelions-2144171_640.jpg",
        "src1280": "https://cdn.pixabay.com/photo/2017/03/14/19/29/dandelions-2144171_1280.jpg"
    },
    {
        "id": "7152066",
        "src640": "https://cdn.pixabay.com/photo/2022/04/23/16/23/flowers-7152066_640.jpg",
        "src1280": "https://cdn.pixabay.com/photo/2022/04/23/16/23/flowers-7152066_1280.jpg"
    },
    {
        "id": "3207660",
        "src640": "https://cdn.pixabay.com/photo/2018/03/08/02/21/flower-3207660_640.jpg",
        "src1280": "https://cdn.pixabay.com/photo/2018/03/08/02/21/flower-3207660_1280.jpg"
    },
    {
        "id": "3785306",
        "src640": "https://cdn.pixabay.com/photo/2018/10/31/07/34/berry-3785306_640.jpg",
        "src1280": "https://cdn.pixabay.com/photo/2018/10/31/07/34/berry-3785306_1280.jpg"
    },
    {
        "id": "4038387",
        "src640": "https://cdn.pixabay.com/photo/2019/03/06/15/21/flower-4038387_640.jpg",
        "src1280": "https://cdn.pixabay.com/photo/2019/03/06/15/21/flower-4038387_1280.jpg"
    },
    {
        "id": "3964056",
        "src640": "https://cdn.pixabay.com/photo/2019/01/30/08/40/mint-3964056_640.jpg",
        "src1280": "https://cdn.pixabay.com/photo/2019/01/30/08/40/mint-3964056_1280.jpg"
    },
    {
        "id": "5216591",
        "src640": "https://cdn.pixabay.com/photo/2020/05/24/23/54/flower-5216591_640.jpg",
        "src1280": "https://cdn.pixabay.com/photo/2020/05/24/23/54/flower-5216591_1280.jpg"
    },
    {
        "id": "7719094",
        "src640": "https://cdn.pixabay.com/photo/2023/01/14/21/35/flower-7719094_640.jpg",
        "src1280": "https://cdn.pixabay.com/photo/2023/01/14/21/35/flower-7719094_1280.jpg"
    },
    {
        "id": "6744285",
        "src640": "https://cdn.pixabay.com/photo/2021/10/26/15/17/leaf-6744285_640.jpg",
        "src1280": "https://cdn.pixabay.com/photo/2021/10/26/15/17/leaf-6744285_1280.jpg"
    },
    {
        "id": "3944358",
        "src640": "https://cdn.pixabay.com/photo/2019/01/20/18/09/plant-3944358_640.jpg",
        "src1280": "https://cdn.pixabay.com/photo/2019/01/20/18/09/plant-3944358_1280.jpg"
    },
    {
        "id": "2479117",
        "src640": "https://cdn.pixabay.com/photo/2017/07/06/19/20/dahlia-2479117_640.jpg",
        "src1280": "https://cdn.pixabay.com/photo/2017/07/06/19/20/dahlia-2479117_1280.jpg"
    },
    {
        "id": "3991730",
        "src640": "https://cdn.pixabay.com/photo/2019/02/12/09/20/poppy-3991730_640.jpg",
        "src1280": "https://cdn.pixabay.com/photo/2019/02/12/09/20/poppy-3991730_1280.jpg"
    },
    {
        "id": "4697154",
        "src640": "https://cdn.pixabay.com/photo/2019/12/15/13/56/flowers-4697154_640.jpg",
        "src1280": "https://cdn.pixabay.com/photo/2019/12/15/13/56/flowers-4697154_1280.jpg"
    },
    {
        "id": "5003796",
        "src640": "https://cdn.pixabay.com/photo/2020/04/04/20/42/plant-5003796_640.jpg",
        "src1280": "https://cdn.pixabay.com/photo/2020/04/04/20/42/plant-5003796_1280.jpg"
    },
    {
        "id": "374496",
        "src640": "https://cdn.pixabay.com/photo/2014/06/22/12/37/mullein-374496_640.jpg",
        "src1280": "https://cdn.pixabay.com/photo/2014/06/22/12/37/mullein-374496_1280.jpg"
    },
    {
        "id": "2804344",
        "src640": "https://cdn.pixabay.com/photo/2017/10/01/06/05/cosmos-2804344_640.jpg",
        "src1280": "https://cdn.pixabay.com/photo/2017/10/01/06/05/cosmos-2804344_1280.jpg"
    },
    {
        "id": "6084500",
        "src640": "https://cdn.pixabay.com/photo/2021/03/10/13/04/poppy-anemone-6084500_640.jpg",
        "src1280": "https://cdn.pixabay.com/photo/2021/03/10/13/04/poppy-anemone-6084500_1280.jpg"
    },
    {
        "id": "5031603",
        "src640": "https://cdn.pixabay.com/photo/2020/04/11/18/54/strawberry-flower-5031603_640.jpg",
        "src1280": "https://cdn.pixabay.com/photo/2020/04/11/18/54/strawberry-flower-5031603_1280.jpg"
    },
    {
        "id": "6939739",
        "src640": "https://cdn.pixabay.com/photo/2022/01/15/14/38/vines-6939739_640.jpg",
        "src1280": "https://cdn.pixabay.com/photo/2022/01/15/14/38/vines-6939739_1280.jpg"
    },
    {
        "id": "3332438",
        "src640": "https://cdn.pixabay.com/photo/2018/04/19/06/38/flower-3332438_640.jpg",
        "src1280": "https://cdn.pixabay.com/photo/2018/04/19/06/38/flower-3332438_1280.jpg"
    },
    {
        "id": "62602",
        "src640": "https://cdn.pixabay.com/photo/2012/10/22/21/25/plantain-62602_640.jpg",
        "src1280": "https://cdn.pixabay.com/photo/2012/10/22/21/25/plantain-62602_1280.jpg"
    },
    {
        "id": "7524816",
        "src640": "https://cdn.pixabay.com/photo/2022/10/16/11/06/pampas-grass-7524816_640.jpg",
        "src1280": "https://cdn.pixabay.com/photo/2022/10/16/11/06/pampas-grass-7524816_1280.jpg"
    },
    {
        "id": "2599867",
        "src640": "https://cdn.pixabay.com/photo/2017/08/07/04/31/snow-2599867_640.jpg",
        "src1280": "https://cdn.pixabay.com/photo/2017/08/07/04/31/snow-2599867_1280.jpg"
    },
    {
        "id": "4792989",
        "src640": "https://cdn.pixabay.com/photo/2020/01/25/17/37/mushrooms-4792989_640.jpg",
        "src1280": "https://cdn.pixabay.com/photo/2020/01/25/17/37/mushrooms-4792989_1280.jpg"
    },
    {
        "id": "5810625",
        "src640": "https://cdn.pixabay.com/photo/2020/12/07/06/21/succulent-5810625_640.jpg",
        "src1280": "https://cdn.pixabay.com/photo/2020/12/07/06/21/succulent-5810625_1280.jpg"
    },
    {
        "id": "6278371",
        "src640": "https://cdn.pixabay.com/photo/2021/05/24/09/31/leaves-6278371_640.jpg",
        "src1280": "https://cdn.pixabay.com/photo/2021/05/24/09/31/leaves-6278371_1280.jpg"
    },
    {
        "id": "6158626",
        "src640": "https://cdn.pixabay.com/photo/2021/04/07/09/37/tulip-6158626_640.jpg",
        "src1280": "https://cdn.pixabay.com/photo/2021/04/07/09/37/tulip-6158626_1280.jpg"
    },
    {
        "id": "5491307",
        "src640": "https://cdn.pixabay.com/photo/2020/08/15/20/19/wheat-5491307_640.jpg",
        "src1280": "https://cdn.pixabay.com/photo/2020/08/15/20/19/wheat-5491307_1280.jpg"
    },
    {
        "id": "1760999",
        "src640": "https://cdn.pixabay.com/photo/2016/10/22/15/19/wine-1760999_640.jpg",
        "src1280": "https://cdn.pixabay.com/photo/2016/10/22/15/19/wine-1760999_1280.jpg"
    },
    {
        "id": "7469077",
        "src640": "https://cdn.pixabay.com/photo/2022/09/21/00/57/yellow-flower-7469077_640.jpg",
        "src1280": "https://cdn.pixabay.com/photo/2022/09/21/00/57/yellow-flower-7469077_1280.jpg"
    },
    {
        "id": "1265675",
        "src640": "https://cdn.pixabay.com/photo/2016/03/18/19/49/sonchus-oleraceus-1265675_640.jpg",
        "src1280": "https://cdn.pixabay.com/photo/2016/03/18/19/49/sonchus-oleraceus-1265675_1280.jpg"
    },
    {
        "id": "2945",
        "src640": "https://cdn.pixabay.com/photo/2010/12/14/01/42/jordan-2945_640.jpg",
        "src1280": "https://cdn.pixabay.com/photo/2010/12/14/01/42/jordan-2945_1280.jpg"
    },
    {
        "id": "7753868",
        "src640": "https://cdn.pixabay.com/photo/2023/01/29/18/36/monstera-7753868_640.jpg",
        "src1280": "https://cdn.pixabay.com/photo/2023/01/29/18/36/monstera-7753868_1280.jpg"
    },
    {
        "id": "5371738",
        "src640": "https://cdn.pixabay.com/photo/2020/07/05/05/25/chrysanthemum-5371738_640.jpg",
        "src1280": "https://cdn.pixabay.com/photo/2020/07/05/05/25/chrysanthemum-5371738_1280.jpg"
    },
    {
        "id": "4047149",
        "src640": "https://cdn.pixabay.com/photo/2019/03/10/20/02/daisy-4047149_640.jpg",
        "src1280": "https://cdn.pixabay.com/photo/2019/03/10/20/02/daisy-4047149_1280.jpg"
    },
    {
        "id": "4893366",
        "src640": "https://cdn.pixabay.com/photo/2020/03/01/16/33/bill-quince-4893366_640.jpg",
        "src1280": "https://cdn.pixabay.com/photo/2020/03/01/16/33/bill-quince-4893366_1280.jpg"
    },
    {
        "id": "4579237",
        "src640": "https://cdn.pixabay.com/photo/2019/10/26/11/39/achene-4579237_640.jpg",
        "src1280": "https://cdn.pixabay.com/photo/2019/10/26/11/39/achene-4579237_1280.jpg"
    },
    {
        "id": "4882363",
        "src640": "https://cdn.pixabay.com/photo/2020/02/26/17/13/pansy-4882363_640.jpg",
        "src1280": "https://cdn.pixabay.com/photo/2020/02/26/17/13/pansy-4882363_1280.jpg"
    },
    {
        "id": "3391149",
        "src640": "https://cdn.pixabay.com/photo/2018/05/11/17/49/plant-3391149_640.jpg",
        "src1280": "https://cdn.pixabay.com/photo/2018/05/11/17/49/plant-3391149_1280.jpg"
    },
    {
        "id": "5355812",
        "src640": "https://cdn.pixabay.com/photo/2020/06/30/09/56/flower-5355812_640.jpg",
        "src1280": "https://cdn.pixabay.com/photo/2020/06/30/09/56/flower-5355812_1280.jpg"
    },
    {
        "id": "3342145",
        "src640": "https://cdn.pixabay.com/photo/2018/04/22/19/51/franconian-switzerland-3342145_640.jpg",
        "src1280": "https://cdn.pixabay.com/photo/2018/04/22/19/51/franconian-switzerland-3342145_1280.jpg"
    },
    {
        "id": "4706205",
        "src640": "https://cdn.pixabay.com/photo/2019/12/19/13/21/amaryllis-4706205_640.jpg",
        "src1280": "https://cdn.pixabay.com/photo/2019/12/19/13/21/amaryllis-4706205_1280.jpg"
    },
    {
        "id": "3356392",
        "src640": "https://cdn.pixabay.com/photo/2018/04/28/01/30/flowers-3356392_640.jpg",
        "src1280": "https://cdn.pixabay.com/photo/2018/04/28/01/30/flowers-3356392_1280.jpg"
    },
    {
        "id": "3662707",
        "src640": "https://cdn.pixabay.com/photo/2018/09/08/15/51/flower-3662707_640.jpg",
        "src1280": "https://cdn.pixabay.com/photo/2018/09/08/15/51/flower-3662707_1280.jpg"
    },
    {
        "id": "3312444",
        "src640": "https://cdn.pixabay.com/photo/2018/04/12/03/38/flower-3312444_640.jpg",
        "src1280": "https://cdn.pixabay.com/photo/2018/04/12/03/38/flower-3312444_1280.jpg"
    },
    {
        "id": "4232839",
        "src640": "https://cdn.pixabay.com/photo/2019/05/27/14/29/sunflower-4232839_640.jpg",
        "src1280": "https://cdn.pixabay.com/photo/2019/05/27/14/29/sunflower-4232839_1280.jpg"
    },
    {
        "id": "2841501",
        "src640": "https://cdn.pixabay.com/photo/2017/10/11/16/20/viburnum-2841501_640.jpg",
        "src1280": "https://cdn.pixabay.com/photo/2017/10/11/16/20/viburnum-2841501_1280.jpg"
    },
    {
        "id": "2635346",
        "src640": "https://cdn.pixabay.com/photo/2017/08/12/20/49/flower-2635346_640.jpg",
        "src1280": "https://cdn.pixabay.com/photo/2017/08/12/20/49/flower-2635346_1280.jpg"
    },
    {
        "id": "5404184",
        "src640": "https://cdn.pixabay.com/photo/2020/07/14/13/39/cornflower-5404184_640.jpg",
        "src1280": "https://cdn.pixabay.com/photo/2020/07/14/13/39/cornflower-5404184_1280.jpg"
    },
    {
        "id": "2652411",
        "src640": "https://cdn.pixabay.com/photo/2017/08/17/18/27/plant-2652411_640.jpg",
        "src1280": "https://cdn.pixabay.com/photo/2017/08/17/18/27/plant-2652411_1280.jpg"
    },
    {
        "id": "2156870",
        "src640": "https://cdn.pixabay.com/photo/2017/03/19/15/54/girl-2156870_640.jpg",
        "src1280": "https://cdn.pixabay.com/photo/2017/03/19/15/54/girl-2156870_1280.jpg"
    },
    {
        "id": "4006592",
        "src640": "https://cdn.pixabay.com/photo/2019/02/19/11/23/aronia-4006592_640.jpg",
        "src1280": "https://cdn.pixabay.com/photo/2019/02/19/11/23/aronia-4006592_1280.jpg"
    },
    {
        "id": "1510448",
        "src640": "https://cdn.pixabay.com/photo/2016/07/11/19/39/anemone-1510448_640.jpg",
        "src1280": "https://cdn.pixabay.com/photo/2016/07/11/19/39/anemone-1510448_1280.jpg"
    },
    {
        "id": "3362700",
        "src640": "https://cdn.pixabay.com/photo/2018/04/30/13/39/flower-3362700_640.jpg",
        "src1280": "https://cdn.pixabay.com/photo/2018/04/30/13/39/flower-3362700_1280.jpg"
    },
    {
        "id": "6701302",
        "src640": "https://cdn.pixabay.com/photo/2021/10/11/16/52/nature-6701302_640.jpg",
        "src1280": "https://cdn.pixabay.com/photo/2021/10/11/16/52/nature-6701302_1280.jpg"
    },
    {
        "id": "4956236",
        "src640": "https://cdn.pixabay.com/photo/2020/03/22/08/38/corpuscle-4956236_640.jpg",
        "src1280": "https://cdn.pixabay.com/photo/2020/03/22/08/38/corpuscle-4956236_1280.jpg"
    },
    {
        "id": "432859",
        "src640": "https://cdn.pixabay.com/photo/2014/09/01/14/21/flower-432859_640.jpg",
        "src1280": "https://cdn.pixabay.com/photo/2014/09/01/14/21/flower-432859_1280.jpg"
    },
    {
        "id": "4159796",
        "src640": "https://cdn.pixabay.com/photo/2019/04/27/11/19/flowers-4159796_640.jpg",
        "src1280": "https://cdn.pixabay.com/photo/2019/04/27/11/19/flowers-4159796_1280.jpg"
    },
    {
        "id": "6787151",
        "src640": "https://cdn.pixabay.com/photo/2021/11/11/20/09/flower-6787151_640.jpg",
        "src1280": "https://cdn.pixabay.com/photo/2021/11/11/20/09/flower-6787151_1280.jpg"
    },
    {
        "id": "3555751",
        "src640": "https://cdn.pixabay.com/photo/2018/07/22/23/04/flower-black-eyed-3555751_640.jpg",
        "src1280": "https://cdn.pixabay.com/photo/2018/07/22/23/04/flower-black-eyed-3555751_1280.jpg"
    },
    {
        "id": "3285346",
        "src640": "https://cdn.pixabay.com/photo/2018/04/02/22/15/reptile-3285346_640.jpg",
        "src1280": "https://cdn.pixabay.com/photo/2018/04/02/22/15/reptile-3285346_1280.jpg"
    },
    {
        "id": "5753855",
        "src640": "https://cdn.pixabay.com/photo/2020/11/17/22/38/daisy-5753855_640.jpg",
        "src1280": "https://cdn.pixabay.com/photo/2020/11/17/22/38/daisy-5753855_1280.jpg"
    },
    {
        "id": "4314111",
        "src640": "https://cdn.pixabay.com/photo/2019/07/03/10/20/syringa-4314111_640.jpg",
        "src1280": "https://cdn.pixabay.com/photo/2019/07/03/10/20/syringa-4314111_1280.jpg"
    },
    {
        "id": "6017927",
        "src640": "https://cdn.pixabay.com/photo/2021/02/15/13/52/flower-6017927_640.jpg",
        "src1280": "https://cdn.pixabay.com/photo/2021/02/15/13/52/flower-6017927_1280.jpg"
    },
    {
        "id": "5138881",
        "src640": "https://cdn.pixabay.com/photo/2020/05/06/19/15/flower-5138881_640.jpg",
        "src1280": "https://cdn.pixabay.com/photo/2020/05/06/19/15/flower-5138881_1280.jpg"
    },
    {
        "id": "5581678",
        "src640": "https://cdn.pixabay.com/photo/2020/09/18/12/11/kangaroo-paw-5581678_640.jpg",
        "src1280": "https://cdn.pixabay.com/photo/2020/09/18/12/11/kangaroo-paw-5581678_1280.jpg"
    },
    {
        "id": "7753867",
        "src640": "https://cdn.pixabay.com/photo/2023/01/29/18/36/monstera-7753867_640.jpg",
        "src1280": "https://cdn.pixabay.com/photo/2023/01/29/18/36/monstera-7753867_1280.jpg"
    },
    {
        "id": "6721393",
        "src640": "https://cdn.pixabay.com/photo/2021/10/18/15/58/flower-6721393_640.jpg",
        "src1280": "https://cdn.pixabay.com/photo/2021/10/18/15/58/flower-6721393_1280.jpg"
    },
    {
        "id": "2738650",
        "src640": "https://cdn.pixabay.com/photo/2017/09/11/11/58/corn-2738650_640.jpg",
        "src1280": "https://cdn.pixabay.com/photo/2017/09/11/11/58/corn-2738650_1280.jpg"
    },
    {
        "id": "3203115",
        "src640": "https://cdn.pixabay.com/photo/2018/03/06/10/45/nature-3203115_640.jpg",
        "src1280": "https://cdn.pixabay.com/photo/2018/03/06/10/45/nature-3203115_1280.jpg"
    },
    {
        "id": "3243535",
        "src640": "https://cdn.pixabay.com/photo/2018/03/20/15/07/nature-3243535_640.jpg",
        "src1280": "https://cdn.pixabay.com/photo/2018/03/20/15/07/nature-3243535_1280.jpg"
    },
    {
        "id": "4463008",
        "src640": "https://cdn.pixabay.com/photo/2019/09/09/08/13/nature-4463008_640.jpg",
        "src1280": "https://cdn.pixabay.com/photo/2019/09/09/08/13/nature-4463008_1280.jpg"
    },
    {
        "id": "1560916",
        "src640": "https://cdn.pixabay.com/photo/2016/08/01/12/07/flower-1560916_640.jpg",
        "src1280": "https://cdn.pixabay.com/photo/2016/08/01/12/07/flower-1560916_1280.jpg"
    },
    {
        "id": "824655",
        "src640": "https://cdn.pixabay.com/photo/2015/06/28/16/59/excavators-824655_640.jpg",
        "src1280": "https://cdn.pixabay.com/photo/2015/06/28/16/59/excavators-824655_1280.jpg"
    },
    {
        "id": "4144101",
        "src640": "https://cdn.pixabay.com/photo/2019/04/21/13/14/flower-4144101_640.jpg",
        "src1280": "https://cdn.pixabay.com/photo/2019/04/21/13/14/flower-4144101_1280.jpg"
    },
    {
        "id": "2425093",
        "src640": "https://cdn.pixabay.com/photo/2017/06/20/22/06/strawberry-2425093_640.jpg",
        "src1280": "https://cdn.pixabay.com/photo/2017/06/20/22/06/strawberry-2425093_1280.jpg"
    },
    {
        "id": "4364636",
        "src640": "https://cdn.pixabay.com/photo/2019/07/26/12/01/grapes-4364636_640.jpg",
        "src1280": "https://cdn.pixabay.com/photo/2019/07/26/12/01/grapes-4364636_1280.jpg"
    },
    {
        "id": "4519022",
        "src640": "https://cdn.pixabay.com/photo/2019/10/01/18/09/cranesbill-4519022_640.jpg",
        "src1280": "https://cdn.pixabay.com/photo/2019/10/01/18/09/cranesbill-4519022_1280.jpg"
    },
    {
        "id": "7007229",
        "src640": "https://cdn.pixabay.com/photo/2022/02/11/12/11/orchids-7007229_640.jpg",
        "src1280": "https://cdn.pixabay.com/photo/2022/02/11/12/11/orchids-7007229_1280.jpg"
    },
    {
        "id": "2116290",
        "src640": "https://cdn.pixabay.com/photo/2017/03/04/15/06/energy-2116290_640.jpg",
        "src1280": "https://cdn.pixabay.com/photo/2017/03/04/15/06/energy-2116290_1280.jpg"
    },
    {
        "id": "7725853",
        "src640": "https://cdn.pixabay.com/photo/2023/01/18/01/26/insects-7725853_640.jpg",
        "src1280": "https://cdn.pixabay.com/photo/2023/01/18/01/26/insects-7725853_1280.jpg"
    },
    {
        "id": "805694",
        "src640": "https://cdn.pixabay.com/photo/2015/06/11/10/03/gloriosa-805694_640.jpg",
        "src1280": "https://cdn.pixabay.com/photo/2015/06/11/10/03/gloriosa-805694_1280.jpg"
    },
    {
        "id": "3509251",
        "src640": "https://cdn.pixabay.com/photo/2018/07/01/11/51/flowers-3509251_640.jpg",
        "src1280": "https://cdn.pixabay.com/photo/2018/07/01/11/51/flowers-3509251_1280.jpg"
    }
]