[
    {
        "id": "5297846",
        "src640": "https://cdn.pixabay.com/photo/2020/06/14/13/17/bees-5297846_640.jpg",
        "src1280": "https://cdn.pixabay.com/photo/2020/06/14/13/17/bees-5297846_1280.jpg"
    },
    {
        "id": "2323309",
        "src640": "https://cdn.pixabay.com/photo/2017/05/18/11/13/veronica-2323309_640.jpg",
        "src1280": "https://cdn.pixabay.com/photo/2017/05/18/11/13/veronica-2323309_1280.jpg"
    },
    {
        "id": "6929053",
        "src640": "https://cdn.pixabay.com/photo/2022/01/10/18/46/flower-6929053_640.jpg",
        "src1280": "https://cdn.pixabay.com/photo/2022/01/10/18/46/flower-6929053_1280.jpg"
    },
    {
        "id": "3339567",
        "src640": "https://cdn.pixabay.com/photo/2018/04/21/21/23/dandelion-3339567_640.jpg",
        "src1280": "https://cdn.pixabay.com/photo/2018/04/21/21/23/dandelion-3339567_1280.jpg"
    },
    {
        "id": "1529819",
        "src640": "https://cdn.pixabay.com/photo/2016/07/20/08/02/lake-1529819_640.jpg",
        "src1280": "https://cdn.pixabay.com/photo/2016/07/20/08/02/lake-1529819_1280.jpg"
    },
    {
        "id": "3580134",
        "src640": "https://cdn.pixabay.com/photo/2018/08/02/18/11/spider-3580134_640.jpg",
        "src1280": "https://cdn.pixabay.com/photo/2018/08/02/18/11/spider-3580134_1280.jpg"
    },
    {
        "id": "5241348",
        "src640": "https://cdn.pixabay.com/photo/2020/05/31/05/32/flower-5241348_640.jpg",
        "src1280": "https://cdn.pixabay.com/photo/2020/05/31/05/32/flower-5241348_1280.jpg"
    },
    {
        "id": "5985925",
        "src640": "https://cdn.pixabay.com/photo/2021/02/05/21/06/leaf-5985925_640.jpg",
        "src1280": "https://cdn.pixabay.com/photo/2021/02/05/21/06/leaf-5985925_1280.jpg"
    },
    {
        "id": "5426629",
        "src640": "https://cdn.pixabay.com/photo/2020/07/21/15/42/lily-5426629_640.jpg",
        "src1280": "https://cdn.pixabay.com/photo/2020/07/21/15/42/lily-5426629_1280.jpg"
    },
    {
        "id": "6284330",
        "src640": "https://cdn.pixabay.com/photo/2021/05/26/07/20/lotus-6284330_640.jpg",
        "src1280": "https://cdn.pixabay.com/photo/2021/05/26/07/20/lotus-6284330_1280.jpg"
    },
    {
        "id": "846895",
        "src640": "https://cdn.pixabay.com/photo/2015/07/15/20/20/blackberries-846895_640.jpg",
        "src1280": "https://cdn.pixabay.com/photo/2015/07/15/20/20/blackberries-846895_1280.jpg"
    },
    {
        "id": "5720385",
        "src640": "https://cdn.pixabay.com/photo/2020/11/07/09/37/hibiscus-5720385_640.jpg",
        "src1280": "https://cdn.pixabay.com/photo/2020/11/07/09/37/hibiscus-5720385_1280.jpg"
    },
    {
        "id": "6940589",
        "src640": "https://cdn.pixabay.com/photo/2022/01/15/19/47/flower-6940589_640.jpg",
        "src1280": "https://cdn.pixabay.com/photo/2022/01/15/19/47/flower-6940589_1280.jpg"
    },
    {
        "id": "8342281",
        "src640": "https://cdn.pixabay.com/photo/2023/10/26/09/56/flower-8342281_640.jpg",
        "src1280": "https://cdn.pixabay.com/photo/2023/10/26/09/56/flower-8342281_1280.jpg"
    },
    {
        "id": "5680189",
        "src640": "https://cdn.pixabay.com/photo/2020/10/23/23/17/bee-5680189_640.jpg",
        "src1280": "https://cdn.pixabay.com/photo/2020/10/23/23/17/bee-5680189_1280.jpg"
    },
    {
        "id": "5259098",
        "src640": "https://cdn.pixabay.com/photo/2020/06/04/14/52/rosemary-5259098_640.jpg",
        "src1280": "https://cdn.pixabay.com/photo/2020/06/04/14/52/rosemary-5259098_1280.jpg"
    },
    {
        "id": "3366558",
        "src640": "https://cdn.pixabay.com/photo/2018/05/01/18/56/lawn-3366558_640.jpg",
        "src1280": "https://cdn.pixabay.com/photo/2018/05/01/18/56/lawn-3366558_1280.jpg"
    },
    {
        "id": "3700801",
        "src640": "https://cdn.pixabay.com/photo/2018/09/24/20/52/water-lily-3700801_640.jpg",
        "src1280": "https://cdn.pixabay.com/photo/2018/09/24/20/52/water-lily-3700801_1280.jpg"
    },
    {
        "id": "8275336",
        "src640": "https://cdn.pixabay.com/photo/2023/09/25/15/07/sunflower-8275336_640.jpg",
        "src1280": "https://cdn.pixabay.com/photo/2023/09/25/15/07/sunflower-8275336_1280.jpg"
    },
    {
        "id": "1091312",
        "src640": "https://cdn.pixabay.com/photo/2015/12/13/16/05/young-onion-1091312_640.jpg",
        "src1280": "https://cdn.pixabay.com/photo/2015/12/13/16/05/young-onion-1091312_1280.jpg"
    },
    {
        "id": "7774519",
        "src640": "https://cdn.pixabay.com/photo/2023/02/07/16/30/snowdrop-7774519_640.jpg",
        "src1280": "https://cdn.pixabay.com/photo/2023/02/07/16/30/snowdrop-7774519_1280.jpg"
    },
    {
        "id": "5133064",
        "src640": "https://cdn.pixabay.com/photo/2020/05/05/13/23/dandelion-5133064_640.jpg",
        "src1280": "https://cdn.pixabay.com/photo/2020/05/05/13/23/dandelion-5133064_1280.jpg"
    },
    {
        "id": "1045976",
        "src640": "https://cdn.pixabay.com/photo/2015/11/16/16/37/orchid-1045976_640.jpg",
        "src1280": "https://cdn.pixabay.com/photo/2015/11/16/16/37/orchid-1045976_1280.jpg"
    },
    {
        "id": "3608307",
        "src640": "https://cdn.pixabay.com/photo/2018/08/15/15/27/table-3608307_640.jpg",
        "src1280": "https://cdn.pixabay.com/photo/2018/08/15/15/27/table-3608307_1280.jpg"
    },
    {
        "id": "5216242",
        "src640": "https://cdn.pixabay.com/photo/2020/05/24/21/00/plant-5216242_640.jpg",
        "src1280": "https://cdn.pixabay.com/photo/2020/05/24/21/00/plant-5216242_1280.jpg"
    },
    {
        "id": "4870128",
        "src640": "https://cdn.pixabay.com/photo/2020/02/22/09/57/crocus-4870128_640.jpg",
        "src1280": "https://cdn.pixabay.com/photo/2020/02/22/09/57/crocus-4870128_1280.jpg"
    },
    {
        "id": "1350439",
        "src640": "https://cdn.pixabay.com/photo/2016/04/24/19/28/spain-1350439_640.jpg",
        "src1280": "https://cdn.pixabay.com/photo/2016/04/24/19/28/spain-1350439_1280.jpg"
    },
    {
        "id": "4227908",
        "src640": "https://cdn.pixabay.com/photo/2019/05/25/08/13/ajuga-gunsel-4227908_640.jpg",
        "src1280": "https://cdn.pixabay.com/photo/2019/05/25/08/13/ajuga-gunsel-4227908_1280.jpg"
    },
    {
        "id": "6212694",
        "src640": "https://cdn.pixabay.com/photo/2021/04/28/00/23/lotus-6212694_640.jpg",
        "src1280": "https://cdn.pixabay.com/photo/2021/04/28/00/23/lotus-6212694_1280.jpg"
    },
    {
        "id": "2585471",
        "src640": "https://cdn.pixabay.com/photo/2017/08/05/20/46/people-2585471_640.jpg",
        "src1280": "https://cdn.pixabay.com/photo/2017/08/05/20/46/people-2585471_1280.jpg"
    },
    {
        "id": "4213896",
        "src640": "https://cdn.pixabay.com/photo/2019/05/19/11/44/large-leaf-foliage-cactus-4213896_640.jpg",
        "src1280": "https://cdn.pixabay.com/photo/2019/05/19/11/44/large-leaf-foliage-cactus-4213896_1280.jpg"
    },
    {
        "id": "846066",
        "src640": "https://cdn.pixabay.com/photo/2015/07/15/11/49/life-846066_640.jpg",
        "src1280": "https://cdn.pixabay.com/photo/2015/07/15/11/49/life-846066_1280.jpg"
    },
    {
        "id": "174999",
        "src640": "https://cdn.pixabay.com/photo/2013/08/23/13/02/thorn-174999_640.jpg",
        "src1280": "https://cdn.pixabay.com/photo/2013/08/23/13/02/thorn-174999_1280.jpg"
    },
    {
        "id": "1710866",
        "src640": "https://cdn.pixabay.com/photo/2016/10/03/03/30/flowers-1710866_640.jpg",
        "src1280": "https://cdn.pixabay.com/photo/2016/10/03/03/30/flowers-1710866_1280.jpg"
    },
    {
        "id": "165013",
        "src640": "https://cdn.pixabay.com/photo/2013/07/18/20/26/tulip-165013_640.jpg",
        "src1280": "https://cdn.pixabay.com/photo/2013/07/18/20/26/tulip-165013_1280.jpg"
    },
    {
        "id": "641809",
        "src640": "https://cdn.pixabay.com/photo/2015/02/19/07/06/flower-641809_640.jpg",
        "src1280": "https://cdn.pixabay.com/photo/2015/02/19/07/06/flower-641809_1280.jpg"
    },
    {
        "id": "4702488",
        "src640": "https://cdn.pixabay.com/photo/2019/12/17/21/04/castor-oil-plant-4702488_640.jpg",
        "src1280": "https://cdn.pixabay.com/photo/2019/12/17/21/04/castor-oil-plant-4702488_1280.jpg"
    },
    {
        "id": "6291828",
        "src640": "https://cdn.pixabay.com/photo/2021/05/28/19/20/stone-6291828_640.jpg",
        "src1280": "https://cdn.pixabay.com/photo/2021/05/28/19/20/stone-6291828_1280.jpg"
    },
    {
        "id": "6623898",
        "src640": "https://cdn.pixabay.com/photo/2021/09/14/12/44/moth-orchids-6623898_640.jpg",
        "src1280": "https://cdn.pixabay.com/photo/2021/09/14/12/44/moth-orchids-6623898_1280.jpg"
    },
    {
        "id": "7844595",
        "src640": "https://cdn.pixabay.com/photo/2023/03/11/14/39/flower-7844595_640.jpg",
        "src1280": "https://cdn.pixabay.com/photo/2023/03/11/14/39/flower-7844595_1280.jpg"
    },
    {
        "id": "903215",
        "src640": "https://cdn.pixabay.com/photo/2015/08/23/19/16/autumn-903215_640.jpg",
        "src1280": "https://cdn.pixabay.com/photo/2015/08/23/19/16/autumn-903215_1280.jpg"
    },
    {
        "id": "3554415",
        "src640": "https://cdn.pixabay.com/photo/2018/07/22/11/58/plant-3554415_640.jpg",
        "src1280": "https://cdn.pixabay.com/photo/2018/07/22/11/58/plant-3554415_1280.jpg"
    },
    {
        "id": "1271935",
        "src640": "https://cdn.pixabay.com/photo/2016/03/22/00/49/bauernorchidee-1271935_640.jpg",
        "src1280": "https://cdn.pixabay.com/photo/2016/03/22/00/49/bauernorchidee-1271935_1280.jpg"
    },
    {
        "id": "183758",
        "src640": "https://cdn.pixabay.com/photo/2013/09/19/09/59/sun-flower-183758_640.jpg",
        "src1280": "https://cdn.pixabay.com/photo/2013/09/19/09/59/sun-flower-183758_1280.jpg"
    },
    {
        "id": "7712380",
        "src640": "https://cdn.pixabay.com/photo/2023/01/11/17/30/snow-7712380_640.jpg",
        "src1280": "https://cdn.pixabay.com/photo/2023/01/11/17/30/snow-7712380_1280.jpg"
    },
    {
        "id": "6482238",
        "src640": "https://cdn.pixabay.com/photo/2021/07/21/05/03/heliopsis-helianthoides-6482238_640.jpg",
        "src1280": "https://cdn.pixabay.com/photo/2021/07/21/05/03/heliopsis-helianthoides-6482238_1280.jpg"
    },
    {
        "id": "6496",
        "src640": "https://cdn.pixabay.com/photo/2011/04/13/02/25/cherry-blossom-6496_640.jpg",
        "src1280": "https://cdn.pixabay.com/photo/2011/04/13/02/25/cherry-blossom-6496_1280.jpg"
    },
    {
        "id": "6906051",
        "src640": "https://cdn.pixabay.com/photo/2021/12/31/15/19/flower-6906051_640.jpg",
        "src1280": "https://cdn.pixabay.com/photo/2021/12/31/15/19/flower-6906051_1280.jpg"
    },
    {
        "id": "1419951",
        "src640": "https://cdn.pixabay.com/photo/2016/05/27/14/22/petunia-1419951_640.jpg",
        "src1280": "https://cdn.pixabay.com/photo/2016/05/27/14/22/petunia-1419951_1280.jpg"
    },
    {
        "id": "226209",
        "src640": "https://cdn.pixabay.com/photo/2013/12/09/21/16/poppy-226209_640.jpg",
        "src1280": "https://cdn.pixabay.com/photo/2013/12/09/21/16/poppy-226209_1280.jpg"
    },
    {
        "id": "3820575",
        "src640": "https://cdn.pixabay.com/photo/2018/11/17/05/43/cereus-peruvianus-3820575_640.jpg",
        "src1280": "https://cdn.pixabay.com/photo/2018/11/17/05/43/cereus-peruvianus-3820575_1280.jpg"
    },
    {
        "id": "175000",
        "src640": "https://cdn.pixabay.com/photo/2013/08/23/13/02/glory-crown-175000_640.jpg",
        "src1280": "https://cdn.pixabay.com/photo/2013/08/23/13/02/glory-crown-175000_1280.jpg"
    },
    {
        "id": "2757299",
        "src640": "https://cdn.pixabay.com/photo/2017/09/17/00/53/seed-2757299_640.jpg",
        "src1280": "https://cdn.pixabay.com/photo/2017/09/17/00/53/seed-2757299_1280.jpg"
    },
    {
        "id": "5593307",
        "src640": "https://cdn.pixabay.com/photo/2020/09/22/14/36/aster-5593307_640.jpg",
        "src1280": "https://cdn.pixabay.com/photo/2020/09/22/14/36/aster-5593307_1280.jpg"
    },
    {
        "id": "1355671",
        "src640": "https://cdn.pixabay.com/photo/2016/04/26/23/53/potato-blossom-1355671_640.jpg",
        "src1280": "https://cdn.pixabay.com/photo/2016/04/26/23/53/potato-blossom-1355671_1280.jpg"
    },
    {
        "id": "53975",
        "src640": "https://cdn.pixabay.com/photo/2012/08/11/12/42/armenian-traubenhyazinthe-53975_640.jpg",
        "src1280": "https://cdn.pixabay.com/photo/2012/08/11/12/42/armenian-traubenhyazinthe-53975_1280.jpg"
    },
    {
        "id": "3465079",
        "src640": "https://cdn.pixabay.com/photo/2018/06/09/20/23/leaf-3465079_640.jpg",
        "src1280": "https://cdn.pixabay.com/photo/2018/06/09/20/23/leaf-3465079_1280.jpg"
    },
    {
        "id": "3393999",
        "src640": "https://cdn.pixabay.com/photo/2018/05/12/17/09/sainfoin-3393999_640.jpg",
        "src1280": "https://cdn.pixabay.com/photo/2018/05/12/17/09/sainfoin-3393999_1280.jpg"
    },
    {
        "id": "3441",
        "src640": "https://cdn.pixabay.com/photo/2010/12/16/01/20/sunflower-3441_640.jpg",
        "src1280": "https://cdn.pixabay.com/photo/2010/12/16/01/20/sunflower-3441_1280.jpg"
    },
    {
        "id": "820657",
        "src640": "https://cdn.pixabay.com/photo/2015/06/24/20/44/industry-820657_640.jpg",
        "src1280": "https://cdn.pixabay.com/photo/2015/06/24/20/44/industry-820657_1280.jpg"
    },
    {
        "id": "5530851",
        "src640": "https://cdn.pixabay.com/photo/2020/08/30/22/13/daisies-5530851_640.jpg",
        "src1280": "https://cdn.pixabay.com/photo/2020/08/30/22/13/daisies-5530851_1280.jpg"
    },
    {
        "id": "8064",
        "src640": "https://cdn.pixabay.com/photo/2011/06/21/14/01/grand-geranium-8064_640.jpg",
        "src1280": "https://cdn.pixabay.com/photo/2011/06/21/14/01/grand-geranium-8064_1280.jpg"
    },
    {
        "id": "7830301",
        "src640": "https://cdn.pixabay.com/photo/2023/03/05/00/19/watercolor-7830301_640.jpg",
        "src1280": "https://cdn.pixabay.com/photo/2023/03/05/00/19/watercolor-7830301_1280.jpg"
    },
    {
        "id": "7014",
        "src640": "https://cdn.pixabay.com/photo/2011/04/21/03/59/marguerite-7014_640.jpg",
        "src1280": "https://cdn.pixabay.com/photo/2011/04/21/03/59/marguerite-7014_1280.jpg"
    },
    {
        "id": "5581678",
        "src640": "https://cdn.pixabay.com/photo/2020/09/18/12/11/kangaroo-paw-5581678_640.jpg",
        "src1280": "https://cdn.pixabay.com/photo/2020/09/18/12/11/kangaroo-paw-5581678_1280.jpg"
    },
    {
        "id": "4998963",
        "src640": "https://cdn.pixabay.com/photo/2020/04/03/13/57/umbrella-4998963_640.jpg",
        "src1280": "https://cdn.pixabay.com/photo/2020/04/03/13/57/umbrella-4998963_1280.jpg"
    },
    {
        "id": "6253814",
        "src640": "https://cdn.pixabay.com/photo/2021/05/14/15/52/hibiscus-6253814_640.jpg",
        "src1280": "https://cdn.pixabay.com/photo/2021/05/14/15/52/hibiscus-6253814_1280.jpg"
    },
    {
        "id": "5238273",
        "src640": "https://cdn.pixabay.com/photo/2020/05/30/09/36/palm-5238273_640.jpg",
        "src1280": "https://cdn.pixabay.com/photo/2020/05/30/09/36/palm-5238273_1280.jpg"
    },
    {
        "id": "4891657",
        "src640": "https://cdn.pixabay.com/photo/2020/03/01/03/31/flower-4891657_640.jpg",
        "src1280": "https://cdn.pixabay.com/photo/2020/03/01/03/31/flower-4891657_1280.jpg"
    },
    {
        "id": "3349858",
        "src640": "https://cdn.pixabay.com/photo/2018/04/25/15/49/plant-3349858_640.jpg",
        "src1280": "https://cdn.pixabay.com/photo/2018/04/25/15/49/plant-3349858_1280.jpg"
    },
    {
        "id": "3042127",
        "src640": "https://cdn.pixabay.com/photo/2017/12/27/07/52/butterfly-3042127_640.jpg",
        "src1280": "https://cdn.pixabay.com/photo/2017/12/27/07/52/butterfly-3042127_1280.jpg"
    },
    {
        "id": "6271744",
        "src640": "https://cdn.pixabay.com/photo/2021/05/21/17/52/tulip-6271744_640.jpg",
        "src1280": "https://cdn.pixabay.com/photo/2021/05/21/17/52/tulip-6271744_1280.jpg"
    },
    {
        "id": "6585198",
        "src640": "https://cdn.pixabay.com/photo/2021/08/30/08/21/dahlia-6585198_640.jpg",
        "src1280": "https://cdn.pixabay.com/photo/2021/08/30/08/21/dahlia-6585198_1280.jpg"
    },
    {
        "id": "3216345",
        "src640": "https://cdn.pixabay.com/photo/2018/03/11/10/02/dew-3216345_640.jpg",
        "src1280": "https://cdn.pixabay.com/photo/2018/03/11/10/02/dew-3216345_1280.jpg"
    },
    {
        "id": "2541638",
        "src640": "https://cdn.pixabay.com/photo/2017/07/26/13/11/lampionblume-2541638_640.jpg",
        "src1280": "https://cdn.pixabay.com/photo/2017/07/26/13/11/lampionblume-2541638_1280.jpg"
    },
    {
        "id": "7635906",
        "src640": "https://cdn.pixabay.com/photo/2022/12/05/04/20/ai-generated-7635906_640.jpg",
        "src1280": "https://cdn.pixabay.com/photo/2022/12/05/04/20/ai-generated-7635906_1280.jpg"
    },
    {
        "id": "938491",
        "src640": "https://cdn.pixabay.com/photo/2015/09/13/17/34/poppy-938491_640.jpg",
        "src1280": "https://cdn.pixabay.com/photo/2015/09/13/17/34/poppy-938491_1280.jpg"
    },
    {
        "id": "49237",
        "src640": "https://cdn.pixabay.com/photo/2012/05/25/18/35/flower-49237_640.jpg",
        "src1280": "https://cdn.pixabay.com/photo/2012/05/25/18/35/flower-49237_1280.jpg"
    },
    {
        "id": "227750",
        "src640": "https://cdn.pixabay.com/photo/2013/12/13/04/39/spathiphyllum-227750_640.jpg",
        "src1280": "https://cdn.pixabay.com/photo/2013/12/13/04/39/spathiphyllum-227750_1280.jpg"
    },
    {
        "id": "1230827",
        "src640": "https://cdn.pixabay.com/photo/2016/03/01/18/01/flower-1230827_640.jpg",
        "src1280": "https://cdn.pixabay.com/photo/2016/03/01/18/01/flower-1230827_1280.jpg"
    },
    {
        "id": "324056",
        "src640": "https://cdn.pixabay.com/photo/2014/04/14/18/05/forsythia-324056_640.jpg",
        "src1280": "https://cdn.pixabay.com/photo/2014/04/14/18/05/forsythia-324056_1280.jpg"
    },
    {
        "id": "4985310",
        "src640": "https://cdn.pixabay.com/photo/2020/03/30/19/50/nature-4985310_640.jpg",
        "src1280": "https://cdn.pixabay.com/photo/2020/03/30/19/50/nature-4985310_1280.jpg"
    },
    {
        "id": "5639022",
        "src640": "https://cdn.pixabay.com/photo/2020/10/08/20/45/plant-5639022_640.jpg",
        "src1280": "https://cdn.pixabay.com/photo/2020/10/08/20/45/plant-5639022_1280.jpg"
    },
    {
        "id": "20434",
        "src640": "https://cdn.pixabay.com/photo/2012/03/01/15/45/background-20434_640.jpg",
        "src1280": "https://cdn.pixabay.com/photo/2012/03/01/15/45/background-20434_1280.jpg"
    },
    {
        "id": "796916",
        "src640": "https://cdn.pixabay.com/photo/2015/06/03/20/37/sweet-pea-796916_640.jpg",
        "src1280": "https://cdn.pixabay.com/photo/2015/06/03/20/37/sweet-pea-796916_1280.jpg"
    },
    {
        "id": "437366",
        "src640": "https://cdn.pixabay.com/photo/2014/09/07/00/53/apple-437366_640.jpg",
        "src1280": "https://cdn.pixabay.com/photo/2014/09/07/00/53/apple-437366_1280.jpg"
    },
    {
        "id": "8004702",
        "src640": "https://cdn.pixabay.com/photo/2023/05/19/14/33/flower-8004702_640.jpg",
        "src1280": "https://cdn.pixabay.com/photo/2023/05/19/14/33/flower-8004702_1280.jpg"
    },
    {
        "id": "5035415",
        "src640": "https://cdn.pixabay.com/photo/2020/04/12/19/06/leaves-5035415_640.jpg",
        "src1280": "https://cdn.pixabay.com/photo/2020/04/12/19/06/leaves-5035415_1280.jpg"
    },
    {
        "id": "7631063",
        "src640": "https://cdn.pixabay.com/photo/2022/12/02/15/13/grapes-7631063_640.jpg",
        "src1280": "https://cdn.pixabay.com/photo/2022/12/02/15/13/grapes-7631063_1280.jpg"
    },
    {
        "id": "8205190",
        "src640": "https://cdn.pixabay.com/photo/2023/08/21/23/14/tulips-8205190_640.jpg",
        "src1280": "https://cdn.pixabay.com/photo/2023/08/21/23/14/tulips-8205190_1280.jpg"
    },
    {
        "id": "4384346",
        "src640": "https://cdn.pixabay.com/photo/2019/08/04/17/58/poppy-4384346_640.jpg",
        "src1280": "https://cdn.pixabay.com/photo/2019/08/04/17/58/poppy-4384346_1280.jpg"
    },
    {
        "id": "4294755",
        "src640": "https://cdn.pixabay.com/photo/2019/06/23/21/00/rose-4294755_640.jpg",
        "src1280": "https://cdn.pixabay.com/photo/2019/06/23/21/00/rose-4294755_1280.jpg"
    },
    {
        "id": "4379238",
        "src640": "https://cdn.pixabay.com/photo/2019/08/02/09/38/vulgaris-4379238_640.jpg",
        "src1280": "https://cdn.pixabay.com/photo/2019/08/02/09/38/vulgaris-4379238_1280.jpg"
    },
    {
        "id": "5106436",
        "src640": "https://cdn.pixabay.com/photo/2020/04/28/21/39/cherry-blossom-5106436_640.jpg",
        "src1280": "https://cdn.pixabay.com/photo/2020/04/28/21/39/cherry-blossom-5106436_1280.jpg"
    }
]