[
    {
        "id": "7141",
        "src640": "https://cdn.pixabay.com/photo/2011/05/11/18/01/buckeye-7141_640.jpg",
        "src1280": "https://cdn.pixabay.com/photo/2011/05/11/18/01/buckeye-7141_1280.jpg"
    },
    {
        "id": "5459495",
        "src640": "https://cdn.pixabay.com/photo/2020/08/03/08/09/butterfly-5459495_640.jpg",
        "src1280": "https://cdn.pixabay.com/photo/2020/08/03/08/09/butterfly-5459495_1280.jpg"
    },
    {
        "id": "1821243",
        "src640": "https://cdn.pixabay.com/photo/2016/11/13/15/27/leaves-1821243_640.jpg",
        "src1280": "https://cdn.pixabay.com/photo/2016/11/13/15/27/leaves-1821243_1280.jpg"
    },
    {
        "id": "3306938",
        "src640": "https://cdn.pixabay.com/photo/2018/04/10/10/07/pond-3306938_640.jpg",
        "src1280": "https://cdn.pixabay.com/photo/2018/04/10/10/07/pond-3306938_1280.jpg"
    },
    {
        "id": "6129076",
        "src640": "https://cdn.pixabay.com/photo/2021/03/27/17/16/daisies-6129076_640.jpg",
        "src1280": "https://cdn.pixabay.com/photo/2021/03/27/17/16/daisies-6129076_1280.jpg"
    },
    {
        "id": "3349858",
        "src640": "https://cdn.pixabay.com/photo/2018/04/25/15/49/plant-3349858_640.jpg",
        "src1280": "https://cdn.pixabay.com/photo/2018/04/25/15/49/plant-3349858_1280.jpg"
    },
    {
        "id": "6128611",
        "src640": "https://cdn.pixabay.com/photo/2021/03/27/14/25/lotus-6128611_640.jpg",
        "src1280": "https://cdn.pixabay.com/photo/2021/03/27/14/25/lotus-6128611_1280.jpg"
    },
    {
        "id": "5230338",
        "src640": "https://cdn.pixabay.com/photo/2020/05/28/08/13/wild-rose-5230338_640.jpg",
        "src1280": "https://cdn.pixabay.com/photo/2020/05/28/08/13/wild-rose-5230338_1280.jpg"
    },
    {
        "id": "5252619",
        "src640": "https://cdn.pixabay.com/photo/2020/06/02/20/51/nature-5252619_640.jpg",
        "src1280": "https://cdn.pixabay.com/photo/2020/06/02/20/51/nature-5252619_1280.jpg"
    },
    {
        "id": "3641133",
        "src640": "https://cdn.pixabay.com/photo/2018/08/30/01/33/ornamental-3641133_640.jpg",
        "src1280": "https://cdn.pixabay.com/photo/2018/08/30/01/33/ornamental-3641133_1280.jpg"
    },
    {
        "id": "4866957",
        "src640": "https://cdn.pixabay.com/photo/2020/02/21/09/12/butterfly-4866957_640.jpg",
        "src1280": "https://cdn.pixabay.com/photo/2020/02/21/09/12/butterfly-4866957_1280.jpg"
    },
    {
        "id": "4791063",
        "src640": "https://cdn.pixabay.com/photo/2020/01/24/19/30/nepenthes-4791063_640.jpg",
        "src1280": "https://cdn.pixabay.com/photo/2020/01/24/19/30/nepenthes-4791063_1280.jpg"
    },
    {
        "id": "7613299",
        "src640": "https://cdn.pixabay.com/photo/2022/11/24/01/47/flowers-7613299_640.jpg",
        "src1280": "https://cdn.pixabay.com/photo/2022/11/24/01/47/flowers-7613299_1280.jpg"
    },
    {
        "id": "4808577",
        "src640": "https://cdn.pixabay.com/photo/2020/01/31/17/17/bee-4808577_640.jpg",
        "src1280": "https://cdn.pixabay.com/photo/2020/01/31/17/17/bee-4808577_1280.jpg"
    },
    {
        "id": "4914517",
        "src640": "https://cdn.pixabay.com/photo/2020/03/09/05/17/white-lotus-4914517_640.jpg",
        "src1280": "https://cdn.pixabay.com/photo/2020/03/09/05/17/white-lotus-4914517_1280.jpg"
    },
    {
        "id": "3421011",
        "src640": "https://cdn.pixabay.com/photo/2018/05/22/10/26/rose-3421011_640.jpg",
        "src1280": "https://cdn.pixabay.com/photo/2018/05/22/10/26/rose-3421011_1280.jpg"
    },
    {
        "id": "5299159",
        "src640": "https://cdn.pixabay.com/photo/2020/06/14/19/36/flower-5299159_640.jpg",
        "src1280": "https://cdn.pixabay.com/photo/2020/06/14/19/36/flower-5299159_1280.jpg"
    },
    {
        "id": "2904607",
        "src640": "https://cdn.pixabay.com/photo/2017/10/31/08/30/alder-2904607_640.jpg",
        "src1280": "https://cdn.pixabay.com/photo/2017/10/31/08/30/alder-2904607_1280.jpg"
    },
    {
        "id": "5271731",
        "src640": "https://cdn.pixabay.com/photo/2020/06/07/19/15/roses-5271731_640.jpg",
        "src1280": "https://cdn.pixabay.com/photo/2020/06/07/19/15/roses-5271731_1280.jpg"
    },
    {
        "id": "6758430",
        "src640": "https://cdn.pixabay.com/photo/2021/10/31/18/15/fruit-6758430_640.jpg",
        "src1280": "https://cdn.pixabay.com/photo/2021/10/31/18/15/fruit-6758430_1280.jpg"
    },
    {
        "id": "4652695",
        "src640": "https://cdn.pixabay.com/photo/2019/11/25/18/04/biscuit-4652695_640.jpg",
        "src1280": "https://cdn.pixabay.com/photo/2019/11/25/18/04/biscuit-4652695_1280.jpg"
    },
    {
        "id": "318461",
        "src640": "https://cdn.pixabay.com/photo/2014/04/07/07/20/crocus-318461_640.jpg",
        "src1280": "https://cdn.pixabay.com/photo/2014/04/07/07/20/crocus-318461_1280.jpg"
    },
    {
        "id": "2914667",
        "src640": "https://cdn.pixabay.com/photo/2017/11/03/15/18/silk-flower-2914667_640.jpg",
        "src1280": "https://cdn.pixabay.com/photo/2017/11/03/15/18/silk-flower-2914667_1280.jpg"
    },
    {
        "id": "4917801",
        "src640": "https://cdn.pixabay.com/photo/2020/03/10/04/47/tulip-4917801_640.jpg",
        "src1280": "https://cdn.pixabay.com/photo/2020/03/10/04/47/tulip-4917801_1280.jpg"
    },
    {
        "id": "5242088",
        "src640": "https://cdn.pixabay.com/photo/2020/05/31/09/58/butterfly-5242088_640.jpg",
        "src1280": "https://cdn.pixabay.com/photo/2020/05/31/09/58/butterfly-5242088_1280.jpg"
    },
    {
        "id": "4294755",
        "src640": "https://cdn.pixabay.com/photo/2019/06/23/21/00/rose-4294755_640.jpg",
        "src1280": "https://cdn.pixabay.com/photo/2019/06/23/21/00/rose-4294755_1280.jpg"
    },
    {
        "id": "694217",
        "src640": "https://cdn.pixabay.com/photo/2015/03/27/02/41/corn-hair-694217_640.jpg",
        "src1280": "https://cdn.pixabay.com/photo/2015/03/27/02/41/corn-hair-694217_1280.jpg"
    },
    {
        "id": "641406",
        "src640": "https://cdn.pixabay.com/photo/2015/02/18/20/03/peace-lily-641406_640.jpg",
        "src1280": "https://cdn.pixabay.com/photo/2015/02/18/20/03/peace-lily-641406_1280.jpg"
    },
    {
        "id": "4226545",
        "src640": "https://cdn.pixabay.com/photo/2019/05/24/15/39/landscape-4226545_640.jpg",
        "src1280": "https://cdn.pixabay.com/photo/2019/05/24/15/39/landscape-4226545_1280.jpg"
    },
    {
        "id": "4485971",
        "src640": "https://cdn.pixabay.com/photo/2019/09/18/09/45/poppy-4485971_640.jpg",
        "src1280": "https://cdn.pixabay.com/photo/2019/09/18/09/45/poppy-4485971_1280.jpg"
    },
    {
        "id": "1634001",
        "src640": "https://cdn.pixabay.com/photo/2016/08/31/16/19/aromatic-basil-1634001_640.jpg",
        "src1280": "https://cdn.pixabay.com/photo/2016/08/31/16/19/aromatic-basil-1634001_1280.jpg"
    },
    {
        "id": "1521777",
        "src640": "https://cdn.pixabay.com/photo/2016/07/16/13/36/lavender-1521777_640.jpg",
        "src1280": "https://cdn.pixabay.com/photo/2016/07/16/13/36/lavender-1521777_1280.jpg"
    },
    {
        "id": "2559123",
        "src640": "https://cdn.pixabay.com/photo/2017/07/31/17/19/green-2559123_640.jpg",
        "src1280": "https://cdn.pixabay.com/photo/2017/07/31/17/19/green-2559123_1280.jpg"
    },
    {
        "id": "3531797",
        "src640": "https://cdn.pixabay.com/photo/2018/07/11/20/12/nature-3531797_640.jpg",
        "src1280": "https://cdn.pixabay.com/photo/2018/07/11/20/12/nature-3531797_1280.jpg"
    },
    {
        "id": "5136394",
        "src640": "https://cdn.pixabay.com/photo/2020/05/06/07/03/magnolia-flower-5136394_640.jpg",
        "src1280": "https://cdn.pixabay.com/photo/2020/05/06/07/03/magnolia-flower-5136394_1280.jpg"
    },
    {
        "id": "1127280",
        "src640": "https://cdn.pixabay.com/photo/2016/01/08/07/42/raspberries-1127280_640.jpg",
        "src1280": "https://cdn.pixabay.com/photo/2016/01/08/07/42/raspberries-1127280_1280.jpg"
    },
    {
        "id": "1393641",
        "src640": "https://cdn.pixabay.com/photo/2016/05/15/12/13/ladybug-1393641_640.jpg",
        "src1280": "https://cdn.pixabay.com/photo/2016/05/15/12/13/ladybug-1393641_1280.jpg"
    },
    {
        "id": "2621778",
        "src640": "https://cdn.pixabay.com/photo/2017/08/10/11/44/plant-2621778_640.jpg",
        "src1280": "https://cdn.pixabay.com/photo/2017/08/10/11/44/plant-2621778_1280.jpg"
    },
    {
        "id": "4814548",
        "src640": "https://cdn.pixabay.com/photo/2020/02/03/02/02/flowers-4814548_640.jpg",
        "src1280": "https://cdn.pixabay.com/photo/2020/02/03/02/02/flowers-4814548_1280.jpg"
    },
    {
        "id": "4190144",
        "src640": "https://cdn.pixabay.com/photo/2019/05/09/00/47/pepper-4190144_640.jpg",
        "src1280": "https://cdn.pixabay.com/photo/2019/05/09/00/47/pepper-4190144_1280.jpg"
    },
    {
        "id": "467127",
        "src640": "https://cdn.pixabay.com/photo/2014/09/30/12/30/leaf-467127_640.jpg",
        "src1280": "https://cdn.pixabay.com/photo/2014/09/30/12/30/leaf-467127_1280.jpg"
    },
    {
        "id": "4580991",
        "src640": "https://cdn.pixabay.com/photo/2019/10/27/08/06/sri-lanka-4580991_640.jpg",
        "src1280": "https://cdn.pixabay.com/photo/2019/10/27/08/06/sri-lanka-4580991_1280.jpg"
    },
    {
        "id": "167455",
        "src640": "https://cdn.pixabay.com/photo/2013/07/26/05/37/large-speedwell-167455_640.jpg",
        "src1280": "https://cdn.pixabay.com/photo/2013/07/26/05/37/large-speedwell-167455_1280.jpg"
    },
    {
        "id": "5001461",
        "src640": "https://cdn.pixabay.com/photo/2020/04/04/09/09/cherry-blossom-5001461_640.jpg",
        "src1280": "https://cdn.pixabay.com/photo/2020/04/04/09/09/cherry-blossom-5001461_1280.jpg"
    },
    {
        "id": "6324466",
        "src640": "https://cdn.pixabay.com/photo/2021/06/09/20/43/purple-orchis-6324466_640.jpg",
        "src1280": "https://cdn.pixabay.com/photo/2021/06/09/20/43/purple-orchis-6324466_1280.jpg"
    },
    {
        "id": "903215",
        "src640": "https://cdn.pixabay.com/photo/2015/08/23/19/16/autumn-903215_640.jpg",
        "src1280": "https://cdn.pixabay.com/photo/2015/08/23/19/16/autumn-903215_1280.jpg"
    },
    {
        "id": "5519822",
        "src640": "https://cdn.pixabay.com/photo/2020/08/26/15/44/bouquet-5519822_640.jpg",
        "src1280": "https://cdn.pixabay.com/photo/2020/08/26/15/44/bouquet-5519822_1280.jpg"
    },
    {
        "id": "6253814",
        "src640": "https://cdn.pixabay.com/photo/2021/05/14/15/52/hibiscus-6253814_640.jpg",
        "src1280": "https://cdn.pixabay.com/photo/2021/05/14/15/52/hibiscus-6253814_1280.jpg"
    },
    {
        "id": "4379238",
        "src640": "https://cdn.pixabay.com/photo/2019/08/02/09/38/vulgaris-4379238_640.jpg",
        "src1280": "https://cdn.pixabay.com/photo/2019/08/02/09/38/vulgaris-4379238_1280.jpg"
    },
    {
        "id": "3553232",
        "src640": "https://cdn.pixabay.com/photo/2018/07/21/19/33/dahlia-3553232_640.jpg",
        "src1280": "https://cdn.pixabay.com/photo/2018/07/21/19/33/dahlia-3553232_1280.jpg"
    },
    {
        "id": "3944359",
        "src640": "https://cdn.pixabay.com/photo/2019/01/20/18/09/winter-3944359_640.jpg",
        "src1280": "https://cdn.pixabay.com/photo/2019/01/20/18/09/winter-3944359_1280.jpg"
    },
    {
        "id": "5073556",
        "src640": "https://cdn.pixabay.com/photo/2020/04/21/15/45/purple-5073556_640.jpg",
        "src1280": "https://cdn.pixabay.com/photo/2020/04/21/15/45/purple-5073556_1280.jpg"
    },
    {
        "id": "6938975",
        "src640": "https://cdn.pixabay.com/photo/2022/01/15/08/47/plant-6938975_640.jpg",
        "src1280": "https://cdn.pixabay.com/photo/2022/01/15/08/47/plant-6938975_1280.jpg"
    },
    {
        "id": "7126189",
        "src640": "https://cdn.pixabay.com/photo/2022/04/11/16/48/tulips-7126189_640.jpg",
        "src1280": "https://cdn.pixabay.com/photo/2022/04/11/16/48/tulips-7126189_1280.jpg"
    },
    {
        "id": "5723428",
        "src640": "https://cdn.pixabay.com/photo/2020/11/08/11/02/flower-5723428_640.jpg",
        "src1280": "https://cdn.pixabay.com/photo/2020/11/08/11/02/flower-5723428_1280.jpg"
    },
    {
        "id": "7536997",
        "src640": "https://cdn.pixabay.com/photo/2022/10/21/13/06/lotus-7536997_640.jpg",
        "src1280": "https://cdn.pixabay.com/photo/2022/10/21/13/06/lotus-7536997_1280.jpg"
    },
    {
        "id": "5111552",
        "src640": "https://cdn.pixabay.com/photo/2020/04/30/06/20/vine-5111552_640.jpg",
        "src1280": "https://cdn.pixabay.com/photo/2020/04/30/06/20/vine-5111552_1280.jpg"
    },
    {
        "id": "5183736",
        "src640": "https://cdn.pixabay.com/photo/2020/05/17/22/17/flower-5183736_640.jpg",
        "src1280": "https://cdn.pixabay.com/photo/2020/05/17/22/17/flower-5183736_1280.jpg"
    },
    {
        "id": "2258404",
        "src640": "https://cdn.pixabay.com/photo/2017/04/25/02/50/bleeding-heart-2258404_640.jpg",
        "src1280": "https://cdn.pixabay.com/photo/2017/04/25/02/50/bleeding-heart-2258404_1280.jpg"
    },
    {
        "id": "5267443",
        "src640": "https://cdn.pixabay.com/photo/2020/06/06/17/23/wild-rose-5267443_640.jpg",
        "src1280": "https://cdn.pixabay.com/photo/2020/06/06/17/23/wild-rose-5267443_1280.jpg"
    },
    {
        "id": "3113825",
        "src640": "https://cdn.pixabay.com/photo/2018/01/28/14/38/headframe-3113825_640.jpg",
        "src1280": "https://cdn.pixabay.com/photo/2018/01/28/14/38/headframe-3113825_1280.jpg"
    },
    {
        "id": "4914342",
        "src640": "https://cdn.pixabay.com/photo/2020/03/09/04/00/cherry-4914342_640.jpg",
        "src1280": "https://cdn.pixabay.com/photo/2020/03/09/04/00/cherry-4914342_1280.jpg"
    },
    {
        "id": "4800527",
        "src640": "https://cdn.pixabay.com/photo/2020/01/28/18/05/drip-4800527_640.jpg",
        "src1280": "https://cdn.pixabay.com/photo/2020/01/28/18/05/drip-4800527_1280.jpg"
    },
    {
        "id": "7477680",
        "src640": "https://cdn.pixabay.com/photo/2022/09/25/06/20/flower-7477680_640.jpg",
        "src1280": "https://cdn.pixabay.com/photo/2022/09/25/06/20/flower-7477680_1280.jpg"
    },
    {
        "id": "4098209",
        "src640": "https://cdn.pixabay.com/photo/2019/04/02/16/58/nature-4098209_640.jpg",
        "src1280": "https://cdn.pixabay.com/photo/2019/04/02/16/58/nature-4098209_1280.jpg"
    },
    {
        "id": "5349641",
        "src640": "https://cdn.pixabay.com/photo/2020/06/28/15/06/chamomile-5349641_640.jpg",
        "src1280": "https://cdn.pixabay.com/photo/2020/06/28/15/06/chamomile-5349641_1280.jpg"
    },
    {
        "id": "115383",
        "src640": "https://cdn.pixabay.com/photo/2013/06/01/03/48/marjoram-115383_640.jpg",
        "src1280": "https://cdn.pixabay.com/photo/2013/06/01/03/48/marjoram-115383_1280.jpg"
    },
    {
        "id": "3891335",
        "src640": "https://cdn.pixabay.com/photo/2018/12/23/15/29/banana-flower-3891335_640.jpg",
        "src1280": "https://cdn.pixabay.com/photo/2018/12/23/15/29/banana-flower-3891335_1280.jpg"
    },
    {
        "id": "5328131",
        "src640": "https://cdn.pixabay.com/photo/2020/06/22/07/38/flowers-5328131_640.jpg",
        "src1280": "https://cdn.pixabay.com/photo/2020/06/22/07/38/flowers-5328131_1280.jpg"
    },
    {
        "id": "3294708",
        "src640": "https://cdn.pixabay.com/photo/2018/04/06/00/47/nature-3294708_640.jpg",
        "src1280": "https://cdn.pixabay.com/photo/2018/04/06/00/47/nature-3294708_1280.jpg"
    },
    {
        "id": "7844595",
        "src640": "https://cdn.pixabay.com/photo/2023/03/11/14/39/flower-7844595_640.jpg",
        "src1280": "https://cdn.pixabay.com/photo/2023/03/11/14/39/flower-7844595_1280.jpg"
    },
    {
        "id": "7774519",
        "src640": "https://cdn.pixabay.com/photo/2023/02/07/16/30/snowdrop-7774519_640.jpg",
        "src1280": "https://cdn.pixabay.com/photo/2023/02/07/16/30/snowdrop-7774519_1280.jpg"
    },
    {
        "id": "6901267",
        "src640": "https://cdn.pixabay.com/photo/2021/12/29/09/31/plant-6901267_640.jpg",
        "src1280": "https://cdn.pixabay.com/photo/2021/12/29/09/31/plant-6901267_1280.jpg"
    },
    {
        "id": "7732616",
        "src640": "https://cdn.pixabay.com/photo/2023/01/20/21/57/corn-poppy-7732616_640.jpg",
        "src1280": "https://cdn.pixabay.com/photo/2023/01/20/21/57/corn-poppy-7732616_1280.jpg"
    },
    {
        "id": "3870478",
        "src640": "https://cdn.pixabay.com/photo/2018/12/12/10/07/summer-3870478_640.jpg",
        "src1280": "https://cdn.pixabay.com/photo/2018/12/12/10/07/summer-3870478_1280.jpg"
    },
    {
        "id": "4970893",
        "src640": "https://cdn.pixabay.com/photo/2020/03/26/16/28/hyacinth-4970893_640.jpg",
        "src1280": "https://cdn.pixabay.com/photo/2020/03/26/16/28/hyacinth-4970893_1280.jpg"
    },
    {
        "id": "220899",
        "src640": "https://cdn.pixabay.com/photo/2013/11/29/04/17/white-220899_640.jpg",
        "src1280": "https://cdn.pixabay.com/photo/2013/11/29/04/17/white-220899_1280.jpg"
    },
    {
        "id": "5092661",
        "src640": "https://cdn.pixabay.com/photo/2020/04/25/20/46/dandelion-5092661_640.jpg",
        "src1280": "https://cdn.pixabay.com/photo/2020/04/25/20/46/dandelion-5092661_1280.jpg"
    },
    {
        "id": "8358189",
        "src640": "https://cdn.pixabay.com/photo/2023/11/01/16/30/woman-8358189_640.jpg",
        "src1280": "https://cdn.pixabay.com/photo/2023/11/01/16/30/woman-8358189_1280.jpg"
    },
    {
        "id": "3264079",
        "src640": "https://cdn.pixabay.com/photo/2018/03/26/20/57/nature-3264079_640.jpg",
        "src1280": "https://cdn.pixabay.com/photo/2018/03/26/20/57/nature-3264079_1280.jpg"
    },
    {
        "id": "7048093",
        "src640": "https://cdn.pixabay.com/photo/2022/03/04/22/33/pinstripe-plant-7048093_640.jpg",
        "src1280": "https://cdn.pixabay.com/photo/2022/03/04/22/33/pinstripe-plant-7048093_1280.jpg"
    },
    {
        "id": "4487220",
        "src640": "https://cdn.pixabay.com/photo/2019/09/18/17/01/mango-4487220_640.jpg",
        "src1280": "https://cdn.pixabay.com/photo/2019/09/18/17/01/mango-4487220_1280.jpg"
    },
    {
        "id": "4905312",
        "src640": "https://cdn.pixabay.com/photo/2020/03/05/19/48/hyacinth-4905312_640.jpg",
        "src1280": "https://cdn.pixabay.com/photo/2020/03/05/19/48/hyacinth-4905312_1280.jpg"
    },
    {
        "id": "3354121",
        "src640": "https://cdn.pixabay.com/photo/2018/04/27/09/12/nature-3354121_640.jpg",
        "src1280": "https://cdn.pixabay.com/photo/2018/04/27/09/12/nature-3354121_1280.jpg"
    },
    {
        "id": "170980",
        "src640": "https://cdn.pixabay.com/photo/2013/08/09/05/57/branches-170980_640.jpg",
        "src1280": "https://cdn.pixabay.com/photo/2013/08/09/05/57/branches-170980_1280.jpg"
    },
    {
        "id": "4198747",
        "src640": "https://cdn.pixabay.com/photo/2019/05/12/18/55/floral-4198747_640.jpg",
        "src1280": "https://cdn.pixabay.com/photo/2019/05/12/18/55/floral-4198747_1280.jpg"
    },
    {
        "id": "4840073",
        "src640": "https://cdn.pixabay.com/photo/2020/02/11/16/24/flower-4840073_640.jpg",
        "src1280": "https://cdn.pixabay.com/photo/2020/02/11/16/24/flower-4840073_1280.jpg"
    },
    {
        "id": "4667209",
        "src640": "https://cdn.pixabay.com/photo/2019/12/02/09/01/flowers-4667209_640.jpg",
        "src1280": "https://cdn.pixabay.com/photo/2019/12/02/09/01/flowers-4667209_1280.jpg"
    },
    {
        "id": "4689424",
        "src640": "https://cdn.pixabay.com/photo/2019/12/11/22/27/bark-4689424_640.jpg",
        "src1280": "https://cdn.pixabay.com/photo/2019/12/11/22/27/bark-4689424_1280.jpg"
    },
    {
        "id": "3442495",
        "src640": "https://cdn.pixabay.com/photo/2018/05/30/20/44/rose-3442495_640.jpg",
        "src1280": "https://cdn.pixabay.com/photo/2018/05/30/20/44/rose-3442495_1280.jpg"
    },
    {
        "id": "8397279",
        "src640": "https://cdn.pixabay.com/photo/2023/11/18/22/18/sparrow-8397279_640.jpg",
        "src1280": "https://cdn.pixabay.com/photo/2023/11/18/22/18/sparrow-8397279_1280.jpg"
    },
    {
        "id": "4417386",
        "src640": "https://cdn.pixabay.com/photo/2019/08/19/21/59/white-4417386_640.jpg",
        "src1280": "https://cdn.pixabay.com/photo/2019/08/19/21/59/white-4417386_1280.jpg"
    },
    {
        "id": "4581756",
        "src640": "https://cdn.pixabay.com/photo/2019/10/27/13/22/autumn-4581756_640.jpg",
        "src1280": "https://cdn.pixabay.com/photo/2019/10/27/13/22/autumn-4581756_1280.jpg"
    }
]