[
    {
        "id": "1984899",
        "src640": "https://cdn.pixabay.com/photo/2017/01/16/18/45/amaryllis-1984899_640.jpg",
        "src1280": "https://cdn.pixabay.com/photo/2017/01/16/18/45/amaryllis-1984899_1280.jpg"
    },
    {
        "id": "1009800",
        "src640": "https://cdn.pixabay.com/photo/2015/10/27/23/27/coffee-1009800_640.jpg",
        "src1280": "https://cdn.pixabay.com/photo/2015/10/27/23/27/coffee-1009800_1280.jpg"
    },
    {
        "id": "2604260",
        "src640": "https://cdn.pixabay.com/photo/2017/08/07/14/12/wall-2604260_640.jpg",
        "src1280": "https://cdn.pixabay.com/photo/2017/08/07/14/12/wall-2604260_1280.jpg"
    },
    {
        "id": "3477260",
        "src640": "https://cdn.pixabay.com/photo/2018/06/15/17/27/stock-rose-3477260_640.jpg",
        "src1280": "https://cdn.pixabay.com/photo/2018/06/15/17/27/stock-rose-3477260_1280.jpg"
    },
    {
        "id": "8238091",
        "src640": "https://cdn.pixabay.com/photo/2023/09/07/01/34/vector-graphic-8238091_640.jpg",
        "src1280": "https://cdn.pixabay.com/photo/2023/09/07/01/34/vector-graphic-8238091_1280.jpg"
    },
    {
        "id": "2920313",
        "src640": "https://cdn.pixabay.com/photo/2017/11/05/12/45/poppy-2920313_640.jpg",
        "src1280": "https://cdn.pixabay.com/photo/2017/11/05/12/45/poppy-2920313_1280.jpg"
    },
    {
        "id": "8071924",
        "src640": "https://cdn.pixabay.com/photo/2023/06/18/12/14/wisteria-8071924_640.jpg",
        "src1280": "https://cdn.pixabay.com/photo/2023/06/18/12/14/wisteria-8071924_1280.jpg"
    },
    {
        "id": "8404530",
        "src640": "https://cdn.pixabay.com/photo/2023/11/22/01/38/dogwood-8404530_640.jpg",
        "src1280": "https://cdn.pixabay.com/photo/2023/11/22/01/38/dogwood-8404530_1280.jpg"
    },
    {
        "id": "4276240",
        "src640": "https://cdn.pixabay.com/photo/2019/06/15/18/28/foxglove-4276240_640.jpg",
        "src1280": "https://cdn.pixabay.com/photo/2019/06/15/18/28/foxglove-4276240_1280.jpg"
    },
    {
        "id": "3263623",
        "src640": "https://cdn.pixabay.com/photo/2018/03/26/18/59/nature-3263623_640.jpg",
        "src1280": "https://cdn.pixabay.com/photo/2018/03/26/18/59/nature-3263623_1280.jpg"
    },
    {
        "id": "2840836",
        "src640": "https://cdn.pixabay.com/photo/2017/10/11/12/03/dalat-2840836_640.jpg",
        "src1280": "https://cdn.pixabay.com/photo/2017/10/11/12/03/dalat-2840836_1280.jpg"
    },
    {
        "id": "5585876",
        "src640": "https://cdn.pixabay.com/photo/2020/09/20/03/17/cherry-blossom-5585876_640.jpg",
        "src1280": "https://cdn.pixabay.com/photo/2020/09/20/03/17/cherry-blossom-5585876_1280.jpg"
    },
    {
        "id": "932753",
        "src640": "https://cdn.pixabay.com/photo/2015/09/09/19/24/fresh-932753_640.jpg",
        "src1280": "https://cdn.pixabay.com/photo/2015/09/09/19/24/fresh-932753_1280.jpg"
    },
    {
        "id": "7907352",
        "src640": "https://cdn.pixabay.com/photo/2023/04/07/16/36/flower-7907352_640.jpg",
        "src1280": "https://cdn.pixabay.com/photo/2023/04/07/16/36/flower-7907352_1280.jpg"
    },
    {
        "id": "7461032",
        "src640": "https://cdn.pixabay.com/photo/2022/09/17/13/54/cocktail-tomatoes-7461032_640.jpg",
        "src1280": "https://cdn.pixabay.com/photo/2022/09/17/13/54/cocktail-tomatoes-7461032_1280.jpg"
    },
    {
        "id": "1844312",
        "src640": "https://cdn.pixabay.com/photo/2016/11/21/05/48/the-leaves-1844312_640.jpg",
        "src1280": "https://cdn.pixabay.com/photo/2016/11/21/05/48/the-leaves-1844312_1280.jpg"
    },
    {
        "id": "830692",
        "src640": "https://cdn.pixabay.com/photo/2015/07/03/20/23/ivy-830692_640.jpg",
        "src1280": "https://cdn.pixabay.com/photo/2015/07/03/20/23/ivy-830692_1280.jpg"
    },
    {
        "id": "5692729",
        "src640": "https://cdn.pixabay.com/photo/2020/10/28/08/05/garden-roses-5692729_640.jpg",
        "src1280": "https://cdn.pixabay.com/photo/2020/10/28/08/05/garden-roses-5692729_1280.jpg"
    },
    {
        "id": "9215",
        "src640": "https://cdn.pixabay.com/photo/2011/09/14/12/33/grapes-9215_640.jpg",
        "src1280": "https://cdn.pixabay.com/photo/2011/09/14/12/33/grapes-9215_1280.jpg"
    },
    {
        "id": "2900040",
        "src640": "https://cdn.pixabay.com/photo/2017/10/29/15/50/dandelion-2900040_640.jpg",
        "src1280": "https://cdn.pixabay.com/photo/2017/10/29/15/50/dandelion-2900040_1280.jpg"
    },
    {
        "id": "6056697",
        "src640": "https://cdn.pixabay.com/photo/2021/02/28/09/24/flower-6056697_640.jpg",
        "src1280": "https://cdn.pixabay.com/photo/2021/02/28/09/24/flower-6056697_1280.jpg"
    },
    {
        "id": "1587016",
        "src640": "https://cdn.pixabay.com/photo/2016/08/11/22/10/anemone-1587016_640.jpg",
        "src1280": "https://cdn.pixabay.com/photo/2016/08/11/22/10/anemone-1587016_1280.jpg"
    },
    {
        "id": "864295",
        "src640": "https://cdn.pixabay.com/photo/2015/07/28/11/59/purple-window-864295_640.jpg",
        "src1280": "https://cdn.pixabay.com/photo/2015/07/28/11/59/purple-window-864295_1280.jpg"
    },
    {
        "id": "3256696",
        "src640": "https://cdn.pixabay.com/photo/2018/03/24/14/01/art-3256696_640.jpg",
        "src1280": "https://cdn.pixabay.com/photo/2018/03/24/14/01/art-3256696_1280.jpg"
    },
    {
        "id": "1892900",
        "src640": "https://cdn.pixabay.com/photo/2016/12/08/19/07/vegetables-1892900_640.jpg",
        "src1280": "https://cdn.pixabay.com/photo/2016/12/08/19/07/vegetables-1892900_1280.jpg"
    },
    {
        "id": "2202182",
        "src640": "https://cdn.pixabay.com/photo/2017/04/04/17/12/bamboo-2202182_640.jpg",
        "src1280": "https://cdn.pixabay.com/photo/2017/04/04/17/12/bamboo-2202182_1280.jpg"
    },
    {
        "id": "2614273",
        "src640": "https://cdn.pixabay.com/photo/2017/08/09/11/29/sage-2614273_640.jpg",
        "src1280": "https://cdn.pixabay.com/photo/2017/08/09/11/29/sage-2614273_1280.jpg"
    },
    {
        "id": "224015",
        "src640": "https://cdn.pixabay.com/photo/2013/12/06/01/11/palm-224015_640.jpg",
        "src1280": "https://cdn.pixabay.com/photo/2013/12/06/01/11/palm-224015_1280.jpg"
    },
    {
        "id": "4911816",
        "src640": "https://cdn.pixabay.com/photo/2020/03/08/08/31/yellow-4911816_640.jpg",
        "src1280": "https://cdn.pixabay.com/photo/2020/03/08/08/31/yellow-4911816_1280.jpg"
    },
    {
        "id": "316714",
        "src640": "https://cdn.pixabay.com/photo/2014/04/05/11/40/rose-316714_640.jpg",
        "src1280": "https://cdn.pixabay.com/photo/2014/04/05/11/40/rose-316714_1280.jpg"
    },
    {
        "id": "4142100",
        "src640": "https://cdn.pixabay.com/photo/2019/04/20/15/38/protea-4142100_640.jpg",
        "src1280": "https://cdn.pixabay.com/photo/2019/04/20/15/38/protea-4142100_1280.jpg"
    },
    {
        "id": "8436357",
        "src640": "https://cdn.pixabay.com/photo/2023/12/07/21/17/fern-8436357_640.jpg",
        "src1280": "https://cdn.pixabay.com/photo/2023/12/07/21/17/fern-8436357_1280.jpg"
    },
    {
        "id": "3132022",
        "src640": "https://cdn.pixabay.com/photo/2018/02/05/11/50/flower-3132022_640.jpg",
        "src1280": "https://cdn.pixabay.com/photo/2018/02/05/11/50/flower-3132022_1280.jpg"
    },
    {
        "id": "649139",
        "src640": "https://cdn.pixabay.com/photo/2015/02/25/17/42/flower-649139_640.jpg",
        "src1280": "https://cdn.pixabay.com/photo/2015/02/25/17/42/flower-649139_1280.jpg"
    },
    {
        "id": "791914",
        "src640": "https://cdn.pixabay.com/photo/2015/05/31/14/18/azalea-791914_640.jpg",
        "src1280": "https://cdn.pixabay.com/photo/2015/05/31/14/18/azalea-791914_1280.jpg"
    },
    {
        "id": "8194849",
        "src640": "https://cdn.pixabay.com/photo/2023/08/16/18/47/dahlia-8194849_640.jpg",
        "src1280": "https://cdn.pixabay.com/photo/2023/08/16/18/47/dahlia-8194849_1280.jpg"
    }
]