[
    {
        "id": "689183",
        "src640": "https://cdn.pixabay.com/photo/2015/03/25/16/09/flower-689183_640.jpg",
        "src1280": "https://cdn.pixabay.com/photo/2015/03/25/16/09/flower-689183_1280.jpg"
    },
    {
        "id": "7410094",
        "src640": "https://cdn.pixabay.com/photo/2022/08/25/12/01/cactus-7410094_640.jpg",
        "src1280": "https://cdn.pixabay.com/photo/2022/08/25/12/01/cactus-7410094_1280.jpg"
    },
    {
        "id": "3401414",
        "src640": "https://cdn.pixabay.com/photo/2018/05/14/20/01/flower-3401414_640.jpg",
        "src1280": "https://cdn.pixabay.com/photo/2018/05/14/20/01/flower-3401414_1280.jpg"
    },
    {
        "id": "7777536",
        "src640": "https://cdn.pixabay.com/photo/2023/02/08/21/41/flowers-7777536_640.jpg",
        "src1280": "https://cdn.pixabay.com/photo/2023/02/08/21/41/flowers-7777536_1280.jpg"
    },
    {
        "id": "331761",
        "src640": "https://cdn.pixabay.com/photo/2014/04/25/02/27/princess-lily-331761_640.jpg",
        "src1280": "https://cdn.pixabay.com/photo/2014/04/25/02/27/princess-lily-331761_1280.jpg"
    },
    {
        "id": "2247616",
        "src640": "https://cdn.pixabay.com/photo/2017/04/21/05/13/dandelion-2247616_640.jpg",
        "src1280": "https://cdn.pixabay.com/photo/2017/04/21/05/13/dandelion-2247616_1280.jpg"
    },
    {
        "id": "3365602",
        "src640": "https://cdn.pixabay.com/photo/2018/05/01/13/47/flower-3365602_640.jpg",
        "src1280": "https://cdn.pixabay.com/photo/2018/05/01/13/47/flower-3365602_1280.jpg"
    },
    {
        "id": "7647182",
        "src640": "https://cdn.pixabay.com/photo/2022/12/10/14/19/mistletoe-7647182_640.jpg",
        "src1280": "https://cdn.pixabay.com/photo/2022/12/10/14/19/mistletoe-7647182_1280.jpg"
    },
    {
        "id": "7237597",
        "src640": "https://cdn.pixabay.com/photo/2022/06/02/10/15/leaves-7237597_640.jpg",
        "src1280": "https://cdn.pixabay.com/photo/2022/06/02/10/15/leaves-7237597_1280.jpg"
    },
    {
        "id": "4920525",
        "src640": "https://cdn.pixabay.com/photo/2020/03/10/23/08/plum-4920525_640.jpg",
        "src1280": "https://cdn.pixabay.com/photo/2020/03/10/23/08/plum-4920525_1280.jpg"
    },
    {
        "id": "7210757",
        "src640": "https://cdn.pixabay.com/photo/2022/05/21/06/02/cape-marguerite-7210757_640.jpg",
        "src1280": "https://cdn.pixabay.com/photo/2022/05/21/06/02/cape-marguerite-7210757_1280.jpg"
    },
    {
        "id": "636410",
        "src640": "https://cdn.pixabay.com/photo/2015/02/14/15/16/rose-636410_640.jpg",
        "src1280": "https://cdn.pixabay.com/photo/2015/02/14/15/16/rose-636410_1280.jpg"
    },
    {
        "id": "6148309",
        "src640": "https://cdn.pixabay.com/photo/2021/04/03/18/01/wisteria-6148309_640.jpg",
        "src1280": "https://cdn.pixabay.com/photo/2021/04/03/18/01/wisteria-6148309_1280.jpg"
    },
    {
        "id": "6913805",
        "src640": "https://cdn.pixabay.com/photo/2022/01/03/23/07/barley-6913805_640.jpg",
        "src1280": "https://cdn.pixabay.com/photo/2022/01/03/23/07/barley-6913805_1280.jpg"
    },
    {
        "id": "2411566",
        "src640": "https://cdn.pixabay.com/photo/2017/06/17/08/51/flower-2411566_640.jpg",
        "src1280": "https://cdn.pixabay.com/photo/2017/06/17/08/51/flower-2411566_1280.jpg"
    },
    {
        "id": "282573",
        "src640": "https://cdn.pixabay.com/photo/2014/03/07/16/34/fern-282573_640.jpg",
        "src1280": "https://cdn.pixabay.com/photo/2014/03/07/16/34/fern-282573_1280.jpg"
    },
    {
        "id": "7989747",
        "src640": "https://cdn.pixabay.com/photo/2023/05/13/05/53/flower-7989747_640.jpg",
        "src1280": "https://cdn.pixabay.com/photo/2023/05/13/05/53/flower-7989747_1280.jpg"
    },
    {
        "id": "3420656",
        "src640": "https://cdn.pixabay.com/photo/2018/05/22/07/09/lavender-3420656_640.jpg",
        "src1280": "https://cdn.pixabay.com/photo/2018/05/22/07/09/lavender-3420656_1280.jpg"
    },
    {
        "id": "4878254",
        "src640": "https://cdn.pixabay.com/photo/2020/02/25/08/08/boronia-4878254_640.jpg",
        "src1280": "https://cdn.pixabay.com/photo/2020/02/25/08/08/boronia-4878254_1280.jpg"
    },
    {
        "id": "1912128",
        "src640": "https://cdn.pixabay.com/photo/2016/12/16/19/16/flower-1912128_640.jpg",
        "src1280": "https://cdn.pixabay.com/photo/2016/12/16/19/16/flower-1912128_1280.jpg"
    },
    {
        "id": "4118109",
        "src640": "https://cdn.pixabay.com/photo/2019/04/10/20/22/tap-4118109_640.jpg",
        "src1280": "https://cdn.pixabay.com/photo/2019/04/10/20/22/tap-4118109_1280.jpg"
    },
    {
        "id": "3323014",
        "src640": "https://cdn.pixabay.com/photo/2018/04/15/22/06/flower-3323014_640.jpg",
        "src1280": "https://cdn.pixabay.com/photo/2018/04/15/22/06/flower-3323014_1280.jpg"
    },
    {
        "id": "3711037",
        "src640": "https://cdn.pixabay.com/photo/2018/09/29/09/35/spring-3711037_640.jpg",
        "src1280": "https://cdn.pixabay.com/photo/2018/09/29/09/35/spring-3711037_1280.jpg"
    },
    {
        "id": "818600",
        "src640": "https://cdn.pixabay.com/photo/2015/06/23/11/53/flower-818600_640.jpg",
        "src1280": "https://cdn.pixabay.com/photo/2015/06/23/11/53/flower-818600_1280.jpg"
    },
    {
        "id": "7343813",
        "src640": "https://cdn.pixabay.com/photo/2022/07/25/13/39/flower-7343813_640.jpg",
        "src1280": "https://cdn.pixabay.com/photo/2022/07/25/13/39/flower-7343813_1280.jpg"
    },
    {
        "id": "6154428",
        "src640": "https://cdn.pixabay.com/photo/2021/04/05/19/26/tulip-6154428_640.jpg",
        "src1280": "https://cdn.pixabay.com/photo/2021/04/05/19/26/tulip-6154428_1280.jpg"
    },
    {
        "id": "194863",
        "src640": "https://cdn.pixabay.com/photo/2013/10/13/01/06/gladiolus-194863_640.jpg",
        "src1280": "https://cdn.pixabay.com/photo/2013/10/13/01/06/gladiolus-194863_1280.jpg"
    },
    {
        "id": "1632526",
        "src640": "https://cdn.pixabay.com/photo/2016/08/31/02/36/roseland-cottage-1632526_640.jpg",
        "src1280": "https://cdn.pixabay.com/photo/2016/08/31/02/36/roseland-cottage-1632526_1280.jpg"
    },
    {
        "id": "4170553",
        "src640": "https://cdn.pixabay.com/photo/2019/05/01/11/10/rose-4170553_640.jpg",
        "src1280": "https://cdn.pixabay.com/photo/2019/05/01/11/10/rose-4170553_1280.jpg"
    },
    {
        "id": "2564670",
        "src640": "https://cdn.pixabay.com/photo/2017/08/01/11/50/dark-2564670_640.jpg",
        "src1280": "https://cdn.pixabay.com/photo/2017/08/01/11/50/dark-2564670_1280.jpg"
    },
    {
        "id": "3867462",
        "src640": "https://cdn.pixabay.com/photo/2018/12/10/17/51/wheat-3867462_640.jpg",
        "src1280": "https://cdn.pixabay.com/photo/2018/12/10/17/51/wheat-3867462_1280.jpg"
    },
    {
        "id": "3467751",
        "src640": "https://cdn.pixabay.com/photo/2018/06/11/03/03/lillie-3467751_640.jpg",
        "src1280": "https://cdn.pixabay.com/photo/2018/06/11/03/03/lillie-3467751_1280.jpg"
    },
    {
        "id": "7713303",
        "src640": "https://cdn.pixabay.com/photo/2023/01/12/05/26/flowers-7713303_640.jpg",
        "src1280": "https://cdn.pixabay.com/photo/2023/01/12/05/26/flowers-7713303_1280.jpg"
    },
    {
        "id": "7835952",
        "src640": "https://cdn.pixabay.com/photo/2023/03/07/15/30/plants-7835952_640.jpg",
        "src1280": "https://cdn.pixabay.com/photo/2023/03/07/15/30/plants-7835952_1280.jpg"
    },
    {
        "id": "6710965",
        "src640": "https://cdn.pixabay.com/photo/2021/10/15/05/06/basil-6710965_640.jpg",
        "src1280": "https://cdn.pixabay.com/photo/2021/10/15/05/06/basil-6710965_1280.jpg"
    },
    {
        "id": "1720506",
        "src640": "https://cdn.pixabay.com/photo/2016/10/07/02/11/setaria-viridis-1720506_640.jpg",
        "src1280": "https://cdn.pixabay.com/photo/2016/10/07/02/11/setaria-viridis-1720506_1280.jpg"
    },
    {
        "id": "7145023",
        "src640": "https://cdn.pixabay.com/photo/2022/04/20/11/38/columbine-7145023_640.jpg",
        "src1280": "https://cdn.pixabay.com/photo/2022/04/20/11/38/columbine-7145023_1280.jpg"
    },
    {
        "id": "2418917",
        "src640": "https://cdn.pixabay.com/photo/2017/06/19/10/47/flowers-2418917_640.jpg",
        "src1280": "https://cdn.pixabay.com/photo/2017/06/19/10/47/flowers-2418917_1280.jpg"
    },
    {
        "id": "3280000",
        "src640": "https://cdn.pixabay.com/photo/2018/04/01/04/42/tulip-3280000_640.jpg",
        "src1280": "https://cdn.pixabay.com/photo/2018/04/01/04/42/tulip-3280000_1280.jpg"
    },
    {
        "id": "7285945",
        "src640": "https://cdn.pixabay.com/photo/2022/06/26/17/16/barberton-daisy-7285945_640.jpg",
        "src1280": "https://cdn.pixabay.com/photo/2022/06/26/17/16/barberton-daisy-7285945_1280.jpg"
    },
    {
        "id": "776843",
        "src640": "https://cdn.pixabay.com/photo/2015/05/21/09/43/spring-776843_640.jpg",
        "src1280": "https://cdn.pixabay.com/photo/2015/05/21/09/43/spring-776843_1280.jpg"
    },
    {
        "id": "7324171",
        "src640": "https://cdn.pixabay.com/photo/2022/07/15/23/41/lotus-7324171_640.jpg",
        "src1280": "https://cdn.pixabay.com/photo/2022/07/15/23/41/lotus-7324171_1280.jpg"
    },
    {
        "id": "2545834",
        "src640": "https://cdn.pixabay.com/photo/2017/07/27/16/10/pansy-2545834_640.jpg",
        "src1280": "https://cdn.pixabay.com/photo/2017/07/27/16/10/pansy-2545834_1280.jpg"
    },
    {
        "id": "3649492",
        "src640": "https://cdn.pixabay.com/photo/2018/09/02/18/35/sunflower-3649492_640.jpg",
        "src1280": "https://cdn.pixabay.com/photo/2018/09/02/18/35/sunflower-3649492_1280.jpg"
    },
    {
        "id": "4242266",
        "src640": "https://cdn.pixabay.com/photo/2019/05/31/13/59/rose-4242266_640.jpg",
        "src1280": "https://cdn.pixabay.com/photo/2019/05/31/13/59/rose-4242266_1280.jpg"
    },
    {
        "id": "739144",
        "src640": "https://cdn.pixabay.com/photo/2015/04/25/13/20/cottongrass-739144_640.jpg",
        "src1280": "https://cdn.pixabay.com/photo/2015/04/25/13/20/cottongrass-739144_1280.jpg"
    },
    {
        "id": "5323791",
        "src640": "https://cdn.pixabay.com/photo/2020/06/21/08/08/dandelions-5323791_640.jpg",
        "src1280": "https://cdn.pixabay.com/photo/2020/06/21/08/08/dandelions-5323791_1280.jpg"
    },
    {
        "id": "3999648",
        "src640": "https://cdn.pixabay.com/photo/2019/02/16/02/40/plant-3999648_640.jpg",
        "src1280": "https://cdn.pixabay.com/photo/2019/02/16/02/40/plant-3999648_1280.jpg"
    },
    {
        "id": "2864289",
        "src640": "https://cdn.pixabay.com/photo/2017/10/18/14/14/autumn-flower-2864289_640.jpg",
        "src1280": "https://cdn.pixabay.com/photo/2017/10/18/14/14/autumn-flower-2864289_1280.jpg"
    },
    {
        "id": "3334706",
        "src640": "https://cdn.pixabay.com/photo/2018/04/19/23/54/nature-3334706_640.jpg",
        "src1280": "https://cdn.pixabay.com/photo/2018/04/19/23/54/nature-3334706_1280.jpg"
    },
    {
        "id": "18997",
        "src640": "https://cdn.pixabay.com/photo/2012/02/29/12/18/flower-18997_640.jpg",
        "src1280": "https://cdn.pixabay.com/photo/2012/02/29/12/18/flower-18997_1280.jpg"
    },
    {
        "id": "7324317",
        "src640": "https://cdn.pixabay.com/photo/2022/07/16/02/04/cherry-blossoms-7324317_640.jpg",
        "src1280": "https://cdn.pixabay.com/photo/2022/07/16/02/04/cherry-blossoms-7324317_1280.jpg"
    },
    {
        "id": "1733221",
        "src640": "https://cdn.pixabay.com/photo/2016/10/12/00/33/flowers-1733221_640.jpg",
        "src1280": "https://cdn.pixabay.com/photo/2016/10/12/00/33/flowers-1733221_1280.jpg"
    },
    {
        "id": "5580791",
        "src640": "https://cdn.pixabay.com/photo/2020/09/18/03/45/lotus-5580791_640.jpg",
        "src1280": "https://cdn.pixabay.com/photo/2020/09/18/03/45/lotus-5580791_1280.jpg"
    },
    {
        "id": "2583244",
        "src640": "https://cdn.pixabay.com/photo/2017/08/05/12/38/flower-2583244_640.jpg",
        "src1280": "https://cdn.pixabay.com/photo/2017/08/05/12/38/flower-2583244_1280.jpg"
    },
    {
        "id": "6403607",
        "src640": "https://cdn.pixabay.com/photo/2021/07/11/12/04/leaves-6403607_640.jpg",
        "src1280": "https://cdn.pixabay.com/photo/2021/07/11/12/04/leaves-6403607_1280.jpg"
    },
    {
        "id": "7869193",
        "src640": "https://cdn.pixabay.com/photo/2023/03/22/11/07/purple-7869193_640.jpg",
        "src1280": "https://cdn.pixabay.com/photo/2023/03/22/11/07/purple-7869193_1280.jpg"
    },
    {
        "id": "886223",
        "src640": "https://cdn.pixabay.com/photo/2015/08/12/19/39/grape-886223_640.jpg",
        "src1280": "https://cdn.pixabay.com/photo/2015/08/12/19/39/grape-886223_1280.jpg"
    },
    {
        "id": "3711910",
        "src640": "https://cdn.pixabay.com/photo/2018/09/29/18/12/foliage-3711910_640.jpg",
        "src1280": "https://cdn.pixabay.com/photo/2018/09/29/18/12/foliage-3711910_1280.jpg"
    },
    {
        "id": "5793426",
        "src640": "https://cdn.pixabay.com/photo/2020/12/01/09/05/womens-5793426_640.jpg",
        "src1280": "https://cdn.pixabay.com/photo/2020/12/01/09/05/womens-5793426_1280.jpg"
    },
    {
        "id": "3520163",
        "src640": "https://cdn.pixabay.com/photo/2018/07/06/10/30/teenager-3520163_640.jpg",
        "src1280": "https://cdn.pixabay.com/photo/2018/07/06/10/30/teenager-3520163_1280.jpg"
    },
    {
        "id": "7115264",
        "src640": "https://cdn.pixabay.com/photo/2022/04/06/10/22/salix-caprea-7115264_640.jpg",
        "src1280": "https://cdn.pixabay.com/photo/2022/04/06/10/22/salix-caprea-7115264_1280.jpg"
    },
    {
        "id": "1819265",
        "src640": "https://cdn.pixabay.com/photo/2016/11/12/16/54/plant-1819265_640.jpg",
        "src1280": "https://cdn.pixabay.com/photo/2016/11/12/16/54/plant-1819265_1280.jpg"
    },
    {
        "id": "6917100",
        "src640": "https://cdn.pixabay.com/photo/2022/01/05/13/02/wisteria-6917100_640.jpg",
        "src1280": "https://cdn.pixabay.com/photo/2022/01/05/13/02/wisteria-6917100_1280.jpg"
    },
    {
        "id": "3288230",
        "src640": "https://cdn.pixabay.com/photo/2018/04/03/22/05/crocus-3288230_640.jpg",
        "src1280": "https://cdn.pixabay.com/photo/2018/04/03/22/05/crocus-3288230_1280.jpg"
    },
    {
        "id": "2693303",
        "src640": "https://cdn.pixabay.com/photo/2017/08/29/13/05/daisies-2693303_640.jpg",
        "src1280": "https://cdn.pixabay.com/photo/2017/08/29/13/05/daisies-2693303_1280.jpg"
    },
    {
        "id": "7251890",
        "src640": "https://cdn.pixabay.com/photo/2022/06/09/07/22/mallow-7251890_640.jpg",
        "src1280": "https://cdn.pixabay.com/photo/2022/06/09/07/22/mallow-7251890_1280.jpg"
    },
    {
        "id": "8222836",
        "src640": "https://cdn.pixabay.com/photo/2023/08/30/08/16/flower-8222836_640.jpg",
        "src1280": "https://cdn.pixabay.com/photo/2023/08/30/08/16/flower-8222836_1280.jpg"
    },
    {
        "id": "7352651",
        "src640": "https://cdn.pixabay.com/photo/2022/07/29/21/21/roses-7352651_640.jpg",
        "src1280": "https://cdn.pixabay.com/photo/2022/07/29/21/21/roses-7352651_1280.jpg"
    },
    {
        "id": "3244462",
        "src640": "https://cdn.pixabay.com/photo/2018/03/20/20/05/nature-3244462_640.jpg",
        "src1280": "https://cdn.pixabay.com/photo/2018/03/20/20/05/nature-3244462_1280.jpg"
    },
    {
        "id": "3180263",
        "src640": "https://cdn.pixabay.com/photo/2018/02/25/11/38/snowdrop-3180263_640.jpg",
        "src1280": "https://cdn.pixabay.com/photo/2018/02/25/11/38/snowdrop-3180263_1280.jpg"
    },
    {
        "id": "2588784",
        "src640": "https://cdn.pixabay.com/photo/2017/08/06/04/36/plants-2588784_640.jpg",
        "src1280": "https://cdn.pixabay.com/photo/2017/08/06/04/36/plants-2588784_1280.jpg"
    },
    {
        "id": "8245",
        "src640": "https://cdn.pixabay.com/photo/2011/06/29/16/26/oat-8245_640.jpg",
        "src1280": "https://cdn.pixabay.com/photo/2011/06/29/16/26/oat-8245_1280.jpg"
    },
    {
        "id": "533545",
        "src640": "https://cdn.pixabay.com/photo/2014/11/16/15/23/leaf-533545_640.jpg",
        "src1280": "https://cdn.pixabay.com/photo/2014/11/16/15/23/leaf-533545_1280.jpg"
    },
    {
        "id": "7747399",
        "src640": "https://cdn.pixabay.com/photo/2023/01/26/22/32/ai-generated-7747399_640.jpg",
        "src1280": "https://cdn.pixabay.com/photo/2023/01/26/22/32/ai-generated-7747399_1280.jpg"
    },
    {
        "id": "5386985",
        "src640": "https://cdn.pixabay.com/photo/2020/07/09/11/23/artichoke-5386985_640.jpg",
        "src1280": "https://cdn.pixabay.com/photo/2020/07/09/11/23/artichoke-5386985_1280.jpg"
    },
    {
        "id": "6132896",
        "src640": "https://cdn.pixabay.com/photo/2021/03/29/04/05/lotus-6132896_640.jpg",
        "src1280": "https://cdn.pixabay.com/photo/2021/03/29/04/05/lotus-6132896_1280.jpg"
    },
    {
        "id": "2587869",
        "src640": "https://cdn.pixabay.com/photo/2017/08/06/02/26/people-2587869_640.jpg",
        "src1280": "https://cdn.pixabay.com/photo/2017/08/06/02/26/people-2587869_1280.jpg"
    },
    {
        "id": "880494",
        "src640": "https://cdn.pixabay.com/photo/2015/08/08/14/10/corn-880494_640.jpg",
        "src1280": "https://cdn.pixabay.com/photo/2015/08/08/14/10/corn-880494_1280.jpg"
    },
    {
        "id": "6875639",
        "src640": "https://cdn.pixabay.com/photo/2021/12/17/05/09/tree-6875639_640.jpg",
        "src1280": "https://cdn.pixabay.com/photo/2021/12/17/05/09/tree-6875639_1280.jpg"
    },
    {
        "id": "5047971",
        "src640": "https://cdn.pixabay.com/photo/2020/04/15/19/41/dandelion-5047971_640.jpg",
        "src1280": "https://cdn.pixabay.com/photo/2020/04/15/19/41/dandelion-5047971_1280.jpg"
    },
    {
        "id": "1796290",
        "src640": "https://cdn.pixabay.com/photo/2016/11/03/21/23/flowers-1796290_640.jpg",
        "src1280": "https://cdn.pixabay.com/photo/2016/11/03/21/23/flowers-1796290_1280.jpg"
    },
    {
        "id": "62206",
        "src640": "https://cdn.pixabay.com/photo/2012/10/20/03/27/joshua-62206_640.jpg",
        "src1280": "https://cdn.pixabay.com/photo/2012/10/20/03/27/joshua-62206_1280.jpg"
    },
    {
        "id": "3342971",
        "src640": "https://cdn.pixabay.com/photo/2018/04/23/01/41/smock-3342971_640.jpg",
        "src1280": "https://cdn.pixabay.com/photo/2018/04/23/01/41/smock-3342971_1280.jpg"
    },
    {
        "id": "2462739",
        "src640": "https://cdn.pixabay.com/photo/2017/07/01/21/10/rose-2462739_640.jpg",
        "src1280": "https://cdn.pixabay.com/photo/2017/07/01/21/10/rose-2462739_1280.jpg"
    },
    {
        "id": "5925666",
        "src640": "https://cdn.pixabay.com/photo/2021/01/17/16/27/flowers-5925666_640.jpg",
        "src1280": "https://cdn.pixabay.com/photo/2021/01/17/16/27/flowers-5925666_1280.jpg"
    },
    {
        "id": "767167",
        "src640": "https://cdn.pixabay.com/photo/2015/05/14/19/44/flowers-767167_640.jpg",
        "src1280": "https://cdn.pixabay.com/photo/2015/05/14/19/44/flowers-767167_1280.jpg"
    },
    {
        "id": "141464",
        "src640": "https://cdn.pixabay.com/photo/2013/06/26/17/26/cranesbill-141464_640.jpg",
        "src1280": "https://cdn.pixabay.com/photo/2013/06/26/17/26/cranesbill-141464_1280.jpg"
    },
    {
        "id": "513036",
        "src640": "https://cdn.pixabay.com/photo/2014/11/01/22/08/pineapple-513036_640.jpg",
        "src1280": "https://cdn.pixabay.com/photo/2014/11/01/22/08/pineapple-513036_1280.jpg"
    },
    {
        "id": "5869814",
        "src640": "https://cdn.pixabay.com/photo/2020/12/29/08/31/flowers-5869814_640.jpg",
        "src1280": "https://cdn.pixabay.com/photo/2020/12/29/08/31/flowers-5869814_1280.jpg"
    },
    {
        "id": "1911689",
        "src640": "https://cdn.pixabay.com/photo/2016/12/16/15/54/garden-1911689_640.jpg",
        "src1280": "https://cdn.pixabay.com/photo/2016/12/16/15/54/garden-1911689_1280.jpg"
    },
    {
        "id": "3353170",
        "src640": "https://cdn.pixabay.com/photo/2018/04/26/21/31/sedmikraska-3353170_640.jpg",
        "src1280": "https://cdn.pixabay.com/photo/2018/04/26/21/31/sedmikraska-3353170_1280.jpg"
    },
    {
        "id": "93163",
        "src640": "https://cdn.pixabay.com/photo/2013/03/13/13/20/leaf-93163_640.jpg",
        "src1280": "https://cdn.pixabay.com/photo/2013/03/13/13/20/leaf-93163_1280.jpg"
    },
    {
        "id": "470735",
        "src640": "https://cdn.pixabay.com/photo/2014/10/02/22/55/greenhouse-470735_640.jpg",
        "src1280": "https://cdn.pixabay.com/photo/2014/10/02/22/55/greenhouse-470735_1280.jpg"
    },
    {
        "id": "527397",
        "src640": "https://cdn.pixabay.com/photo/2014/11/11/20/48/daffodil-527397_640.jpg",
        "src1280": "https://cdn.pixabay.com/photo/2014/11/11/20/48/daffodil-527397_1280.jpg"
    },
    {
        "id": "2598677",
        "src640": "https://cdn.pixabay.com/photo/2017/08/07/02/06/green-2598677_640.jpg",
        "src1280": "https://cdn.pixabay.com/photo/2017/08/07/02/06/green-2598677_1280.jpg"
    }
]