[
    {
        "id": "8433171",
        "src640": "https://cdn.pixabay.com/photo/2023/12/06/08/06/ai-generated-8433171_640.jpg",
        "src1280": "https://cdn.pixabay.com/photo/2023/12/06/08/06/ai-generated-8433171_1280.jpg"
    },
    {
        "id": "7426235",
        "src640": "https://cdn.pixabay.com/photo/2022/09/01/21/45/sea-lions-7426235_640.jpg",
        "src1280": "https://cdn.pixabay.com/photo/2022/09/01/21/45/sea-lions-7426235_1280.jpg"
    },
    {
        "id": "8322988",
        "src640": "https://cdn.pixabay.com/photo/2023/10/18/06/05/beach-8322988_640.jpg",
        "src1280": "https://cdn.pixabay.com/photo/2023/10/18/06/05/beach-8322988_1280.jpg"
    },
    {
        "id": "1780524",
        "src640": "https://cdn.pixabay.com/photo/2016/10/29/12/09/boat-1780524_640.jpg",
        "src1280": "https://cdn.pixabay.com/photo/2016/10/29/12/09/boat-1780524_1280.jpg"
    },
    {
        "id": "1549666",
        "src640": "https://cdn.pixabay.com/photo/2016/07/28/20/54/jamaica-1549666_640.jpg",
        "src1280": "https://cdn.pixabay.com/photo/2016/07/28/20/54/jamaica-1549666_1280.jpg"
    },
    {
        "id": "3865896",
        "src640": "https://cdn.pixabay.com/photo/2018/12/09/22/20/croatia-3865896_640.jpg",
        "src1280": "https://cdn.pixabay.com/photo/2018/12/09/22/20/croatia-3865896_1280.jpg"
    },
    {
        "id": "4496160",
        "src640": "https://cdn.pixabay.com/photo/2019/09/22/14/29/side-4496160_640.jpg",
        "src1280": "https://cdn.pixabay.com/photo/2019/09/22/14/29/side-4496160_1280.jpg"
    },
    {
        "id": "8433170",
        "src640": "https://cdn.pixabay.com/photo/2023/12/06/08/06/ai-generated-8433170_640.jpg",
        "src1280": "https://cdn.pixabay.com/photo/2023/12/06/08/06/ai-generated-8433170_1280.jpg"
    },
    {
        "id": "564622",
        "src640": "https://cdn.pixabay.com/photo/2014/12/11/19/22/rose-564622_640.jpg",
        "src1280": "https://cdn.pixabay.com/photo/2014/12/11/19/22/rose-564622_1280.jpg"
    },
    {
        "id": "6073069",
        "src640": "https://cdn.pixabay.com/photo/2021/03/06/08/18/stars-6073069_640.jpg",
        "src1280": "https://cdn.pixabay.com/photo/2021/03/06/08/18/stars-6073069_1280.jpg"
    },
    {
        "id": "6816919",
        "src640": "https://cdn.pixabay.com/photo/2021/11/22/17/05/ocean-6816919_640.jpg",
        "src1280": "https://cdn.pixabay.com/photo/2021/11/22/17/05/ocean-6816919_1280.jpg"
    },
    {
        "id": "3400226",
        "src640": "https://cdn.pixabay.com/photo/2018/05/14/14/40/sea-3400226_640.jpg",
        "src1280": "https://cdn.pixabay.com/photo/2018/05/14/14/40/sea-3400226_1280.jpg"
    },
    {
        "id": "8175497",
        "src640": "https://cdn.pixabay.com/photo/2023/08/07/16/57/ai-generated-8175497_640.jpg",
        "src1280": "https://cdn.pixabay.com/photo/2023/08/07/16/57/ai-generated-8175497_1280.jpg"
    },
    {
        "id": "3773525",
        "src640": "https://cdn.pixabay.com/photo/2018/10/25/22/02/fishing-pier-3773525_640.jpg",
        "src1280": "https://cdn.pixabay.com/photo/2018/10/25/22/02/fishing-pier-3773525_1280.jpg"
    },
    {
        "id": "1263297",
        "src640": "https://cdn.pixabay.com/photo/2016/03/17/16/45/zanzibar-1263297_640.jpg",
        "src1280": "https://cdn.pixabay.com/photo/2016/03/17/16/45/zanzibar-1263297_1280.jpg"
    },
    {
        "id": "2150693",
        "src640": "https://cdn.pixabay.com/photo/2017/03/17/01/34/hawaii-2150693_640.jpg",
        "src1280": "https://cdn.pixabay.com/photo/2017/03/17/01/34/hawaii-2150693_1280.jpg"
    },
    {
        "id": "990211",
        "src640": "https://cdn.pixabay.com/photo/2015/10/15/23/25/ocean-990211_640.jpg",
        "src1280": "https://cdn.pixabay.com/photo/2015/10/15/23/25/ocean-990211_1280.jpg"
    },
    {
        "id": "8168191",
        "src640": "https://cdn.pixabay.com/photo/2023/08/04/00/00/ai-generated-8168191_640.jpg",
        "src1280": "https://cdn.pixabay.com/photo/2023/08/04/00/00/ai-generated-8168191_1280.jpg"
    },
    {
        "id": "340312",
        "src640": "https://cdn.pixabay.com/photo/2014/05/08/14/56/driftwood-340312_640.jpg",
        "src1280": "https://cdn.pixabay.com/photo/2014/05/08/14/56/driftwood-340312_1280.jpg"
    },
    {
        "id": "3913268",
        "src640": "https://cdn.pixabay.com/photo/2019/01/04/14/32/fishing-3913268_640.jpg",
        "src1280": "https://cdn.pixabay.com/photo/2019/01/04/14/32/fishing-3913268_1280.jpg"
    },
    {
        "id": "1640858",
        "src640": "https://cdn.pixabay.com/photo/2016/09/03/01/20/diving-1640858_640.jpg",
        "src1280": "https://cdn.pixabay.com/photo/2016/09/03/01/20/diving-1640858_1280.jpg"
    },
    {
        "id": "1006196",
        "src640": "https://cdn.pixabay.com/photo/2015/10/25/19/28/girl-1006196_640.jpg",
        "src1280": "https://cdn.pixabay.com/photo/2015/10/25/19/28/girl-1006196_1280.jpg"
    },
    {
        "id": "726490",
        "src640": "https://cdn.pixabay.com/photo/2015/04/17/02/32/jellyfish-726490_640.jpg",
        "src1280": "https://cdn.pixabay.com/photo/2015/04/17/02/32/jellyfish-726490_1280.jpg"
    },
    {
        "id": "6662221",
        "src640": "https://cdn.pixabay.com/photo/2021/09/27/19/58/sunset-6662221_640.jpg",
        "src1280": "https://cdn.pixabay.com/photo/2021/09/27/19/58/sunset-6662221_1280.jpg"
    },
    {
        "id": "5901360",
        "src640": "https://cdn.pixabay.com/photo/2021/01/09/04/11/sailboat-5901360_640.jpg",
        "src1280": "https://cdn.pixabay.com/photo/2021/01/09/04/11/sailboat-5901360_1280.jpg"
    },
    {
        "id": "5324630",
        "src640": "https://cdn.pixabay.com/photo/2020/06/21/12/33/woman-5324630_640.jpg",
        "src1280": "https://cdn.pixabay.com/photo/2020/06/21/12/33/woman-5324630_1280.jpg"
    },
    {
        "id": "5534500",
        "src640": "https://cdn.pixabay.com/photo/2020/09/01/07/40/sunset-5534500_640.jpg",
        "src1280": "https://cdn.pixabay.com/photo/2020/09/01/07/40/sunset-5534500_1280.jpg"
    },
    {
        "id": "3936513",
        "src640": "https://cdn.pixabay.com/photo/2019/01/16/18/56/sea-3936513_640.jpg",
        "src1280": "https://cdn.pixabay.com/photo/2019/01/16/18/56/sea-3936513_1280.jpg"
    },
    {
        "id": "5358924",
        "src640": "https://cdn.pixabay.com/photo/2020/07/01/08/55/sunset-5358924_640.jpg",
        "src1280": "https://cdn.pixabay.com/photo/2020/07/01/08/55/sunset-5358924_1280.jpg"
    },
    {
        "id": "6076358",
        "src640": "https://cdn.pixabay.com/photo/2021/03/07/14/19/silent-6076358_640.jpg",
        "src1280": "https://cdn.pixabay.com/photo/2021/03/07/14/19/silent-6076358_1280.jpg"
    },
    {
        "id": "6399235",
        "src640": "https://cdn.pixabay.com/photo/2021/07/09/14/40/boat-6399235_640.jpg",
        "src1280": "https://cdn.pixabay.com/photo/2021/07/09/14/40/boat-6399235_1280.jpg"
    },
    {
        "id": "1780488",
        "src640": "https://cdn.pixabay.com/photo/2016/10/29/11/38/dawn-1780488_640.jpg",
        "src1280": "https://cdn.pixabay.com/photo/2016/10/29/11/38/dawn-1780488_1280.jpg"
    },
    {
        "id": "3518186",
        "src640": "https://cdn.pixabay.com/photo/2018/07/05/11/57/japan-3518186_640.jpg",
        "src1280": "https://cdn.pixabay.com/photo/2018/07/05/11/57/japan-3518186_1280.jpg"
    },
    {
        "id": "5372251",
        "src640": "https://cdn.pixabay.com/photo/2020/07/05/09/02/nature-5372251_640.jpg",
        "src1280": "https://cdn.pixabay.com/photo/2020/07/05/09/02/nature-5372251_1280.jpg"
    },
    {
        "id": "4202484",
        "src640": "https://cdn.pixabay.com/photo/2019/05/14/14/10/dusk-4202484_640.jpg",
        "src1280": "https://cdn.pixabay.com/photo/2019/05/14/14/10/dusk-4202484_1280.jpg"
    },
    {
        "id": "916206",
        "src640": "https://cdn.pixabay.com/photo/2015/08/31/22/49/beach-916206_640.jpg",
        "src1280": "https://cdn.pixabay.com/photo/2015/08/31/22/49/beach-916206_1280.jpg"
    },
    {
        "id": "6084973",
        "src640": "https://cdn.pixabay.com/photo/2021/03/10/16/32/cliffs-6084973_640.jpg",
        "src1280": "https://cdn.pixabay.com/photo/2021/03/10/16/32/cliffs-6084973_1280.jpg"
    },
    {
        "id": "2338113",
        "src640": "https://cdn.pixabay.com/photo/2017/05/23/18/45/nature-2338113_640.jpg",
        "src1280": "https://cdn.pixabay.com/photo/2017/05/23/18/45/nature-2338113_1280.jpg"
    },
    {
        "id": "3370048",
        "src640": "https://cdn.pixabay.com/photo/2018/05/02/23/31/body-of-water-3370048_640.jpg",
        "src1280": "https://cdn.pixabay.com/photo/2018/05/02/23/31/body-of-water-3370048_1280.jpg"
    },
    {
        "id": "7848814",
        "src640": "https://cdn.pixabay.com/photo/2023/03/13/05/29/ai-generated-7848814_640.jpg",
        "src1280": "https://cdn.pixabay.com/photo/2023/03/13/05/29/ai-generated-7848814_1280.jpg"
    },
    {
        "id": "8157574",
        "src640": "https://cdn.pixabay.com/photo/2023/07/29/19/15/boat-8157574_640.jpg",
        "src1280": "https://cdn.pixabay.com/photo/2023/07/29/19/15/boat-8157574_1280.jpg"
    },
    {
        "id": "7658041",
        "src640": "https://cdn.pixabay.com/photo/2022/12/15/16/16/sunset-7658041_640.jpg",
        "src1280": "https://cdn.pixabay.com/photo/2022/12/15/16/16/sunset-7658041_1280.jpg"
    },
    {
        "id": "8119343",
        "src640": "https://cdn.pixabay.com/photo/2023/07/11/01/17/jetty-8119343_640.jpg",
        "src1280": "https://cdn.pixabay.com/photo/2023/07/11/01/17/jetty-8119343_1280.jpg"
    },
    {
        "id": "4463270",
        "src640": "https://cdn.pixabay.com/photo/2019/09/09/10/13/beach-4463270_640.jpg",
        "src1280": "https://cdn.pixabay.com/photo/2019/09/09/10/13/beach-4463270_1280.jpg"
    },
    {
        "id": "7876845",
        "src640": "https://cdn.pixabay.com/photo/2023/03/25/20/43/ai-generated-7876845_640.jpg",
        "src1280": "https://cdn.pixabay.com/photo/2023/03/25/20/43/ai-generated-7876845_1280.jpg"
    },
    {
        "id": "7679029",
        "src640": "https://cdn.pixabay.com/photo/2022/12/26/13/10/beach-7679029_640.jpg",
        "src1280": "https://cdn.pixabay.com/photo/2022/12/26/13/10/beach-7679029_1280.jpg"
    },
    {
        "id": "8158793",
        "src640": "https://cdn.pixabay.com/photo/2023/07/30/12/14/australia-8158793_640.jpg",
        "src1280": "https://cdn.pixabay.com/photo/2023/07/30/12/14/australia-8158793_1280.jpg"
    },
    {
        "id": "5141140",
        "src640": "https://cdn.pixabay.com/photo/2020/05/07/11/25/railway-5141140_640.jpg",
        "src1280": "https://cdn.pixabay.com/photo/2020/05/07/11/25/railway-5141140_1280.jpg"
    },
    {
        "id": "7034085",
        "src640": "https://cdn.pixabay.com/photo/2022/02/25/12/20/sunset-7034085_640.jpg",
        "src1280": "https://cdn.pixabay.com/photo/2022/02/25/12/20/sunset-7034085_1280.jpg"
    },
    {
        "id": "8195230",
        "src640": "https://cdn.pixabay.com/photo/2023/08/17/00/54/beach-8195230_640.jpg",
        "src1280": "https://cdn.pixabay.com/photo/2023/08/17/00/54/beach-8195230_1280.jpg"
    },
    {
        "id": "7311029",
        "src640": "https://cdn.pixabay.com/photo/2022/07/09/14/36/aquarium-7311029_640.jpg",
        "src1280": "https://cdn.pixabay.com/photo/2022/07/09/14/36/aquarium-7311029_1280.jpg"
    },
    {
        "id": "2181225",
        "src640": "https://cdn.pixabay.com/photo/2017/03/28/07/12/maldives-2181225_640.jpg",
        "src1280": "https://cdn.pixabay.com/photo/2017/03/28/07/12/maldives-2181225_1280.jpg"
    },
    {
        "id": "1228851",
        "src640": "https://cdn.pixabay.com/photo/2016/02/29/17/02/maldives-1228851_640.jpg",
        "src1280": "https://cdn.pixabay.com/photo/2016/02/29/17/02/maldives-1228851_1280.jpg"
    },
    {
        "id": "8076911",
        "src640": "https://cdn.pixabay.com/photo/2023/06/20/12/36/beach-8076911_640.jpg",
        "src1280": "https://cdn.pixabay.com/photo/2023/06/20/12/36/beach-8076911_1280.jpg"
    },
    {
        "id": "4631610",
        "src640": "https://cdn.pixabay.com/photo/2019/11/17/05/54/beach-4631610_640.jpg",
        "src1280": "https://cdn.pixabay.com/photo/2019/11/17/05/54/beach-4631610_1280.jpg"
    },
    {
        "id": "4195959",
        "src640": "https://cdn.pixabay.com/photo/2019/05/11/15/51/seagull-4195959_640.jpg",
        "src1280": "https://cdn.pixabay.com/photo/2019/05/11/15/51/seagull-4195959_1280.jpg"
    },
    {
        "id": "4960428",
        "src640": "https://cdn.pixabay.com/photo/2020/03/23/11/04/island-4960428_640.jpg",
        "src1280": "https://cdn.pixabay.com/photo/2020/03/23/11/04/island-4960428_1280.jpg"
    },
    {
        "id": "8183782",
        "src640": "https://cdn.pixabay.com/photo/2023/08/11/15/31/mountain-8183782_640.jpg",
        "src1280": "https://cdn.pixabay.com/photo/2023/08/11/15/31/mountain-8183782_1280.jpg"
    },
    {
        "id": "7960517",
        "src640": "https://cdn.pixabay.com/photo/2023/04/30/13/18/sunset-7960517_640.jpg",
        "src1280": "https://cdn.pixabay.com/photo/2023/04/30/13/18/sunset-7960517_1280.jpg"
    },
    {
        "id": "2191719",
        "src640": "https://cdn.pixabay.com/photo/2017/03/31/16/14/oil-2191719_640.jpg",
        "src1280": "https://cdn.pixabay.com/photo/2017/03/31/16/14/oil-2191719_1280.jpg"
    },
    {
        "id": "8011762",
        "src640": "https://cdn.pixabay.com/photo/2023/05/23/02/23/sea-turtle-8011762_640.jpg",
        "src1280": "https://cdn.pixabay.com/photo/2023/05/23/02/23/sea-turtle-8011762_1280.jpg"
    },
    {
        "id": "8168054",
        "src640": "https://cdn.pixabay.com/photo/2023/08/03/22/25/seagull-8168054_640.jpg",
        "src1280": "https://cdn.pixabay.com/photo/2023/08/03/22/25/seagull-8168054_1280.jpg"
    },
    {
        "id": "197814",
        "src640": "https://cdn.pixabay.com/photo/2013/10/19/08/21/jamaica-197814_640.jpg",
        "src1280": "https://cdn.pixabay.com/photo/2013/10/19/08/21/jamaica-197814_1280.jpg"
    },
    {
        "id": "3169661",
        "src640": "https://cdn.pixabay.com/photo/2018/02/21/07/53/sunset-3169661_640.jpg",
        "src1280": "https://cdn.pixabay.com/photo/2018/02/21/07/53/sunset-3169661_1280.jpg"
    },
    {
        "id": "7120615",
        "src640": "https://cdn.pixabay.com/photo/2022/04/09/02/08/swing-7120615_640.jpg",
        "src1280": "https://cdn.pixabay.com/photo/2022/04/09/02/08/swing-7120615_1280.jpg"
    },
    {
        "id": "1289734",
        "src640": "https://cdn.pixabay.com/photo/2016/03/30/00/12/beach-1289734_640.jpg",
        "src1280": "https://cdn.pixabay.com/photo/2016/03/30/00/12/beach-1289734_1280.jpg"
    },
    {
        "id": "1383105",
        "src640": "https://cdn.pixabay.com/photo/2016/05/10/05/30/freediving-1383105_640.jpg",
        "src1280": "https://cdn.pixabay.com/photo/2016/05/10/05/30/freediving-1383105_1280.jpg"
    },
    {
        "id": "4680487",
        "src640": "https://cdn.pixabay.com/photo/2019/12/08/05/54/holiday-4680487_640.jpg",
        "src1280": "https://cdn.pixabay.com/photo/2019/12/08/05/54/holiday-4680487_1280.jpg"
    },
    {
        "id": "8350761",
        "src640": "https://cdn.pixabay.com/photo/2023/10/29/17/04/underwater-8350761_640.jpg",
        "src1280": "https://cdn.pixabay.com/photo/2023/10/29/17/04/underwater-8350761_1280.jpg"
    },
    {
        "id": "3354208",
        "src640": "https://cdn.pixabay.com/photo/2018/04/27/09/56/nature-3354208_640.jpg",
        "src1280": "https://cdn.pixabay.com/photo/2018/04/27/09/56/nature-3354208_1280.jpg"
    },
    {
        "id": "8006395",
        "src640": "https://cdn.pixabay.com/photo/2023/05/20/12/01/ai-generated-8006395_640.jpg",
        "src1280": "https://cdn.pixabay.com/photo/2023/05/20/12/01/ai-generated-8006395_1280.jpg"
    },
    {
        "id": "8316779",
        "src640": "https://cdn.pixabay.com/photo/2023/10/15/12/11/brydes-whale-8316779_640.jpg",
        "src1280": "https://cdn.pixabay.com/photo/2023/10/15/12/11/brydes-whale-8316779_1280.jpg"
    },
    {
        "id": "3333915",
        "src640": "https://cdn.pixabay.com/photo/2018/04/19/18/35/spring-blossoms-3333915_640.jpg",
        "src1280": "https://cdn.pixabay.com/photo/2018/04/19/18/35/spring-blossoms-3333915_1280.jpg"
    },
    {
        "id": "4734366",
        "src640": "https://cdn.pixabay.com/photo/2020/01/01/20/00/big-sur-4734366_640.jpg",
        "src1280": "https://cdn.pixabay.com/photo/2020/01/01/20/00/big-sur-4734366_1280.jpg"
    },
    {
        "id": "3970531",
        "src640": "https://cdn.pixabay.com/photo/2019/02/02/12/14/diving-tower-3970531_640.jpg",
        "src1280": "https://cdn.pixabay.com/photo/2019/02/02/12/14/diving-tower-3970531_1280.jpg"
    },
    {
        "id": "7942862",
        "src640": "https://cdn.pixabay.com/photo/2023/04/22/02/21/jellyfish-7942862_640.jpg",
        "src1280": "https://cdn.pixabay.com/photo/2023/04/22/02/21/jellyfish-7942862_1280.jpg"
    },
    {
        "id": "5333438",
        "src640": "https://cdn.pixabay.com/photo/2020/06/23/18/51/boat-5333438_640.jpg",
        "src1280": "https://cdn.pixabay.com/photo/2020/06/23/18/51/boat-5333438_1280.jpg"
    },
    {
        "id": "388480",
        "src640": "https://cdn.pixabay.com/photo/2014/07/09/19/52/sea-388480_640.jpg",
        "src1280": "https://cdn.pixabay.com/photo/2014/07/09/19/52/sea-388480_1280.jpg"
    },
    {
        "id": "4823844",
        "src640": "https://cdn.pixabay.com/photo/2020/02/06/10/55/portugal-4823844_640.jpg",
        "src1280": "https://cdn.pixabay.com/photo/2020/02/06/10/55/portugal-4823844_1280.jpg"
    },
    {
        "id": "3609264",
        "src640": "https://cdn.pixabay.com/photo/2018/08/15/22/49/beach-3609264_640.jpg",
        "src1280": "https://cdn.pixabay.com/photo/2018/08/15/22/49/beach-3609264_1280.jpg"
    },
    {
        "id": "1193204",
        "src640": "https://cdn.pixabay.com/photo/2016/02/11/07/46/sunset-1193204_640.jpg",
        "src1280": "https://cdn.pixabay.com/photo/2016/02/11/07/46/sunset-1193204_1280.jpg"
    },
    {
        "id": "8433168",
        "src640": "https://cdn.pixabay.com/photo/2023/12/06/08/05/ai-generated-8433168_640.jpg",
        "src1280": "https://cdn.pixabay.com/photo/2023/12/06/08/05/ai-generated-8433168_1280.jpg"
    },
    {
        "id": "4851984",
        "src640": "https://cdn.pixabay.com/photo/2020/02/15/20/31/hdr-4851984_640.jpg",
        "src1280": "https://cdn.pixabay.com/photo/2020/02/15/20/31/hdr-4851984_1280.jpg"
    },
    {
        "id": "547609",
        "src640": "https://cdn.pixabay.com/photo/2014/11/27/13/55/water-547609_640.jpg",
        "src1280": "https://cdn.pixabay.com/photo/2014/11/27/13/55/water-547609_1280.jpg"
    },
    {
        "id": "3735055",
        "src640": "https://cdn.pixabay.com/photo/2018/10/09/13/38/shore-3735055_640.jpg",
        "src1280": "https://cdn.pixabay.com/photo/2018/10/09/13/38/shore-3735055_1280.jpg"
    },
    {
        "id": "3433771",
        "src640": "https://cdn.pixabay.com/photo/2018/05/27/16/09/greenpoint-lighthouse-3433771_640.jpg",
        "src1280": "https://cdn.pixabay.com/photo/2018/05/27/16/09/greenpoint-lighthouse-3433771_1280.jpg"
    },
    {
        "id": "7848451",
        "src640": "https://cdn.pixabay.com/photo/2023/03/13/05/00/ai-generated-7848451_640.jpg",
        "src1280": "https://cdn.pixabay.com/photo/2023/03/13/05/00/ai-generated-7848451_1280.jpg"
    },
    {
        "id": "6299282",
        "src640": "https://cdn.pixabay.com/photo/2021/05/31/16/09/lensball-6299282_640.jpg",
        "src1280": "https://cdn.pixabay.com/photo/2021/05/31/16/09/lensball-6299282_1280.jpg"
    },
    {
        "id": "7784219",
        "src640": "https://cdn.pixabay.com/photo/2023/02/12/05/59/nature-7784219_640.jpg",
        "src1280": "https://cdn.pixabay.com/photo/2023/02/12/05/59/nature-7784219_1280.jpg"
    },
    {
        "id": "381301",
        "src640": "https://cdn.pixabay.com/photo/2014/07/01/15/05/san-diego-beach-381301_640.jpg",
        "src1280": "https://cdn.pixabay.com/photo/2014/07/01/15/05/san-diego-beach-381301_1280.jpg"
    },
    {
        "id": "3098026",
        "src640": "https://cdn.pixabay.com/photo/2018/01/22/02/25/landscape-3098026_640.jpg",
        "src1280": "https://cdn.pixabay.com/photo/2018/01/22/02/25/landscape-3098026_1280.jpg"
    },
    {
        "id": "1910029",
        "src640": "https://cdn.pixabay.com/photo/2016/12/15/20/33/sunset-1910029_640.jpg",
        "src1280": "https://cdn.pixabay.com/photo/2016/12/15/20/33/sunset-1910029_1280.jpg"
    },
    {
        "id": "1684195",
        "src640": "https://cdn.pixabay.com/photo/2016/09/21/06/39/water-1684195_640.jpg",
        "src1280": "https://cdn.pixabay.com/photo/2016/09/21/06/39/water-1684195_1280.jpg"
    },
    {
        "id": "644630",
        "src640": "https://cdn.pixabay.com/photo/2015/02/21/23/04/brittany-644630_640.jpg",
        "src1280": "https://cdn.pixabay.com/photo/2015/02/21/23/04/brittany-644630_1280.jpg"
    },
    {
        "id": "8179310",
        "src640": "https://cdn.pixabay.com/photo/2023/08/09/12/09/dolphin-8179310_640.jpg",
        "src1280": "https://cdn.pixabay.com/photo/2023/08/09/12/09/dolphin-8179310_1280.jpg"
    }
]