[
    {
        "id": "1320045",
        "src640": "https://cdn.pixabay.com/photo/2016/04/10/14/42/horse-1320045_640.jpg",
        "src1280": "https://cdn.pixabay.com/photo/2016/04/10/14/42/horse-1320045_1280.jpg"
    },
    {
        "id": "2757279",
        "src640": "https://cdn.pixabay.com/photo/2017/09/17/00/41/rose-2757279_640.jpg",
        "src1280": "https://cdn.pixabay.com/photo/2017/09/17/00/41/rose-2757279_1280.jpg"
    },
    {
        "id": "2353686",
        "src640": "https://cdn.pixabay.com/photo/2017/05/29/12/28/sailboat-2353686_640.jpg",
        "src1280": "https://cdn.pixabay.com/photo/2017/05/29/12/28/sailboat-2353686_1280.jpg"
    },
    {
        "id": "1547135",
        "src640": "https://cdn.pixabay.com/photo/2016/07/28/06/58/beach-sunrise-1547135_640.jpg",
        "src1280": "https://cdn.pixabay.com/photo/2016/07/28/06/58/beach-sunrise-1547135_1280.jpg"
    },
    {
        "id": "4068581",
        "src640": "https://cdn.pixabay.com/photo/2019/03/20/14/18/girl-4068581_640.jpg",
        "src1280": "https://cdn.pixabay.com/photo/2019/03/20/14/18/girl-4068581_1280.jpg"
    },
    {
        "id": "621733",
        "src640": "https://cdn.pixabay.com/photo/2015/02/02/23/30/stairs-621733_640.jpg",
        "src1280": "https://cdn.pixabay.com/photo/2015/02/02/23/30/stairs-621733_1280.jpg"
    },
    {
        "id": "1039290",
        "src640": "https://cdn.pixabay.com/photo/2015/11/11/21/35/stone-1039290_640.jpg",
        "src1280": "https://cdn.pixabay.com/photo/2015/11/11/21/35/stone-1039290_1280.jpg"
    },
    {
        "id": "8099367",
        "src640": "https://cdn.pixabay.com/photo/2023/07/01/04/12/ai-generated-8099367_640.jpg",
        "src1280": "https://cdn.pixabay.com/photo/2023/07/01/04/12/ai-generated-8099367_1280.jpg"
    },
    {
        "id": "8298681",
        "src640": "https://cdn.pixabay.com/photo/2023/10/06/16/37/ai-generated-8298681_640.jpg",
        "src1280": "https://cdn.pixabay.com/photo/2023/10/06/16/37/ai-generated-8298681_1280.jpg"
    },
    {
        "id": "4374115",
        "src640": "https://cdn.pixabay.com/photo/2019/07/31/01/17/beach-4374115_640.jpg",
        "src1280": "https://cdn.pixabay.com/photo/2019/07/31/01/17/beach-4374115_1280.jpg"
    },
    {
        "id": "6700188",
        "src640": "https://cdn.pixabay.com/photo/2021/10/11/10/41/fog-6700188_640.jpg",
        "src1280": "https://cdn.pixabay.com/photo/2021/10/11/10/41/fog-6700188_1280.jpg"
    },
    {
        "id": "6064669",
        "src640": "https://cdn.pixabay.com/photo/2021/03/03/07/19/boat-6064669_640.jpg",
        "src1280": "https://cdn.pixabay.com/photo/2021/03/03/07/19/boat-6064669_1280.jpg"
    },
    {
        "id": "4267114",
        "src640": "https://cdn.pixabay.com/photo/2019/06/11/13/42/sailing-4267114_640.jpg",
        "src1280": "https://cdn.pixabay.com/photo/2019/06/11/13/42/sailing-4267114_1280.jpg"
    },
    {
        "id": "3359080",
        "src640": "https://cdn.pixabay.com/photo/2018/04/29/04/49/sunset-3359080_640.jpg",
        "src1280": "https://cdn.pixabay.com/photo/2018/04/29/04/49/sunset-3359080_1280.jpg"
    },
    {
        "id": "2937144",
        "src640": "https://cdn.pixabay.com/photo/2017/11/10/18/22/california-2937144_640.jpg",
        "src1280": "https://cdn.pixabay.com/photo/2017/11/10/18/22/california-2937144_1280.jpg"
    },
    {
        "id": "4788531",
        "src640": "https://cdn.pixabay.com/photo/2020/01/23/19/11/helgeroa-4788531_640.jpg",
        "src1280": "https://cdn.pixabay.com/photo/2020/01/23/19/11/helgeroa-4788531_1280.jpg"
    },
    {
        "id": "5663633",
        "src640": "https://cdn.pixabay.com/photo/2020/10/18/01/46/lighthouse-5663633_640.jpg",
        "src1280": "https://cdn.pixabay.com/photo/2020/10/18/01/46/lighthouse-5663633_1280.jpg"
    },
    {
        "id": "3601759",
        "src640": "https://cdn.pixabay.com/photo/2018/08/12/20/51/neptune-3601759_640.jpg",
        "src1280": "https://cdn.pixabay.com/photo/2018/08/12/20/51/neptune-3601759_1280.jpg"
    },
    {
        "id": "164522",
        "src640": "https://cdn.pixabay.com/photo/2013/07/18/15/06/parasailing-164522_640.jpg",
        "src1280": "https://cdn.pixabay.com/photo/2013/07/18/15/06/parasailing-164522_1280.jpg"
    },
    {
        "id": "4171825",
        "src640": "https://cdn.pixabay.com/photo/2019/05/01/19/58/cactus-4171825_640.jpg",
        "src1280": "https://cdn.pixabay.com/photo/2019/05/01/19/58/cactus-4171825_1280.jpg"
    },
    {
        "id": "2645544",
        "src640": "https://cdn.pixabay.com/photo/2017/08/15/21/01/beach-2645544_640.jpg",
        "src1280": "https://cdn.pixabay.com/photo/2017/08/15/21/01/beach-2645544_1280.jpg"
    },
    {
        "id": "1657644",
        "src640": "https://cdn.pixabay.com/photo/2016/09/09/17/33/beach-1657644_640.jpg",
        "src1280": "https://cdn.pixabay.com/photo/2016/09/09/17/33/beach-1657644_1280.jpg"
    },
    {
        "id": "5097041",
        "src640": "https://cdn.pixabay.com/photo/2020/04/26/20/13/village-5097041_640.jpg",
        "src1280": "https://cdn.pixabay.com/photo/2020/04/26/20/13/village-5097041_1280.jpg"
    },
    {
        "id": "2294306",
        "src640": "https://cdn.pixabay.com/photo/2017/05/08/03/54/california-2294306_640.jpg",
        "src1280": "https://cdn.pixabay.com/photo/2017/05/08/03/54/california-2294306_1280.jpg"
    },
    {
        "id": "2293446",
        "src640": "https://cdn.pixabay.com/photo/2017/05/07/20/12/golden-gate-2293446_640.jpg",
        "src1280": "https://cdn.pixabay.com/photo/2017/05/07/20/12/golden-gate-2293446_1280.jpg"
    },
    {
        "id": "1609654",
        "src640": "https://cdn.pixabay.com/photo/2016/08/21/13/13/japanese-silver-grass-1609654_640.jpg",
        "src1280": "https://cdn.pixabay.com/photo/2016/08/21/13/13/japanese-silver-grass-1609654_1280.jpg"
    },
    {
        "id": "351077",
        "src640": "https://cdn.pixabay.com/photo/2014/05/22/14/18/fort-lath-351077_640.jpg",
        "src1280": "https://cdn.pixabay.com/photo/2014/05/22/14/18/fort-lath-351077_1280.jpg"
    },
    {
        "id": "7834878",
        "src640": "https://cdn.pixabay.com/photo/2023/03/07/02/56/beach-7834878_640.jpg",
        "src1280": "https://cdn.pixabay.com/photo/2023/03/07/02/56/beach-7834878_1280.jpg"
    },
    {
        "id": "7179598",
        "src640": "https://cdn.pixabay.com/photo/2022/05/07/07/03/beach-7179598_640.jpg",
        "src1280": "https://cdn.pixabay.com/photo/2022/05/07/07/03/beach-7179598_1280.jpg"
    },
    {
        "id": "980024",
        "src640": "https://cdn.pixabay.com/photo/2015/10/09/21/56/chia-980024_640.jpg",
        "src1280": "https://cdn.pixabay.com/photo/2015/10/09/21/56/chia-980024_1280.jpg"
    },
    {
        "id": "6241062",
        "src640": "https://cdn.pixabay.com/photo/2021/05/09/14/04/lighthouse-6241062_640.jpg",
        "src1280": "https://cdn.pixabay.com/photo/2021/05/09/14/04/lighthouse-6241062_1280.jpg"
    },
    {
        "id": "7397101",
        "src640": "https://cdn.pixabay.com/photo/2022/08/19/14/57/sun-7397101_640.jpg",
        "src1280": "https://cdn.pixabay.com/photo/2022/08/19/14/57/sun-7397101_1280.jpg"
    },
    {
        "id": "7746202",
        "src640": "https://cdn.pixabay.com/photo/2023/01/26/15/07/sea-7746202_640.jpg",
        "src1280": "https://cdn.pixabay.com/photo/2023/01/26/15/07/sea-7746202_1280.jpg"
    },
    {
        "id": "8426767",
        "src640": "https://cdn.pixabay.com/photo/2023/12/03/00/58/woman-8426767_640.jpg",
        "src1280": "https://cdn.pixabay.com/photo/2023/12/03/00/58/woman-8426767_1280.jpg"
    },
    {
        "id": "4341871",
        "src640": "https://cdn.pixabay.com/photo/2019/07/16/13/20/faroe-islands-4341871_640.jpg",
        "src1280": "https://cdn.pixabay.com/photo/2019/07/16/13/20/faroe-islands-4341871_1280.jpg"
    },
    {
        "id": "8412354",
        "src640": "https://cdn.pixabay.com/photo/2023/11/25/19/37/ai-generated-8412354_640.jpg",
        "src1280": "https://cdn.pixabay.com/photo/2023/11/25/19/37/ai-generated-8412354_1280.jpg"
    },
    {
        "id": "5054683",
        "src640": "https://cdn.pixabay.com/photo/2020/04/17/11/23/beach-5054683_640.jpg",
        "src1280": "https://cdn.pixabay.com/photo/2020/04/17/11/23/beach-5054683_1280.jpg"
    },
    {
        "id": "7734466",
        "src640": "https://cdn.pixabay.com/photo/2023/01/21/15/25/ai-generated-7734466_640.jpg",
        "src1280": "https://cdn.pixabay.com/photo/2023/01/21/15/25/ai-generated-7734466_1280.jpg"
    },
    {
        "id": "6933208",
        "src640": "https://cdn.pixabay.com/photo/2022/01/12/15/38/ocean-6933208_640.jpg",
        "src1280": "https://cdn.pixabay.com/photo/2022/01/12/15/38/ocean-6933208_1280.jpg"
    },
    {
        "id": "3188572",
        "src640": "https://cdn.pixabay.com/photo/2018/02/28/18/06/water-3188572_640.jpg",
        "src1280": "https://cdn.pixabay.com/photo/2018/02/28/18/06/water-3188572_1280.jpg"
    },
    {
        "id": "7841309",
        "src640": "https://cdn.pixabay.com/photo/2023/03/10/03/26/beach-7841309_640.jpg",
        "src1280": "https://cdn.pixabay.com/photo/2023/03/10/03/26/beach-7841309_1280.jpg"
    },
    {
        "id": "3661684",
        "src640": "https://cdn.pixabay.com/photo/2018/09/07/22/36/sun-3661684_640.jpg",
        "src1280": "https://cdn.pixabay.com/photo/2018/09/07/22/36/sun-3661684_1280.jpg"
    },
    {
        "id": "7923225",
        "src640": "https://cdn.pixabay.com/photo/2023/04/13/18/36/beach-7923225_640.jpg",
        "src1280": "https://cdn.pixabay.com/photo/2023/04/13/18/36/beach-7923225_1280.jpg"
    },
    {
        "id": "7417799",
        "src640": "https://cdn.pixabay.com/photo/2022/08/29/01/54/lighthouse-7417799_640.jpg",
        "src1280": "https://cdn.pixabay.com/photo/2022/08/29/01/54/lighthouse-7417799_1280.jpg"
    },
    {
        "id": "6092867",
        "src640": "https://cdn.pixabay.com/photo/2021/03/13/21/23/ocean-6092867_640.jpg",
        "src1280": "https://cdn.pixabay.com/photo/2021/03/13/21/23/ocean-6092867_1280.jpg"
    },
    {
        "id": "8243832",
        "src640": "https://cdn.pixabay.com/photo/2023/09/09/20/42/ai-generated-8243832_640.jpg",
        "src1280": "https://cdn.pixabay.com/photo/2023/09/09/20/42/ai-generated-8243832_1280.jpg"
    },
    {
        "id": "1364923",
        "src640": "https://cdn.pixabay.com/photo/2016/05/01/13/41/jamaica-1364923_640.jpg",
        "src1280": "https://cdn.pixabay.com/photo/2016/05/01/13/41/jamaica-1364923_1280.jpg"
    },
    {
        "id": "2251246",
        "src640": "https://cdn.pixabay.com/photo/2017/04/22/12/37/cruise-ship-2251246_640.jpg",
        "src1280": "https://cdn.pixabay.com/photo/2017/04/22/12/37/cruise-ship-2251246_1280.jpg"
    },
    {
        "id": "711635",
        "src640": "https://cdn.pixabay.com/photo/2015/04/07/19/41/lighthouse-711635_640.jpg",
        "src1280": "https://cdn.pixabay.com/photo/2015/04/07/19/41/lighthouse-711635_1280.jpg"
    },
    {
        "id": "8006390",
        "src640": "https://cdn.pixabay.com/photo/2023/05/20/12/01/ai-generated-8006390_640.jpg",
        "src1280": "https://cdn.pixabay.com/photo/2023/05/20/12/01/ai-generated-8006390_1280.jpg"
    },
    {
        "id": "1522442",
        "src640": "https://cdn.pixabay.com/photo/2016/07/16/18/20/island-of-rab-1522442_640.jpg",
        "src1280": "https://cdn.pixabay.com/photo/2016/07/16/18/20/island-of-rab-1522442_1280.jpg"
    },
    {
        "id": "8031655",
        "src640": "https://cdn.pixabay.com/photo/2023/05/31/15/12/wallpaper-8031655_640.jpg",
        "src1280": "https://cdn.pixabay.com/photo/2023/05/31/15/12/wallpaper-8031655_1280.jpg"
    },
    {
        "id": "6300988",
        "src640": "https://cdn.pixabay.com/photo/2021/06/01/08/33/lens-ball-6300988_640.jpg",
        "src1280": "https://cdn.pixabay.com/photo/2021/06/01/08/33/lens-ball-6300988_1280.jpg"
    },
    {
        "id": "8255579",
        "src640": "https://cdn.pixabay.com/photo/2023/09/15/21/38/sailing-ship-8255579_640.jpg",
        "src1280": "https://cdn.pixabay.com/photo/2023/09/15/21/38/sailing-ship-8255579_1280.jpg"
    },
    {
        "id": "8412351",
        "src640": "https://cdn.pixabay.com/photo/2023/11/25/19/37/ai-generated-8412351_640.jpg",
        "src1280": "https://cdn.pixabay.com/photo/2023/11/25/19/37/ai-generated-8412351_1280.jpg"
    },
    {
        "id": "3608898",
        "src640": "https://cdn.pixabay.com/photo/2018/08/15/19/21/dover-3608898_640.jpg",
        "src1280": "https://cdn.pixabay.com/photo/2018/08/15/19/21/dover-3608898_1280.jpg"
    },
    {
        "id": "5218841",
        "src640": "https://cdn.pixabay.com/photo/2020/05/25/14/28/beach-5218841_640.jpg",
        "src1280": "https://cdn.pixabay.com/photo/2020/05/25/14/28/beach-5218841_1280.jpg"
    },
    {
        "id": "3767902",
        "src640": "https://cdn.pixabay.com/photo/2018/10/23/13/44/marine-3767902_640.jpg",
        "src1280": "https://cdn.pixabay.com/photo/2018/10/23/13/44/marine-3767902_1280.jpg"
    },
    {
        "id": "6249679",
        "src640": "https://cdn.pixabay.com/photo/2021/05/13/02/03/sea-wolf-6249679_640.jpg",
        "src1280": "https://cdn.pixabay.com/photo/2021/05/13/02/03/sea-wolf-6249679_1280.jpg"
    },
    {
        "id": "3452038",
        "src640": "https://cdn.pixabay.com/photo/2018/06/04/00/16/sailing-3452038_640.jpg",
        "src1280": "https://cdn.pixabay.com/photo/2018/06/04/00/16/sailing-3452038_1280.jpg"
    },
    {
        "id": "1271873",
        "src640": "https://cdn.pixabay.com/photo/2016/03/22/00/14/jetty-1271873_640.jpg",
        "src1280": "https://cdn.pixabay.com/photo/2016/03/22/00/14/jetty-1271873_1280.jpg"
    },
    {
        "id": "749095",
        "src640": "https://cdn.pixabay.com/photo/2015/05/01/21/50/salmon-749095_640.jpg",
        "src1280": "https://cdn.pixabay.com/photo/2015/05/01/21/50/salmon-749095_1280.jpg"
    },
    {
        "id": "6933221",
        "src640": "https://cdn.pixabay.com/photo/2022/01/12/15/40/ocean-6933221_640.jpg",
        "src1280": "https://cdn.pixabay.com/photo/2022/01/12/15/40/ocean-6933221_1280.jpg"
    },
    {
        "id": "1167097",
        "src640": "https://cdn.pixabay.com/photo/2016/01/28/22/44/sea-1167097_640.jpg",
        "src1280": "https://cdn.pixabay.com/photo/2016/01/28/22/44/sea-1167097_1280.jpg"
    },
    {
        "id": "7928790",
        "src640": "https://cdn.pixabay.com/photo/2023/04/16/00/22/fantasy-7928790_640.jpg",
        "src1280": "https://cdn.pixabay.com/photo/2023/04/16/00/22/fantasy-7928790_1280.jpg"
    },
    {
        "id": "919631",
        "src640": "https://cdn.pixabay.com/photo/2015/09/02/21/50/marseille-919631_640.jpg",
        "src1280": "https://cdn.pixabay.com/photo/2015/09/02/21/50/marseille-919631_1280.jpg"
    },
    {
        "id": "8070679",
        "src640": "https://cdn.pixabay.com/photo/2023/06/17/19/17/summer-8070679_640.jpg",
        "src1280": "https://cdn.pixabay.com/photo/2023/06/17/19/17/summer-8070679_1280.jpg"
    },
    {
        "id": "608714",
        "src640": "https://cdn.pixabay.com/photo/2015/01/23/04/47/ocean-608714_640.jpg",
        "src1280": "https://cdn.pixabay.com/photo/2015/01/23/04/47/ocean-608714_1280.jpg"
    },
    {
        "id": "4771558",
        "src640": "https://cdn.pixabay.com/photo/2020/01/16/19/35/rocks-4771558_640.jpg",
        "src1280": "https://cdn.pixabay.com/photo/2020/01/16/19/35/rocks-4771558_1280.jpg"
    },
    {
        "id": "788281",
        "src640": "https://cdn.pixabay.com/photo/2015/05/28/18/22/ocean-788281_640.jpg",
        "src1280": "https://cdn.pixabay.com/photo/2015/05/28/18/22/ocean-788281_1280.jpg"
    },
    {
        "id": "7461856",
        "src640": "https://cdn.pixabay.com/photo/2022/09/17/21/21/bird-7461856_640.jpg",
        "src1280": "https://cdn.pixabay.com/photo/2022/09/17/21/21/bird-7461856_1280.jpg"
    },
    {
        "id": "423140",
        "src640": "https://cdn.pixabay.com/photo/2014/08/21/07/29/child-423140_640.jpg",
        "src1280": "https://cdn.pixabay.com/photo/2014/08/21/07/29/child-423140_1280.jpg"
    },
    {
        "id": "7921010",
        "src640": "https://cdn.pixabay.com/photo/2023/04/12/19/05/beach-7921010_640.jpg",
        "src1280": "https://cdn.pixabay.com/photo/2023/04/12/19/05/beach-7921010_1280.jpg"
    },
    {
        "id": "7937449",
        "src640": "https://cdn.pixabay.com/photo/2023/04/19/10/36/sea-7937449_640.jpg",
        "src1280": "https://cdn.pixabay.com/photo/2023/04/19/10/36/sea-7937449_1280.jpg"
    },
    {
        "id": "172945",
        "src640": "https://cdn.pixabay.com/photo/2013/08/15/23/35/sea-172945_640.jpg",
        "src1280": "https://cdn.pixabay.com/photo/2013/08/15/23/35/sea-172945_1280.jpg"
    },
    {
        "id": "5733872",
        "src640": "https://cdn.pixabay.com/photo/2020/11/12/00/02/california-5733872_640.jpg",
        "src1280": "https://cdn.pixabay.com/photo/2020/11/12/00/02/california-5733872_1280.jpg"
    },
    {
        "id": "8404304",
        "src640": "https://cdn.pixabay.com/photo/2023/11/21/21/40/ai-generated-8404304_640.jpg",
        "src1280": "https://cdn.pixabay.com/photo/2023/11/21/21/40/ai-generated-8404304_1280.jpg"
    },
    {
        "id": "1291338",
        "src640": "https://cdn.pixabay.com/photo/2016/03/30/19/02/seashell-1291338_640.jpg",
        "src1280": "https://cdn.pixabay.com/photo/2016/03/30/19/02/seashell-1291338_1280.jpg"
    },
    {
        "id": "7396664",
        "src640": "https://cdn.pixabay.com/photo/2022/08/19/11/06/lavender-7396664_640.jpg",
        "src1280": "https://cdn.pixabay.com/photo/2022/08/19/11/06/lavender-7396664_1280.jpg"
    },
    {
        "id": "3327943",
        "src640": "https://cdn.pixabay.com/photo/2018/04/17/16/19/baltic-sea-3327943_640.jpg",
        "src1280": "https://cdn.pixabay.com/photo/2018/04/17/16/19/baltic-sea-3327943_1280.jpg"
    },
    {
        "id": "56821",
        "src640": "https://cdn.pixabay.com/photo/2012/09/12/19/26/pier-56821_640.jpg",
        "src1280": "https://cdn.pixabay.com/photo/2012/09/12/19/26/pier-56821_1280.jpg"
    },
    {
        "id": "3865573",
        "src640": "https://cdn.pixabay.com/photo/2018/12/09/19/35/tunisia-3865573_640.jpg",
        "src1280": "https://cdn.pixabay.com/photo/2018/12/09/19/35/tunisia-3865573_1280.jpg"
    },
    {
        "id": "8139197",
        "src640": "https://cdn.pixabay.com/photo/2023/07/20/12/37/cat-8139197_640.jpg",
        "src1280": "https://cdn.pixabay.com/photo/2023/07/20/12/37/cat-8139197_1280.jpg"
    },
    {
        "id": "2789901",
        "src640": "https://cdn.pixabay.com/photo/2017/09/26/20/03/newfoundland-2789901_640.jpg",
        "src1280": "https://cdn.pixabay.com/photo/2017/09/26/20/03/newfoundland-2789901_1280.jpg"
    },
    {
        "id": "7977895",
        "src640": "https://cdn.pixabay.com/photo/2023/05/08/07/46/sailboats-7977895_640.jpg",
        "src1280": "https://cdn.pixabay.com/photo/2023/05/08/07/46/sailboats-7977895_1280.jpg"
    },
    {
        "id": "5357097",
        "src640": "https://cdn.pixabay.com/photo/2020/06/30/17/37/love-5357097_640.jpg",
        "src1280": "https://cdn.pixabay.com/photo/2020/06/30/17/37/love-5357097_1280.jpg"
    },
    {
        "id": "2391535",
        "src640": "https://cdn.pixabay.com/photo/2017/06/11/05/17/maine-2391535_640.jpg",
        "src1280": "https://cdn.pixabay.com/photo/2017/06/11/05/17/maine-2391535_1280.jpg"
    },
    {
        "id": "8196891",
        "src640": "https://cdn.pixabay.com/photo/2023/08/17/15/59/stone-8196891_640.jpg",
        "src1280": "https://cdn.pixabay.com/photo/2023/08/17/15/59/stone-8196891_1280.jpg"
    }
]