[
    {
        "id": "7945268",
        "src640": "https://cdn.pixabay.com/photo/2023/04/23/08/38/portugal-7945268_640.jpg",
        "src1280": "https://cdn.pixabay.com/photo/2023/04/23/08/38/portugal-7945268_1280.jpg"
    },
    {
        "id": "4536197",
        "src640": "https://cdn.pixabay.com/photo/2019/10/09/00/17/pelican-4536197_640.jpg",
        "src1280": "https://cdn.pixabay.com/photo/2019/10/09/00/17/pelican-4536197_1280.jpg"
    },
    {
        "id": "6375747",
        "src640": "https://cdn.pixabay.com/photo/2021/06/30/03/25/beach-grass-6375747_640.jpg",
        "src1280": "https://cdn.pixabay.com/photo/2021/06/30/03/25/beach-grass-6375747_1280.jpg"
    },
    {
        "id": "6708855",
        "src640": "https://cdn.pixabay.com/photo/2021/10/14/11/39/city-6708855_640.jpg",
        "src1280": "https://cdn.pixabay.com/photo/2021/10/14/11/39/city-6708855_1280.jpg"
    },
    {
        "id": "4822464",
        "src640": "https://cdn.pixabay.com/photo/2020/02/05/21/37/sea-4822464_640.jpg",
        "src1280": "https://cdn.pixabay.com/photo/2020/02/05/21/37/sea-4822464_1280.jpg"
    },
    {
        "id": "7948022",
        "src640": "https://cdn.pixabay.com/photo/2023/04/24/12/47/beach-7948022_640.jpg",
        "src1280": "https://cdn.pixabay.com/photo/2023/04/24/12/47/beach-7948022_1280.jpg"
    },
    {
        "id": "7462258",
        "src640": "https://cdn.pixabay.com/photo/2022/09/18/05/32/sailboat-7462258_640.jpg",
        "src1280": "https://cdn.pixabay.com/photo/2022/09/18/05/32/sailboat-7462258_1280.jpg"
    },
    {
        "id": "2249715",
        "src640": "https://cdn.pixabay.com/photo/2017/04/21/19/43/cabo-2249715_640.jpg",
        "src1280": "https://cdn.pixabay.com/photo/2017/04/21/19/43/cabo-2249715_1280.jpg"
    },
    {
        "id": "5484311",
        "src640": "https://cdn.pixabay.com/photo/2020/08/13/06/41/ocean-5484311_640.jpg",
        "src1280": "https://cdn.pixabay.com/photo/2020/08/13/06/41/ocean-5484311_1280.jpg"
    },
    {
        "id": "4476661",
        "src640": "https://cdn.pixabay.com/photo/2019/09/14/18/37/waves-4476661_640.jpg",
        "src1280": "https://cdn.pixabay.com/photo/2019/09/14/18/37/waves-4476661_1280.jpg"
    },
    {
        "id": "4850496",
        "src640": "https://cdn.pixabay.com/photo/2020/02/15/09/57/cliffs-4850496_640.jpg",
        "src1280": "https://cdn.pixabay.com/photo/2020/02/15/09/57/cliffs-4850496_1280.jpg"
    },
    {
        "id": "3592419",
        "src640": "https://cdn.pixabay.com/photo/2018/08/08/15/38/animal-3592419_640.jpg",
        "src1280": "https://cdn.pixabay.com/photo/2018/08/08/15/38/animal-3592419_1280.jpg"
    },
    {
        "id": "3332513",
        "src640": "https://cdn.pixabay.com/photo/2018/04/19/07/51/nature-3332513_640.jpg",
        "src1280": "https://cdn.pixabay.com/photo/2018/04/19/07/51/nature-3332513_1280.jpg"
    },
    {
        "id": "5753864",
        "src640": "https://cdn.pixabay.com/photo/2020/11/17/22/38/dramatic-5753864_640.jpg",
        "src1280": "https://cdn.pixabay.com/photo/2020/11/17/22/38/dramatic-5753864_1280.jpg"
    },
    {
        "id": "487628",
        "src640": "https://cdn.pixabay.com/photo/2014/10/13/22/34/palm-tree-487628_640.jpg",
        "src1280": "https://cdn.pixabay.com/photo/2014/10/13/22/34/palm-tree-487628_1280.jpg"
    },
    {
        "id": "3724203",
        "src640": "https://cdn.pixabay.com/photo/2018/10/04/19/18/marina-3724203_640.jpg",
        "src1280": "https://cdn.pixabay.com/photo/2018/10/04/19/18/marina-3724203_1280.jpg"
    },
    {
        "id": "1289082",
        "src640": "https://cdn.pixabay.com/photo/2016/03/29/19/25/holiday-1289082_640.jpg",
        "src1280": "https://cdn.pixabay.com/photo/2016/03/29/19/25/holiday-1289082_1280.jpg"
    },
    {
        "id": "3944146",
        "src640": "https://cdn.pixabay.com/photo/2019/01/20/16/46/boat-3944146_640.jpg",
        "src1280": "https://cdn.pixabay.com/photo/2019/01/20/16/46/boat-3944146_1280.jpg"
    },
    {
        "id": "562846",
        "src640": "https://cdn.pixabay.com/photo/2014/12/10/08/00/central-japan-562846_640.jpg",
        "src1280": "https://cdn.pixabay.com/photo/2014/12/10/08/00/central-japan-562846_1280.jpg"
    },
    {
        "id": "7097465",
        "src640": "https://cdn.pixabay.com/photo/2022/03/28/13/05/hot-air-balloon-7097465_640.jpg",
        "src1280": "https://cdn.pixabay.com/photo/2022/03/28/13/05/hot-air-balloon-7097465_1280.jpg"
    },
    {
        "id": "1813248",
        "src640": "https://cdn.pixabay.com/photo/2016/11/10/01/07/ship-1813248_640.jpg",
        "src1280": "https://cdn.pixabay.com/photo/2016/11/10/01/07/ship-1813248_1280.jpg"
    },
    {
        "id": "4460357",
        "src640": "https://cdn.pixabay.com/photo/2019/09/08/07/38/mediterranean-4460357_640.jpg",
        "src1280": "https://cdn.pixabay.com/photo/2019/09/08/07/38/mediterranean-4460357_1280.jpg"
    },
    {
        "id": "3417959",
        "src640": "https://cdn.pixabay.com/photo/2018/05/21/11/09/fish-3417959_640.jpg",
        "src1280": "https://cdn.pixabay.com/photo/2018/05/21/11/09/fish-3417959_1280.jpg"
    },
    {
        "id": "2468280",
        "src640": "https://cdn.pixabay.com/photo/2017/07/03/16/38/tree-2468280_640.jpg",
        "src1280": "https://cdn.pixabay.com/photo/2017/07/03/16/38/tree-2468280_1280.jpg"
    },
    {
        "id": "6241060",
        "src640": "https://cdn.pixabay.com/photo/2021/05/09/14/04/coastline-6241060_640.jpg",
        "src1280": "https://cdn.pixabay.com/photo/2021/05/09/14/04/coastline-6241060_1280.jpg"
    },
    {
        "id": "3861380",
        "src640": "https://cdn.pixabay.com/photo/2018/12/07/09/47/ocean-3861380_640.jpg",
        "src1280": "https://cdn.pixabay.com/photo/2018/12/07/09/47/ocean-3861380_1280.jpg"
    },
    {
        "id": "6950585",
        "src640": "https://cdn.pixabay.com/photo/2022/01/19/17/39/sunset-6950585_640.jpg",
        "src1280": "https://cdn.pixabay.com/photo/2022/01/19/17/39/sunset-6950585_1280.jpg"
    },
    {
        "id": "4495815",
        "src640": "https://cdn.pixabay.com/photo/2019/09/22/11/36/environment-4495815_640.jpg",
        "src1280": "https://cdn.pixabay.com/photo/2019/09/22/11/36/environment-4495815_1280.jpg"
    },
    {
        "id": "5748009",
        "src640": "https://cdn.pixabay.com/photo/2020/11/16/05/38/sunset-5748009_640.jpg",
        "src1280": "https://cdn.pixabay.com/photo/2020/11/16/05/38/sunset-5748009_1280.jpg"
    },
    {
        "id": "1042873",
        "src640": "https://cdn.pixabay.com/photo/2015/11/14/08/49/water-sprite-1042873_640.jpg",
        "src1280": "https://cdn.pixabay.com/photo/2015/11/14/08/49/water-sprite-1042873_1280.jpg"
    },
    {
        "id": "3310782",
        "src640": "https://cdn.pixabay.com/photo/2018/04/11/15/36/water-3310782_640.jpg",
        "src1280": "https://cdn.pixabay.com/photo/2018/04/11/15/36/water-3310782_1280.jpg"
    },
    {
        "id": "6062096",
        "src640": "https://cdn.pixabay.com/photo/2021/03/02/11/12/rocks-6062096_640.jpg",
        "src1280": "https://cdn.pixabay.com/photo/2021/03/02/11/12/rocks-6062096_1280.jpg"
    },
    {
        "id": "3033497",
        "src640": "https://cdn.pixabay.com/photo/2017/12/22/11/58/waters-3033497_640.jpg",
        "src1280": "https://cdn.pixabay.com/photo/2017/12/22/11/58/waters-3033497_1280.jpg"
    },
    {
        "id": "4574268",
        "src640": "https://cdn.pixabay.com/photo/2019/10/24/13/17/water-4574268_640.jpg",
        "src1280": "https://cdn.pixabay.com/photo/2019/10/24/13/17/water-4574268_1280.jpg"
    },
    {
        "id": "5974394",
        "src640": "https://cdn.pixabay.com/photo/2021/02/02/15/30/sea-5974394_640.jpg",
        "src1280": "https://cdn.pixabay.com/photo/2021/02/02/15/30/sea-5974394_1280.jpg"
    },
    {
        "id": "960119",
        "src640": "https://cdn.pixabay.com/photo/2015/09/27/01/13/beach-960119_640.jpg",
        "src1280": "https://cdn.pixabay.com/photo/2015/09/27/01/13/beach-960119_1280.jpg"
    },
    {
        "id": "1891814",
        "src640": "https://cdn.pixabay.com/photo/2016/12/08/14/18/sandcastle-1891814_640.jpg",
        "src1280": "https://cdn.pixabay.com/photo/2016/12/08/14/18/sandcastle-1891814_1280.jpg"
    },
    {
        "id": "7976722",
        "src640": "https://cdn.pixabay.com/photo/2023/05/07/16/49/beach-7976722_640.jpg",
        "src1280": "https://cdn.pixabay.com/photo/2023/05/07/16/49/beach-7976722_1280.jpg"
    },
    {
        "id": "8169893",
        "src640": "https://cdn.pixabay.com/photo/2023/08/04/20/07/ship-8169893_640.jpg",
        "src1280": "https://cdn.pixabay.com/photo/2023/08/04/20/07/ship-8169893_1280.jpg"
    },
    {
        "id": "365535",
        "src640": "https://cdn.pixabay.com/photo/2014/06/09/17/25/beach-365535_640.jpg",
        "src1280": "https://cdn.pixabay.com/photo/2014/06/09/17/25/beach-365535_1280.jpg"
    },
    {
        "id": "6135038",
        "src640": "https://cdn.pixabay.com/photo/2021/03/29/19/07/sail-boat-6135038_640.jpg",
        "src1280": "https://cdn.pixabay.com/photo/2021/03/29/19/07/sail-boat-6135038_1280.jpg"
    },
    {
        "id": "1579402",
        "src640": "https://cdn.pixabay.com/photo/2016/08/08/22/06/dive-1579402_640.jpg",
        "src1280": "https://cdn.pixabay.com/photo/2016/08/08/22/06/dive-1579402_1280.jpg"
    },
    {
        "id": "2077828",
        "src640": "https://cdn.pixabay.com/photo/2017/02/18/18/02/pelican-2077828_640.jpg",
        "src1280": "https://cdn.pixabay.com/photo/2017/02/18/18/02/pelican-2077828_1280.jpg"
    },
    {
        "id": "458061",
        "src640": "https://cdn.pixabay.com/photo/2014/09/23/20/23/facade-458061_640.jpg",
        "src1280": "https://cdn.pixabay.com/photo/2014/09/23/20/23/facade-458061_1280.jpg"
    },
    {
        "id": "3358671",
        "src640": "https://cdn.pixabay.com/photo/2018/04/29/00/04/body-of-water-3358671_640.jpg",
        "src1280": "https://cdn.pixabay.com/photo/2018/04/29/00/04/body-of-water-3358671_1280.jpg"
    },
    {
        "id": "501944",
        "src640": "https://cdn.pixabay.com/photo/2014/10/24/23/42/beach-501944_640.jpg",
        "src1280": "https://cdn.pixabay.com/photo/2014/10/24/23/42/beach-501944_1280.jpg"
    },
    {
        "id": "3798082",
        "src640": "https://cdn.pixabay.com/photo/2018/11/06/11/19/clouds-3798082_640.jpg",
        "src1280": "https://cdn.pixabay.com/photo/2018/11/06/11/19/clouds-3798082_1280.jpg"
    },
    {
        "id": "560550",
        "src640": "https://cdn.pixabay.com/photo/2014/12/08/06/02/sea-560550_640.jpg",
        "src1280": "https://cdn.pixabay.com/photo/2014/12/08/06/02/sea-560550_1280.jpg"
    },
    {
        "id": "5903704",
        "src640": "https://cdn.pixabay.com/photo/2021/01/09/23/14/beach-5903704_640.jpg",
        "src1280": "https://cdn.pixabay.com/photo/2021/01/09/23/14/beach-5903704_1280.jpg"
    },
    {
        "id": "380936",
        "src640": "https://cdn.pixabay.com/photo/2014/07/01/03/15/sunrise-380936_640.jpg",
        "src1280": "https://cdn.pixabay.com/photo/2014/07/01/03/15/sunrise-380936_1280.jpg"
    },
    {
        "id": "4197741",
        "src640": "https://cdn.pixabay.com/photo/2019/05/12/11/11/koh-samet-4197741_640.jpg",
        "src1280": "https://cdn.pixabay.com/photo/2019/05/12/11/11/koh-samet-4197741_1280.jpg"
    },
    {
        "id": "2319425",
        "src640": "https://cdn.pixabay.com/photo/2017/05/16/23/54/sunset-2319425_640.jpg",
        "src1280": "https://cdn.pixabay.com/photo/2017/05/16/23/54/sunset-2319425_1280.jpg"
    },
    {
        "id": "5877378",
        "src640": "https://cdn.pixabay.com/photo/2020/12/31/20/41/moon-light-5877378_640.jpg",
        "src1280": "https://cdn.pixabay.com/photo/2020/12/31/20/41/moon-light-5877378_1280.jpg"
    },
    {
        "id": "3696801",
        "src640": "https://cdn.pixabay.com/photo/2018/09/23/06/04/beach-3696801_640.jpg",
        "src1280": "https://cdn.pixabay.com/photo/2018/09/23/06/04/beach-3696801_1280.jpg"
    },
    {
        "id": "5650776",
        "src640": "https://cdn.pixabay.com/photo/2020/10/13/05/31/palm-trees-5650776_640.jpg",
        "src1280": "https://cdn.pixabay.com/photo/2020/10/13/05/31/palm-trees-5650776_1280.jpg"
    },
    {
        "id": "4558095",
        "src640": "https://cdn.pixabay.com/photo/2019/10/18/02/02/beach-4558095_640.jpg",
        "src1280": "https://cdn.pixabay.com/photo/2019/10/18/02/02/beach-4558095_1280.jpg"
    },
    {
        "id": "1008690",
        "src640": "https://cdn.pixabay.com/photo/2015/10/27/09/58/woman-1008690_640.jpg",
        "src1280": "https://cdn.pixabay.com/photo/2015/10/27/09/58/woman-1008690_1280.jpg"
    },
    {
        "id": "5696864",
        "src640": "https://cdn.pixabay.com/photo/2020/10/29/18/01/boats-5696864_640.jpg",
        "src1280": "https://cdn.pixabay.com/photo/2020/10/29/18/01/boats-5696864_1280.jpg"
    },
    {
        "id": "6933225",
        "src640": "https://cdn.pixabay.com/photo/2022/01/12/15/40/ocean-6933225_640.jpg",
        "src1280": "https://cdn.pixabay.com/photo/2022/01/12/15/40/ocean-6933225_1280.jpg"
    },
    {
        "id": "367626",
        "src640": "https://cdn.pixabay.com/photo/2014/06/12/18/07/jamaica-367626_640.jpg",
        "src1280": "https://cdn.pixabay.com/photo/2014/06/12/18/07/jamaica-367626_1280.jpg"
    },
    {
        "id": "6259324",
        "src640": "https://cdn.pixabay.com/photo/2021/05/16/21/11/candle-6259324_640.jpg",
        "src1280": "https://cdn.pixabay.com/photo/2021/05/16/21/11/candle-6259324_1280.jpg"
    },
    {
        "id": "1998914",
        "src640": "https://cdn.pixabay.com/photo/2017/01/22/01/50/praslin-1998914_640.jpg",
        "src1280": "https://cdn.pixabay.com/photo/2017/01/22/01/50/praslin-1998914_1280.jpg"
    },
    {
        "id": "8058958",
        "src640": "https://cdn.pixabay.com/photo/2023/06/12/16/52/port-8058958_640.jpg",
        "src1280": "https://cdn.pixabay.com/photo/2023/06/12/16/52/port-8058958_1280.jpg"
    },
    {
        "id": "4326470",
        "src640": "https://cdn.pixabay.com/photo/2019/07/09/08/14/sea-4326470_640.jpg",
        "src1280": "https://cdn.pixabay.com/photo/2019/07/09/08/14/sea-4326470_1280.jpg"
    },
    {
        "id": "2040665",
        "src640": "https://cdn.pixabay.com/photo/2017/02/05/17/26/sea-2040665_640.jpg",
        "src1280": "https://cdn.pixabay.com/photo/2017/02/05/17/26/sea-2040665_1280.jpg"
    },
    {
        "id": "3311950",
        "src640": "https://cdn.pixabay.com/photo/2018/04/11/22/18/sea-3311950_640.jpg",
        "src1280": "https://cdn.pixabay.com/photo/2018/04/11/22/18/sea-3311950_1280.jpg"
    },
    {
        "id": "4078194",
        "src640": "https://cdn.pixabay.com/photo/2019/03/24/17/53/sunrise-4078194_640.jpg",
        "src1280": "https://cdn.pixabay.com/photo/2019/03/24/17/53/sunrise-4078194_1280.jpg"
    },
    {
        "id": "663790",
        "src640": "https://cdn.pixabay.com/photo/2015/03/08/01/06/young-663790_640.jpg",
        "src1280": "https://cdn.pixabay.com/photo/2015/03/08/01/06/young-663790_1280.jpg"
    },
    {
        "id": "3583715",
        "src640": "https://cdn.pixabay.com/photo/2018/08/04/14/03/sand-3583715_640.jpg",
        "src1280": "https://cdn.pixabay.com/photo/2018/08/04/14/03/sand-3583715_1280.jpg"
    },
    {
        "id": "5046677",
        "src640": "https://cdn.pixabay.com/photo/2020/04/15/13/51/girl-5046677_640.jpg",
        "src1280": "https://cdn.pixabay.com/photo/2020/04/15/13/51/girl-5046677_1280.jpg"
    },
    {
        "id": "5462862",
        "src640": "https://cdn.pixabay.com/photo/2020/08/04/13/30/kitesurfing-5462862_640.jpg",
        "src1280": "https://cdn.pixabay.com/photo/2020/08/04/13/30/kitesurfing-5462862_1280.jpg"
    },
    {
        "id": "8179318",
        "src640": "https://cdn.pixabay.com/photo/2023/08/09/12/11/ocean-8179318_640.jpg",
        "src1280": "https://cdn.pixabay.com/photo/2023/08/09/12/11/ocean-8179318_1280.jpg"
    },
    {
        "id": "7961333",
        "src640": "https://cdn.pixabay.com/photo/2023/04/30/19/16/sunset-7961333_640.jpg",
        "src1280": "https://cdn.pixabay.com/photo/2023/04/30/19/16/sunset-7961333_1280.jpg"
    },
    {
        "id": "6990359",
        "src640": "https://cdn.pixabay.com/photo/2022/02/03/12/43/beach-6990359_640.jpg",
        "src1280": "https://cdn.pixabay.com/photo/2022/02/03/12/43/beach-6990359_1280.jpg"
    },
    {
        "id": "7192890",
        "src640": "https://cdn.pixabay.com/photo/2022/05/13/06/50/sunset-7192890_640.jpg",
        "src1280": "https://cdn.pixabay.com/photo/2022/05/13/06/50/sunset-7192890_1280.jpg"
    },
    {
        "id": "2328334",
        "src640": "https://cdn.pixabay.com/photo/2017/05/20/07/58/travel-2328334_640.jpg",
        "src1280": "https://cdn.pixabay.com/photo/2017/05/20/07/58/travel-2328334_1280.jpg"
    },
    {
        "id": "6067958",
        "src640": "https://cdn.pixabay.com/photo/2021/03/04/13/00/ocean-6067958_640.jpg",
        "src1280": "https://cdn.pixabay.com/photo/2021/03/04/13/00/ocean-6067958_1280.jpg"
    },
    {
        "id": "4653972",
        "src640": "https://cdn.pixabay.com/photo/2019/11/26/08/23/malta-4653972_640.jpg",
        "src1280": "https://cdn.pixabay.com/photo/2019/11/26/08/23/malta-4653972_1280.jpg"
    },
    {
        "id": "4358455",
        "src640": "https://cdn.pixabay.com/photo/2019/07/23/19/25/boats-4358455_640.jpg",
        "src1280": "https://cdn.pixabay.com/photo/2019/07/23/19/25/boats-4358455_1280.jpg"
    },
    {
        "id": "6267453",
        "src640": "https://cdn.pixabay.com/photo/2021/05/20/00/44/sea-6267453_640.jpg",
        "src1280": "https://cdn.pixabay.com/photo/2021/05/20/00/44/sea-6267453_1280.jpg"
    },
    {
        "id": "8261346",
        "src640": "https://cdn.pixabay.com/photo/2023/09/18/20/01/shell-8261346_640.jpg",
        "src1280": "https://cdn.pixabay.com/photo/2023/09/18/20/01/shell-8261346_1280.jpg"
    },
    {
        "id": "4842427",
        "src640": "https://cdn.pixabay.com/photo/2020/02/12/11/30/australia-4842427_640.jpg",
        "src1280": "https://cdn.pixabay.com/photo/2020/02/12/11/30/australia-4842427_1280.jpg"
    },
    {
        "id": "4146985",
        "src640": "https://cdn.pixabay.com/photo/2019/04/22/16/39/submarine-4146985_640.jpg",
        "src1280": "https://cdn.pixabay.com/photo/2019/04/22/16/39/submarine-4146985_1280.jpg"
    },
    {
        "id": "2354389",
        "src640": "https://cdn.pixabay.com/photo/2017/05/29/17/47/room-2354389_640.jpg",
        "src1280": "https://cdn.pixabay.com/photo/2017/05/29/17/47/room-2354389_1280.jpg"
    },
    {
        "id": "7975019",
        "src640": "https://cdn.pixabay.com/photo/2023/05/06/20/03/sailing-boat-7975019_640.jpg",
        "src1280": "https://cdn.pixabay.com/photo/2023/05/06/20/03/sailing-boat-7975019_1280.jpg"
    },
    {
        "id": "5349",
        "src640": "https://cdn.pixabay.com/photo/2011/03/16/15/59/child-5349_640.jpg",
        "src1280": "https://cdn.pixabay.com/photo/2011/03/16/15/59/child-5349_1280.jpg"
    },
    {
        "id": "527805",
        "src640": "https://cdn.pixabay.com/photo/2014/11/12/01/43/cabo-da-roca-527805_640.jpg",
        "src1280": "https://cdn.pixabay.com/photo/2014/11/12/01/43/cabo-da-roca-527805_1280.jpg"
    },
    {
        "id": "6380753",
        "src640": "https://cdn.pixabay.com/photo/2021/07/02/03/12/madeira-6380753_640.jpg",
        "src1280": "https://cdn.pixabay.com/photo/2021/07/02/03/12/madeira-6380753_1280.jpg"
    },
    {
        "id": "2774929",
        "src640": "https://cdn.pixabay.com/photo/2017/09/22/09/42/rainbow-2774929_640.jpg",
        "src1280": "https://cdn.pixabay.com/photo/2017/09/22/09/42/rainbow-2774929_1280.jpg"
    },
    {
        "id": "602459",
        "src640": "https://cdn.pixabay.com/photo/2015/01/17/19/13/dolphin-602459_640.jpg",
        "src1280": "https://cdn.pixabay.com/photo/2015/01/17/19/13/dolphin-602459_1280.jpg"
    },
    {
        "id": "1634462",
        "src640": "https://cdn.pixabay.com/photo/2016/08/31/19/38/sea-1634462_640.jpg",
        "src1280": "https://cdn.pixabay.com/photo/2016/08/31/19/38/sea-1634462_1280.jpg"
    },
    {
        "id": "8131417",
        "src640": "https://cdn.pixabay.com/photo/2023/07/16/20/34/cormorant-8131417_640.jpg",
        "src1280": "https://cdn.pixabay.com/photo/2023/07/16/20/34/cormorant-8131417_1280.jpg"
    },
    {
        "id": "6077406",
        "src640": "https://cdn.pixabay.com/photo/2021/03/07/20/05/sea-6077406_640.jpg",
        "src1280": "https://cdn.pixabay.com/photo/2021/03/07/20/05/sea-6077406_1280.jpg"
    },
    {
        "id": "3647849",
        "src640": "https://cdn.pixabay.com/photo/2018/09/01/22/59/cactus-3647849_640.jpg",
        "src1280": "https://cdn.pixabay.com/photo/2018/09/01/22/59/cactus-3647849_1280.jpg"
    },
    {
        "id": "8251508",
        "src640": "https://cdn.pixabay.com/photo/2023/09/13/19/06/mill-8251508_640.jpg",
        "src1280": "https://cdn.pixabay.com/photo/2023/09/13/19/06/mill-8251508_1280.jpg"
    },
    {
        "id": "6773916",
        "src640": "https://cdn.pixabay.com/photo/2021/11/06/17/35/cairn-6773916_640.jpg",
        "src1280": "https://cdn.pixabay.com/photo/2021/11/06/17/35/cairn-6773916_1280.jpg"
    },
    {
        "id": "1692141",
        "src640": "https://cdn.pixabay.com/photo/2016/09/24/17/36/fishermen-1692141_640.jpg",
        "src1280": "https://cdn.pixabay.com/photo/2016/09/24/17/36/fishermen-1692141_1280.jpg"
    }
]