[
    {
        "id": "3317489",
        "src640": "https://cdn.pixabay.com/photo/2018/04/13/20/30/background-3317489_640.jpg",
        "src1280": "https://cdn.pixabay.com/photo/2018/04/13/20/30/background-3317489_1280.jpg"
    },
    {
        "id": "6349473",
        "src640": "https://cdn.pixabay.com/photo/2021/06/19/21/01/beach-6349473_640.jpg",
        "src1280": "https://cdn.pixabay.com/photo/2021/06/19/21/01/beach-6349473_1280.jpg"
    },
    {
        "id": "7071142",
        "src640": "https://cdn.pixabay.com/photo/2022/03/15/20/26/beach-7071142_640.jpg",
        "src1280": "https://cdn.pixabay.com/photo/2022/03/15/20/26/beach-7071142_1280.jpg"
    },
    {
        "id": "1218808",
        "src640": "https://cdn.pixabay.com/photo/2016/02/24/00/16/sky-1218808_640.jpg",
        "src1280": "https://cdn.pixabay.com/photo/2016/02/24/00/16/sky-1218808_1280.jpg"
    },
    {
        "id": "4366179",
        "src640": "https://cdn.pixabay.com/photo/2019/07/27/08/12/croatia-4366179_640.jpg",
        "src1280": "https://cdn.pixabay.com/photo/2019/07/27/08/12/croatia-4366179_1280.jpg"
    },
    {
        "id": "4474567",
        "src640": "https://cdn.pixabay.com/photo/2019/09/13/18/04/england-4474567_640.jpg",
        "src1280": "https://cdn.pixabay.com/photo/2019/09/13/18/04/england-4474567_1280.jpg"
    },
    {
        "id": "2679883",
        "src640": "https://cdn.pixabay.com/photo/2017/08/25/11/47/mojito-2679883_640.jpg",
        "src1280": "https://cdn.pixabay.com/photo/2017/08/25/11/47/mojito-2679883_1280.jpg"
    },
    {
        "id": "1028866",
        "src640": "https://cdn.pixabay.com/photo/2015/11/06/15/21/japan-1028866_640.jpg",
        "src1280": "https://cdn.pixabay.com/photo/2015/11/06/15/21/japan-1028866_1280.jpg"
    },
    {
        "id": "458761",
        "src640": "https://cdn.pixabay.com/photo/2014/09/24/08/48/beach-458761_640.jpg",
        "src1280": "https://cdn.pixabay.com/photo/2014/09/24/08/48/beach-458761_1280.jpg"
    },
    {
        "id": "5399125",
        "src640": "https://cdn.pixabay.com/photo/2020/07/13/01/38/bird-5399125_640.jpg",
        "src1280": "https://cdn.pixabay.com/photo/2020/07/13/01/38/bird-5399125_1280.jpg"
    },
    {
        "id": "5487499",
        "src640": "https://cdn.pixabay.com/photo/2020/08/14/10/41/beach-5487499_640.jpg",
        "src1280": "https://cdn.pixabay.com/photo/2020/08/14/10/41/beach-5487499_1280.jpg"
    },
    {
        "id": "7266378",
        "src640": "https://cdn.pixabay.com/photo/2022/06/16/16/37/flower-7266378_640.jpg",
        "src1280": "https://cdn.pixabay.com/photo/2022/06/16/16/37/flower-7266378_1280.jpg"
    },
    {
        "id": "1623258",
        "src640": "https://cdn.pixabay.com/photo/2016/08/26/21/55/sea-shells-1623258_640.jpg",
        "src1280": "https://cdn.pixabay.com/photo/2016/08/26/21/55/sea-shells-1623258_1280.jpg"
    },
    {
        "id": "91813",
        "src640": "https://cdn.pixabay.com/photo/2013/03/09/10/55/loneliness-91813_640.jpg",
        "src1280": "https://cdn.pixabay.com/photo/2013/03/09/10/55/loneliness-91813_1280.jpg"
    },
    {
        "id": "1592381",
        "src640": "https://cdn.pixabay.com/photo/2016/08/14/11/05/wine-1592381_640.jpg",
        "src1280": "https://cdn.pixabay.com/photo/2016/08/14/11/05/wine-1592381_1280.jpg"
    },
    {
        "id": "94246",
        "src640": "https://cdn.pixabay.com/photo/2013/03/16/11/37/flowers-94246_640.jpg",
        "src1280": "https://cdn.pixabay.com/photo/2013/03/16/11/37/flowers-94246_1280.jpg"
    },
    {
        "id": "4866126",
        "src640": "https://cdn.pixabay.com/photo/2020/02/20/22/42/sandburg-4866126_640.jpg",
        "src1280": "https://cdn.pixabay.com/photo/2020/02/20/22/42/sandburg-4866126_1280.jpg"
    },
    {
        "id": "6604422",
        "src640": "https://cdn.pixabay.com/photo/2021/09/07/16/46/moon-6604422_640.jpg",
        "src1280": "https://cdn.pixabay.com/photo/2021/09/07/16/46/moon-6604422_1280.jpg"
    },
    {
        "id": "7015624",
        "src640": "https://cdn.pixabay.com/photo/2022/02/15/21/00/cactus-7015624_640.jpg",
        "src1280": "https://cdn.pixabay.com/photo/2022/02/15/21/00/cactus-7015624_1280.jpg"
    },
    {
        "id": "349068",
        "src640": "https://cdn.pixabay.com/photo/2014/05/20/22/09/grave-349068_640.jpg",
        "src1280": "https://cdn.pixabay.com/photo/2014/05/20/22/09/grave-349068_1280.jpg"
    },
    {
        "id": "3320360",
        "src640": "https://cdn.pixabay.com/photo/2018/04/14/22/26/boat-3320360_640.jpg",
        "src1280": "https://cdn.pixabay.com/photo/2018/04/14/22/26/boat-3320360_1280.jpg"
    },
    {
        "id": "7306607",
        "src640": "https://cdn.pixabay.com/photo/2022/07/07/06/30/heron-7306607_640.jpg",
        "src1280": "https://cdn.pixabay.com/photo/2022/07/07/06/30/heron-7306607_1280.jpg"
    },
    {
        "id": "5863679",
        "src640": "https://cdn.pixabay.com/photo/2020/12/27/11/12/ocean-5863679_640.jpg",
        "src1280": "https://cdn.pixabay.com/photo/2020/12/27/11/12/ocean-5863679_1280.jpg"
    },
    {
        "id": "2260565",
        "src640": "https://cdn.pixabay.com/photo/2017/04/25/18/59/lighthouse-2260565_640.jpg",
        "src1280": "https://cdn.pixabay.com/photo/2017/04/25/18/59/lighthouse-2260565_1280.jpg"
    },
    {
        "id": "2935115",
        "src640": "https://cdn.pixabay.com/photo/2017/11/10/01/42/seafarer-2935115_640.jpg",
        "src1280": "https://cdn.pixabay.com/photo/2017/11/10/01/42/seafarer-2935115_1280.jpg"
    },
    {
        "id": "371161",
        "src640": "https://cdn.pixabay.com/photo/2014/06/18/12/26/beach-371161_640.jpg",
        "src1280": "https://cdn.pixabay.com/photo/2014/06/18/12/26/beach-371161_1280.jpg"
    },
    {
        "id": "6067564",
        "src640": "https://cdn.pixabay.com/photo/2021/03/04/10/34/sunset-6067564_640.jpg",
        "src1280": "https://cdn.pixabay.com/photo/2021/03/04/10/34/sunset-6067564_1280.jpg"
    },
    {
        "id": "346609",
        "src640": "https://cdn.pixabay.com/photo/2014/05/17/22/47/san-sebastian-346609_640.jpg",
        "src1280": "https://cdn.pixabay.com/photo/2014/05/17/22/47/san-sebastian-346609_1280.jpg"
    },
    {
        "id": "2185744",
        "src640": "https://cdn.pixabay.com/photo/2017/03/29/16/19/lighthouse-2185744_640.jpg",
        "src1280": "https://cdn.pixabay.com/photo/2017/03/29/16/19/lighthouse-2185744_1280.jpg"
    },
    {
        "id": "5541784",
        "src640": "https://cdn.pixabay.com/photo/2020/09/03/16/28/horizon-5541784_640.jpg",
        "src1280": "https://cdn.pixabay.com/photo/2020/09/03/16/28/horizon-5541784_1280.jpg"
    },
    {
        "id": "4855158",
        "src640": "https://cdn.pixabay.com/photo/2020/02/17/01/32/city-4855158_640.jpg",
        "src1280": "https://cdn.pixabay.com/photo/2020/02/17/01/32/city-4855158_1280.jpg"
    },
    {
        "id": "7202630",
        "src640": "https://cdn.pixabay.com/photo/2022/05/17/13/10/moonlight-7202630_640.jpg",
        "src1280": "https://cdn.pixabay.com/photo/2022/05/17/13/10/moonlight-7202630_1280.jpg"
    },
    {
        "id": "784780",
        "src640": "https://cdn.pixabay.com/photo/2015/05/26/15/10/england-784780_640.jpg",
        "src1280": "https://cdn.pixabay.com/photo/2015/05/26/15/10/england-784780_1280.jpg"
    },
    {
        "id": "4489332",
        "src640": "https://cdn.pixabay.com/photo/2019/09/19/13/48/boat-4489332_640.jpg",
        "src1280": "https://cdn.pixabay.com/photo/2019/09/19/13/48/boat-4489332_1280.jpg"
    },
    {
        "id": "2058226",
        "src640": "https://cdn.pixabay.com/photo/2017/02/11/17/49/maldives-2058226_640.jpg",
        "src1280": "https://cdn.pixabay.com/photo/2017/02/11/17/49/maldives-2058226_1280.jpg"
    },
    {
        "id": "1155962",
        "src640": "https://cdn.pixabay.com/photo/2016/01/22/15/15/komodo-1155962_640.jpg",
        "src1280": "https://cdn.pixabay.com/photo/2016/01/22/15/15/komodo-1155962_1280.jpg"
    },
    {
        "id": "3178226",
        "src640": "https://cdn.pixabay.com/photo/2018/02/24/14/30/summer-3178226_640.jpg",
        "src1280": "https://cdn.pixabay.com/photo/2018/02/24/14/30/summer-3178226_1280.jpg"
    },
    {
        "id": "408103",
        "src640": "https://cdn.pixabay.com/photo/2014/08/02/08/01/fishing-408103_640.jpg",
        "src1280": "https://cdn.pixabay.com/photo/2014/08/02/08/01/fishing-408103_1280.jpg"
    },
    {
        "id": "6060822",
        "src640": "https://cdn.pixabay.com/photo/2021/03/01/20/49/sailing-boats-6060822_640.jpg",
        "src1280": "https://cdn.pixabay.com/photo/2021/03/01/20/49/sailing-boats-6060822_1280.jpg"
    },
    {
        "id": "2712775",
        "src640": "https://cdn.pixabay.com/photo/2017/09/04/02/16/hawaii-2712775_640.jpg",
        "src1280": "https://cdn.pixabay.com/photo/2017/09/04/02/16/hawaii-2712775_1280.jpg"
    },
    {
        "id": "4922468",
        "src640": "https://cdn.pixabay.com/photo/2020/03/11/15/21/lighthouse-4922468_640.jpg",
        "src1280": "https://cdn.pixabay.com/photo/2020/03/11/15/21/lighthouse-4922468_1280.jpg"
    },
    {
        "id": "1535072",
        "src640": "https://cdn.pixabay.com/photo/2016/07/22/15/19/corsican-1535072_640.jpg",
        "src1280": "https://cdn.pixabay.com/photo/2016/07/22/15/19/corsican-1535072_1280.jpg"
    },
    {
        "id": "7559651",
        "src640": "https://cdn.pixabay.com/photo/2022/10/31/12/19/pier-7559651_640.jpg",
        "src1280": "https://cdn.pixabay.com/photo/2022/10/31/12/19/pier-7559651_1280.jpg"
    },
    {
        "id": "7016798",
        "src640": "https://cdn.pixabay.com/photo/2022/02/16/13/42/sailboat-7016798_640.jpg",
        "src1280": "https://cdn.pixabay.com/photo/2022/02/16/13/42/sailboat-7016798_1280.jpg"
    },
    {
        "id": "4792061",
        "src640": "https://cdn.pixabay.com/photo/2020/01/25/09/36/sea-4792061_640.jpg",
        "src1280": "https://cdn.pixabay.com/photo/2020/01/25/09/36/sea-4792061_1280.jpg"
    },
    {
        "id": "6177978",
        "src640": "https://cdn.pixabay.com/photo/2021/04/14/10/21/water-6177978_640.jpg",
        "src1280": "https://cdn.pixabay.com/photo/2021/04/14/10/21/water-6177978_1280.jpg"
    },
    {
        "id": "1827816",
        "src640": "https://cdn.pixabay.com/photo/2016/11/15/23/21/cape-flattery-1827816_640.jpg",
        "src1280": "https://cdn.pixabay.com/photo/2016/11/15/23/21/cape-flattery-1827816_1280.jpg"
    },
    {
        "id": "7754575",
        "src640": "https://cdn.pixabay.com/photo/2023/01/30/03/37/sea-rope-7754575_640.jpg",
        "src1280": "https://cdn.pixabay.com/photo/2023/01/30/03/37/sea-rope-7754575_1280.jpg"
    },
    {
        "id": "526153",
        "src640": "https://cdn.pixabay.com/photo/2014/11/10/23/09/sardinia-526153_640.jpg",
        "src1280": "https://cdn.pixabay.com/photo/2014/11/10/23/09/sardinia-526153_1280.jpg"
    },
    {
        "id": "7294342",
        "src640": "https://cdn.pixabay.com/photo/2022/06/30/19/10/beach-7294342_640.jpg",
        "src1280": "https://cdn.pixabay.com/photo/2022/06/30/19/10/beach-7294342_1280.jpg"
    },
    {
        "id": "3428583",
        "src640": "https://cdn.pixabay.com/photo/2018/05/25/09/09/sailing-3428583_640.jpg",
        "src1280": "https://cdn.pixabay.com/photo/2018/05/25/09/09/sailing-3428583_1280.jpg"
    },
    {
        "id": "6880302",
        "src640": "https://cdn.pixabay.com/photo/2021/12/19/07/59/natural-6880302_640.jpg",
        "src1280": "https://cdn.pixabay.com/photo/2021/12/19/07/59/natural-6880302_1280.jpg"
    },
    {
        "id": "7281785",
        "src640": "https://cdn.pixabay.com/photo/2022/06/24/14/27/taiwan-7281785_640.jpg",
        "src1280": "https://cdn.pixabay.com/photo/2022/06/24/14/27/taiwan-7281785_1280.jpg"
    },
    {
        "id": "6252460",
        "src640": "https://cdn.pixabay.com/photo/2021/05/14/06/15/sea-6252460_640.jpg",
        "src1280": "https://cdn.pixabay.com/photo/2021/05/14/06/15/sea-6252460_1280.jpg"
    },
    {
        "id": "6033010",
        "src640": "https://cdn.pixabay.com/photo/2021/02/20/11/22/lighthouse-6033010_640.jpg",
        "src1280": "https://cdn.pixabay.com/photo/2021/02/20/11/22/lighthouse-6033010_1280.jpg"
    },
    {
        "id": "3244310",
        "src640": "https://cdn.pixabay.com/photo/2018/03/20/19/00/liguria-3244310_640.jpg",
        "src1280": "https://cdn.pixabay.com/photo/2018/03/20/19/00/liguria-3244310_1280.jpg"
    },
    {
        "id": "3418226",
        "src640": "https://cdn.pixabay.com/photo/2018/05/21/12/57/cyprus-3418226_640.jpg",
        "src1280": "https://cdn.pixabay.com/photo/2018/05/21/12/57/cyprus-3418226_1280.jpg"
    },
    {
        "id": "7098206",
        "src640": "https://cdn.pixabay.com/photo/2022/03/28/19/27/sunset-7098206_640.jpg",
        "src1280": "https://cdn.pixabay.com/photo/2022/03/28/19/27/sunset-7098206_1280.jpg"
    },
    {
        "id": "2217767",
        "src640": "https://cdn.pixabay.com/photo/2017/04/10/07/54/sailor-2217767_640.jpg",
        "src1280": "https://cdn.pixabay.com/photo/2017/04/10/07/54/sailor-2217767_1280.jpg"
    },
    {
        "id": "4197760",
        "src640": "https://cdn.pixabay.com/photo/2019/05/12/11/17/venice-4197760_640.jpg",
        "src1280": "https://cdn.pixabay.com/photo/2019/05/12/11/17/venice-4197760_1280.jpg"
    },
    {
        "id": "4078306",
        "src640": "https://cdn.pixabay.com/photo/2019/03/24/18/21/whitstable-4078306_640.jpg",
        "src1280": "https://cdn.pixabay.com/photo/2019/03/24/18/21/whitstable-4078306_1280.jpg"
    },
    {
        "id": "2648747",
        "src640": "https://cdn.pixabay.com/photo/2017/08/16/18/27/lobsters-2648747_640.jpg",
        "src1280": "https://cdn.pixabay.com/photo/2017/08/16/18/27/lobsters-2648747_1280.jpg"
    },
    {
        "id": "50319",
        "src640": "https://cdn.pixabay.com/photo/2012/06/19/21/51/north-sea-50319_640.jpg",
        "src1280": "https://cdn.pixabay.com/photo/2012/06/19/21/51/north-sea-50319_1280.jpg"
    },
    {
        "id": "847420",
        "src640": "https://cdn.pixabay.com/photo/2015/07/16/09/31/bridge-847420_640.jpg",
        "src1280": "https://cdn.pixabay.com/photo/2015/07/16/09/31/bridge-847420_1280.jpg"
    },
    {
        "id": "5029131",
        "src640": "https://cdn.pixabay.com/photo/2020/04/11/07/16/sunset-5029131_640.jpg",
        "src1280": "https://cdn.pixabay.com/photo/2020/04/11/07/16/sunset-5029131_1280.jpg"
    },
    {
        "id": "3627527",
        "src640": "https://cdn.pixabay.com/photo/2018/08/24/08/27/venice-3627527_640.jpg",
        "src1280": "https://cdn.pixabay.com/photo/2018/08/24/08/27/venice-3627527_1280.jpg"
    },
    {
        "id": "1431346",
        "src640": "https://cdn.pixabay.com/photo/2016/06/02/15/53/sea-1431346_640.jpg",
        "src1280": "https://cdn.pixabay.com/photo/2016/06/02/15/53/sea-1431346_1280.jpg"
    },
    {
        "id": "7581879",
        "src640": "https://cdn.pixabay.com/photo/2022/11/10/04/00/sea-7581879_640.jpg",
        "src1280": "https://cdn.pixabay.com/photo/2022/11/10/04/00/sea-7581879_1280.jpg"
    },
    {
        "id": "7464013",
        "src640": "https://cdn.pixabay.com/photo/2022/09/18/20/34/sun-7464013_640.jpg",
        "src1280": "https://cdn.pixabay.com/photo/2022/09/18/20/34/sun-7464013_1280.jpg"
    },
    {
        "id": "4803028",
        "src640": "https://cdn.pixabay.com/photo/2020/01/29/17/03/antigua-4803028_640.jpg",
        "src1280": "https://cdn.pixabay.com/photo/2020/01/29/17/03/antigua-4803028_1280.jpg"
    },
    {
        "id": "7795418",
        "src640": "https://cdn.pixabay.com/photo/2023/02/17/07/43/beach-7795418_640.jpg",
        "src1280": "https://cdn.pixabay.com/photo/2023/02/17/07/43/beach-7795418_1280.jpg"
    },
    {
        "id": "5866874",
        "src640": "https://cdn.pixabay.com/photo/2020/12/28/12/11/nature-5866874_640.jpg",
        "src1280": "https://cdn.pixabay.com/photo/2020/12/28/12/11/nature-5866874_1280.jpg"
    },
    {
        "id": "6037721",
        "src640": "https://cdn.pixabay.com/photo/2021/02/21/19/53/city-6037721_640.jpg",
        "src1280": "https://cdn.pixabay.com/photo/2021/02/21/19/53/city-6037721_1280.jpg"
    },
    {
        "id": "7378959",
        "src640": "https://cdn.pixabay.com/photo/2022/08/11/08/44/ocean-7378959_640.jpg",
        "src1280": "https://cdn.pixabay.com/photo/2022/08/11/08/44/ocean-7378959_1280.jpg"
    },
    {
        "id": "394057",
        "src640": "https://cdn.pixabay.com/photo/2014/07/15/15/40/republic-of-korea-394057_640.jpg",
        "src1280": "https://cdn.pixabay.com/photo/2014/07/15/15/40/republic-of-korea-394057_1280.jpg"
    },
    {
        "id": "7106500",
        "src640": "https://cdn.pixabay.com/photo/2022/04/02/07/56/beach-7106500_640.jpg",
        "src1280": "https://cdn.pixabay.com/photo/2022/04/02/07/56/beach-7106500_1280.jpg"
    },
    {
        "id": "6481549",
        "src640": "https://cdn.pixabay.com/photo/2021/07/20/19/37/sea-6481549_640.jpg",
        "src1280": "https://cdn.pixabay.com/photo/2021/07/20/19/37/sea-6481549_1280.jpg"
    },
    {
        "id": "6740789",
        "src640": "https://cdn.pixabay.com/photo/2021/10/25/12/43/sea-6740789_640.jpg",
        "src1280": "https://cdn.pixabay.com/photo/2021/10/25/12/43/sea-6740789_1280.jpg"
    },
    {
        "id": "480239",
        "src640": "https://cdn.pixabay.com/photo/2014/10/08/14/58/cliffs-480239_640.jpg",
        "src1280": "https://cdn.pixabay.com/photo/2014/10/08/14/58/cliffs-480239_1280.jpg"
    },
    {
        "id": "3836046",
        "src640": "https://cdn.pixabay.com/photo/2018/11/24/18/47/netting-3836046_640.jpg",
        "src1280": "https://cdn.pixabay.com/photo/2018/11/24/18/47/netting-3836046_1280.jpg"
    },
    {
        "id": "1988159",
        "src640": "https://cdn.pixabay.com/photo/2017/01/17/21/37/hawaii-1988159_640.jpg",
        "src1280": "https://cdn.pixabay.com/photo/2017/01/17/21/37/hawaii-1988159_1280.jpg"
    },
    {
        "id": "99601",
        "src640": "https://cdn.pixabay.com/photo/2013/04/02/22/46/sailing-99601_640.jpg",
        "src1280": "https://cdn.pixabay.com/photo/2013/04/02/22/46/sailing-99601_1280.jpg"
    },
    {
        "id": "3421476",
        "src640": "https://cdn.pixabay.com/photo/2018/05/22/13/51/lighthouse-3421476_640.jpg",
        "src1280": "https://cdn.pixabay.com/photo/2018/05/22/13/51/lighthouse-3421476_1280.jpg"
    },
    {
        "id": "7513013",
        "src640": "https://cdn.pixabay.com/photo/2022/10/11/00/46/statue-7513013_640.jpg",
        "src1280": "https://cdn.pixabay.com/photo/2022/10/11/00/46/statue-7513013_1280.jpg"
    },
    {
        "id": "91803",
        "src640": "https://cdn.pixabay.com/photo/2013/03/09/10/43/sea-91803_640.jpg",
        "src1280": "https://cdn.pixabay.com/photo/2013/03/09/10/43/sea-91803_1280.jpg"
    },
    {
        "id": "7553129",
        "src640": "https://cdn.pixabay.com/photo/2022/10/28/13/10/sea-7553129_640.jpg",
        "src1280": "https://cdn.pixabay.com/photo/2022/10/28/13/10/sea-7553129_1280.jpg"
    },
    {
        "id": "4954364",
        "src640": "https://cdn.pixabay.com/photo/2020/03/21/15/50/beach-4954364_640.jpg",
        "src1280": "https://cdn.pixabay.com/photo/2020/03/21/15/50/beach-4954364_1280.jpg"
    },
    {
        "id": "536733",
        "src640": "https://cdn.pixabay.com/photo/2014/11/18/21/45/country-houses-536733_640.jpg",
        "src1280": "https://cdn.pixabay.com/photo/2014/11/18/21/45/country-houses-536733_1280.jpg"
    },
    {
        "id": "8212491",
        "src640": "https://cdn.pixabay.com/photo/2023/08/25/08/14/sunset-8212491_640.jpg",
        "src1280": "https://cdn.pixabay.com/photo/2023/08/25/08/14/sunset-8212491_1280.jpg"
    },
    {
        "id": "281500",
        "src640": "https://cdn.pixabay.com/photo/2014/03/07/06/42/jellyfish-281500_640.jpg",
        "src1280": "https://cdn.pixabay.com/photo/2014/03/07/06/42/jellyfish-281500_1280.jpg"
    },
    {
        "id": "5254897",
        "src640": "https://cdn.pixabay.com/photo/2020/06/03/13/20/peer-5254897_640.jpg",
        "src1280": "https://cdn.pixabay.com/photo/2020/06/03/13/20/peer-5254897_1280.jpg"
    },
    {
        "id": "5161150",
        "src640": "https://cdn.pixabay.com/photo/2020/05/12/03/59/beach-5161150_640.jpg",
        "src1280": "https://cdn.pixabay.com/photo/2020/05/12/03/59/beach-5161150_1280.jpg"
    },
    {
        "id": "78130",
        "src640": "https://cdn.pixabay.com/photo/2013/02/05/19/50/sea-78130_640.jpg",
        "src1280": "https://cdn.pixabay.com/photo/2013/02/05/19/50/sea-78130_1280.jpg"
    },
    {
        "id": "4110135",
        "src640": "https://cdn.pixabay.com/photo/2019/04/07/16/52/shell-4110135_640.jpg",
        "src1280": "https://cdn.pixabay.com/photo/2019/04/07/16/52/shell-4110135_1280.jpg"
    },
    {
        "id": "827579",
        "src640": "https://cdn.pixabay.com/photo/2015/07/01/14/17/bottle-827579_640.jpg",
        "src1280": "https://cdn.pixabay.com/photo/2015/07/01/14/17/bottle-827579_1280.jpg"
    },
    {
        "id": "141861",
        "src640": "https://cdn.pixabay.com/photo/2013/06/27/22/24/ship-141861_640.jpg",
        "src1280": "https://cdn.pixabay.com/photo/2013/06/27/22/24/ship-141861_1280.jpg"
    },
    {
        "id": "714971",
        "src640": "https://cdn.pixabay.com/photo/2015/04/09/19/23/beach-714971_640.jpg",
        "src1280": "https://cdn.pixabay.com/photo/2015/04/09/19/23/beach-714971_1280.jpg"
    },
    {
        "id": "2928080",
        "src640": "https://cdn.pixabay.com/photo/2017/11/07/20/15/sea-lion-show-2928080_640.jpg",
        "src1280": "https://cdn.pixabay.com/photo/2017/11/07/20/15/sea-lion-show-2928080_1280.jpg"
    },
    {
        "id": "1209415",
        "src640": "https://cdn.pixabay.com/photo/2016/02/19/10/48/portugal-1209415_640.jpg",
        "src1280": "https://cdn.pixabay.com/photo/2016/02/19/10/48/portugal-1209415_1280.jpg"
    }
]