[
    {
        "id": "2775",
        "src640": "https://cdn.pixabay.com/photo/2010/12/13/10/24/animal-2775_640.jpg",
        "src1280": "https://cdn.pixabay.com/photo/2010/12/13/10/24/animal-2775_1280.jpg"
    },
    {
        "id": "4811953",
        "src640": "https://cdn.pixabay.com/photo/2020/02/02/03/54/sri-lanka-4811953_640.jpg",
        "src1280": "https://cdn.pixabay.com/photo/2020/02/02/03/54/sri-lanka-4811953_1280.jpg"
    },
    {
        "id": "2575893",
        "src640": "https://cdn.pixabay.com/photo/2017/08/03/12/13/sea-2575893_640.jpg",
        "src1280": "https://cdn.pixabay.com/photo/2017/08/03/12/13/sea-2575893_1280.jpg"
    },
    {
        "id": "7533501",
        "src640": "https://cdn.pixabay.com/photo/2022/10/19/20/15/background-7533501_640.jpg",
        "src1280": "https://cdn.pixabay.com/photo/2022/10/19/20/15/background-7533501_1280.jpg"
    },
    {
        "id": "4687334",
        "src640": "https://cdn.pixabay.com/photo/2019/12/11/03/13/sunset-4687334_640.jpg",
        "src1280": "https://cdn.pixabay.com/photo/2019/12/11/03/13/sunset-4687334_1280.jpg"
    },
    {
        "id": "6502614",
        "src640": "https://cdn.pixabay.com/photo/2021/07/28/18/06/ship-6502614_640.jpg",
        "src1280": "https://cdn.pixabay.com/photo/2021/07/28/18/06/ship-6502614_1280.jpg"
    },
    {
        "id": "4772181",
        "src640": "https://cdn.pixabay.com/photo/2020/01/17/04/00/ocean-4772181_640.jpg",
        "src1280": "https://cdn.pixabay.com/photo/2020/01/17/04/00/ocean-4772181_1280.jpg"
    },
    {
        "id": "7120356",
        "src640": "https://cdn.pixabay.com/photo/2022/04/08/21/40/water-7120356_640.jpg",
        "src1280": "https://cdn.pixabay.com/photo/2022/04/08/21/40/water-7120356_1280.jpg"
    },
    {
        "id": "3273770",
        "src640": "https://cdn.pixabay.com/photo/2018/03/29/21/38/architecture-3273770_640.jpg",
        "src1280": "https://cdn.pixabay.com/photo/2018/03/29/21/38/architecture-3273770_1280.jpg"
    },
    {
        "id": "905079",
        "src640": "https://cdn.pixabay.com/photo/2015/08/24/14/55/shell-905079_640.jpg",
        "src1280": "https://cdn.pixabay.com/photo/2015/08/24/14/55/shell-905079_1280.jpg"
    },
    {
        "id": "3700464",
        "src640": "https://cdn.pixabay.com/photo/2018/09/24/17/38/seagull-3700464_640.jpg",
        "src1280": "https://cdn.pixabay.com/photo/2018/09/24/17/38/seagull-3700464_1280.jpg"
    },
    {
        "id": "8343346",
        "src640": "https://cdn.pixabay.com/photo/2023/10/26/18/57/ai-generated-8343346_640.jpg",
        "src1280": "https://cdn.pixabay.com/photo/2023/10/26/18/57/ai-generated-8343346_1280.jpg"
    },
    {
        "id": "2449163",
        "src640": "https://cdn.pixabay.com/photo/2017/06/27/23/18/seagull-2449163_640.jpg",
        "src1280": "https://cdn.pixabay.com/photo/2017/06/27/23/18/seagull-2449163_1280.jpg"
    },
    {
        "id": "978634",
        "src640": "https://cdn.pixabay.com/photo/2015/10/09/00/29/sunset-978634_640.jpg",
        "src1280": "https://cdn.pixabay.com/photo/2015/10/09/00/29/sunset-978634_1280.jpg"
    },
    {
        "id": "774523",
        "src640": "https://cdn.pixabay.com/photo/2015/05/19/23/47/beach-774523_640.jpg",
        "src1280": "https://cdn.pixabay.com/photo/2015/05/19/23/47/beach-774523_1280.jpg"
    },
    {
        "id": "656591",
        "src640": "https://cdn.pixabay.com/photo/2015/03/02/21/22/woman-656591_640.jpg",
        "src1280": "https://cdn.pixabay.com/photo/2015/03/02/21/22/woman-656591_1280.jpg"
    },
    {
        "id": "5971068",
        "src640": "https://cdn.pixabay.com/photo/2021/02/01/15/42/sea-5971068_640.jpg",
        "src1280": "https://cdn.pixabay.com/photo/2021/02/01/15/42/sea-5971068_1280.jpg"
    },
    {
        "id": "7166541",
        "src640": "https://cdn.pixabay.com/photo/2022/05/01/00/03/punta-del-este-7166541_640.jpg",
        "src1280": "https://cdn.pixabay.com/photo/2022/05/01/00/03/punta-del-este-7166541_1280.jpg"
    },
    {
        "id": "6006889",
        "src640": "https://cdn.pixabay.com/photo/2021/02/12/01/02/lighthouse-6006889_640.jpg",
        "src1280": "https://cdn.pixabay.com/photo/2021/02/12/01/02/lighthouse-6006889_1280.jpg"
    },
    {
        "id": "5228542",
        "src640": "https://cdn.pixabay.com/photo/2020/05/27/19/18/girl-5228542_640.jpg",
        "src1280": "https://cdn.pixabay.com/photo/2020/05/27/19/18/girl-5228542_1280.jpg"
    },
    {
        "id": "5184811",
        "src640": "https://cdn.pixabay.com/photo/2020/05/18/06/44/travel-5184811_640.jpg",
        "src1280": "https://cdn.pixabay.com/photo/2020/05/18/06/44/travel-5184811_1280.jpg"
    },
    {
        "id": "4689311",
        "src640": "https://cdn.pixabay.com/photo/2019/12/11/21/11/delfin-4689311_640.jpg",
        "src1280": "https://cdn.pixabay.com/photo/2019/12/11/21/11/delfin-4689311_1280.jpg"
    },
    {
        "id": "261758",
        "src640": "https://cdn.pixabay.com/photo/2014/02/08/13/06/madeira-261758_640.jpg",
        "src1280": "https://cdn.pixabay.com/photo/2014/02/08/13/06/madeira-261758_1280.jpg"
    },
    {
        "id": "3224267",
        "src640": "https://cdn.pixabay.com/photo/2018/03/14/03/06/sunset-3224267_640.jpg",
        "src1280": "https://cdn.pixabay.com/photo/2018/03/14/03/06/sunset-3224267_1280.jpg"
    },
    {
        "id": "2559411",
        "src640": "https://cdn.pixabay.com/photo/2017/07/31/17/43/sea-2559411_640.jpg",
        "src1280": "https://cdn.pixabay.com/photo/2017/07/31/17/43/sea-2559411_1280.jpg"
    },
    {
        "id": "4734731",
        "src640": "https://cdn.pixabay.com/photo/2020/01/02/00/54/sunset-4734731_640.jpg",
        "src1280": "https://cdn.pixabay.com/photo/2020/01/02/00/54/sunset-4734731_1280.jpg"
    },
    {
        "id": "4945097",
        "src640": "https://cdn.pixabay.com/photo/2020/03/18/18/25/sunrise-4945097_640.jpg",
        "src1280": "https://cdn.pixabay.com/photo/2020/03/18/18/25/sunrise-4945097_1280.jpg"
    },
    {
        "id": "4476998",
        "src640": "https://cdn.pixabay.com/photo/2019/09/14/21/53/telescope-4476998_640.jpg",
        "src1280": "https://cdn.pixabay.com/photo/2019/09/14/21/53/telescope-4476998_1280.jpg"
    },
    {
        "id": "4834071",
        "src640": "https://cdn.pixabay.com/photo/2020/02/09/18/07/oregon-4834071_640.jpg",
        "src1280": "https://cdn.pixabay.com/photo/2020/02/09/18/07/oregon-4834071_1280.jpg"
    },
    {
        "id": "3410811",
        "src640": "https://cdn.pixabay.com/photo/2018/05/18/10/09/boat-3410811_640.jpg",
        "src1280": "https://cdn.pixabay.com/photo/2018/05/18/10/09/boat-3410811_1280.jpg"
    },
    {
        "id": "7865084",
        "src640": "https://cdn.pixabay.com/photo/2023/03/20/15/08/dawn-7865084_640.jpg",
        "src1280": "https://cdn.pixabay.com/photo/2023/03/20/15/08/dawn-7865084_1280.jpg"
    },
    {
        "id": "993074",
        "src640": "https://cdn.pixabay.com/photo/2015/10/17/19/12/sail-993074_640.jpg",
        "src1280": "https://cdn.pixabay.com/photo/2015/10/17/19/12/sail-993074_1280.jpg"
    },
    {
        "id": "2271210",
        "src640": "https://cdn.pixabay.com/photo/2017/04/29/18/02/retirement-2271210_640.jpg",
        "src1280": "https://cdn.pixabay.com/photo/2017/04/29/18/02/retirement-2271210_1280.jpg"
    },
    {
        "id": "5785758",
        "src640": "https://cdn.pixabay.com/photo/2020/11/28/21/14/couple-5785758_640.jpg",
        "src1280": "https://cdn.pixabay.com/photo/2020/11/28/21/14/couple-5785758_1280.jpg"
    },
    {
        "id": "8152067",
        "src640": "https://cdn.pixabay.com/photo/2023/07/26/21/11/beach-8152067_640.jpg",
        "src1280": "https://cdn.pixabay.com/photo/2023/07/26/21/11/beach-8152067_1280.jpg"
    },
    {
        "id": "1934060",
        "src640": "https://cdn.pixabay.com/photo/2016/12/27/14/55/sunrise-1934060_640.jpg",
        "src1280": "https://cdn.pixabay.com/photo/2016/12/27/14/55/sunrise-1934060_1280.jpg"
    },
    {
        "id": "2489384",
        "src640": "https://cdn.pixabay.com/photo/2017/07/10/08/34/mont-saint-michel-2489384_640.jpg",
        "src1280": "https://cdn.pixabay.com/photo/2017/07/10/08/34/mont-saint-michel-2489384_1280.jpg"
    },
    {
        "id": "5203923",
        "src640": "https://cdn.pixabay.com/photo/2020/05/22/06/04/mermaid-5203923_640.jpg",
        "src1280": "https://cdn.pixabay.com/photo/2020/05/22/06/04/mermaid-5203923_1280.jpg"
    },
    {
        "id": "6257131",
        "src640": "https://cdn.pixabay.com/photo/2021/05/16/04/32/sunset-6257131_640.jpg",
        "src1280": "https://cdn.pixabay.com/photo/2021/05/16/04/32/sunset-6257131_1280.jpg"
    },
    {
        "id": "3705328",
        "src640": "https://cdn.pixabay.com/photo/2018/09/26/18/31/sea-3705328_640.jpg",
        "src1280": "https://cdn.pixabay.com/photo/2018/09/26/18/31/sea-3705328_1280.jpg"
    },
    {
        "id": "5972752",
        "src640": "https://cdn.pixabay.com/photo/2021/02/02/05/50/coast-5972752_640.jpg",
        "src1280": "https://cdn.pixabay.com/photo/2021/02/02/05/50/coast-5972752_1280.jpg"
    },
    {
        "id": "5270421",
        "src640": "https://cdn.pixabay.com/photo/2020/06/07/13/24/in-the-sea-5270421_640.jpg",
        "src1280": "https://cdn.pixabay.com/photo/2020/06/07/13/24/in-the-sea-5270421_1280.jpg"
    },
    {
        "id": "6770487",
        "src640": "https://cdn.pixabay.com/photo/2021/11/05/07/15/torrent-6770487_640.jpg",
        "src1280": "https://cdn.pixabay.com/photo/2021/11/05/07/15/torrent-6770487_1280.jpg"
    },
    {
        "id": "7125444",
        "src640": "https://cdn.pixabay.com/photo/2022/04/11/10/19/beach-7125444_640.jpg",
        "src1280": "https://cdn.pixabay.com/photo/2022/04/11/10/19/beach-7125444_1280.jpg"
    },
    {
        "id": "2371668",
        "src640": "https://cdn.pixabay.com/photo/2017/06/04/17/33/beach-2371668_640.jpg",
        "src1280": "https://cdn.pixabay.com/photo/2017/06/04/17/33/beach-2371668_1280.jpg"
    },
    {
        "id": "8360851",
        "src640": "https://cdn.pixabay.com/photo/2023/11/02/15/07/landscape-8360851_640.jpg",
        "src1280": "https://cdn.pixabay.com/photo/2023/11/02/15/07/landscape-8360851_1280.jpg"
    },
    {
        "id": "5730567",
        "src640": "https://cdn.pixabay.com/photo/2020/11/10/17/47/beach-5730567_640.jpg",
        "src1280": "https://cdn.pixabay.com/photo/2020/11/10/17/47/beach-5730567_1280.jpg"
    },
    {
        "id": "81774",
        "src640": "https://cdn.pixabay.com/photo/2013/02/15/02/16/rainbow-81774_640.jpg",
        "src1280": "https://cdn.pixabay.com/photo/2013/02/15/02/16/rainbow-81774_1280.jpg"
    },
    {
        "id": "3762003",
        "src640": "https://cdn.pixabay.com/photo/2018/10/20/23/23/globe-3762003_640.jpg",
        "src1280": "https://cdn.pixabay.com/photo/2018/10/20/23/23/globe-3762003_1280.jpg"
    },
    {
        "id": "6897270",
        "src640": "https://cdn.pixabay.com/photo/2021/12/27/14/08/tropical-6897270_640.jpg",
        "src1280": "https://cdn.pixabay.com/photo/2021/12/27/14/08/tropical-6897270_1280.jpg"
    },
    {
        "id": "1489680",
        "src640": "https://cdn.pixabay.com/photo/2016/06/30/19/25/sunset-1489680_640.jpg",
        "src1280": "https://cdn.pixabay.com/photo/2016/06/30/19/25/sunset-1489680_1280.jpg"
    },
    {
        "id": "7722937",
        "src640": "https://cdn.pixabay.com/photo/2023/01/16/17/44/beach-7722937_640.jpg",
        "src1280": "https://cdn.pixabay.com/photo/2023/01/16/17/44/beach-7722937_1280.jpg"
    },
    {
        "id": "1124684",
        "src640": "https://cdn.pixabay.com/photo/2016/01/06/17/32/sunset-1124684_640.jpg",
        "src1280": "https://cdn.pixabay.com/photo/2016/01/06/17/32/sunset-1124684_1280.jpg"
    },
    {
        "id": "6552382",
        "src640": "https://cdn.pixabay.com/photo/2021/08/17/08/45/sea-6552382_640.jpg",
        "src1280": "https://cdn.pixabay.com/photo/2021/08/17/08/45/sea-6552382_1280.jpg"
    },
    {
        "id": "8323859",
        "src640": "https://cdn.pixabay.com/photo/2023/10/18/11/12/lighthouse-8323859_640.jpg",
        "src1280": "https://cdn.pixabay.com/photo/2023/10/18/11/12/lighthouse-8323859_1280.jpg"
    },
    {
        "id": "1725267",
        "src640": "https://cdn.pixabay.com/photo/2016/10/09/06/42/sunset-1725267_640.jpg",
        "src1280": "https://cdn.pixabay.com/photo/2016/10/09/06/42/sunset-1725267_1280.jpg"
    },
    {
        "id": "1725272",
        "src640": "https://cdn.pixabay.com/photo/2016/10/09/06/43/texture-1725272_640.jpg",
        "src1280": "https://cdn.pixabay.com/photo/2016/10/09/06/43/texture-1725272_1280.jpg"
    },
    {
        "id": "79957",
        "src640": "https://cdn.pixabay.com/photo/2013/02/10/03/44/spotted-moray-eel-79957_640.jpg",
        "src1280": "https://cdn.pixabay.com/photo/2013/02/10/03/44/spotted-moray-eel-79957_1280.jpg"
    },
    {
        "id": "4910466",
        "src640": "https://cdn.pixabay.com/photo/2020/03/07/17/48/sea-4910466_640.jpg",
        "src1280": "https://cdn.pixabay.com/photo/2020/03/07/17/48/sea-4910466_1280.jpg"
    },
    {
        "id": "900191",
        "src640": "https://cdn.pixabay.com/photo/2015/08/22/08/01/men-900191_640.jpg",
        "src1280": "https://cdn.pixabay.com/photo/2015/08/22/08/01/men-900191_1280.jpg"
    },
    {
        "id": "1481989",
        "src640": "https://cdn.pixabay.com/photo/2016/06/27/06/45/girl-1481989_640.jpg",
        "src1280": "https://cdn.pixabay.com/photo/2016/06/27/06/45/girl-1481989_1280.jpg"
    },
    {
        "id": "1988660",
        "src640": "https://cdn.pixabay.com/photo/2017/01/18/01/09/vector-1988660_640.jpg",
        "src1280": "https://cdn.pixabay.com/photo/2017/01/18/01/09/vector-1988660_1280.jpg"
    },
    {
        "id": "4949518",
        "src640": "https://cdn.pixabay.com/photo/2020/03/20/05/28/jellyfish-4949518_640.jpg",
        "src1280": "https://cdn.pixabay.com/photo/2020/03/20/05/28/jellyfish-4949518_1280.jpg"
    },
    {
        "id": "4572690",
        "src640": "https://cdn.pixabay.com/photo/2019/10/23/19/52/bird-4572690_640.jpg",
        "src1280": "https://cdn.pixabay.com/photo/2019/10/23/19/52/bird-4572690_1280.jpg"
    },
    {
        "id": "4378198",
        "src640": "https://cdn.pixabay.com/photo/2019/08/01/19/58/girl-4378198_640.jpg",
        "src1280": "https://cdn.pixabay.com/photo/2019/08/01/19/58/girl-4378198_1280.jpg"
    },
    {
        "id": "5084116",
        "src640": "https://cdn.pixabay.com/photo/2020/04/23/21/17/sea-5084116_640.jpg",
        "src1280": "https://cdn.pixabay.com/photo/2020/04/23/21/17/sea-5084116_1280.jpg"
    },
    {
        "id": "3417950",
        "src640": "https://cdn.pixabay.com/photo/2018/05/21/10/54/beach-3417950_640.jpg",
        "src1280": "https://cdn.pixabay.com/photo/2018/05/21/10/54/beach-3417950_1280.jpg"
    },
    {
        "id": "50213",
        "src640": "https://cdn.pixabay.com/photo/2012/06/18/17/37/fishing-50213_640.jpg",
        "src1280": "https://cdn.pixabay.com/photo/2012/06/18/17/37/fishing-50213_1280.jpg"
    },
    {
        "id": "6624684",
        "src640": "https://cdn.pixabay.com/photo/2021/09/14/17/53/blue-footed-booby-6624684_640.jpg",
        "src1280": "https://cdn.pixabay.com/photo/2021/09/14/17/53/blue-footed-booby-6624684_1280.jpg"
    },
    {
        "id": "5142023",
        "src640": "https://cdn.pixabay.com/photo/2020/05/07/15/48/oregon-coast-5142023_640.jpg",
        "src1280": "https://cdn.pixabay.com/photo/2020/05/07/15/48/oregon-coast-5142023_1280.jpg"
    },
    {
        "id": "6369968",
        "src640": "https://cdn.pixabay.com/photo/2021/06/27/20/32/ship-6369968_640.jpg",
        "src1280": "https://cdn.pixabay.com/photo/2021/06/27/20/32/ship-6369968_1280.jpg"
    },
    {
        "id": "2586070",
        "src640": "https://cdn.pixabay.com/photo/2017/08/05/22/12/platform-2586070_640.jpg",
        "src1280": "https://cdn.pixabay.com/photo/2017/08/05/22/12/platform-2586070_1280.jpg"
    },
    {
        "id": "1779143",
        "src640": "https://cdn.pixabay.com/photo/2016/10/28/21/49/girl-1779143_640.jpg",
        "src1280": "https://cdn.pixabay.com/photo/2016/10/28/21/49/girl-1779143_1280.jpg"
    },
    {
        "id": "16033",
        "src640": "https://cdn.pixabay.com/photo/2012/02/23/10/40/sunset-16033_640.jpg",
        "src1280": "https://cdn.pixabay.com/photo/2012/02/23/10/40/sunset-16033_1280.jpg"
    },
    {
        "id": "419055",
        "src640": "https://cdn.pixabay.com/photo/2014/08/15/21/59/cave-419055_640.jpg",
        "src1280": "https://cdn.pixabay.com/photo/2014/08/15/21/59/cave-419055_1280.jpg"
    },
    {
        "id": "5160011",
        "src640": "https://cdn.pixabay.com/photo/2020/05/11/19/56/pelican-5160011_640.jpg",
        "src1280": "https://cdn.pixabay.com/photo/2020/05/11/19/56/pelican-5160011_1280.jpg"
    },
    {
        "id": "466486",
        "src640": "https://cdn.pixabay.com/photo/2014/09/29/20/33/hawaii-466486_640.jpg",
        "src1280": "https://cdn.pixabay.com/photo/2014/09/29/20/33/hawaii-466486_1280.jpg"
    },
    {
        "id": "6714058",
        "src640": "https://cdn.pixabay.com/photo/2021/10/16/06/20/sunset-6714058_640.jpg",
        "src1280": "https://cdn.pixabay.com/photo/2021/10/16/06/20/sunset-6714058_1280.jpg"
    },
    {
        "id": "5796483",
        "src640": "https://cdn.pixabay.com/photo/2020/12/02/07/17/lake-5796483_640.jpg",
        "src1280": "https://cdn.pixabay.com/photo/2020/12/02/07/17/lake-5796483_1280.jpg"
    },
    {
        "id": "5133723",
        "src640": "https://cdn.pixabay.com/photo/2020/05/05/16/04/boat-5133723_640.jpg",
        "src1280": "https://cdn.pixabay.com/photo/2020/05/05/16/04/boat-5133723_1280.jpg"
    },
    {
        "id": "4455885",
        "src640": "https://cdn.pixabay.com/photo/2019/09/06/08/28/sea-4455885_640.jpg",
        "src1280": "https://cdn.pixabay.com/photo/2019/09/06/08/28/sea-4455885_1280.jpg"
    },
    {
        "id": "2934609",
        "src640": "https://cdn.pixabay.com/photo/2017/11/09/20/47/faro-2934609_640.jpg",
        "src1280": "https://cdn.pixabay.com/photo/2017/11/09/20/47/faro-2934609_1280.jpg"
    },
    {
        "id": "7925551",
        "src640": "https://cdn.pixabay.com/photo/2023/04/14/16/42/gondola-7925551_640.jpg",
        "src1280": "https://cdn.pixabay.com/photo/2023/04/14/16/42/gondola-7925551_1280.jpg"
    },
    {
        "id": "5830030",
        "src640": "https://cdn.pixabay.com/photo/2020/12/14/05/07/bird-5830030_640.jpg",
        "src1280": "https://cdn.pixabay.com/photo/2020/12/14/05/07/bird-5830030_1280.jpg"
    },
    {
        "id": "4743042",
        "src640": "https://cdn.pixabay.com/photo/2020/01/05/12/21/stones-4743042_640.jpg",
        "src1280": "https://cdn.pixabay.com/photo/2020/01/05/12/21/stones-4743042_1280.jpg"
    },
    {
        "id": "2783445",
        "src640": "https://cdn.pixabay.com/photo/2017/09/24/22/04/zanzibar-2783445_640.jpg",
        "src1280": "https://cdn.pixabay.com/photo/2017/09/24/22/04/zanzibar-2783445_1280.jpg"
    },
    {
        "id": "1844946",
        "src640": "https://cdn.pixabay.com/photo/2016/11/21/12/07/water-1844946_640.jpg",
        "src1280": "https://cdn.pixabay.com/photo/2016/11/21/12/07/water-1844946_1280.jpg"
    },
    {
        "id": "2532336",
        "src640": "https://cdn.pixabay.com/photo/2017/07/23/19/06/feet-2532336_640.jpg",
        "src1280": "https://cdn.pixabay.com/photo/2017/07/23/19/06/feet-2532336_1280.jpg"
    },
    {
        "id": "8417186",
        "src640": "https://cdn.pixabay.com/photo/2023/11/28/10/48/ai-generated-8417186_640.jpg",
        "src1280": "https://cdn.pixabay.com/photo/2023/11/28/10/48/ai-generated-8417186_1280.jpg"
    },
    {
        "id": "5399724",
        "src640": "https://cdn.pixabay.com/photo/2020/07/13/07/13/puffin-5399724_640.jpg",
        "src1280": "https://cdn.pixabay.com/photo/2020/07/13/07/13/puffin-5399724_1280.jpg"
    }
]