[
    {
        "id": "1850221",
        "src640": "https://cdn.pixabay.com/photo/2016/11/22/19/32/adult-1850221_640.jpg",
        "src1280": "https://cdn.pixabay.com/photo/2016/11/22/19/32/adult-1850221_1280.jpg"
    },
    {
        "id": "4308581",
        "src640": "https://cdn.pixabay.com/photo/2019/06/30/18/53/guitar-4308581_640.jpg",
        "src1280": "https://cdn.pixabay.com/photo/2019/06/30/18/53/guitar-4308581_1280.jpg"
    },
    {
        "id": "6006756",
        "src640": "https://cdn.pixabay.com/photo/2021/02/11/23/38/island-6006756_640.jpg",
        "src1280": "https://cdn.pixabay.com/photo/2021/02/11/23/38/island-6006756_1280.jpg"
    },
    {
        "id": "729567",
        "src640": "https://cdn.pixabay.com/photo/2015/04/19/09/13/goal-729567_640.jpg",
        "src1280": "https://cdn.pixabay.com/photo/2015/04/19/09/13/goal-729567_1280.jpg"
    },
    {
        "id": "3577302",
        "src640": "https://cdn.pixabay.com/photo/2018/08/01/14/32/cockspur-lighthouse-3577302_640.jpg",
        "src1280": "https://cdn.pixabay.com/photo/2018/08/01/14/32/cockspur-lighthouse-3577302_1280.jpg"
    },
    {
        "id": "7446905",
        "src640": "https://cdn.pixabay.com/photo/2022/09/11/14/43/whale-7446905_640.jpg",
        "src1280": "https://cdn.pixabay.com/photo/2022/09/11/14/43/whale-7446905_1280.jpg"
    },
    {
        "id": "2592454",
        "src640": "https://cdn.pixabay.com/photo/2017/08/06/13/20/beach-2592454_640.jpg",
        "src1280": "https://cdn.pixabay.com/photo/2017/08/06/13/20/beach-2592454_1280.jpg"
    },
    {
        "id": "1861783",
        "src640": "https://cdn.pixabay.com/photo/2016/11/26/22/58/sailing-vessel-1861783_640.jpg",
        "src1280": "https://cdn.pixabay.com/photo/2016/11/26/22/58/sailing-vessel-1861783_1280.jpg"
    },
    {
        "id": "2700424",
        "src640": "https://cdn.pixabay.com/photo/2017/08/31/11/39/australia-2700424_640.jpg",
        "src1280": "https://cdn.pixabay.com/photo/2017/08/31/11/39/australia-2700424_1280.jpg"
    },
    {
        "id": "84538",
        "src640": "https://cdn.pixabay.com/photo/2013/02/21/19/07/coconut-84538_640.jpg",
        "src1280": "https://cdn.pixabay.com/photo/2013/02/21/19/07/coconut-84538_1280.jpg"
    }
]