[
    {
        "id": "4384490",
        "src640": "https://cdn.pixabay.com/photo/2019/08/04/19/06/water-4384490_640.jpg",
        "src1280": "https://cdn.pixabay.com/photo/2019/08/04/19/06/water-4384490_1280.jpg"
    },
    {
        "id": "5003862",
        "src640": "https://cdn.pixabay.com/photo/2020/04/04/21/04/bridge-5003862_640.jpg",
        "src1280": "https://cdn.pixabay.com/photo/2020/04/04/21/04/bridge-5003862_1280.jpg"
    },
    {
        "id": "8300908",
        "src640": "https://cdn.pixabay.com/photo/2023/10/07/21/00/ai-generated-8300908_640.jpg",
        "src1280": "https://cdn.pixabay.com/photo/2023/10/07/21/00/ai-generated-8300908_1280.jpg"
    },
    {
        "id": "4958487",
        "src640": "https://cdn.pixabay.com/photo/2020/03/22/20/37/swimming-4958487_640.jpg",
        "src1280": "https://cdn.pixabay.com/photo/2020/03/22/20/37/swimming-4958487_1280.jpg"
    },
    {
        "id": "5572886",
        "src640": "https://cdn.pixabay.com/photo/2020/09/15/07/07/sunset-5572886_640.jpg",
        "src1280": "https://cdn.pixabay.com/photo/2020/09/15/07/07/sunset-5572886_1280.jpg"
    },
    {
        "id": "4975861",
        "src640": "https://cdn.pixabay.com/photo/2020/03/28/06/41/kobe-4975861_640.jpg",
        "src1280": "https://cdn.pixabay.com/photo/2020/03/28/06/41/kobe-4975861_1280.jpg"
    },
    {
        "id": "4672478",
        "src640": "https://cdn.pixabay.com/photo/2019/12/04/11/36/beach-4672478_640.jpg",
        "src1280": "https://cdn.pixabay.com/photo/2019/12/04/11/36/beach-4672478_1280.jpg"
    },
    {
        "id": "3297966",
        "src640": "https://cdn.pixabay.com/photo/2018/04/07/08/18/nature-3297966_640.jpg",
        "src1280": "https://cdn.pixabay.com/photo/2018/04/07/08/18/nature-3297966_1280.jpg"
    },
    {
        "id": "4754787",
        "src640": "https://cdn.pixabay.com/photo/2020/01/10/08/38/island-4754787_640.jpg",
        "src1280": "https://cdn.pixabay.com/photo/2020/01/10/08/38/island-4754787_1280.jpg"
    },
    {
        "id": "4803887",
        "src640": "https://cdn.pixabay.com/photo/2020/01/29/22/04/china-wind-4803887_640.jpg",
        "src1280": "https://cdn.pixabay.com/photo/2020/01/29/22/04/china-wind-4803887_1280.jpg"
    },
    {
        "id": "5154797",
        "src640": "https://cdn.pixabay.com/photo/2020/05/10/16/54/sea-5154797_640.jpg",
        "src1280": "https://cdn.pixabay.com/photo/2020/05/10/16/54/sea-5154797_1280.jpg"
    },
    {
        "id": "4533742",
        "src640": "https://cdn.pixabay.com/photo/2019/10/07/21/18/beach-4533742_640.jpg",
        "src1280": "https://cdn.pixabay.com/photo/2019/10/07/21/18/beach-4533742_1280.jpg"
    },
    {
        "id": "748232",
        "src640": "https://cdn.pixabay.com/photo/2015/05/01/10/36/sea-748232_640.jpg",
        "src1280": "https://cdn.pixabay.com/photo/2015/05/01/10/36/sea-748232_1280.jpg"
    },
    {
        "id": "4347342",
        "src640": "https://cdn.pixabay.com/photo/2019/07/18/20/14/girl-4347342_640.jpg",
        "src1280": "https://cdn.pixabay.com/photo/2019/07/18/20/14/girl-4347342_1280.jpg"
    },
    {
        "id": "792038",
        "src640": "https://cdn.pixabay.com/photo/2015/05/31/14/55/airplane-792038_640.jpg",
        "src1280": "https://cdn.pixabay.com/photo/2015/05/31/14/55/airplane-792038_1280.jpg"
    },
    {
        "id": "186272",
        "src640": "https://cdn.pixabay.com/photo/2013/09/25/14/35/water-spout-186272_640.jpg",
        "src1280": "https://cdn.pixabay.com/photo/2013/09/25/14/35/water-spout-186272_1280.jpg"
    },
    {
        "id": "8030219",
        "src640": "https://cdn.pixabay.com/photo/2023/05/30/23/58/nature-8030219_640.jpg",
        "src1280": "https://cdn.pixabay.com/photo/2023/05/30/23/58/nature-8030219_1280.jpg"
    },
    {
        "id": "3808036",
        "src640": "https://cdn.pixabay.com/photo/2018/11/11/04/40/background-image-3808036_640.jpg",
        "src1280": "https://cdn.pixabay.com/photo/2018/11/11/04/40/background-image-3808036_1280.jpg"
    },
    {
        "id": "7865068",
        "src640": "https://cdn.pixabay.com/photo/2023/03/20/15/06/dawn-7865068_640.jpg",
        "src1280": "https://cdn.pixabay.com/photo/2023/03/20/15/06/dawn-7865068_1280.jpg"
    },
    {
        "id": "1680757",
        "src640": "https://cdn.pixabay.com/photo/2016/09/19/17/07/shell-1680757_640.jpg",
        "src1280": "https://cdn.pixabay.com/photo/2016/09/19/17/07/shell-1680757_1280.jpg"
    },
    {
        "id": "4411983",
        "src640": "https://cdn.pixabay.com/photo/2019/08/17/11/28/vietnam-4411983_640.jpg",
        "src1280": "https://cdn.pixabay.com/photo/2019/08/17/11/28/vietnam-4411983_1280.jpg"
    },
    {
        "id": "7392813",
        "src640": "https://cdn.pixabay.com/photo/2022/08/17/15/40/beach-7392813_640.jpg",
        "src1280": "https://cdn.pixabay.com/photo/2022/08/17/15/40/beach-7392813_1280.jpg"
    },
    {
        "id": "772374",
        "src640": "https://cdn.pixabay.com/photo/2015/05/18/15/23/sea-772374_640.jpg",
        "src1280": "https://cdn.pixabay.com/photo/2015/05/18/15/23/sea-772374_1280.jpg"
    },
    {
        "id": "2722",
        "src640": "https://cdn.pixabay.com/photo/2010/12/13/10/22/animal-2722_640.jpg",
        "src1280": "https://cdn.pixabay.com/photo/2010/12/13/10/22/animal-2722_1280.jpg"
    },
    {
        "id": "2632557",
        "src640": "https://cdn.pixabay.com/photo/2017/08/11/19/55/sunset-2632557_640.jpg",
        "src1280": "https://cdn.pixabay.com/photo/2017/08/11/19/55/sunset-2632557_1280.jpg"
    },
    {
        "id": "2411753",
        "src640": "https://cdn.pixabay.com/photo/2017/06/17/10/16/beach-2411753_640.jpg",
        "src1280": "https://cdn.pixabay.com/photo/2017/06/17/10/16/beach-2411753_1280.jpg"
    },
    {
        "id": "5337663",
        "src640": "https://cdn.pixabay.com/photo/2020/06/24/20/50/france-5337663_640.jpg",
        "src1280": "https://cdn.pixabay.com/photo/2020/06/24/20/50/france-5337663_1280.jpg"
    },
    {
        "id": "4848734",
        "src640": "https://cdn.pixabay.com/photo/2020/02/14/16/01/mallorca-4848734_640.jpg",
        "src1280": "https://cdn.pixabay.com/photo/2020/02/14/16/01/mallorca-4848734_1280.jpg"
    },
    {
        "id": "189377",
        "src640": "https://cdn.pixabay.com/photo/2013/10/01/19/59/st-tropez-189377_640.jpg",
        "src1280": "https://cdn.pixabay.com/photo/2013/10/01/19/59/st-tropez-189377_1280.jpg"
    },
    {
        "id": "7112118",
        "src640": "https://cdn.pixabay.com/photo/2022/04/04/18/37/sunset-7112118_640.jpg",
        "src1280": "https://cdn.pixabay.com/photo/2022/04/04/18/37/sunset-7112118_1280.jpg"
    },
    {
        "id": "4708245",
        "src640": "https://cdn.pixabay.com/photo/2019/12/20/11/17/sea-4708245_640.jpg",
        "src1280": "https://cdn.pixabay.com/photo/2019/12/20/11/17/sea-4708245_1280.jpg"
    },
    {
        "id": "6686391",
        "src640": "https://cdn.pixabay.com/photo/2021/10/06/18/06/cutter-6686391_640.jpg",
        "src1280": "https://cdn.pixabay.com/photo/2021/10/06/18/06/cutter-6686391_1280.jpg"
    },
    {
        "id": "84553",
        "src640": "https://cdn.pixabay.com/photo/2013/02/21/19/07/mother-84553_640.jpg",
        "src1280": "https://cdn.pixabay.com/photo/2013/02/21/19/07/mother-84553_1280.jpg"
    },
    {
        "id": "3957023",
        "src640": "https://cdn.pixabay.com/photo/2019/01/26/21/35/port-3957023_640.jpg",
        "src1280": "https://cdn.pixabay.com/photo/2019/01/26/21/35/port-3957023_1280.jpg"
    },
    {
        "id": "5497415",
        "src640": "https://cdn.pixabay.com/photo/2020/08/18/07/40/sunset-5497415_640.jpg",
        "src1280": "https://cdn.pixabay.com/photo/2020/08/18/07/40/sunset-5497415_1280.jpg"
    },
    {
        "id": "5526664",
        "src640": "https://cdn.pixabay.com/photo/2020/08/29/10/11/woman-5526664_640.jpg",
        "src1280": "https://cdn.pixabay.com/photo/2020/08/29/10/11/woman-5526664_1280.jpg"
    },
    {
        "id": "6711495",
        "src640": "https://cdn.pixabay.com/photo/2021/10/15/09/25/sailing-6711495_640.jpg",
        "src1280": "https://cdn.pixabay.com/photo/2021/10/15/09/25/sailing-6711495_1280.jpg"
    },
    {
        "id": "5063198",
        "src640": "https://cdn.pixabay.com/photo/2020/04/19/11/23/sunrise-5063198_640.jpg",
        "src1280": "https://cdn.pixabay.com/photo/2020/04/19/11/23/sunrise-5063198_1280.jpg"
    },
    {
        "id": "4730203",
        "src640": "https://cdn.pixabay.com/photo/2019/12/30/17/57/sea-4730203_640.jpg",
        "src1280": "https://cdn.pixabay.com/photo/2019/12/30/17/57/sea-4730203_1280.jpg"
    },
    {
        "id": "5561561",
        "src640": "https://cdn.pixabay.com/photo/2020/09/10/22/01/lighthouse-5561561_640.jpg",
        "src1280": "https://cdn.pixabay.com/photo/2020/09/10/22/01/lighthouse-5561561_1280.jpg"
    },
    {
        "id": "5459232",
        "src640": "https://cdn.pixabay.com/photo/2020/08/03/05/52/sun-5459232_640.jpg",
        "src1280": "https://cdn.pixabay.com/photo/2020/08/03/05/52/sun-5459232_1280.jpg"
    },
    {
        "id": "5386624",
        "src640": "https://cdn.pixabay.com/photo/2020/07/09/09/48/lighthouse-5386624_640.jpg",
        "src1280": "https://cdn.pixabay.com/photo/2020/07/09/09/48/lighthouse-5386624_1280.jpg"
    },
    {
        "id": "2739304",
        "src640": "https://cdn.pixabay.com/photo/2017/09/11/15/12/arab-2739304_640.jpg",
        "src1280": "https://cdn.pixabay.com/photo/2017/09/11/15/12/arab-2739304_1280.jpg"
    },
    {
        "id": "1778626",
        "src640": "https://cdn.pixabay.com/photo/2016/10/28/17/07/temple-1778626_640.jpg",
        "src1280": "https://cdn.pixabay.com/photo/2016/10/28/17/07/temple-1778626_1280.jpg"
    },
    {
        "id": "7561908",
        "src640": "https://cdn.pixabay.com/photo/2022/11/01/10/37/jellyfish-7561908_640.jpg",
        "src1280": "https://cdn.pixabay.com/photo/2022/11/01/10/37/jellyfish-7561908_1280.jpg"
    },
    {
        "id": "4066032",
        "src640": "https://cdn.pixabay.com/photo/2019/03/19/15/50/seagull-4066032_640.jpg",
        "src1280": "https://cdn.pixabay.com/photo/2019/03/19/15/50/seagull-4066032_1280.jpg"
    },
    {
        "id": "1086209",
        "src640": "https://cdn.pixabay.com/photo/2015/12/10/11/19/sunset-1086209_640.jpg",
        "src1280": "https://cdn.pixabay.com/photo/2015/12/10/11/19/sunset-1086209_1280.jpg"
    },
    {
        "id": "5912709",
        "src640": "https://cdn.pixabay.com/photo/2021/01/12/21/18/sunset-5912709_640.jpg",
        "src1280": "https://cdn.pixabay.com/photo/2021/01/12/21/18/sunset-5912709_1280.jpg"
    },
    {
        "id": "4684975",
        "src640": "https://cdn.pixabay.com/photo/2019/12/10/05/16/san-francisco-4684975_640.jpg",
        "src1280": "https://cdn.pixabay.com/photo/2019/12/10/05/16/san-francisco-4684975_1280.jpg"
    },
    {
        "id": "5518186",
        "src640": "https://cdn.pixabay.com/photo/2020/08/25/22/57/dog-5518186_640.jpg",
        "src1280": "https://cdn.pixabay.com/photo/2020/08/25/22/57/dog-5518186_1280.jpg"
    },
    {
        "id": "4777640",
        "src640": "https://cdn.pixabay.com/photo/2020/01/19/12/47/chile-4777640_640.jpg",
        "src1280": "https://cdn.pixabay.com/photo/2020/01/19/12/47/chile-4777640_1280.jpg"
    },
    {
        "id": "5545882",
        "src640": "https://cdn.pixabay.com/photo/2020/09/05/07/58/lighthouse-5545882_640.jpg",
        "src1280": "https://cdn.pixabay.com/photo/2020/09/05/07/58/lighthouse-5545882_1280.jpg"
    },
    {
        "id": "4695483",
        "src640": "https://cdn.pixabay.com/photo/2019/12/14/18/28/sunrise-4695483_640.jpg",
        "src1280": "https://cdn.pixabay.com/photo/2019/12/14/18/28/sunrise-4695483_1280.jpg"
    },
    {
        "id": "3166752",
        "src640": "https://cdn.pixabay.com/photo/2018/02/20/02/45/people-3166752_640.jpg",
        "src1280": "https://cdn.pixabay.com/photo/2018/02/20/02/45/people-3166752_1280.jpg"
    },
    {
        "id": "4788541",
        "src640": "https://cdn.pixabay.com/photo/2020/01/23/19/11/helgeroa-4788541_640.jpg",
        "src1280": "https://cdn.pixabay.com/photo/2020/01/23/19/11/helgeroa-4788541_1280.jpg"
    },
    {
        "id": "4817124",
        "src640": "https://cdn.pixabay.com/photo/2020/02/04/01/55/sunset-4817124_640.jpg",
        "src1280": "https://cdn.pixabay.com/photo/2020/02/04/01/55/sunset-4817124_1280.jpg"
    },
    {
        "id": "5366331",
        "src640": "https://cdn.pixabay.com/photo/2020/07/03/13/38/sunset-5366331_640.jpg",
        "src1280": "https://cdn.pixabay.com/photo/2020/07/03/13/38/sunset-5366331_1280.jpg"
    },
    {
        "id": "4002544",
        "src640": "https://cdn.pixabay.com/photo/2019/02/17/16/17/hermit-crab-4002544_640.jpg",
        "src1280": "https://cdn.pixabay.com/photo/2019/02/17/16/17/hermit-crab-4002544_1280.jpg"
    },
    {
        "id": "5387145",
        "src640": "https://cdn.pixabay.com/photo/2020/07/09/12/36/lombok-5387145_640.jpg",
        "src1280": "https://cdn.pixabay.com/photo/2020/07/09/12/36/lombok-5387145_1280.jpg"
    },
    {
        "id": "4464297",
        "src640": "https://cdn.pixabay.com/photo/2019/09/09/18/15/hornum-4464297_640.jpg",
        "src1280": "https://cdn.pixabay.com/photo/2019/09/09/18/15/hornum-4464297_1280.jpg"
    },
    {
        "id": "1416888",
        "src640": "https://cdn.pixabay.com/photo/2016/05/26/11/02/champagne-1416888_640.jpg",
        "src1280": "https://cdn.pixabay.com/photo/2016/05/26/11/02/champagne-1416888_1280.jpg"
    },
    {
        "id": "4672421",
        "src640": "https://cdn.pixabay.com/photo/2019/12/04/11/09/figure-4672421_640.jpg",
        "src1280": "https://cdn.pixabay.com/photo/2019/12/04/11/09/figure-4672421_1280.jpg"
    },
    {
        "id": "5353286",
        "src640": "https://cdn.pixabay.com/photo/2020/06/29/16/33/beach-5353286_640.jpg",
        "src1280": "https://cdn.pixabay.com/photo/2020/06/29/16/33/beach-5353286_1280.jpg"
    },
    {
        "id": "3519147",
        "src640": "https://cdn.pixabay.com/photo/2018/07/05/20/41/clouds-3519147_640.jpg",
        "src1280": "https://cdn.pixabay.com/photo/2018/07/05/20/41/clouds-3519147_1280.jpg"
    },
    {
        "id": "4538158",
        "src640": "https://cdn.pixabay.com/photo/2019/10/09/20/18/etretat-4538158_640.jpg",
        "src1280": "https://cdn.pixabay.com/photo/2019/10/09/20/18/etretat-4538158_1280.jpg"
    },
    {
        "id": "5178321",
        "src640": "https://cdn.pixabay.com/photo/2020/05/16/17/03/lighthouse-5178321_640.jpg",
        "src1280": "https://cdn.pixabay.com/photo/2020/05/16/17/03/lighthouse-5178321_1280.jpg"
    },
    {
        "id": "2588312",
        "src640": "https://cdn.pixabay.com/photo/2017/08/06/03/27/pineapple-2588312_640.jpg",
        "src1280": "https://cdn.pixabay.com/photo/2017/08/06/03/27/pineapple-2588312_1280.jpg"
    },
    {
        "id": "4870760",
        "src640": "https://cdn.pixabay.com/photo/2020/02/22/15/08/sea-4870760_640.jpg",
        "src1280": "https://cdn.pixabay.com/photo/2020/02/22/15/08/sea-4870760_1280.jpg"
    },
    {
        "id": "5366577",
        "src640": "https://cdn.pixabay.com/photo/2020/07/03/14/42/dog-5366577_640.jpg",
        "src1280": "https://cdn.pixabay.com/photo/2020/07/03/14/42/dog-5366577_1280.jpg"
    },
    {
        "id": "6310112",
        "src640": "https://cdn.pixabay.com/photo/2021/06/04/15/10/sand-6310112_640.jpg",
        "src1280": "https://cdn.pixabay.com/photo/2021/06/04/15/10/sand-6310112_1280.jpg"
    },
    {
        "id": "7097452",
        "src640": "https://cdn.pixabay.com/photo/2022/03/28/13/04/moon-7097452_640.jpg",
        "src1280": "https://cdn.pixabay.com/photo/2022/03/28/13/04/moon-7097452_1280.jpg"
    },
    {
        "id": "5260860",
        "src640": "https://cdn.pixabay.com/photo/2020/06/04/23/33/beach-5260860_640.jpg",
        "src1280": "https://cdn.pixabay.com/photo/2020/06/04/23/33/beach-5260860_1280.jpg"
    },
    {
        "id": "4819274",
        "src640": "https://cdn.pixabay.com/photo/2020/02/04/20/44/dubrovnik-4819274_640.jpg",
        "src1280": "https://cdn.pixabay.com/photo/2020/02/04/20/44/dubrovnik-4819274_1280.jpg"
    },
    {
        "id": "5110902",
        "src640": "https://cdn.pixabay.com/photo/2020/04/29/23/33/sailboat-5110902_640.jpg",
        "src1280": "https://cdn.pixabay.com/photo/2020/04/29/23/33/sailboat-5110902_1280.jpg"
    },
    {
        "id": "4545881",
        "src640": "https://cdn.pixabay.com/photo/2019/10/13/11/48/phone-4545881_640.jpg",
        "src1280": "https://cdn.pixabay.com/photo/2019/10/13/11/48/phone-4545881_1280.jpg"
    },
    {
        "id": "5672135",
        "src640": "https://cdn.pixabay.com/photo/2020/10/21/05/42/beach-5672135_640.jpg",
        "src1280": "https://cdn.pixabay.com/photo/2020/10/21/05/42/beach-5672135_1280.jpg"
    },
    {
        "id": "1220071",
        "src640": "https://cdn.pixabay.com/photo/2016/02/24/15/20/landscape-1220071_640.jpg",
        "src1280": "https://cdn.pixabay.com/photo/2016/02/24/15/20/landscape-1220071_1280.jpg"
    },
    {
        "id": "5282720",
        "src640": "https://cdn.pixabay.com/photo/2020/06/10/13/31/sunset-5282720_640.jpg",
        "src1280": "https://cdn.pixabay.com/photo/2020/06/10/13/31/sunset-5282720_1280.jpg"
    },
    {
        "id": "248657",
        "src640": "https://cdn.pixabay.com/photo/2014/01/20/16/04/beach-248657_640.jpg",
        "src1280": "https://cdn.pixabay.com/photo/2014/01/20/16/04/beach-248657_1280.jpg"
    },
    {
        "id": "5038411",
        "src640": "https://cdn.pixabay.com/photo/2020/04/13/13/36/beach-5038411_640.jpg",
        "src1280": "https://cdn.pixabay.com/photo/2020/04/13/13/36/beach-5038411_1280.jpg"
    },
    {
        "id": "7823579",
        "src640": "https://cdn.pixabay.com/photo/2023/03/01/17/13/sunrise-7823579_640.jpg",
        "src1280": "https://cdn.pixabay.com/photo/2023/03/01/17/13/sunrise-7823579_1280.jpg"
    },
    {
        "id": "4946252",
        "src640": "https://cdn.pixabay.com/photo/2020/03/19/04/32/landscape-4946252_640.jpg",
        "src1280": "https://cdn.pixabay.com/photo/2020/03/19/04/32/landscape-4946252_1280.jpg"
    },
    {
        "id": "4397369",
        "src640": "https://cdn.pixabay.com/photo/2019/08/10/17/30/paragliding-4397369_640.jpg",
        "src1280": "https://cdn.pixabay.com/photo/2019/08/10/17/30/paragliding-4397369_1280.jpg"
    },
    {
        "id": "4882198",
        "src640": "https://cdn.pixabay.com/photo/2020/02/26/16/25/sunset-4882198_640.jpg",
        "src1280": "https://cdn.pixabay.com/photo/2020/02/26/16/25/sunset-4882198_1280.jpg"
    },
    {
        "id": "2604754",
        "src640": "https://cdn.pixabay.com/photo/2017/08/07/15/06/sea-2604754_640.jpg",
        "src1280": "https://cdn.pixabay.com/photo/2017/08/07/15/06/sea-2604754_1280.jpg"
    },
    {
        "id": "7506781",
        "src640": "https://cdn.pixabay.com/photo/2022/10/08/11/36/crete-7506781_640.jpg",
        "src1280": "https://cdn.pixabay.com/photo/2022/10/08/11/36/crete-7506781_1280.jpg"
    },
    {
        "id": "3470191",
        "src640": "https://cdn.pixabay.com/photo/2018/06/12/09/34/sunset-3470191_640.jpg",
        "src1280": "https://cdn.pixabay.com/photo/2018/06/12/09/34/sunset-3470191_1280.jpg"
    },
    {
        "id": "4984755",
        "src640": "https://cdn.pixabay.com/photo/2020/03/30/16/30/blessing-4984755_640.jpg",
        "src1280": "https://cdn.pixabay.com/photo/2020/03/30/16/30/blessing-4984755_1280.jpg"
    },
    {
        "id": "4042645",
        "src640": "https://cdn.pixabay.com/photo/2019/03/08/16/13/baltic-sea-4042645_640.jpg",
        "src1280": "https://cdn.pixabay.com/photo/2019/03/08/16/13/baltic-sea-4042645_1280.jpg"
    }
]