[
    {
        "id": "4534667",
        "src640": "https://cdn.pixabay.com/photo/2019/10/08/10/48/ocean-4534667_640.jpg",
        "src1280": "https://cdn.pixabay.com/photo/2019/10/08/10/48/ocean-4534667_1280.jpg"
    },
    {
        "id": "5320255",
        "src640": "https://cdn.pixabay.com/photo/2020/06/20/09/23/evening-5320255_640.jpg",
        "src1280": "https://cdn.pixabay.com/photo/2020/06/20/09/23/evening-5320255_1280.jpg"
    },
    {
        "id": "4263711",
        "src640": "https://cdn.pixabay.com/photo/2019/06/10/08/21/wedding-4263711_640.jpg",
        "src1280": "https://cdn.pixabay.com/photo/2019/06/10/08/21/wedding-4263711_1280.jpg"
    },
    {
        "id": "6325718",
        "src640": "https://cdn.pixabay.com/photo/2021/06/10/10/59/pelican-6325718_640.jpg",
        "src1280": "https://cdn.pixabay.com/photo/2021/06/10/10/59/pelican-6325718_1280.jpg"
    },
    {
        "id": "3196918",
        "src640": "https://cdn.pixabay.com/photo/2018/03/03/23/36/summer-3196918_640.jpg",
        "src1280": "https://cdn.pixabay.com/photo/2018/03/03/23/36/summer-3196918_1280.jpg"
    },
    {
        "id": "4135798",
        "src640": "https://cdn.pixabay.com/photo/2019/04/18/00/10/boat-4135798_640.jpg",
        "src1280": "https://cdn.pixabay.com/photo/2019/04/18/00/10/boat-4135798_1280.jpg"
    },
    {
        "id": "730367",
        "src640": "https://cdn.pixabay.com/photo/2015/04/19/21/54/sunset-730367_640.jpg",
        "src1280": "https://cdn.pixabay.com/photo/2015/04/19/21/54/sunset-730367_1280.jpg"
    },
    {
        "id": "7853251",
        "src640": "https://cdn.pixabay.com/photo/2023/03/14/22/06/waves-7853251_640.jpg",
        "src1280": "https://cdn.pixabay.com/photo/2023/03/14/22/06/waves-7853251_1280.jpg"
    },
    {
        "id": "2212566",
        "src640": "https://cdn.pixabay.com/photo/2017/04/08/06/36/dawn-2212566_640.jpg",
        "src1280": "https://cdn.pixabay.com/photo/2017/04/08/06/36/dawn-2212566_1280.jpg"
    },
    {
        "id": "4254395",
        "src640": "https://cdn.pixabay.com/photo/2019/06/05/19/40/bird-4254395_640.jpg",
        "src1280": "https://cdn.pixabay.com/photo/2019/06/05/19/40/bird-4254395_1280.jpg"
    },
    {
        "id": "7747113",
        "src640": "https://cdn.pixabay.com/photo/2023/01/26/22/10/ai-generated-7747113_640.jpg",
        "src1280": "https://cdn.pixabay.com/photo/2023/01/26/22/10/ai-generated-7747113_1280.jpg"
    },
    {
        "id": "6747064",
        "src640": "https://cdn.pixabay.com/photo/2021/10/27/11/33/art-6747064_640.jpg",
        "src1280": "https://cdn.pixabay.com/photo/2021/10/27/11/33/art-6747064_1280.jpg"
    },
    {
        "id": "2594890",
        "src640": "https://cdn.pixabay.com/photo/2017/08/06/18/23/sea-2594890_640.jpg",
        "src1280": "https://cdn.pixabay.com/photo/2017/08/06/18/23/sea-2594890_1280.jpg"
    },
    {
        "id": "2602817",
        "src640": "https://cdn.pixabay.com/photo/2017/08/07/11/24/rock-2602817_640.jpg",
        "src1280": "https://cdn.pixabay.com/photo/2017/08/07/11/24/rock-2602817_1280.jpg"
    },
    {
        "id": "5549505",
        "src640": "https://cdn.pixabay.com/photo/2020/09/06/16/56/seagull-5549505_640.jpg",
        "src1280": "https://cdn.pixabay.com/photo/2020/09/06/16/56/seagull-5549505_1280.jpg"
    },
    {
        "id": "4682896",
        "src640": "https://cdn.pixabay.com/photo/2019/12/09/07/40/koh-panji-4682896_640.jpg",
        "src1280": "https://cdn.pixabay.com/photo/2019/12/09/07/40/koh-panji-4682896_1280.jpg"
    },
    {
        "id": "7439691",
        "src640": "https://cdn.pixabay.com/photo/2022/09/07/22/37/beach-7439691_640.jpg",
        "src1280": "https://cdn.pixabay.com/photo/2022/09/07/22/37/beach-7439691_1280.jpg"
    },
    {
        "id": "7406484",
        "src640": "https://cdn.pixabay.com/photo/2022/08/23/20/45/sea-lilac-7406484_640.jpg",
        "src1280": "https://cdn.pixabay.com/photo/2022/08/23/20/45/sea-lilac-7406484_1280.jpg"
    },
    {
        "id": "1626941",
        "src640": "https://cdn.pixabay.com/photo/2016/08/28/21/31/gull-1626941_640.jpg",
        "src1280": "https://cdn.pixabay.com/photo/2016/08/28/21/31/gull-1626941_1280.jpg"
    },
    {
        "id": "2453",
        "src640": "https://cdn.pixabay.com/photo/2010/12/13/10/11/ocean-2453_640.jpg",
        "src1280": "https://cdn.pixabay.com/photo/2010/12/13/10/11/ocean-2453_1280.jpg"
    },
    {
        "id": "1971027",
        "src640": "https://cdn.pixabay.com/photo/2017/01/11/07/28/sunset-1971027_640.jpg",
        "src1280": "https://cdn.pixabay.com/photo/2017/01/11/07/28/sunset-1971027_1280.jpg"
    },
    {
        "id": "6780362",
        "src640": "https://cdn.pixabay.com/photo/2021/11/08/23/30/outdoors-6780362_640.jpg",
        "src1280": "https://cdn.pixabay.com/photo/2021/11/08/23/30/outdoors-6780362_1280.jpg"
    },
    {
        "id": "2412022",
        "src640": "https://cdn.pixabay.com/photo/2017/06/17/12/12/sauzon-2412022_640.jpg",
        "src1280": "https://cdn.pixabay.com/photo/2017/06/17/12/12/sauzon-2412022_1280.jpg"
    },
    {
        "id": "3270031",
        "src640": "https://cdn.pixabay.com/photo/2018/03/28/18/04/portugal-3270031_640.jpg",
        "src1280": "https://cdn.pixabay.com/photo/2018/03/28/18/04/portugal-3270031_1280.jpg"
    },
    {
        "id": "549818",
        "src640": "https://cdn.pixabay.com/photo/2014/11/29/11/50/beach-549818_640.jpg",
        "src1280": "https://cdn.pixabay.com/photo/2014/11/29/11/50/beach-549818_1280.jpg"
    },
    {
        "id": "4263789",
        "src640": "https://cdn.pixabay.com/photo/2019/06/10/09/45/boat-4263789_640.jpg",
        "src1280": "https://cdn.pixabay.com/photo/2019/06/10/09/45/boat-4263789_1280.jpg"
    },
    {
        "id": "3622358",
        "src640": "https://cdn.pixabay.com/photo/2018/08/21/22/41/beach-3622358_640.jpg",
        "src1280": "https://cdn.pixabay.com/photo/2018/08/21/22/41/beach-3622358_1280.jpg"
    },
    {
        "id": "7539792",
        "src640": "https://cdn.pixabay.com/photo/2022/10/22/18/00/sea-7539792_640.jpg",
        "src1280": "https://cdn.pixabay.com/photo/2022/10/22/18/00/sea-7539792_1280.jpg"
    },
    {
        "id": "3115922",
        "src640": "https://cdn.pixabay.com/photo/2018/01/29/11/38/composing-3115922_640.jpg",
        "src1280": "https://cdn.pixabay.com/photo/2018/01/29/11/38/composing-3115922_1280.jpg"
    },
    {
        "id": "191071",
        "src640": "https://cdn.pixabay.com/photo/2013/10/05/16/47/sanibel-191071_640.jpg",
        "src1280": "https://cdn.pixabay.com/photo/2013/10/05/16/47/sanibel-191071_1280.jpg"
    },
    {
        "id": "2786697",
        "src640": "https://cdn.pixabay.com/photo/2017/09/25/20/46/surf-2786697_640.jpg",
        "src1280": "https://cdn.pixabay.com/photo/2017/09/25/20/46/surf-2786697_1280.jpg"
    },
    {
        "id": "2687463",
        "src640": "https://cdn.pixabay.com/photo/2017/08/27/20/52/sea-2687463_640.jpg",
        "src1280": "https://cdn.pixabay.com/photo/2017/08/27/20/52/sea-2687463_1280.jpg"
    },
    {
        "id": "1239273",
        "src640": "https://cdn.pixabay.com/photo/2016/03/05/22/24/asian-1239273_640.jpg",
        "src1280": "https://cdn.pixabay.com/photo/2016/03/05/22/24/asian-1239273_1280.jpg"
    },
    {
        "id": "1197296",
        "src640": "https://cdn.pixabay.com/photo/2016/02/13/03/50/cinque-terre-1197296_640.jpg",
        "src1280": "https://cdn.pixabay.com/photo/2016/02/13/03/50/cinque-terre-1197296_1280.jpg"
    },
    {
        "id": "4053643",
        "src640": "https://cdn.pixabay.com/photo/2019/03/13/19/59/lighthouse-4053643_640.jpg",
        "src1280": "https://cdn.pixabay.com/photo/2019/03/13/19/59/lighthouse-4053643_1280.jpg"
    },
    {
        "id": "5773049",
        "src640": "https://cdn.pixabay.com/photo/2020/11/24/15/46/sunset-5773049_640.jpg",
        "src1280": "https://cdn.pixabay.com/photo/2020/11/24/15/46/sunset-5773049_1280.jpg"
    },
    {
        "id": "931611",
        "src640": "https://cdn.pixabay.com/photo/2015/09/09/14/41/mural-931611_640.jpg",
        "src1280": "https://cdn.pixabay.com/photo/2015/09/09/14/41/mural-931611_1280.jpg"
    },
    {
        "id": "8247203",
        "src640": "https://cdn.pixabay.com/photo/2023/09/11/16/13/ai-generated-8247203_640.jpg",
        "src1280": "https://cdn.pixabay.com/photo/2023/09/11/16/13/ai-generated-8247203_1280.jpg"
    },
    {
        "id": "6691495",
        "src640": "https://cdn.pixabay.com/photo/2021/10/08/14/11/dinghy-6691495_640.jpg",
        "src1280": "https://cdn.pixabay.com/photo/2021/10/08/14/11/dinghy-6691495_1280.jpg"
    },
    {
        "id": "4958787",
        "src640": "https://cdn.pixabay.com/photo/2020/03/22/22/52/magical-4958787_640.jpg",
        "src1280": "https://cdn.pixabay.com/photo/2020/03/22/22/52/magical-4958787_1280.jpg"
    },
    {
        "id": "5456459",
        "src640": "https://cdn.pixabay.com/photo/2020/08/02/00/23/beach-5456459_640.jpg",
        "src1280": "https://cdn.pixabay.com/photo/2020/08/02/00/23/beach-5456459_1280.jpg"
    },
    {
        "id": "2604481",
        "src640": "https://cdn.pixabay.com/photo/2017/08/07/14/36/people-2604481_640.jpg",
        "src1280": "https://cdn.pixabay.com/photo/2017/08/07/14/36/people-2604481_1280.jpg"
    },
    {
        "id": "4001195",
        "src640": "https://cdn.pixabay.com/photo/2019/02/16/22/41/beach-4001195_640.jpg",
        "src1280": "https://cdn.pixabay.com/photo/2019/02/16/22/41/beach-4001195_1280.jpg"
    },
    {
        "id": "2561259",
        "src640": "https://cdn.pixabay.com/photo/2017/07/31/21/33/boat-2561259_640.jpg",
        "src1280": "https://cdn.pixabay.com/photo/2017/07/31/21/33/boat-2561259_1280.jpg"
    },
    {
        "id": "162712",
        "src640": "https://cdn.pixabay.com/photo/2013/07/14/20/36/sea-162712_640.jpg",
        "src1280": "https://cdn.pixabay.com/photo/2013/07/14/20/36/sea-162712_1280.jpg"
    },
    {
        "id": "6820427",
        "src640": "https://cdn.pixabay.com/photo/2021/11/24/07/09/pier-6820427_640.jpg",
        "src1280": "https://cdn.pixabay.com/photo/2021/11/24/07/09/pier-6820427_1280.jpg"
    },
    {
        "id": "3151727",
        "src640": "https://cdn.pixabay.com/photo/2018/02/13/22/04/sky-3151727_640.jpg",
        "src1280": "https://cdn.pixabay.com/photo/2018/02/13/22/04/sky-3151727_1280.jpg"
    },
    {
        "id": "205468",
        "src640": "https://cdn.pixabay.com/photo/2013/11/04/21/06/sail-boat-205468_640.jpg",
        "src1280": "https://cdn.pixabay.com/photo/2013/11/04/21/06/sail-boat-205468_1280.jpg"
    },
    {
        "id": "8343348",
        "src640": "https://cdn.pixabay.com/photo/2023/10/26/18/57/ai-generated-8343348_640.jpg",
        "src1280": "https://cdn.pixabay.com/photo/2023/10/26/18/57/ai-generated-8343348_1280.jpg"
    },
    {
        "id": "3716997",
        "src640": "https://cdn.pixabay.com/photo/2018/10/01/18/37/beach-3716997_640.jpg",
        "src1280": "https://cdn.pixabay.com/photo/2018/10/01/18/37/beach-3716997_1280.jpg"
    },
    {
        "id": "4672420",
        "src640": "https://cdn.pixabay.com/photo/2019/12/04/11/09/ocean-4672420_640.jpg",
        "src1280": "https://cdn.pixabay.com/photo/2019/12/04/11/09/ocean-4672420_1280.jpg"
    },
    {
        "id": "2854659",
        "src640": "https://cdn.pixabay.com/photo/2017/10/15/18/10/sheep-2854659_640.jpg",
        "src1280": "https://cdn.pixabay.com/photo/2017/10/15/18/10/sheep-2854659_1280.jpg"
    },
    {
        "id": "2575286",
        "src640": "https://cdn.pixabay.com/photo/2017/08/03/10/00/sea-2575286_640.jpg",
        "src1280": "https://cdn.pixabay.com/photo/2017/08/03/10/00/sea-2575286_1280.jpg"
    },
    {
        "id": "2557391",
        "src640": "https://cdn.pixabay.com/photo/2017/07/31/11/20/sea-2557391_640.jpg",
        "src1280": "https://cdn.pixabay.com/photo/2017/07/31/11/20/sea-2557391_1280.jpg"
    },
    {
        "id": "347018",
        "src640": "https://cdn.pixabay.com/photo/2014/05/18/12/02/waikiki-beach-347018_640.jpg",
        "src1280": "https://cdn.pixabay.com/photo/2014/05/18/12/02/waikiki-beach-347018_1280.jpg"
    },
    {
        "id": "5860108",
        "src640": "https://cdn.pixabay.com/photo/2020/12/25/20/38/bay-5860108_640.jpg",
        "src1280": "https://cdn.pixabay.com/photo/2020/12/25/20/38/bay-5860108_1280.jpg"
    },
    {
        "id": "1032244",
        "src640": "https://cdn.pixabay.com/photo/2015/11/07/17/15/hiddensee-1032244_640.jpg",
        "src1280": "https://cdn.pixabay.com/photo/2015/11/07/17/15/hiddensee-1032244_1280.jpg"
    },
    {
        "id": "4211796",
        "src640": "https://cdn.pixabay.com/photo/2019/05/18/12/59/water-4211796_640.jpg",
        "src1280": "https://cdn.pixabay.com/photo/2019/05/18/12/59/water-4211796_1280.jpg"
    },
    {
        "id": "4947344",
        "src640": "https://cdn.pixabay.com/photo/2020/03/19/12/15/jellyfish-4947344_640.jpg",
        "src1280": "https://cdn.pixabay.com/photo/2020/03/19/12/15/jellyfish-4947344_1280.jpg"
    },
    {
        "id": "735726",
        "src640": "https://cdn.pixabay.com/photo/2015/04/23/08/23/thailand-735726_640.jpg",
        "src1280": "https://cdn.pixabay.com/photo/2015/04/23/08/23/thailand-735726_1280.jpg"
    },
    {
        "id": "2559682",
        "src640": "https://cdn.pixabay.com/photo/2017/07/31/18/14/sea-2559682_640.jpg",
        "src1280": "https://cdn.pixabay.com/photo/2017/07/31/18/14/sea-2559682_1280.jpg"
    },
    {
        "id": "2600700",
        "src640": "https://cdn.pixabay.com/photo/2017/08/07/06/36/sea-2600700_640.jpg",
        "src1280": "https://cdn.pixabay.com/photo/2017/08/07/06/36/sea-2600700_1280.jpg"
    },
    {
        "id": "2349368",
        "src640": "https://cdn.pixabay.com/photo/2017/05/27/20/21/lantern-2349368_640.jpg",
        "src1280": "https://cdn.pixabay.com/photo/2017/05/27/20/21/lantern-2349368_1280.jpg"
    },
    {
        "id": "2430764",
        "src640": "https://cdn.pixabay.com/photo/2017/06/22/13/16/landscape-2430764_640.jpg",
        "src1280": "https://cdn.pixabay.com/photo/2017/06/22/13/16/landscape-2430764_1280.jpg"
    },
    {
        "id": "3188739",
        "src640": "https://cdn.pixabay.com/photo/2018/02/28/18/49/sea-3188739_640.jpg",
        "src1280": "https://cdn.pixabay.com/photo/2018/02/28/18/49/sea-3188739_1280.jpg"
    },
    {
        "id": "2250096",
        "src640": "https://cdn.pixabay.com/photo/2017/04/21/22/17/island-2250096_640.jpg",
        "src1280": "https://cdn.pixabay.com/photo/2017/04/21/22/17/island-2250096_1280.jpg"
    },
    {
        "id": "4812476",
        "src640": "https://cdn.pixabay.com/photo/2020/02/02/09/44/painting-4812476_640.jpg",
        "src1280": "https://cdn.pixabay.com/photo/2020/02/02/09/44/painting-4812476_1280.jpg"
    },
    {
        "id": "1573526",
        "src640": "https://cdn.pixabay.com/photo/2016/08/05/23/08/dog-1573526_640.jpg",
        "src1280": "https://cdn.pixabay.com/photo/2016/08/05/23/08/dog-1573526_1280.jpg"
    },
    {
        "id": "969736",
        "src640": "https://cdn.pixabay.com/photo/2015/10/03/12/40/sail-boat-969736_640.jpg",
        "src1280": "https://cdn.pixabay.com/photo/2015/10/03/12/40/sail-boat-969736_1280.jpg"
    },
    {
        "id": "944765",
        "src640": "https://cdn.pixabay.com/photo/2015/09/17/21/55/three-masted-944765_640.jpg",
        "src1280": "https://cdn.pixabay.com/photo/2015/09/17/21/55/three-masted-944765_1280.jpg"
    },
    {
        "id": "5184779",
        "src640": "https://cdn.pixabay.com/photo/2020/05/18/06/40/swimsuit-5184779_640.jpg",
        "src1280": "https://cdn.pixabay.com/photo/2020/05/18/06/40/swimsuit-5184779_1280.jpg"
    },
    {
        "id": "7380314",
        "src640": "https://cdn.pixabay.com/photo/2022/08/11/21/36/sea-7380314_640.jpg",
        "src1280": "https://cdn.pixabay.com/photo/2022/08/11/21/36/sea-7380314_1280.jpg"
    },
    {
        "id": "4355793",
        "src640": "https://cdn.pixabay.com/photo/2019/07/22/18/39/kite-4355793_640.jpg",
        "src1280": "https://cdn.pixabay.com/photo/2019/07/22/18/39/kite-4355793_1280.jpg"
    },
    {
        "id": "2140042",
        "src640": "https://cdn.pixabay.com/photo/2017/03/13/14/53/bridge-2140042_640.jpg",
        "src1280": "https://cdn.pixabay.com/photo/2017/03/13/14/53/bridge-2140042_1280.jpg"
    },
    {
        "id": "6935662",
        "src640": "https://cdn.pixabay.com/photo/2022/01/13/17/05/beach-6935662_640.jpg",
        "src1280": "https://cdn.pixabay.com/photo/2022/01/13/17/05/beach-6935662_1280.jpg"
    },
    {
        "id": "3826616",
        "src640": "https://cdn.pixabay.com/photo/2018/11/20/05/54/blue-3826616_640.jpg",
        "src1280": "https://cdn.pixabay.com/photo/2018/11/20/05/54/blue-3826616_1280.jpg"
    },
    {
        "id": "3636188",
        "src640": "https://cdn.pixabay.com/photo/2018/08/27/22/49/sea-3636188_640.jpg",
        "src1280": "https://cdn.pixabay.com/photo/2018/08/27/22/49/sea-3636188_1280.jpg"
    },
    {
        "id": "2561711",
        "src640": "https://cdn.pixabay.com/photo/2017/07/31/22/38/mountain-2561711_640.jpg",
        "src1280": "https://cdn.pixabay.com/photo/2017/07/31/22/38/mountain-2561711_1280.jpg"
    },
    {
        "id": "8103825",
        "src640": "https://cdn.pixabay.com/photo/2023/07/03/09/40/underwater-8103825_640.jpg",
        "src1280": "https://cdn.pixabay.com/photo/2023/07/03/09/40/underwater-8103825_1280.jpg"
    },
    {
        "id": "2135757",
        "src640": "https://cdn.pixabay.com/photo/2017/03/11/20/15/crocus-2135757_640.jpg",
        "src1280": "https://cdn.pixabay.com/photo/2017/03/11/20/15/crocus-2135757_1280.jpg"
    },
    {
        "id": "4119082",
        "src640": "https://cdn.pixabay.com/photo/2019/04/11/08/03/sunset-over-the-sea-4119082_640.jpg",
        "src1280": "https://cdn.pixabay.com/photo/2019/04/11/08/03/sunset-over-the-sea-4119082_1280.jpg"
    },
    {
        "id": "2593255",
        "src640": "https://cdn.pixabay.com/photo/2017/08/06/14/56/people-2593255_640.jpg",
        "src1280": "https://cdn.pixabay.com/photo/2017/08/06/14/56/people-2593255_1280.jpg"
    },
    {
        "id": "7084139",
        "src640": "https://cdn.pixabay.com/photo/2022/03/22/01/02/little-boat-7084139_640.jpg",
        "src1280": "https://cdn.pixabay.com/photo/2022/03/22/01/02/little-boat-7084139_1280.jpg"
    },
    {
        "id": "2500545",
        "src640": "https://cdn.pixabay.com/photo/2017/07/13/14/20/rock-2500545_640.jpg",
        "src1280": "https://cdn.pixabay.com/photo/2017/07/13/14/20/rock-2500545_1280.jpg"
    },
    {
        "id": "7890607",
        "src640": "https://cdn.pixabay.com/photo/2023/03/31/17/30/baltic-sea-7890607_640.jpg",
        "src1280": "https://cdn.pixabay.com/photo/2023/03/31/17/30/baltic-sea-7890607_1280.jpg"
    },
    {
        "id": "6995140",
        "src640": "https://cdn.pixabay.com/photo/2022/02/05/15/41/sea-6995140_640.jpg",
        "src1280": "https://cdn.pixabay.com/photo/2022/02/05/15/41/sea-6995140_1280.jpg"
    },
    {
        "id": "7774089",
        "src640": "https://cdn.pixabay.com/photo/2023/02/07/12/59/beach-7774089_640.jpg",
        "src1280": "https://cdn.pixabay.com/photo/2023/02/07/12/59/beach-7774089_1280.jpg"
    },
    {
        "id": "2095709",
        "src640": "https://cdn.pixabay.com/photo/2017/02/24/17/28/palm-trees-2095709_640.jpg",
        "src1280": "https://cdn.pixabay.com/photo/2017/02/24/17/28/palm-trees-2095709_1280.jpg"
    },
    {
        "id": "3604112",
        "src640": "https://cdn.pixabay.com/photo/2018/08/13/21/57/tree-3604112_640.jpg",
        "src1280": "https://cdn.pixabay.com/photo/2018/08/13/21/57/tree-3604112_1280.jpg"
    },
    {
        "id": "1625018",
        "src640": "https://cdn.pixabay.com/photo/2016/08/27/22/10/coconuts-1625018_640.jpg",
        "src1280": "https://cdn.pixabay.com/photo/2016/08/27/22/10/coconuts-1625018_1280.jpg"
    },
    {
        "id": "6936882",
        "src640": "https://cdn.pixabay.com/photo/2022/01/14/10/05/nature-6936882_640.jpg",
        "src1280": "https://cdn.pixabay.com/photo/2022/01/14/10/05/nature-6936882_1280.jpg"
    },
    {
        "id": "4906306",
        "src640": "https://cdn.pixabay.com/photo/2020/03/06/07/58/background-4906306_640.jpg",
        "src1280": "https://cdn.pixabay.com/photo/2020/03/06/07/58/background-4906306_1280.jpg"
    },
    {
        "id": "181536",
        "src640": "https://cdn.pixabay.com/photo/2013/09/11/23/54/sunrise-181536_640.jpg",
        "src1280": "https://cdn.pixabay.com/photo/2013/09/11/23/54/sunrise-181536_1280.jpg"
    },
    {
        "id": "702898",
        "src640": "https://cdn.pixabay.com/photo/2015/04/01/19/43/coastline-702898_640.jpg",
        "src1280": "https://cdn.pixabay.com/photo/2015/04/01/19/43/coastline-702898_1280.jpg"
    },
    {
        "id": "2266583",
        "src640": "https://cdn.pixabay.com/photo/2017/04/27/20/27/sunset-2266583_640.jpg",
        "src1280": "https://cdn.pixabay.com/photo/2017/04/27/20/27/sunset-2266583_1280.jpg"
    }
]