[
    {
        "id": "6310232",
        "src640": "https://cdn.pixabay.com/photo/2021/06/04/15/47/sea-6310232_640.jpg",
        "src1280": "https://cdn.pixabay.com/photo/2021/06/04/15/47/sea-6310232_1280.jpg"
    },
    {
        "id": "4795889",
        "src640": "https://cdn.pixabay.com/photo/2020/01/26/20/57/boats-4795889_640.jpg",
        "src1280": "https://cdn.pixabay.com/photo/2020/01/26/20/57/boats-4795889_1280.jpg"
    },
    {
        "id": "5847004",
        "src640": "https://cdn.pixabay.com/photo/2020/12/20/13/13/beach-5847004_640.jpg",
        "src1280": "https://cdn.pixabay.com/photo/2020/12/20/13/13/beach-5847004_1280.jpg"
    },
    {
        "id": "2602850",
        "src640": "https://cdn.pixabay.com/photo/2017/08/07/11/28/hill-2602850_640.jpg",
        "src1280": "https://cdn.pixabay.com/photo/2017/08/07/11/28/hill-2602850_1280.jpg"
    },
    {
        "id": "8379467",
        "src640": "https://cdn.pixabay.com/photo/2023/11/10/14/41/mountain-8379467_640.jpg",
        "src1280": "https://cdn.pixabay.com/photo/2023/11/10/14/41/mountain-8379467_1280.jpg"
    },
    {
        "id": "79361",
        "src640": "https://cdn.pixabay.com/photo/2013/02/08/16/20/david-caruso-79361_640.jpg",
        "src1280": "https://cdn.pixabay.com/photo/2013/02/08/16/20/david-caruso-79361_1280.jpg"
    },
    {
        "id": "324281",
        "src640": "https://cdn.pixabay.com/photo/2014/04/14/21/16/magnolia-324281_640.jpg",
        "src1280": "https://cdn.pixabay.com/photo/2014/04/14/21/16/magnolia-324281_1280.jpg"
    },
    {
        "id": "404286",
        "src640": "https://cdn.pixabay.com/photo/2014/07/29/05/58/singapore-404286_640.jpg",
        "src1280": "https://cdn.pixabay.com/photo/2014/07/29/05/58/singapore-404286_1280.jpg"
    },
    {
        "id": "2805873",
        "src640": "https://cdn.pixabay.com/photo/2017/10/01/15/25/hawaii-2805873_640.jpg",
        "src1280": "https://cdn.pixabay.com/photo/2017/10/01/15/25/hawaii-2805873_1280.jpg"
    },
    {
        "id": "207645",
        "src640": "https://cdn.pixabay.com/photo/2013/11/09/01/12/water-207645_640.jpg",
        "src1280": "https://cdn.pixabay.com/photo/2013/11/09/01/12/water-207645_1280.jpg"
    },
    {
        "id": "7758233",
        "src640": "https://cdn.pixabay.com/photo/2023/01/31/14/20/horse-7758233_640.jpg",
        "src1280": "https://cdn.pixabay.com/photo/2023/01/31/14/20/horse-7758233_1280.jpg"
    },
    {
        "id": "3184857",
        "src640": "https://cdn.pixabay.com/photo/2018/02/27/07/26/water-3184857_640.jpg",
        "src1280": "https://cdn.pixabay.com/photo/2018/02/27/07/26/water-3184857_1280.jpg"
    },
    {
        "id": "2613507",
        "src640": "https://cdn.pixabay.com/photo/2017/08/09/04/49/fishing-nets-2613507_640.jpg",
        "src1280": "https://cdn.pixabay.com/photo/2017/08/09/04/49/fishing-nets-2613507_1280.jpg"
    },
    {
        "id": "7617268",
        "src640": "https://cdn.pixabay.com/photo/2022/11/26/04/26/kennedy-7617268_640.jpg",
        "src1280": "https://cdn.pixabay.com/photo/2022/11/26/04/26/kennedy-7617268_1280.jpg"
    },
    {
        "id": "2397310",
        "src640": "https://cdn.pixabay.com/photo/2017/06/13/00/33/message-in-a-bottle-2397310_640.jpg",
        "src1280": "https://cdn.pixabay.com/photo/2017/06/13/00/33/message-in-a-bottle-2397310_1280.jpg"
    },
    {
        "id": "196094",
        "src640": "https://cdn.pixabay.com/photo/2013/10/15/19/45/boat-196094_640.jpg",
        "src1280": "https://cdn.pixabay.com/photo/2013/10/15/19/45/boat-196094_1280.jpg"
    },
    {
        "id": "5132511",
        "src640": "https://cdn.pixabay.com/photo/2020/05/05/10/31/sky-5132511_640.jpg",
        "src1280": "https://cdn.pixabay.com/photo/2020/05/05/10/31/sky-5132511_1280.jpg"
    },
    {
        "id": "101018",
        "src640": "https://cdn.pixabay.com/photo/2013/04/06/09/48/horseshoe-bay-101018_640.jpg",
        "src1280": "https://cdn.pixabay.com/photo/2013/04/06/09/48/horseshoe-bay-101018_1280.jpg"
    },
    {
        "id": "4866122",
        "src640": "https://cdn.pixabay.com/photo/2020/02/20/22/42/sandburg-4866122_640.jpg",
        "src1280": "https://cdn.pixabay.com/photo/2020/02/20/22/42/sandburg-4866122_1280.jpg"
    },
    {
        "id": "1564289",
        "src640": "https://cdn.pixabay.com/photo/2016/08/02/17/32/gull-1564289_640.jpg",
        "src1280": "https://cdn.pixabay.com/photo/2016/08/02/17/32/gull-1564289_1280.jpg"
    },
    {
        "id": "1660836",
        "src640": "https://cdn.pixabay.com/photo/2016/09/11/08/26/seagull-1660836_640.jpg",
        "src1280": "https://cdn.pixabay.com/photo/2016/09/11/08/26/seagull-1660836_1280.jpg"
    },
    {
        "id": "334323",
        "src640": "https://cdn.pixabay.com/photo/2014/04/29/10/30/new-zealand-334323_640.jpg",
        "src1280": "https://cdn.pixabay.com/photo/2014/04/29/10/30/new-zealand-334323_1280.jpg"
    },
    {
        "id": "5097069",
        "src640": "https://cdn.pixabay.com/photo/2020/04/26/20/21/sunset-5097069_640.jpg",
        "src1280": "https://cdn.pixabay.com/photo/2020/04/26/20/21/sunset-5097069_1280.jpg"
    },
    {
        "id": "916827",
        "src640": "https://cdn.pixabay.com/photo/2015/09/01/12/07/sailboat-916827_640.jpg",
        "src1280": "https://cdn.pixabay.com/photo/2015/09/01/12/07/sailboat-916827_1280.jpg"
    },
    {
        "id": "7372235",
        "src640": "https://cdn.pixabay.com/photo/2022/08/08/08/41/sunset-7372235_640.jpg",
        "src1280": "https://cdn.pixabay.com/photo/2022/08/08/08/41/sunset-7372235_1280.jpg"
    },
    {
        "id": "6604778",
        "src640": "https://cdn.pixabay.com/photo/2021/09/07/19/41/woman-6604778_640.jpg",
        "src1280": "https://cdn.pixabay.com/photo/2021/09/07/19/41/woman-6604778_1280.jpg"
    },
    {
        "id": "959892",
        "src640": "https://cdn.pixabay.com/photo/2015/09/26/22/15/boy-959892_640.jpg",
        "src1280": "https://cdn.pixabay.com/photo/2015/09/26/22/15/boy-959892_1280.jpg"
    },
    {
        "id": "761755",
        "src640": "https://cdn.pixabay.com/photo/2015/05/10/23/36/oilseed-rape-761755_640.jpg",
        "src1280": "https://cdn.pixabay.com/photo/2015/05/10/23/36/oilseed-rape-761755_1280.jpg"
    },
    {
        "id": "924361",
        "src640": "https://cdn.pixabay.com/photo/2015/09/05/13/11/greece-924361_640.jpg",
        "src1280": "https://cdn.pixabay.com/photo/2015/09/05/13/11/greece-924361_1280.jpg"
    },
    {
        "id": "4357007",
        "src640": "https://cdn.pixabay.com/photo/2019/07/23/08/49/bar-harbor-4357007_640.jpg",
        "src1280": "https://cdn.pixabay.com/photo/2019/07/23/08/49/bar-harbor-4357007_1280.jpg"
    },
    {
        "id": "5044116",
        "src640": "https://cdn.pixabay.com/photo/2020/04/14/19/47/marina-5044116_640.jpg",
        "src1280": "https://cdn.pixabay.com/photo/2020/04/14/19/47/marina-5044116_1280.jpg"
    },
    {
        "id": "1972153",
        "src640": "https://cdn.pixabay.com/photo/2017/01/11/15/51/sand-1972153_640.jpg",
        "src1280": "https://cdn.pixabay.com/photo/2017/01/11/15/51/sand-1972153_1280.jpg"
    },
    {
        "id": "6749146",
        "src640": "https://cdn.pixabay.com/photo/2021/10/28/08/34/beach-6749146_640.jpg",
        "src1280": "https://cdn.pixabay.com/photo/2021/10/28/08/34/beach-6749146_1280.jpg"
    },
    {
        "id": "458759",
        "src640": "https://cdn.pixabay.com/photo/2014/09/24/08/48/rock-458759_640.jpg",
        "src1280": "https://cdn.pixabay.com/photo/2014/09/24/08/48/rock-458759_1280.jpg"
    },
    {
        "id": "3200448",
        "src640": "https://cdn.pixabay.com/photo/2018/03/05/10/23/france-3200448_640.jpg",
        "src1280": "https://cdn.pixabay.com/photo/2018/03/05/10/23/france-3200448_1280.jpg"
    },
    {
        "id": "2085287",
        "src640": "https://cdn.pixabay.com/photo/2017/02/21/10/00/italy-2085287_640.jpg",
        "src1280": "https://cdn.pixabay.com/photo/2017/02/21/10/00/italy-2085287_1280.jpg"
    },
    {
        "id": "4033484",
        "src640": "https://cdn.pixabay.com/photo/2019/03/04/08/04/the-old-breakwater-4033484_640.jpg",
        "src1280": "https://cdn.pixabay.com/photo/2019/03/04/08/04/the-old-breakwater-4033484_1280.jpg"
    },
    {
        "id": "4368775",
        "src640": "https://cdn.pixabay.com/photo/2019/07/28/14/03/salento-4368775_640.jpg",
        "src1280": "https://cdn.pixabay.com/photo/2019/07/28/14/03/salento-4368775_1280.jpg"
    },
    {
        "id": "5106153",
        "src640": "https://cdn.pixabay.com/photo/2020/04/28/19/51/woman-5106153_640.jpg",
        "src1280": "https://cdn.pixabay.com/photo/2020/04/28/19/51/woman-5106153_1280.jpg"
    },
    {
        "id": "1350051",
        "src640": "https://cdn.pixabay.com/photo/2016/04/24/16/54/badespass-1350051_640.jpg",
        "src1280": "https://cdn.pixabay.com/photo/2016/04/24/16/54/badespass-1350051_1280.jpg"
    },
    {
        "id": "5937508",
        "src640": "https://cdn.pixabay.com/photo/2021/01/21/14/11/sunset-5937508_640.jpg",
        "src1280": "https://cdn.pixabay.com/photo/2021/01/21/14/11/sunset-5937508_1280.jpg"
    },
    {
        "id": "5888805",
        "src640": "https://cdn.pixabay.com/photo/2021/01/04/20/25/boat-5888805_640.jpg",
        "src1280": "https://cdn.pixabay.com/photo/2021/01/04/20/25/boat-5888805_1280.jpg"
    },
    {
        "id": "3428580",
        "src640": "https://cdn.pixabay.com/photo/2018/05/25/09/09/sailing-3428580_640.jpg",
        "src1280": "https://cdn.pixabay.com/photo/2018/05/25/09/09/sailing-3428580_1280.jpg"
    },
    {
        "id": "1477828",
        "src640": "https://cdn.pixabay.com/photo/2016/06/24/20/35/girl-1477828_640.jpg",
        "src1280": "https://cdn.pixabay.com/photo/2016/06/24/20/35/girl-1477828_1280.jpg"
    },
    {
        "id": "4243257",
        "src640": "https://cdn.pixabay.com/photo/2019/05/31/23/50/sea-lion-4243257_640.jpg",
        "src1280": "https://cdn.pixabay.com/photo/2019/05/31/23/50/sea-lion-4243257_1280.jpg"
    },
    {
        "id": "4429145",
        "src640": "https://cdn.pixabay.com/photo/2019/08/25/10/12/vacation-4429145_640.jpg",
        "src1280": "https://cdn.pixabay.com/photo/2019/08/25/10/12/vacation-4429145_1280.jpg"
    },
    {
        "id": "5422573",
        "src640": "https://cdn.pixabay.com/photo/2020/07/20/10/29/tent-5422573_640.jpg",
        "src1280": "https://cdn.pixabay.com/photo/2020/07/20/10/29/tent-5422573_1280.jpg"
    },
    {
        "id": "7444710",
        "src640": "https://cdn.pixabay.com/photo/2022/09/10/10/50/sunset-7444710_640.jpg",
        "src1280": "https://cdn.pixabay.com/photo/2022/09/10/10/50/sunset-7444710_1280.jpg"
    },
    {
        "id": "265767",
        "src640": "https://cdn.pixabay.com/photo/2014/02/14/03/13/lighthouse-265767_640.jpg",
        "src1280": "https://cdn.pixabay.com/photo/2014/02/14/03/13/lighthouse-265767_1280.jpg"
    },
    {
        "id": "3280720",
        "src640": "https://cdn.pixabay.com/photo/2018/04/01/11/48/nature-3280720_640.jpg",
        "src1280": "https://cdn.pixabay.com/photo/2018/04/01/11/48/nature-3280720_1280.jpg"
    },
    {
        "id": "4989051",
        "src640": "https://cdn.pixabay.com/photo/2020/03/31/19/45/mountain-4989051_640.jpg",
        "src1280": "https://cdn.pixabay.com/photo/2020/03/31/19/45/mountain-4989051_1280.jpg"
    },
    {
        "id": "4221397",
        "src640": "https://cdn.pixabay.com/photo/2019/05/22/12/09/evening-4221397_640.jpg",
        "src1280": "https://cdn.pixabay.com/photo/2019/05/22/12/09/evening-4221397_1280.jpg"
    },
    {
        "id": "2472933",
        "src640": "https://cdn.pixabay.com/photo/2017/07/04/22/34/boat-2472933_640.jpg",
        "src1280": "https://cdn.pixabay.com/photo/2017/07/04/22/34/boat-2472933_1280.jpg"
    },
    {
        "id": "983527",
        "src640": "https://cdn.pixabay.com/photo/2015/10/12/08/23/sunset-983527_640.jpg",
        "src1280": "https://cdn.pixabay.com/photo/2015/10/12/08/23/sunset-983527_1280.jpg"
    },
    {
        "id": "6699117",
        "src640": "https://cdn.pixabay.com/photo/2021/10/11/01/38/rocks-6699117_640.jpg",
        "src1280": "https://cdn.pixabay.com/photo/2021/10/11/01/38/rocks-6699117_1280.jpg"
    },
    {
        "id": "2603937",
        "src640": "https://cdn.pixabay.com/photo/2017/08/07/13/41/rock-2603937_640.jpg",
        "src1280": "https://cdn.pixabay.com/photo/2017/08/07/13/41/rock-2603937_1280.jpg"
    },
    {
        "id": "5033617",
        "src640": "https://cdn.pixabay.com/photo/2020/04/12/10/04/cutter-5033617_640.jpg",
        "src1280": "https://cdn.pixabay.com/photo/2020/04/12/10/04/cutter-5033617_1280.jpg"
    },
    {
        "id": "2565955",
        "src640": "https://cdn.pixabay.com/photo/2017/08/01/14/41/blue-2565955_640.jpg",
        "src1280": "https://cdn.pixabay.com/photo/2017/08/01/14/41/blue-2565955_1280.jpg"
    },
    {
        "id": "2570578",
        "src640": "https://cdn.pixabay.com/photo/2017/08/02/10/00/nature-2570578_640.jpg",
        "src1280": "https://cdn.pixabay.com/photo/2017/08/02/10/00/nature-2570578_1280.jpg"
    },
    {
        "id": "69273",
        "src640": "https://cdn.pixabay.com/photo/2012/12/11/00/03/port-69273_640.jpg",
        "src1280": "https://cdn.pixabay.com/photo/2012/12/11/00/03/port-69273_1280.jpg"
    },
    {
        "id": "2510121",
        "src640": "https://cdn.pixabay.com/photo/2017/07/16/18/29/cliff-2510121_640.jpg",
        "src1280": "https://cdn.pixabay.com/photo/2017/07/16/18/29/cliff-2510121_1280.jpg"
    },
    {
        "id": "1548556",
        "src640": "https://cdn.pixabay.com/photo/2016/07/28/17/20/sun-1548556_640.jpg",
        "src1280": "https://cdn.pixabay.com/photo/2016/07/28/17/20/sun-1548556_1280.jpg"
    },
    {
        "id": "2555240",
        "src640": "https://cdn.pixabay.com/photo/2017/07/30/18/47/lighthouse-2555240_640.jpg",
        "src1280": "https://cdn.pixabay.com/photo/2017/07/30/18/47/lighthouse-2555240_1280.jpg"
    },
    {
        "id": "2266513",
        "src640": "https://cdn.pixabay.com/photo/2017/04/27/19/51/boats-2266513_640.jpg",
        "src1280": "https://cdn.pixabay.com/photo/2017/04/27/19/51/boats-2266513_1280.jpg"
    },
    {
        "id": "7460337",
        "src640": "https://cdn.pixabay.com/photo/2022/09/17/07/44/bird-7460337_640.jpg",
        "src1280": "https://cdn.pixabay.com/photo/2022/09/17/07/44/bird-7460337_1280.jpg"
    },
    {
        "id": "4781514",
        "src640": "https://cdn.pixabay.com/photo/2020/01/20/21/48/sea-4781514_640.jpg",
        "src1280": "https://cdn.pixabay.com/photo/2020/01/20/21/48/sea-4781514_1280.jpg"
    },
    {
        "id": "7203521",
        "src640": "https://cdn.pixabay.com/photo/2022/05/17/19/00/beach-7203521_640.jpg",
        "src1280": "https://cdn.pixabay.com/photo/2022/05/17/19/00/beach-7203521_1280.jpg"
    },
    {
        "id": "1719493",
        "src640": "https://cdn.pixabay.com/photo/2016/10/06/17/13/kite-surfer-1719493_640.jpg",
        "src1280": "https://cdn.pixabay.com/photo/2016/10/06/17/13/kite-surfer-1719493_1280.jpg"
    },
    {
        "id": "5645830",
        "src640": "https://cdn.pixabay.com/photo/2020/10/11/12/59/kitesurfing-5645830_640.jpg",
        "src1280": "https://cdn.pixabay.com/photo/2020/10/11/12/59/kitesurfing-5645830_1280.jpg"
    },
    {
        "id": "5472144",
        "src640": "https://cdn.pixabay.com/photo/2020/08/08/05/22/beach-5472144_640.jpg",
        "src1280": "https://cdn.pixabay.com/photo/2020/08/08/05/22/beach-5472144_1280.jpg"
    },
    {
        "id": "5827899",
        "src640": "https://cdn.pixabay.com/photo/2020/12/13/11/19/beach-5827899_640.jpg",
        "src1280": "https://cdn.pixabay.com/photo/2020/12/13/11/19/beach-5827899_1280.jpg"
    },
    {
        "id": "7855060",
        "src640": "https://cdn.pixabay.com/photo/2023/03/15/17/38/taiwan-7855060_640.jpg",
        "src1280": "https://cdn.pixabay.com/photo/2023/03/15/17/38/taiwan-7855060_1280.jpg"
    },
    {
        "id": "4565295",
        "src640": "https://cdn.pixabay.com/photo/2019/10/21/06/47/boat-4565295_640.jpg",
        "src1280": "https://cdn.pixabay.com/photo/2019/10/21/06/47/boat-4565295_1280.jpg"
    },
    {
        "id": "7851181",
        "src640": "https://cdn.pixabay.com/photo/2023/03/14/00/19/sea-7851181_640.jpg",
        "src1280": "https://cdn.pixabay.com/photo/2023/03/14/00/19/sea-7851181_1280.jpg"
    },
    {
        "id": "3488375",
        "src640": "https://cdn.pixabay.com/photo/2018/06/21/12/15/flower-3488375_640.jpg",
        "src1280": "https://cdn.pixabay.com/photo/2018/06/21/12/15/flower-3488375_1280.jpg"
    },
    {
        "id": "3677210",
        "src640": "https://cdn.pixabay.com/photo/2018/09/14/13/52/boats-3677210_640.jpg",
        "src1280": "https://cdn.pixabay.com/photo/2018/09/14/13/52/boats-3677210_1280.jpg"
    },
    {
        "id": "4880200",
        "src640": "https://cdn.pixabay.com/photo/2020/02/25/22/24/ebb-4880200_640.jpg",
        "src1280": "https://cdn.pixabay.com/photo/2020/02/25/22/24/ebb-4880200_1280.jpg"
    },
    {
        "id": "1167094",
        "src640": "https://cdn.pixabay.com/photo/2016/01/28/22/42/sunset-1167094_640.jpg",
        "src1280": "https://cdn.pixabay.com/photo/2016/01/28/22/42/sunset-1167094_1280.jpg"
    },
    {
        "id": "3050011",
        "src640": "https://cdn.pixabay.com/photo/2017/12/30/12/47/waters-3050011_640.jpg",
        "src1280": "https://cdn.pixabay.com/photo/2017/12/30/12/47/waters-3050011_1280.jpg"
    },
    {
        "id": "2593893",
        "src640": "https://cdn.pixabay.com/photo/2017/08/06/16/26/sea-2593893_640.jpg",
        "src1280": "https://cdn.pixabay.com/photo/2017/08/06/16/26/sea-2593893_1280.jpg"
    },
    {
        "id": "7431823",
        "src640": "https://cdn.pixabay.com/photo/2022/09/04/14/08/beach-7431823_640.jpg",
        "src1280": "https://cdn.pixabay.com/photo/2022/09/04/14/08/beach-7431823_1280.jpg"
    },
    {
        "id": "2577100",
        "src640": "https://cdn.pixabay.com/photo/2017/08/03/16/21/architecture-2577100_640.jpg",
        "src1280": "https://cdn.pixabay.com/photo/2017/08/03/16/21/architecture-2577100_1280.jpg"
    },
    {
        "id": "7372805",
        "src640": "https://cdn.pixabay.com/photo/2022/08/08/14/03/falling-stars-7372805_640.jpg",
        "src1280": "https://cdn.pixabay.com/photo/2022/08/08/14/03/falling-stars-7372805_1280.jpg"
    },
    {
        "id": "474501",
        "src640": "https://cdn.pixabay.com/photo/2014/10/05/05/10/oilseed-rape-474501_640.jpg",
        "src1280": "https://cdn.pixabay.com/photo/2014/10/05/05/10/oilseed-rape-474501_1280.jpg"
    },
    {
        "id": "7820302",
        "src640": "https://cdn.pixabay.com/photo/2023/02/28/08/57/ai-generated-7820302_640.jpg",
        "src1280": "https://cdn.pixabay.com/photo/2023/02/28/08/57/ai-generated-7820302_1280.jpg"
    },
    {
        "id": "3301865",
        "src640": "https://cdn.pixabay.com/photo/2018/04/08/17/29/outdoors-3301865_640.jpg",
        "src1280": "https://cdn.pixabay.com/photo/2018/04/08/17/29/outdoors-3301865_1280.jpg"
    },
    {
        "id": "4509960",
        "src640": "https://cdn.pixabay.com/photo/2019/09/28/05/59/ship-4509960_640.jpg",
        "src1280": "https://cdn.pixabay.com/photo/2019/09/28/05/59/ship-4509960_1280.jpg"
    },
    {
        "id": "1799461",
        "src640": "https://cdn.pixabay.com/photo/2016/11/05/04/35/diving-bell-1799461_640.jpg",
        "src1280": "https://cdn.pixabay.com/photo/2016/11/05/04/35/diving-bell-1799461_1280.jpg"
    },
    {
        "id": "955939",
        "src640": "https://cdn.pixabay.com/photo/2015/09/24/17/10/dawn-955939_640.jpg",
        "src1280": "https://cdn.pixabay.com/photo/2015/09/24/17/10/dawn-955939_1280.jpg"
    },
    {
        "id": "1206526",
        "src640": "https://cdn.pixabay.com/photo/2016/02/18/04/13/concrete-blocks-1206526_640.jpg",
        "src1280": "https://cdn.pixabay.com/photo/2016/02/18/04/13/concrete-blocks-1206526_1280.jpg"
    },
    {
        "id": "5180114",
        "src640": "https://cdn.pixabay.com/photo/2020/05/17/05/47/sun-5180114_640.jpg",
        "src1280": "https://cdn.pixabay.com/photo/2020/05/17/05/47/sun-5180114_1280.jpg"
    },
    {
        "id": "8311204",
        "src640": "https://cdn.pixabay.com/photo/2023/10/12/16/20/ai-generated-8311204_640.jpg",
        "src1280": "https://cdn.pixabay.com/photo/2023/10/12/16/20/ai-generated-8311204_1280.jpg"
    },
    {
        "id": "7148911",
        "src640": "https://cdn.pixabay.com/photo/2022/04/22/05/58/sports-7148911_640.jpg",
        "src1280": "https://cdn.pixabay.com/photo/2022/04/22/05/58/sports-7148911_1280.jpg"
    },
    {
        "id": "7111476",
        "src640": "https://cdn.pixabay.com/photo/2022/04/04/14/42/camera-7111476_640.jpg",
        "src1280": "https://cdn.pixabay.com/photo/2022/04/04/14/42/camera-7111476_1280.jpg"
    },
    {
        "id": "5370017",
        "src640": "https://cdn.pixabay.com/photo/2020/07/04/15/49/lighthouse-5370017_640.jpg",
        "src1280": "https://cdn.pixabay.com/photo/2020/07/04/15/49/lighthouse-5370017_1280.jpg"
    },
    {
        "id": "7681940",
        "src640": "https://cdn.pixabay.com/photo/2022/12/27/23/45/beach-7681940_640.jpg",
        "src1280": "https://cdn.pixabay.com/photo/2022/12/27/23/45/beach-7681940_1280.jpg"
    },
    {
        "id": "7331532",
        "src640": "https://cdn.pixabay.com/photo/2022/07/19/08/08/sunset-7331532_640.jpg",
        "src1280": "https://cdn.pixabay.com/photo/2022/07/19/08/08/sunset-7331532_1280.jpg"
    }
]