[
    {
        "id": "5511913",
        "src640": "https://cdn.pixabay.com/photo/2020/08/23/20/08/long-hair-5511913_640.jpg",
        "src1280": "https://cdn.pixabay.com/photo/2020/08/23/20/08/long-hair-5511913_1280.jpg"
    },
    {
        "id": "4617904",
        "src640": "https://cdn.pixabay.com/photo/2019/11/11/10/17/irland-4617904_640.jpg",
        "src1280": "https://cdn.pixabay.com/photo/2019/11/11/10/17/irland-4617904_1280.jpg"
    },
    {
        "id": "7963259",
        "src640": "https://cdn.pixabay.com/photo/2023/05/01/14/54/church-7963259_640.jpg",
        "src1280": "https://cdn.pixabay.com/photo/2023/05/01/14/54/church-7963259_1280.jpg"
    },
    {
        "id": "7504488",
        "src640": "https://cdn.pixabay.com/photo/2022/10/07/08/21/sunset-7504488_640.jpg",
        "src1280": "https://cdn.pixabay.com/photo/2022/10/07/08/21/sunset-7504488_1280.jpg"
    },
    {
        "id": "3108983",
        "src640": "https://cdn.pixabay.com/photo/2018/01/26/15/52/bird-3108983_640.jpg",
        "src1280": "https://cdn.pixabay.com/photo/2018/01/26/15/52/bird-3108983_1280.jpg"
    },
    {
        "id": "5372493",
        "src640": "https://cdn.pixabay.com/photo/2020/07/05/10/34/roche-5372493_640.jpg",
        "src1280": "https://cdn.pixabay.com/photo/2020/07/05/10/34/roche-5372493_1280.jpg"
    },
    {
        "id": "4882526",
        "src640": "https://cdn.pixabay.com/photo/2020/02/26/18/41/sunset-4882526_640.jpg",
        "src1280": "https://cdn.pixabay.com/photo/2020/02/26/18/41/sunset-4882526_1280.jpg"
    },
    {
        "id": "2339800",
        "src640": "https://cdn.pixabay.com/photo/2017/05/24/07/59/boat-2339800_640.jpg",
        "src1280": "https://cdn.pixabay.com/photo/2017/05/24/07/59/boat-2339800_1280.jpg"
    },
    {
        "id": "4954061",
        "src640": "https://cdn.pixabay.com/photo/2020/03/21/14/05/coaster-4954061_640.jpg",
        "src1280": "https://cdn.pixabay.com/photo/2020/03/21/14/05/coaster-4954061_1280.jpg"
    },
    {
        "id": "4605973",
        "src640": "https://cdn.pixabay.com/photo/2019/11/06/12/15/aerial-from-table-mountain-4605973_640.jpg",
        "src1280": "https://cdn.pixabay.com/photo/2019/11/06/12/15/aerial-from-table-mountain-4605973_1280.jpg"
    },
    {
        "id": "106316",
        "src640": "https://cdn.pixabay.com/photo/2013/04/21/21/30/lifeboat-brass-bell-106316_640.jpg",
        "src1280": "https://cdn.pixabay.com/photo/2013/04/21/21/30/lifeboat-brass-bell-106316_1280.jpg"
    },
    {
        "id": "7137440",
        "src640": "https://cdn.pixabay.com/photo/2022/04/17/05/56/leaves-7137440_640.jpg",
        "src1280": "https://cdn.pixabay.com/photo/2022/04/17/05/56/leaves-7137440_1280.jpg"
    },
    {
        "id": "5023160",
        "src640": "https://cdn.pixabay.com/photo/2020/04/09/21/24/summer-5023160_640.jpg",
        "src1280": "https://cdn.pixabay.com/photo/2020/04/09/21/24/summer-5023160_1280.jpg"
    },
    {
        "id": "1961136",
        "src640": "https://cdn.pixabay.com/photo/2017/01/07/18/09/beach-1961136_640.jpg",
        "src1280": "https://cdn.pixabay.com/photo/2017/01/07/18/09/beach-1961136_1280.jpg"
    },
    {
        "id": "2829727",
        "src640": "https://cdn.pixabay.com/photo/2017/10/08/12/12/france-2829727_640.jpg",
        "src1280": "https://cdn.pixabay.com/photo/2017/10/08/12/12/france-2829727_1280.jpg"
    },
    {
        "id": "772035",
        "src640": "https://cdn.pixabay.com/photo/2015/05/18/09/41/sky-772035_640.jpg",
        "src1280": "https://cdn.pixabay.com/photo/2015/05/18/09/41/sky-772035_1280.jpg"
    },
    {
        "id": "5302510",
        "src640": "https://cdn.pixabay.com/photo/2020/06/15/16/35/city-5302510_640.jpg",
        "src1280": "https://cdn.pixabay.com/photo/2020/06/15/16/35/city-5302510_1280.jpg"
    },
    {
        "id": "7157092",
        "src640": "https://cdn.pixabay.com/photo/2022/04/25/23/13/snow-7157092_640.jpg",
        "src1280": "https://cdn.pixabay.com/photo/2022/04/25/23/13/snow-7157092_1280.jpg"
    },
    {
        "id": "4701636",
        "src640": "https://cdn.pixabay.com/photo/2019/12/17/13/32/coast-4701636_640.jpg",
        "src1280": "https://cdn.pixabay.com/photo/2019/12/17/13/32/coast-4701636_1280.jpg"
    },
    {
        "id": "7086521",
        "src640": "https://cdn.pixabay.com/photo/2022/03/23/06/52/sunset-7086521_640.jpg",
        "src1280": "https://cdn.pixabay.com/photo/2022/03/23/06/52/sunset-7086521_1280.jpg"
    },
    {
        "id": "6655594",
        "src640": "https://cdn.pixabay.com/photo/2021/09/25/18/52/shipwreck-6655594_640.jpg",
        "src1280": "https://cdn.pixabay.com/photo/2021/09/25/18/52/shipwreck-6655594_1280.jpg"
    },
    {
        "id": "4905974",
        "src640": "https://cdn.pixabay.com/photo/2020/03/06/03/54/dog-4905974_640.jpg",
        "src1280": "https://cdn.pixabay.com/photo/2020/03/06/03/54/dog-4905974_1280.jpg"
    },
    {
        "id": "2906160",
        "src640": "https://cdn.pixabay.com/photo/2017/10/31/19/06/sea-2906160_640.jpg",
        "src1280": "https://cdn.pixabay.com/photo/2017/10/31/19/06/sea-2906160_1280.jpg"
    },
    {
        "id": "926518",
        "src640": "https://cdn.pixabay.com/photo/2015/09/06/00/10/ocean-926518_640.jpg",
        "src1280": "https://cdn.pixabay.com/photo/2015/09/06/00/10/ocean-926518_1280.jpg"
    },
    {
        "id": "73848",
        "src640": "https://cdn.pixabay.com/photo/2013/01/05/13/01/sea-73848_640.jpg",
        "src1280": "https://cdn.pixabay.com/photo/2013/01/05/13/01/sea-73848_1280.jpg"
    },
    {
        "id": "3874002",
        "src640": "https://cdn.pixabay.com/photo/2018/12/13/23/46/gull-3874002_640.jpg",
        "src1280": "https://cdn.pixabay.com/photo/2018/12/13/23/46/gull-3874002_1280.jpg"
    },
    {
        "id": "543386",
        "src640": "https://cdn.pixabay.com/photo/2014/11/24/00/15/sunset-543386_640.jpg",
        "src1280": "https://cdn.pixabay.com/photo/2014/11/24/00/15/sunset-543386_1280.jpg"
    },
    {
        "id": "4837201",
        "src640": "https://cdn.pixabay.com/photo/2020/02/10/18/00/island-4837201_640.jpg",
        "src1280": "https://cdn.pixabay.com/photo/2020/02/10/18/00/island-4837201_1280.jpg"
    },
    {
        "id": "4703811",
        "src640": "https://cdn.pixabay.com/photo/2019/12/18/12/02/the-hassan-ii-mosque-4703811_640.jpg",
        "src1280": "https://cdn.pixabay.com/photo/2019/12/18/12/02/the-hassan-ii-mosque-4703811_1280.jpg"
    },
    {
        "id": "4517459",
        "src640": "https://cdn.pixabay.com/photo/2019/10/01/07/41/sea-4517459_640.jpg",
        "src1280": "https://cdn.pixabay.com/photo/2019/10/01/07/41/sea-4517459_1280.jpg"
    },
    {
        "id": "7543624",
        "src640": "https://cdn.pixabay.com/photo/2022/10/24/14/37/sunset-7543624_640.jpg",
        "src1280": "https://cdn.pixabay.com/photo/2022/10/24/14/37/sunset-7543624_1280.jpg"
    },
    {
        "id": "5287199",
        "src640": "https://cdn.pixabay.com/photo/2020/06/11/15/42/landscape-5287199_640.jpg",
        "src1280": "https://cdn.pixabay.com/photo/2020/06/11/15/42/landscape-5287199_1280.jpg"
    },
    {
        "id": "3563484",
        "src640": "https://cdn.pixabay.com/photo/2018/07/26/12/21/sunset-3563484_640.jpg",
        "src1280": "https://cdn.pixabay.com/photo/2018/07/26/12/21/sunset-3563484_1280.jpg"
    },
    {
        "id": "2541814",
        "src640": "https://cdn.pixabay.com/photo/2017/07/26/14/28/gower-2541814_640.jpg",
        "src1280": "https://cdn.pixabay.com/photo/2017/07/26/14/28/gower-2541814_1280.jpg"
    },
    {
        "id": "2552094",
        "src640": "https://cdn.pixabay.com/photo/2017/07/29/17/14/sand-2552094_640.jpg",
        "src1280": "https://cdn.pixabay.com/photo/2017/07/29/17/14/sand-2552094_1280.jpg"
    },
    {
        "id": "4558592",
        "src640": "https://cdn.pixabay.com/photo/2019/10/18/08/53/brick-gothic-4558592_640.jpg",
        "src1280": "https://cdn.pixabay.com/photo/2019/10/18/08/53/brick-gothic-4558592_1280.jpg"
    },
    {
        "id": "1596630",
        "src640": "https://cdn.pixabay.com/photo/2016/08/15/22/24/beach-lilac-1596630_640.jpg",
        "src1280": "https://cdn.pixabay.com/photo/2016/08/15/22/24/beach-lilac-1596630_1280.jpg"
    },
    {
        "id": "6652982",
        "src640": "https://cdn.pixabay.com/photo/2021/09/24/16/16/ferry-6652982_640.jpg",
        "src1280": "https://cdn.pixabay.com/photo/2021/09/24/16/16/ferry-6652982_1280.jpg"
    },
    {
        "id": "670575",
        "src640": "https://cdn.pixabay.com/photo/2015/03/12/17/59/flower-670575_640.jpg",
        "src1280": "https://cdn.pixabay.com/photo/2015/03/12/17/59/flower-670575_1280.jpg"
    },
    {
        "id": "6697279",
        "src640": "https://cdn.pixabay.com/photo/2021/10/10/16/07/pool-6697279_640.jpg",
        "src1280": "https://cdn.pixabay.com/photo/2021/10/10/16/07/pool-6697279_1280.jpg"
    },
    {
        "id": "4933913",
        "src640": "https://cdn.pixabay.com/photo/2020/03/15/15/07/ship-4933913_640.jpg",
        "src1280": "https://cdn.pixabay.com/photo/2020/03/15/15/07/ship-4933913_1280.jpg"
    },
    {
        "id": "5394145",
        "src640": "https://cdn.pixabay.com/photo/2020/07/11/14/12/ocean-5394145_640.jpg",
        "src1280": "https://cdn.pixabay.com/photo/2020/07/11/14/12/ocean-5394145_1280.jpg"
    },
    {
        "id": "4926309",
        "src640": "https://cdn.pixabay.com/photo/2020/03/12/21/56/wooden-4926309_640.jpg",
        "src1280": "https://cdn.pixabay.com/photo/2020/03/12/21/56/wooden-4926309_1280.jpg"
    },
    {
        "id": "162612",
        "src640": "https://cdn.pixabay.com/photo/2013/07/14/12/27/albertus-the-singing-wattfuhrer-162612_640.jpg",
        "src1280": "https://cdn.pixabay.com/photo/2013/07/14/12/27/albertus-the-singing-wattfuhrer-162612_1280.jpg"
    },
    {
        "id": "4403116",
        "src640": "https://cdn.pixabay.com/photo/2019/08/13/10/42/marine-radio-mast-4403116_640.jpg",
        "src1280": "https://cdn.pixabay.com/photo/2019/08/13/10/42/marine-radio-mast-4403116_1280.jpg"
    },
    {
        "id": "2707741",
        "src640": "https://cdn.pixabay.com/photo/2017/09/02/16/15/ocean-2707741_640.jpg",
        "src1280": "https://cdn.pixabay.com/photo/2017/09/02/16/15/ocean-2707741_1280.jpg"
    },
    {
        "id": "1729067",
        "src640": "https://cdn.pixabay.com/photo/2016/10/10/16/34/grass-1729067_640.jpg",
        "src1280": "https://cdn.pixabay.com/photo/2016/10/10/16/34/grass-1729067_1280.jpg"
    },
    {
        "id": "4476673",
        "src640": "https://cdn.pixabay.com/photo/2019/09/14/18/39/boat-4476673_640.jpg",
        "src1280": "https://cdn.pixabay.com/photo/2019/09/14/18/39/boat-4476673_1280.jpg"
    },
    {
        "id": "4350886",
        "src640": "https://cdn.pixabay.com/photo/2019/07/20/14/46/bridge-4350886_640.jpg",
        "src1280": "https://cdn.pixabay.com/photo/2019/07/20/14/46/bridge-4350886_1280.jpg"
    },
    {
        "id": "1728883",
        "src640": "https://cdn.pixabay.com/photo/2016/10/10/15/53/sky-1728883_640.jpg",
        "src1280": "https://cdn.pixabay.com/photo/2016/10/10/15/53/sky-1728883_1280.jpg"
    },
    {
        "id": "2071863",
        "src640": "https://cdn.pixabay.com/photo/2017/02/16/17/02/greece-2071863_640.jpg",
        "src1280": "https://cdn.pixabay.com/photo/2017/02/16/17/02/greece-2071863_1280.jpg"
    },
    {
        "id": "5452773",
        "src640": "https://cdn.pixabay.com/photo/2020/07/31/11/44/cliff-5452773_640.jpg",
        "src1280": "https://cdn.pixabay.com/photo/2020/07/31/11/44/cliff-5452773_1280.jpg"
    },
    {
        "id": "4870166",
        "src640": "https://cdn.pixabay.com/photo/2020/02/22/10/17/new-zealand-4870166_640.jpg",
        "src1280": "https://cdn.pixabay.com/photo/2020/02/22/10/17/new-zealand-4870166_1280.jpg"
    },
    {
        "id": "5941064",
        "src640": "https://cdn.pixabay.com/photo/2021/01/22/20/25/venice-beach-5941064_640.jpg",
        "src1280": "https://cdn.pixabay.com/photo/2021/01/22/20/25/venice-beach-5941064_1280.jpg"
    },
    {
        "id": "5148894",
        "src640": "https://cdn.pixabay.com/photo/2020/05/09/09/22/baltic-sea-5148894_640.jpg",
        "src1280": "https://cdn.pixabay.com/photo/2020/05/09/09/22/baltic-sea-5148894_1280.jpg"
    },
    {
        "id": "1554815",
        "src640": "https://cdn.pixabay.com/photo/2016/07/29/16/20/wisteria-1554815_640.jpg",
        "src1280": "https://cdn.pixabay.com/photo/2016/07/29/16/20/wisteria-1554815_1280.jpg"
    },
    {
        "id": "443404",
        "src640": "https://cdn.pixabay.com/photo/2014/09/12/22/33/sailing-boat-443404_640.jpg",
        "src1280": "https://cdn.pixabay.com/photo/2014/09/12/22/33/sailing-boat-443404_1280.jpg"
    },
    {
        "id": "3741908",
        "src640": "https://cdn.pixabay.com/photo/2018/10/12/11/07/background-3741908_640.jpg",
        "src1280": "https://cdn.pixabay.com/photo/2018/10/12/11/07/background-3741908_1280.jpg"
    },
    {
        "id": "4604042",
        "src640": "https://cdn.pixabay.com/photo/2019/11/05/17/37/sunset-4604042_640.jpg",
        "src1280": "https://cdn.pixabay.com/photo/2019/11/05/17/37/sunset-4604042_1280.jpg"
    },
    {
        "id": "966963",
        "src640": "https://cdn.pixabay.com/photo/2015/10/01/12/26/lion-966963_640.jpg",
        "src1280": "https://cdn.pixabay.com/photo/2015/10/01/12/26/lion-966963_1280.jpg"
    },
    {
        "id": "5366581",
        "src640": "https://cdn.pixabay.com/photo/2020/07/03/14/42/cliff-5366581_640.jpg",
        "src1280": "https://cdn.pixabay.com/photo/2020/07/03/14/42/cliff-5366581_1280.jpg"
    },
    {
        "id": "6941784",
        "src640": "https://cdn.pixabay.com/photo/2022/01/16/11/33/sea-6941784_640.jpg",
        "src1280": "https://cdn.pixabay.com/photo/2022/01/16/11/33/sea-6941784_1280.jpg"
    },
    {
        "id": "863722",
        "src640": "https://cdn.pixabay.com/photo/2015/07/27/23/14/surfer-863722_640.jpg",
        "src1280": "https://cdn.pixabay.com/photo/2015/07/27/23/14/surfer-863722_1280.jpg"
    },
    {
        "id": "5394136",
        "src640": "https://cdn.pixabay.com/photo/2020/07/11/14/12/ocean-5394136_640.jpg",
        "src1280": "https://cdn.pixabay.com/photo/2020/07/11/14/12/ocean-5394136_1280.jpg"
    },
    {
        "id": "823175",
        "src640": "https://cdn.pixabay.com/photo/2015/06/27/02/06/sailing-823175_640.jpg",
        "src1280": "https://cdn.pixabay.com/photo/2015/06/27/02/06/sailing-823175_1280.jpg"
    },
    {
        "id": "3637124",
        "src640": "https://cdn.pixabay.com/photo/2018/08/28/10/30/direct-3637124_640.jpg",
        "src1280": "https://cdn.pixabay.com/photo/2018/08/28/10/30/direct-3637124_1280.jpg"
    },
    {
        "id": "5976102",
        "src640": "https://cdn.pixabay.com/photo/2021/02/03/01/14/beach-5976102_640.jpg",
        "src1280": "https://cdn.pixabay.com/photo/2021/02/03/01/14/beach-5976102_1280.jpg"
    },
    {
        "id": "5055587",
        "src640": "https://cdn.pixabay.com/photo/2020/04/17/15/25/morro-bay-5055587_640.jpg",
        "src1280": "https://cdn.pixabay.com/photo/2020/04/17/15/25/morro-bay-5055587_1280.jpg"
    },
    {
        "id": "116166",
        "src640": "https://cdn.pixabay.com/photo/2013/06/04/11/11/luzzu-116166_640.jpg",
        "src1280": "https://cdn.pixabay.com/photo/2013/06/04/11/11/luzzu-116166_1280.jpg"
    },
    {
        "id": "4572169",
        "src640": "https://cdn.pixabay.com/photo/2019/10/23/16/54/sunset-4572169_640.jpg",
        "src1280": "https://cdn.pixabay.com/photo/2019/10/23/16/54/sunset-4572169_1280.jpg"
    },
    {
        "id": "5429862",
        "src640": "https://cdn.pixabay.com/photo/2020/07/22/22/27/camel-5429862_640.jpg",
        "src1280": "https://cdn.pixabay.com/photo/2020/07/22/22/27/camel-5429862_1280.jpg"
    },
    {
        "id": "3999406",
        "src640": "https://cdn.pixabay.com/photo/2019/02/15/21/52/snow-3999406_640.jpg",
        "src1280": "https://cdn.pixabay.com/photo/2019/02/15/21/52/snow-3999406_1280.jpg"
    },
    {
        "id": "4778060",
        "src640": "https://cdn.pixabay.com/photo/2020/01/19/15/01/copenhagen-4778060_640.jpg",
        "src1280": "https://cdn.pixabay.com/photo/2020/01/19/15/01/copenhagen-4778060_1280.jpg"
    },
    {
        "id": "4936575",
        "src640": "https://cdn.pixabay.com/photo/2020/03/16/10/41/fisherman-4936575_640.jpg",
        "src1280": "https://cdn.pixabay.com/photo/2020/03/16/10/41/fisherman-4936575_1280.jpg"
    },
    {
        "id": "58602",
        "src640": "https://cdn.pixabay.com/photo/2012/10/01/13/26/lighthouse-58602_640.jpg",
        "src1280": "https://cdn.pixabay.com/photo/2012/10/01/13/26/lighthouse-58602_1280.jpg"
    },
    {
        "id": "4579702",
        "src640": "https://cdn.pixabay.com/photo/2019/10/26/14/52/thailand-4579702_640.jpg",
        "src1280": "https://cdn.pixabay.com/photo/2019/10/26/14/52/thailand-4579702_1280.jpg"
    },
    {
        "id": "2616184",
        "src640": "https://cdn.pixabay.com/photo/2017/08/09/23/37/tram-2616184_640.jpg",
        "src1280": "https://cdn.pixabay.com/photo/2017/08/09/23/37/tram-2616184_1280.jpg"
    },
    {
        "id": "7865083",
        "src640": "https://cdn.pixabay.com/photo/2023/03/20/15/08/dawn-7865083_640.jpg",
        "src1280": "https://cdn.pixabay.com/photo/2023/03/20/15/08/dawn-7865083_1280.jpg"
    },
    {
        "id": "3561036",
        "src640": "https://cdn.pixabay.com/photo/2018/07/25/10/20/schlei-3561036_640.jpg",
        "src1280": "https://cdn.pixabay.com/photo/2018/07/25/10/20/schlei-3561036_1280.jpg"
    },
    {
        "id": "5205976",
        "src640": "https://cdn.pixabay.com/photo/2020/05/22/16/21/sunset-5205976_640.jpg",
        "src1280": "https://cdn.pixabay.com/photo/2020/05/22/16/21/sunset-5205976_1280.jpg"
    },
    {
        "id": "4909995",
        "src640": "https://cdn.pixabay.com/photo/2020/03/07/14/59/beach-4909995_640.jpg",
        "src1280": "https://cdn.pixabay.com/photo/2020/03/07/14/59/beach-4909995_1280.jpg"
    },
    {
        "id": "4587208",
        "src640": "https://cdn.pixabay.com/photo/2019/10/29/15/26/halong-4587208_640.jpg",
        "src1280": "https://cdn.pixabay.com/photo/2019/10/29/15/26/halong-4587208_1280.jpg"
    },
    {
        "id": "3855073",
        "src640": "https://cdn.pixabay.com/photo/2018/12/04/08/40/port-3855073_640.jpg",
        "src1280": "https://cdn.pixabay.com/photo/2018/12/04/08/40/port-3855073_1280.jpg"
    },
    {
        "id": "3358773",
        "src640": "https://cdn.pixabay.com/photo/2018/04/29/00/56/seagull-3358773_640.jpg",
        "src1280": "https://cdn.pixabay.com/photo/2018/04/29/00/56/seagull-3358773_1280.jpg"
    },
    {
        "id": "3827095",
        "src640": "https://cdn.pixabay.com/photo/2018/11/20/11/08/sunset-3827095_640.jpg",
        "src1280": "https://cdn.pixabay.com/photo/2018/11/20/11/08/sunset-3827095_1280.jpg"
    },
    {
        "id": "4581574",
        "src640": "https://cdn.pixabay.com/photo/2019/10/27/12/12/ocean-4581574_640.jpg",
        "src1280": "https://cdn.pixabay.com/photo/2019/10/27/12/12/ocean-4581574_1280.jpg"
    },
    {
        "id": "6580531",
        "src640": "https://cdn.pixabay.com/photo/2021/08/28/09/41/sea-6580531_640.jpg",
        "src1280": "https://cdn.pixabay.com/photo/2021/08/28/09/41/sea-6580531_1280.jpg"
    },
    {
        "id": "8305087",
        "src640": "https://cdn.pixabay.com/photo/2023/10/09/22/37/ai-generated-8305087_640.jpg",
        "src1280": "https://cdn.pixabay.com/photo/2023/10/09/22/37/ai-generated-8305087_1280.jpg"
    },
    {
        "id": "7743126",
        "src640": "https://cdn.pixabay.com/photo/2023/01/25/10/43/bridge-7743126_640.jpg",
        "src1280": "https://cdn.pixabay.com/photo/2023/01/25/10/43/bridge-7743126_1280.jpg"
    },
    {
        "id": "7182570",
        "src640": "https://cdn.pixabay.com/photo/2022/05/08/17/30/sunset-7182570_640.jpg",
        "src1280": "https://cdn.pixabay.com/photo/2022/05/08/17/30/sunset-7182570_1280.jpg"
    },
    {
        "id": "5532831",
        "src640": "https://cdn.pixabay.com/photo/2020/08/31/15/59/beach-5532831_640.jpg",
        "src1280": "https://cdn.pixabay.com/photo/2020/08/31/15/59/beach-5532831_1280.jpg"
    },
    {
        "id": "166489",
        "src640": "https://cdn.pixabay.com/photo/2013/07/23/23/24/water-166489_640.jpg",
        "src1280": "https://cdn.pixabay.com/photo/2013/07/23/23/24/water-166489_1280.jpg"
    },
    {
        "id": "5922253",
        "src640": "https://cdn.pixabay.com/photo/2021/01/16/13/59/great-egret-5922253_640.jpg",
        "src1280": "https://cdn.pixabay.com/photo/2021/01/16/13/59/great-egret-5922253_1280.jpg"
    }
]