[
    {
        "id": "7317824",
        "src640": "https://cdn.pixabay.com/photo/2022/07/12/17/13/santorini-7317824_640.jpg",
        "src1280": "https://cdn.pixabay.com/photo/2022/07/12/17/13/santorini-7317824_1280.jpg"
    },
    {
        "id": "2090728",
        "src640": "https://cdn.pixabay.com/photo/2017/02/22/21/58/lighthouse-2090728_640.jpg",
        "src1280": "https://cdn.pixabay.com/photo/2017/02/22/21/58/lighthouse-2090728_1280.jpg"
    },
    {
        "id": "2807441",
        "src640": "https://cdn.pixabay.com/photo/2017/10/01/23/44/iceland-2807441_640.jpg",
        "src1280": "https://cdn.pixabay.com/photo/2017/10/01/23/44/iceland-2807441_1280.jpg"
    },
    {
        "id": "6513192",
        "src640": "https://cdn.pixabay.com/photo/2021/07/31/22/28/woman-6513192_640.jpg",
        "src1280": "https://cdn.pixabay.com/photo/2021/07/31/22/28/woman-6513192_1280.jpg"
    },
    {
        "id": "5076724",
        "src640": "https://cdn.pixabay.com/photo/2020/04/22/09/08/beach-5076724_640.jpg",
        "src1280": "https://cdn.pixabay.com/photo/2020/04/22/09/08/beach-5076724_1280.jpg"
    },
    {
        "id": "7005922",
        "src640": "https://cdn.pixabay.com/photo/2022/02/10/18/53/sunset-7005922_640.jpg",
        "src1280": "https://cdn.pixabay.com/photo/2022/02/10/18/53/sunset-7005922_1280.jpg"
    },
    {
        "id": "4247046",
        "src640": "https://cdn.pixabay.com/photo/2019/06/02/18/09/boothbay-harbor-4247046_640.jpg",
        "src1280": "https://cdn.pixabay.com/photo/2019/06/02/18/09/boothbay-harbor-4247046_1280.jpg"
    },
    {
        "id": "7548042",
        "src640": "https://cdn.pixabay.com/photo/2022/10/26/10/00/sea-7548042_640.jpg",
        "src1280": "https://cdn.pixabay.com/photo/2022/10/26/10/00/sea-7548042_1280.jpg"
    },
    {
        "id": "774305",
        "src640": "https://cdn.pixabay.com/photo/2015/05/19/20/56/north-sea-774305_640.jpg",
        "src1280": "https://cdn.pixabay.com/photo/2015/05/19/20/56/north-sea-774305_1280.jpg"
    },
    {
        "id": "5847002",
        "src640": "https://cdn.pixabay.com/photo/2020/12/20/13/12/beach-5847002_640.jpg",
        "src1280": "https://cdn.pixabay.com/photo/2020/12/20/13/12/beach-5847002_1280.jpg"
    },
    {
        "id": "1183260",
        "src640": "https://cdn.pixabay.com/photo/2016/02/06/17/25/camel-1183260_640.jpg",
        "src1280": "https://cdn.pixabay.com/photo/2016/02/06/17/25/camel-1183260_1280.jpg"
    },
    {
        "id": "7398336",
        "src640": "https://cdn.pixabay.com/photo/2022/08/20/05/45/stones-7398336_640.jpg",
        "src1280": "https://cdn.pixabay.com/photo/2022/08/20/05/45/stones-7398336_1280.jpg"
    },
    {
        "id": "4263708",
        "src640": "https://cdn.pixabay.com/photo/2019/06/10/08/21/wedding-4263708_640.jpg",
        "src1280": "https://cdn.pixabay.com/photo/2019/06/10/08/21/wedding-4263708_1280.jpg"
    },
    {
        "id": "4983539",
        "src640": "https://cdn.pixabay.com/photo/2020/03/30/08/51/sea-4983539_640.jpg",
        "src1280": "https://cdn.pixabay.com/photo/2020/03/30/08/51/sea-4983539_1280.jpg"
    },
    {
        "id": "1040064",
        "src640": "https://cdn.pixabay.com/photo/2015/11/12/11/34/lighthouse-1040064_640.jpg",
        "src1280": "https://cdn.pixabay.com/photo/2015/11/12/11/34/lighthouse-1040064_1280.jpg"
    },
    {
        "id": "7157750",
        "src640": "https://cdn.pixabay.com/photo/2022/04/26/08/29/rocks-7157750_640.jpg",
        "src1280": "https://cdn.pixabay.com/photo/2022/04/26/08/29/rocks-7157750_1280.jpg"
    },
    {
        "id": "1415774",
        "src640": "https://cdn.pixabay.com/photo/2016/05/25/20/23/sea-1415774_640.jpg",
        "src1280": "https://cdn.pixabay.com/photo/2016/05/25/20/23/sea-1415774_1280.jpg"
    },
    {
        "id": "784539",
        "src640": "https://cdn.pixabay.com/photo/2015/05/26/10/55/stairs-784539_640.jpg",
        "src1280": "https://cdn.pixabay.com/photo/2015/05/26/10/55/stairs-784539_1280.jpg"
    },
    {
        "id": "7692210",
        "src640": "https://cdn.pixabay.com/photo/2023/01/02/14/35/sea-7692210_640.jpg",
        "src1280": "https://cdn.pixabay.com/photo/2023/01/02/14/35/sea-7692210_1280.jpg"
    },
    {
        "id": "4945689",
        "src640": "https://cdn.pixabay.com/photo/2020/03/18/23/01/sky-4945689_640.jpg",
        "src1280": "https://cdn.pixabay.com/photo/2020/03/18/23/01/sky-4945689_1280.jpg"
    },
    {
        "id": "198060",
        "src640": "https://cdn.pixabay.com/photo/2013/10/19/17/11/breakwater-198060_640.jpg",
        "src1280": "https://cdn.pixabay.com/photo/2013/10/19/17/11/breakwater-198060_1280.jpg"
    },
    {
        "id": "4521006",
        "src640": "https://cdn.pixabay.com/photo/2019/10/02/14/05/cormorant-4521006_640.jpg",
        "src1280": "https://cdn.pixabay.com/photo/2019/10/02/14/05/cormorant-4521006_1280.jpg"
    },
    {
        "id": "2596994",
        "src640": "https://cdn.pixabay.com/photo/2017/08/06/22/21/sea-2596994_640.jpg",
        "src1280": "https://cdn.pixabay.com/photo/2017/08/06/22/21/sea-2596994_1280.jpg"
    },
    {
        "id": "5095577",
        "src640": "https://cdn.pixabay.com/photo/2020/04/26/14/52/boat-5095577_640.jpg",
        "src1280": "https://cdn.pixabay.com/photo/2020/04/26/14/52/boat-5095577_1280.jpg"
    },
    {
        "id": "2575316",
        "src640": "https://cdn.pixabay.com/photo/2017/08/03/10/07/clouds-2575316_640.jpg",
        "src1280": "https://cdn.pixabay.com/photo/2017/08/03/10/07/clouds-2575316_1280.jpg"
    },
    {
        "id": "1128020",
        "src640": "https://cdn.pixabay.com/photo/2016/01/08/14/07/croatia-1128020_640.jpg",
        "src1280": "https://cdn.pixabay.com/photo/2016/01/08/14/07/croatia-1128020_1280.jpg"
    },
    {
        "id": "5379290",
        "src640": "https://cdn.pixabay.com/photo/2020/07/07/05/21/beach-5379290_640.jpg",
        "src1280": "https://cdn.pixabay.com/photo/2020/07/07/05/21/beach-5379290_1280.jpg"
    },
    {
        "id": "7826308",
        "src640": "https://cdn.pixabay.com/photo/2023/03/02/19/56/ai-generated-7826308_640.jpg",
        "src1280": "https://cdn.pixabay.com/photo/2023/03/02/19/56/ai-generated-7826308_1280.jpg"
    },
    {
        "id": "7877156",
        "src640": "https://cdn.pixabay.com/photo/2023/03/25/23/50/boat-7877156_640.jpg",
        "src1280": "https://cdn.pixabay.com/photo/2023/03/25/23/50/boat-7877156_1280.jpg"
    },
    {
        "id": "7294487",
        "src640": "https://cdn.pixabay.com/photo/2022/06/30/20/27/sail-training-ship-7294487_640.jpg",
        "src1280": "https://cdn.pixabay.com/photo/2022/06/30/20/27/sail-training-ship-7294487_1280.jpg"
    },
    {
        "id": "172161",
        "src640": "https://cdn.pixabay.com/photo/2013/08/13/12/41/borkum-172161_640.jpg",
        "src1280": "https://cdn.pixabay.com/photo/2013/08/13/12/41/borkum-172161_1280.jpg"
    },
    {
        "id": "4513465",
        "src640": "https://cdn.pixabay.com/photo/2019/09/29/14/44/sunset-4513465_640.jpg",
        "src1280": "https://cdn.pixabay.com/photo/2019/09/29/14/44/sunset-4513465_1280.jpg"
    },
    {
        "id": "4964304",
        "src640": "https://cdn.pixabay.com/photo/2020/03/24/14/43/sunset-4964304_640.jpg",
        "src1280": "https://cdn.pixabay.com/photo/2020/03/24/14/43/sunset-4964304_1280.jpg"
    },
    {
        "id": "7736492",
        "src640": "https://cdn.pixabay.com/photo/2023/01/22/14/10/beach-7736492_640.jpg",
        "src1280": "https://cdn.pixabay.com/photo/2023/01/22/14/10/beach-7736492_1280.jpg"
    },
    {
        "id": "2559656",
        "src640": "https://cdn.pixabay.com/photo/2017/07/31/18/11/mountain-2559656_640.jpg",
        "src1280": "https://cdn.pixabay.com/photo/2017/07/31/18/11/mountain-2559656_1280.jpg"
    },
    {
        "id": "421449",
        "src640": "https://cdn.pixabay.com/photo/2014/08/19/12/41/windsurfer-421449_640.jpg",
        "src1280": "https://cdn.pixabay.com/photo/2014/08/19/12/41/windsurfer-421449_1280.jpg"
    },
    {
        "id": "1091522",
        "src640": "https://cdn.pixabay.com/photo/2015/12/13/18/19/sky-1091522_640.jpg",
        "src1280": "https://cdn.pixabay.com/photo/2015/12/13/18/19/sky-1091522_1280.jpg"
    },
    {
        "id": "6573830",
        "src640": "https://cdn.pixabay.com/photo/2021/08/25/15/31/sea-6573830_640.jpg",
        "src1280": "https://cdn.pixabay.com/photo/2021/08/25/15/31/sea-6573830_1280.jpg"
    },
    {
        "id": "3526148",
        "src640": "https://cdn.pixabay.com/photo/2018/07/09/13/35/scenery-3526148_640.jpg",
        "src1280": "https://cdn.pixabay.com/photo/2018/07/09/13/35/scenery-3526148_1280.jpg"
    },
    {
        "id": "2431515",
        "src640": "https://cdn.pixabay.com/photo/2017/06/22/16/54/sailboat-2431515_640.jpg",
        "src1280": "https://cdn.pixabay.com/photo/2017/06/22/16/54/sailboat-2431515_1280.jpg"
    },
    {
        "id": "4231652",
        "src640": "https://cdn.pixabay.com/photo/2019/05/27/01/29/canada-4231652_640.jpg",
        "src1280": "https://cdn.pixabay.com/photo/2019/05/27/01/29/canada-4231652_1280.jpg"
    },
    {
        "id": "4405366",
        "src640": "https://cdn.pixabay.com/photo/2019/08/14/10/36/greece-4405366_640.jpg",
        "src1280": "https://cdn.pixabay.com/photo/2019/08/14/10/36/greece-4405366_1280.jpg"
    },
    {
        "id": "213597",
        "src640": "https://cdn.pixabay.com/photo/2013/11/20/05/18/water-213597_640.jpg",
        "src1280": "https://cdn.pixabay.com/photo/2013/11/20/05/18/water-213597_1280.jpg"
    },
    {
        "id": "4864548",
        "src640": "https://cdn.pixabay.com/photo/2020/02/20/11/44/sea-4864548_640.jpg",
        "src1280": "https://cdn.pixabay.com/photo/2020/02/20/11/44/sea-4864548_1280.jpg"
    },
    {
        "id": "4830702",
        "src640": "https://cdn.pixabay.com/photo/2020/02/08/17/14/genoa-4830702_640.jpg",
        "src1280": "https://cdn.pixabay.com/photo/2020/02/08/17/14/genoa-4830702_1280.jpg"
    },
    {
        "id": "7377589",
        "src640": "https://cdn.pixabay.com/photo/2022/08/10/16/37/girl-7377589_640.jpg",
        "src1280": "https://cdn.pixabay.com/photo/2022/08/10/16/37/girl-7377589_1280.jpg"
    },
    {
        "id": "4771202",
        "src640": "https://cdn.pixabay.com/photo/2020/01/16/17/20/sea-4771202_640.jpg",
        "src1280": "https://cdn.pixabay.com/photo/2020/01/16/17/20/sea-4771202_1280.jpg"
    },
    {
        "id": "5361263",
        "src640": "https://cdn.pixabay.com/photo/2020/07/01/23/32/roche-5361263_640.jpg",
        "src1280": "https://cdn.pixabay.com/photo/2020/07/01/23/32/roche-5361263_1280.jpg"
    },
    {
        "id": "4745422",
        "src640": "https://cdn.pixabay.com/photo/2020/01/06/13/55/lake-4745422_640.jpg",
        "src1280": "https://cdn.pixabay.com/photo/2020/01/06/13/55/lake-4745422_1280.jpg"
    },
    {
        "id": "4704075",
        "src640": "https://cdn.pixabay.com/photo/2019/12/18/14/00/restaurant-4704075_640.jpg",
        "src1280": "https://cdn.pixabay.com/photo/2019/12/18/14/00/restaurant-4704075_1280.jpg"
    },
    {
        "id": "5302521",
        "src640": "https://cdn.pixabay.com/photo/2020/06/15/16/36/sea-5302521_640.jpg",
        "src1280": "https://cdn.pixabay.com/photo/2020/06/15/16/36/sea-5302521_1280.jpg"
    },
    {
        "id": "7439050",
        "src640": "https://cdn.pixabay.com/photo/2022/09/07/15/47/beach-7439050_640.jpg",
        "src1280": "https://cdn.pixabay.com/photo/2022/09/07/15/47/beach-7439050_1280.jpg"
    },
    {
        "id": "7037060",
        "src640": "https://cdn.pixabay.com/photo/2022/02/27/11/03/river-7037060_640.jpg",
        "src1280": "https://cdn.pixabay.com/photo/2022/02/27/11/03/river-7037060_1280.jpg"
    },
    {
        "id": "5302522",
        "src640": "https://cdn.pixabay.com/photo/2020/06/15/16/36/sea-5302522_640.jpg",
        "src1280": "https://cdn.pixabay.com/photo/2020/06/15/16/36/sea-5302522_1280.jpg"
    },
    {
        "id": "2783504",
        "src640": "https://cdn.pixabay.com/photo/2017/09/24/22/38/zanzibar-2783504_640.jpg",
        "src1280": "https://cdn.pixabay.com/photo/2017/09/24/22/38/zanzibar-2783504_1280.jpg"
    },
    {
        "id": "17397",
        "src640": "https://cdn.pixabay.com/photo/2012/02/27/15/44/beach-17397_640.jpg",
        "src1280": "https://cdn.pixabay.com/photo/2012/02/27/15/44/beach-17397_1280.jpg"
    },
    {
        "id": "7117059",
        "src640": "https://cdn.pixabay.com/photo/2022/04/07/08/10/stone-cairn-7117059_640.jpg",
        "src1280": "https://cdn.pixabay.com/photo/2022/04/07/08/10/stone-cairn-7117059_1280.jpg"
    },
    {
        "id": "5358809",
        "src640": "https://cdn.pixabay.com/photo/2020/07/01/08/01/lighthouse-5358809_640.jpg",
        "src1280": "https://cdn.pixabay.com/photo/2020/07/01/08/01/lighthouse-5358809_1280.jpg"
    },
    {
        "id": "4953605",
        "src640": "https://cdn.pixabay.com/photo/2020/03/21/11/56/wave-4953605_640.jpg",
        "src1280": "https://cdn.pixabay.com/photo/2020/03/21/11/56/wave-4953605_1280.jpg"
    },
    {
        "id": "7733755",
        "src640": "https://cdn.pixabay.com/photo/2023/01/21/12/22/sunset-7733755_640.jpg",
        "src1280": "https://cdn.pixabay.com/photo/2023/01/21/12/22/sunset-7733755_1280.jpg"
    },
    {
        "id": "4778652",
        "src640": "https://cdn.pixabay.com/photo/2020/01/19/18/17/rock-4778652_640.jpg",
        "src1280": "https://cdn.pixabay.com/photo/2020/01/19/18/17/rock-4778652_1280.jpg"
    },
    {
        "id": "5481171",
        "src640": "https://cdn.pixabay.com/photo/2020/08/11/21/22/astronaut-5481171_640.jpg",
        "src1280": "https://cdn.pixabay.com/photo/2020/08/11/21/22/astronaut-5481171_1280.jpg"
    },
    {
        "id": "4830208",
        "src640": "https://cdn.pixabay.com/photo/2020/02/08/14/12/surfer-4830208_640.jpg",
        "src1280": "https://cdn.pixabay.com/photo/2020/02/08/14/12/surfer-4830208_1280.jpg"
    },
    {
        "id": "2562005",
        "src640": "https://cdn.pixabay.com/photo/2017/07/31/23/32/beach-2562005_640.jpg",
        "src1280": "https://cdn.pixabay.com/photo/2017/07/31/23/32/beach-2562005_1280.jpg"
    },
    {
        "id": "5366333",
        "src640": "https://cdn.pixabay.com/photo/2020/07/03/13/38/sunset-5366333_640.jpg",
        "src1280": "https://cdn.pixabay.com/photo/2020/07/03/13/38/sunset-5366333_1280.jpg"
    },
    {
        "id": "4529087",
        "src640": "https://cdn.pixabay.com/photo/2019/10/06/00/38/sunrise-4529087_640.jpg",
        "src1280": "https://cdn.pixabay.com/photo/2019/10/06/00/38/sunrise-4529087_1280.jpg"
    },
    {
        "id": "1847418",
        "src640": "https://cdn.pixabay.com/photo/2016/11/21/20/26/pile-1847418_640.jpg",
        "src1280": "https://cdn.pixabay.com/photo/2016/11/21/20/26/pile-1847418_1280.jpg"
    },
    {
        "id": "4468401",
        "src640": "https://cdn.pixabay.com/photo/2019/09/11/09/48/boat-4468401_640.jpg",
        "src1280": "https://cdn.pixabay.com/photo/2019/09/11/09/48/boat-4468401_1280.jpg"
    },
    {
        "id": "5431210",
        "src640": "https://cdn.pixabay.com/photo/2020/07/23/12/13/flamborough-head-5431210_640.jpg",
        "src1280": "https://cdn.pixabay.com/photo/2020/07/23/12/13/flamborough-head-5431210_1280.jpg"
    },
    {
        "id": "2592222",
        "src640": "https://cdn.pixabay.com/photo/2017/08/06/12/50/bridge-2592222_640.jpg",
        "src1280": "https://cdn.pixabay.com/photo/2017/08/06/12/50/bridge-2592222_1280.jpg"
    },
    {
        "id": "237995",
        "src640": "https://cdn.pixabay.com/photo/2014/01/03/09/50/palms-237995_640.jpg",
        "src1280": "https://cdn.pixabay.com/photo/2014/01/03/09/50/palms-237995_1280.jpg"
    },
    {
        "id": "6860677",
        "src640": "https://cdn.pixabay.com/photo/2021/12/10/14/46/lake-6860677_640.jpg",
        "src1280": "https://cdn.pixabay.com/photo/2021/12/10/14/46/lake-6860677_1280.jpg"
    },
    {
        "id": "5058956",
        "src640": "https://cdn.pixabay.com/photo/2020/04/18/11/55/taormina-5058956_640.jpg",
        "src1280": "https://cdn.pixabay.com/photo/2020/04/18/11/55/taormina-5058956_1280.jpg"
    },
    {
        "id": "4798499",
        "src640": "https://cdn.pixabay.com/photo/2020/01/27/22/29/sunset-4798499_640.jpg",
        "src1280": "https://cdn.pixabay.com/photo/2020/01/27/22/29/sunset-4798499_1280.jpg"
    },
    {
        "id": "4781868",
        "src640": "https://cdn.pixabay.com/photo/2020/01/21/01/36/nature-4781868_640.jpg",
        "src1280": "https://cdn.pixabay.com/photo/2020/01/21/01/36/nature-4781868_1280.jpg"
    },
    {
        "id": "4898449",
        "src640": "https://cdn.pixabay.com/photo/2020/03/03/11/38/cutter-4898449_640.jpg",
        "src1280": "https://cdn.pixabay.com/photo/2020/03/03/11/38/cutter-4898449_1280.jpg"
    },
    {
        "id": "8379466",
        "src640": "https://cdn.pixabay.com/photo/2023/11/10/14/40/mountain-8379466_640.jpg",
        "src1280": "https://cdn.pixabay.com/photo/2023/11/10/14/40/mountain-8379466_1280.jpg"
    },
    {
        "id": "4927836",
        "src640": "https://cdn.pixabay.com/photo/2020/03/13/12/39/drift-wood-4927836_640.jpg",
        "src1280": "https://cdn.pixabay.com/photo/2020/03/13/12/39/drift-wood-4927836_1280.jpg"
    },
    {
        "id": "427217",
        "src640": "https://cdn.pixabay.com/photo/2014/08/25/16/04/starfish-427217_640.jpg",
        "src1280": "https://cdn.pixabay.com/photo/2014/08/25/16/04/starfish-427217_1280.jpg"
    },
    {
        "id": "7716799",
        "src640": "https://cdn.pixabay.com/photo/2023/01/13/20/03/seal-7716799_640.jpg",
        "src1280": "https://cdn.pixabay.com/photo/2023/01/13/20/03/seal-7716799_1280.jpg"
    },
    {
        "id": "3637122",
        "src640": "https://cdn.pixabay.com/photo/2018/08/28/10/29/holiday-3637122_640.jpg",
        "src1280": "https://cdn.pixabay.com/photo/2018/08/28/10/29/holiday-3637122_1280.jpg"
    },
    {
        "id": "4964735",
        "src640": "https://cdn.pixabay.com/photo/2020/03/24/17/13/nature-4964735_640.jpg",
        "src1280": "https://cdn.pixabay.com/photo/2020/03/24/17/13/nature-4964735_1280.jpg"
    },
    {
        "id": "4673056",
        "src640": "https://cdn.pixabay.com/photo/2019/12/04/16/27/cape-point-4673056_640.jpg",
        "src1280": "https://cdn.pixabay.com/photo/2019/12/04/16/27/cape-point-4673056_1280.jpg"
    },
    {
        "id": "4823849",
        "src640": "https://cdn.pixabay.com/photo/2020/02/06/10/56/portugal-4823849_640.jpg",
        "src1280": "https://cdn.pixabay.com/photo/2020/02/06/10/56/portugal-4823849_1280.jpg"
    },
    {
        "id": "5702376",
        "src640": "https://cdn.pixabay.com/photo/2020/10/31/21/21/sea-5702376_640.jpg",
        "src1280": "https://cdn.pixabay.com/photo/2020/10/31/21/21/sea-5702376_1280.jpg"
    },
    {
        "id": "4400824",
        "src640": "https://cdn.pixabay.com/photo/2019/08/12/09/35/hora-azul-4400824_640.jpg",
        "src1280": "https://cdn.pixabay.com/photo/2019/08/12/09/35/hora-azul-4400824_1280.jpg"
    },
    {
        "id": "4034003",
        "src640": "https://cdn.pixabay.com/photo/2019/03/04/12/48/boat-4034003_640.jpg",
        "src1280": "https://cdn.pixabay.com/photo/2019/03/04/12/48/boat-4034003_1280.jpg"
    },
    {
        "id": "5108558",
        "src640": "https://cdn.pixabay.com/photo/2020/04/29/11/40/octopus-5108558_640.jpg",
        "src1280": "https://cdn.pixabay.com/photo/2020/04/29/11/40/octopus-5108558_1280.jpg"
    },
    {
        "id": "7571150",
        "src640": "https://cdn.pixabay.com/photo/2022/11/05/05/11/lighthouse-7571150_640.jpg",
        "src1280": "https://cdn.pixabay.com/photo/2022/11/05/05/11/lighthouse-7571150_1280.jpg"
    },
    {
        "id": "4106803",
        "src640": "https://cdn.pixabay.com/photo/2019/04/06/07/12/peacock-4106803_640.jpg",
        "src1280": "https://cdn.pixabay.com/photo/2019/04/06/07/12/peacock-4106803_1280.jpg"
    },
    {
        "id": "3176977",
        "src640": "https://cdn.pixabay.com/photo/2018/02/23/23/22/lighthouse-3176977_640.jpg",
        "src1280": "https://cdn.pixabay.com/photo/2018/02/23/23/22/lighthouse-3176977_1280.jpg"
    },
    {
        "id": "4994010",
        "src640": "https://cdn.pixabay.com/photo/2020/04/02/08/20/sea-4994010_640.jpg",
        "src1280": "https://cdn.pixabay.com/photo/2020/04/02/08/20/sea-4994010_1280.jpg"
    },
    {
        "id": "212442",
        "src640": "https://cdn.pixabay.com/photo/2013/11/18/04/57/landscape-212442_640.jpg",
        "src1280": "https://cdn.pixabay.com/photo/2013/11/18/04/57/landscape-212442_1280.jpg"
    },
    {
        "id": "5061028",
        "src640": "https://cdn.pixabay.com/photo/2020/04/18/21/00/seagull-5061028_640.jpg",
        "src1280": "https://cdn.pixabay.com/photo/2020/04/18/21/00/seagull-5061028_1280.jpg"
    },
    {
        "id": "7356148",
        "src640": "https://cdn.pixabay.com/photo/2022/07/31/15/34/dried-fish-7356148_640.jpg",
        "src1280": "https://cdn.pixabay.com/photo/2022/07/31/15/34/dried-fish-7356148_1280.jpg"
    },
    {
        "id": "201245",
        "src640": "https://cdn.pixabay.com/photo/2013/10/26/22/17/groyne-201245_640.jpg",
        "src1280": "https://cdn.pixabay.com/photo/2013/10/26/22/17/groyne-201245_1280.jpg"
    },
    {
        "id": "5045349",
        "src640": "https://cdn.pixabay.com/photo/2020/04/15/06/57/lighthouse-5045349_640.jpg",
        "src1280": "https://cdn.pixabay.com/photo/2020/04/15/06/57/lighthouse-5045349_1280.jpg"
    }
]