[
    {
        "id": "4591722",
        "src640": "https://cdn.pixabay.com/photo/2019/10/31/11/49/sanctuary-4591722_640.jpg",
        "src1280": "https://cdn.pixabay.com/photo/2019/10/31/11/49/sanctuary-4591722_1280.jpg"
    },
    {
        "id": "7829994",
        "src640": "https://cdn.pixabay.com/photo/2023/03/04/18/38/waves-7829994_640.jpg",
        "src1280": "https://cdn.pixabay.com/photo/2023/03/04/18/38/waves-7829994_1280.jpg"
    },
    {
        "id": "2709699",
        "src640": "https://cdn.pixabay.com/photo/2017/09/03/09/30/greece-2709699_640.jpg",
        "src1280": "https://cdn.pixabay.com/photo/2017/09/03/09/30/greece-2709699_1280.jpg"
    },
    {
        "id": "2649910",
        "src640": "https://cdn.pixabay.com/photo/2017/08/17/03/24/love-you-2649910_640.jpg",
        "src1280": "https://cdn.pixabay.com/photo/2017/08/17/03/24/love-you-2649910_1280.jpg"
    },
    {
        "id": "2659178",
        "src640": "https://cdn.pixabay.com/photo/2017/08/19/17/00/sailing-ship-2659178_640.jpg",
        "src1280": "https://cdn.pixabay.com/photo/2017/08/19/17/00/sailing-ship-2659178_1280.jpg"
    },
    {
        "id": "921483",
        "src640": "https://cdn.pixabay.com/photo/2015/09/04/01/18/rocks-921483_640.jpg",
        "src1280": "https://cdn.pixabay.com/photo/2015/09/04/01/18/rocks-921483_1280.jpg"
    },
    {
        "id": "5332817",
        "src640": "https://cdn.pixabay.com/photo/2020/06/23/14/58/sea-5332817_640.jpg",
        "src1280": "https://cdn.pixabay.com/photo/2020/06/23/14/58/sea-5332817_1280.jpg"
    },
    {
        "id": "4939517",
        "src640": "https://cdn.pixabay.com/photo/2020/03/17/09/15/background-4939517_640.jpg",
        "src1280": "https://cdn.pixabay.com/photo/2020/03/17/09/15/background-4939517_1280.jpg"
    },
    {
        "id": "4439943",
        "src640": "https://cdn.pixabay.com/photo/2019/08/29/20/22/sunrise-4439943_640.jpg",
        "src1280": "https://cdn.pixabay.com/photo/2019/08/29/20/22/sunrise-4439943_1280.jpg"
    },
    {
        "id": "1129198",
        "src640": "https://cdn.pixabay.com/photo/2016/01/08/20/52/greece-1129198_640.jpg",
        "src1280": "https://cdn.pixabay.com/photo/2016/01/08/20/52/greece-1129198_1280.jpg"
    },
    {
        "id": "4630326",
        "src640": "https://cdn.pixabay.com/photo/2019/11/16/14/04/sea-4630326_640.jpg",
        "src1280": "https://cdn.pixabay.com/photo/2019/11/16/14/04/sea-4630326_1280.jpg"
    },
    {
        "id": "2396416",
        "src640": "https://cdn.pixabay.com/photo/2017/06/12/18/42/turkey-2396416_640.jpg",
        "src1280": "https://cdn.pixabay.com/photo/2017/06/12/18/42/turkey-2396416_1280.jpg"
    },
    {
        "id": "406740",
        "src640": "https://cdn.pixabay.com/photo/2014/07/31/20/11/seal-406740_640.jpg",
        "src1280": "https://cdn.pixabay.com/photo/2014/07/31/20/11/seal-406740_1280.jpg"
    },
    {
        "id": "993742",
        "src640": "https://cdn.pixabay.com/photo/2015/10/18/01/34/mountain-993742_640.jpg",
        "src1280": "https://cdn.pixabay.com/photo/2015/10/18/01/34/mountain-993742_1280.jpg"
    },
    {
        "id": "7150246",
        "src640": "https://cdn.pixabay.com/photo/2022/04/22/17/24/sea-7150246_640.jpg",
        "src1280": "https://cdn.pixabay.com/photo/2022/04/22/17/24/sea-7150246_1280.jpg"
    },
    {
        "id": "7216071",
        "src640": "https://cdn.pixabay.com/photo/2022/05/23/12/31/fishing-7216071_640.jpg",
        "src1280": "https://cdn.pixabay.com/photo/2022/05/23/12/31/fishing-7216071_1280.jpg"
    },
    {
        "id": "2113100",
        "src640": "https://cdn.pixabay.com/photo/2017/03/03/02/14/blue-2113100_640.jpg",
        "src1280": "https://cdn.pixabay.com/photo/2017/03/03/02/14/blue-2113100_1280.jpg"
    },
    {
        "id": "7468643",
        "src640": "https://cdn.pixabay.com/photo/2022/09/20/19/48/bird-7468643_640.jpg",
        "src1280": "https://cdn.pixabay.com/photo/2022/09/20/19/48/bird-7468643_1280.jpg"
    },
    {
        "id": "3681389",
        "src640": "https://cdn.pixabay.com/photo/2018/09/16/12/22/white-cliffs-3681389_640.jpg",
        "src1280": "https://cdn.pixabay.com/photo/2018/09/16/12/22/white-cliffs-3681389_1280.jpg"
    },
    {
        "id": "997976",
        "src640": "https://cdn.pixabay.com/photo/2015/10/20/16/09/greece-997976_640.jpg",
        "src1280": "https://cdn.pixabay.com/photo/2015/10/20/16/09/greece-997976_1280.jpg"
    },
    {
        "id": "5505313",
        "src640": "https://cdn.pixabay.com/photo/2020/08/21/05/50/beach-5505313_640.jpg",
        "src1280": "https://cdn.pixabay.com/photo/2020/08/21/05/50/beach-5505313_1280.jpg"
    },
    {
        "id": "2549081",
        "src640": "https://cdn.pixabay.com/photo/2017/07/28/16/14/sand-2549081_640.jpg",
        "src1280": "https://cdn.pixabay.com/photo/2017/07/28/16/14/sand-2549081_1280.jpg"
    },
    {
        "id": "4770774",
        "src640": "https://cdn.pixabay.com/photo/2020/01/16/14/28/nubian-ibex-4770774_640.jpg",
        "src1280": "https://cdn.pixabay.com/photo/2020/01/16/14/28/nubian-ibex-4770774_1280.jpg"
    },
    {
        "id": "957965",
        "src640": "https://cdn.pixabay.com/photo/2015/09/25/18/49/san-diego-957965_640.jpg",
        "src1280": "https://cdn.pixabay.com/photo/2015/09/25/18/49/san-diego-957965_1280.jpg"
    },
    {
        "id": "5106728",
        "src640": "https://cdn.pixabay.com/photo/2020/04/29/00/21/sailboat-5106728_640.jpg",
        "src1280": "https://cdn.pixabay.com/photo/2020/04/29/00/21/sailboat-5106728_1280.jpg"
    },
    {
        "id": "8265770",
        "src640": "https://cdn.pixabay.com/photo/2023/09/21/00/15/ai-generated-8265770_640.jpg",
        "src1280": "https://cdn.pixabay.com/photo/2023/09/21/00/15/ai-generated-8265770_1280.jpg"
    },
    {
        "id": "4555011",
        "src640": "https://cdn.pixabay.com/photo/2019/10/16/17/39/church-4555011_640.jpg",
        "src1280": "https://cdn.pixabay.com/photo/2019/10/16/17/39/church-4555011_1280.jpg"
    },
    {
        "id": "2710865",
        "src640": "https://cdn.pixabay.com/photo/2017/09/03/15/51/lighthouse-2710865_640.jpg",
        "src1280": "https://cdn.pixabay.com/photo/2017/09/03/15/51/lighthouse-2710865_1280.jpg"
    },
    {
        "id": "141708",
        "src640": "https://cdn.pixabay.com/photo/2013/06/27/12/15/cruise-141708_640.jpg",
        "src1280": "https://cdn.pixabay.com/photo/2013/06/27/12/15/cruise-141708_1280.jpg"
    },
    {
        "id": "4498251",
        "src640": "https://cdn.pixabay.com/photo/2019/09/23/10/49/cliff-4498251_640.jpg",
        "src1280": "https://cdn.pixabay.com/photo/2019/09/23/10/49/cliff-4498251_1280.jpg"
    },
    {
        "id": "902191",
        "src640": "https://cdn.pixabay.com/photo/2015/08/22/22/17/rescuer-902191_640.jpg",
        "src1280": "https://cdn.pixabay.com/photo/2015/08/22/22/17/rescuer-902191_1280.jpg"
    },
    {
        "id": "2511536",
        "src640": "https://cdn.pixabay.com/photo/2017/07/17/06/13/beach-2511536_640.jpg",
        "src1280": "https://cdn.pixabay.com/photo/2017/07/17/06/13/beach-2511536_1280.jpg"
    },
    {
        "id": "2599078",
        "src640": "https://cdn.pixabay.com/photo/2017/08/07/03/01/sea-2599078_640.jpg",
        "src1280": "https://cdn.pixabay.com/photo/2017/08/07/03/01/sea-2599078_1280.jpg"
    },
    {
        "id": "2830369",
        "src640": "https://cdn.pixabay.com/photo/2017/10/08/15/48/esenkoy-2830369_640.jpg",
        "src1280": "https://cdn.pixabay.com/photo/2017/10/08/15/48/esenkoy-2830369_1280.jpg"
    },
    {
        "id": "2375983",
        "src640": "https://cdn.pixabay.com/photo/2017/06/06/03/26/fishing-pier-2375983_640.jpg",
        "src1280": "https://cdn.pixabay.com/photo/2017/06/06/03/26/fishing-pier-2375983_1280.jpg"
    },
    {
        "id": "2710868",
        "src640": "https://cdn.pixabay.com/photo/2017/09/03/15/52/lighthouse-2710868_640.jpg",
        "src1280": "https://cdn.pixabay.com/photo/2017/09/03/15/52/lighthouse-2710868_1280.jpg"
    },
    {
        "id": "6721634",
        "src640": "https://cdn.pixabay.com/photo/2021/10/18/17/39/river-6721634_640.jpg",
        "src1280": "https://cdn.pixabay.com/photo/2021/10/18/17/39/river-6721634_1280.jpg"
    },
    {
        "id": "3095014",
        "src640": "https://cdn.pixabay.com/photo/2018/01/20/17/32/lighthouse-3095014_640.jpg",
        "src1280": "https://cdn.pixabay.com/photo/2018/01/20/17/32/lighthouse-3095014_1280.jpg"
    },
    {
        "id": "4899347",
        "src640": "https://cdn.pixabay.com/photo/2020/03/03/17/49/yacht-4899347_640.jpg",
        "src1280": "https://cdn.pixabay.com/photo/2020/03/03/17/49/yacht-4899347_1280.jpg"
    },
    {
        "id": "7234128",
        "src640": "https://cdn.pixabay.com/photo/2022/05/31/19/32/lighthouse-7234128_640.jpg",
        "src1280": "https://cdn.pixabay.com/photo/2022/05/31/19/32/lighthouse-7234128_1280.jpg"
    },
    {
        "id": "1177790",
        "src640": "https://cdn.pixabay.com/photo/2016/02/03/19/29/mussels-1177790_640.jpg",
        "src1280": "https://cdn.pixabay.com/photo/2016/02/03/19/29/mussels-1177790_1280.jpg"
    },
    {
        "id": "4203565",
        "src640": "https://cdn.pixabay.com/photo/2019/05/14/21/18/lighthouse-4203565_640.jpg",
        "src1280": "https://cdn.pixabay.com/photo/2019/05/14/21/18/lighthouse-4203565_1280.jpg"
    },
    {
        "id": "5153588",
        "src640": "https://cdn.pixabay.com/photo/2020/05/10/11/17/thropea-5153588_640.jpg",
        "src1280": "https://cdn.pixabay.com/photo/2020/05/10/11/17/thropea-5153588_1280.jpg"
    },
    {
        "id": "1712446",
        "src640": "https://cdn.pixabay.com/photo/2016/10/03/18/34/girl-1712446_640.jpg",
        "src1280": "https://cdn.pixabay.com/photo/2016/10/03/18/34/girl-1712446_1280.jpg"
    },
    {
        "id": "1340117",
        "src640": "https://cdn.pixabay.com/photo/2016/04/19/22/42/shore-1340117_640.jpg",
        "src1280": "https://cdn.pixabay.com/photo/2016/04/19/22/42/shore-1340117_1280.jpg"
    },
    {
        "id": "1188484",
        "src640": "https://cdn.pixabay.com/photo/2016/02/09/07/48/transport-to-baru-1188484_640.jpg",
        "src1280": "https://cdn.pixabay.com/photo/2016/02/09/07/48/transport-to-baru-1188484_1280.jpg"
    },
    {
        "id": "7392388",
        "src640": "https://cdn.pixabay.com/photo/2022/08/17/12/20/lighthouse-7392388_640.jpg",
        "src1280": "https://cdn.pixabay.com/photo/2022/08/17/12/20/lighthouse-7392388_1280.jpg"
    },
    {
        "id": "7382206",
        "src640": "https://cdn.pixabay.com/photo/2022/08/12/18/03/ship-7382206_640.jpg",
        "src1280": "https://cdn.pixabay.com/photo/2022/08/12/18/03/ship-7382206_1280.jpg"
    },
    {
        "id": "2699476",
        "src640": "https://cdn.pixabay.com/photo/2017/08/31/05/00/yacht-2699476_640.jpg",
        "src1280": "https://cdn.pixabay.com/photo/2017/08/31/05/00/yacht-2699476_1280.jpg"
    },
    {
        "id": "7117064",
        "src640": "https://cdn.pixabay.com/photo/2022/04/07/08/11/sunset-7117064_640.jpg",
        "src1280": "https://cdn.pixabay.com/photo/2022/04/07/08/11/sunset-7117064_1280.jpg"
    },
    {
        "id": "4341167",
        "src640": "https://cdn.pixabay.com/photo/2019/07/16/06/41/montenegro-4341167_640.jpg",
        "src1280": "https://cdn.pixabay.com/photo/2019/07/16/06/41/montenegro-4341167_1280.jpg"
    },
    {
        "id": "327254",
        "src640": "https://cdn.pixabay.com/photo/2014/04/18/14/36/seagulls-327254_640.jpg",
        "src1280": "https://cdn.pixabay.com/photo/2014/04/18/14/36/seagulls-327254_1280.jpg"
    },
    {
        "id": "2613902",
        "src640": "https://cdn.pixabay.com/photo/2017/08/09/09/32/thailand-2613902_640.jpg",
        "src1280": "https://cdn.pixabay.com/photo/2017/08/09/09/32/thailand-2613902_1280.jpg"
    },
    {
        "id": "4067179",
        "src640": "https://cdn.pixabay.com/photo/2019/03/19/22/26/silboat-4067179_640.jpg",
        "src1280": "https://cdn.pixabay.com/photo/2019/03/19/22/26/silboat-4067179_1280.jpg"
    },
    {
        "id": "5084108",
        "src640": "https://cdn.pixabay.com/photo/2020/04/23/21/15/beach-5084108_640.jpg",
        "src1280": "https://cdn.pixabay.com/photo/2020/04/23/21/15/beach-5084108_1280.jpg"
    },
    {
        "id": "4791519",
        "src640": "https://cdn.pixabay.com/photo/2020/01/25/00/28/sunset-4791519_640.jpg",
        "src1280": "https://cdn.pixabay.com/photo/2020/01/25/00/28/sunset-4791519_1280.jpg"
    },
    {
        "id": "4768440",
        "src640": "https://cdn.pixabay.com/photo/2020/01/15/17/02/couple-walking-4768440_640.jpg",
        "src1280": "https://cdn.pixabay.com/photo/2020/01/15/17/02/couple-walking-4768440_1280.jpg"
    },
    {
        "id": "6530639",
        "src640": "https://cdn.pixabay.com/photo/2021/08/08/11/20/morning-6530639_640.jpg",
        "src1280": "https://cdn.pixabay.com/photo/2021/08/08/11/20/morning-6530639_1280.jpg"
    },
    {
        "id": "2695004",
        "src640": "https://cdn.pixabay.com/photo/2017/08/29/21/51/lighthouse-2695004_640.jpg",
        "src1280": "https://cdn.pixabay.com/photo/2017/08/29/21/51/lighthouse-2695004_1280.jpg"
    },
    {
        "id": "5865701",
        "src640": "https://cdn.pixabay.com/photo/2020/12/28/02/29/boat-5865701_640.jpg",
        "src1280": "https://cdn.pixabay.com/photo/2020/12/28/02/29/boat-5865701_1280.jpg"
    },
    {
        "id": "4547302",
        "src640": "https://cdn.pixabay.com/photo/2019/10/13/21/50/sunset-4547302_640.jpg",
        "src1280": "https://cdn.pixabay.com/photo/2019/10/13/21/50/sunset-4547302_1280.jpg"
    },
    {
        "id": "755255",
        "src640": "https://cdn.pixabay.com/photo/2015/05/06/13/30/cuxhaven-755255_640.jpg",
        "src1280": "https://cdn.pixabay.com/photo/2015/05/06/13/30/cuxhaven-755255_1280.jpg"
    },
    {
        "id": "401871",
        "src640": "https://cdn.pixabay.com/photo/2014/07/25/19/33/skim-boarding-401871_640.jpg",
        "src1280": "https://cdn.pixabay.com/photo/2014/07/25/19/33/skim-boarding-401871_1280.jpg"
    },
    {
        "id": "1649200",
        "src640": "https://cdn.pixabay.com/photo/2016/09/06/14/07/north-sea-1649200_640.jpg",
        "src1280": "https://cdn.pixabay.com/photo/2016/09/06/14/07/north-sea-1649200_1280.jpg"
    },
    {
        "id": "6930261",
        "src640": "https://cdn.pixabay.com/photo/2022/01/11/10/08/boats-6930261_640.jpg",
        "src1280": "https://cdn.pixabay.com/photo/2022/01/11/10/08/boats-6930261_1280.jpg"
    },
    {
        "id": "604366",
        "src640": "https://cdn.pixabay.com/photo/2015/01/19/18/45/lighthouse-604366_640.jpg",
        "src1280": "https://cdn.pixabay.com/photo/2015/01/19/18/45/lighthouse-604366_1280.jpg"
    },
    {
        "id": "944582",
        "src640": "https://cdn.pixabay.com/photo/2015/09/17/18/39/sea-944582_640.jpg",
        "src1280": "https://cdn.pixabay.com/photo/2015/09/17/18/39/sea-944582_1280.jpg"
    },
    {
        "id": "2587946",
        "src640": "https://cdn.pixabay.com/photo/2017/08/06/02/35/nature-2587946_640.jpg",
        "src1280": "https://cdn.pixabay.com/photo/2017/08/06/02/35/nature-2587946_1280.jpg"
    },
    {
        "id": "406759",
        "src640": "https://cdn.pixabay.com/photo/2014/07/31/20/33/bottlenose-dolphin-406759_640.jpg",
        "src1280": "https://cdn.pixabay.com/photo/2014/07/31/20/33/bottlenose-dolphin-406759_1280.jpg"
    },
    {
        "id": "345883",
        "src640": "https://cdn.pixabay.com/photo/2014/05/16/20/47/gulls-345883_640.jpg",
        "src1280": "https://cdn.pixabay.com/photo/2014/05/16/20/47/gulls-345883_1280.jpg"
    },
    {
        "id": "2682332",
        "src640": "https://cdn.pixabay.com/photo/2017/08/26/06/33/sea-2682332_640.jpg",
        "src1280": "https://cdn.pixabay.com/photo/2017/08/26/06/33/sea-2682332_1280.jpg"
    },
    {
        "id": "4487482",
        "src640": "https://cdn.pixabay.com/photo/2019/09/18/18/46/ship-4487482_640.jpg",
        "src1280": "https://cdn.pixabay.com/photo/2019/09/18/18/46/ship-4487482_1280.jpg"
    },
    {
        "id": "7185889",
        "src640": "https://cdn.pixabay.com/photo/2022/05/10/04/32/beach-7185889_640.jpg",
        "src1280": "https://cdn.pixabay.com/photo/2022/05/10/04/32/beach-7185889_1280.jpg"
    },
    {
        "id": "5232591",
        "src640": "https://cdn.pixabay.com/photo/2020/05/28/20/31/lighthouse-5232591_640.jpg",
        "src1280": "https://cdn.pixabay.com/photo/2020/05/28/20/31/lighthouse-5232591_1280.jpg"
    },
    {
        "id": "7062774",
        "src640": "https://cdn.pixabay.com/photo/2022/03/11/18/31/ocean-7062774_640.jpg",
        "src1280": "https://cdn.pixabay.com/photo/2022/03/11/18/31/ocean-7062774_1280.jpg"
    },
    {
        "id": "3356051",
        "src640": "https://cdn.pixabay.com/photo/2018/04/27/22/40/embellishment-3356051_640.jpg",
        "src1280": "https://cdn.pixabay.com/photo/2018/04/27/22/40/embellishment-3356051_1280.jpg"
    },
    {
        "id": "3711732",
        "src640": "https://cdn.pixabay.com/photo/2018/09/29/16/22/palm-3711732_640.jpg",
        "src1280": "https://cdn.pixabay.com/photo/2018/09/29/16/22/palm-3711732_1280.jpg"
    },
    {
        "id": "5377489",
        "src640": "https://cdn.pixabay.com/photo/2020/07/06/16/24/sunset-5377489_640.jpg",
        "src1280": "https://cdn.pixabay.com/photo/2020/07/06/16/24/sunset-5377489_1280.jpg"
    },
    {
        "id": "2446877",
        "src640": "https://cdn.pixabay.com/photo/2017/06/27/09/45/shrimp-2446877_640.jpg",
        "src1280": "https://cdn.pixabay.com/photo/2017/06/27/09/45/shrimp-2446877_1280.jpg"
    },
    {
        "id": "2563676",
        "src640": "https://cdn.pixabay.com/photo/2017/08/01/08/53/sea-2563676_640.jpg",
        "src1280": "https://cdn.pixabay.com/photo/2017/08/01/08/53/sea-2563676_1280.jpg"
    },
    {
        "id": "5223711",
        "src640": "https://cdn.pixabay.com/photo/2020/05/26/16/20/sun-5223711_640.jpg",
        "src1280": "https://cdn.pixabay.com/photo/2020/05/26/16/20/sun-5223711_1280.jpg"
    },
    {
        "id": "3371764",
        "src640": "https://cdn.pixabay.com/photo/2018/05/03/16/27/water-3371764_640.jpg",
        "src1280": "https://cdn.pixabay.com/photo/2018/05/03/16/27/water-3371764_1280.jpg"
    },
    {
        "id": "6634760",
        "src640": "https://cdn.pixabay.com/photo/2021/09/18/10/12/sea-6634760_640.jpg",
        "src1280": "https://cdn.pixabay.com/photo/2021/09/18/10/12/sea-6634760_1280.jpg"
    },
    {
        "id": "1694153",
        "src640": "https://cdn.pixabay.com/photo/2016/09/25/17/14/sea-1694153_640.jpg",
        "src1280": "https://cdn.pixabay.com/photo/2016/09/25/17/14/sea-1694153_1280.jpg"
    },
    {
        "id": "1605342",
        "src640": "https://cdn.pixabay.com/photo/2016/08/19/14/11/sunset-1605342_640.jpg",
        "src1280": "https://cdn.pixabay.com/photo/2016/08/19/14/11/sunset-1605342_1280.jpg"
    },
    {
        "id": "1340134",
        "src640": "https://cdn.pixabay.com/photo/2016/04/19/22/52/shore-1340134_640.jpg",
        "src1280": "https://cdn.pixabay.com/photo/2016/04/19/22/52/shore-1340134_1280.jpg"
    },
    {
        "id": "2302011",
        "src640": "https://cdn.pixabay.com/photo/2017/05/10/21/25/vacation-2302011_640.jpg",
        "src1280": "https://cdn.pixabay.com/photo/2017/05/10/21/25/vacation-2302011_1280.jpg"
    },
    {
        "id": "7504606",
        "src640": "https://cdn.pixabay.com/photo/2022/10/07/09/06/bridge-7504606_640.jpg",
        "src1280": "https://cdn.pixabay.com/photo/2022/10/07/09/06/bridge-7504606_1280.jpg"
    },
    {
        "id": "65237",
        "src640": "https://cdn.pixabay.com/photo/2012/11/07/17/49/sail-65237_640.jpg",
        "src1280": "https://cdn.pixabay.com/photo/2012/11/07/17/49/sail-65237_1280.jpg"
    },
    {
        "id": "2602851",
        "src640": "https://cdn.pixabay.com/photo/2017/08/07/11/29/hill-2602851_640.jpg",
        "src1280": "https://cdn.pixabay.com/photo/2017/08/07/11/29/hill-2602851_1280.jpg"
    },
    {
        "id": "7333138",
        "src640": "https://cdn.pixabay.com/photo/2022/07/19/23/49/kaliakra-7333138_640.jpg",
        "src1280": "https://cdn.pixabay.com/photo/2022/07/19/23/49/kaliakra-7333138_1280.jpg"
    },
    {
        "id": "6493080",
        "src640": "https://cdn.pixabay.com/photo/2021/07/26/00/56/sea-6493080_640.jpg",
        "src1280": "https://cdn.pixabay.com/photo/2021/07/26/00/56/sea-6493080_1280.jpg"
    },
    {
        "id": "7707987",
        "src640": "https://cdn.pixabay.com/photo/2023/01/09/17/50/sunset-7707987_640.jpg",
        "src1280": "https://cdn.pixabay.com/photo/2023/01/09/17/50/sunset-7707987_1280.jpg"
    }
]