[
    {
        "id": "716520",
        "src640": "https://cdn.pixabay.com/photo/2015/04/10/16/20/sea-716520_640.jpg",
        "src1280": "https://cdn.pixabay.com/photo/2015/04/10/16/20/sea-716520_1280.jpg"
    },
    {
        "id": "811302",
        "src640": "https://cdn.pixabay.com/photo/2015/06/16/16/08/seagull-811302_640.jpg",
        "src1280": "https://cdn.pixabay.com/photo/2015/06/16/16/08/seagull-811302_1280.jpg"
    },
    {
        "id": "1658467",
        "src640": "https://cdn.pixabay.com/photo/2016/09/10/02/14/photography-1658467_640.jpg",
        "src1280": "https://cdn.pixabay.com/photo/2016/09/10/02/14/photography-1658467_1280.jpg"
    },
    {
        "id": "5026652",
        "src640": "https://cdn.pixabay.com/photo/2020/04/10/16/38/rowan-5026652_640.jpg",
        "src1280": "https://cdn.pixabay.com/photo/2020/04/10/16/38/rowan-5026652_1280.jpg"
    },
    {
        "id": "2932065",
        "src640": "https://cdn.pixabay.com/photo/2017/11/08/23/59/sea-2932065_640.jpg",
        "src1280": "https://cdn.pixabay.com/photo/2017/11/08/23/59/sea-2932065_1280.jpg"
    },
    {
        "id": "1446253",
        "src640": "https://cdn.pixabay.com/photo/2016/06/09/18/09/lighthouse-1446253_640.jpg",
        "src1280": "https://cdn.pixabay.com/photo/2016/06/09/18/09/lighthouse-1446253_1280.jpg"
    },
    {
        "id": "4504996",
        "src640": "https://cdn.pixabay.com/photo/2019/09/26/03/49/heels-4504996_640.jpg",
        "src1280": "https://cdn.pixabay.com/photo/2019/09/26/03/49/heels-4504996_1280.jpg"
    },
    {
        "id": "5840828",
        "src640": "https://cdn.pixabay.com/photo/2020/12/18/00/11/dubai-5840828_640.jpg",
        "src1280": "https://cdn.pixabay.com/photo/2020/12/18/00/11/dubai-5840828_1280.jpg"
    },
    {
        "id": "4506474",
        "src640": "https://cdn.pixabay.com/photo/2019/09/26/16/57/sea-4506474_640.jpg",
        "src1280": "https://cdn.pixabay.com/photo/2019/09/26/16/57/sea-4506474_1280.jpg"
    },
    {
        "id": "3616377",
        "src640": "https://cdn.pixabay.com/photo/2018/08/19/11/27/fishing-rod-3616377_640.jpg",
        "src1280": "https://cdn.pixabay.com/photo/2018/08/19/11/27/fishing-rod-3616377_1280.jpg"
    },
    {
        "id": "5467040",
        "src640": "https://cdn.pixabay.com/photo/2020/08/06/05/42/summer-5467040_640.jpg",
        "src1280": "https://cdn.pixabay.com/photo/2020/08/06/05/42/summer-5467040_1280.jpg"
    },
    {
        "id": "2692733",
        "src640": "https://cdn.pixabay.com/photo/2017/08/29/10/03/char-2692733_640.jpg",
        "src1280": "https://cdn.pixabay.com/photo/2017/08/29/10/03/char-2692733_1280.jpg"
    },
    {
        "id": "2593710",
        "src640": "https://cdn.pixabay.com/photo/2017/08/06/16/05/sea-2593710_640.jpg",
        "src1280": "https://cdn.pixabay.com/photo/2017/08/06/16/05/sea-2593710_1280.jpg"
    },
    {
        "id": "2573556",
        "src640": "https://cdn.pixabay.com/photo/2017/08/02/21/26/nature-2573556_640.jpg",
        "src1280": "https://cdn.pixabay.com/photo/2017/08/02/21/26/nature-2573556_1280.jpg"
    },
    {
        "id": "3623840",
        "src640": "https://cdn.pixabay.com/photo/2018/08/22/14/46/seaside-3623840_640.jpg",
        "src1280": "https://cdn.pixabay.com/photo/2018/08/22/14/46/seaside-3623840_1280.jpg"
    },
    {
        "id": "4540667",
        "src640": "https://cdn.pixabay.com/photo/2019/10/10/22/15/norway-4540667_640.jpg",
        "src1280": "https://cdn.pixabay.com/photo/2019/10/10/22/15/norway-4540667_1280.jpg"
    },
    {
        "id": "4523627",
        "src640": "https://cdn.pixabay.com/photo/2019/10/03/15/20/close-up-4523627_640.jpg",
        "src1280": "https://cdn.pixabay.com/photo/2019/10/03/15/20/close-up-4523627_1280.jpg"
    },
    {
        "id": "2098375",
        "src640": "https://cdn.pixabay.com/photo/2017/02/25/17/48/lighthouse-2098375_640.jpg",
        "src1280": "https://cdn.pixabay.com/photo/2017/02/25/17/48/lighthouse-2098375_1280.jpg"
    },
    {
        "id": "5376594",
        "src640": "https://cdn.pixabay.com/photo/2020/07/06/11/30/lighthouse-5376594_640.jpg",
        "src1280": "https://cdn.pixabay.com/photo/2020/07/06/11/30/lighthouse-5376594_1280.jpg"
    },
    {
        "id": "3020683",
        "src640": "https://cdn.pixabay.com/photo/2017/12/15/08/44/lighthouse-3020683_640.jpg",
        "src1280": "https://cdn.pixabay.com/photo/2017/12/15/08/44/lighthouse-3020683_1280.jpg"
    },
    {
        "id": "5443727",
        "src640": "https://cdn.pixabay.com/photo/2020/07/28/00/37/boat-5443727_640.jpg",
        "src1280": "https://cdn.pixabay.com/photo/2020/07/28/00/37/boat-5443727_1280.jpg"
    },
    {
        "id": "5012910",
        "src640": "https://cdn.pixabay.com/photo/2020/04/07/10/34/baltic-sea-5012910_640.jpg",
        "src1280": "https://cdn.pixabay.com/photo/2020/04/07/10/34/baltic-sea-5012910_1280.jpg"
    },
    {
        "id": "3001685",
        "src640": "https://cdn.pixabay.com/photo/2017/12/06/12/25/stone-3001685_640.jpg",
        "src1280": "https://cdn.pixabay.com/photo/2017/12/06/12/25/stone-3001685_1280.jpg"
    },
    {
        "id": "1090481",
        "src640": "https://cdn.pixabay.com/photo/2015/12/13/00/56/bay-1090481_640.jpg",
        "src1280": "https://cdn.pixabay.com/photo/2015/12/13/00/56/bay-1090481_1280.jpg"
    },
    {
        "id": "7722779",
        "src640": "https://cdn.pixabay.com/photo/2023/01/16/16/11/harbor-7722779_640.jpg",
        "src1280": "https://cdn.pixabay.com/photo/2023/01/16/16/11/harbor-7722779_1280.jpg"
    },
    {
        "id": "1002196",
        "src640": "https://cdn.pixabay.com/photo/2015/10/23/00/27/browse-1002196_640.jpg",
        "src1280": "https://cdn.pixabay.com/photo/2015/10/23/00/27/browse-1002196_1280.jpg"
    },
    {
        "id": "5487921",
        "src640": "https://cdn.pixabay.com/photo/2020/08/14/13/04/leaves-5487921_640.jpg",
        "src1280": "https://cdn.pixabay.com/photo/2020/08/14/13/04/leaves-5487921_1280.jpg"
    },
    {
        "id": "375405",
        "src640": "https://cdn.pixabay.com/photo/2014/06/23/18/28/fly-375405_640.jpg",
        "src1280": "https://cdn.pixabay.com/photo/2014/06/23/18/28/fly-375405_1280.jpg"
    },
    {
        "id": "4957376",
        "src640": "https://cdn.pixabay.com/photo/2020/03/22/14/28/sunset-4957376_640.jpg",
        "src1280": "https://cdn.pixabay.com/photo/2020/03/22/14/28/sunset-4957376_1280.jpg"
    },
    {
        "id": "2738288",
        "src640": "https://cdn.pixabay.com/photo/2017/09/11/08/40/sea-2738288_640.jpg",
        "src1280": "https://cdn.pixabay.com/photo/2017/09/11/08/40/sea-2738288_1280.jpg"
    },
    {
        "id": "4906191",
        "src640": "https://cdn.pixabay.com/photo/2020/03/06/06/47/atlantis-4906191_640.jpg",
        "src1280": "https://cdn.pixabay.com/photo/2020/03/06/06/47/atlantis-4906191_1280.jpg"
    },
    {
        "id": "65236",
        "src640": "https://cdn.pixabay.com/photo/2012/11/07/17/48/sail-65236_640.jpg",
        "src1280": "https://cdn.pixabay.com/photo/2012/11/07/17/48/sail-65236_1280.jpg"
    },
    {
        "id": "5487495",
        "src640": "https://cdn.pixabay.com/photo/2020/08/14/10/40/man-5487495_640.jpg",
        "src1280": "https://cdn.pixabay.com/photo/2020/08/14/10/40/man-5487495_1280.jpg"
    },
    {
        "id": "2406253",
        "src640": "https://cdn.pixabay.com/photo/2017/06/15/18/23/sea-2406253_640.jpg",
        "src1280": "https://cdn.pixabay.com/photo/2017/06/15/18/23/sea-2406253_1280.jpg"
    },
    {
        "id": "7725529",
        "src640": "https://cdn.pixabay.com/photo/2023/01/17/20/31/mountain-7725529_640.jpg",
        "src1280": "https://cdn.pixabay.com/photo/2023/01/17/20/31/mountain-7725529_1280.jpg"
    },
    {
        "id": "4199439",
        "src640": "https://cdn.pixabay.com/photo/2019/05/12/22/59/beach-4199439_640.jpg",
        "src1280": "https://cdn.pixabay.com/photo/2019/05/12/22/59/beach-4199439_1280.jpg"
    },
    {
        "id": "212607",
        "src640": "https://cdn.pixabay.com/photo/2013/11/18/14/50/view-212607_640.jpg",
        "src1280": "https://cdn.pixabay.com/photo/2013/11/18/14/50/view-212607_1280.jpg"
    },
    {
        "id": "2690475",
        "src640": "https://cdn.pixabay.com/photo/2017/08/28/17/18/alaska-2690475_640.jpg",
        "src1280": "https://cdn.pixabay.com/photo/2017/08/28/17/18/alaska-2690475_1280.jpg"
    },
    {
        "id": "2568406",
        "src640": "https://cdn.pixabay.com/photo/2017/08/01/22/43/nature-2568406_640.jpg",
        "src1280": "https://cdn.pixabay.com/photo/2017/08/01/22/43/nature-2568406_1280.jpg"
    },
    {
        "id": "7725530",
        "src640": "https://cdn.pixabay.com/photo/2023/01/17/20/31/mountain-7725530_640.jpg",
        "src1280": "https://cdn.pixabay.com/photo/2023/01/17/20/31/mountain-7725530_1280.jpg"
    },
    {
        "id": "2101558",
        "src640": "https://cdn.pixabay.com/photo/2017/02/26/22/15/tug-2101558_640.jpg",
        "src1280": "https://cdn.pixabay.com/photo/2017/02/26/22/15/tug-2101558_1280.jpg"
    },
    {
        "id": "4517573",
        "src640": "https://cdn.pixabay.com/photo/2019/10/01/08/38/spain-4517573_640.jpg",
        "src1280": "https://cdn.pixabay.com/photo/2019/10/01/08/38/spain-4517573_1280.jpg"
    },
    {
        "id": "3381433",
        "src640": "https://cdn.pixabay.com/photo/2018/05/07/19/06/boy-3381433_640.jpg",
        "src1280": "https://cdn.pixabay.com/photo/2018/05/07/19/06/boy-3381433_1280.jpg"
    },
    {
        "id": "4792356",
        "src640": "https://cdn.pixabay.com/photo/2020/01/25/11/50/santorini-4792356_640.jpg",
        "src1280": "https://cdn.pixabay.com/photo/2020/01/25/11/50/santorini-4792356_1280.jpg"
    },
    {
        "id": "7420620",
        "src640": "https://cdn.pixabay.com/photo/2022/08/30/08/21/street-7420620_640.jpg",
        "src1280": "https://cdn.pixabay.com/photo/2022/08/30/08/21/street-7420620_1280.jpg"
    },
    {
        "id": "3213147",
        "src640": "https://cdn.pixabay.com/photo/2018/03/10/02/39/waters-3213147_640.jpg",
        "src1280": "https://cdn.pixabay.com/photo/2018/03/10/02/39/waters-3213147_1280.jpg"
    },
    {
        "id": "4840011",
        "src640": "https://cdn.pixabay.com/photo/2020/02/11/16/08/lighthouse-4840011_640.jpg",
        "src1280": "https://cdn.pixabay.com/photo/2020/02/11/16/08/lighthouse-4840011_1280.jpg"
    },
    {
        "id": "3932271",
        "src640": "https://cdn.pixabay.com/photo/2019/01/14/14/11/cross-3932271_640.jpg",
        "src1280": "https://cdn.pixabay.com/photo/2019/01/14/14/11/cross-3932271_1280.jpg"
    },
    {
        "id": "2577882",
        "src640": "https://cdn.pixabay.com/photo/2017/08/03/19/01/nature-2577882_640.jpg",
        "src1280": "https://cdn.pixabay.com/photo/2017/08/03/19/01/nature-2577882_1280.jpg"
    },
    {
        "id": "4773651",
        "src640": "https://cdn.pixabay.com/photo/2020/01/17/18/08/nature-4773651_640.jpg",
        "src1280": "https://cdn.pixabay.com/photo/2020/01/17/18/08/nature-4773651_1280.jpg"
    },
    {
        "id": "406737",
        "src640": "https://cdn.pixabay.com/photo/2014/07/31/20/08/seal-406737_640.jpg",
        "src1280": "https://cdn.pixabay.com/photo/2014/07/31/20/08/seal-406737_1280.jpg"
    },
    {
        "id": "962454",
        "src640": "https://cdn.pixabay.com/photo/2015/09/28/18/27/sunset-962454_640.jpg",
        "src1280": "https://cdn.pixabay.com/photo/2015/09/28/18/27/sunset-962454_1280.jpg"
    },
    {
        "id": "5487589",
        "src640": "https://cdn.pixabay.com/photo/2020/08/14/10/52/beach-5487589_640.jpg",
        "src1280": "https://cdn.pixabay.com/photo/2020/08/14/10/52/beach-5487589_1280.jpg"
    },
    {
        "id": "1547498",
        "src640": "https://cdn.pixabay.com/photo/2016/07/28/10/43/cannon-1547498_640.jpg",
        "src1280": "https://cdn.pixabay.com/photo/2016/07/28/10/43/cannon-1547498_1280.jpg"
    },
    {
        "id": "5585289",
        "src640": "https://cdn.pixabay.com/photo/2020/09/19/19/49/sunset-5585289_640.jpg",
        "src1280": "https://cdn.pixabay.com/photo/2020/09/19/19/49/sunset-5585289_1280.jpg"
    },
    {
        "id": "7721196",
        "src640": "https://cdn.pixabay.com/photo/2023/01/15/22/11/beach-7721196_640.jpg",
        "src1280": "https://cdn.pixabay.com/photo/2023/01/15/22/11/beach-7721196_1280.jpg"
    },
    {
        "id": "4965172",
        "src640": "https://cdn.pixabay.com/photo/2020/03/24/19/10/sea-4965172_640.jpg",
        "src1280": "https://cdn.pixabay.com/photo/2020/03/24/19/10/sea-4965172_1280.jpg"
    },
    {
        "id": "1331135",
        "src640": "https://cdn.pixabay.com/photo/2016/04/15/14/26/maritime-1331135_640.jpg",
        "src1280": "https://cdn.pixabay.com/photo/2016/04/15/14/26/maritime-1331135_1280.jpg"
    },
    {
        "id": "4564231",
        "src640": "https://cdn.pixabay.com/photo/2019/10/20/16/59/mountains-4564231_640.jpg",
        "src1280": "https://cdn.pixabay.com/photo/2019/10/20/16/59/mountains-4564231_1280.jpg"
    },
    {
        "id": "4429997",
        "src640": "https://cdn.pixabay.com/photo/2019/08/25/17/45/flying-4429997_640.jpg",
        "src1280": "https://cdn.pixabay.com/photo/2019/08/25/17/45/flying-4429997_1280.jpg"
    },
    {
        "id": "3173453",
        "src640": "https://cdn.pixabay.com/photo/2018/02/22/17/26/water-3173453_640.jpg",
        "src1280": "https://cdn.pixabay.com/photo/2018/02/22/17/26/water-3173453_1280.jpg"
    },
    {
        "id": "3882142",
        "src640": "https://cdn.pixabay.com/photo/2018/12/18/11/18/lighthouse-timmendorf-3882142_640.jpg",
        "src1280": "https://cdn.pixabay.com/photo/2018/12/18/11/18/lighthouse-timmendorf-3882142_1280.jpg"
    },
    {
        "id": "4570615",
        "src640": "https://cdn.pixabay.com/photo/2019/10/23/06/47/ship-4570615_640.jpg",
        "src1280": "https://cdn.pixabay.com/photo/2019/10/23/06/47/ship-4570615_1280.jpg"
    },
    {
        "id": "4426808",
        "src640": "https://cdn.pixabay.com/photo/2019/08/24/00/42/water-4426808_640.jpg",
        "src1280": "https://cdn.pixabay.com/photo/2019/08/24/00/42/water-4426808_1280.jpg"
    },
    {
        "id": "5925149",
        "src640": "https://cdn.pixabay.com/photo/2021/01/17/13/24/calvi-citadel-5925149_640.jpg",
        "src1280": "https://cdn.pixabay.com/photo/2021/01/17/13/24/calvi-citadel-5925149_1280.jpg"
    },
    {
        "id": "7665947",
        "src640": "https://cdn.pixabay.com/photo/2022/12/19/15/29/sea-7665947_640.jpg",
        "src1280": "https://cdn.pixabay.com/photo/2022/12/19/15/29/sea-7665947_1280.jpg"
    },
    {
        "id": "752005",
        "src640": "https://cdn.pixabay.com/photo/2015/05/04/08/15/sea-752005_640.jpg",
        "src1280": "https://cdn.pixabay.com/photo/2015/05/04/08/15/sea-752005_1280.jpg"
    },
    {
        "id": "7538750",
        "src640": "https://cdn.pixabay.com/photo/2022/10/22/08/32/sea-7538750_640.jpg",
        "src1280": "https://cdn.pixabay.com/photo/2022/10/22/08/32/sea-7538750_1280.jpg"
    },
    {
        "id": "7416972",
        "src640": "https://cdn.pixabay.com/photo/2022/08/28/15/34/foam-7416972_640.jpg",
        "src1280": "https://cdn.pixabay.com/photo/2022/08/28/15/34/foam-7416972_1280.jpg"
    },
    {
        "id": "2571162",
        "src640": "https://cdn.pixabay.com/photo/2017/08/02/11/45/sea-2571162_640.jpg",
        "src1280": "https://cdn.pixabay.com/photo/2017/08/02/11/45/sea-2571162_1280.jpg"
    },
    {
        "id": "6770481",
        "src640": "https://cdn.pixabay.com/photo/2021/11/05/07/14/fishing-6770481_640.jpg",
        "src1280": "https://cdn.pixabay.com/photo/2021/11/05/07/14/fishing-6770481_1280.jpg"
    },
    {
        "id": "2575392",
        "src640": "https://cdn.pixabay.com/photo/2017/08/03/10/20/sea-2575392_640.jpg",
        "src1280": "https://cdn.pixabay.com/photo/2017/08/03/10/20/sea-2575392_1280.jpg"
    },
    {
        "id": "2570572",
        "src640": "https://cdn.pixabay.com/photo/2017/08/02/09/59/nature-2570572_640.jpg",
        "src1280": "https://cdn.pixabay.com/photo/2017/08/02/09/59/nature-2570572_1280.jpg"
    },
    {
        "id": "1529177",
        "src640": "https://cdn.pixabay.com/photo/2016/07/19/22/54/boat-1529177_640.jpg",
        "src1280": "https://cdn.pixabay.com/photo/2016/07/19/22/54/boat-1529177_1280.jpg"
    },
    {
        "id": "676092",
        "src640": "https://cdn.pixabay.com/photo/2015/03/16/15/15/ship-676092_640.jpg",
        "src1280": "https://cdn.pixabay.com/photo/2015/03/16/15/15/ship-676092_1280.jpg"
    },
    {
        "id": "115678",
        "src640": "https://cdn.pixabay.com/photo/2013/06/02/13/07/tower-115678_640.jpg",
        "src1280": "https://cdn.pixabay.com/photo/2013/06/02/13/07/tower-115678_1280.jpg"
    },
    {
        "id": "7395483",
        "src640": "https://cdn.pixabay.com/photo/2022/08/18/18/39/winter-7395483_640.jpg",
        "src1280": "https://cdn.pixabay.com/photo/2022/08/18/18/39/winter-7395483_1280.jpg"
    },
    {
        "id": "814712",
        "src640": "https://cdn.pixabay.com/photo/2015/06/19/10/51/pier-814712_640.jpg",
        "src1280": "https://cdn.pixabay.com/photo/2015/06/19/10/51/pier-814712_1280.jpg"
    },
    {
        "id": "3991932",
        "src640": "https://cdn.pixabay.com/photo/2019/02/12/11/24/ship-3991932_640.jpg",
        "src1280": "https://cdn.pixabay.com/photo/2019/02/12/11/24/ship-3991932_1280.jpg"
    },
    {
        "id": "4984439",
        "src640": "https://cdn.pixabay.com/photo/2020/03/30/14/39/norway-4984439_640.jpg",
        "src1280": "https://cdn.pixabay.com/photo/2020/03/30/14/39/norway-4984439_1280.jpg"
    },
    {
        "id": "2359904",
        "src640": "https://cdn.pixabay.com/photo/2017/05/31/10/27/beach-2359904_640.jpg",
        "src1280": "https://cdn.pixabay.com/photo/2017/05/31/10/27/beach-2359904_1280.jpg"
    },
    {
        "id": "5237239",
        "src640": "https://cdn.pixabay.com/photo/2020/05/30/00/53/sunset-5237239_640.jpg",
        "src1280": "https://cdn.pixabay.com/photo/2020/05/30/00/53/sunset-5237239_1280.jpg"
    },
    {
        "id": "2100374",
        "src640": "https://cdn.pixabay.com/photo/2017/02/26/14/38/ocean-2100374_640.jpg",
        "src1280": "https://cdn.pixabay.com/photo/2017/02/26/14/38/ocean-2100374_1280.jpg"
    },
    {
        "id": "5460766",
        "src640": "https://cdn.pixabay.com/photo/2020/08/03/18/30/sea-5460766_640.jpg",
        "src1280": "https://cdn.pixabay.com/photo/2020/08/03/18/30/sea-5460766_1280.jpg"
    },
    {
        "id": "1092836",
        "src640": "https://cdn.pixabay.com/photo/2015/12/14/17/54/fishing-1092836_640.jpg",
        "src1280": "https://cdn.pixabay.com/photo/2015/12/14/17/54/fishing-1092836_1280.jpg"
    },
    {
        "id": "3761944",
        "src640": "https://cdn.pixabay.com/photo/2018/10/20/22/44/marine-3761944_640.jpg",
        "src1280": "https://cdn.pixabay.com/photo/2018/10/20/22/44/marine-3761944_1280.jpg"
    },
    {
        "id": "2582980",
        "src640": "https://cdn.pixabay.com/photo/2017/08/05/12/01/sea-2582980_640.jpg",
        "src1280": "https://cdn.pixabay.com/photo/2017/08/05/12/01/sea-2582980_1280.jpg"
    },
    {
        "id": "4506445",
        "src640": "https://cdn.pixabay.com/photo/2019/09/26/16/47/seashells-4506445_640.jpg",
        "src1280": "https://cdn.pixabay.com/photo/2019/09/26/16/47/seashells-4506445_1280.jpg"
    },
    {
        "id": "3212498",
        "src640": "https://cdn.pixabay.com/photo/2018/03/09/20/09/food-3212498_640.jpg",
        "src1280": "https://cdn.pixabay.com/photo/2018/03/09/20/09/food-3212498_1280.jpg"
    },
    {
        "id": "7808858",
        "src640": "https://cdn.pixabay.com/photo/2023/02/23/13/28/stones-7808858_640.jpg",
        "src1280": "https://cdn.pixabay.com/photo/2023/02/23/13/28/stones-7808858_1280.jpg"
    },
    {
        "id": "3669406",
        "src640": "https://cdn.pixabay.com/photo/2018/09/11/12/55/mountain-3669406_640.jpg",
        "src1280": "https://cdn.pixabay.com/photo/2018/09/11/12/55/mountain-3669406_1280.jpg"
    },
    {
        "id": "2835163",
        "src640": "https://cdn.pixabay.com/photo/2017/10/09/22/01/sunrise-2835163_640.jpg",
        "src1280": "https://cdn.pixabay.com/photo/2017/10/09/22/01/sunrise-2835163_1280.jpg"
    },
    {
        "id": "3428588",
        "src640": "https://cdn.pixabay.com/photo/2018/05/25/09/10/sailing-3428588_640.jpg",
        "src1280": "https://cdn.pixabay.com/photo/2018/05/25/09/10/sailing-3428588_1280.jpg"
    },
    {
        "id": "4995182",
        "src640": "https://cdn.pixabay.com/photo/2020/04/02/13/32/sky-4995182_640.jpg",
        "src1280": "https://cdn.pixabay.com/photo/2020/04/02/13/32/sky-4995182_1280.jpg"
    },
    {
        "id": "4932146",
        "src640": "https://cdn.pixabay.com/photo/2020/03/15/00/18/sunset-4932146_640.jpg",
        "src1280": "https://cdn.pixabay.com/photo/2020/03/15/00/18/sunset-4932146_1280.jpg"
    },
    {
        "id": "5067524",
        "src640": "https://cdn.pixabay.com/photo/2020/04/20/09/47/sunset-5067524_640.jpg",
        "src1280": "https://cdn.pixabay.com/photo/2020/04/20/09/47/sunset-5067524_1280.jpg"
    },
    {
        "id": "5233629",
        "src640": "https://cdn.pixabay.com/photo/2020/05/29/04/55/sunset-5233629_640.jpg",
        "src1280": "https://cdn.pixabay.com/photo/2020/05/29/04/55/sunset-5233629_1280.jpg"
    }
]