[
    {
        "id": "2595579",
        "src640": "https://cdn.pixabay.com/photo/2017/08/06/19/36/sea-2595579_640.jpg",
        "src1280": "https://cdn.pixabay.com/photo/2017/08/06/19/36/sea-2595579_1280.jpg"
    },
    {
        "id": "2396432",
        "src640": "https://cdn.pixabay.com/photo/2017/06/12/18/48/alpine-2396432_640.jpg",
        "src1280": "https://cdn.pixabay.com/photo/2017/06/12/18/48/alpine-2396432_1280.jpg"
    },
    {
        "id": "7470032",
        "src640": "https://cdn.pixabay.com/photo/2022/09/21/10/43/beach-7470032_640.jpg",
        "src1280": "https://cdn.pixabay.com/photo/2022/09/21/10/43/beach-7470032_1280.jpg"
    },
    {
        "id": "5542233",
        "src640": "https://cdn.pixabay.com/photo/2020/09/03/19/28/sand-5542233_640.jpg",
        "src1280": "https://cdn.pixabay.com/photo/2020/09/03/19/28/sand-5542233_1280.jpg"
    },
    {
        "id": "4773866",
        "src640": "https://cdn.pixabay.com/photo/2020/01/17/19/32/st-peter-obi-4773866_640.jpg",
        "src1280": "https://cdn.pixabay.com/photo/2020/01/17/19/32/st-peter-obi-4773866_1280.jpg"
    },
    {
        "id": "4923723",
        "src640": "https://cdn.pixabay.com/photo/2020/03/12/02/41/the-sea-4923723_640.jpg",
        "src1280": "https://cdn.pixabay.com/photo/2020/03/12/02/41/the-sea-4923723_1280.jpg"
    },
    {
        "id": "2595497",
        "src640": "https://cdn.pixabay.com/photo/2017/08/06/19/25/silhouette-2595497_640.jpg",
        "src1280": "https://cdn.pixabay.com/photo/2017/08/06/19/25/silhouette-2595497_1280.jpg"
    },
    {
        "id": "5453659",
        "src640": "https://cdn.pixabay.com/photo/2020/07/31/17/39/beach-5453659_640.jpg",
        "src1280": "https://cdn.pixabay.com/photo/2020/07/31/17/39/beach-5453659_1280.jpg"
    },
    {
        "id": "4456801",
        "src640": "https://cdn.pixabay.com/photo/2019/09/06/16/49/sweden-4456801_640.jpg",
        "src1280": "https://cdn.pixabay.com/photo/2019/09/06/16/49/sweden-4456801_1280.jpg"
    },
    {
        "id": "955852",
        "src640": "https://cdn.pixabay.com/photo/2015/09/24/15/59/paal-955852_640.jpg",
        "src1280": "https://cdn.pixabay.com/photo/2015/09/24/15/59/paal-955852_1280.jpg"
    },
    {
        "id": "3349505",
        "src640": "https://cdn.pixabay.com/photo/2018/04/25/13/11/water-3349505_640.jpg",
        "src1280": "https://cdn.pixabay.com/photo/2018/04/25/13/11/water-3349505_1280.jpg"
    },
    {
        "id": "2698259",
        "src640": "https://cdn.pixabay.com/photo/2017/08/30/19/29/sea-2698259_640.jpg",
        "src1280": "https://cdn.pixabay.com/photo/2017/08/30/19/29/sea-2698259_1280.jpg"
    },
    {
        "id": "7664830",
        "src640": "https://cdn.pixabay.com/photo/2022/12/19/06/51/row-boats-7664830_640.jpg",
        "src1280": "https://cdn.pixabay.com/photo/2022/12/19/06/51/row-boats-7664830_1280.jpg"
    },
    {
        "id": "5312346",
        "src640": "https://cdn.pixabay.com/photo/2020/06/18/07/56/three-bridges-5312346_640.jpg",
        "src1280": "https://cdn.pixabay.com/photo/2020/06/18/07/56/three-bridges-5312346_1280.jpg"
    },
    {
        "id": "5575833",
        "src640": "https://cdn.pixabay.com/photo/2020/09/16/08/40/mountaineer-5575833_640.jpg",
        "src1280": "https://cdn.pixabay.com/photo/2020/09/16/08/40/mountaineer-5575833_1280.jpg"
    },
    {
        "id": "4517478",
        "src640": "https://cdn.pixabay.com/photo/2019/10/01/07/47/sea-4517478_640.jpg",
        "src1280": "https://cdn.pixabay.com/photo/2019/10/01/07/47/sea-4517478_1280.jpg"
    },
    {
        "id": "2619009",
        "src640": "https://cdn.pixabay.com/photo/2017/08/10/06/23/blue-2619009_640.jpg",
        "src1280": "https://cdn.pixabay.com/photo/2017/08/10/06/23/blue-2619009_1280.jpg"
    },
    {
        "id": "2091471",
        "src640": "https://cdn.pixabay.com/photo/2017/02/23/07/58/industrial-2091471_640.jpg",
        "src1280": "https://cdn.pixabay.com/photo/2017/02/23/07/58/industrial-2091471_1280.jpg"
    },
    {
        "id": "2912633",
        "src640": "https://cdn.pixabay.com/photo/2017/11/02/21/21/beach-2912633_640.jpg",
        "src1280": "https://cdn.pixabay.com/photo/2017/11/02/21/21/beach-2912633_1280.jpg"
    },
    {
        "id": "4456778",
        "src640": "https://cdn.pixabay.com/photo/2019/09/06/16/45/grundsund-4456778_640.jpg",
        "src1280": "https://cdn.pixabay.com/photo/2019/09/06/16/45/grundsund-4456778_1280.jpg"
    },
    {
        "id": "976151",
        "src640": "https://cdn.pixabay.com/photo/2015/10/07/12/36/norway-976151_640.jpg",
        "src1280": "https://cdn.pixabay.com/photo/2015/10/07/12/36/norway-976151_1280.jpg"
    },
    {
        "id": "7505511",
        "src640": "https://cdn.pixabay.com/photo/2022/10/07/16/46/boat-7505511_640.jpg",
        "src1280": "https://cdn.pixabay.com/photo/2022/10/07/16/46/boat-7505511_1280.jpg"
    },
    {
        "id": "2775521",
        "src640": "https://cdn.pixabay.com/photo/2017/09/22/12/59/wood-2775521_640.jpg",
        "src1280": "https://cdn.pixabay.com/photo/2017/09/22/12/59/wood-2775521_1280.jpg"
    },
    {
        "id": "4516084",
        "src640": "https://cdn.pixabay.com/photo/2019/09/30/15/33/north-sea-4516084_640.jpg",
        "src1280": "https://cdn.pixabay.com/photo/2019/09/30/15/33/north-sea-4516084_1280.jpg"
    },
    {
        "id": "3104380",
        "src640": "https://cdn.pixabay.com/photo/2018/01/24/17/41/water-3104380_640.jpg",
        "src1280": "https://cdn.pixabay.com/photo/2018/01/24/17/41/water-3104380_1280.jpg"
    },
    {
        "id": "4078193",
        "src640": "https://cdn.pixabay.com/photo/2019/03/24/17/53/cannonball-jellyfish-4078193_640.jpg",
        "src1280": "https://cdn.pixabay.com/photo/2019/03/24/17/53/cannonball-jellyfish-4078193_1280.jpg"
    },
    {
        "id": "6991167",
        "src640": "https://cdn.pixabay.com/photo/2022/02/03/19/12/norway-6991167_640.jpg",
        "src1280": "https://cdn.pixabay.com/photo/2022/02/03/19/12/norway-6991167_1280.jpg"
    },
    {
        "id": "5019181",
        "src640": "https://cdn.pixabay.com/photo/2020/04/08/23/53/art-5019181_640.jpg",
        "src1280": "https://cdn.pixabay.com/photo/2020/04/08/23/53/art-5019181_1280.jpg"
    },
    {
        "id": "7408414",
        "src640": "https://cdn.pixabay.com/photo/2022/08/24/17/41/sea-7408414_640.jpg",
        "src1280": "https://cdn.pixabay.com/photo/2022/08/24/17/41/sea-7408414_1280.jpg"
    },
    {
        "id": "5155046",
        "src640": "https://cdn.pixabay.com/photo/2020/05/10/18/07/sun-5155046_640.jpg",
        "src1280": "https://cdn.pixabay.com/photo/2020/05/10/18/07/sun-5155046_1280.jpg"
    },
    {
        "id": "5178214",
        "src640": "https://cdn.pixabay.com/photo/2020/05/16/16/44/alley-5178214_640.jpg",
        "src1280": "https://cdn.pixabay.com/photo/2020/05/16/16/44/alley-5178214_1280.jpg"
    },
    {
        "id": "7681938",
        "src640": "https://cdn.pixabay.com/photo/2022/12/27/23/45/beach-7681938_640.jpg",
        "src1280": "https://cdn.pixabay.com/photo/2022/12/27/23/45/beach-7681938_1280.jpg"
    },
    {
        "id": "195230",
        "src640": "https://cdn.pixabay.com/photo/2013/10/13/22/25/lighthouse-195230_640.jpg",
        "src1280": "https://cdn.pixabay.com/photo/2013/10/13/22/25/lighthouse-195230_1280.jpg"
    },
    {
        "id": "4813516",
        "src640": "https://cdn.pixabay.com/photo/2020/02/02/16/42/bell-4813516_640.jpg",
        "src1280": "https://cdn.pixabay.com/photo/2020/02/02/16/42/bell-4813516_1280.jpg"
    },
    {
        "id": "4788539",
        "src640": "https://cdn.pixabay.com/photo/2020/01/23/19/11/helgeroa-4788539_640.jpg",
        "src1280": "https://cdn.pixabay.com/photo/2020/01/23/19/11/helgeroa-4788539_1280.jpg"
    },
    {
        "id": "201223",
        "src640": "https://cdn.pixabay.com/photo/2013/10/26/21/21/warning-201223_640.jpg",
        "src1280": "https://cdn.pixabay.com/photo/2013/10/26/21/21/warning-201223_1280.jpg"
    },
    {
        "id": "2429265",
        "src640": "https://cdn.pixabay.com/photo/2017/06/22/01/41/animal-2429265_640.jpg",
        "src1280": "https://cdn.pixabay.com/photo/2017/06/22/01/41/animal-2429265_1280.jpg"
    },
    {
        "id": "4207886",
        "src640": "https://cdn.pixabay.com/photo/2019/05/16/18/58/sea-4207886_640.jpg",
        "src1280": "https://cdn.pixabay.com/photo/2019/05/16/18/58/sea-4207886_1280.jpg"
    },
    {
        "id": "2562270",
        "src640": "https://cdn.pixabay.com/photo/2017/08/01/00/29/sea-2562270_640.jpg",
        "src1280": "https://cdn.pixabay.com/photo/2017/08/01/00/29/sea-2562270_1280.jpg"
    },
    {
        "id": "3245816",
        "src640": "https://cdn.pixabay.com/photo/2018/03/21/07/42/city-3245816_640.jpg",
        "src1280": "https://cdn.pixabay.com/photo/2018/03/21/07/42/city-3245816_1280.jpg"
    },
    {
        "id": "7513764",
        "src640": "https://cdn.pixabay.com/photo/2022/10/11/08/18/boat-7513764_640.jpg",
        "src1280": "https://cdn.pixabay.com/photo/2022/10/11/08/18/boat-7513764_1280.jpg"
    },
    {
        "id": "2600099",
        "src640": "https://cdn.pixabay.com/photo/2017/08/07/05/05/sea-2600099_640.jpg",
        "src1280": "https://cdn.pixabay.com/photo/2017/08/07/05/05/sea-2600099_1280.jpg"
    },
    {
        "id": "3859666",
        "src640": "https://cdn.pixabay.com/photo/2018/12/06/11/51/seagull-3859666_640.jpg",
        "src1280": "https://cdn.pixabay.com/photo/2018/12/06/11/51/seagull-3859666_1280.jpg"
    },
    {
        "id": "4472085",
        "src640": "https://cdn.pixabay.com/photo/2019/09/12/16/37/afterglow-4472085_640.jpg",
        "src1280": "https://cdn.pixabay.com/photo/2019/09/12/16/37/afterglow-4472085_1280.jpg"
    },
    {
        "id": "5290873",
        "src640": "https://cdn.pixabay.com/photo/2020/06/12/16/09/shrimps-5290873_640.jpg",
        "src1280": "https://cdn.pixabay.com/photo/2020/06/12/16/09/shrimps-5290873_1280.jpg"
    },
    {
        "id": "7611945",
        "src640": "https://cdn.pixabay.com/photo/2022/11/23/11/44/horse-7611945_640.jpg",
        "src1280": "https://cdn.pixabay.com/photo/2022/11/23/11/44/horse-7611945_1280.jpg"
    },
    {
        "id": "2702547",
        "src640": "https://cdn.pixabay.com/photo/2017/08/31/22/46/athens-2702547_640.jpg",
        "src1280": "https://cdn.pixabay.com/photo/2017/08/31/22/46/athens-2702547_1280.jpg"
    },
    {
        "id": "5396895",
        "src640": "https://cdn.pixabay.com/photo/2020/07/12/11/02/horizon-5396895_640.jpg",
        "src1280": "https://cdn.pixabay.com/photo/2020/07/12/11/02/horizon-5396895_1280.jpg"
    },
    {
        "id": "6473840",
        "src640": "https://cdn.pixabay.com/photo/2021/07/17/19/37/maidens-tower-6473840_640.jpg",
        "src1280": "https://cdn.pixabay.com/photo/2021/07/17/19/37/maidens-tower-6473840_1280.jpg"
    },
    {
        "id": "7606767",
        "src640": "https://cdn.pixabay.com/photo/2022/11/21/11/13/catamaran-7606767_640.jpg",
        "src1280": "https://cdn.pixabay.com/photo/2022/11/21/11/13/catamaran-7606767_1280.jpg"
    },
    {
        "id": "5643731",
        "src640": "https://cdn.pixabay.com/photo/2020/10/10/17/41/sea-5643731_640.jpg",
        "src1280": "https://cdn.pixabay.com/photo/2020/10/10/17/41/sea-5643731_1280.jpg"
    },
    {
        "id": "5626854",
        "src640": "https://cdn.pixabay.com/photo/2020/10/04/16/10/dunes-5626854_640.jpg",
        "src1280": "https://cdn.pixabay.com/photo/2020/10/04/16/10/dunes-5626854_1280.jpg"
    },
    {
        "id": "4576380",
        "src640": "https://cdn.pixabay.com/photo/2019/10/25/08/53/holiday-4576380_640.jpg",
        "src1280": "https://cdn.pixabay.com/photo/2019/10/25/08/53/holiday-4576380_1280.jpg"
    },
    {
        "id": "5121298",
        "src640": "https://cdn.pixabay.com/photo/2020/05/02/12/51/bird-5121298_640.jpg",
        "src1280": "https://cdn.pixabay.com/photo/2020/05/02/12/51/bird-5121298_1280.jpg"
    },
    {
        "id": "5542235",
        "src640": "https://cdn.pixabay.com/photo/2020/09/03/19/28/sand-5542235_640.jpg",
        "src1280": "https://cdn.pixabay.com/photo/2020/09/03/19/28/sand-5542235_1280.jpg"
    },
    {
        "id": "4506486",
        "src640": "https://cdn.pixabay.com/photo/2019/09/26/17/00/reef-4506486_640.jpg",
        "src1280": "https://cdn.pixabay.com/photo/2019/09/26/17/00/reef-4506486_1280.jpg"
    },
    {
        "id": "3821740",
        "src640": "https://cdn.pixabay.com/photo/2018/11/17/19/01/gun-3821740_640.jpg",
        "src1280": "https://cdn.pixabay.com/photo/2018/11/17/19/01/gun-3821740_1280.jpg"
    },
    {
        "id": "5384471",
        "src640": "https://cdn.pixabay.com/photo/2020/07/08/16/49/sky-5384471_640.jpg",
        "src1280": "https://cdn.pixabay.com/photo/2020/07/08/16/49/sky-5384471_1280.jpg"
    },
    {
        "id": "336019",
        "src640": "https://cdn.pixabay.com/photo/2014/05/02/14/07/sky-336019_640.jpg",
        "src1280": "https://cdn.pixabay.com/photo/2014/05/02/14/07/sky-336019_1280.jpg"
    },
    {
        "id": "7538760",
        "src640": "https://cdn.pixabay.com/photo/2022/10/22/08/34/sunset-7538760_640.jpg",
        "src1280": "https://cdn.pixabay.com/photo/2022/10/22/08/34/sunset-7538760_1280.jpg"
    },
    {
        "id": "5471774",
        "src640": "https://cdn.pixabay.com/photo/2020/08/07/22/37/paragliding-5471774_640.jpg",
        "src1280": "https://cdn.pixabay.com/photo/2020/08/07/22/37/paragliding-5471774_1280.jpg"
    },
    {
        "id": "4688988",
        "src640": "https://cdn.pixabay.com/photo/2019/12/11/18/34/marine-4688988_640.jpg",
        "src1280": "https://cdn.pixabay.com/photo/2019/12/11/18/34/marine-4688988_1280.jpg"
    },
    {
        "id": "5332196",
        "src640": "https://cdn.pixabay.com/photo/2020/06/23/10/58/coumeenoole-beach-5332196_640.jpg",
        "src1280": "https://cdn.pixabay.com/photo/2020/06/23/10/58/coumeenoole-beach-5332196_1280.jpg"
    },
    {
        "id": "3547070",
        "src640": "https://cdn.pixabay.com/photo/2018/07/18/19/09/bahia-3547070_640.jpg",
        "src1280": "https://cdn.pixabay.com/photo/2018/07/18/19/09/bahia-3547070_1280.jpg"
    },
    {
        "id": "965408",
        "src640": "https://cdn.pixabay.com/photo/2015/09/30/12/36/turkey-965408_640.jpg",
        "src1280": "https://cdn.pixabay.com/photo/2015/09/30/12/36/turkey-965408_1280.jpg"
    },
    {
        "id": "823150",
        "src640": "https://cdn.pixabay.com/photo/2015/06/27/00/33/ocean-823150_640.jpg",
        "src1280": "https://cdn.pixabay.com/photo/2015/06/27/00/33/ocean-823150_1280.jpg"
    },
    {
        "id": "2841019",
        "src640": "https://cdn.pixabay.com/photo/2017/10/11/13/06/rope-2841019_640.jpg",
        "src1280": "https://cdn.pixabay.com/photo/2017/10/11/13/06/rope-2841019_1280.jpg"
    },
    {
        "id": "2411700",
        "src640": "https://cdn.pixabay.com/photo/2017/06/17/10/07/parachute-2411700_640.jpg",
        "src1280": "https://cdn.pixabay.com/photo/2017/06/17/10/07/parachute-2411700_1280.jpg"
    },
    {
        "id": "2437646",
        "src640": "https://cdn.pixabay.com/photo/2017/06/24/12/23/offer-2437646_640.jpg",
        "src1280": "https://cdn.pixabay.com/photo/2017/06/24/12/23/offer-2437646_1280.jpg"
    },
    {
        "id": "3173791",
        "src640": "https://cdn.pixabay.com/photo/2018/02/22/19/34/rock-3173791_640.jpg",
        "src1280": "https://cdn.pixabay.com/photo/2018/02/22/19/34/rock-3173791_1280.jpg"
    },
    {
        "id": "2595972",
        "src640": "https://cdn.pixabay.com/photo/2017/08/06/20/22/falls-2595972_640.jpg",
        "src1280": "https://cdn.pixabay.com/photo/2017/08/06/20/22/falls-2595972_1280.jpg"
    },
    {
        "id": "2572819",
        "src640": "https://cdn.pixabay.com/photo/2017/08/02/18/38/adventure-2572819_640.jpg",
        "src1280": "https://cdn.pixabay.com/photo/2017/08/02/18/38/adventure-2572819_1280.jpg"
    },
    {
        "id": "4489931",
        "src640": "https://cdn.pixabay.com/photo/2019/09/19/18/07/nature-4489931_640.jpg",
        "src1280": "https://cdn.pixabay.com/photo/2019/09/19/18/07/nature-4489931_1280.jpg"
    },
    {
        "id": "2573781",
        "src640": "https://cdn.pixabay.com/photo/2017/08/02/22/38/boat-2573781_640.jpg",
        "src1280": "https://cdn.pixabay.com/photo/2017/08/02/22/38/boat-2573781_1280.jpg"
    },
    {
        "id": "4579719",
        "src640": "https://cdn.pixabay.com/photo/2019/10/26/15/11/croatia-4579719_640.jpg",
        "src1280": "https://cdn.pixabay.com/photo/2019/10/26/15/11/croatia-4579719_1280.jpg"
    },
    {
        "id": "7721866",
        "src640": "https://cdn.pixabay.com/photo/2023/01/16/08/29/boat-7721866_640.jpg",
        "src1280": "https://cdn.pixabay.com/photo/2023/01/16/08/29/boat-7721866_1280.jpg"
    },
    {
        "id": "2588985",
        "src640": "https://cdn.pixabay.com/photo/2017/08/06/05/10/nature-2588985_640.jpg",
        "src1280": "https://cdn.pixabay.com/photo/2017/08/06/05/10/nature-2588985_1280.jpg"
    },
    {
        "id": "2059891",
        "src640": "https://cdn.pixabay.com/photo/2017/02/12/12/34/twilight-2059891_640.jpg",
        "src1280": "https://cdn.pixabay.com/photo/2017/02/12/12/34/twilight-2059891_1280.jpg"
    },
    {
        "id": "7184896",
        "src640": "https://cdn.pixabay.com/photo/2022/05/09/16/34/stones-7184896_640.jpg",
        "src1280": "https://cdn.pixabay.com/photo/2022/05/09/16/34/stones-7184896_1280.jpg"
    },
    {
        "id": "5221824",
        "src640": "https://cdn.pixabay.com/photo/2020/05/26/07/29/crab-5221824_640.jpg",
        "src1280": "https://cdn.pixabay.com/photo/2020/05/26/07/29/crab-5221824_1280.jpg"
    },
    {
        "id": "3780043",
        "src640": "https://cdn.pixabay.com/photo/2018/10/28/22/35/beach-3780043_640.jpg",
        "src1280": "https://cdn.pixabay.com/photo/2018/10/28/22/35/beach-3780043_1280.jpg"
    },
    {
        "id": "7098455",
        "src640": "https://cdn.pixabay.com/photo/2022/03/28/22/13/street-vendor-7098455_640.jpg",
        "src1280": "https://cdn.pixabay.com/photo/2022/03/28/22/13/street-vendor-7098455_1280.jpg"
    },
    {
        "id": "3353137",
        "src640": "https://cdn.pixabay.com/photo/2018/04/26/21/13/water-3353137_640.jpg",
        "src1280": "https://cdn.pixabay.com/photo/2018/04/26/21/13/water-3353137_1280.jpg"
    },
    {
        "id": "2417298",
        "src640": "https://cdn.pixabay.com/photo/2017/06/18/21/24/cuxhaven-2417298_640.jpg",
        "src1280": "https://cdn.pixabay.com/photo/2017/06/18/21/24/cuxhaven-2417298_1280.jpg"
    },
    {
        "id": "4878460",
        "src640": "https://cdn.pixabay.com/photo/2020/02/25/10/01/thailand-4878460_640.jpg",
        "src1280": "https://cdn.pixabay.com/photo/2020/02/25/10/01/thailand-4878460_1280.jpg"
    },
    {
        "id": "4203594",
        "src640": "https://cdn.pixabay.com/photo/2019/05/14/21/37/nok-4203594_640.jpg",
        "src1280": "https://cdn.pixabay.com/photo/2019/05/14/21/37/nok-4203594_1280.jpg"
    },
    {
        "id": "4606657",
        "src640": "https://cdn.pixabay.com/photo/2019/11/06/16/52/beach-4606657_640.jpg",
        "src1280": "https://cdn.pixabay.com/photo/2019/11/06/16/52/beach-4606657_1280.jpg"
    },
    {
        "id": "5021357",
        "src640": "https://cdn.pixabay.com/photo/2020/04/09/12/53/sun-5021357_640.jpg",
        "src1280": "https://cdn.pixabay.com/photo/2020/04/09/12/53/sun-5021357_1280.jpg"
    },
    {
        "id": "257362",
        "src640": "https://cdn.pixabay.com/photo/2014/02/03/12/00/beach-chair-257362_640.jpg",
        "src1280": "https://cdn.pixabay.com/photo/2014/02/03/12/00/beach-chair-257362_1280.jpg"
    },
    {
        "id": "4215470",
        "src640": "https://cdn.pixabay.com/photo/2019/05/19/22/36/fish-4215470_640.jpg",
        "src1280": "https://cdn.pixabay.com/photo/2019/05/19/22/36/fish-4215470_1280.jpg"
    },
    {
        "id": "4931044",
        "src640": "https://cdn.pixabay.com/photo/2020/03/14/16/06/top-4931044_640.jpg",
        "src1280": "https://cdn.pixabay.com/photo/2020/03/14/16/06/top-4931044_1280.jpg"
    },
    {
        "id": "7271335",
        "src640": "https://cdn.pixabay.com/photo/2022/06/19/08/17/harbor-7271335_640.jpg",
        "src1280": "https://cdn.pixabay.com/photo/2022/06/19/08/17/harbor-7271335_1280.jpg"
    },
    {
        "id": "2590055",
        "src640": "https://cdn.pixabay.com/photo/2017/08/06/07/55/sea-2590055_640.jpg",
        "src1280": "https://cdn.pixabay.com/photo/2017/08/06/07/55/sea-2590055_1280.jpg"
    },
    {
        "id": "2569769",
        "src640": "https://cdn.pixabay.com/photo/2017/08/02/02/02/camera-2569769_640.jpg",
        "src1280": "https://cdn.pixabay.com/photo/2017/08/02/02/02/camera-2569769_1280.jpg"
    },
    {
        "id": "5196042",
        "src640": "https://cdn.pixabay.com/photo/2020/05/20/11/40/fruit-5196042_640.jpg",
        "src1280": "https://cdn.pixabay.com/photo/2020/05/20/11/40/fruit-5196042_1280.jpg"
    }
]