[
    {
        "id": "2736017",
        "src640": "https://cdn.pixabay.com/photo/2017/09/10/15/51/sozopol-2736017_640.jpg",
        "src1280": "https://cdn.pixabay.com/photo/2017/09/10/15/51/sozopol-2736017_1280.jpg"
    },
    {
        "id": "4946410",
        "src640": "https://cdn.pixabay.com/photo/2020/03/19/05/57/wedding-dress-4946410_640.jpg",
        "src1280": "https://cdn.pixabay.com/photo/2020/03/19/05/57/wedding-dress-4946410_1280.jpg"
    },
    {
        "id": "2073027",
        "src640": "https://cdn.pixabay.com/photo/2017/02/16/23/47/boat-2073027_640.jpg",
        "src1280": "https://cdn.pixabay.com/photo/2017/02/16/23/47/boat-2073027_1280.jpg"
    },
    {
        "id": "2701497",
        "src640": "https://cdn.pixabay.com/photo/2017/08/31/17/18/hong-kong-2701497_640.jpg",
        "src1280": "https://cdn.pixabay.com/photo/2017/08/31/17/18/hong-kong-2701497_1280.jpg"
    },
    {
        "id": "4223573",
        "src640": "https://cdn.pixabay.com/photo/2019/05/23/10/17/sea-4223573_640.jpg",
        "src1280": "https://cdn.pixabay.com/photo/2019/05/23/10/17/sea-4223573_1280.jpg"
    },
    {
        "id": "5387238",
        "src640": "https://cdn.pixabay.com/photo/2020/07/09/12/59/boat-5387238_640.jpg",
        "src1280": "https://cdn.pixabay.com/photo/2020/07/09/12/59/boat-5387238_1280.jpg"
    },
    {
        "id": "5222442",
        "src640": "https://cdn.pixabay.com/photo/2020/05/26/09/44/ship-5222442_640.jpg",
        "src1280": "https://cdn.pixabay.com/photo/2020/05/26/09/44/ship-5222442_1280.jpg"
    },
    {
        "id": "2826845",
        "src640": "https://cdn.pixabay.com/photo/2017/10/07/15/56/sailing-vessel-2826845_640.jpg",
        "src1280": "https://cdn.pixabay.com/photo/2017/10/07/15/56/sailing-vessel-2826845_1280.jpg"
    },
    {
        "id": "4932137",
        "src640": "https://cdn.pixabay.com/photo/2020/03/15/00/18/sunset-4932137_640.jpg",
        "src1280": "https://cdn.pixabay.com/photo/2020/03/15/00/18/sunset-4932137_1280.jpg"
    },
    {
        "id": "1752840",
        "src640": "https://cdn.pixabay.com/photo/2016/10/19/12/14/bracelet-1752840_640.jpg",
        "src1280": "https://cdn.pixabay.com/photo/2016/10/19/12/14/bracelet-1752840_1280.jpg"
    },
    {
        "id": "4854771",
        "src640": "https://cdn.pixabay.com/photo/2020/02/16/20/51/paragliding-4854771_640.jpg",
        "src1280": "https://cdn.pixabay.com/photo/2020/02/16/20/51/paragliding-4854771_1280.jpg"
    },
    {
        "id": "2479241",
        "src640": "https://cdn.pixabay.com/photo/2017/07/06/20/04/duck-2479241_640.jpg",
        "src1280": "https://cdn.pixabay.com/photo/2017/07/06/20/04/duck-2479241_1280.jpg"
    },
    {
        "id": "5753490",
        "src640": "https://cdn.pixabay.com/photo/2020/11/17/19/57/grass-5753490_640.jpg",
        "src1280": "https://cdn.pixabay.com/photo/2020/11/17/19/57/grass-5753490_1280.jpg"
    },
    {
        "id": "6530076",
        "src640": "https://cdn.pixabay.com/photo/2021/08/08/06/54/ship-6530076_640.jpg",
        "src1280": "https://cdn.pixabay.com/photo/2021/08/08/06/54/ship-6530076_1280.jpg"
    },
    {
        "id": "3681391",
        "src640": "https://cdn.pixabay.com/photo/2018/09/16/12/23/white-cliffs-3681391_640.jpg",
        "src1280": "https://cdn.pixabay.com/photo/2018/09/16/12/23/white-cliffs-3681391_1280.jpg"
    },
    {
        "id": "3683376",
        "src640": "https://cdn.pixabay.com/photo/2018/09/17/09/50/beach-3683376_640.jpg",
        "src1280": "https://cdn.pixabay.com/photo/2018/09/17/09/50/beach-3683376_1280.jpg"
    },
    {
        "id": "20724",
        "src640": "https://cdn.pixabay.com/photo/2012/03/02/00/32/aid-20724_640.jpg",
        "src1280": "https://cdn.pixabay.com/photo/2012/03/02/00/32/aid-20724_1280.jpg"
    },
    {
        "id": "391687",
        "src640": "https://cdn.pixabay.com/photo/2014/07/13/08/59/sea-391687_640.jpg",
        "src1280": "https://cdn.pixabay.com/photo/2014/07/13/08/59/sea-391687_1280.jpg"
    },
    {
        "id": "2542664",
        "src640": "https://cdn.pixabay.com/photo/2017/07/26/18/29/seagull-2542664_640.jpg",
        "src1280": "https://cdn.pixabay.com/photo/2017/07/26/18/29/seagull-2542664_1280.jpg"
    },
    {
        "id": "242219",
        "src640": "https://cdn.pixabay.com/photo/2014/01/11/16/21/stones-242219_640.jpg",
        "src1280": "https://cdn.pixabay.com/photo/2014/01/11/16/21/stones-242219_1280.jpg"
    },
    {
        "id": "5757052",
        "src640": "https://cdn.pixabay.com/photo/2020/11/18/23/57/beach-5757052_640.jpg",
        "src1280": "https://cdn.pixabay.com/photo/2020/11/18/23/57/beach-5757052_1280.jpg"
    },
    {
        "id": "7538757",
        "src640": "https://cdn.pixabay.com/photo/2022/10/22/08/33/sunset-7538757_640.jpg",
        "src1280": "https://cdn.pixabay.com/photo/2022/10/22/08/33/sunset-7538757_1280.jpg"
    },
    {
        "id": "5121819",
        "src640": "https://cdn.pixabay.com/photo/2020/05/02/15/17/monte-san-pedro-5121819_640.jpg",
        "src1280": "https://cdn.pixabay.com/photo/2020/05/02/15/17/monte-san-pedro-5121819_1280.jpg"
    },
    {
        "id": "5387278",
        "src640": "https://cdn.pixabay.com/photo/2020/07/09/13/10/canoeing-5387278_640.jpg",
        "src1280": "https://cdn.pixabay.com/photo/2020/07/09/13/10/canoeing-5387278_1280.jpg"
    },
    {
        "id": "2714939",
        "src640": "https://cdn.pixabay.com/photo/2017/09/04/18/29/lighthouse-2714939_640.jpg",
        "src1280": "https://cdn.pixabay.com/photo/2017/09/04/18/29/lighthouse-2714939_1280.jpg"
    },
    {
        "id": "2593905",
        "src640": "https://cdn.pixabay.com/photo/2017/08/06/16/27/west-sea-2593905_640.jpg",
        "src1280": "https://cdn.pixabay.com/photo/2017/08/06/16/27/west-sea-2593905_1280.jpg"
    },
    {
        "id": "7332769",
        "src640": "https://cdn.pixabay.com/photo/2022/07/19/18/33/ship-7332769_640.jpg",
        "src1280": "https://cdn.pixabay.com/photo/2022/07/19/18/33/ship-7332769_1280.jpg"
    },
    {
        "id": "4946021",
        "src640": "https://cdn.pixabay.com/photo/2020/03/19/02/22/palms-4946021_640.jpg",
        "src1280": "https://cdn.pixabay.com/photo/2020/03/19/02/22/palms-4946021_1280.jpg"
    },
    {
        "id": "4626908",
        "src640": "https://cdn.pixabay.com/photo/2019/11/14/19/14/sunset-4626908_640.jpg",
        "src1280": "https://cdn.pixabay.com/photo/2019/11/14/19/14/sunset-4626908_1280.jpg"
    },
    {
        "id": "7469869",
        "src640": "https://cdn.pixabay.com/photo/2022/09/21/09/35/man-7469869_640.jpg",
        "src1280": "https://cdn.pixabay.com/photo/2022/09/21/09/35/man-7469869_1280.jpg"
    },
    {
        "id": "4974150",
        "src640": "https://cdn.pixabay.com/photo/2020/03/27/16/20/greece-4974150_640.jpg",
        "src1280": "https://cdn.pixabay.com/photo/2020/03/27/16/20/greece-4974150_1280.jpg"
    },
    {
        "id": "375422",
        "src640": "https://cdn.pixabay.com/photo/2014/06/23/18/37/fly-375422_640.jpg",
        "src1280": "https://cdn.pixabay.com/photo/2014/06/23/18/37/fly-375422_1280.jpg"
    },
    {
        "id": "4339598",
        "src640": "https://cdn.pixabay.com/photo/2019/07/15/15/12/sink-4339598_640.jpg",
        "src1280": "https://cdn.pixabay.com/photo/2019/07/15/15/12/sink-4339598_1280.jpg"
    },
    {
        "id": "2431569",
        "src640": "https://cdn.pixabay.com/photo/2017/06/22/17/04/sailboat-2431569_640.jpg",
        "src1280": "https://cdn.pixabay.com/photo/2017/06/22/17/04/sailboat-2431569_1280.jpg"
    },
    {
        "id": "5073135",
        "src640": "https://cdn.pixabay.com/photo/2020/04/21/13/31/swing-5073135_640.jpg",
        "src1280": "https://cdn.pixabay.com/photo/2020/04/21/13/31/swing-5073135_1280.jpg"
    },
    {
        "id": "8080521",
        "src640": "https://cdn.pixabay.com/photo/2023/06/22/04/59/beach-8080521_640.jpg",
        "src1280": "https://cdn.pixabay.com/photo/2023/06/22/04/59/beach-8080521_1280.jpg"
    },
    {
        "id": "2397298",
        "src640": "https://cdn.pixabay.com/photo/2017/06/13/00/31/fish-2397298_640.jpg",
        "src1280": "https://cdn.pixabay.com/photo/2017/06/13/00/31/fish-2397298_1280.jpg"
    },
    {
        "id": "907318",
        "src640": "https://cdn.pixabay.com/photo/2015/08/25/18/22/boat-907318_640.jpg",
        "src1280": "https://cdn.pixabay.com/photo/2015/08/25/18/22/boat-907318_1280.jpg"
    },
    {
        "id": "2457083",
        "src640": "https://cdn.pixabay.com/photo/2017/06/30/03/24/glow-2457083_640.jpg",
        "src1280": "https://cdn.pixabay.com/photo/2017/06/30/03/24/glow-2457083_1280.jpg"
    },
    {
        "id": "7333042",
        "src640": "https://cdn.pixabay.com/photo/2022/07/19/21/29/sun-7333042_640.jpg",
        "src1280": "https://cdn.pixabay.com/photo/2022/07/19/21/29/sun-7333042_1280.jpg"
    },
    {
        "id": "2101555",
        "src640": "https://cdn.pixabay.com/photo/2017/02/26/22/15/seagull-2101555_640.jpg",
        "src1280": "https://cdn.pixabay.com/photo/2017/02/26/22/15/seagull-2101555_1280.jpg"
    },
    {
        "id": "2483054",
        "src640": "https://cdn.pixabay.com/photo/2017/07/07/22/44/duck-2483054_640.jpg",
        "src1280": "https://cdn.pixabay.com/photo/2017/07/07/22/44/duck-2483054_1280.jpg"
    },
    {
        "id": "2462248",
        "src640": "https://cdn.pixabay.com/photo/2017/07/01/18/19/close-up-2462248_640.jpg",
        "src1280": "https://cdn.pixabay.com/photo/2017/07/01/18/19/close-up-2462248_1280.jpg"
    },
    {
        "id": "2801421",
        "src640": "https://cdn.pixabay.com/photo/2017/09/30/08/14/beach-2801421_640.jpg",
        "src1280": "https://cdn.pixabay.com/photo/2017/09/30/08/14/beach-2801421_1280.jpg"
    },
    {
        "id": "5799401",
        "src640": "https://cdn.pixabay.com/photo/2020/12/03/04/00/seagulls-5799401_640.jpg",
        "src1280": "https://cdn.pixabay.com/photo/2020/12/03/04/00/seagulls-5799401_1280.jpg"
    },
    {
        "id": "991845",
        "src640": "https://cdn.pixabay.com/photo/2015/10/16/21/18/scenic-991845_640.jpg",
        "src1280": "https://cdn.pixabay.com/photo/2015/10/16/21/18/scenic-991845_1280.jpg"
    },
    {
        "id": "7511332",
        "src640": "https://cdn.pixabay.com/photo/2022/10/10/09/08/sea-7511332_640.jpg",
        "src1280": "https://cdn.pixabay.com/photo/2022/10/10/09/08/sea-7511332_1280.jpg"
    },
    {
        "id": "2406688",
        "src640": "https://cdn.pixabay.com/photo/2017/06/15/20/41/lighthouse-2406688_640.jpg",
        "src1280": "https://cdn.pixabay.com/photo/2017/06/15/20/41/lighthouse-2406688_1280.jpg"
    },
    {
        "id": "2530538",
        "src640": "https://cdn.pixabay.com/photo/2017/07/23/04/36/sky-2530538_640.jpg",
        "src1280": "https://cdn.pixabay.com/photo/2017/07/23/04/36/sky-2530538_1280.jpg"
    },
    {
        "id": "4397169",
        "src640": "https://cdn.pixabay.com/photo/2019/08/10/15/28/sand-4397169_640.jpg",
        "src1280": "https://cdn.pixabay.com/photo/2019/08/10/15/28/sand-4397169_1280.jpg"
    },
    {
        "id": "4970027",
        "src640": "https://cdn.pixabay.com/photo/2020/03/26/10/53/norway-4970027_640.jpg",
        "src1280": "https://cdn.pixabay.com/photo/2020/03/26/10/53/norway-4970027_1280.jpg"
    },
    {
        "id": "5986160",
        "src640": "https://cdn.pixabay.com/photo/2021/02/05/21/57/seagull-5986160_640.jpg",
        "src1280": "https://cdn.pixabay.com/photo/2021/02/05/21/57/seagull-5986160_1280.jpg"
    },
    {
        "id": "7608569",
        "src640": "https://cdn.pixabay.com/photo/2022/11/22/02/08/wedding-7608569_640.jpg",
        "src1280": "https://cdn.pixabay.com/photo/2022/11/22/02/08/wedding-7608569_1280.jpg"
    },
    {
        "id": "4184650",
        "src640": "https://cdn.pixabay.com/photo/2019/05/06/23/50/paragliding-4184650_640.jpg",
        "src1280": "https://cdn.pixabay.com/photo/2019/05/06/23/50/paragliding-4184650_1280.jpg"
    },
    {
        "id": "6816920",
        "src640": "https://cdn.pixabay.com/photo/2021/11/22/17/05/sea-6816920_640.jpg",
        "src1280": "https://cdn.pixabay.com/photo/2021/11/22/17/05/sea-6816920_1280.jpg"
    },
    {
        "id": "4517570",
        "src640": "https://cdn.pixabay.com/photo/2019/10/01/08/38/spain-4517570_640.jpg",
        "src1280": "https://cdn.pixabay.com/photo/2019/10/01/08/38/spain-4517570_1280.jpg"
    },
    {
        "id": "5009410",
        "src640": "https://cdn.pixabay.com/photo/2020/04/06/11/48/sun-5009410_640.jpg",
        "src1280": "https://cdn.pixabay.com/photo/2020/04/06/11/48/sun-5009410_1280.jpg"
    },
    {
        "id": "929701",
        "src640": "https://cdn.pixabay.com/photo/2015/09/08/09/45/tenerife-929701_640.jpg",
        "src1280": "https://cdn.pixabay.com/photo/2015/09/08/09/45/tenerife-929701_1280.jpg"
    },
    {
        "id": "410877",
        "src640": "https://cdn.pixabay.com/photo/2014/08/05/19/36/beach-plants-410877_640.jpg",
        "src1280": "https://cdn.pixabay.com/photo/2014/08/05/19/36/beach-plants-410877_1280.jpg"
    },
    {
        "id": "5387152",
        "src640": "https://cdn.pixabay.com/photo/2020/07/09/12/38/lombok-5387152_640.jpg",
        "src1280": "https://cdn.pixabay.com/photo/2020/07/09/12/38/lombok-5387152_1280.jpg"
    },
    {
        "id": "5013504",
        "src640": "https://cdn.pixabay.com/photo/2020/04/07/14/13/backpacking-5013504_640.jpg",
        "src1280": "https://cdn.pixabay.com/photo/2020/04/07/14/13/backpacking-5013504_1280.jpg"
    },
    {
        "id": "3622226",
        "src640": "https://cdn.pixabay.com/photo/2018/08/21/21/44/sailboat-3622226_640.jpg",
        "src1280": "https://cdn.pixabay.com/photo/2018/08/21/21/44/sailboat-3622226_1280.jpg"
    },
    {
        "id": "7087834",
        "src640": "https://cdn.pixabay.com/photo/2022/03/23/20/22/baltic-sea-7087834_640.jpg",
        "src1280": "https://cdn.pixabay.com/photo/2022/03/23/20/22/baltic-sea-7087834_1280.jpg"
    },
    {
        "id": "6472357",
        "src640": "https://cdn.pixabay.com/photo/2021/07/17/06/08/beach-6472357_640.jpg",
        "src1280": "https://cdn.pixabay.com/photo/2021/07/17/06/08/beach-6472357_1280.jpg"
    },
    {
        "id": "3689009",
        "src640": "https://cdn.pixabay.com/photo/2018/09/19/17/22/zakhyntos-3689009_640.jpg",
        "src1280": "https://cdn.pixabay.com/photo/2018/09/19/17/22/zakhyntos-3689009_1280.jpg"
    },
    {
        "id": "1663803",
        "src640": "https://cdn.pixabay.com/photo/2016/09/12/12/13/water-1663803_640.jpg",
        "src1280": "https://cdn.pixabay.com/photo/2016/09/12/12/13/water-1663803_1280.jpg"
    },
    {
        "id": "4752388",
        "src640": "https://cdn.pixabay.com/photo/2020/01/09/09/47/sea-4752388_640.jpg",
        "src1280": "https://cdn.pixabay.com/photo/2020/01/09/09/47/sea-4752388_1280.jpg"
    },
    {
        "id": "4461597",
        "src640": "https://cdn.pixabay.com/photo/2019/09/08/18/36/anemonenbeet-4461597_640.jpg",
        "src1280": "https://cdn.pixabay.com/photo/2019/09/08/18/36/anemonenbeet-4461597_1280.jpg"
    },
    {
        "id": "4646937",
        "src640": "https://cdn.pixabay.com/photo/2019/11/23/12/21/miedzyzdroje-4646937_640.jpg",
        "src1280": "https://cdn.pixabay.com/photo/2019/11/23/12/21/miedzyzdroje-4646937_1280.jpg"
    },
    {
        "id": "5062008",
        "src640": "https://cdn.pixabay.com/photo/2020/04/19/06/14/temple-5062008_640.jpg",
        "src1280": "https://cdn.pixabay.com/photo/2020/04/19/06/14/temple-5062008_1280.jpg"
    },
    {
        "id": "6683446",
        "src640": "https://cdn.pixabay.com/photo/2021/10/05/18/30/sea-6683446_640.jpg",
        "src1280": "https://cdn.pixabay.com/photo/2021/10/05/18/30/sea-6683446_1280.jpg"
    },
    {
        "id": "6962355",
        "src640": "https://cdn.pixabay.com/photo/2022/01/24/02/14/beach-6962355_640.jpg",
        "src1280": "https://cdn.pixabay.com/photo/2022/01/24/02/14/beach-6962355_1280.jpg"
    },
    {
        "id": "6556563",
        "src640": "https://cdn.pixabay.com/photo/2021/08/18/21/02/sand-6556563_640.jpg",
        "src1280": "https://cdn.pixabay.com/photo/2021/08/18/21/02/sand-6556563_1280.jpg"
    },
    {
        "id": "7546784",
        "src640": "https://cdn.pixabay.com/photo/2022/10/25/20/12/beach-7546784_640.jpg",
        "src1280": "https://cdn.pixabay.com/photo/2022/10/25/20/12/beach-7546784_1280.jpg"
    },
    {
        "id": "1516849",
        "src640": "https://cdn.pixabay.com/photo/2016/07/14/14/54/rocks-1516849_640.jpg",
        "src1280": "https://cdn.pixabay.com/photo/2016/07/14/14/54/rocks-1516849_1280.jpg"
    },
    {
        "id": "4973946",
        "src640": "https://cdn.pixabay.com/photo/2020/03/27/15/34/norway-4973946_640.jpg",
        "src1280": "https://cdn.pixabay.com/photo/2020/03/27/15/34/norway-4973946_1280.jpg"
    },
    {
        "id": "6950962",
        "src640": "https://cdn.pixabay.com/photo/2022/01/19/20/40/sea-6950962_640.jpg",
        "src1280": "https://cdn.pixabay.com/photo/2022/01/19/20/40/sea-6950962_1280.jpg"
    },
    {
        "id": "5607919",
        "src640": "https://cdn.pixabay.com/photo/2020/09/27/21/09/sea-5607919_640.jpg",
        "src1280": "https://cdn.pixabay.com/photo/2020/09/27/21/09/sea-5607919_1280.jpg"
    },
    {
        "id": "2977572",
        "src640": "https://cdn.pixabay.com/photo/2017/11/25/20/20/mar-2977572_640.jpg",
        "src1280": "https://cdn.pixabay.com/photo/2017/11/25/20/20/mar-2977572_1280.jpg"
    },
    {
        "id": "5983299",
        "src640": "https://cdn.pixabay.com/photo/2021/02/05/03/49/boat-5983299_640.jpg",
        "src1280": "https://cdn.pixabay.com/photo/2021/02/05/03/49/boat-5983299_1280.jpg"
    },
    {
        "id": "2471529",
        "src640": "https://cdn.pixabay.com/photo/2017/07/04/15/54/sea-2471529_640.jpg",
        "src1280": "https://cdn.pixabay.com/photo/2017/07/04/15/54/sea-2471529_1280.jpg"
    },
    {
        "id": "7167089",
        "src640": "https://cdn.pixabay.com/photo/2022/05/01/08/28/sea-7167089_640.jpg",
        "src1280": "https://cdn.pixabay.com/photo/2022/05/01/08/28/sea-7167089_1280.jpg"
    },
    {
        "id": "2569731",
        "src640": "https://cdn.pixabay.com/photo/2017/08/02/01/56/sea-2569731_640.jpg",
        "src1280": "https://cdn.pixabay.com/photo/2017/08/02/01/56/sea-2569731_1280.jpg"
    },
    {
        "id": "5463143",
        "src640": "https://cdn.pixabay.com/photo/2020/08/04/15/41/sunrise-5463143_640.jpg",
        "src1280": "https://cdn.pixabay.com/photo/2020/08/04/15/41/sunrise-5463143_1280.jpg"
    },
    {
        "id": "4993363",
        "src640": "https://cdn.pixabay.com/photo/2020/04/02/04/27/mountain-4993363_640.jpg",
        "src1280": "https://cdn.pixabay.com/photo/2020/04/02/04/27/mountain-4993363_1280.jpg"
    },
    {
        "id": "4819277",
        "src640": "https://cdn.pixabay.com/photo/2020/02/04/20/45/dubrovnik-4819277_640.jpg",
        "src1280": "https://cdn.pixabay.com/photo/2020/02/04/20/45/dubrovnik-4819277_1280.jpg"
    },
    {
        "id": "5272637",
        "src640": "https://cdn.pixabay.com/photo/2020/06/08/01/41/sea-5272637_640.jpg",
        "src1280": "https://cdn.pixabay.com/photo/2020/06/08/01/41/sea-5272637_1280.jpg"
    },
    {
        "id": "2706289",
        "src640": "https://cdn.pixabay.com/photo/2017/09/02/04/19/the-netherlands-2706289_640.jpg",
        "src1280": "https://cdn.pixabay.com/photo/2017/09/02/04/19/the-netherlands-2706289_1280.jpg"
    },
    {
        "id": "6996192",
        "src640": "https://cdn.pixabay.com/photo/2022/02/06/04/36/fishermen-6996192_640.jpg",
        "src1280": "https://cdn.pixabay.com/photo/2022/02/06/04/36/fishermen-6996192_1280.jpg"
    },
    {
        "id": "2757073",
        "src640": "https://cdn.pixabay.com/photo/2017/09/16/22/39/lighthouse-2757073_640.jpg",
        "src1280": "https://cdn.pixabay.com/photo/2017/09/16/22/39/lighthouse-2757073_1280.jpg"
    },
    {
        "id": "2802321",
        "src640": "https://cdn.pixabay.com/photo/2017/09/30/15/02/sunset-on-the-sea-2802321_640.jpg",
        "src1280": "https://cdn.pixabay.com/photo/2017/09/30/15/02/sunset-on-the-sea-2802321_1280.jpg"
    },
    {
        "id": "6191366",
        "src640": "https://cdn.pixabay.com/photo/2021/04/19/13/12/sunset-6191366_640.jpg",
        "src1280": "https://cdn.pixabay.com/photo/2021/04/19/13/12/sunset-6191366_1280.jpg"
    },
    {
        "id": "6257532",
        "src640": "https://cdn.pixabay.com/photo/2021/05/16/08/39/istanbul-6257532_640.jpg",
        "src1280": "https://cdn.pixabay.com/photo/2021/05/16/08/39/istanbul-6257532_1280.jpg"
    },
    {
        "id": "995814",
        "src640": "https://cdn.pixabay.com/photo/2015/10/19/10/43/tree-995814_640.jpg",
        "src1280": "https://cdn.pixabay.com/photo/2015/10/19/10/43/tree-995814_1280.jpg"
    },
    {
        "id": "2367152",
        "src640": "https://cdn.pixabay.com/photo/2017/06/02/19/45/boat-2367152_640.jpg",
        "src1280": "https://cdn.pixabay.com/photo/2017/06/02/19/45/boat-2367152_1280.jpg"
    },
    {
        "id": "1566234",
        "src640": "https://cdn.pixabay.com/photo/2016/08/03/10/08/sailboat-1566234_640.jpg",
        "src1280": "https://cdn.pixabay.com/photo/2016/08/03/10/08/sailboat-1566234_1280.jpg"
    },
    {
        "id": "4806191",
        "src640": "https://cdn.pixabay.com/photo/2020/01/30/18/27/v-4806191_640.jpg",
        "src1280": "https://cdn.pixabay.com/photo/2020/01/30/18/27/v-4806191_1280.jpg"
    },
    {
        "id": "5293800",
        "src640": "https://cdn.pixabay.com/photo/2020/06/13/10/57/summer-5293800_640.jpg",
        "src1280": "https://cdn.pixabay.com/photo/2020/06/13/10/57/summer-5293800_1280.jpg"
    }
]