[
    {
        "id": "7323654",
        "src640": "https://cdn.pixabay.com/photo/2022/07/15/18/01/bathing-car-7323654_640.jpg",
        "src1280": "https://cdn.pixabay.com/photo/2022/07/15/18/01/bathing-car-7323654_1280.jpg"
    },
    {
        "id": "6229700",
        "src640": "https://cdn.pixabay.com/photo/2021/05/04/21/06/beach-6229700_640.jpg",
        "src1280": "https://cdn.pixabay.com/photo/2021/05/04/21/06/beach-6229700_1280.jpg"
    },
    {
        "id": "6049799",
        "src640": "https://cdn.pixabay.com/photo/2021/02/25/18/45/mermaid-6049799_640.jpg",
        "src1280": "https://cdn.pixabay.com/photo/2021/02/25/18/45/mermaid-6049799_1280.jpg"
    },
    {
        "id": "8446569",
        "src640": "https://cdn.pixabay.com/photo/2023/12/13/08/22/ai-generated-8446569_640.jpg",
        "src1280": "https://cdn.pixabay.com/photo/2023/12/13/08/22/ai-generated-8446569_1280.jpg"
    },
    {
        "id": "8421280",
        "src640": "https://cdn.pixabay.com/photo/2023/11/30/10/21/portugal-8421280_640.jpg",
        "src1280": "https://cdn.pixabay.com/photo/2023/11/30/10/21/portugal-8421280_1280.jpg"
    },
    {
        "id": "8478070",
        "src640": "https://cdn.pixabay.com/photo/2023/12/30/12/54/ai-generated-8478070_640.jpg",
        "src1280": "https://cdn.pixabay.com/photo/2023/12/30/12/54/ai-generated-8478070_1280.jpg"
    },
    {
        "id": "8474207",
        "src640": "https://cdn.pixabay.com/photo/2023/12/28/13/52/ai-generated-8474207_640.jpg",
        "src1280": "https://cdn.pixabay.com/photo/2023/12/28/13/52/ai-generated-8474207_1280.jpg"
    },
    {
        "id": "8475965",
        "src640": "https://cdn.pixabay.com/photo/2023/12/29/10/43/ai-generated-8475965_640.jpg",
        "src1280": "https://cdn.pixabay.com/photo/2023/12/29/10/43/ai-generated-8475965_1280.jpg"
    },
    {
        "id": "8474228",
        "src640": "https://cdn.pixabay.com/photo/2023/12/28/14/02/ai-generated-8474228_640.jpg",
        "src1280": "https://cdn.pixabay.com/photo/2023/12/28/14/02/ai-generated-8474228_1280.jpg"
    },
    {
        "id": "8441180",
        "src640": "https://cdn.pixabay.com/photo/2023/12/10/12/21/ai-generated-8441180_640.jpg",
        "src1280": "https://cdn.pixabay.com/photo/2023/12/10/12/21/ai-generated-8441180_1280.jpg"
    },
    {
        "id": "8432213",
        "src640": "https://cdn.pixabay.com/photo/2023/12/05/18/05/pirate-8432213_640.jpg",
        "src1280": "https://cdn.pixabay.com/photo/2023/12/05/18/05/pirate-8432213_1280.jpg"
    },
    {
        "id": "8461008",
        "src640": "https://cdn.pixabay.com/photo/2023/12/21/01/15/beach-8461008_640.jpg",
        "src1280": "https://cdn.pixabay.com/photo/2023/12/21/01/15/beach-8461008_1280.jpg"
    },
    {
        "id": "8289794",
        "src640": "https://cdn.pixabay.com/photo/2023/10/02/18/14/ai-generated-8289794_640.jpg",
        "src1280": "https://cdn.pixabay.com/photo/2023/10/02/18/14/ai-generated-8289794_1280.jpg"
    },
    {
        "id": "8472319",
        "src640": "https://cdn.pixabay.com/photo/2023/12/27/15/23/sunset-8472319_640.jpg",
        "src1280": "https://cdn.pixabay.com/photo/2023/12/27/15/23/sunset-8472319_1280.jpg"
    },
    {
        "id": "6526009",
        "src640": "https://cdn.pixabay.com/photo/2021/08/06/11/23/mermaid-6526009_640.jpg",
        "src1280": "https://cdn.pixabay.com/photo/2021/08/06/11/23/mermaid-6526009_1280.jpg"
    },
    {
        "id": "8210075",
        "src640": "https://cdn.pixabay.com/photo/2023/08/24/07/41/ai-generated-8210075_640.jpg",
        "src1280": "https://cdn.pixabay.com/photo/2023/08/24/07/41/ai-generated-8210075_1280.jpg"
    },
    {
        "id": "2083963",
        "src640": "https://cdn.pixabay.com/photo/2017/02/20/21/21/child-child-2083963_640.jpg",
        "src1280": "https://cdn.pixabay.com/photo/2017/02/20/21/21/child-child-2083963_1280.jpg"
    },
    {
        "id": "2657716",
        "src640": "https://cdn.pixabay.com/photo/2017/08/19/08/48/pirate-2657716_640.jpg",
        "src1280": "https://cdn.pixabay.com/photo/2017/08/19/08/48/pirate-2657716_1280.jpg"
    },
    {
        "id": "8483030",
        "src640": "https://cdn.pixabay.com/photo/2024/01/02/11/12/sea-8483030_640.jpg",
        "src1280": "https://cdn.pixabay.com/photo/2024/01/02/11/12/sea-8483030_1280.jpg"
    },
    {
        "id": "8443708",
        "src640": "https://cdn.pixabay.com/photo/2023/12/11/14/35/ai-generated-8443708_640.jpg",
        "src1280": "https://cdn.pixabay.com/photo/2023/12/11/14/35/ai-generated-8443708_1280.jpg"
    },
    {
        "id": "8474224",
        "src640": "https://cdn.pixabay.com/photo/2023/12/28/14/00/ai-generated-8474224_640.jpg",
        "src1280": "https://cdn.pixabay.com/photo/2023/12/28/14/00/ai-generated-8474224_1280.jpg"
    },
    {
        "id": "8457123",
        "src640": "https://cdn.pixabay.com/photo/2023/12/19/06/15/paraglider-8457123_640.jpg",
        "src1280": "https://cdn.pixabay.com/photo/2023/12/19/06/15/paraglider-8457123_1280.jpg"
    },
    {
        "id": "1572010",
        "src640": "https://cdn.pixabay.com/photo/2016/08/05/10/43/sunrise-1572010_640.jpg",
        "src1280": "https://cdn.pixabay.com/photo/2016/08/05/10/43/sunrise-1572010_1280.jpg"
    },
    {
        "id": "3710587",
        "src640": "https://cdn.pixabay.com/photo/2018/09/29/01/11/sea-3710587_640.jpg",
        "src1280": "https://cdn.pixabay.com/photo/2018/09/29/01/11/sea-3710587_1280.jpg"
    },
    {
        "id": "4045521",
        "src640": "https://cdn.pixabay.com/photo/2019/03/10/05/40/abstract-4045521_640.jpg",
        "src1280": "https://cdn.pixabay.com/photo/2019/03/10/05/40/abstract-4045521_1280.jpg"
    },
    {
        "id": "8488565",
        "src640": "https://cdn.pixabay.com/photo/2024/01/04/23/47/ai-generated-8488565_640.jpg",
        "src1280": "https://cdn.pixabay.com/photo/2024/01/04/23/47/ai-generated-8488565_1280.jpg"
    },
    {
        "id": "8445265",
        "src640": "https://cdn.pixabay.com/photo/2023/12/12/13/17/beach-8445265_640.jpg",
        "src1280": "https://cdn.pixabay.com/photo/2023/12/12/13/17/beach-8445265_1280.jpg"
    },
    {
        "id": "4089042",
        "src640": "https://cdn.pixabay.com/photo/2019/03/29/12/02/minimal-4089042_640.jpg",
        "src1280": "https://cdn.pixabay.com/photo/2019/03/29/12/02/minimal-4089042_1280.jpg"
    },
    {
        "id": "1217131",
        "src640": "https://cdn.pixabay.com/photo/2016/02/23/08/48/murena-1217131_640.jpg",
        "src1280": "https://cdn.pixabay.com/photo/2016/02/23/08/48/murena-1217131_1280.jpg"
    },
    {
        "id": "8413702",
        "src640": "https://cdn.pixabay.com/photo/2023/11/26/14/26/beach-8413702_640.jpg",
        "src1280": "https://cdn.pixabay.com/photo/2023/11/26/14/26/beach-8413702_1280.jpg"
    },
    {
        "id": "8410859",
        "src640": "https://cdn.pixabay.com/photo/2023/11/25/00/58/ai-generated-8410859_640.jpg",
        "src1280": "https://cdn.pixabay.com/photo/2023/11/25/00/58/ai-generated-8410859_1280.jpg"
    },
    {
        "id": "8135723",
        "src640": "https://cdn.pixabay.com/photo/2023/07/18/21/57/ai-generated-8135723_640.jpg",
        "src1280": "https://cdn.pixabay.com/photo/2023/07/18/21/57/ai-generated-8135723_1280.jpg"
    },
    {
        "id": "4813023",
        "src640": "https://cdn.pixabay.com/photo/2020/02/02/13/37/connect-competition-4813023_640.jpg",
        "src1280": "https://cdn.pixabay.com/photo/2020/02/02/13/37/connect-competition-4813023_1280.jpg"
    },
    {
        "id": "7355860",
        "src640": "https://cdn.pixabay.com/photo/2022/07/31/13/54/sailboat-7355860_640.jpg",
        "src1280": "https://cdn.pixabay.com/photo/2022/07/31/13/54/sailboat-7355860_1280.jpg"
    },
    {
        "id": "6670401",
        "src640": "https://cdn.pixabay.com/photo/2021/09/30/15/32/sea-6670401_640.jpg",
        "src1280": "https://cdn.pixabay.com/photo/2021/09/30/15/32/sea-6670401_1280.jpg"
    },
    {
        "id": "3371353",
        "src640": "https://cdn.pixabay.com/photo/2018/05/03/13/36/summer-3371353_640.jpg",
        "src1280": "https://cdn.pixabay.com/photo/2018/05/03/13/36/summer-3371353_1280.jpg"
    },
    {
        "id": "8444866",
        "src640": "https://cdn.pixabay.com/photo/2023/12/12/09/12/ai-generated-8444866_640.jpg",
        "src1280": "https://cdn.pixabay.com/photo/2023/12/12/09/12/ai-generated-8444866_1280.jpg"
    },
    {
        "id": "8474766",
        "src640": "https://cdn.pixabay.com/photo/2023/12/28/19/21/buoy-8474766_640.jpg",
        "src1280": "https://cdn.pixabay.com/photo/2023/12/28/19/21/buoy-8474766_1280.jpg"
    },
    {
        "id": "8471922",
        "src640": "https://cdn.pixabay.com/photo/2023/12/27/11/48/beach-8471922_640.jpg",
        "src1280": "https://cdn.pixabay.com/photo/2023/12/27/11/48/beach-8471922_1280.jpg"
    },
    {
        "id": "8430004",
        "src640": "https://cdn.pixabay.com/photo/2023/12/04/17/59/roseate-spoonbill-8430004_640.jpg",
        "src1280": "https://cdn.pixabay.com/photo/2023/12/04/17/59/roseate-spoonbill-8430004_1280.jpg"
    },
    {
        "id": "8422982",
        "src640": "https://cdn.pixabay.com/photo/2023/12/01/06/53/coast-8422982_640.jpg",
        "src1280": "https://cdn.pixabay.com/photo/2023/12/01/06/53/coast-8422982_1280.jpg"
    },
    {
        "id": "8474129",
        "src640": "https://cdn.pixabay.com/photo/2023/12/28/13/03/ocean-8474129_640.jpg",
        "src1280": "https://cdn.pixabay.com/photo/2023/12/28/13/03/ocean-8474129_1280.jpg"
    },
    {
        "id": "8478058",
        "src640": "https://cdn.pixabay.com/photo/2023/12/30/12/48/ai-generated-8478058_640.jpg",
        "src1280": "https://cdn.pixabay.com/photo/2023/12/30/12/48/ai-generated-8478058_1280.jpg"
    },
    {
        "id": "1240508",
        "src640": "https://cdn.pixabay.com/photo/2016/03/06/14/38/jellyfish-1240508_640.jpg",
        "src1280": "https://cdn.pixabay.com/photo/2016/03/06/14/38/jellyfish-1240508_1280.jpg"
    },
    {
        "id": "8458781",
        "src640": "https://cdn.pixabay.com/photo/2023/12/20/02/46/mountain-8458781_640.jpg",
        "src1280": "https://cdn.pixabay.com/photo/2023/12/20/02/46/mountain-8458781_1280.jpg"
    },
    {
        "id": "1344798",
        "src640": "https://cdn.pixabay.com/photo/2016/04/21/23/38/ocean-sunrise-1344798_640.jpg",
        "src1280": "https://cdn.pixabay.com/photo/2016/04/21/23/38/ocean-sunrise-1344798_1280.jpg"
    },
    {
        "id": "3121025",
        "src640": "https://cdn.pixabay.com/photo/2018/01/31/12/32/underwater-3121025_640.jpg",
        "src1280": "https://cdn.pixabay.com/photo/2018/01/31/12/32/underwater-3121025_1280.jpg"
    },
    {
        "id": "1032090",
        "src640": "https://cdn.pixabay.com/photo/2015/11/07/16/43/australia-1032090_640.jpg",
        "src1280": "https://cdn.pixabay.com/photo/2015/11/07/16/43/australia-1032090_1280.jpg"
    },
    {
        "id": "2847525",
        "src640": "https://cdn.pixabay.com/photo/2017/10/13/12/37/mermaid-2847525_640.jpg",
        "src1280": "https://cdn.pixabay.com/photo/2017/10/13/12/37/mermaid-2847525_1280.jpg"
    },
    {
        "id": "7893986",
        "src640": "https://cdn.pixabay.com/photo/2023/04/02/08/08/rocks-7893986_640.jpg",
        "src1280": "https://cdn.pixabay.com/photo/2023/04/02/08/08/rocks-7893986_1280.jpg"
    },
    {
        "id": "7150082",
        "src640": "https://cdn.pixabay.com/photo/2022/04/22/15/57/bank-7150082_640.jpg",
        "src1280": "https://cdn.pixabay.com/photo/2022/04/22/15/57/bank-7150082_1280.jpg"
    },
    {
        "id": "1440322",
        "src640": "https://cdn.pixabay.com/photo/2016/06/06/20/32/beach-1440322_640.jpg",
        "src1280": "https://cdn.pixabay.com/photo/2016/06/06/20/32/beach-1440322_1280.jpg"
    },
    {
        "id": "8438044",
        "src640": "https://cdn.pixabay.com/photo/2023/12/08/19/56/finland-8438044_640.jpg",
        "src1280": "https://cdn.pixabay.com/photo/2023/12/08/19/56/finland-8438044_1280.jpg"
    },
    {
        "id": "8430003",
        "src640": "https://cdn.pixabay.com/photo/2023/12/04/17/59/birds-8430003_640.jpg",
        "src1280": "https://cdn.pixabay.com/photo/2023/12/04/17/59/birds-8430003_1280.jpg"
    },
    {
        "id": "8435750",
        "src640": "https://cdn.pixabay.com/photo/2023/12/07/15/23/ai-generated-8435750_640.jpg",
        "src1280": "https://cdn.pixabay.com/photo/2023/12/07/15/23/ai-generated-8435750_1280.jpg"
    },
    {
        "id": "8441181",
        "src640": "https://cdn.pixabay.com/photo/2023/12/10/12/21/ai-generated-8441181_640.jpg",
        "src1280": "https://cdn.pixabay.com/photo/2023/12/10/12/21/ai-generated-8441181_1280.jpg"
    },
    {
        "id": "8441183",
        "src640": "https://cdn.pixabay.com/photo/2023/12/10/12/21/ai-generated-8441183_640.jpg",
        "src1280": "https://cdn.pixabay.com/photo/2023/12/10/12/21/ai-generated-8441183_1280.jpg"
    },
    {
        "id": "8441182",
        "src640": "https://cdn.pixabay.com/photo/2023/12/10/12/21/ai-generated-8441182_640.jpg",
        "src1280": "https://cdn.pixabay.com/photo/2023/12/10/12/21/ai-generated-8441182_1280.jpg"
    },
    {
        "id": "8417468",
        "src640": "https://cdn.pixabay.com/photo/2023/11/28/13/26/lighthouse-8417468_640.jpg",
        "src1280": "https://cdn.pixabay.com/photo/2023/11/28/13/26/lighthouse-8417468_1280.jpg"
    },
    {
        "id": "8434232",
        "src640": "https://cdn.pixabay.com/photo/2023/12/06/19/03/ai-generated-8434232_640.jpg",
        "src1280": "https://cdn.pixabay.com/photo/2023/12/06/19/03/ai-generated-8434232_1280.jpg"
    },
    {
        "id": "8488075",
        "src640": "https://cdn.pixabay.com/photo/2024/01/04/17/44/sea-8488075_640.jpg",
        "src1280": "https://cdn.pixabay.com/photo/2024/01/04/17/44/sea-8488075_1280.jpg"
    },
    {
        "id": "8472571",
        "src640": "https://cdn.pixabay.com/photo/2023/12/27/17/46/sea-8472571_640.jpg",
        "src1280": "https://cdn.pixabay.com/photo/2023/12/27/17/46/sea-8472571_1280.jpg"
    },
    {
        "id": "1744338",
        "src640": "https://cdn.pixabay.com/photo/2016/10/16/03/49/ship-1744338_640.jpg",
        "src1280": "https://cdn.pixabay.com/photo/2016/10/16/03/49/ship-1744338_1280.jpg"
    },
    {
        "id": "8445327",
        "src640": "https://cdn.pixabay.com/photo/2023/12/12/13/36/sea-8445327_640.jpg",
        "src1280": "https://cdn.pixabay.com/photo/2023/12/12/13/36/sea-8445327_1280.jpg"
    },
    {
        "id": "8471000",
        "src640": "https://cdn.pixabay.com/photo/2023/12/26/21/37/fethiye-8471000_640.jpg",
        "src1280": "https://cdn.pixabay.com/photo/2023/12/26/21/37/fethiye-8471000_1280.jpg"
    },
    {
        "id": "8466884",
        "src640": "https://cdn.pixabay.com/photo/2023/12/24/10/35/bird-8466884_640.jpg",
        "src1280": "https://cdn.pixabay.com/photo/2023/12/24/10/35/bird-8466884_1280.jpg"
    },
    {
        "id": "7877414",
        "src640": "https://cdn.pixabay.com/photo/2023/03/26/02/21/board-7877414_640.jpg",
        "src1280": "https://cdn.pixabay.com/photo/2023/03/26/02/21/board-7877414_1280.jpg"
    },
    {
        "id": "8375030",
        "src640": "https://cdn.pixabay.com/photo/2023/11/08/15/23/ai-generated-8375030_640.jpg",
        "src1280": "https://cdn.pixabay.com/photo/2023/11/08/15/23/ai-generated-8375030_1280.jpg"
    }
]