[
    {
        "id": "8356855",
        "src640": "https://cdn.pixabay.com/photo/2023/11/01/08/35/woman-8356855_640.jpg",
        "src1280": "https://cdn.pixabay.com/photo/2023/11/01/08/35/woman-8356855_1280.jpg"
    },
    {
        "id": "6789864",
        "src640": "https://cdn.pixabay.com/photo/2021/11/12/19/25/bridge-6789864_640.jpg",
        "src1280": "https://cdn.pixabay.com/photo/2021/11/12/19/25/bridge-6789864_1280.jpg"
    },
    {
        "id": "3190404",
        "src640": "https://cdn.pixabay.com/photo/2018/03/01/11/08/architecture-3190404_640.jpg",
        "src1280": "https://cdn.pixabay.com/photo/2018/03/01/11/08/architecture-3190404_1280.jpg"
    },
    {
        "id": "6563034",
        "src640": "https://cdn.pixabay.com/photo/2021/08/21/14/57/bruges-6563034_640.jpg",
        "src1280": "https://cdn.pixabay.com/photo/2021/08/21/14/57/bruges-6563034_1280.jpg"
    },
    {
        "id": "3876782",
        "src640": "https://cdn.pixabay.com/photo/2018/12/15/12/13/pali-3876782_640.jpg",
        "src1280": "https://cdn.pixabay.com/photo/2018/12/15/12/13/pali-3876782_1280.jpg"
    },
    {
        "id": "7434262",
        "src640": "https://cdn.pixabay.com/photo/2022/09/05/13/56/sunset-7434262_640.jpg",
        "src1280": "https://cdn.pixabay.com/photo/2022/09/05/13/56/sunset-7434262_1280.jpg"
    },
    {
        "id": "433763",
        "src640": "https://cdn.pixabay.com/photo/2014/09/02/17/31/hong-kong-433763_640.jpg",
        "src1280": "https://cdn.pixabay.com/photo/2014/09/02/17/31/hong-kong-433763_1280.jpg"
    },
    {
        "id": "5838205",
        "src640": "https://cdn.pixabay.com/photo/2020/12/17/04/09/sunset-5838205_640.jpg",
        "src1280": "https://cdn.pixabay.com/photo/2020/12/17/04/09/sunset-5838205_1280.jpg"
    },
    {
        "id": "1930796",
        "src640": "https://cdn.pixabay.com/photo/2016/12/25/19/50/paris-1930796_640.jpg",
        "src1280": "https://cdn.pixabay.com/photo/2016/12/25/19/50/paris-1930796_1280.jpg"
    },
    {
        "id": "1766799",
        "src640": "https://cdn.pixabay.com/photo/2016/10/24/18/03/warsaw-1766799_640.jpg",
        "src1280": "https://cdn.pixabay.com/photo/2016/10/24/18/03/warsaw-1766799_1280.jpg"
    },
    {
        "id": "4341311",
        "src640": "https://cdn.pixabay.com/photo/2019/07/16/08/17/building-4341311_640.jpg",
        "src1280": "https://cdn.pixabay.com/photo/2019/07/16/08/17/building-4341311_1280.jpg"
    },
    {
        "id": "2591042",
        "src640": "https://cdn.pixabay.com/photo/2017/08/06/10/26/guy-2591042_640.jpg",
        "src1280": "https://cdn.pixabay.com/photo/2017/08/06/10/26/guy-2591042_1280.jpg"
    },
    {
        "id": "982350",
        "src640": "https://cdn.pixabay.com/photo/2015/10/11/13/41/night-982350_640.jpg",
        "src1280": "https://cdn.pixabay.com/photo/2015/10/11/13/41/night-982350_1280.jpg"
    },
    {
        "id": "5915367",
        "src640": "https://cdn.pixabay.com/photo/2021/01/13/22/53/cave-5915367_640.jpg",
        "src1280": "https://cdn.pixabay.com/photo/2021/01/13/22/53/cave-5915367_1280.jpg"
    },
    {
        "id": "968338",
        "src640": "https://cdn.pixabay.com/photo/2015/10/02/10/34/manhattan-968338_640.jpg",
        "src1280": "https://cdn.pixabay.com/photo/2015/10/02/10/34/manhattan-968338_1280.jpg"
    },
    {
        "id": "2124684",
        "src640": "https://cdn.pixabay.com/photo/2017/03/07/17/18/hamburg-2124684_640.jpg",
        "src1280": "https://cdn.pixabay.com/photo/2017/03/07/17/18/hamburg-2124684_1280.jpg"
    },
    {
        "id": "107517",
        "src640": "https://cdn.pixabay.com/photo/2013/04/27/21/52/chicago-107517_640.jpg",
        "src1280": "https://cdn.pixabay.com/photo/2013/04/27/21/52/chicago-107517_1280.jpg"
    },
    {
        "id": "6943287",
        "src640": "https://cdn.pixabay.com/photo/2022/01/16/21/45/city-6943287_640.jpg",
        "src1280": "https://cdn.pixabay.com/photo/2022/01/16/21/45/city-6943287_1280.jpg"
    },
    {
        "id": "8457254",
        "src640": "https://cdn.pixabay.com/photo/2023/12/19/07/53/woman-8457254_640.jpg",
        "src1280": "https://cdn.pixabay.com/photo/2023/12/19/07/53/woman-8457254_1280.jpg"
    },
    {
        "id": "6571895",
        "src640": "https://cdn.pixabay.com/photo/2021/08/24/21/44/buildings-6571895_640.jpg",
        "src1280": "https://cdn.pixabay.com/photo/2021/08/24/21/44/buildings-6571895_1280.jpg"
    },
    {
        "id": "2387865",
        "src640": "https://cdn.pixabay.com/photo/2017/06/09/18/16/hamburg-2387865_640.jpg",
        "src1280": "https://cdn.pixabay.com/photo/2017/06/09/18/16/hamburg-2387865_1280.jpg"
    },
    {
        "id": "4813174",
        "src640": "https://cdn.pixabay.com/photo/2020/02/02/14/31/lubeck-4813174_640.jpg",
        "src1280": "https://cdn.pixabay.com/photo/2020/02/02/14/31/lubeck-4813174_1280.jpg"
    },
    {
        "id": "6571891",
        "src640": "https://cdn.pixabay.com/photo/2021/08/24/21/44/buildings-6571891_640.jpg",
        "src1280": "https://cdn.pixabay.com/photo/2021/08/24/21/44/buildings-6571891_1280.jpg"
    },
    {
        "id": "2702625",
        "src640": "https://cdn.pixabay.com/photo/2017/08/31/23/31/city-2702625_640.jpg",
        "src1280": "https://cdn.pixabay.com/photo/2017/08/31/23/31/city-2702625_1280.jpg"
    },
    {
        "id": "1668",
        "src640": "https://cdn.pixabay.com/photo/2010/12/13/09/50/prague-1668_640.jpg",
        "src1280": "https://cdn.pixabay.com/photo/2010/12/13/09/50/prague-1668_1280.jpg"
    },
    {
        "id": "3214253",
        "src640": "https://cdn.pixabay.com/photo/2018/03/10/15/22/architecture-3214253_640.jpg",
        "src1280": "https://cdn.pixabay.com/photo/2018/03/10/15/22/architecture-3214253_1280.jpg"
    },
    {
        "id": "2456695",
        "src640": "https://cdn.pixabay.com/photo/2017/06/29/23/53/cambodia-2456695_640.jpg",
        "src1280": "https://cdn.pixabay.com/photo/2017/06/29/23/53/cambodia-2456695_1280.jpg"
    },
    {
        "id": "7487914",
        "src640": "https://cdn.pixabay.com/photo/2022/09/29/19/40/tower-7487914_640.jpg",
        "src1280": "https://cdn.pixabay.com/photo/2022/09/29/19/40/tower-7487914_1280.jpg"
    },
    {
        "id": "2635928",
        "src640": "https://cdn.pixabay.com/photo/2017/08/13/01/32/blue-mosque-2635928_640.jpg",
        "src1280": "https://cdn.pixabay.com/photo/2017/08/13/01/32/blue-mosque-2635928_1280.jpg"
    },
    {
        "id": "8123759",
        "src640": "https://cdn.pixabay.com/photo/2023/07/13/02/47/woman-8123759_640.jpg",
        "src1280": "https://cdn.pixabay.com/photo/2023/07/13/02/47/woman-8123759_1280.jpg"
    },
    {
        "id": "4720376",
        "src640": "https://cdn.pixabay.com/photo/2019/12/26/12/59/girl-4720376_640.jpg",
        "src1280": "https://cdn.pixabay.com/photo/2019/12/26/12/59/girl-4720376_1280.jpg"
    },
    {
        "id": "111244",
        "src640": "https://cdn.pixabay.com/photo/2013/05/14/23/51/eiffel-111244_640.jpg",
        "src1280": "https://cdn.pixabay.com/photo/2013/05/14/23/51/eiffel-111244_1280.jpg"
    },
    {
        "id": "1333090",
        "src640": "https://cdn.pixabay.com/photo/2016/04/16/13/32/barcelona-1333090_640.jpg",
        "src1280": "https://cdn.pixabay.com/photo/2016/04/16/13/32/barcelona-1333090_1280.jpg"
    },
    {
        "id": "8131915",
        "src640": "https://cdn.pixabay.com/photo/2023/07/17/06/03/ai-generated-8131915_640.jpg",
        "src1280": "https://cdn.pixabay.com/photo/2023/07/17/06/03/ai-generated-8131915_1280.jpg"
    },
    {
        "id": "7272457",
        "src640": "https://cdn.pixabay.com/photo/2022/06/19/18/07/warsaw-7272457_640.jpg",
        "src1280": "https://cdn.pixabay.com/photo/2022/06/19/18/07/warsaw-7272457_1280.jpg"
    },
    {
        "id": "8172776",
        "src640": "https://cdn.pixabay.com/photo/2023/08/06/11/46/destruction-8172776_640.jpg",
        "src1280": "https://cdn.pixabay.com/photo/2023/08/06/11/46/destruction-8172776_1280.jpg"
    },
    {
        "id": "7211031",
        "src640": "https://cdn.pixabay.com/photo/2022/05/21/09/05/ukrainian-flag-7211031_640.jpg",
        "src1280": "https://cdn.pixabay.com/photo/2022/05/21/09/05/ukrainian-flag-7211031_1280.jpg"
    },
    {
        "id": "5215402",
        "src640": "https://cdn.pixabay.com/photo/2020/05/24/18/00/stairs-5215402_640.jpg",
        "src1280": "https://cdn.pixabay.com/photo/2020/05/24/18/00/stairs-5215402_1280.jpg"
    },
    {
        "id": "5354477",
        "src640": "https://cdn.pixabay.com/photo/2020/06/29/21/13/city-5354477_640.jpg",
        "src1280": "https://cdn.pixabay.com/photo/2020/06/29/21/13/city-5354477_1280.jpg"
    },
    {
        "id": "2661330",
        "src640": "https://cdn.pixabay.com/photo/2017/08/20/11/05/architecture-2661330_640.jpg",
        "src1280": "https://cdn.pixabay.com/photo/2017/08/20/11/05/architecture-2661330_1280.jpg"
    },
    {
        "id": "7698037",
        "src640": "https://cdn.pixabay.com/photo/2023/01/05/04/34/church-7698037_640.jpg",
        "src1280": "https://cdn.pixabay.com/photo/2023/01/05/04/34/church-7698037_1280.jpg"
    },
    {
        "id": "7133388",
        "src640": "https://cdn.pixabay.com/photo/2022/04/15/00/05/plum-blossoms-7133388_640.jpg",
        "src1280": "https://cdn.pixabay.com/photo/2022/04/15/00/05/plum-blossoms-7133388_1280.jpg"
    },
    {
        "id": "4790681",
        "src640": "https://cdn.pixabay.com/photo/2020/01/24/16/32/goal-4790681_640.jpg",
        "src1280": "https://cdn.pixabay.com/photo/2020/01/24/16/32/goal-4790681_1280.jpg"
    },
    {
        "id": "6860322",
        "src640": "https://cdn.pixabay.com/photo/2021/12/10/11/36/lights-6860322_640.jpg",
        "src1280": "https://cdn.pixabay.com/photo/2021/12/10/11/36/lights-6860322_1280.jpg"
    },
    {
        "id": "8018051",
        "src640": "https://cdn.pixabay.com/photo/2023/05/25/18/56/girlie-8018051_640.jpg",
        "src1280": "https://cdn.pixabay.com/photo/2023/05/25/18/56/girlie-8018051_1280.jpg"
    },
    {
        "id": "6934161",
        "src640": "https://cdn.pixabay.com/photo/2022/01/13/00/04/austria-6934161_640.jpg",
        "src1280": "https://cdn.pixabay.com/photo/2022/01/13/00/04/austria-6934161_1280.jpg"
    },
    {
        "id": "7028564",
        "src640": "https://cdn.pixabay.com/photo/2022/02/22/11/37/prague-7028564_640.jpg",
        "src1280": "https://cdn.pixabay.com/photo/2022/02/22/11/37/prague-7028564_1280.jpg"
    },
    {
        "id": "3406819",
        "src640": "https://cdn.pixabay.com/photo/2018/05/16/19/30/fashion-3406819_640.jpg",
        "src1280": "https://cdn.pixabay.com/photo/2018/05/16/19/30/fashion-3406819_1280.jpg"
    },
    {
        "id": "4853903",
        "src640": "https://cdn.pixabay.com/photo/2020/02/16/15/39/bicycles-4853903_640.jpg",
        "src1280": "https://cdn.pixabay.com/photo/2020/02/16/15/39/bicycles-4853903_1280.jpg"
    },
    {
        "id": "7849588",
        "src640": "https://cdn.pixabay.com/photo/2023/03/13/11/17/ai-generated-7849588_640.jpg",
        "src1280": "https://cdn.pixabay.com/photo/2023/03/13/11/17/ai-generated-7849588_1280.jpg"
    },
    {
        "id": "3141119",
        "src640": "https://cdn.pixabay.com/photo/2018/02/09/08/35/architecture-3141119_640.jpg",
        "src1280": "https://cdn.pixabay.com/photo/2018/02/09/08/35/architecture-3141119_1280.jpg"
    },
    {
        "id": "4964576",
        "src640": "https://cdn.pixabay.com/photo/2020/03/24/16/09/city-4964576_640.jpg",
        "src1280": "https://cdn.pixabay.com/photo/2020/03/24/16/09/city-4964576_1280.jpg"
    },
    {
        "id": "2845511",
        "src640": "https://cdn.pixabay.com/photo/2017/10/12/19/17/hou-cave-2845511_640.jpg",
        "src1280": "https://cdn.pixabay.com/photo/2017/10/12/19/17/hou-cave-2845511_1280.jpg"
    },
    {
        "id": "1625862",
        "src640": "https://cdn.pixabay.com/photo/2016/08/28/12/50/church-1625862_640.jpg",
        "src1280": "https://cdn.pixabay.com/photo/2016/08/28/12/50/church-1625862_1280.jpg"
    },
    {
        "id": "2325541",
        "src640": "https://cdn.pixabay.com/photo/2017/05/19/05/09/woman-2325541_640.jpg",
        "src1280": "https://cdn.pixabay.com/photo/2017/05/19/05/09/woman-2325541_1280.jpg"
    },
    {
        "id": "6482332",
        "src640": "https://cdn.pixabay.com/photo/2021/07/21/06/18/city-6482332_640.jpg",
        "src1280": "https://cdn.pixabay.com/photo/2021/07/21/06/18/city-6482332_1280.jpg"
    },
    {
        "id": "6808811",
        "src640": "https://cdn.pixabay.com/photo/2021/11/19/11/12/bike-6808811_640.jpg",
        "src1280": "https://cdn.pixabay.com/photo/2021/11/19/11/12/bike-6808811_1280.jpg"
    },
    {
        "id": "6934167",
        "src640": "https://cdn.pixabay.com/photo/2022/01/13/00/05/sunset-6934167_640.jpg",
        "src1280": "https://cdn.pixabay.com/photo/2022/01/13/00/05/sunset-6934167_1280.jpg"
    },
    {
        "id": "6331419",
        "src640": "https://cdn.pixabay.com/photo/2021/06/12/17/29/town-6331419_640.jpg",
        "src1280": "https://cdn.pixabay.com/photo/2021/06/12/17/29/town-6331419_1280.jpg"
    },
    {
        "id": "94142",
        "src640": "https://cdn.pixabay.com/photo/2013/03/15/22/50/aukland-94142_640.jpg",
        "src1280": "https://cdn.pixabay.com/photo/2013/03/15/22/50/aukland-94142_1280.jpg"
    },
    {
        "id": "4785389",
        "src640": "https://cdn.pixabay.com/photo/2020/01/22/14/22/london-4785389_640.jpg",
        "src1280": "https://cdn.pixabay.com/photo/2020/01/22/14/22/london-4785389_1280.jpg"
    },
    {
        "id": "6967553",
        "src640": "https://cdn.pixabay.com/photo/2022/01/25/23/18/city-6967553_640.jpg",
        "src1280": "https://cdn.pixabay.com/photo/2022/01/25/23/18/city-6967553_1280.jpg"
    },
    {
        "id": "92714",
        "src640": "https://cdn.pixabay.com/photo/2013/03/11/22/15/denver-92714_640.jpg",
        "src1280": "https://cdn.pixabay.com/photo/2013/03/11/22/15/denver-92714_1280.jpg"
    },
    {
        "id": "4821316",
        "src640": "https://cdn.pixabay.com/photo/2020/02/05/14/14/night-4821316_640.jpg",
        "src1280": "https://cdn.pixabay.com/photo/2020/02/05/14/14/night-4821316_1280.jpg"
    },
    {
        "id": "4920936",
        "src640": "https://cdn.pixabay.com/photo/2020/03/11/04/15/sunset-4920936_640.jpg",
        "src1280": "https://cdn.pixabay.com/photo/2020/03/11/04/15/sunset-4920936_1280.jpg"
    },
    {
        "id": "349919",
        "src640": "https://cdn.pixabay.com/photo/2014/05/21/15/45/wacker-drive-349919_640.jpg",
        "src1280": "https://cdn.pixabay.com/photo/2014/05/21/15/45/wacker-drive-349919_1280.jpg"
    },
    {
        "id": "1982408",
        "src640": "https://cdn.pixabay.com/photo/2017/01/15/18/54/chicago-1982408_640.jpg",
        "src1280": "https://cdn.pixabay.com/photo/2017/01/15/18/54/chicago-1982408_1280.jpg"
    },
    {
        "id": "5950964",
        "src640": "https://cdn.pixabay.com/photo/2021/01/26/09/48/stairs-5950964_640.jpg",
        "src1280": "https://cdn.pixabay.com/photo/2021/01/26/09/48/stairs-5950964_1280.jpg"
    },
    {
        "id": "193358",
        "src640": "https://cdn.pixabay.com/photo/2013/10/09/20/47/protest-193358_640.jpg",
        "src1280": "https://cdn.pixabay.com/photo/2013/10/09/20/47/protest-193358_1280.jpg"
    },
    {
        "id": "5414587",
        "src640": "https://cdn.pixabay.com/photo/2020/07/17/15/59/city-5414587_640.jpg",
        "src1280": "https://cdn.pixabay.com/photo/2020/07/17/15/59/city-5414587_1280.jpg"
    },
    {
        "id": "142375",
        "src640": "https://cdn.pixabay.com/photo/2013/06/30/11/41/lantern-142375_640.jpg",
        "src1280": "https://cdn.pixabay.com/photo/2013/06/30/11/41/lantern-142375_1280.jpg"
    },
    {
        "id": "7577215",
        "src640": "https://cdn.pixabay.com/photo/2022/11/07/20/58/cathedral-7577215_640.jpg",
        "src1280": "https://cdn.pixabay.com/photo/2022/11/07/20/58/cathedral-7577215_1280.jpg"
    },
    {
        "id": "578781",
        "src640": "https://cdn.pixabay.com/photo/2014/12/23/21/36/mali-losin-578781_640.jpg",
        "src1280": "https://cdn.pixabay.com/photo/2014/12/23/21/36/mali-losin-578781_1280.jpg"
    },
    {
        "id": "5040704",
        "src640": "https://cdn.pixabay.com/photo/2020/04/14/03/03/seoul-5040704_640.jpg",
        "src1280": "https://cdn.pixabay.com/photo/2020/04/14/03/03/seoul-5040704_1280.jpg"
    },
    {
        "id": "4796058",
        "src640": "https://cdn.pixabay.com/photo/2020/01/26/22/27/city-4796058_640.jpg",
        "src1280": "https://cdn.pixabay.com/photo/2020/01/26/22/27/city-4796058_1280.jpg"
    },
    {
        "id": "3136885",
        "src640": "https://cdn.pixabay.com/photo/2018/02/07/11/36/architecture-3136885_640.jpg",
        "src1280": "https://cdn.pixabay.com/photo/2018/02/07/11/36/architecture-3136885_1280.jpg"
    },
    {
        "id": "6321574",
        "src640": "https://cdn.pixabay.com/photo/2021/06/08/19/59/windmill-6321574_640.jpg",
        "src1280": "https://cdn.pixabay.com/photo/2021/06/08/19/59/windmill-6321574_1280.jpg"
    },
    {
        "id": "349957",
        "src640": "https://cdn.pixabay.com/photo/2014/05/21/15/59/trump-tower-349957_640.jpg",
        "src1280": "https://cdn.pixabay.com/photo/2014/05/21/15/59/trump-tower-349957_1280.jpg"
    },
    {
        "id": "1181156",
        "src640": "https://cdn.pixabay.com/photo/2016/02/05/15/23/antwerp-1181156_640.jpg",
        "src1280": "https://cdn.pixabay.com/photo/2016/02/05/15/23/antwerp-1181156_1280.jpg"
    },
    {
        "id": "4462638",
        "src640": "https://cdn.pixabay.com/photo/2019/09/09/05/14/seoul-4462638_640.jpg",
        "src1280": "https://cdn.pixabay.com/photo/2019/09/09/05/14/seoul-4462638_1280.jpg"
    },
    {
        "id": "4368773",
        "src640": "https://cdn.pixabay.com/photo/2019/07/28/13/59/cat-4368773_640.jpg",
        "src1280": "https://cdn.pixabay.com/photo/2019/07/28/13/59/cat-4368773_1280.jpg"
    },
    {
        "id": "6848766",
        "src640": "https://cdn.pixabay.com/photo/2021/12/05/21/32/boats-6848766_640.jpg",
        "src1280": "https://cdn.pixabay.com/photo/2021/12/05/21/32/boats-6848766_1280.jpg"
    },
    {
        "id": "4478079",
        "src640": "https://cdn.pixabay.com/photo/2019/09/15/11/50/girl-4478079_640.jpg",
        "src1280": "https://cdn.pixabay.com/photo/2019/09/15/11/50/girl-4478079_1280.jpg"
    },
    {
        "id": "82673",
        "src640": "https://cdn.pixabay.com/photo/2013/02/18/03/33/esslingen-82673_640.jpg",
        "src1280": "https://cdn.pixabay.com/photo/2013/02/18/03/33/esslingen-82673_1280.jpg"
    },
    {
        "id": "7638982",
        "src640": "https://cdn.pixabay.com/photo/2022/12/06/13/33/people-7638982_640.jpg",
        "src1280": "https://cdn.pixabay.com/photo/2022/12/06/13/33/people-7638982_1280.jpg"
    },
    {
        "id": "6128868",
        "src640": "https://cdn.pixabay.com/photo/2021/03/27/16/12/city-6128868_640.jpg",
        "src1280": "https://cdn.pixabay.com/photo/2021/03/27/16/12/city-6128868_1280.jpg"
    },
    {
        "id": "7284679",
        "src640": "https://cdn.pixabay.com/photo/2022/06/26/06/55/usa-7284679_640.jpg",
        "src1280": "https://cdn.pixabay.com/photo/2022/06/26/06/55/usa-7284679_1280.jpg"
    },
    {
        "id": "6710653",
        "src640": "https://cdn.pixabay.com/photo/2021/10/15/00/43/city-6710653_640.jpg",
        "src1280": "https://cdn.pixabay.com/photo/2021/10/15/00/43/city-6710653_1280.jpg"
    },
    {
        "id": "1030706",
        "src640": "https://cdn.pixabay.com/photo/2015/11/07/10/59/toronto-city-hall-1030706_640.jpg",
        "src1280": "https://cdn.pixabay.com/photo/2015/11/07/10/59/toronto-city-hall-1030706_1280.jpg"
    },
    {
        "id": "5913132",
        "src640": "https://cdn.pixabay.com/photo/2021/01/13/03/30/tokyo-5913132_640.jpg",
        "src1280": "https://cdn.pixabay.com/photo/2021/01/13/03/30/tokyo-5913132_1280.jpg"
    },
    {
        "id": "8346618",
        "src640": "https://cdn.pixabay.com/photo/2023/10/28/06/37/people-8346618_640.jpg",
        "src1280": "https://cdn.pixabay.com/photo/2023/10/28/06/37/people-8346618_1280.jpg"
    },
    {
        "id": "4044204",
        "src640": "https://cdn.pixabay.com/photo/2019/03/09/14/09/dubai-4044204_640.jpg",
        "src1280": "https://cdn.pixabay.com/photo/2019/03/09/14/09/dubai-4044204_1280.jpg"
    },
    {
        "id": "3867800",
        "src640": "https://cdn.pixabay.com/photo/2018/12/10/21/41/road-3867800_640.jpg",
        "src1280": "https://cdn.pixabay.com/photo/2018/12/10/21/41/road-3867800_1280.jpg"
    },
    {
        "id": "7095258",
        "src640": "https://cdn.pixabay.com/photo/2022/03/27/14/31/amsterdam-7095258_640.jpg",
        "src1280": "https://cdn.pixabay.com/photo/2022/03/27/14/31/amsterdam-7095258_1280.jpg"
    },
    {
        "id": "6989325",
        "src640": "https://cdn.pixabay.com/photo/2022/02/02/20/01/city-6989325_640.jpg",
        "src1280": "https://cdn.pixabay.com/photo/2022/02/02/20/01/city-6989325_1280.jpg"
    },
    {
        "id": "4713126",
        "src640": "https://cdn.pixabay.com/photo/2019/12/22/18/57/berlin-4713126_640.jpg",
        "src1280": "https://cdn.pixabay.com/photo/2019/12/22/18/57/berlin-4713126_1280.jpg"
    },
    {
        "id": "7570968",
        "src640": "https://cdn.pixabay.com/photo/2022/11/05/02/04/city-7570968_640.jpg",
        "src1280": "https://cdn.pixabay.com/photo/2022/11/05/02/04/city-7570968_1280.jpg"
    }
]