[
    {
        "id": "7623417",
        "src640": "https://cdn.pixabay.com/photo/2022/11/29/00/14/phone-wallpaper-7623417_640.jpg",
        "src1280": "https://cdn.pixabay.com/photo/2022/11/29/00/14/phone-wallpaper-7623417_1280.jpg"
    },
    {
        "id": "8027730",
        "src640": "https://cdn.pixabay.com/photo/2023/05/30/06/51/scooter-8027730_640.jpg",
        "src1280": "https://cdn.pixabay.com/photo/2023/05/30/06/51/scooter-8027730_1280.jpg"
    },
    {
        "id": "2627700",
        "src640": "https://cdn.pixabay.com/photo/2017/08/10/20/49/italy-2627700_640.jpg",
        "src1280": "https://cdn.pixabay.com/photo/2017/08/10/20/49/italy-2627700_1280.jpg"
    },
    {
        "id": "5992298",
        "src640": "https://cdn.pixabay.com/photo/2021/02/07/18/37/spain-5992298_640.jpg",
        "src1280": "https://cdn.pixabay.com/photo/2021/02/07/18/37/spain-5992298_1280.jpg"
    },
    {
        "id": "7856231",
        "src640": "https://cdn.pixabay.com/photo/2023/03/16/08/55/woman-7856231_640.jpg",
        "src1280": "https://cdn.pixabay.com/photo/2023/03/16/08/55/woman-7856231_1280.jpg"
    },
    {
        "id": "4868012",
        "src640": "https://cdn.pixabay.com/photo/2020/02/21/16/21/vintage-4868012_640.jpg",
        "src1280": "https://cdn.pixabay.com/photo/2020/02/21/16/21/vintage-4868012_1280.jpg"
    },
    {
        "id": "7000223",
        "src640": "https://cdn.pixabay.com/photo/2022/02/07/20/45/lift-bridge-7000223_640.jpg",
        "src1280": "https://cdn.pixabay.com/photo/2022/02/07/20/45/lift-bridge-7000223_1280.jpg"
    },
    {
        "id": "2206581",
        "src640": "https://cdn.pixabay.com/photo/2017/04/05/22/25/tunnel-2206581_640.jpg",
        "src1280": "https://cdn.pixabay.com/photo/2017/04/05/22/25/tunnel-2206581_1280.jpg"
    },
    {
        "id": "8223725",
        "src640": "https://cdn.pixabay.com/photo/2023/08/30/16/45/coast-8223725_640.jpg",
        "src1280": "https://cdn.pixabay.com/photo/2023/08/30/16/45/coast-8223725_1280.jpg"
    },
    {
        "id": "8482662",
        "src640": "https://cdn.pixabay.com/photo/2024/01/02/06/48/woman-8482662_640.jpg",
        "src1280": "https://cdn.pixabay.com/photo/2024/01/02/06/48/woman-8482662_1280.jpg"
    },
    {
        "id": "8453210",
        "src640": "https://cdn.pixabay.com/photo/2023/12/16/20/09/church-8453210_640.jpg",
        "src1280": "https://cdn.pixabay.com/photo/2023/12/16/20/09/church-8453210_1280.jpg"
    },
    {
        "id": "8466250",
        "src640": "https://cdn.pixabay.com/photo/2023/12/23/20/23/ai-generated-8466250_640.jpg",
        "src1280": "https://cdn.pixabay.com/photo/2023/12/23/20/23/ai-generated-8466250_1280.jpg"
    },
    {
        "id": "8479134",
        "src640": "https://cdn.pixabay.com/photo/2023/12/30/22/45/musician-8479134_640.jpg",
        "src1280": "https://cdn.pixabay.com/photo/2023/12/30/22/45/musician-8479134_1280.jpg"
    },
    {
        "id": "8458323",
        "src640": "https://cdn.pixabay.com/photo/2023/12/19/20/16/ai-generated-8458323_640.jpg",
        "src1280": "https://cdn.pixabay.com/photo/2023/12/19/20/16/ai-generated-8458323_1280.jpg"
    },
    {
        "id": "8474899",
        "src640": "https://cdn.pixabay.com/photo/2023/12/28/20/55/ai-generated-8474899_640.jpg",
        "src1280": "https://cdn.pixabay.com/photo/2023/12/28/20/55/ai-generated-8474899_1280.jpg"
    },
    {
        "id": "8474934",
        "src640": "https://cdn.pixabay.com/photo/2023/12/28/21/03/ai-generated-8474934_640.jpg",
        "src1280": "https://cdn.pixabay.com/photo/2023/12/28/21/03/ai-generated-8474934_1280.jpg"
    },
    {
        "id": "8475189",
        "src640": "https://cdn.pixabay.com/photo/2023/12/29/00/11/ai-generated-8475189_640.jpg",
        "src1280": "https://cdn.pixabay.com/photo/2023/12/29/00/11/ai-generated-8475189_1280.jpg"
    },
    {
        "id": "7730433",
        "src640": "https://cdn.pixabay.com/photo/2023/01/20/00/05/ai-generated-7730433_640.jpg",
        "src1280": "https://cdn.pixabay.com/photo/2023/01/20/00/05/ai-generated-7730433_1280.jpg"
    },
    {
        "id": "7509453",
        "src640": "https://cdn.pixabay.com/photo/2022/10/09/15/17/cityscape-7509453_640.jpg",
        "src1280": "https://cdn.pixabay.com/photo/2022/10/09/15/17/cityscape-7509453_1280.jpg"
    },
    {
        "id": "7946739",
        "src640": "https://cdn.pixabay.com/photo/2023/04/23/20/49/ai-generated-7946739_640.jpg",
        "src1280": "https://cdn.pixabay.com/photo/2023/04/23/20/49/ai-generated-7946739_1280.jpg"
    },
    {
        "id": "7635871",
        "src640": "https://cdn.pixabay.com/photo/2022/12/05/04/09/christmas-7635871_640.jpg",
        "src1280": "https://cdn.pixabay.com/photo/2022/12/05/04/09/christmas-7635871_1280.jpg"
    },
    {
        "id": "7091554",
        "src640": "https://cdn.pixabay.com/photo/2022/03/25/18/19/door-7091554_640.jpg",
        "src1280": "https://cdn.pixabay.com/photo/2022/03/25/18/19/door-7091554_1280.jpg"
    },
    {
        "id": "6568079",
        "src640": "https://cdn.pixabay.com/photo/2021/08/23/15/33/pub-6568079_640.jpg",
        "src1280": "https://cdn.pixabay.com/photo/2021/08/23/15/33/pub-6568079_1280.jpg"
    },
    {
        "id": "2440090",
        "src640": "https://cdn.pixabay.com/photo/2017/06/25/09/13/tenby-2440090_640.jpg",
        "src1280": "https://cdn.pixabay.com/photo/2017/06/25/09/13/tenby-2440090_1280.jpg"
    },
    {
        "id": "5963083",
        "src640": "https://cdn.pixabay.com/photo/2021/01/30/07/42/architecture-5963083_640.jpg",
        "src1280": "https://cdn.pixabay.com/photo/2021/01/30/07/42/architecture-5963083_1280.jpg"
    },
    {
        "id": "2710902",
        "src640": "https://cdn.pixabay.com/photo/2017/09/03/15/59/train-2710902_640.jpg",
        "src1280": "https://cdn.pixabay.com/photo/2017/09/03/15/59/train-2710902_1280.jpg"
    },
    {
        "id": "7492521",
        "src640": "https://cdn.pixabay.com/photo/2022/10/02/01/20/watcher-7492521_640.jpg",
        "src1280": "https://cdn.pixabay.com/photo/2022/10/02/01/20/watcher-7492521_1280.jpg"
    },
    {
        "id": "8444452",
        "src640": "https://cdn.pixabay.com/photo/2023/12/11/21/11/woman-8444452_640.jpg",
        "src1280": "https://cdn.pixabay.com/photo/2023/12/11/21/11/woman-8444452_1280.jpg"
    },
    {
        "id": "8477902",
        "src640": "https://cdn.pixabay.com/photo/2023/12/30/11/39/ai-generated-8477902_640.jpg",
        "src1280": "https://cdn.pixabay.com/photo/2023/12/30/11/39/ai-generated-8477902_1280.jpg"
    },
    {
        "id": "390840",
        "src640": "https://cdn.pixabay.com/photo/2014/07/11/23/15/crowded-390840_640.jpg",
        "src1280": "https://cdn.pixabay.com/photo/2014/07/11/23/15/crowded-390840_1280.jpg"
    },
    {
        "id": "8449555",
        "src640": "https://cdn.pixabay.com/photo/2023/12/14/19/47/super-8449555_640.jpg",
        "src1280": "https://cdn.pixabay.com/photo/2023/12/14/19/47/super-8449555_1280.jpg"
    },
    {
        "id": "6257425",
        "src640": "https://cdn.pixabay.com/photo/2021/05/16/07/51/ascensor-da-gloria-6257425_640.jpg",
        "src1280": "https://cdn.pixabay.com/photo/2021/05/16/07/51/ascensor-da-gloria-6257425_1280.jpg"
    },
    {
        "id": "8044051",
        "src640": "https://cdn.pixabay.com/photo/2023/06/06/07/25/destruction-8044051_640.jpg",
        "src1280": "https://cdn.pixabay.com/photo/2023/06/06/07/25/destruction-8044051_1280.jpg"
    },
    {
        "id": "7151501",
        "src640": "https://cdn.pixabay.com/photo/2022/04/23/10/25/construction-7151501_640.jpg",
        "src1280": "https://cdn.pixabay.com/photo/2022/04/23/10/25/construction-7151501_1280.jpg"
    },
    {
        "id": "7445103",
        "src640": "https://cdn.pixabay.com/photo/2022/09/10/13/45/town-hall-7445103_640.jpg",
        "src1280": "https://cdn.pixabay.com/photo/2022/09/10/13/45/town-hall-7445103_1280.jpg"
    },
    {
        "id": "6658659",
        "src640": "https://cdn.pixabay.com/photo/2021/09/26/19/05/verona-6658659_640.jpg",
        "src1280": "https://cdn.pixabay.com/photo/2021/09/26/19/05/verona-6658659_1280.jpg"
    },
    {
        "id": "4794168",
        "src640": "https://cdn.pixabay.com/photo/2020/01/26/09/37/urban-landscape-4794168_640.jpg",
        "src1280": "https://cdn.pixabay.com/photo/2020/01/26/09/37/urban-landscape-4794168_1280.jpg"
    },
    {
        "id": "2905684",
        "src640": "https://cdn.pixabay.com/photo/2017/10/31/16/15/times-square-2905684_640.jpg",
        "src1280": "https://cdn.pixabay.com/photo/2017/10/31/16/15/times-square-2905684_1280.jpg"
    },
    {
        "id": "4814480",
        "src640": "https://cdn.pixabay.com/photo/2020/02/03/00/39/weekend-4814480_640.jpg",
        "src1280": "https://cdn.pixabay.com/photo/2020/02/03/00/39/weekend-4814480_1280.jpg"
    },
    {
        "id": "6117316",
        "src640": "https://cdn.pixabay.com/photo/2021/03/23/11/58/sculpture-6117316_640.jpg",
        "src1280": "https://cdn.pixabay.com/photo/2021/03/23/11/58/sculpture-6117316_1280.jpg"
    },
    {
        "id": "1800585",
        "src640": "https://cdn.pixabay.com/photo/2016/11/05/16/36/street-1800585_640.jpg",
        "src1280": "https://cdn.pixabay.com/photo/2016/11/05/16/36/street-1800585_1280.jpg"
    },
    {
        "id": "8491339",
        "src640": "https://cdn.pixabay.com/photo/2024/01/06/13/02/ai-generated-8491339_640.jpg",
        "src1280": "https://cdn.pixabay.com/photo/2024/01/06/13/02/ai-generated-8491339_1280.jpg"
    },
    {
        "id": "8439569",
        "src640": "https://cdn.pixabay.com/photo/2023/12/09/15/21/cat-8439569_640.jpg",
        "src1280": "https://cdn.pixabay.com/photo/2023/12/09/15/21/cat-8439569_1280.jpg"
    },
    {
        "id": "8447701",
        "src640": "https://cdn.pixabay.com/photo/2023/12/13/20/56/ai-generated-8447701_640.jpg",
        "src1280": "https://cdn.pixabay.com/photo/2023/12/13/20/56/ai-generated-8447701_1280.jpg"
    },
    {
        "id": "8473553",
        "src640": "https://cdn.pixabay.com/photo/2023/12/28/07/59/texture-8473553_640.jpg",
        "src1280": "https://cdn.pixabay.com/photo/2023/12/28/07/59/texture-8473553_1280.jpg"
    },
    {
        "id": "8434757",
        "src640": "https://cdn.pixabay.com/photo/2023/12/07/04/06/boy-8434757_640.jpg",
        "src1280": "https://cdn.pixabay.com/photo/2023/12/07/04/06/boy-8434757_1280.jpg"
    },
    {
        "id": "8447606",
        "src640": "https://cdn.pixabay.com/photo/2023/12/13/20/14/paper-boat-8447606_640.jpg",
        "src1280": "https://cdn.pixabay.com/photo/2023/12/13/20/14/paper-boat-8447606_1280.jpg"
    },
    {
        "id": "7064920",
        "src640": "https://cdn.pixabay.com/photo/2022/03/12/21/16/houses-7064920_640.jpg",
        "src1280": "https://cdn.pixabay.com/photo/2022/03/12/21/16/houses-7064920_1280.jpg"
    },
    {
        "id": "7037755",
        "src640": "https://cdn.pixabay.com/photo/2022/02/27/17/33/lantern-7037755_640.jpg",
        "src1280": "https://cdn.pixabay.com/photo/2022/02/27/17/33/lantern-7037755_1280.jpg"
    },
    {
        "id": "2014952",
        "src640": "https://cdn.pixabay.com/photo/2017/01/28/09/42/door-2014952_640.jpg",
        "src1280": "https://cdn.pixabay.com/photo/2017/01/28/09/42/door-2014952_1280.jpg"
    },
    {
        "id": "1497937",
        "src640": "https://cdn.pixabay.com/photo/2016/07/05/01/49/stable-doors-1497937_640.jpg",
        "src1280": "https://cdn.pixabay.com/photo/2016/07/05/01/49/stable-doors-1497937_1280.jpg"
    },
    {
        "id": "2082463",
        "src640": "https://cdn.pixabay.com/photo/2017/02/20/13/21/love-tunnel-2082463_640.jpg",
        "src1280": "https://cdn.pixabay.com/photo/2017/02/20/13/21/love-tunnel-2082463_1280.jpg"
    },
    {
        "id": "8483878",
        "src640": "https://cdn.pixabay.com/photo/2024/01/02/19/46/ai-generated-8483878_640.jpg",
        "src1280": "https://cdn.pixabay.com/photo/2024/01/02/19/46/ai-generated-8483878_1280.jpg"
    },
    {
        "id": "8479931",
        "src640": "https://cdn.pixabay.com/photo/2023/12/31/11/49/ai-generated-8479931_640.jpg",
        "src1280": "https://cdn.pixabay.com/photo/2023/12/31/11/49/ai-generated-8479931_1280.jpg"
    },
    {
        "id": "8443939",
        "src640": "https://cdn.pixabay.com/photo/2023/12/11/15/45/ai-generated-8443939_640.jpg",
        "src1280": "https://cdn.pixabay.com/photo/2023/12/11/15/45/ai-generated-8443939_1280.jpg"
    },
    {
        "id": "8461259",
        "src640": "https://cdn.pixabay.com/photo/2023/12/21/05/45/osaka-8461259_640.jpg",
        "src1280": "https://cdn.pixabay.com/photo/2023/12/21/05/45/osaka-8461259_1280.jpg"
    },
    {
        "id": "8448574",
        "src640": "https://cdn.pixabay.com/photo/2023/12/14/10/09/ai-generated-8448574_640.jpg",
        "src1280": "https://cdn.pixabay.com/photo/2023/12/14/10/09/ai-generated-8448574_1280.jpg"
    },
    {
        "id": "8421411",
        "src640": "https://cdn.pixabay.com/photo/2023/11/30/11/42/ai-generated-8421411_640.jpg",
        "src1280": "https://cdn.pixabay.com/photo/2023/11/30/11/42/ai-generated-8421411_1280.jpg"
    },
    {
        "id": "8488348",
        "src640": "https://cdn.pixabay.com/photo/2024/01/04/20/23/building-8488348_640.jpg",
        "src1280": "https://cdn.pixabay.com/photo/2024/01/04/20/23/building-8488348_1280.jpg"
    },
    {
        "id": "1414566",
        "src640": "https://cdn.pixabay.com/photo/2016/05/25/11/40/laundry-1414566_640.jpg",
        "src1280": "https://cdn.pixabay.com/photo/2016/05/25/11/40/laundry-1414566_1280.jpg"
    }
]