[
    {
        "id": "8275939",
        "src640": "https://cdn.pixabay.com/photo/2023/09/25/20/03/road-8275939_640.jpg",
        "src1280": "https://cdn.pixabay.com/photo/2023/09/25/20/03/road-8275939_1280.jpg"
    },
    {
        "id": "1097234",
        "src640": "https://cdn.pixabay.com/photo/2015/12/17/11/31/bremen-1097234_640.jpg",
        "src1280": "https://cdn.pixabay.com/photo/2015/12/17/11/31/bremen-1097234_1280.jpg"
    },
    {
        "id": "8170057",
        "src640": "https://cdn.pixabay.com/photo/2023/08/04/22/59/buildings-8170057_640.jpg",
        "src1280": "https://cdn.pixabay.com/photo/2023/08/04/22/59/buildings-8170057_1280.jpg"
    },
    {
        "id": "8193692",
        "src640": "https://cdn.pixabay.com/photo/2023/08/16/09/11/ai-generated-8193692_640.jpg",
        "src1280": "https://cdn.pixabay.com/photo/2023/08/16/09/11/ai-generated-8193692_1280.jpg"
    },
    {
        "id": "8465484",
        "src640": "https://cdn.pixabay.com/photo/2023/12/23/12/46/ai-generated-8465484_640.jpg",
        "src1280": "https://cdn.pixabay.com/photo/2023/12/23/12/46/ai-generated-8465484_1280.jpg"
    },
    {
        "id": "5475271",
        "src640": "https://cdn.pixabay.com/photo/2020/08/09/11/28/u-a-e-5475271_640.jpg",
        "src1280": "https://cdn.pixabay.com/photo/2020/08/09/11/28/u-a-e-5475271_1280.jpg"
    },
    {
        "id": "6216615",
        "src640": "https://cdn.pixabay.com/photo/2021/04/29/13/25/bar-6216615_640.jpg",
        "src1280": "https://cdn.pixabay.com/photo/2021/04/29/13/25/bar-6216615_1280.jpg"
    },
    {
        "id": "8366705",
        "src640": "https://cdn.pixabay.com/photo/2023/11/05/10/13/ai-generated-8366705_640.jpg",
        "src1280": "https://cdn.pixabay.com/photo/2023/11/05/10/13/ai-generated-8366705_1280.jpg"
    },
    {
        "id": "896400",
        "src640": "https://cdn.pixabay.com/photo/2015/08/19/17/49/moscow-896400_640.jpg",
        "src1280": "https://cdn.pixabay.com/photo/2015/08/19/17/49/moscow-896400_1280.jpg"
    },
    {
        "id": "3562219",
        "src640": "https://cdn.pixabay.com/photo/2018/07/25/20/46/bremen-3562219_640.jpg",
        "src1280": "https://cdn.pixabay.com/photo/2018/07/25/20/46/bremen-3562219_1280.jpg"
    },
    {
        "id": "8265391",
        "src640": "https://cdn.pixabay.com/photo/2023/09/20/18/38/tram-8265391_640.jpg",
        "src1280": "https://cdn.pixabay.com/photo/2023/09/20/18/38/tram-8265391_1280.jpg"
    },
    {
        "id": "3382932",
        "src640": "https://cdn.pixabay.com/photo/2018/05/08/12/22/market-square-3382932_640.jpg",
        "src1280": "https://cdn.pixabay.com/photo/2018/05/08/12/22/market-square-3382932_1280.jpg"
    },
    {
        "id": "8091991",
        "src640": "https://cdn.pixabay.com/photo/2023/06/27/11/19/ai-generated-8091991_640.jpg",
        "src1280": "https://cdn.pixabay.com/photo/2023/06/27/11/19/ai-generated-8091991_1280.jpg"
    },
    {
        "id": "6842912",
        "src640": "https://cdn.pixabay.com/photo/2021/12/03/14/39/woman-6842912_640.jpg",
        "src1280": "https://cdn.pixabay.com/photo/2021/12/03/14/39/woman-6842912_1280.jpg"
    },
    {
        "id": "4966219",
        "src640": "https://cdn.pixabay.com/photo/2020/03/25/06/37/gyeongbok-palace-4966219_640.jpg",
        "src1280": "https://cdn.pixabay.com/photo/2020/03/25/06/37/gyeongbok-palace-4966219_1280.jpg"
    },
    {
        "id": "7847796",
        "src640": "https://cdn.pixabay.com/photo/2023/03/12/20/38/ai-generated-7847796_640.jpg",
        "src1280": "https://cdn.pixabay.com/photo/2023/03/12/20/38/ai-generated-7847796_1280.jpg"
    },
    {
        "id": "3022401",
        "src640": "https://cdn.pixabay.com/photo/2017/12/16/10/16/man-3022401_640.jpg",
        "src1280": "https://cdn.pixabay.com/photo/2017/12/16/10/16/man-3022401_1280.jpg"
    },
    {
        "id": "3136642",
        "src640": "https://cdn.pixabay.com/photo/2018/02/07/09/17/mexico-3136642_640.jpg",
        "src1280": "https://cdn.pixabay.com/photo/2018/02/07/09/17/mexico-3136642_1280.jpg"
    },
    {
        "id": "169051",
        "src640": "https://cdn.pixabay.com/photo/2013/07/31/01/59/damanhur-169051_640.jpg",
        "src1280": "https://cdn.pixabay.com/photo/2013/07/31/01/59/damanhur-169051_1280.jpg"
    },
    {
        "id": "8134306",
        "src640": "https://cdn.pixabay.com/photo/2023/07/18/07/54/reeperbahn-8134306_640.jpg",
        "src1280": "https://cdn.pixabay.com/photo/2023/07/18/07/54/reeperbahn-8134306_1280.jpg"
    },
    {
        "id": "4005300",
        "src640": "https://cdn.pixabay.com/photo/2019/02/18/20/02/lane-4005300_640.jpg",
        "src1280": "https://cdn.pixabay.com/photo/2019/02/18/20/02/lane-4005300_1280.jpg"
    },
    {
        "id": "7958339",
        "src640": "https://cdn.pixabay.com/photo/2023/04/29/11/17/venice-7958339_640.jpg",
        "src1280": "https://cdn.pixabay.com/photo/2023/04/29/11/17/venice-7958339_1280.jpg"
    },
    {
        "id": "76303",
        "src640": "https://cdn.pixabay.com/photo/2013/01/27/00/32/worker-76303_640.jpg",
        "src1280": "https://cdn.pixabay.com/photo/2013/01/27/00/32/worker-76303_1280.jpg"
    },
    {
        "id": "4527726",
        "src640": "https://cdn.pixabay.com/photo/2019/10/05/11/20/mono-4527726_640.jpg",
        "src1280": "https://cdn.pixabay.com/photo/2019/10/05/11/20/mono-4527726_1280.jpg"
    },
    {
        "id": "8316474",
        "src640": "https://cdn.pixabay.com/photo/2023/10/15/09/03/ai-generated-8316474_640.jpg",
        "src1280": "https://cdn.pixabay.com/photo/2023/10/15/09/03/ai-generated-8316474_1280.jpg"
    },
    {
        "id": "8264897",
        "src640": "https://cdn.pixabay.com/photo/2023/09/20/13/44/ai-generated-8264897_640.jpg",
        "src1280": "https://cdn.pixabay.com/photo/2023/09/20/13/44/ai-generated-8264897_1280.jpg"
    },
    {
        "id": "8413830",
        "src640": "https://cdn.pixabay.com/photo/2023/11/26/15/41/ai-generated-8413830_640.jpg",
        "src1280": "https://cdn.pixabay.com/photo/2023/11/26/15/41/ai-generated-8413830_1280.jpg"
    },
    {
        "id": "3940798",
        "src640": "https://cdn.pixabay.com/photo/2019/01/18/21/59/car-3940798_640.jpg",
        "src1280": "https://cdn.pixabay.com/photo/2019/01/18/21/59/car-3940798_1280.jpg"
    },
    {
        "id": "7246916",
        "src640": "https://cdn.pixabay.com/photo/2022/06/06/20/23/street-7246916_640.jpg",
        "src1280": "https://cdn.pixabay.com/photo/2022/06/06/20/23/street-7246916_1280.jpg"
    },
    {
        "id": "3134983",
        "src640": "https://cdn.pixabay.com/photo/2018/02/06/15/08/street-3134983_640.jpg",
        "src1280": "https://cdn.pixabay.com/photo/2018/02/06/15/08/street-3134983_1280.jpg"
    },
    {
        "id": "1219146",
        "src640": "https://cdn.pixabay.com/photo/2016/02/24/05/55/african-currency-1219146_640.jpg",
        "src1280": "https://cdn.pixabay.com/photo/2016/02/24/05/55/african-currency-1219146_1280.jpg"
    },
    {
        "id": "830693",
        "src640": "https://cdn.pixabay.com/photo/2015/07/03/20/23/the-national-palace-museum-830693_640.jpg",
        "src1280": "https://cdn.pixabay.com/photo/2015/07/03/20/23/the-national-palace-museum-830693_1280.jpg"
    },
    {
        "id": "1587892",
        "src640": "https://cdn.pixabay.com/photo/2016/08/12/08/45/lyon-1587892_640.jpg",
        "src1280": "https://cdn.pixabay.com/photo/2016/08/12/08/45/lyon-1587892_1280.jpg"
    },
    {
        "id": "8121065",
        "src640": "https://cdn.pixabay.com/photo/2023/07/11/17/52/children-8121065_640.jpg",
        "src1280": "https://cdn.pixabay.com/photo/2023/07/11/17/52/children-8121065_1280.jpg"
    },
    {
        "id": "1343287",
        "src640": "https://cdn.pixabay.com/photo/2016/04/21/12/36/graffiti-1343287_640.jpg",
        "src1280": "https://cdn.pixabay.com/photo/2016/04/21/12/36/graffiti-1343287_1280.jpg"
    },
    {
        "id": "3101744",
        "src640": "https://cdn.pixabay.com/photo/2018/01/23/16/06/canal-3101744_640.jpg",
        "src1280": "https://cdn.pixabay.com/photo/2018/01/23/16/06/canal-3101744_1280.jpg"
    },
    {
        "id": "2353665",
        "src640": "https://cdn.pixabay.com/photo/2017/05/29/12/22/paris-2353665_640.jpg",
        "src1280": "https://cdn.pixabay.com/photo/2017/05/29/12/22/paris-2353665_1280.jpg"
    },
    {
        "id": "1682509",
        "src640": "https://cdn.pixabay.com/photo/2016/09/20/13/35/new-york-1682509_640.jpg",
        "src1280": "https://cdn.pixabay.com/photo/2016/09/20/13/35/new-york-1682509_1280.jpg"
    },
    {
        "id": "8450615",
        "src640": "https://cdn.pixabay.com/photo/2023/12/15/12/43/fireworks-8450615_640.jpg",
        "src1280": "https://cdn.pixabay.com/photo/2023/12/15/12/43/fireworks-8450615_1280.jpg"
    },
    {
        "id": "8196426",
        "src640": "https://cdn.pixabay.com/photo/2023/08/17/11/47/night-8196426_640.jpg",
        "src1280": "https://cdn.pixabay.com/photo/2023/08/17/11/47/night-8196426_1280.jpg"
    },
    {
        "id": "4179267",
        "src640": "https://cdn.pixabay.com/photo/2019/05/04/22/39/monument-4179267_640.jpg",
        "src1280": "https://cdn.pixabay.com/photo/2019/05/04/22/39/monument-4179267_1280.jpg"
    },
    {
        "id": "3314477",
        "src640": "https://cdn.pixabay.com/photo/2018/04/12/19/06/architecture-3314477_640.jpg",
        "src1280": "https://cdn.pixabay.com/photo/2018/04/12/19/06/architecture-3314477_1280.jpg"
    },
    {
        "id": "1479971",
        "src640": "https://cdn.pixabay.com/photo/2016/06/26/05/36/collection-1479971_640.jpg",
        "src1280": "https://cdn.pixabay.com/photo/2016/06/26/05/36/collection-1479971_1280.jpg"
    },
    {
        "id": "3104886",
        "src640": "https://cdn.pixabay.com/photo/2018/01/24/22/05/architecture-3104886_640.jpg",
        "src1280": "https://cdn.pixabay.com/photo/2018/01/24/22/05/architecture-3104886_1280.jpg"
    },
    {
        "id": "143018",
        "src640": "https://cdn.pixabay.com/photo/2013/07/03/21/20/door-143018_640.jpg",
        "src1280": "https://cdn.pixabay.com/photo/2013/07/03/21/20/door-143018_1280.jpg"
    },
    {
        "id": "7627465",
        "src640": "https://cdn.pixabay.com/photo/2022/11/30/19/13/city-7627465_640.jpg",
        "src1280": "https://cdn.pixabay.com/photo/2022/11/30/19/13/city-7627465_1280.jpg"
    },
    {
        "id": "6153672",
        "src640": "https://cdn.pixabay.com/photo/2021/04/05/14/37/slovakia-6153672_640.jpg",
        "src1280": "https://cdn.pixabay.com/photo/2021/04/05/14/37/slovakia-6153672_1280.jpg"
    },
    {
        "id": "7416872",
        "src640": "https://cdn.pixabay.com/photo/2022/08/28/14/42/toy-7416872_640.jpg",
        "src1280": "https://cdn.pixabay.com/photo/2022/08/28/14/42/toy-7416872_1280.jpg"
    },
    {
        "id": "8004772",
        "src640": "https://cdn.pixabay.com/photo/2023/05/19/15/16/church-8004772_640.jpg",
        "src1280": "https://cdn.pixabay.com/photo/2023/05/19/15/16/church-8004772_1280.jpg"
    },
    {
        "id": "6746157",
        "src640": "https://cdn.pixabay.com/photo/2021/10/27/06/48/city-6746157_640.jpg",
        "src1280": "https://cdn.pixabay.com/photo/2021/10/27/06/48/city-6746157_1280.jpg"
    },
    {
        "id": "8210509",
        "src640": "https://cdn.pixabay.com/photo/2023/08/24/11/36/ai-generated-8210509_640.jpg",
        "src1280": "https://cdn.pixabay.com/photo/2023/08/24/11/36/ai-generated-8210509_1280.jpg"
    },
    {
        "id": "2516361",
        "src640": "https://cdn.pixabay.com/photo/2017/07/18/16/58/sculpture-2516361_640.jpg",
        "src1280": "https://cdn.pixabay.com/photo/2017/07/18/16/58/sculpture-2516361_1280.jpg"
    },
    {
        "id": "7440898",
        "src640": "https://cdn.pixabay.com/photo/2022/09/08/12/45/city-7440898_640.jpg",
        "src1280": "https://cdn.pixabay.com/photo/2022/09/08/12/45/city-7440898_1280.jpg"
    },
    {
        "id": "7244846",
        "src640": "https://cdn.pixabay.com/photo/2022/06/05/20/27/rome-7244846_640.jpg",
        "src1280": "https://cdn.pixabay.com/photo/2022/06/05/20/27/rome-7244846_1280.jpg"
    },
    {
        "id": "5392908",
        "src640": "https://cdn.pixabay.com/photo/2020/07/11/06/36/luneburg-5392908_640.jpg",
        "src1280": "https://cdn.pixabay.com/photo/2020/07/11/06/36/luneburg-5392908_1280.jpg"
    },
    {
        "id": "8090448",
        "src640": "https://cdn.pixabay.com/photo/2023/06/26/18/24/ai-generated-8090448_640.jpg",
        "src1280": "https://cdn.pixabay.com/photo/2023/06/26/18/24/ai-generated-8090448_1280.jpg"
    },
    {
        "id": "352134",
        "src640": "https://cdn.pixabay.com/photo/2014/05/23/16/28/skyscraper-352134_640.jpg",
        "src1280": "https://cdn.pixabay.com/photo/2014/05/23/16/28/skyscraper-352134_1280.jpg"
    },
    {
        "id": "6835767",
        "src640": "https://cdn.pixabay.com/photo/2021/11/30/16/35/sopron-6835767_640.jpg",
        "src1280": "https://cdn.pixabay.com/photo/2021/11/30/16/35/sopron-6835767_1280.jpg"
    },
    {
        "id": "1221311",
        "src640": "https://cdn.pixabay.com/photo/2016/02/25/05/05/ruins-1221311_640.jpg",
        "src1280": "https://cdn.pixabay.com/photo/2016/02/25/05/05/ruins-1221311_1280.jpg"
    },
    {
        "id": "3347408",
        "src640": "https://cdn.pixabay.com/photo/2018/04/24/16/52/architecture-3347408_640.jpg",
        "src1280": "https://cdn.pixabay.com/photo/2018/04/24/16/52/architecture-3347408_1280.jpg"
    },
    {
        "id": "718384",
        "src640": "https://cdn.pixabay.com/photo/2015/04/12/00/57/house-718384_640.jpg",
        "src1280": "https://cdn.pixabay.com/photo/2015/04/12/00/57/house-718384_1280.jpg"
    },
    {
        "id": "6885995",
        "src640": "https://cdn.pixabay.com/photo/2021/12/21/20/57/landscape-6885995_640.jpg",
        "src1280": "https://cdn.pixabay.com/photo/2021/12/21/20/57/landscape-6885995_1280.jpg"
    },
    {
        "id": "5355470",
        "src640": "https://cdn.pixabay.com/photo/2020/06/30/07/59/the-statue-of-liberty-5355470_640.jpg",
        "src1280": "https://cdn.pixabay.com/photo/2020/06/30/07/59/the-statue-of-liberty-5355470_1280.jpg"
    },
    {
        "id": "8210535",
        "src640": "https://cdn.pixabay.com/photo/2023/08/24/11/43/ai-generated-8210535_640.jpg",
        "src1280": "https://cdn.pixabay.com/photo/2023/08/24/11/43/ai-generated-8210535_1280.jpg"
    },
    {
        "id": "8182119",
        "src640": "https://cdn.pixabay.com/photo/2023/08/10/17/51/bear-8182119_640.jpg",
        "src1280": "https://cdn.pixabay.com/photo/2023/08/10/17/51/bear-8182119_1280.jpg"
    },
    {
        "id": "7684316",
        "src640": "https://cdn.pixabay.com/photo/2022/12/29/07/22/stralsund-7684316_640.jpg",
        "src1280": "https://cdn.pixabay.com/photo/2022/12/29/07/22/stralsund-7684316_1280.jpg"
    },
    {
        "id": "7543119",
        "src640": "https://cdn.pixabay.com/photo/2022/10/24/10/59/moscow-city-7543119_640.jpg",
        "src1280": "https://cdn.pixabay.com/photo/2022/10/24/10/59/moscow-city-7543119_1280.jpg"
    },
    {
        "id": "2750046",
        "src640": "https://cdn.pixabay.com/photo/2017/09/14/18/51/morocco-2750046_640.jpg",
        "src1280": "https://cdn.pixabay.com/photo/2017/09/14/18/51/morocco-2750046_1280.jpg"
    },
    {
        "id": "1447779",
        "src640": "https://cdn.pixabay.com/photo/2016/06/10/09/45/city-1447779_640.jpg",
        "src1280": "https://cdn.pixabay.com/photo/2016/06/10/09/45/city-1447779_1280.jpg"
    },
    {
        "id": "559287",
        "src640": "https://cdn.pixabay.com/photo/2014/12/06/19/10/czech-republic-559287_640.jpg",
        "src1280": "https://cdn.pixabay.com/photo/2014/12/06/19/10/czech-republic-559287_1280.jpg"
    },
    {
        "id": "6686231",
        "src640": "https://cdn.pixabay.com/photo/2021/10/06/16/53/woman-6686231_640.jpg",
        "src1280": "https://cdn.pixabay.com/photo/2021/10/06/16/53/woman-6686231_1280.jpg"
    },
    {
        "id": "4376482",
        "src640": "https://cdn.pixabay.com/photo/2019/08/01/02/27/mecca-4376482_640.jpg",
        "src1280": "https://cdn.pixabay.com/photo/2019/08/01/02/27/mecca-4376482_1280.jpg"
    },
    {
        "id": "7538599",
        "src640": "https://cdn.pixabay.com/photo/2022/10/22/07/24/cyberpunk-7538599_640.jpg",
        "src1280": "https://cdn.pixabay.com/photo/2022/10/22/07/24/cyberpunk-7538599_1280.jpg"
    },
    {
        "id": "7460128",
        "src640": "https://cdn.pixabay.com/photo/2022/09/17/04/32/new-york-7460128_640.jpg",
        "src1280": "https://cdn.pixabay.com/photo/2022/09/17/04/32/new-york-7460128_1280.jpg"
    },
    {
        "id": "4603937",
        "src640": "https://cdn.pixabay.com/photo/2019/11/05/16/47/monument-4603937_640.jpg",
        "src1280": "https://cdn.pixabay.com/photo/2019/11/05/16/47/monument-4603937_1280.jpg"
    },
    {
        "id": "8085918",
        "src640": "https://cdn.pixabay.com/photo/2023/06/24/19/40/ai-generated-8085918_640.jpg",
        "src1280": "https://cdn.pixabay.com/photo/2023/06/24/19/40/ai-generated-8085918_1280.jpg"
    },
    {
        "id": "8391839",
        "src640": "https://cdn.pixabay.com/photo/2023/11/16/08/53/chinese-female-8391839_640.jpg",
        "src1280": "https://cdn.pixabay.com/photo/2023/11/16/08/53/chinese-female-8391839_1280.jpg"
    },
    {
        "id": "3167625",
        "src640": "https://cdn.pixabay.com/photo/2018/02/20/13/21/architecture-3167625_640.jpg",
        "src1280": "https://cdn.pixabay.com/photo/2018/02/20/13/21/architecture-3167625_1280.jpg"
    },
    {
        "id": "106664",
        "src640": "https://cdn.pixabay.com/photo/2013/04/23/11/18/venice-106664_640.jpg",
        "src1280": "https://cdn.pixabay.com/photo/2013/04/23/11/18/venice-106664_1280.jpg"
    },
    {
        "id": "5020902",
        "src640": "https://cdn.pixabay.com/photo/2020/04/09/10/59/night-5020902_640.jpg",
        "src1280": "https://cdn.pixabay.com/photo/2020/04/09/10/59/night-5020902_1280.jpg"
    },
    {
        "id": "6755226",
        "src640": "https://cdn.pixabay.com/photo/2021/10/30/18/02/television-tower-6755226_640.jpg",
        "src1280": "https://cdn.pixabay.com/photo/2021/10/30/18/02/television-tower-6755226_1280.jpg"
    },
    {
        "id": "8152390",
        "src640": "https://cdn.pixabay.com/photo/2023/07/27/04/13/skyscrapers-8152390_640.jpg",
        "src1280": "https://cdn.pixabay.com/photo/2023/07/27/04/13/skyscrapers-8152390_1280.jpg"
    },
    {
        "id": "4843616",
        "src640": "https://cdn.pixabay.com/photo/2020/02/12/18/57/cntower-4843616_640.jpg",
        "src1280": "https://cdn.pixabay.com/photo/2020/02/12/18/57/cntower-4843616_1280.jpg"
    },
    {
        "id": "3873584",
        "src640": "https://cdn.pixabay.com/photo/2018/12/13/19/36/city-3873584_640.jpg",
        "src1280": "https://cdn.pixabay.com/photo/2018/12/13/19/36/city-3873584_1280.jpg"
    },
    {
        "id": "1678275",
        "src640": "https://cdn.pixabay.com/photo/2016/09/18/14/08/house-1678275_640.jpg",
        "src1280": "https://cdn.pixabay.com/photo/2016/09/18/14/08/house-1678275_1280.jpg"
    },
    {
        "id": "7634237",
        "src640": "https://cdn.pixabay.com/photo/2022/12/04/11/41/buildings-7634237_640.jpg",
        "src1280": "https://cdn.pixabay.com/photo/2022/12/04/11/41/buildings-7634237_1280.jpg"
    },
    {
        "id": "7379724",
        "src640": "https://cdn.pixabay.com/photo/2022/08/11/15/02/skyscrapers-7379724_640.jpg",
        "src1280": "https://cdn.pixabay.com/photo/2022/08/11/15/02/skyscrapers-7379724_1280.jpg"
    },
    {
        "id": "574164",
        "src640": "https://cdn.pixabay.com/photo/2014/12/20/17/08/cologne-574164_640.jpg",
        "src1280": "https://cdn.pixabay.com/photo/2014/12/20/17/08/cologne-574164_1280.jpg"
    },
    {
        "id": "3797684",
        "src640": "https://cdn.pixabay.com/photo/2018/11/06/08/19/old-3797684_640.jpg",
        "src1280": "https://cdn.pixabay.com/photo/2018/11/06/08/19/old-3797684_1280.jpg"
    },
    {
        "id": "7806672",
        "src640": "https://cdn.pixabay.com/photo/2023/02/22/13/56/ai-generated-7806672_640.jpg",
        "src1280": "https://cdn.pixabay.com/photo/2023/02/22/13/56/ai-generated-7806672_1280.jpg"
    },
    {
        "id": "3327246",
        "src640": "https://cdn.pixabay.com/photo/2018/04/17/11/04/architecture-3327246_640.jpg",
        "src1280": "https://cdn.pixabay.com/photo/2018/04/17/11/04/architecture-3327246_1280.jpg"
    },
    {
        "id": "1047022",
        "src640": "https://cdn.pixabay.com/photo/2015/11/17/07/31/las-vegas-1047022_640.jpg",
        "src1280": "https://cdn.pixabay.com/photo/2015/11/17/07/31/las-vegas-1047022_1280.jpg"
    }
]