[
    {
        "id": "8124775",
        "src640": "https://cdn.pixabay.com/photo/2023/07/13/13/18/ai-generated-8124775_640.jpg",
        "src1280": "https://cdn.pixabay.com/photo/2023/07/13/13/18/ai-generated-8124775_1280.jpg"
    },
    {
        "id": "8076402",
        "src640": "https://cdn.pixabay.com/photo/2023/06/20/08/41/steampunk-8076402_640.jpg",
        "src1280": "https://cdn.pixabay.com/photo/2023/06/20/08/41/steampunk-8076402_1280.jpg"
    },
    {
        "id": "6659551",
        "src640": "https://cdn.pixabay.com/photo/2021/09/27/05/58/building-6659551_640.jpg",
        "src1280": "https://cdn.pixabay.com/photo/2021/09/27/05/58/building-6659551_1280.jpg"
    },
    {
        "id": "8100500",
        "src640": "https://cdn.pixabay.com/photo/2023/07/01/16/43/ai-generated-8100500_640.jpg",
        "src1280": "https://cdn.pixabay.com/photo/2023/07/01/16/43/ai-generated-8100500_1280.jpg"
    },
    {
        "id": "4313144",
        "src640": "https://cdn.pixabay.com/photo/2019/07/02/21/01/prague-4313144_640.jpg",
        "src1280": "https://cdn.pixabay.com/photo/2019/07/02/21/01/prague-4313144_1280.jpg"
    },
    {
        "id": "259337",
        "src640": "https://cdn.pixabay.com/photo/2014/02/05/18/36/ball-259337_640.jpg",
        "src1280": "https://cdn.pixabay.com/photo/2014/02/05/18/36/ball-259337_1280.jpg"
    },
    {
        "id": "1461860",
        "src640": "https://cdn.pixabay.com/photo/2016/06/16/17/51/bargello-museum-1461860_640.jpg",
        "src1280": "https://cdn.pixabay.com/photo/2016/06/16/17/51/bargello-museum-1461860_1280.jpg"
    },
    {
        "id": "5500243",
        "src640": "https://cdn.pixabay.com/photo/2020/08/19/07/44/cargo-terminal-5500243_640.jpg",
        "src1280": "https://cdn.pixabay.com/photo/2020/08/19/07/44/cargo-terminal-5500243_1280.jpg"
    },
    {
        "id": "5079379",
        "src640": "https://cdn.pixabay.com/photo/2020/04/22/18/11/amsterdam-5079379_640.jpg",
        "src1280": "https://cdn.pixabay.com/photo/2020/04/22/18/11/amsterdam-5079379_1280.jpg"
    },
    {
        "id": "4701379",
        "src640": "https://cdn.pixabay.com/photo/2019/12/17/11/02/city-4701379_640.jpg",
        "src1280": "https://cdn.pixabay.com/photo/2019/12/17/11/02/city-4701379_1280.jpg"
    },
    {
        "id": "1345832",
        "src640": "https://cdn.pixabay.com/photo/2016/04/22/14/08/guard-1345832_640.jpg",
        "src1280": "https://cdn.pixabay.com/photo/2016/04/22/14/08/guard-1345832_1280.jpg"
    },
    {
        "id": "5668271",
        "src640": "https://cdn.pixabay.com/photo/2020/10/19/16/39/restaurant-5668271_640.jpg",
        "src1280": "https://cdn.pixabay.com/photo/2020/10/19/16/39/restaurant-5668271_1280.jpg"
    },
    {
        "id": "7873160",
        "src640": "https://cdn.pixabay.com/photo/2023/03/24/02/07/ai-generated-7873160_640.jpg",
        "src1280": "https://cdn.pixabay.com/photo/2023/03/24/02/07/ai-generated-7873160_1280.jpg"
    },
    {
        "id": "1078505",
        "src640": "https://cdn.pixabay.com/photo/2015/12/05/17/02/krak-of-chevaliers-1078505_640.jpg",
        "src1280": "https://cdn.pixabay.com/photo/2015/12/05/17/02/krak-of-chevaliers-1078505_1280.jpg"
    },
    {
        "id": "7929375",
        "src640": "https://cdn.pixabay.com/photo/2023/04/16/07/57/clock-7929375_640.jpg",
        "src1280": "https://cdn.pixabay.com/photo/2023/04/16/07/57/clock-7929375_1280.jpg"
    },
    {
        "id": "705060",
        "src640": "https://cdn.pixabay.com/photo/2015/04/03/13/29/moscow-705060_640.jpg",
        "src1280": "https://cdn.pixabay.com/photo/2015/04/03/13/29/moscow-705060_1280.jpg"
    },
    {
        "id": "8211148",
        "src640": "https://cdn.pixabay.com/photo/2023/08/24/16/39/city-8211148_640.jpg",
        "src1280": "https://cdn.pixabay.com/photo/2023/08/24/16/39/city-8211148_1280.jpg"
    },
    {
        "id": "1757668",
        "src640": "https://cdn.pixabay.com/photo/2016/10/21/09/47/building-1757668_640.jpg",
        "src1280": "https://cdn.pixabay.com/photo/2016/10/21/09/47/building-1757668_1280.jpg"
    },
    {
        "id": "8221212",
        "src640": "https://cdn.pixabay.com/photo/2023/08/29/12/31/payphone-8221212_640.jpg",
        "src1280": "https://cdn.pixabay.com/photo/2023/08/29/12/31/payphone-8221212_1280.jpg"
    },
    {
        "id": "1713888",
        "src640": "https://cdn.pixabay.com/photo/2016/10/04/09/34/sardinia-1713888_640.jpg",
        "src1280": "https://cdn.pixabay.com/photo/2016/10/04/09/34/sardinia-1713888_1280.jpg"
    },
    {
        "id": "8212780",
        "src640": "https://cdn.pixabay.com/photo/2023/08/25/11/03/ai-generated-8212780_640.jpg",
        "src1280": "https://cdn.pixabay.com/photo/2023/08/25/11/03/ai-generated-8212780_1280.jpg"
    },
    {
        "id": "8213932",
        "src640": "https://cdn.pixabay.com/photo/2023/08/26/00/35/ai-generated-8213932_640.jpg",
        "src1280": "https://cdn.pixabay.com/photo/2023/08/26/00/35/ai-generated-8213932_1280.jpg"
    },
    {
        "id": "5058939",
        "src640": "https://cdn.pixabay.com/photo/2020/04/18/11/44/paris-5058939_640.jpg",
        "src1280": "https://cdn.pixabay.com/photo/2020/04/18/11/44/paris-5058939_1280.jpg"
    },
    {
        "id": "1446452",
        "src640": "https://cdn.pixabay.com/photo/2016/06/09/19/56/washington-1446452_640.jpg",
        "src1280": "https://cdn.pixabay.com/photo/2016/06/09/19/56/washington-1446452_1280.jpg"
    },
    {
        "id": "911371",
        "src640": "https://cdn.pixabay.com/photo/2015/08/28/02/31/street-piano-911371_640.jpg",
        "src1280": "https://cdn.pixabay.com/photo/2015/08/28/02/31/street-piano-911371_1280.jpg"
    },
    {
        "id": "162616",
        "src640": "https://cdn.pixabay.com/photo/2013/07/14/12/42/london-eye-162616_640.jpg",
        "src1280": "https://cdn.pixabay.com/photo/2013/07/14/12/42/london-eye-162616_1280.jpg"
    },
    {
        "id": "8490883",
        "src640": "https://cdn.pixabay.com/photo/2024/01/06/08/34/cathedral-8490883_640.jpg",
        "src1280": "https://cdn.pixabay.com/photo/2024/01/06/08/34/cathedral-8490883_1280.jpg"
    },
    {
        "id": "835874",
        "src640": "https://cdn.pixabay.com/photo/2015/07/08/10/40/memorial-835874_640.jpg",
        "src1280": "https://cdn.pixabay.com/photo/2015/07/08/10/40/memorial-835874_1280.jpg"
    },
    {
        "id": "2211713",
        "src640": "https://cdn.pixabay.com/photo/2017/04/07/19/34/uk-2211713_640.jpg",
        "src1280": "https://cdn.pixabay.com/photo/2017/04/07/19/34/uk-2211713_1280.jpg"
    },
    {
        "id": "8011206",
        "src640": "https://cdn.pixabay.com/photo/2023/05/22/17/58/ai-generated-8011206_640.jpg",
        "src1280": "https://cdn.pixabay.com/photo/2023/05/22/17/58/ai-generated-8011206_1280.jpg"
    },
    {
        "id": "6693100",
        "src640": "https://cdn.pixabay.com/photo/2021/10/09/06/41/rothenburg-6693100_640.jpg",
        "src1280": "https://cdn.pixabay.com/photo/2021/10/09/06/41/rothenburg-6693100_1280.jpg"
    },
    {
        "id": "5512502",
        "src640": "https://cdn.pixabay.com/photo/2020/08/24/02/32/dog-5512502_640.jpg",
        "src1280": "https://cdn.pixabay.com/photo/2020/08/24/02/32/dog-5512502_1280.jpg"
    },
    {
        "id": "3360117",
        "src640": "https://cdn.pixabay.com/photo/2018/04/29/14/53/skyscraper-3360117_640.jpg",
        "src1280": "https://cdn.pixabay.com/photo/2018/04/29/14/53/skyscraper-3360117_1280.jpg"
    },
    {
        "id": "1325925",
        "src640": "https://cdn.pixabay.com/photo/2016/04/13/03/05/aberdeen-1325925_640.jpg",
        "src1280": "https://cdn.pixabay.com/photo/2016/04/13/03/05/aberdeen-1325925_1280.jpg"
    },
    {
        "id": "2293785",
        "src640": "https://cdn.pixabay.com/photo/2017/05/07/22/09/martini-2293785_640.jpg",
        "src1280": "https://cdn.pixabay.com/photo/2017/05/07/22/09/martini-2293785_1280.jpg"
    },
    {
        "id": "964424",
        "src640": "https://cdn.pixabay.com/photo/2015/09/29/19/29/stairs-964424_640.jpg",
        "src1280": "https://cdn.pixabay.com/photo/2015/09/29/19/29/stairs-964424_1280.jpg"
    },
    {
        "id": "8366665",
        "src640": "https://cdn.pixabay.com/photo/2023/11/05/10/11/ai-generated-8366665_640.jpg",
        "src1280": "https://cdn.pixabay.com/photo/2023/11/05/10/11/ai-generated-8366665_1280.jpg"
    },
    {
        "id": "2429978",
        "src640": "https://cdn.pixabay.com/photo/2017/06/22/08/16/harlem-2429978_640.jpg",
        "src1280": "https://cdn.pixabay.com/photo/2017/06/22/08/16/harlem-2429978_1280.jpg"
    },
    {
        "id": "4362899",
        "src640": "https://cdn.pixabay.com/photo/2019/07/25/15/46/portugal-4362899_640.jpg",
        "src1280": "https://cdn.pixabay.com/photo/2019/07/25/15/46/portugal-4362899_1280.jpg"
    },
    {
        "id": "4079040",
        "src640": "https://cdn.pixabay.com/photo/2019/03/24/23/54/dubai-4079040_640.jpg",
        "src1280": "https://cdn.pixabay.com/photo/2019/03/24/23/54/dubai-4079040_1280.jpg"
    },
    {
        "id": "1729155",
        "src640": "https://cdn.pixabay.com/photo/2016/10/10/16/48/moon-1729155_640.jpg",
        "src1280": "https://cdn.pixabay.com/photo/2016/10/10/16/48/moon-1729155_1280.jpg"
    },
    {
        "id": "2122241",
        "src640": "https://cdn.pixabay.com/photo/2017/03/06/19/03/road-2122241_640.jpg",
        "src1280": "https://cdn.pixabay.com/photo/2017/03/06/19/03/road-2122241_1280.jpg"
    },
    {
        "id": "1076451",
        "src640": "https://cdn.pixabay.com/photo/2015/12/04/12/10/night-1076451_640.jpg",
        "src1280": "https://cdn.pixabay.com/photo/2015/12/04/12/10/night-1076451_1280.jpg"
    },
    {
        "id": "3967932",
        "src640": "https://cdn.pixabay.com/photo/2019/01/31/20/57/berlin-3967932_640.jpg",
        "src1280": "https://cdn.pixabay.com/photo/2019/01/31/20/57/berlin-3967932_1280.jpg"
    },
    {
        "id": "8221626",
        "src640": "https://cdn.pixabay.com/photo/2023/08/29/15/25/woman-8221626_640.jpg",
        "src1280": "https://cdn.pixabay.com/photo/2023/08/29/15/25/woman-8221626_1280.jpg"
    },
    {
        "id": "451170",
        "src640": "https://cdn.pixabay.com/photo/2014/09/18/17/30/building-451170_640.jpg",
        "src1280": "https://cdn.pixabay.com/photo/2014/09/18/17/30/building-451170_1280.jpg"
    },
    {
        "id": "778711",
        "src640": "https://cdn.pixabay.com/photo/2015/05/22/11/53/plovdiv-778711_640.jpg",
        "src1280": "https://cdn.pixabay.com/photo/2015/05/22/11/53/plovdiv-778711_1280.jpg"
    },
    {
        "id": "3674432",
        "src640": "https://cdn.pixabay.com/photo/2018/09/13/11/26/portico-3674432_640.jpg",
        "src1280": "https://cdn.pixabay.com/photo/2018/09/13/11/26/portico-3674432_1280.jpg"
    },
    {
        "id": "3759189",
        "src640": "https://cdn.pixabay.com/photo/2018/10/19/18/01/corsica-3759189_640.jpg",
        "src1280": "https://cdn.pixabay.com/photo/2018/10/19/18/01/corsica-3759189_1280.jpg"
    },
    {
        "id": "8306355",
        "src640": "https://cdn.pixabay.com/photo/2023/10/10/12/36/halloween-8306355_640.jpg",
        "src1280": "https://cdn.pixabay.com/photo/2023/10/10/12/36/halloween-8306355_1280.jpg"
    },
    {
        "id": "4865969",
        "src640": "https://cdn.pixabay.com/photo/2020/02/20/21/24/lisbon-4865969_640.jpg",
        "src1280": "https://cdn.pixabay.com/photo/2020/02/20/21/24/lisbon-4865969_1280.jpg"
    },
    {
        "id": "5118806",
        "src640": "https://cdn.pixabay.com/photo/2020/05/01/19/25/vatican-city-5118806_640.jpg",
        "src1280": "https://cdn.pixabay.com/photo/2020/05/01/19/25/vatican-city-5118806_1280.jpg"
    },
    {
        "id": "7539930",
        "src640": "https://cdn.pixabay.com/photo/2022/10/22/19/18/steyr-7539930_640.jpg",
        "src1280": "https://cdn.pixabay.com/photo/2022/10/22/19/18/steyr-7539930_1280.jpg"
    },
    {
        "id": "7709382",
        "src640": "https://cdn.pixabay.com/photo/2023/01/10/09/40/cordoba-7709382_640.jpg",
        "src1280": "https://cdn.pixabay.com/photo/2023/01/10/09/40/cordoba-7709382_1280.jpg"
    },
    {
        "id": "357256",
        "src640": "https://cdn.pixabay.com/photo/2014/05/29/15/49/japan-357256_640.jpg",
        "src1280": "https://cdn.pixabay.com/photo/2014/05/29/15/49/japan-357256_1280.jpg"
    },
    {
        "id": "3395107",
        "src640": "https://cdn.pixabay.com/photo/2018/05/13/01/27/paris-3395107_640.jpg",
        "src1280": "https://cdn.pixabay.com/photo/2018/05/13/01/27/paris-3395107_1280.jpg"
    },
    {
        "id": "1078224",
        "src640": "https://cdn.pixabay.com/photo/2015/12/05/14/33/in-western-hunan-1078224_640.jpg",
        "src1280": "https://cdn.pixabay.com/photo/2015/12/05/14/33/in-western-hunan-1078224_1280.jpg"
    },
    {
        "id": "7528581",
        "src640": "https://cdn.pixabay.com/photo/2022/10/17/19/35/tabor-7528581_640.jpg",
        "src1280": "https://cdn.pixabay.com/photo/2022/10/17/19/35/tabor-7528581_1280.jpg"
    },
    {
        "id": "3925619",
        "src640": "https://cdn.pixabay.com/photo/2019/01/10/16/50/toledo-3925619_640.jpg",
        "src1280": "https://cdn.pixabay.com/photo/2019/01/10/16/50/toledo-3925619_1280.jpg"
    },
    {
        "id": "7392716",
        "src640": "https://cdn.pixabay.com/photo/2022/08/17/15/06/vevey-7392716_640.jpg",
        "src1280": "https://cdn.pixabay.com/photo/2022/08/17/15/06/vevey-7392716_1280.jpg"
    },
    {
        "id": "1233751",
        "src640": "https://cdn.pixabay.com/photo/2016/03/03/09/17/portugal-1233751_640.jpg",
        "src1280": "https://cdn.pixabay.com/photo/2016/03/03/09/17/portugal-1233751_1280.jpg"
    },
    {
        "id": "7146794",
        "src640": "https://cdn.pixabay.com/photo/2022/04/21/06/41/paris-7146794_640.jpg",
        "src1280": "https://cdn.pixabay.com/photo/2022/04/21/06/41/paris-7146794_1280.jpg"
    },
    {
        "id": "540959",
        "src640": "https://cdn.pixabay.com/photo/2014/11/21/18/51/happisburghcommon-540959_640.jpg",
        "src1280": "https://cdn.pixabay.com/photo/2014/11/21/18/51/happisburghcommon-540959_1280.jpg"
    },
    {
        "id": "843739",
        "src640": "https://cdn.pixabay.com/photo/2015/07/13/19/52/house-843739_640.jpg",
        "src1280": "https://cdn.pixabay.com/photo/2015/07/13/19/52/house-843739_1280.jpg"
    },
    {
        "id": "6319748",
        "src640": "https://cdn.pixabay.com/photo/2021/06/08/05/35/girls-6319748_640.jpg",
        "src1280": "https://cdn.pixabay.com/photo/2021/06/08/05/35/girls-6319748_1280.jpg"
    },
    {
        "id": "7861450",
        "src640": "https://cdn.pixabay.com/photo/2023/03/18/21/32/castle-7861450_640.jpg",
        "src1280": "https://cdn.pixabay.com/photo/2023/03/18/21/32/castle-7861450_1280.jpg"
    },
    {
        "id": "4457815",
        "src640": "https://cdn.pixabay.com/photo/2019/09/07/02/27/bogota-4457815_640.jpg",
        "src1280": "https://cdn.pixabay.com/photo/2019/09/07/02/27/bogota-4457815_1280.jpg"
    },
    {
        "id": "8192723",
        "src640": "https://cdn.pixabay.com/photo/2023/08/15/19/39/ai-generated-8192723_640.jpg",
        "src1280": "https://cdn.pixabay.com/photo/2023/08/15/19/39/ai-generated-8192723_1280.jpg"
    },
    {
        "id": "4273168",
        "src640": "https://cdn.pixabay.com/photo/2019/06/14/09/16/ny-4273168_640.jpg",
        "src1280": "https://cdn.pixabay.com/photo/2019/06/14/09/16/ny-4273168_1280.jpg"
    },
    {
        "id": "1552665",
        "src640": "https://cdn.pixabay.com/photo/2016/07/29/11/04/bangkok-1552665_640.jpg",
        "src1280": "https://cdn.pixabay.com/photo/2016/07/29/11/04/bangkok-1552665_1280.jpg"
    },
    {
        "id": "1632073",
        "src640": "https://cdn.pixabay.com/photo/2016/08/30/21/08/st-paul-1632073_640.jpg",
        "src1280": "https://cdn.pixabay.com/photo/2016/08/30/21/08/st-paul-1632073_1280.jpg"
    },
    {
        "id": "3803647",
        "src640": "https://cdn.pixabay.com/photo/2018/11/09/02/37/great-falls-3803647_640.jpg",
        "src1280": "https://cdn.pixabay.com/photo/2018/11/09/02/37/great-falls-3803647_1280.jpg"
    },
    {
        "id": "650696",
        "src640": "https://cdn.pixabay.com/photo/2015/02/26/17/28/bicycle-650696_640.jpg",
        "src1280": "https://cdn.pixabay.com/photo/2015/02/26/17/28/bicycle-650696_1280.jpg"
    },
    {
        "id": "7731006",
        "src640": "https://cdn.pixabay.com/photo/2023/01/20/07/57/motorcycle-7731006_640.jpg",
        "src1280": "https://cdn.pixabay.com/photo/2023/01/20/07/57/motorcycle-7731006_1280.jpg"
    },
    {
        "id": "4999696",
        "src640": "https://cdn.pixabay.com/photo/2020/04/03/17/54/city-4999696_640.jpg",
        "src1280": "https://cdn.pixabay.com/photo/2020/04/03/17/54/city-4999696_1280.jpg"
    },
    {
        "id": "4176718",
        "src640": "https://cdn.pixabay.com/photo/2019/05/03/20/07/paris-4176718_640.jpg",
        "src1280": "https://cdn.pixabay.com/photo/2019/05/03/20/07/paris-4176718_1280.jpg"
    },
    {
        "id": "8147127",
        "src640": "https://cdn.pixabay.com/photo/2023/07/24/13/36/bridge-8147127_640.jpg",
        "src1280": "https://cdn.pixabay.com/photo/2023/07/24/13/36/bridge-8147127_1280.jpg"
    },
    {
        "id": "6832295",
        "src640": "https://cdn.pixabay.com/photo/2021/11/29/11/10/old-town-6832295_640.jpg",
        "src1280": "https://cdn.pixabay.com/photo/2021/11/29/11/10/old-town-6832295_1280.jpg"
    },
    {
        "id": "7271461",
        "src640": "https://cdn.pixabay.com/photo/2022/06/19/09/32/the-typical-italian-7271461_640.jpg",
        "src1280": "https://cdn.pixabay.com/photo/2022/06/19/09/32/the-typical-italian-7271461_1280.jpg"
    },
    {
        "id": "4483828",
        "src640": "https://cdn.pixabay.com/photo/2019/09/17/15/26/architecture-4483828_640.jpg",
        "src1280": "https://cdn.pixabay.com/photo/2019/09/17/15/26/architecture-4483828_1280.jpg"
    },
    {
        "id": "4226017",
        "src640": "https://cdn.pixabay.com/photo/2019/05/24/11/00/liverpool-4226017_640.jpg",
        "src1280": "https://cdn.pixabay.com/photo/2019/05/24/11/00/liverpool-4226017_1280.jpg"
    },
    {
        "id": "3260157",
        "src640": "https://cdn.pixabay.com/photo/2018/03/25/18/08/barcelona-3260157_640.jpg",
        "src1280": "https://cdn.pixabay.com/photo/2018/03/25/18/08/barcelona-3260157_1280.jpg"
    },
    {
        "id": "5482388",
        "src640": "https://cdn.pixabay.com/photo/2020/08/12/11/19/building-5482388_640.jpg",
        "src1280": "https://cdn.pixabay.com/photo/2020/08/12/11/19/building-5482388_1280.jpg"
    },
    {
        "id": "4429397",
        "src640": "https://cdn.pixabay.com/photo/2019/08/25/12/40/uae-4429397_640.jpg",
        "src1280": "https://cdn.pixabay.com/photo/2019/08/25/12/40/uae-4429397_1280.jpg"
    },
    {
        "id": "8450614",
        "src640": "https://cdn.pixabay.com/photo/2023/12/15/12/43/fireworks-8450614_640.jpg",
        "src1280": "https://cdn.pixabay.com/photo/2023/12/15/12/43/fireworks-8450614_1280.jpg"
    },
    {
        "id": "1378229",
        "src640": "https://cdn.pixabay.com/photo/2016/05/07/21/22/house-1378229_640.jpg",
        "src1280": "https://cdn.pixabay.com/photo/2016/05/07/21/22/house-1378229_1280.jpg"
    },
    {
        "id": "5905568",
        "src640": "https://cdn.pixabay.com/photo/2021/01/10/16/02/architecture-5905568_640.jpg",
        "src1280": "https://cdn.pixabay.com/photo/2021/01/10/16/02/architecture-5905568_1280.jpg"
    },
    {
        "id": "7989333",
        "src640": "https://cdn.pixabay.com/photo/2023/05/12/21/00/ai-generated-7989333_640.jpg",
        "src1280": "https://cdn.pixabay.com/photo/2023/05/12/21/00/ai-generated-7989333_1280.jpg"
    },
    {
        "id": "5048887",
        "src640": "https://cdn.pixabay.com/photo/2020/04/16/03/26/scifi-5048887_640.jpg",
        "src1280": "https://cdn.pixabay.com/photo/2020/04/16/03/26/scifi-5048887_1280.jpg"
    },
    {
        "id": "4504594",
        "src640": "https://cdn.pixabay.com/photo/2019/09/25/20/06/door-4504594_640.jpg",
        "src1280": "https://cdn.pixabay.com/photo/2019/09/25/20/06/door-4504594_1280.jpg"
    },
    {
        "id": "3247118",
        "src640": "https://cdn.pixabay.com/photo/2018/03/21/15/46/mallorca-3247118_640.jpg",
        "src1280": "https://cdn.pixabay.com/photo/2018/03/21/15/46/mallorca-3247118_1280.jpg"
    },
    {
        "id": "5612132",
        "src640": "https://cdn.pixabay.com/photo/2020/09/29/08/01/church-5612132_640.jpg",
        "src1280": "https://cdn.pixabay.com/photo/2020/09/29/08/01/church-5612132_1280.jpg"
    },
    {
        "id": "1808923",
        "src640": "https://cdn.pixabay.com/photo/2016/11/08/17/17/stairs-1808923_640.jpg",
        "src1280": "https://cdn.pixabay.com/photo/2016/11/08/17/17/stairs-1808923_1280.jpg"
    },
    {
        "id": "2199138",
        "src640": "https://cdn.pixabay.com/photo/2017/04/03/18/14/dante-2199138_640.jpg",
        "src1280": "https://cdn.pixabay.com/photo/2017/04/03/18/14/dante-2199138_1280.jpg"
    },
    {
        "id": "3976398",
        "src640": "https://cdn.pixabay.com/photo/2019/02/05/08/50/elbe-3976398_640.jpg",
        "src1280": "https://cdn.pixabay.com/photo/2019/02/05/08/50/elbe-3976398_1280.jpg"
    }
]