[
    {
        "id": "3804894",
        "src640": "https://cdn.pixabay.com/photo/2018/11/09/15/36/tower-3804894_640.jpg",
        "src1280": "https://cdn.pixabay.com/photo/2018/11/09/15/36/tower-3804894_1280.jpg"
    },
    {
        "id": "4094445",
        "src640": "https://cdn.pixabay.com/photo/2019/04/01/01/27/stairs-4094445_640.jpg",
        "src1280": "https://cdn.pixabay.com/photo/2019/04/01/01/27/stairs-4094445_1280.jpg"
    },
    {
        "id": "6936241",
        "src640": "https://cdn.pixabay.com/photo/2022/01/14/00/46/road-6936241_640.jpg",
        "src1280": "https://cdn.pixabay.com/photo/2022/01/14/00/46/road-6936241_1280.jpg"
    },
    {
        "id": "3538725",
        "src640": "https://cdn.pixabay.com/photo/2018/07/15/00/38/ribera-3538725_640.jpg",
        "src1280": "https://cdn.pixabay.com/photo/2018/07/15/00/38/ribera-3538725_1280.jpg"
    },
    {
        "id": "7523506",
        "src640": "https://cdn.pixabay.com/photo/2022/10/15/16/47/street-7523506_640.jpg",
        "src1280": "https://cdn.pixabay.com/photo/2022/10/15/16/47/street-7523506_1280.jpg"
    },
    {
        "id": "7561581",
        "src640": "https://cdn.pixabay.com/photo/2022/11/01/08/03/street-7561581_640.jpg",
        "src1280": "https://cdn.pixabay.com/photo/2022/11/01/08/03/street-7561581_1280.jpg"
    },
    {
        "id": "7997719",
        "src640": "https://cdn.pixabay.com/photo/2023/05/16/14/09/rainy-day-7997719_640.jpg",
        "src1280": "https://cdn.pixabay.com/photo/2023/05/16/14/09/rainy-day-7997719_1280.jpg"
    },
    {
        "id": "1718086",
        "src640": "https://cdn.pixabay.com/photo/2016/10/06/03/23/ancient-costume-1718086_640.jpg",
        "src1280": "https://cdn.pixabay.com/photo/2016/10/06/03/23/ancient-costume-1718086_1280.jpg"
    },
    {
        "id": "4613504",
        "src640": "https://cdn.pixabay.com/photo/2019/11/09/12/53/city-4613504_640.jpg",
        "src1280": "https://cdn.pixabay.com/photo/2019/11/09/12/53/city-4613504_1280.jpg"
    },
    {
        "id": "4122587",
        "src640": "https://cdn.pixabay.com/photo/2019/04/12/17/10/lubeck-4122587_640.jpg",
        "src1280": "https://cdn.pixabay.com/photo/2019/04/12/17/10/lubeck-4122587_1280.jpg"
    },
    {
        "id": "4388473",
        "src640": "https://cdn.pixabay.com/photo/2019/08/06/14/09/stockholm-4388473_640.jpg",
        "src1280": "https://cdn.pixabay.com/photo/2019/08/06/14/09/stockholm-4388473_1280.jpg"
    },
    {
        "id": "435167",
        "src640": "https://cdn.pixabay.com/photo/2014/09/03/23/49/dog-435167_640.jpg",
        "src1280": "https://cdn.pixabay.com/photo/2014/09/03/23/49/dog-435167_1280.jpg"
    },
    {
        "id": "76300",
        "src640": "https://cdn.pixabay.com/photo/2013/01/27/00/31/oklahoma-76300_640.jpg",
        "src1280": "https://cdn.pixabay.com/photo/2013/01/27/00/31/oklahoma-76300_1280.jpg"
    },
    {
        "id": "7849584",
        "src640": "https://cdn.pixabay.com/photo/2023/03/13/11/17/ai-generated-7849584_640.jpg",
        "src1280": "https://cdn.pixabay.com/photo/2023/03/13/11/17/ai-generated-7849584_1280.jpg"
    },
    {
        "id": "4013432",
        "src640": "https://cdn.pixabay.com/photo/2019/02/22/12/10/house-4013432_640.jpg",
        "src1280": "https://cdn.pixabay.com/photo/2019/02/22/12/10/house-4013432_1280.jpg"
    },
    {
        "id": "2664585",
        "src640": "https://cdn.pixabay.com/photo/2017/08/21/09/24/dawn-2664585_640.jpg",
        "src1280": "https://cdn.pixabay.com/photo/2017/08/21/09/24/dawn-2664585_1280.jpg"
    },
    {
        "id": "8316378",
        "src640": "https://cdn.pixabay.com/photo/2023/10/15/08/00/ai-generated-8316378_640.jpg",
        "src1280": "https://cdn.pixabay.com/photo/2023/10/15/08/00/ai-generated-8316378_1280.jpg"
    },
    {
        "id": "8167955",
        "src640": "https://cdn.pixabay.com/photo/2023/08/03/21/27/buildings-8167955_640.jpg",
        "src1280": "https://cdn.pixabay.com/photo/2023/08/03/21/27/buildings-8167955_1280.jpg"
    },
    {
        "id": "4704160",
        "src640": "https://cdn.pixabay.com/photo/2019/12/18/14/56/dawn-4704160_640.jpg",
        "src1280": "https://cdn.pixabay.com/photo/2019/12/18/14/56/dawn-4704160_1280.jpg"
    },
    {
        "id": "491477",
        "src640": "https://cdn.pixabay.com/photo/2014/10/16/17/47/taxi-491477_640.jpg",
        "src1280": "https://cdn.pixabay.com/photo/2014/10/16/17/47/taxi-491477_1280.jpg"
    },
    {
        "id": "3331954",
        "src640": "https://cdn.pixabay.com/photo/2018/04/18/23/46/mecca-3331954_640.jpg",
        "src1280": "https://cdn.pixabay.com/photo/2018/04/18/23/46/mecca-3331954_1280.jpg"
    },
    {
        "id": "1110751",
        "src640": "https://cdn.pixabay.com/photo/2015/12/28/00/32/chicago-1110751_640.jpg",
        "src1280": "https://cdn.pixabay.com/photo/2015/12/28/00/32/chicago-1110751_1280.jpg"
    },
    {
        "id": "163945",
        "src640": "https://cdn.pixabay.com/photo/2013/07/18/14/52/dog-163945_640.jpg",
        "src1280": "https://cdn.pixabay.com/photo/2013/07/18/14/52/dog-163945_1280.jpg"
    },
    {
        "id": "4282589",
        "src640": "https://cdn.pixabay.com/photo/2019/06/18/15/28/trevi-fountain-4282589_640.jpg",
        "src1280": "https://cdn.pixabay.com/photo/2019/06/18/15/28/trevi-fountain-4282589_1280.jpg"
    },
    {
        "id": "8128938",
        "src640": "https://cdn.pixabay.com/photo/2023/07/15/13/54/city-8128938_640.jpg",
        "src1280": "https://cdn.pixabay.com/photo/2023/07/15/13/54/city-8128938_1280.jpg"
    },
    {
        "id": "2264390",
        "src640": "https://cdn.pixabay.com/photo/2017/04/27/04/11/street-2264390_640.jpg",
        "src1280": "https://cdn.pixabay.com/photo/2017/04/27/04/11/street-2264390_1280.jpg"
    },
    {
        "id": "8028736",
        "src640": "https://cdn.pixabay.com/photo/2023/05/30/14/18/couple-8028736_640.jpg",
        "src1280": "https://cdn.pixabay.com/photo/2023/05/30/14/18/couple-8028736_1280.jpg"
    },
    {
        "id": "6072867",
        "src640": "https://cdn.pixabay.com/photo/2021/03/06/05/42/city-6072867_640.jpg",
        "src1280": "https://cdn.pixabay.com/photo/2021/03/06/05/42/city-6072867_1280.jpg"
    },
    {
        "id": "7802169",
        "src640": "https://cdn.pixabay.com/photo/2023/02/20/12/57/architecture-7802169_640.jpg",
        "src1280": "https://cdn.pixabay.com/photo/2023/02/20/12/57/architecture-7802169_1280.jpg"
    },
    {
        "id": "3842248",
        "src640": "https://cdn.pixabay.com/photo/2018/11/27/19/59/city-3842248_640.jpg",
        "src1280": "https://cdn.pixabay.com/photo/2018/11/27/19/59/city-3842248_1280.jpg"
    },
    {
        "id": "4785618",
        "src640": "https://cdn.pixabay.com/photo/2020/01/22/15/52/urban-4785618_640.jpg",
        "src1280": "https://cdn.pixabay.com/photo/2020/01/22/15/52/urban-4785618_1280.jpg"
    },
    {
        "id": "3810620",
        "src640": "https://cdn.pixabay.com/photo/2018/11/12/10/59/tower-3810620_640.jpg",
        "src1280": "https://cdn.pixabay.com/photo/2018/11/12/10/59/tower-3810620_1280.jpg"
    },
    {
        "id": "7858750",
        "src640": "https://cdn.pixabay.com/photo/2023/03/17/14/36/people-7858750_640.jpg",
        "src1280": "https://cdn.pixabay.com/photo/2023/03/17/14/36/people-7858750_1280.jpg"
    },
    {
        "id": "1327283",
        "src640": "https://cdn.pixabay.com/photo/2016/04/13/17/09/verny-park-1327283_640.jpg",
        "src1280": "https://cdn.pixabay.com/photo/2016/04/13/17/09/verny-park-1327283_1280.jpg"
    },
    {
        "id": "4462593",
        "src640": "https://cdn.pixabay.com/photo/2019/09/09/04/26/beijing-4462593_640.jpg",
        "src1280": "https://cdn.pixabay.com/photo/2019/09/09/04/26/beijing-4462593_1280.jpg"
    },
    {
        "id": "742656",
        "src640": "https://cdn.pixabay.com/photo/2015/04/27/21/19/city-742656_640.jpg",
        "src1280": "https://cdn.pixabay.com/photo/2015/04/27/21/19/city-742656_1280.jpg"
    },
    {
        "id": "8276888",
        "src640": "https://cdn.pixabay.com/photo/2023/09/26/08/50/woman-8276888_640.jpg",
        "src1280": "https://cdn.pixabay.com/photo/2023/09/26/08/50/woman-8276888_1280.jpg"
    },
    {
        "id": "1749723",
        "src640": "https://cdn.pixabay.com/photo/2016/10/18/09/47/berlin-1749723_640.jpg",
        "src1280": "https://cdn.pixabay.com/photo/2016/10/18/09/47/berlin-1749723_1280.jpg"
    },
    {
        "id": "1314363",
        "src640": "https://cdn.pixabay.com/photo/2016/04/07/18/15/italy-1314363_640.jpg",
        "src1280": "https://cdn.pixabay.com/photo/2016/04/07/18/15/italy-1314363_1280.jpg"
    },
    {
        "id": "8087590",
        "src640": "https://cdn.pixabay.com/photo/2023/06/25/15/04/ai-generated-8087590_640.jpg",
        "src1280": "https://cdn.pixabay.com/photo/2023/06/25/15/04/ai-generated-8087590_1280.jpg"
    },
    {
        "id": "1421944",
        "src640": "https://cdn.pixabay.com/photo/2016/05/28/18/47/netherlands-1421944_640.jpg",
        "src1280": "https://cdn.pixabay.com/photo/2016/05/28/18/47/netherlands-1421944_1280.jpg"
    },
    {
        "id": "3421912",
        "src640": "https://cdn.pixabay.com/photo/2018/05/22/17/14/warsaw-3421912_640.jpg",
        "src1280": "https://cdn.pixabay.com/photo/2018/05/22/17/14/warsaw-3421912_1280.jpg"
    },
    {
        "id": "6234684",
        "src640": "https://cdn.pixabay.com/photo/2021/05/06/23/03/city-6234684_640.jpg",
        "src1280": "https://cdn.pixabay.com/photo/2021/05/06/23/03/city-6234684_1280.jpg"
    },
    {
        "id": "707332",
        "src640": "https://cdn.pixabay.com/photo/2015/04/05/04/03/manhattan-707332_640.jpg",
        "src1280": "https://cdn.pixabay.com/photo/2015/04/05/04/03/manhattan-707332_1280.jpg"
    },
    {
        "id": "7185819",
        "src640": "https://cdn.pixabay.com/photo/2022/05/10/02/17/sunset-7185819_640.jpg",
        "src1280": "https://cdn.pixabay.com/photo/2022/05/10/02/17/sunset-7185819_1280.jpg"
    },
    {
        "id": "5840977",
        "src640": "https://cdn.pixabay.com/photo/2020/12/18/02/25/fifth-avenue-5840977_640.jpg",
        "src1280": "https://cdn.pixabay.com/photo/2020/12/18/02/25/fifth-avenue-5840977_1280.jpg"
    },
    {
        "id": "8122331",
        "src640": "https://cdn.pixabay.com/photo/2023/07/12/11/27/hacker-8122331_640.jpg",
        "src1280": "https://cdn.pixabay.com/photo/2023/07/12/11/27/hacker-8122331_1280.jpg"
    },
    {
        "id": "5950909",
        "src640": "https://cdn.pixabay.com/photo/2021/01/26/09/34/view-5950909_640.jpg",
        "src1280": "https://cdn.pixabay.com/photo/2021/01/26/09/34/view-5950909_1280.jpg"
    },
    {
        "id": "4931583",
        "src640": "https://cdn.pixabay.com/photo/2020/03/14/19/37/street-4931583_640.jpg",
        "src1280": "https://cdn.pixabay.com/photo/2020/03/14/19/37/street-4931583_1280.jpg"
    },
    {
        "id": "8416689",
        "src640": "https://cdn.pixabay.com/photo/2023/11/28/04/59/man-8416689_640.jpg",
        "src1280": "https://cdn.pixabay.com/photo/2023/11/28/04/59/man-8416689_1280.jpg"
    },
    {
        "id": "2058394",
        "src640": "https://cdn.pixabay.com/photo/2017/02/11/19/01/facade-2058394_640.jpg",
        "src1280": "https://cdn.pixabay.com/photo/2017/02/11/19/01/facade-2058394_1280.jpg"
    },
    {
        "id": "2257848",
        "src640": "https://cdn.pixabay.com/photo/2017/04/24/20/57/calle-toledo-2257848_640.jpg",
        "src1280": "https://cdn.pixabay.com/photo/2017/04/24/20/57/calle-toledo-2257848_1280.jpg"
    },
    {
        "id": "7623750",
        "src640": "https://cdn.pixabay.com/photo/2022/11/29/05/18/cyberpunk-7623750_640.jpg",
        "src1280": "https://cdn.pixabay.com/photo/2022/11/29/05/18/cyberpunk-7623750_1280.jpg"
    },
    {
        "id": "2050381",
        "src640": "https://cdn.pixabay.com/photo/2017/02/08/22/39/san-sebastian-2050381_640.jpg",
        "src1280": "https://cdn.pixabay.com/photo/2017/02/08/22/39/san-sebastian-2050381_1280.jpg"
    },
    {
        "id": "6735146",
        "src640": "https://cdn.pixabay.com/photo/2021/10/23/14/56/city-6735146_640.jpg",
        "src1280": "https://cdn.pixabay.com/photo/2021/10/23/14/56/city-6735146_1280.jpg"
    },
    {
        "id": "1327286",
        "src640": "https://cdn.pixabay.com/photo/2016/04/13/17/10/verny-park-1327286_640.jpg",
        "src1280": "https://cdn.pixabay.com/photo/2016/04/13/17/10/verny-park-1327286_1280.jpg"
    },
    {
        "id": "3393191",
        "src640": "https://cdn.pixabay.com/photo/2018/05/12/12/33/building-3393191_640.jpg",
        "src1280": "https://cdn.pixabay.com/photo/2018/05/12/12/33/building-3393191_1280.jpg"
    },
    {
        "id": "140784",
        "src640": "https://cdn.pixabay.com/photo/2013/06/23/15/54/louisiana-140784_640.jpg",
        "src1280": "https://cdn.pixabay.com/photo/2013/06/23/15/54/louisiana-140784_1280.jpg"
    },
    {
        "id": "872862",
        "src640": "https://cdn.pixabay.com/photo/2015/08/03/03/05/toronto-872862_640.jpg",
        "src1280": "https://cdn.pixabay.com/photo/2015/08/03/03/05/toronto-872862_1280.jpg"
    },
    {
        "id": "4579322",
        "src640": "https://cdn.pixabay.com/photo/2019/10/26/12/18/uzbekistan-4579322_640.jpg",
        "src1280": "https://cdn.pixabay.com/photo/2019/10/26/12/18/uzbekistan-4579322_1280.jpg"
    },
    {
        "id": "461680",
        "src640": "https://cdn.pixabay.com/photo/2014/09/26/05/18/stockholm-461680_640.jpg",
        "src1280": "https://cdn.pixabay.com/photo/2014/09/26/05/18/stockholm-461680_1280.jpg"
    },
    {
        "id": "5170333",
        "src640": "https://cdn.pixabay.com/photo/2020/05/14/16/06/leeds-5170333_640.jpg",
        "src1280": "https://cdn.pixabay.com/photo/2020/05/14/16/06/leeds-5170333_1280.jpg"
    },
    {
        "id": "7542319",
        "src640": "https://cdn.pixabay.com/photo/2022/10/23/23/59/village-7542319_640.jpg",
        "src1280": "https://cdn.pixabay.com/photo/2022/10/23/23/59/village-7542319_1280.jpg"
    },
    {
        "id": "671583",
        "src640": "https://cdn.pixabay.com/photo/2015/03/13/11/45/graffiti-671583_640.jpg",
        "src1280": "https://cdn.pixabay.com/photo/2015/03/13/11/45/graffiti-671583_1280.jpg"
    },
    {
        "id": "6601712",
        "src640": "https://cdn.pixabay.com/photo/2021/09/06/13/25/venice-6601712_640.jpg",
        "src1280": "https://cdn.pixabay.com/photo/2021/09/06/13/25/venice-6601712_1280.jpg"
    },
    {
        "id": "76306",
        "src640": "https://cdn.pixabay.com/photo/2013/01/27/00/41/wood-76306_640.jpg",
        "src1280": "https://cdn.pixabay.com/photo/2013/01/27/00/41/wood-76306_1280.jpg"
    },
    {
        "id": "2528849",
        "src640": "https://cdn.pixabay.com/photo/2017/07/22/14/57/budapest-2528849_640.jpg",
        "src1280": "https://cdn.pixabay.com/photo/2017/07/22/14/57/budapest-2528849_1280.jpg"
    },
    {
        "id": "6231878",
        "src640": "https://cdn.pixabay.com/photo/2021/05/05/20/15/phone-booth-6231878_640.jpg",
        "src1280": "https://cdn.pixabay.com/photo/2021/05/05/20/15/phone-booth-6231878_1280.jpg"
    },
    {
        "id": "7993607",
        "src640": "https://cdn.pixabay.com/photo/2023/05/14/19/04/ai-generated-7993607_640.jpg",
        "src1280": "https://cdn.pixabay.com/photo/2023/05/14/19/04/ai-generated-7993607_1280.jpg"
    },
    {
        "id": "7179286",
        "src640": "https://cdn.pixabay.com/photo/2022/05/07/01/31/city-7179286_640.jpg",
        "src1280": "https://cdn.pixabay.com/photo/2022/05/07/01/31/city-7179286_1280.jpg"
    },
    {
        "id": "3838109",
        "src640": "https://cdn.pixabay.com/photo/2018/11/25/19/07/boston-3838109_640.jpg",
        "src1280": "https://cdn.pixabay.com/photo/2018/11/25/19/07/boston-3838109_1280.jpg"
    },
    {
        "id": "4444564",
        "src640": "https://cdn.pixabay.com/photo/2019/09/01/08/16/lane-4444564_640.jpg",
        "src1280": "https://cdn.pixabay.com/photo/2019/09/01/08/16/lane-4444564_1280.jpg"
    },
    {
        "id": "4580205",
        "src640": "https://cdn.pixabay.com/photo/2019/10/26/19/57/seoul-4580205_640.jpg",
        "src1280": "https://cdn.pixabay.com/photo/2019/10/26/19/57/seoul-4580205_1280.jpg"
    },
    {
        "id": "8122329",
        "src640": "https://cdn.pixabay.com/photo/2023/07/12/11/27/ai-generated-8122329_640.jpg",
        "src1280": "https://cdn.pixabay.com/photo/2023/07/12/11/27/ai-generated-8122329_1280.jpg"
    },
    {
        "id": "7638046",
        "src640": "https://cdn.pixabay.com/photo/2022/12/06/01/51/ai-generated-7638046_640.jpg",
        "src1280": "https://cdn.pixabay.com/photo/2022/12/06/01/51/ai-generated-7638046_1280.jpg"
    },
    {
        "id": "1295714",
        "src640": "https://cdn.pixabay.com/photo/2016/03/31/20/22/bell-tower-1295714_640.jpg",
        "src1280": "https://cdn.pixabay.com/photo/2016/03/31/20/22/bell-tower-1295714_1280.jpg"
    },
    {
        "id": "2854553",
        "src640": "https://cdn.pixabay.com/photo/2017/10/15/17/26/venice-2854553_640.jpg",
        "src1280": "https://cdn.pixabay.com/photo/2017/10/15/17/26/venice-2854553_1280.jpg"
    },
    {
        "id": "650345",
        "src640": "https://cdn.pixabay.com/photo/2015/02/26/13/54/eiffel-tower-650345_640.jpg",
        "src1280": "https://cdn.pixabay.com/photo/2015/02/26/13/54/eiffel-tower-650345_1280.jpg"
    },
    {
        "id": "3917465",
        "src640": "https://cdn.pixabay.com/photo/2019/01/06/17/06/christmas-3917465_640.jpg",
        "src1280": "https://cdn.pixabay.com/photo/2019/01/06/17/06/christmas-3917465_1280.jpg"
    },
    {
        "id": "2198449",
        "src640": "https://cdn.pixabay.com/photo/2017/04/03/13/59/watercolor-2198449_640.jpg",
        "src1280": "https://cdn.pixabay.com/photo/2017/04/03/13/59/watercolor-2198449_1280.jpg"
    },
    {
        "id": "8265281",
        "src640": "https://cdn.pixabay.com/photo/2023/09/20/17/32/ai-generated-8265281_640.jpg",
        "src1280": "https://cdn.pixabay.com/photo/2023/09/20/17/32/ai-generated-8265281_1280.jpg"
    },
    {
        "id": "7379731",
        "src640": "https://cdn.pixabay.com/photo/2022/08/11/15/09/ao-dai-7379731_640.jpg",
        "src1280": "https://cdn.pixabay.com/photo/2022/08/11/15/09/ao-dai-7379731_1280.jpg"
    },
    {
        "id": "4203303",
        "src640": "https://cdn.pixabay.com/photo/2019/05/14/19/38/in-new-york-city-4203303_640.jpg",
        "src1280": "https://cdn.pixabay.com/photo/2019/05/14/19/38/in-new-york-city-4203303_1280.jpg"
    },
    {
        "id": "1763939",
        "src640": "https://cdn.pixabay.com/photo/2016/10/23/18/25/rhodes-1763939_640.jpg",
        "src1280": "https://cdn.pixabay.com/photo/2016/10/23/18/25/rhodes-1763939_1280.jpg"
    },
    {
        "id": "1484951",
        "src640": "https://cdn.pixabay.com/photo/2016/06/28/16/38/hydrangea-1484951_640.jpg",
        "src1280": "https://cdn.pixabay.com/photo/2016/06/28/16/38/hydrangea-1484951_1280.jpg"
    },
    {
        "id": "1148450",
        "src640": "https://cdn.pixabay.com/photo/2016/01/19/11/31/malta-1148450_640.jpg",
        "src1280": "https://cdn.pixabay.com/photo/2016/01/19/11/31/malta-1148450_1280.jpg"
    },
    {
        "id": "6821697",
        "src640": "https://cdn.pixabay.com/photo/2021/11/24/16/52/city-6821697_640.jpg",
        "src1280": "https://cdn.pixabay.com/photo/2021/11/24/16/52/city-6821697_1280.jpg"
    },
    {
        "id": "610538",
        "src640": "https://cdn.pixabay.com/photo/2015/01/24/20/34/chair-610538_640.jpg",
        "src1280": "https://cdn.pixabay.com/photo/2015/01/24/20/34/chair-610538_1280.jpg"
    },
    {
        "id": "3855250",
        "src640": "https://cdn.pixabay.com/photo/2018/12/04/10/08/florence-3855250_640.jpg",
        "src1280": "https://cdn.pixabay.com/photo/2018/12/04/10/08/florence-3855250_1280.jpg"
    },
    {
        "id": "324286",
        "src640": "https://cdn.pixabay.com/photo/2014/04/14/21/19/chicago-324286_640.jpg",
        "src1280": "https://cdn.pixabay.com/photo/2014/04/14/21/19/chicago-324286_1280.jpg"
    },
    {
        "id": "4096974",
        "src640": "https://cdn.pixabay.com/photo/2019/04/02/06/47/madrid-4096974_640.jpg",
        "src1280": "https://cdn.pixabay.com/photo/2019/04/02/06/47/madrid-4096974_1280.jpg"
    },
    {
        "id": "6277538",
        "src640": "https://cdn.pixabay.com/photo/2021/05/24/00/56/landscape-6277538_640.jpg",
        "src1280": "https://cdn.pixabay.com/photo/2021/05/24/00/56/landscape-6277538_1280.jpg"
    },
    {
        "id": "7602649",
        "src640": "https://cdn.pixabay.com/photo/2022/11/19/17/22/city-7602649_640.jpg",
        "src1280": "https://cdn.pixabay.com/photo/2022/11/19/17/22/city-7602649_1280.jpg"
    },
    {
        "id": "6676635",
        "src640": "https://cdn.pixabay.com/photo/2021/10/03/01/28/adult-6676635_640.jpg",
        "src1280": "https://cdn.pixabay.com/photo/2021/10/03/01/28/adult-6676635_1280.jpg"
    },
    {
        "id": "7927948",
        "src640": "https://cdn.pixabay.com/photo/2023/04/15/15/34/highway-7927948_640.jpg",
        "src1280": "https://cdn.pixabay.com/photo/2023/04/15/15/34/highway-7927948_1280.jpg"
    },
    {
        "id": "1744467",
        "src640": "https://cdn.pixabay.com/photo/2016/10/16/05/07/photography-1744467_640.jpg",
        "src1280": "https://cdn.pixabay.com/photo/2016/10/16/05/07/photography-1744467_1280.jpg"
    },
    {
        "id": "8173175",
        "src640": "https://cdn.pixabay.com/photo/2023/08/06/15/25/church-8173175_640.jpg",
        "src1280": "https://cdn.pixabay.com/photo/2023/08/06/15/25/church-8173175_1280.jpg"
    },
    {
        "id": "5723600",
        "src640": "https://cdn.pixabay.com/photo/2020/11/08/12/34/warsaw-5723600_640.jpg",
        "src1280": "https://cdn.pixabay.com/photo/2020/11/08/12/34/warsaw-5723600_1280.jpg"
    }
]