[
    {
        "id": "7720435",
        "src640": "https://cdn.pixabay.com/photo/2023/01/15/15/47/ki-generated-7720435_640.jpg",
        "src1280": "https://cdn.pixabay.com/photo/2023/01/15/15/47/ki-generated-7720435_1280.jpg"
    },
    {
        "id": "3607367",
        "src640": "https://cdn.pixabay.com/photo/2018/08/15/06/14/los-angeles-3607367_640.jpg",
        "src1280": "https://cdn.pixabay.com/photo/2018/08/15/06/14/los-angeles-3607367_1280.jpg"
    },
    {
        "id": "8077983",
        "src640": "https://cdn.pixabay.com/photo/2023/06/20/20/44/city-8077983_640.jpg",
        "src1280": "https://cdn.pixabay.com/photo/2023/06/20/20/44/city-8077983_1280.jpg"
    },
    {
        "id": "3964948",
        "src640": "https://cdn.pixabay.com/photo/2019/01/30/17/22/bruges-3964948_640.jpg",
        "src1280": "https://cdn.pixabay.com/photo/2019/01/30/17/22/bruges-3964948_1280.jpg"
    },
    {
        "id": "4275212",
        "src640": "https://cdn.pixabay.com/photo/2019/06/15/10/26/amsterdam-4275212_640.jpg",
        "src1280": "https://cdn.pixabay.com/photo/2019/06/15/10/26/amsterdam-4275212_1280.jpg"
    },
    {
        "id": "7976351",
        "src640": "https://cdn.pixabay.com/photo/2023/05/07/12/46/ai-generated-7976351_640.jpg",
        "src1280": "https://cdn.pixabay.com/photo/2023/05/07/12/46/ai-generated-7976351_1280.jpg"
    },
    {
        "id": "1230696",
        "src640": "https://cdn.pixabay.com/photo/2016/03/01/16/50/country-1230696_640.jpg",
        "src1280": "https://cdn.pixabay.com/photo/2016/03/01/16/50/country-1230696_1280.jpg"
    },
    {
        "id": "7619517",
        "src640": "https://cdn.pixabay.com/photo/2022/11/27/11/24/night-view-7619517_640.jpg",
        "src1280": "https://cdn.pixabay.com/photo/2022/11/27/11/24/night-view-7619517_1280.jpg"
    },
    {
        "id": "4314883",
        "src640": "https://cdn.pixabay.com/photo/2019/07/03/16/01/times-square-4314883_640.jpg",
        "src1280": "https://cdn.pixabay.com/photo/2019/07/03/16/01/times-square-4314883_1280.jpg"
    },
    {
        "id": "6726692",
        "src640": "https://cdn.pixabay.com/photo/2021/10/20/17/15/woman-6726692_640.jpg",
        "src1280": "https://cdn.pixabay.com/photo/2021/10/20/17/15/woman-6726692_1280.jpg"
    },
    {
        "id": "6659129",
        "src640": "https://cdn.pixabay.com/photo/2021/09/27/00/50/city-6659129_640.jpg",
        "src1280": "https://cdn.pixabay.com/photo/2021/09/27/00/50/city-6659129_1280.jpg"
    },
    {
        "id": "2064488",
        "src640": "https://cdn.pixabay.com/photo/2017/02/14/02/37/java-man-2064488_640.jpg",
        "src1280": "https://cdn.pixabay.com/photo/2017/02/14/02/37/java-man-2064488_1280.jpg"
    },
    {
        "id": "7174958",
        "src640": "https://cdn.pixabay.com/photo/2022/05/04/23/32/hamburg-7174958_640.jpg",
        "src1280": "https://cdn.pixabay.com/photo/2022/05/04/23/32/hamburg-7174958_1280.jpg"
    },
    {
        "id": "6645577",
        "src640": "https://cdn.pixabay.com/photo/2021/09/22/04/30/construction-6645577_640.jpg",
        "src1280": "https://cdn.pixabay.com/photo/2021/09/22/04/30/construction-6645577_1280.jpg"
    },
    {
        "id": "6675724",
        "src640": "https://cdn.pixabay.com/photo/2021/10/02/15/39/buildings-6675724_640.jpg",
        "src1280": "https://cdn.pixabay.com/photo/2021/10/02/15/39/buildings-6675724_1280.jpg"
    },
    {
        "id": "3630204",
        "src640": "https://cdn.pixabay.com/photo/2018/08/25/14/23/light-3630204_640.jpg",
        "src1280": "https://cdn.pixabay.com/photo/2018/08/25/14/23/light-3630204_1280.jpg"
    },
    {
        "id": "6234411",
        "src640": "https://cdn.pixabay.com/photo/2021/05/06/19/28/canal-6234411_640.jpg",
        "src1280": "https://cdn.pixabay.com/photo/2021/05/06/19/28/canal-6234411_1280.jpg"
    },
    {
        "id": "6313293",
        "src640": "https://cdn.pixabay.com/photo/2021/06/05/17/20/people-6313293_640.jpg",
        "src1280": "https://cdn.pixabay.com/photo/2021/06/05/17/20/people-6313293_1280.jpg"
    },
    {
        "id": "7501390",
        "src640": "https://cdn.pixabay.com/photo/2022/10/05/19/51/sculpture-7501390_640.jpg",
        "src1280": "https://cdn.pixabay.com/photo/2022/10/05/19/51/sculpture-7501390_1280.jpg"
    },
    {
        "id": "8226284",
        "src640": "https://cdn.pixabay.com/photo/2023/09/01/05/45/girl-8226284_640.jpg",
        "src1280": "https://cdn.pixabay.com/photo/2023/09/01/05/45/girl-8226284_1280.jpg"
    },
    {
        "id": "1901857",
        "src640": "https://cdn.pixabay.com/photo/2016/12/12/15/57/st-petersburg-russia-1901857_640.jpg",
        "src1280": "https://cdn.pixabay.com/photo/2016/12/12/15/57/st-petersburg-russia-1901857_1280.jpg"
    },
    {
        "id": "2060298",
        "src640": "https://cdn.pixabay.com/photo/2017/02/12/15/37/statue-2060298_640.jpg",
        "src1280": "https://cdn.pixabay.com/photo/2017/02/12/15/37/statue-2060298_1280.jpg"
    },
    {
        "id": "4462711",
        "src640": "https://cdn.pixabay.com/photo/2019/09/09/06/11/bergamo-4462711_640.jpg",
        "src1280": "https://cdn.pixabay.com/photo/2019/09/09/06/11/bergamo-4462711_1280.jpg"
    },
    {
        "id": "4007169",
        "src640": "https://cdn.pixabay.com/photo/2019/02/19/16/44/architecture-4007169_640.jpg",
        "src1280": "https://cdn.pixabay.com/photo/2019/02/19/16/44/architecture-4007169_1280.jpg"
    },
    {
        "id": "7876211",
        "src640": "https://cdn.pixabay.com/photo/2023/03/25/15/26/ai-generated-7876211_640.jpg",
        "src1280": "https://cdn.pixabay.com/photo/2023/03/25/15/26/ai-generated-7876211_1280.jpg"
    },
    {
        "id": "3674738",
        "src640": "https://cdn.pixabay.com/photo/2018/09/13/13/19/france-3674738_640.jpg",
        "src1280": "https://cdn.pixabay.com/photo/2018/09/13/13/19/france-3674738_1280.jpg"
    },
    {
        "id": "4535525",
        "src640": "https://cdn.pixabay.com/photo/2019/10/08/17/01/bayer-gate-4535525_640.jpg",
        "src1280": "https://cdn.pixabay.com/photo/2019/10/08/17/01/bayer-gate-4535525_1280.jpg"
    },
    {
        "id": "3328287",
        "src640": "https://cdn.pixabay.com/photo/2018/04/17/18/19/old-door-3328287_640.jpg",
        "src1280": "https://cdn.pixabay.com/photo/2018/04/17/18/19/old-door-3328287_1280.jpg"
    },
    {
        "id": "3437292",
        "src640": "https://cdn.pixabay.com/photo/2018/05/28/22/04/church-towers-3437292_640.jpg",
        "src1280": "https://cdn.pixabay.com/photo/2018/05/28/22/04/church-towers-3437292_1280.jpg"
    },
    {
        "id": "661221",
        "src640": "https://cdn.pixabay.com/photo/2015/03/06/04/10/city-661221_640.jpg",
        "src1280": "https://cdn.pixabay.com/photo/2015/03/06/04/10/city-661221_1280.jpg"
    },
    {
        "id": "6033628",
        "src640": "https://cdn.pixabay.com/photo/2021/02/20/14/47/china-6033628_640.jpg",
        "src1280": "https://cdn.pixabay.com/photo/2021/02/20/14/47/china-6033628_1280.jpg"
    },
    {
        "id": "554791",
        "src640": "https://cdn.pixabay.com/photo/2014/12/03/00/02/chrysler-building-554791_640.jpg",
        "src1280": "https://cdn.pixabay.com/photo/2014/12/03/00/02/chrysler-building-554791_1280.jpg"
    },
    {
        "id": "3520214",
        "src640": "https://cdn.pixabay.com/photo/2018/07/06/11/40/swallowtail-in-town-3520214_640.jpg",
        "src1280": "https://cdn.pixabay.com/photo/2018/07/06/11/40/swallowtail-in-town-3520214_1280.jpg"
    },
    {
        "id": "652420",
        "src640": "https://cdn.pixabay.com/photo/2015/02/27/17/10/klcc-652420_640.jpg",
        "src1280": "https://cdn.pixabay.com/photo/2015/02/27/17/10/klcc-652420_1280.jpg"
    },
    {
        "id": "6650582",
        "src640": "https://cdn.pixabay.com/photo/2021/09/23/18/23/old-man-6650582_640.jpg",
        "src1280": "https://cdn.pixabay.com/photo/2021/09/23/18/23/old-man-6650582_1280.jpg"
    },
    {
        "id": "1188241",
        "src640": "https://cdn.pixabay.com/photo/2016/02/09/03/48/chairs-1188241_640.jpg",
        "src1280": "https://cdn.pixabay.com/photo/2016/02/09/03/48/chairs-1188241_1280.jpg"
    },
    {
        "id": "935220",
        "src640": "https://cdn.pixabay.com/photo/2015/09/11/02/32/cartagena-935220_640.jpg",
        "src1280": "https://cdn.pixabay.com/photo/2015/09/11/02/32/cartagena-935220_1280.jpg"
    },
    {
        "id": "7898885",
        "src640": "https://cdn.pixabay.com/photo/2023/04/04/09/44/building-7898885_640.jpg",
        "src1280": "https://cdn.pixabay.com/photo/2023/04/04/09/44/building-7898885_1280.jpg"
    },
    {
        "id": "2392383",
        "src640": "https://cdn.pixabay.com/photo/2017/06/11/13/15/brick-lane-2392383_640.jpg",
        "src1280": "https://cdn.pixabay.com/photo/2017/06/11/13/15/brick-lane-2392383_1280.jpg"
    },
    {
        "id": "8117999",
        "src640": "https://cdn.pixabay.com/photo/2023/07/10/10/40/city-8117999_640.jpg",
        "src1280": "https://cdn.pixabay.com/photo/2023/07/10/10/40/city-8117999_1280.jpg"
    },
    {
        "id": "4513372",
        "src640": "https://cdn.pixabay.com/photo/2019/09/29/13/53/architecture-4513372_640.jpg",
        "src1280": "https://cdn.pixabay.com/photo/2019/09/29/13/53/architecture-4513372_1280.jpg"
    },
    {
        "id": "7776168",
        "src640": "https://cdn.pixabay.com/photo/2023/02/08/09/36/window-7776168_640.jpg",
        "src1280": "https://cdn.pixabay.com/photo/2023/02/08/09/36/window-7776168_1280.jpg"
    },
    {
        "id": "3313523",
        "src640": "https://cdn.pixabay.com/photo/2018/04/12/14/18/republic-of-korea-3313523_640.jpg",
        "src1280": "https://cdn.pixabay.com/photo/2018/04/12/14/18/republic-of-korea-3313523_1280.jpg"
    },
    {
        "id": "8022213",
        "src640": "https://cdn.pixabay.com/photo/2023/05/27/19/26/ai-generated-8022213_640.jpg",
        "src1280": "https://cdn.pixabay.com/photo/2023/05/27/19/26/ai-generated-8022213_1280.jpg"
    },
    {
        "id": "1851687",
        "src640": "https://cdn.pixabay.com/photo/2016/11/23/01/31/city-1851687_640.jpg",
        "src1280": "https://cdn.pixabay.com/photo/2016/11/23/01/31/city-1851687_1280.jpg"
    },
    {
        "id": "2835443",
        "src640": "https://cdn.pixabay.com/photo/2017/10/10/00/05/germiyan-street-2835443_640.jpg",
        "src1280": "https://cdn.pixabay.com/photo/2017/10/10/00/05/germiyan-street-2835443_1280.jpg"
    },
    {
        "id": "8273460",
        "src640": "https://cdn.pixabay.com/photo/2023/09/24/17/25/road-8273460_640.jpg",
        "src1280": "https://cdn.pixabay.com/photo/2023/09/24/17/25/road-8273460_1280.jpg"
    },
    {
        "id": "4988618",
        "src640": "https://cdn.pixabay.com/photo/2020/03/31/17/13/building-4988618_640.jpg",
        "src1280": "https://cdn.pixabay.com/photo/2020/03/31/17/13/building-4988618_1280.jpg"
    },
    {
        "id": "1273077",
        "src640": "https://cdn.pixabay.com/photo/2016/03/22/15/18/hongkong-1273077_640.jpg",
        "src1280": "https://cdn.pixabay.com/photo/2016/03/22/15/18/hongkong-1273077_1280.jpg"
    },
    {
        "id": "874084",
        "src640": "https://cdn.pixabay.com/photo/2015/08/03/23/03/shard-874084_640.jpg",
        "src1280": "https://cdn.pixabay.com/photo/2015/08/03/23/03/shard-874084_1280.jpg"
    },
    {
        "id": "2847588",
        "src640": "https://cdn.pixabay.com/photo/2017/10/13/13/00/number-2847588_640.jpg",
        "src1280": "https://cdn.pixabay.com/photo/2017/10/13/13/00/number-2847588_1280.jpg"
    },
    {
        "id": "8077928",
        "src640": "https://cdn.pixabay.com/photo/2023/06/20/20/26/city-8077928_640.jpg",
        "src1280": "https://cdn.pixabay.com/photo/2023/06/20/20/26/city-8077928_1280.jpg"
    },
    {
        "id": "934502",
        "src640": "https://cdn.pixabay.com/photo/2015/09/10/14/35/statue-934502_640.jpg",
        "src1280": "https://cdn.pixabay.com/photo/2015/09/10/14/35/statue-934502_1280.jpg"
    },
    {
        "id": "679393",
        "src640": "https://cdn.pixabay.com/photo/2015/03/18/14/45/abu-dhabi-679393_640.jpg",
        "src1280": "https://cdn.pixabay.com/photo/2015/03/18/14/45/abu-dhabi-679393_1280.jpg"
    },
    {
        "id": "279841",
        "src640": "https://cdn.pixabay.com/photo/2014/03/05/01/16/opera-279841_640.jpg",
        "src1280": "https://cdn.pixabay.com/photo/2014/03/05/01/16/opera-279841_1280.jpg"
    },
    {
        "id": "671583",
        "src640": "https://cdn.pixabay.com/photo/2015/03/13/11/45/graffiti-671583_640.jpg",
        "src1280": "https://cdn.pixabay.com/photo/2015/03/13/11/45/graffiti-671583_1280.jpg"
    },
    {
        "id": "3565329",
        "src640": "https://cdn.pixabay.com/photo/2018/07/27/07/04/zadar-3565329_640.jpg",
        "src1280": "https://cdn.pixabay.com/photo/2018/07/27/07/04/zadar-3565329_1280.jpg"
    },
    {
        "id": "7719515",
        "src640": "https://cdn.pixabay.com/photo/2023/01/15/05/51/alley-7719515_640.jpg",
        "src1280": "https://cdn.pixabay.com/photo/2023/01/15/05/51/alley-7719515_1280.jpg"
    },
    {
        "id": "7350516",
        "src640": "https://cdn.pixabay.com/photo/2022/07/28/19/02/street-7350516_640.jpg",
        "src1280": "https://cdn.pixabay.com/photo/2022/07/28/19/02/street-7350516_1280.jpg"
    },
    {
        "id": "4858133",
        "src640": "https://cdn.pixabay.com/photo/2020/02/17/23/50/city-4858133_640.jpg",
        "src1280": "https://cdn.pixabay.com/photo/2020/02/17/23/50/city-4858133_1280.jpg"
    },
    {
        "id": "4448621",
        "src640": "https://cdn.pixabay.com/photo/2019/09/03/04/53/teens-4448621_640.jpg",
        "src1280": "https://cdn.pixabay.com/photo/2019/09/03/04/53/teens-4448621_1280.jpg"
    },
    {
        "id": "7986028",
        "src640": "https://cdn.pixabay.com/photo/2023/05/11/10/33/ai-generated-7986028_640.jpg",
        "src1280": "https://cdn.pixabay.com/photo/2023/05/11/10/33/ai-generated-7986028_1280.jpg"
    },
    {
        "id": "198649",
        "src640": "https://cdn.pixabay.com/photo/2013/10/20/21/56/khiva-198649_640.jpg",
        "src1280": "https://cdn.pixabay.com/photo/2013/10/20/21/56/khiva-198649_1280.jpg"
    },
    {
        "id": "7369908",
        "src640": "https://cdn.pixabay.com/photo/2022/08/07/06/13/road-7369908_640.jpg",
        "src1280": "https://cdn.pixabay.com/photo/2022/08/07/06/13/road-7369908_1280.jpg"
    },
    {
        "id": "6725359",
        "src640": "https://cdn.pixabay.com/photo/2021/10/20/07/59/travel-6725359_640.jpg",
        "src1280": "https://cdn.pixabay.com/photo/2021/10/20/07/59/travel-6725359_1280.jpg"
    },
    {
        "id": "2009871",
        "src640": "https://cdn.pixabay.com/photo/2017/01/26/05/37/travel-2009871_640.jpg",
        "src1280": "https://cdn.pixabay.com/photo/2017/01/26/05/37/travel-2009871_1280.jpg"
    },
    {
        "id": "8340374",
        "src640": "https://cdn.pixabay.com/photo/2023/10/25/13/22/fujairah-8340374_640.jpg",
        "src1280": "https://cdn.pixabay.com/photo/2023/10/25/13/22/fujairah-8340374_1280.jpg"
    },
    {
        "id": "952628",
        "src640": "https://cdn.pixabay.com/photo/2015/09/22/23/01/animals-952628_640.jpg",
        "src1280": "https://cdn.pixabay.com/photo/2015/09/22/23/01/animals-952628_1280.jpg"
    },
    {
        "id": "2125800",
        "src640": "https://cdn.pixabay.com/photo/2017/03/08/02/43/cuba-2125800_640.jpg",
        "src1280": "https://cdn.pixabay.com/photo/2017/03/08/02/43/cuba-2125800_1280.jpg"
    },
    {
        "id": "6287928",
        "src640": "https://cdn.pixabay.com/photo/2021/05/27/12/03/woman-6287928_640.jpg",
        "src1280": "https://cdn.pixabay.com/photo/2021/05/27/12/03/woman-6287928_1280.jpg"
    },
    {
        "id": "7552765",
        "src640": "https://cdn.pixabay.com/photo/2022/10/28/09/28/stairs-7552765_640.jpg",
        "src1280": "https://cdn.pixabay.com/photo/2022/10/28/09/28/stairs-7552765_1280.jpg"
    },
    {
        "id": "8051520",
        "src640": "https://cdn.pixabay.com/photo/2023/06/09/11/47/city-8051520_640.jpg",
        "src1280": "https://cdn.pixabay.com/photo/2023/06/09/11/47/city-8051520_1280.jpg"
    },
    {
        "id": "8090878",
        "src640": "https://cdn.pixabay.com/photo/2023/06/26/21/38/buildings-8090878_640.jpg",
        "src1280": "https://cdn.pixabay.com/photo/2023/06/26/21/38/buildings-8090878_1280.jpg"
    },
    {
        "id": "75960",
        "src640": "https://cdn.pixabay.com/photo/2013/01/24/05/51/city-75960_640.jpg",
        "src1280": "https://cdn.pixabay.com/photo/2013/01/24/05/51/city-75960_1280.jpg"
    },
    {
        "id": "1780612",
        "src640": "https://cdn.pixabay.com/photo/2016/10/29/13/22/gyeongbok-palace-1780612_640.jpg",
        "src1280": "https://cdn.pixabay.com/photo/2016/10/29/13/22/gyeongbok-palace-1780612_1280.jpg"
    },
    {
        "id": "1746259",
        "src640": "https://cdn.pixabay.com/photo/2016/10/16/21/10/red-1746259_640.jpg",
        "src1280": "https://cdn.pixabay.com/photo/2016/10/16/21/10/red-1746259_1280.jpg"
    },
    {
        "id": "8146828",
        "src640": "https://cdn.pixabay.com/photo/2023/07/24/10/40/road-8146828_640.jpg",
        "src1280": "https://cdn.pixabay.com/photo/2023/07/24/10/40/road-8146828_1280.jpg"
    },
    {
        "id": "3502909",
        "src640": "https://cdn.pixabay.com/photo/2018/06/28/00/03/colombia-3502909_640.jpg",
        "src1280": "https://cdn.pixabay.com/photo/2018/06/28/00/03/colombia-3502909_1280.jpg"
    },
    {
        "id": "3234930",
        "src640": "https://cdn.pixabay.com/photo/2018/03/17/19/36/architecture-3234930_640.jpg",
        "src1280": "https://cdn.pixabay.com/photo/2018/03/17/19/36/architecture-3234930_1280.jpg"
    },
    {
        "id": "2977053",
        "src640": "https://cdn.pixabay.com/photo/2017/11/25/15/34/defensive-tower-2977053_640.jpg",
        "src1280": "https://cdn.pixabay.com/photo/2017/11/25/15/34/defensive-tower-2977053_1280.jpg"
    },
    {
        "id": "3393295",
        "src640": "https://cdn.pixabay.com/photo/2018/05/12/13/17/ferris-wheel-3393295_640.jpg",
        "src1280": "https://cdn.pixabay.com/photo/2018/05/12/13/17/ferris-wheel-3393295_1280.jpg"
    },
    {
        "id": "6756221",
        "src640": "https://cdn.pixabay.com/photo/2021/10/31/06/10/houses-6756221_640.jpg",
        "src1280": "https://cdn.pixabay.com/photo/2021/10/31/06/10/houses-6756221_1280.jpg"
    },
    {
        "id": "7635838",
        "src640": "https://cdn.pixabay.com/photo/2022/12/05/03/49/village-7635838_640.jpg",
        "src1280": "https://cdn.pixabay.com/photo/2022/12/05/03/49/village-7635838_1280.jpg"
    },
    {
        "id": "1761642",
        "src640": "https://cdn.pixabay.com/photo/2016/10/22/20/52/margaret-island-1761642_640.jpg",
        "src1280": "https://cdn.pixabay.com/photo/2016/10/22/20/52/margaret-island-1761642_1280.jpg"
    },
    {
        "id": "8413377",
        "src640": "https://cdn.pixabay.com/photo/2023/11/26/11/21/city-8413377_640.jpg",
        "src1280": "https://cdn.pixabay.com/photo/2023/11/26/11/21/city-8413377_1280.jpg"
    },
    {
        "id": "426919",
        "src640": "https://cdn.pixabay.com/photo/2014/08/25/07/38/gateway-arch-426919_640.jpg",
        "src1280": "https://cdn.pixabay.com/photo/2014/08/25/07/38/gateway-arch-426919_1280.jpg"
    },
    {
        "id": "1629561",
        "src640": "https://cdn.pixabay.com/photo/2016/08/30/00/06/barcelona-1629561_640.jpg",
        "src1280": "https://cdn.pixabay.com/photo/2016/08/30/00/06/barcelona-1629561_1280.jpg"
    },
    {
        "id": "6629832",
        "src640": "https://cdn.pixabay.com/photo/2021/09/16/11/09/woman-6629832_640.jpg",
        "src1280": "https://cdn.pixabay.com/photo/2021/09/16/11/09/woman-6629832_1280.jpg"
    },
    {
        "id": "6244672",
        "src640": "https://cdn.pixabay.com/photo/2021/05/11/01/11/libros-6244672_640.jpg",
        "src1280": "https://cdn.pixabay.com/photo/2021/05/11/01/11/libros-6244672_1280.jpg"
    },
    {
        "id": "7643930",
        "src640": "https://cdn.pixabay.com/photo/2022/12/08/19/01/village-7643930_640.jpg",
        "src1280": "https://cdn.pixabay.com/photo/2022/12/08/19/01/village-7643930_1280.jpg"
    },
    {
        "id": "2841963",
        "src640": "https://cdn.pixabay.com/photo/2017/10/11/18/07/perugia-2841963_640.jpg",
        "src1280": "https://cdn.pixabay.com/photo/2017/10/11/18/07/perugia-2841963_1280.jpg"
    },
    {
        "id": "6509046",
        "src640": "https://cdn.pixabay.com/photo/2021/07/30/08/21/street-6509046_640.jpg",
        "src1280": "https://cdn.pixabay.com/photo/2021/07/30/08/21/street-6509046_1280.jpg"
    },
    {
        "id": "3870300",
        "src640": "https://cdn.pixabay.com/photo/2018/12/12/07/46/tower-3870300_640.jpg",
        "src1280": "https://cdn.pixabay.com/photo/2018/12/12/07/46/tower-3870300_1280.jpg"
    },
    {
        "id": "6720205",
        "src640": "https://cdn.pixabay.com/photo/2021/10/18/06/44/free-city-6720205_640.jpg",
        "src1280": "https://cdn.pixabay.com/photo/2021/10/18/06/44/free-city-6720205_1280.jpg"
    }
]