[
    {
        "id": "4453079",
        "src640": "https://cdn.pixabay.com/photo/2019/09/05/04/55/girl-4453079_640.jpg",
        "src1280": "https://cdn.pixabay.com/photo/2019/09/05/04/55/girl-4453079_1280.jpg"
    },
    {
        "id": "8017341",
        "src640": "https://cdn.pixabay.com/photo/2023/05/25/13/08/woman-8017341_640.jpg",
        "src1280": "https://cdn.pixabay.com/photo/2023/05/25/13/08/woman-8017341_1280.jpg"
    },
    {
        "id": "7876452",
        "src640": "https://cdn.pixabay.com/photo/2023/03/25/16/58/ai-generated-7876452_640.jpg",
        "src1280": "https://cdn.pixabay.com/photo/2023/03/25/16/58/ai-generated-7876452_1280.jpg"
    },
    {
        "id": "1668",
        "src640": "https://cdn.pixabay.com/photo/2010/12/13/09/50/prague-1668_640.jpg",
        "src1280": "https://cdn.pixabay.com/photo/2010/12/13/09/50/prague-1668_1280.jpg"
    },
    {
        "id": "1013264",
        "src640": "https://cdn.pixabay.com/photo/2015/10/30/00/40/skyscraper-1013264_640.jpg",
        "src1280": "https://cdn.pixabay.com/photo/2015/10/30/00/40/skyscraper-1013264_1280.jpg"
    },
    {
        "id": "4122418",
        "src640": "https://cdn.pixabay.com/photo/2019/04/12/15/53/city-4122418_640.jpg",
        "src1280": "https://cdn.pixabay.com/photo/2019/04/12/15/53/city-4122418_1280.jpg"
    },
    {
        "id": "3854697",
        "src640": "https://cdn.pixabay.com/photo/2018/12/04/03/04/the-town-hall-3854697_640.jpg",
        "src1280": "https://cdn.pixabay.com/photo/2018/12/04/03/04/the-town-hall-3854697_1280.jpg"
    },
    {
        "id": "2148790",
        "src640": "https://cdn.pixabay.com/photo/2017/03/16/10/47/barcelona-2148790_640.jpg",
        "src1280": "https://cdn.pixabay.com/photo/2017/03/16/10/47/barcelona-2148790_1280.jpg"
    },
    {
        "id": "3393765",
        "src640": "https://cdn.pixabay.com/photo/2018/05/12/15/49/sunset-3393765_640.jpg",
        "src1280": "https://cdn.pixabay.com/photo/2018/05/12/15/49/sunset-3393765_1280.jpg"
    },
    {
        "id": "2386218",
        "src640": "https://cdn.pixabay.com/photo/2017/06/09/09/01/arc-de-triomphe-2386218_640.jpg",
        "src1280": "https://cdn.pixabay.com/photo/2017/06/09/09/01/arc-de-triomphe-2386218_1280.jpg"
    },
    {
        "id": "3876782",
        "src640": "https://cdn.pixabay.com/photo/2018/12/15/12/13/pali-3876782_640.jpg",
        "src1280": "https://cdn.pixabay.com/photo/2018/12/15/12/13/pali-3876782_1280.jpg"
    },
    {
        "id": "8303876",
        "src640": "https://cdn.pixabay.com/photo/2023/10/09/11/05/city-street-8303876_640.jpg",
        "src1280": "https://cdn.pixabay.com/photo/2023/10/09/11/05/city-street-8303876_1280.jpg"
    },
    {
        "id": "8233283",
        "src640": "https://cdn.pixabay.com/photo/2023/09/04/17/43/ai-generated-8233283_640.jpg",
        "src1280": "https://cdn.pixabay.com/photo/2023/09/04/17/43/ai-generated-8233283_1280.jpg"
    },
    {
        "id": "8410420",
        "src640": "https://cdn.pixabay.com/photo/2023/11/24/17/59/woman-8410420_640.jpg",
        "src1280": "https://cdn.pixabay.com/photo/2023/11/24/17/59/woman-8410420_1280.jpg"
    },
    {
        "id": "2386857",
        "src640": "https://cdn.pixabay.com/photo/2017/06/09/13/25/city-2386857_640.jpg",
        "src1280": "https://cdn.pixabay.com/photo/2017/06/09/13/25/city-2386857_1280.jpg"
    },
    {
        "id": "884689",
        "src640": "https://cdn.pixabay.com/photo/2015/08/11/15/04/manhattan-884689_640.jpg",
        "src1280": "https://cdn.pixabay.com/photo/2015/08/11/15/04/manhattan-884689_1280.jpg"
    },
    {
        "id": "4368773",
        "src640": "https://cdn.pixabay.com/photo/2019/07/28/13/59/cat-4368773_640.jpg",
        "src1280": "https://cdn.pixabay.com/photo/2019/07/28/13/59/cat-4368773_1280.jpg"
    },
    {
        "id": "6495622",
        "src640": "https://cdn.pixabay.com/photo/2021/07/27/01/50/ao-dai-6495622_640.jpg",
        "src1280": "https://cdn.pixabay.com/photo/2021/07/27/01/50/ao-dai-6495622_1280.jpg"
    },
    {
        "id": "300303",
        "src640": "https://cdn.pixabay.com/photo/2014/03/28/19/55/man-300303_640.jpg",
        "src1280": "https://cdn.pixabay.com/photo/2014/03/28/19/55/man-300303_1280.jpg"
    },
    {
        "id": "1930796",
        "src640": "https://cdn.pixabay.com/photo/2016/12/25/19/50/paris-1930796_640.jpg",
        "src1280": "https://cdn.pixabay.com/photo/2016/12/25/19/50/paris-1930796_1280.jpg"
    },
    {
        "id": "3577139",
        "src640": "https://cdn.pixabay.com/photo/2018/08/01/12/49/new-york-3577139_640.jpg",
        "src1280": "https://cdn.pixabay.com/photo/2018/08/01/12/49/new-york-3577139_1280.jpg"
    },
    {
        "id": "7356358",
        "src640": "https://cdn.pixabay.com/photo/2022/07/31/17/15/woman-7356358_640.jpg",
        "src1280": "https://cdn.pixabay.com/photo/2022/07/31/17/15/woman-7356358_1280.jpg"
    },
    {
        "id": "8385401",
        "src640": "https://cdn.pixabay.com/photo/2023/11/13/12/27/woman-8385401_640.jpg",
        "src1280": "https://cdn.pixabay.com/photo/2023/11/13/12/27/woman-8385401_1280.jpg"
    },
    {
        "id": "2431781",
        "src640": "https://cdn.pixabay.com/photo/2017/06/22/17/39/bell-tower-2431781_640.jpg",
        "src1280": "https://cdn.pixabay.com/photo/2017/06/22/17/39/bell-tower-2431781_1280.jpg"
    },
    {
        "id": "5978694",
        "src640": "https://cdn.pixabay.com/photo/2021/02/03/17/26/snow-5978694_640.jpg",
        "src1280": "https://cdn.pixabay.com/photo/2021/02/03/17/26/snow-5978694_1280.jpg"
    },
    {
        "id": "4480324",
        "src640": "https://cdn.pixabay.com/photo/2019/09/16/08/48/architecture-4480324_640.jpg",
        "src1280": "https://cdn.pixabay.com/photo/2019/09/16/08/48/architecture-4480324_1280.jpg"
    },
    {
        "id": "2337028",
        "src640": "https://cdn.pixabay.com/photo/2017/05/23/12/10/clock-2337028_640.jpg",
        "src1280": "https://cdn.pixabay.com/photo/2017/05/23/12/10/clock-2337028_1280.jpg"
    },
    {
        "id": "4853903",
        "src640": "https://cdn.pixabay.com/photo/2020/02/16/15/39/bicycles-4853903_640.jpg",
        "src1280": "https://cdn.pixabay.com/photo/2020/02/16/15/39/bicycles-4853903_1280.jpg"
    },
    {
        "id": "7551751",
        "src640": "https://cdn.pixabay.com/photo/2022/10/27/20/25/castle-7551751_640.jpg",
        "src1280": "https://cdn.pixabay.com/photo/2022/10/27/20/25/castle-7551751_1280.jpg"
    },
    {
        "id": "4741197",
        "src640": "https://cdn.pixabay.com/photo/2020/01/04/17/15/bike-4741197_640.jpg",
        "src1280": "https://cdn.pixabay.com/photo/2020/01/04/17/15/bike-4741197_1280.jpg"
    },
    {
        "id": "4510036",
        "src640": "https://cdn.pixabay.com/photo/2019/09/28/06/26/architecture-4510036_640.jpg",
        "src1280": "https://cdn.pixabay.com/photo/2019/09/28/06/26/architecture-4510036_1280.jpg"
    },
    {
        "id": "5504448",
        "src640": "https://cdn.pixabay.com/photo/2020/08/20/19/37/square-5504448_640.jpg",
        "src1280": "https://cdn.pixabay.com/photo/2020/08/20/19/37/square-5504448_1280.jpg"
    },
    {
        "id": "1502838",
        "src640": "https://cdn.pixabay.com/photo/2016/07/07/17/21/schlossberg-1502838_640.jpg",
        "src1280": "https://cdn.pixabay.com/photo/2016/07/07/17/21/schlossberg-1502838_1280.jpg"
    },
    {
        "id": "669411",
        "src640": "https://cdn.pixabay.com/photo/2015/03/11/23/21/crystal-mill-669411_640.jpg",
        "src1280": "https://cdn.pixabay.com/photo/2015/03/11/23/21/crystal-mill-669411_1280.jpg"
    },
    {
        "id": "4510420",
        "src640": "https://cdn.pixabay.com/photo/2019/09/28/10/39/nepal-4510420_640.jpg",
        "src1280": "https://cdn.pixabay.com/photo/2019/09/28/10/39/nepal-4510420_1280.jpg"
    },
    {
        "id": "3737",
        "src640": "https://cdn.pixabay.com/photo/2010/12/17/10/51/golden-gate-bridge-3737_640.jpg",
        "src1280": "https://cdn.pixabay.com/photo/2010/12/17/10/51/golden-gate-bridge-3737_1280.jpg"
    },
    {
        "id": "4373250",
        "src640": "https://cdn.pixabay.com/photo/2019/07/30/15/44/guanajuato-4373250_640.jpg",
        "src1280": "https://cdn.pixabay.com/photo/2019/07/30/15/44/guanajuato-4373250_1280.jpg"
    },
    {
        "id": "4890571",
        "src640": "https://cdn.pixabay.com/photo/2020/02/29/16/43/woman-4890571_640.jpg",
        "src1280": "https://cdn.pixabay.com/photo/2020/02/29/16/43/woman-4890571_1280.jpg"
    },
    {
        "id": "926233",
        "src640": "https://cdn.pixabay.com/photo/2015/09/05/23/27/snow-storm-926233_640.jpg",
        "src1280": "https://cdn.pixabay.com/photo/2015/09/05/23/27/snow-storm-926233_1280.jpg"
    },
    {
        "id": "5934553",
        "src640": "https://cdn.pixabay.com/photo/2021/01/20/15/11/woman-5934553_640.jpg",
        "src1280": "https://cdn.pixabay.com/photo/2021/01/20/15/11/woman-5934553_1280.jpg"
    },
    {
        "id": "3632108",
        "src640": "https://cdn.pixabay.com/photo/2018/08/26/12/15/minaret-3632108_640.jpg",
        "src1280": "https://cdn.pixabay.com/photo/2018/08/26/12/15/minaret-3632108_1280.jpg"
    },
    {
        "id": "1606247",
        "src640": "https://cdn.pixabay.com/photo/2016/08/19/21/00/birmingham-1606247_640.jpg",
        "src1280": "https://cdn.pixabay.com/photo/2016/08/19/21/00/birmingham-1606247_1280.jpg"
    },
    {
        "id": "5839840",
        "src640": "https://cdn.pixabay.com/photo/2020/12/17/15/55/river-5839840_640.jpg",
        "src1280": "https://cdn.pixabay.com/photo/2020/12/17/15/55/river-5839840_1280.jpg"
    },
    {
        "id": "6690132",
        "src640": "https://cdn.pixabay.com/photo/2021/10/08/03/56/woman-6690132_640.jpg",
        "src1280": "https://cdn.pixabay.com/photo/2021/10/08/03/56/woman-6690132_1280.jpg"
    },
    {
        "id": "2587230",
        "src640": "https://cdn.pixabay.com/photo/2017/08/06/00/51/urban-2587230_640.jpg",
        "src1280": "https://cdn.pixabay.com/photo/2017/08/06/00/51/urban-2587230_1280.jpg"
    },
    {
        "id": "833081",
        "src640": "https://cdn.pixabay.com/photo/2015/07/06/08/29/new-833081_640.jpg",
        "src1280": "https://cdn.pixabay.com/photo/2015/07/06/08/29/new-833081_1280.jpg"
    },
    {
        "id": "5338116",
        "src640": "https://cdn.pixabay.com/photo/2020/06/25/00/56/people-5338116_640.jpg",
        "src1280": "https://cdn.pixabay.com/photo/2020/06/25/00/56/people-5338116_1280.jpg"
    },
    {
        "id": "2124684",
        "src640": "https://cdn.pixabay.com/photo/2017/03/07/17/18/hamburg-2124684_640.jpg",
        "src1280": "https://cdn.pixabay.com/photo/2017/03/07/17/18/hamburg-2124684_1280.jpg"
    },
    {
        "id": "4092200",
        "src640": "https://cdn.pixabay.com/photo/2019/03/30/22/09/cityscape-4092200_640.jpg",
        "src1280": "https://cdn.pixabay.com/photo/2019/03/30/22/09/cityscape-4092200_1280.jpg"
    },
    {
        "id": "2661330",
        "src640": "https://cdn.pixabay.com/photo/2017/08/20/11/05/architecture-2661330_640.jpg",
        "src1280": "https://cdn.pixabay.com/photo/2017/08/20/11/05/architecture-2661330_1280.jpg"
    },
    {
        "id": "8356855",
        "src640": "https://cdn.pixabay.com/photo/2023/11/01/08/35/woman-8356855_640.jpg",
        "src1280": "https://cdn.pixabay.com/photo/2023/11/01/08/35/woman-8356855_1280.jpg"
    },
    {
        "id": "4691664",
        "src640": "https://cdn.pixabay.com/photo/2019/12/12/21/49/paris-4691664_640.jpg",
        "src1280": "https://cdn.pixabay.com/photo/2019/12/12/21/49/paris-4691664_1280.jpg"
    },
    {
        "id": "291866",
        "src640": "https://cdn.pixabay.com/photo/2014/03/21/07/07/the-old-town-291866_640.jpg",
        "src1280": "https://cdn.pixabay.com/photo/2014/03/21/07/07/the-old-town-291866_1280.jpg"
    },
    {
        "id": "2491093",
        "src640": "https://cdn.pixabay.com/photo/2017/07/10/19/06/architecture-2491093_640.jpg",
        "src1280": "https://cdn.pixabay.com/photo/2017/07/10/19/06/architecture-2491093_1280.jpg"
    },
    {
        "id": "3143436",
        "src640": "https://cdn.pixabay.com/photo/2018/02/10/11/44/israel-3143436_640.jpg",
        "src1280": "https://cdn.pixabay.com/photo/2018/02/10/11/44/israel-3143436_1280.jpg"
    },
    {
        "id": "1652657",
        "src640": "https://cdn.pixabay.com/photo/2016/09/07/21/28/germany-1652657_640.jpg",
        "src1280": "https://cdn.pixabay.com/photo/2016/09/07/21/28/germany-1652657_1280.jpg"
    },
    {
        "id": "8347762",
        "src640": "https://cdn.pixabay.com/photo/2023/10/28/15/11/ai-generated-8347762_640.jpg",
        "src1280": "https://cdn.pixabay.com/photo/2023/10/28/15/11/ai-generated-8347762_1280.jpg"
    },
    {
        "id": "97965",
        "src640": "https://cdn.pixabay.com/photo/2013/03/30/05/08/flora-97965_640.jpg",
        "src1280": "https://cdn.pixabay.com/photo/2013/03/30/05/08/flora-97965_1280.jpg"
    },
    {
        "id": "7359062",
        "src640": "https://cdn.pixabay.com/photo/2022/08/01/21/46/mount-7359062_640.jpg",
        "src1280": "https://cdn.pixabay.com/photo/2022/08/01/21/46/mount-7359062_1280.jpg"
    },
    {
        "id": "86029",
        "src640": "https://cdn.pixabay.com/photo/2013/02/25/16/01/new-york-city-86029_640.jpg",
        "src1280": "https://cdn.pixabay.com/photo/2013/02/25/16/01/new-york-city-86029_1280.jpg"
    },
    {
        "id": "2646134",
        "src640": "https://cdn.pixabay.com/photo/2017/08/16/00/58/steeple-2646134_640.jpg",
        "src1280": "https://cdn.pixabay.com/photo/2017/08/16/00/58/steeple-2646134_1280.jpg"
    },
    {
        "id": "102183",
        "src640": "https://cdn.pixabay.com/photo/2013/04/09/12/39/new-york-city-102183_640.jpg",
        "src1280": "https://cdn.pixabay.com/photo/2013/04/09/12/39/new-york-city-102183_1280.jpg"
    },
    {
        "id": "1788004",
        "src640": "https://cdn.pixabay.com/photo/2016/11/01/11/41/usa-1788004_640.jpg",
        "src1280": "https://cdn.pixabay.com/photo/2016/11/01/11/41/usa-1788004_1280.jpg"
    },
    {
        "id": "8426311",
        "src640": "https://cdn.pixabay.com/photo/2023/12/02/19/11/ai-generated-8426311_640.jpg",
        "src1280": "https://cdn.pixabay.com/photo/2023/12/02/19/11/ai-generated-8426311_1280.jpg"
    },
    {
        "id": "2611136",
        "src640": "https://cdn.pixabay.com/photo/2017/08/08/11/22/cami-2611136_640.jpg",
        "src1280": "https://cdn.pixabay.com/photo/2017/08/08/11/22/cami-2611136_1280.jpg"
    },
    {
        "id": "6903972",
        "src640": "https://cdn.pixabay.com/photo/2021/12/30/14/18/music-6903972_640.jpg",
        "src1280": "https://cdn.pixabay.com/photo/2021/12/30/14/18/music-6903972_1280.jpg"
    },
    {
        "id": "7570951",
        "src640": "https://cdn.pixabay.com/photo/2022/11/05/01/41/futuristic-7570951_640.jpg",
        "src1280": "https://cdn.pixabay.com/photo/2022/11/05/01/41/futuristic-7570951_1280.jpg"
    },
    {
        "id": "2530022",
        "src640": "https://cdn.pixabay.com/photo/2017/07/22/21/37/fountain-of-justice-2530022_640.jpg",
        "src1280": "https://cdn.pixabay.com/photo/2017/07/22/21/37/fountain-of-justice-2530022_1280.jpg"
    },
    {
        "id": "2609248",
        "src640": "https://cdn.pixabay.com/photo/2017/08/07/23/41/city-2609248_640.jpg",
        "src1280": "https://cdn.pixabay.com/photo/2017/08/07/23/41/city-2609248_1280.jpg"
    },
    {
        "id": "1127962",
        "src640": "https://cdn.pixabay.com/photo/2016/01/08/13/55/graff-1127962_640.jpg",
        "src1280": "https://cdn.pixabay.com/photo/2016/01/08/13/55/graff-1127962_1280.jpg"
    },
    {
        "id": "2853474",
        "src640": "https://cdn.pixabay.com/photo/2017/10/15/12/17/lecce-2853474_640.jpg",
        "src1280": "https://cdn.pixabay.com/photo/2017/10/15/12/17/lecce-2853474_1280.jpg"
    },
    {
        "id": "4335257",
        "src640": "https://cdn.pixabay.com/photo/2019/07/13/16/54/london-4335257_640.jpg",
        "src1280": "https://cdn.pixabay.com/photo/2019/07/13/16/54/london-4335257_1280.jpg"
    },
    {
        "id": "838742",
        "src640": "https://cdn.pixabay.com/photo/2015/07/09/23/25/barcelona-838742_640.jpg",
        "src1280": "https://cdn.pixabay.com/photo/2015/07/09/23/25/barcelona-838742_1280.jpg"
    },
    {
        "id": "107517",
        "src640": "https://cdn.pixabay.com/photo/2013/04/27/21/52/chicago-107517_640.jpg",
        "src1280": "https://cdn.pixabay.com/photo/2013/04/27/21/52/chicago-107517_1280.jpg"
    },
    {
        "id": "2581996",
        "src640": "https://cdn.pixabay.com/photo/2017/08/05/01/15/cami-2581996_640.jpg",
        "src1280": "https://cdn.pixabay.com/photo/2017/08/05/01/15/cami-2581996_1280.jpg"
    },
    {
        "id": "6093",
        "src640": "https://cdn.pixabay.com/photo/2011/04/05/10/37/mirror-6093_640.jpg",
        "src1280": "https://cdn.pixabay.com/photo/2011/04/05/10/37/mirror-6093_1280.jpg"
    },
    {
        "id": "2609064",
        "src640": "https://cdn.pixabay.com/photo/2017/08/07/23/18/guy-2609064_640.jpg",
        "src1280": "https://cdn.pixabay.com/photo/2017/08/07/23/18/guy-2609064_1280.jpg"
    },
    {
        "id": "4874020",
        "src640": "https://cdn.pixabay.com/photo/2020/02/23/17/06/berlin-4874020_640.jpg",
        "src1280": "https://cdn.pixabay.com/photo/2020/02/23/17/06/berlin-4874020_1280.jpg"
    },
    {
        "id": "56614",
        "src640": "https://cdn.pixabay.com/photo/2012/09/10/04/33/montreal-56614_640.jpg",
        "src1280": "https://cdn.pixabay.com/photo/2012/09/10/04/33/montreal-56614_1280.jpg"
    },
    {
        "id": "775520",
        "src640": "https://cdn.pixabay.com/photo/2015/05/20/14/34/paris-775520_640.jpg",
        "src1280": "https://cdn.pixabay.com/photo/2015/05/20/14/34/paris-775520_1280.jpg"
    },
    {
        "id": "8018051",
        "src640": "https://cdn.pixabay.com/photo/2023/05/25/18/56/girlie-8018051_640.jpg",
        "src1280": "https://cdn.pixabay.com/photo/2023/05/25/18/56/girlie-8018051_1280.jpg"
    },
    {
        "id": "1507136",
        "src640": "https://cdn.pixabay.com/photo/2016/07/10/01/16/police-1507136_640.jpg",
        "src1280": "https://cdn.pixabay.com/photo/2016/07/10/01/16/police-1507136_1280.jpg"
    },
    {
        "id": "4303276",
        "src640": "https://cdn.pixabay.com/photo/2019/06/28/00/16/london-4303276_640.jpg",
        "src1280": "https://cdn.pixabay.com/photo/2019/06/28/00/16/london-4303276_1280.jpg"
    },
    {
        "id": "672655",
        "src640": "https://cdn.pixabay.com/photo/2015/03/14/03/59/border-collie-672655_640.jpg",
        "src1280": "https://cdn.pixabay.com/photo/2015/03/14/03/59/border-collie-672655_1280.jpg"
    },
    {
        "id": "1280347",
        "src640": "https://cdn.pixabay.com/photo/2016/03/26/11/03/postcard-1280347_640.jpg",
        "src1280": "https://cdn.pixabay.com/photo/2016/03/26/11/03/postcard-1280347_1280.jpg"
    },
    {
        "id": "8390549",
        "src640": "https://cdn.pixabay.com/photo/2023/11/15/17/05/ai-generated-8390549_640.jpg",
        "src1280": "https://cdn.pixabay.com/photo/2023/11/15/17/05/ai-generated-8390549_1280.jpg"
    },
    {
        "id": "7995884",
        "src640": "https://cdn.pixabay.com/photo/2023/05/15/19/53/city-7995884_640.jpg",
        "src1280": "https://cdn.pixabay.com/photo/2023/05/15/19/53/city-7995884_1280.jpg"
    },
    {
        "id": "1834854",
        "src640": "https://cdn.pixabay.com/photo/2016/11/18/14/19/building-1834854_640.jpg",
        "src1280": "https://cdn.pixabay.com/photo/2016/11/18/14/19/building-1834854_1280.jpg"
    },
    {
        "id": "7113872",
        "src640": "https://cdn.pixabay.com/photo/2022/04/05/15/29/space-7113872_640.jpg",
        "src1280": "https://cdn.pixabay.com/photo/2022/04/05/15/29/space-7113872_1280.jpg"
    },
    {
        "id": "4073271",
        "src640": "https://cdn.pixabay.com/photo/2019/03/22/13/23/houses-4073271_640.jpg",
        "src1280": "https://cdn.pixabay.com/photo/2019/03/22/13/23/houses-4073271_1280.jpg"
    },
    {
        "id": "4926426",
        "src640": "https://cdn.pixabay.com/photo/2020/03/12/23/03/free-4926426_640.jpg",
        "src1280": "https://cdn.pixabay.com/photo/2020/03/12/23/03/free-4926426_1280.jpg"
    },
    {
        "id": "4393212",
        "src640": "https://cdn.pixabay.com/photo/2019/08/08/15/51/architecture-4393212_640.jpg",
        "src1280": "https://cdn.pixabay.com/photo/2019/08/08/15/51/architecture-4393212_1280.jpg"
    },
    {
        "id": "3413562",
        "src640": "https://cdn.pixabay.com/photo/2018/05/19/14/14/mosque-3413562_640.jpg",
        "src1280": "https://cdn.pixabay.com/photo/2018/05/19/14/14/mosque-3413562_1280.jpg"
    }
]