[
    {
        "id": "2562710",
        "src640": "https://cdn.pixabay.com/photo/2017/08/01/01/43/architecture-2562710_640.jpg",
        "src1280": "https://cdn.pixabay.com/photo/2017/08/01/01/43/architecture-2562710_1280.jpg"
    },
    {
        "id": "3254297",
        "src640": "https://cdn.pixabay.com/photo/2018/03/23/17/12/architecture-3254297_640.jpg",
        "src1280": "https://cdn.pixabay.com/photo/2018/03/23/17/12/architecture-3254297_1280.jpg"
    },
    {
        "id": "6945455",
        "src640": "https://cdn.pixabay.com/photo/2022/01/17/18/19/man-6945455_640.jpg",
        "src1280": "https://cdn.pixabay.com/photo/2022/01/17/18/19/man-6945455_1280.jpg"
    },
    {
        "id": "103460",
        "src640": "https://cdn.pixabay.com/photo/2013/04/13/22/54/san-francisco-103460_640.jpg",
        "src1280": "https://cdn.pixabay.com/photo/2013/04/13/22/54/san-francisco-103460_1280.jpg"
    },
    {
        "id": "6540251",
        "src640": "https://cdn.pixabay.com/photo/2021/08/12/08/10/new-york-city-6540251_640.jpg",
        "src1280": "https://cdn.pixabay.com/photo/2021/08/12/08/10/new-york-city-6540251_1280.jpg"
    },
    {
        "id": "6769820",
        "src640": "https://cdn.pixabay.com/photo/2021/11/05/01/11/winter-6769820_640.jpg",
        "src1280": "https://cdn.pixabay.com/photo/2021/11/05/01/11/winter-6769820_1280.jpg"
    },
    {
        "id": "6605041",
        "src640": "https://cdn.pixabay.com/photo/2021/09/07/22/32/city-6605041_640.jpg",
        "src1280": "https://cdn.pixabay.com/photo/2021/09/07/22/32/city-6605041_1280.jpg"
    },
    {
        "id": "1012049",
        "src640": "https://cdn.pixabay.com/photo/2015/10/29/09/21/valencia-1012049_640.jpg",
        "src1280": "https://cdn.pixabay.com/photo/2015/10/29/09/21/valencia-1012049_1280.jpg"
    },
    {
        "id": "7284682",
        "src640": "https://cdn.pixabay.com/photo/2022/06/26/06/56/usa-7284682_640.jpg",
        "src1280": "https://cdn.pixabay.com/photo/2022/06/26/06/56/usa-7284682_1280.jpg"
    },
    {
        "id": "7306513",
        "src640": "https://cdn.pixabay.com/photo/2022/07/07/05/23/women-7306513_640.jpg",
        "src1280": "https://cdn.pixabay.com/photo/2022/07/07/05/23/women-7306513_1280.jpg"
    },
    {
        "id": "7322459",
        "src640": "https://cdn.pixabay.com/photo/2022/07/15/06/07/woman-7322459_640.jpg",
        "src1280": "https://cdn.pixabay.com/photo/2022/07/15/06/07/woman-7322459_1280.jpg"
    },
    {
        "id": "2749435",
        "src640": "https://cdn.pixabay.com/photo/2017/09/14/15/56/leipzig-2749435_640.jpg",
        "src1280": "https://cdn.pixabay.com/photo/2017/09/14/15/56/leipzig-2749435_1280.jpg"
    },
    {
        "id": "8154690",
        "src640": "https://cdn.pixabay.com/photo/2023/07/28/07/42/woman-8154690_640.jpg",
        "src1280": "https://cdn.pixabay.com/photo/2023/07/28/07/42/woman-8154690_1280.jpg"
    },
    {
        "id": "7145607",
        "src640": "https://cdn.pixabay.com/photo/2022/04/20/16/38/bus-stop-7145607_640.jpg",
        "src1280": "https://cdn.pixabay.com/photo/2022/04/20/16/38/bus-stop-7145607_1280.jpg"
    },
    {
        "id": "2617164",
        "src640": "https://cdn.pixabay.com/photo/2017/08/10/02/13/buildings-2617164_640.jpg",
        "src1280": "https://cdn.pixabay.com/photo/2017/08/10/02/13/buildings-2617164_1280.jpg"
    },
    {
        "id": "7129846",
        "src640": "https://cdn.pixabay.com/photo/2022/04/13/08/41/bassano-del-grappa-7129846_640.jpg",
        "src1280": "https://cdn.pixabay.com/photo/2022/04/13/08/41/bassano-del-grappa-7129846_1280.jpg"
    },
    {
        "id": "5207558",
        "src640": "https://cdn.pixabay.com/photo/2020/05/23/00/31/city-5207558_640.jpg",
        "src1280": "https://cdn.pixabay.com/photo/2020/05/23/00/31/city-5207558_1280.jpg"
    },
    {
        "id": "4882675",
        "src640": "https://cdn.pixabay.com/photo/2020/02/26/20/12/the-ancient-city-4882675_640.jpg",
        "src1280": "https://cdn.pixabay.com/photo/2020/02/26/20/12/the-ancient-city-4882675_1280.jpg"
    },
    {
        "id": "7787850",
        "src640": "https://cdn.pixabay.com/photo/2023/02/13/17/29/woman-7787850_640.jpg",
        "src1280": "https://cdn.pixabay.com/photo/2023/02/13/17/29/woman-7787850_1280.jpg"
    },
    {
        "id": "819897",
        "src640": "https://cdn.pixabay.com/photo/2015/06/24/11/52/verona-819897_640.jpg",
        "src1280": "https://cdn.pixabay.com/photo/2015/06/24/11/52/verona-819897_1280.jpg"
    },
    {
        "id": "2585863",
        "src640": "https://cdn.pixabay.com/photo/2017/08/05/21/45/people-2585863_640.jpg",
        "src1280": "https://cdn.pixabay.com/photo/2017/08/05/21/45/people-2585863_1280.jpg"
    },
    {
        "id": "1932119",
        "src640": "https://cdn.pixabay.com/photo/2016/12/26/13/29/rain-1932119_640.jpg",
        "src1280": "https://cdn.pixabay.com/photo/2016/12/26/13/29/rain-1932119_1280.jpg"
    },
    {
        "id": "94284",
        "src640": "https://cdn.pixabay.com/photo/2013/03/16/18/50/copenhagen-94284_640.jpg",
        "src1280": "https://cdn.pixabay.com/photo/2013/03/16/18/50/copenhagen-94284_1280.jpg"
    },
    {
        "id": "3785870",
        "src640": "https://cdn.pixabay.com/photo/2018/10/31/14/05/hong-kong-3785870_640.jpg",
        "src1280": "https://cdn.pixabay.com/photo/2018/10/31/14/05/hong-kong-3785870_1280.jpg"
    },
    {
        "id": "1120215",
        "src640": "https://cdn.pixabay.com/photo/2016/01/04/00/38/nyc-1120215_640.jpg",
        "src1280": "https://cdn.pixabay.com/photo/2016/01/04/00/38/nyc-1120215_1280.jpg"
    },
    {
        "id": "3185101",
        "src640": "https://cdn.pixabay.com/photo/2018/02/27/10/09/lake-3185101_640.jpg",
        "src1280": "https://cdn.pixabay.com/photo/2018/02/27/10/09/lake-3185101_1280.jpg"
    },
    {
        "id": "368017",
        "src640": "https://cdn.pixabay.com/photo/2014/06/13/03/58/flatiron-368017_640.jpg",
        "src1280": "https://cdn.pixabay.com/photo/2014/06/13/03/58/flatiron-368017_1280.jpg"
    },
    {
        "id": "6945028",
        "src640": "https://cdn.pixabay.com/photo/2022/01/17/15/28/dusseldorf-6945028_640.jpg",
        "src1280": "https://cdn.pixabay.com/photo/2022/01/17/15/28/dusseldorf-6945028_1280.jpg"
    },
    {
        "id": "897543",
        "src640": "https://cdn.pixabay.com/photo/2015/08/20/15/10/moscow-897543_640.jpg",
        "src1280": "https://cdn.pixabay.com/photo/2015/08/20/15/10/moscow-897543_1280.jpg"
    },
    {
        "id": "4415671",
        "src640": "https://cdn.pixabay.com/photo/2019/08/19/07/51/building-4415671_640.jpg",
        "src1280": "https://cdn.pixabay.com/photo/2019/08/19/07/51/building-4415671_1280.jpg"
    },
    {
        "id": "7039275",
        "src640": "https://cdn.pixabay.com/photo/2022/02/28/14/07/alley-7039275_640.jpg",
        "src1280": "https://cdn.pixabay.com/photo/2022/02/28/14/07/alley-7039275_1280.jpg"
    },
    {
        "id": "2630586",
        "src640": "https://cdn.pixabay.com/photo/2017/08/11/12/21/building-2630586_640.jpg",
        "src1280": "https://cdn.pixabay.com/photo/2017/08/11/12/21/building-2630586_1280.jpg"
    },
    {
        "id": "4658038",
        "src640": "https://cdn.pixabay.com/photo/2019/11/27/22/31/architecture-4658038_640.jpg",
        "src1280": "https://cdn.pixabay.com/photo/2019/11/27/22/31/architecture-4658038_1280.jpg"
    },
    {
        "id": "4615551",
        "src640": "https://cdn.pixabay.com/photo/2019/11/10/11/08/photoshop-4615551_640.jpg",
        "src1280": "https://cdn.pixabay.com/photo/2019/11/10/11/08/photoshop-4615551_1280.jpg"
    },
    {
        "id": "7284684",
        "src640": "https://cdn.pixabay.com/photo/2022/06/26/06/56/usa-7284684_640.jpg",
        "src1280": "https://cdn.pixabay.com/photo/2022/06/26/06/56/usa-7284684_1280.jpg"
    },
    {
        "id": "2115721",
        "src640": "https://cdn.pixabay.com/photo/2017/03/04/09/41/clock-2115721_640.jpg",
        "src1280": "https://cdn.pixabay.com/photo/2017/03/04/09/41/clock-2115721_1280.jpg"
    },
    {
        "id": "593792",
        "src640": "https://cdn.pixabay.com/photo/2015/01/09/06/54/paulista-avenue-593792_640.jpg",
        "src1280": "https://cdn.pixabay.com/photo/2015/01/09/06/54/paulista-avenue-593792_1280.jpg"
    },
    {
        "id": "78755",
        "src640": "https://cdn.pixabay.com/photo/2013/02/06/19/38/riga-78755_640.jpg",
        "src1280": "https://cdn.pixabay.com/photo/2013/02/06/19/38/riga-78755_1280.jpg"
    },
    {
        "id": "530061",
        "src640": "https://cdn.pixabay.com/photo/2014/11/13/23/34/transamerica-pyramid-530061_640.jpg",
        "src1280": "https://cdn.pixabay.com/photo/2014/11/13/23/34/transamerica-pyramid-530061_1280.jpg"
    },
    {
        "id": "6891501",
        "src640": "https://cdn.pixabay.com/photo/2021/12/24/16/49/work-6891501_640.jpg",
        "src1280": "https://cdn.pixabay.com/photo/2021/12/24/16/49/work-6891501_1280.jpg"
    },
    {
        "id": "7160360",
        "src640": "https://cdn.pixabay.com/photo/2022/04/27/13/19/metropolis-7160360_640.jpg",
        "src1280": "https://cdn.pixabay.com/photo/2022/04/27/13/19/metropolis-7160360_1280.jpg"
    },
    {
        "id": "7246500",
        "src640": "https://cdn.pixabay.com/photo/2022/06/06/16/59/cyclist-7246500_640.jpg",
        "src1280": "https://cdn.pixabay.com/photo/2022/06/06/16/59/cyclist-7246500_1280.jpg"
    },
    {
        "id": "6887271",
        "src640": "https://cdn.pixabay.com/photo/2021/12/22/10/58/escalator-6887271_640.jpg",
        "src1280": "https://cdn.pixabay.com/photo/2021/12/22/10/58/escalator-6887271_1280.jpg"
    },
    {
        "id": "4638324",
        "src640": "https://cdn.pixabay.com/photo/2019/11/19/19/52/berlin-4638324_640.jpg",
        "src1280": "https://cdn.pixabay.com/photo/2019/11/19/19/52/berlin-4638324_1280.jpg"
    },
    {
        "id": "1773263",
        "src640": "https://cdn.pixabay.com/photo/2016/10/27/03/14/southbank-1773263_640.jpg",
        "src1280": "https://cdn.pixabay.com/photo/2016/10/27/03/14/southbank-1773263_1280.jpg"
    },
    {
        "id": "90924",
        "src640": "https://cdn.pixabay.com/photo/2013/03/06/14/35/frankfurt-90924_640.jpg",
        "src1280": "https://cdn.pixabay.com/photo/2013/03/06/14/35/frankfurt-90924_1280.jpg"
    },
    {
        "id": "7212423",
        "src640": "https://cdn.pixabay.com/photo/2022/05/21/22/39/tram-7212423_640.jpg",
        "src1280": "https://cdn.pixabay.com/photo/2022/05/21/22/39/tram-7212423_1280.jpg"
    },
    {
        "id": "3951987",
        "src640": "https://cdn.pixabay.com/photo/2019/01/24/09/03/skyline-3951987_640.jpg",
        "src1280": "https://cdn.pixabay.com/photo/2019/01/24/09/03/skyline-3951987_1280.jpg"
    },
    {
        "id": "5152590",
        "src640": "https://cdn.pixabay.com/photo/2020/05/10/07/20/middle-east-5152590_640.jpg",
        "src1280": "https://cdn.pixabay.com/photo/2020/05/10/07/20/middle-east-5152590_1280.jpg"
    },
    {
        "id": "279365",
        "src640": "https://cdn.pixabay.com/photo/2014/03/04/07/42/strasbourg-279365_640.jpg",
        "src1280": "https://cdn.pixabay.com/photo/2014/03/04/07/42/strasbourg-279365_1280.jpg"
    },
    {
        "id": "923580",
        "src640": "https://cdn.pixabay.com/photo/2015/09/05/00/38/city-923580_640.jpg",
        "src1280": "https://cdn.pixabay.com/photo/2015/09/05/00/38/city-923580_1280.jpg"
    },
    {
        "id": "5893428",
        "src640": "https://cdn.pixabay.com/photo/2021/01/06/07/34/town-5893428_640.jpg",
        "src1280": "https://cdn.pixabay.com/photo/2021/01/06/07/34/town-5893428_1280.jpg"
    },
    {
        "id": "6911237",
        "src640": "https://cdn.pixabay.com/photo/2022/01/02/21/45/city-6911237_640.jpg",
        "src1280": "https://cdn.pixabay.com/photo/2022/01/02/21/45/city-6911237_1280.jpg"
    },
    {
        "id": "4899394",
        "src640": "https://cdn.pixabay.com/photo/2020/03/03/17/57/france-4899394_640.jpg",
        "src1280": "https://cdn.pixabay.com/photo/2020/03/03/17/57/france-4899394_1280.jpg"
    },
    {
        "id": "4700467",
        "src640": "https://cdn.pixabay.com/photo/2019/12/16/23/31/abidjan-4700467_640.jpg",
        "src1280": "https://cdn.pixabay.com/photo/2019/12/16/23/31/abidjan-4700467_1280.jpg"
    },
    {
        "id": "8436394",
        "src640": "https://cdn.pixabay.com/photo/2023/12/07/21/35/ai-generated-8436394_640.jpg",
        "src1280": "https://cdn.pixabay.com/photo/2023/12/07/21/35/ai-generated-8436394_1280.jpg"
    },
    {
        "id": "8029782",
        "src640": "https://cdn.pixabay.com/photo/2023/05/30/20/08/ai-generated-8029782_640.jpg",
        "src1280": "https://cdn.pixabay.com/photo/2023/05/30/20/08/ai-generated-8029782_1280.jpg"
    },
    {
        "id": "4270847",
        "src640": "https://cdn.pixabay.com/photo/2019/06/13/06/41/street-4270847_640.jpg",
        "src1280": "https://cdn.pixabay.com/photo/2019/06/13/06/41/street-4270847_1280.jpg"
    },
    {
        "id": "2714915",
        "src640": "https://cdn.pixabay.com/photo/2017/09/04/18/18/cars-2714915_640.jpg",
        "src1280": "https://cdn.pixabay.com/photo/2017/09/04/18/18/cars-2714915_1280.jpg"
    },
    {
        "id": "4847104",
        "src640": "https://cdn.pixabay.com/photo/2020/02/13/23/25/sea-4847104_640.jpg",
        "src1280": "https://cdn.pixabay.com/photo/2020/02/13/23/25/sea-4847104_1280.jpg"
    },
    {
        "id": "1030709",
        "src640": "https://cdn.pixabay.com/photo/2015/11/07/10/59/toronto-city-hall-1030709_640.jpg",
        "src1280": "https://cdn.pixabay.com/photo/2015/11/07/10/59/toronto-city-hall-1030709_1280.jpg"
    },
    {
        "id": "164517",
        "src640": "https://cdn.pixabay.com/photo/2013/07/18/15/06/empire-state-building-164517_640.jpg",
        "src1280": "https://cdn.pixabay.com/photo/2013/07/18/15/06/empire-state-building-164517_1280.jpg"
    },
    {
        "id": "49318",
        "src640": "https://cdn.pixabay.com/photo/2012/05/30/17/39/city-49318_640.jpg",
        "src1280": "https://cdn.pixabay.com/photo/2012/05/30/17/39/city-49318_1280.jpg"
    },
    {
        "id": "7577188",
        "src640": "https://cdn.pixabay.com/photo/2022/11/07/20/23/manhattan-7577188_640.jpg",
        "src1280": "https://cdn.pixabay.com/photo/2022/11/07/20/23/manhattan-7577188_1280.jpg"
    },
    {
        "id": "382576",
        "src640": "https://cdn.pixabay.com/photo/2014/07/02/23/02/new-york-382576_640.jpg",
        "src1280": "https://cdn.pixabay.com/photo/2014/07/02/23/02/new-york-382576_1280.jpg"
    },
    {
        "id": "2818623",
        "src640": "https://cdn.pixabay.com/photo/2017/10/05/07/48/bolivia-2818623_640.jpg",
        "src1280": "https://cdn.pixabay.com/photo/2017/10/05/07/48/bolivia-2818623_1280.jpg"
    },
    {
        "id": "6816047",
        "src640": "https://cdn.pixabay.com/photo/2021/11/22/07/35/woman-6816047_640.jpg",
        "src1280": "https://cdn.pixabay.com/photo/2021/11/22/07/35/woman-6816047_1280.jpg"
    },
    {
        "id": "3328323",
        "src640": "https://cdn.pixabay.com/photo/2018/04/17/18/40/czech-krumlov-3328323_640.jpg",
        "src1280": "https://cdn.pixabay.com/photo/2018/04/17/18/40/czech-krumlov-3328323_1280.jpg"
    },
    {
        "id": "7578866",
        "src640": "https://cdn.pixabay.com/photo/2022/11/08/16/12/old-town-hall-7578866_640.jpg",
        "src1280": "https://cdn.pixabay.com/photo/2022/11/08/16/12/old-town-hall-7578866_1280.jpg"
    },
    {
        "id": "5456787",
        "src640": "https://cdn.pixabay.com/photo/2020/08/02/05/58/building-5456787_640.jpg",
        "src1280": "https://cdn.pixabay.com/photo/2020/08/02/05/58/building-5456787_1280.jpg"
    },
    {
        "id": "4899912",
        "src640": "https://cdn.pixabay.com/photo/2020/03/03/21/32/venice-4899912_640.jpg",
        "src1280": "https://cdn.pixabay.com/photo/2020/03/03/21/32/venice-4899912_1280.jpg"
    },
    {
        "id": "7455494",
        "src640": "https://cdn.pixabay.com/photo/2022/09/15/02/02/buildings-7455494_640.jpg",
        "src1280": "https://cdn.pixabay.com/photo/2022/09/15/02/02/buildings-7455494_1280.jpg"
    },
    {
        "id": "385874",
        "src640": "https://cdn.pixabay.com/photo/2014/07/06/21/12/gouda-385874_640.jpg",
        "src1280": "https://cdn.pixabay.com/photo/2014/07/06/21/12/gouda-385874_1280.jpg"
    },
    {
        "id": "5284629",
        "src640": "https://cdn.pixabay.com/photo/2020/06/10/23/39/city-5284629_640.jpg",
        "src1280": "https://cdn.pixabay.com/photo/2020/06/10/23/39/city-5284629_1280.jpg"
    },
    {
        "id": "4790007",
        "src640": "https://cdn.pixabay.com/photo/2020/01/24/11/31/sky-4790007_640.jpg",
        "src1280": "https://cdn.pixabay.com/photo/2020/01/24/11/31/sky-4790007_1280.jpg"
    },
    {
        "id": "2541765",
        "src640": "https://cdn.pixabay.com/photo/2017/07/26/14/18/berlin-2541765_640.jpg",
        "src1280": "https://cdn.pixabay.com/photo/2017/07/26/14/18/berlin-2541765_1280.jpg"
    },
    {
        "id": "2500849",
        "src640": "https://cdn.pixabay.com/photo/2017/07/13/15/41/bridge-2500849_640.jpg",
        "src1280": "https://cdn.pixabay.com/photo/2017/07/13/15/41/bridge-2500849_1280.jpg"
    },
    {
        "id": "91416",
        "src640": "https://cdn.pixabay.com/photo/2013/03/08/03/52/brasilia-91416_640.jpg",
        "src1280": "https://cdn.pixabay.com/photo/2013/03/08/03/52/brasilia-91416_1280.jpg"
    },
    {
        "id": "7523508",
        "src640": "https://cdn.pixabay.com/photo/2022/10/15/16/47/pedestrian-7523508_640.jpg",
        "src1280": "https://cdn.pixabay.com/photo/2022/10/15/16/47/pedestrian-7523508_1280.jpg"
    },
    {
        "id": "5426969",
        "src640": "https://cdn.pixabay.com/photo/2020/07/21/17/43/night-5426969_640.jpg",
        "src1280": "https://cdn.pixabay.com/photo/2020/07/21/17/43/night-5426969_1280.jpg"
    },
    {
        "id": "189699",
        "src640": "https://cdn.pixabay.com/photo/2013/10/02/10/39/domazlice-189699_640.jpg",
        "src1280": "https://cdn.pixabay.com/photo/2013/10/02/10/39/domazlice-189699_1280.jpg"
    },
    {
        "id": "83551",
        "src640": "https://cdn.pixabay.com/photo/2013/02/20/07/11/ice-cream-83551_640.jpg",
        "src1280": "https://cdn.pixabay.com/photo/2013/02/20/07/11/ice-cream-83551_1280.jpg"
    },
    {
        "id": "3833175",
        "src640": "https://cdn.pixabay.com/photo/2018/11/23/03/28/sign-3833175_640.jpg",
        "src1280": "https://cdn.pixabay.com/photo/2018/11/23/03/28/sign-3833175_1280.jpg"
    },
    {
        "id": "823610",
        "src640": "https://cdn.pixabay.com/photo/2015/06/27/16/34/building-823610_640.jpg",
        "src1280": "https://cdn.pixabay.com/photo/2015/06/27/16/34/building-823610_1280.jpg"
    },
    {
        "id": "7898677",
        "src640": "https://cdn.pixabay.com/photo/2023/04/04/07/24/poland-7898677_640.jpg",
        "src1280": "https://cdn.pixabay.com/photo/2023/04/04/07/24/poland-7898677_1280.jpg"
    },
    {
        "id": "3595092",
        "src640": "https://cdn.pixabay.com/photo/2018/08/09/17/50/city-3595092_640.jpg",
        "src1280": "https://cdn.pixabay.com/photo/2018/08/09/17/50/city-3595092_1280.jpg"
    },
    {
        "id": "3066744",
        "src640": "https://cdn.pixabay.com/photo/2018/01/07/08/04/sky-3066744_640.jpg",
        "src1280": "https://cdn.pixabay.com/photo/2018/01/07/08/04/sky-3066744_1280.jpg"
    },
    {
        "id": "4136886",
        "src640": "https://cdn.pixabay.com/photo/2019/04/18/13/03/girl-4136886_640.jpg",
        "src1280": "https://cdn.pixabay.com/photo/2019/04/18/13/03/girl-4136886_1280.jpg"
    },
    {
        "id": "1105977",
        "src640": "https://cdn.pixabay.com/photo/2015/12/23/18/31/architecture-1105977_640.jpg",
        "src1280": "https://cdn.pixabay.com/photo/2015/12/23/18/31/architecture-1105977_1280.jpg"
    },
    {
        "id": "3118725",
        "src640": "https://cdn.pixabay.com/photo/2018/01/30/13/02/architecture-3118725_640.jpg",
        "src1280": "https://cdn.pixabay.com/photo/2018/01/30/13/02/architecture-3118725_1280.jpg"
    },
    {
        "id": "5243801",
        "src640": "https://cdn.pixabay.com/photo/2020/05/31/19/02/warsaw-5243801_640.jpg",
        "src1280": "https://cdn.pixabay.com/photo/2020/05/31/19/02/warsaw-5243801_1280.jpg"
    },
    {
        "id": "5276100",
        "src640": "https://cdn.pixabay.com/photo/2020/06/08/20/45/looking-up-5276100_640.jpg",
        "src1280": "https://cdn.pixabay.com/photo/2020/06/08/20/45/looking-up-5276100_1280.jpg"
    }
]