[
    {
        "id": "8032359",
        "src640": "https://cdn.pixabay.com/photo/2023/05/31/23/39/ai-generated-8032359_640.jpg",
        "src1280": "https://cdn.pixabay.com/photo/2023/05/31/23/39/ai-generated-8032359_1280.jpg"
    },
    {
        "id": "933270",
        "src640": "https://cdn.pixabay.com/photo/2015/09/09/20/52/night-933270_640.jpg",
        "src1280": "https://cdn.pixabay.com/photo/2015/09/09/20/52/night-933270_1280.jpg"
    },
    {
        "id": "974674",
        "src640": "https://cdn.pixabay.com/photo/2015/10/06/15/40/venice-974674_640.jpg",
        "src1280": "https://cdn.pixabay.com/photo/2015/10/06/15/40/venice-974674_1280.jpg"
    },
    {
        "id": "4092702",
        "src640": "https://cdn.pixabay.com/photo/2019/03/31/09/07/painting-4092702_640.jpg",
        "src1280": "https://cdn.pixabay.com/photo/2019/03/31/09/07/painting-4092702_1280.jpg"
    },
    {
        "id": "4964748",
        "src640": "https://cdn.pixabay.com/photo/2020/03/24/17/15/tower-4964748_640.jpg",
        "src1280": "https://cdn.pixabay.com/photo/2020/03/24/17/15/tower-4964748_1280.jpg"
    },
    {
        "id": "5312321",
        "src640": "https://cdn.pixabay.com/photo/2020/06/18/07/48/colosseum-5312321_640.jpg",
        "src1280": "https://cdn.pixabay.com/photo/2020/06/18/07/48/colosseum-5312321_1280.jpg"
    },
    {
        "id": "6858822",
        "src640": "https://cdn.pixabay.com/photo/2021/12/09/18/03/port-6858822_640.jpg",
        "src1280": "https://cdn.pixabay.com/photo/2021/12/09/18/03/port-6858822_1280.jpg"
    },
    {
        "id": "4512530",
        "src640": "https://cdn.pixabay.com/photo/2019/09/29/07/58/berlin-4512530_640.jpg",
        "src1280": "https://cdn.pixabay.com/photo/2019/09/29/07/58/berlin-4512530_1280.jpg"
    },
    {
        "id": "1842398",
        "src640": "https://cdn.pixabay.com/photo/2016/11/20/10/01/background-1842398_640.jpg",
        "src1280": "https://cdn.pixabay.com/photo/2016/11/20/10/01/background-1842398_1280.jpg"
    },
    {
        "id": "4880694",
        "src640": "https://cdn.pixabay.com/photo/2020/02/26/05/58/subway-4880694_640.jpg",
        "src1280": "https://cdn.pixabay.com/photo/2020/02/26/05/58/subway-4880694_1280.jpg"
    },
    {
        "id": "291039",
        "src640": "https://cdn.pixabay.com/photo/2014/03/20/04/49/ny-city-291039_640.jpg",
        "src1280": "https://cdn.pixabay.com/photo/2014/03/20/04/49/ny-city-291039_1280.jpg"
    },
    {
        "id": "4613369",
        "src640": "https://cdn.pixabay.com/photo/2019/11/09/11/27/sacred-heart-4613369_640.jpg",
        "src1280": "https://cdn.pixabay.com/photo/2019/11/09/11/27/sacred-heart-4613369_1280.jpg"
    },
    {
        "id": "230074",
        "src640": "https://cdn.pixabay.com/photo/2013/12/17/23/26/dubai-230074_640.jpg",
        "src1280": "https://cdn.pixabay.com/photo/2013/12/17/23/26/dubai-230074_1280.jpg"
    },
    {
        "id": "6942018",
        "src640": "https://cdn.pixabay.com/photo/2022/01/16/13/25/church-6942018_640.jpg",
        "src1280": "https://cdn.pixabay.com/photo/2022/01/16/13/25/church-6942018_1280.jpg"
    },
    {
        "id": "2195693",
        "src640": "https://cdn.pixabay.com/photo/2017/04/02/12/19/building-2195693_640.jpg",
        "src1280": "https://cdn.pixabay.com/photo/2017/04/02/12/19/building-2195693_1280.jpg"
    },
    {
        "id": "5165327",
        "src640": "https://cdn.pixabay.com/photo/2020/05/13/00/42/eiffel-5165327_640.jpg",
        "src1280": "https://cdn.pixabay.com/photo/2020/05/13/00/42/eiffel-5165327_1280.jpg"
    },
    {
        "id": "322130",
        "src640": "https://cdn.pixabay.com/photo/2014/04/12/02/56/sidewalk-322130_640.jpg",
        "src1280": "https://cdn.pixabay.com/photo/2014/04/12/02/56/sidewalk-322130_1280.jpg"
    },
    {
        "id": "234045",
        "src640": "https://cdn.pixabay.com/photo/2013/12/26/18/06/prague-234045_640.jpg",
        "src1280": "https://cdn.pixabay.com/photo/2013/12/26/18/06/prague-234045_1280.jpg"
    },
    {
        "id": "686245",
        "src640": "https://cdn.pixabay.com/photo/2015/03/23/16/06/matera-686245_640.jpg",
        "src1280": "https://cdn.pixabay.com/photo/2015/03/23/16/06/matera-686245_1280.jpg"
    },
    {
        "id": "73702",
        "src640": "https://cdn.pixabay.com/photo/2013/01/05/10/48/uchisar-73702_640.jpg",
        "src1280": "https://cdn.pixabay.com/photo/2013/01/05/10/48/uchisar-73702_1280.jpg"
    },
    {
        "id": "6614122",
        "src640": "https://cdn.pixabay.com/photo/2021/09/10/20/18/man-6614122_640.jpg",
        "src1280": "https://cdn.pixabay.com/photo/2021/09/10/20/18/man-6614122_1280.jpg"
    },
    {
        "id": "6810728",
        "src640": "https://cdn.pixabay.com/photo/2021/11/20/02/49/asian-woman-6810728_640.jpg",
        "src1280": "https://cdn.pixabay.com/photo/2021/11/20/02/49/asian-woman-6810728_1280.jpg"
    },
    {
        "id": "3481655",
        "src640": "https://cdn.pixabay.com/photo/2018/06/17/23/51/manhattan-3481655_640.jpg",
        "src1280": "https://cdn.pixabay.com/photo/2018/06/17/23/51/manhattan-3481655_1280.jpg"
    },
    {
        "id": "7619509",
        "src640": "https://cdn.pixabay.com/photo/2022/11/27/11/24/buildings-7619509_640.jpg",
        "src1280": "https://cdn.pixabay.com/photo/2022/11/27/11/24/buildings-7619509_1280.jpg"
    },
    {
        "id": "2969375",
        "src640": "https://cdn.pixabay.com/photo/2017/11/21/22/20/metropolis-2969375_640.jpg",
        "src1280": "https://cdn.pixabay.com/photo/2017/11/21/22/20/metropolis-2969375_1280.jpg"
    },
    {
        "id": "824971",
        "src640": "https://cdn.pixabay.com/photo/2015/06/28/22/26/church-824971_640.jpg",
        "src1280": "https://cdn.pixabay.com/photo/2015/06/28/22/26/church-824971_1280.jpg"
    },
    {
        "id": "7060698",
        "src640": "https://cdn.pixabay.com/photo/2022/03/10/20/28/shangri-la-the-shard-7060698_640.jpg",
        "src1280": "https://cdn.pixabay.com/photo/2022/03/10/20/28/shangri-la-the-shard-7060698_1280.jpg"
    },
    {
        "id": "7986032",
        "src640": "https://cdn.pixabay.com/photo/2023/05/11/10/34/ai-generated-7986032_640.jpg",
        "src1280": "https://cdn.pixabay.com/photo/2023/05/11/10/34/ai-generated-7986032_1280.jpg"
    },
    {
        "id": "2681144",
        "src640": "https://cdn.pixabay.com/photo/2017/08/25/19/28/hero-2681144_640.jpg",
        "src1280": "https://cdn.pixabay.com/photo/2017/08/25/19/28/hero-2681144_1280.jpg"
    },
    {
        "id": "3339811",
        "src640": "https://cdn.pixabay.com/photo/2018/04/21/23/23/architecture-3339811_640.jpg",
        "src1280": "https://cdn.pixabay.com/photo/2018/04/21/23/23/architecture-3339811_1280.jpg"
    },
    {
        "id": "1603397",
        "src640": "https://cdn.pixabay.com/photo/2016/08/18/17/05/norwich-1603397_640.jpg",
        "src1280": "https://cdn.pixabay.com/photo/2016/08/18/17/05/norwich-1603397_1280.jpg"
    },
    {
        "id": "6466662",
        "src640": "https://cdn.pixabay.com/photo/2021/07/14/17/22/castle-6466662_640.jpg",
        "src1280": "https://cdn.pixabay.com/photo/2021/07/14/17/22/castle-6466662_1280.jpg"
    },
    {
        "id": "393531",
        "src640": "https://cdn.pixabay.com/photo/2014/07/14/22/53/building-393531_640.jpg",
        "src1280": "https://cdn.pixabay.com/photo/2014/07/14/22/53/building-393531_1280.jpg"
    },
    {
        "id": "6909585",
        "src640": "https://cdn.pixabay.com/photo/2022/01/02/07/20/woman-6909585_640.jpg",
        "src1280": "https://cdn.pixabay.com/photo/2022/01/02/07/20/woman-6909585_1280.jpg"
    },
    {
        "id": "1610398",
        "src640": "https://cdn.pixabay.com/photo/2016/08/21/17/52/venice-1610398_640.jpg",
        "src1280": "https://cdn.pixabay.com/photo/2016/08/21/17/52/venice-1610398_1280.jpg"
    },
    {
        "id": "361120",
        "src640": "https://cdn.pixabay.com/photo/2014/06/03/11/44/city-361120_640.jpg",
        "src1280": "https://cdn.pixabay.com/photo/2014/06/03/11/44/city-361120_1280.jpg"
    },
    {
        "id": "4353054",
        "src640": "https://cdn.pixabay.com/photo/2019/07/21/16/11/paris-4353054_640.jpg",
        "src1280": "https://cdn.pixabay.com/photo/2019/07/21/16/11/paris-4353054_1280.jpg"
    },
    {
        "id": "6882635",
        "src640": "https://cdn.pixabay.com/photo/2021/12/20/09/44/adult-6882635_640.jpg",
        "src1280": "https://cdn.pixabay.com/photo/2021/12/20/09/44/adult-6882635_1280.jpg"
    },
    {
        "id": "7211540",
        "src640": "https://cdn.pixabay.com/photo/2022/05/21/13/41/cityscape-7211540_640.jpg",
        "src1280": "https://cdn.pixabay.com/photo/2022/05/21/13/41/cityscape-7211540_1280.jpg"
    },
    {
        "id": "2939868",
        "src640": "https://cdn.pixabay.com/photo/2017/11/11/18/19/city-2939868_640.jpg",
        "src1280": "https://cdn.pixabay.com/photo/2017/11/11/18/19/city-2939868_1280.jpg"
    },
    {
        "id": "1645828",
        "src640": "https://cdn.pixabay.com/photo/2016/09/05/06/24/city-1645828_640.jpg",
        "src1280": "https://cdn.pixabay.com/photo/2016/09/05/06/24/city-1645828_1280.jpg"
    },
    {
        "id": "6766013",
        "src640": "https://cdn.pixabay.com/photo/2021/11/03/14/44/nature-6766013_640.jpg",
        "src1280": "https://cdn.pixabay.com/photo/2021/11/03/14/44/nature-6766013_1280.jpg"
    },
    {
        "id": "4728273",
        "src640": "https://cdn.pixabay.com/photo/2019/12/29/22/04/bikes-4728273_640.jpg",
        "src1280": "https://cdn.pixabay.com/photo/2019/12/29/22/04/bikes-4728273_1280.jpg"
    },
    {
        "id": "491439",
        "src640": "https://cdn.pixabay.com/photo/2014/10/16/17/25/burj-khalifa-491439_640.jpg",
        "src1280": "https://cdn.pixabay.com/photo/2014/10/16/17/25/burj-khalifa-491439_1280.jpg"
    },
    {
        "id": "5621641",
        "src640": "https://cdn.pixabay.com/photo/2020/10/02/16/41/arch-5621641_640.jpg",
        "src1280": "https://cdn.pixabay.com/photo/2020/10/02/16/41/arch-5621641_1280.jpg"
    },
    {
        "id": "3485121",
        "src640": "https://cdn.pixabay.com/photo/2018/06/19/19/33/man-3485121_640.jpg",
        "src1280": "https://cdn.pixabay.com/photo/2018/06/19/19/33/man-3485121_1280.jpg"
    },
    {
        "id": "2626598",
        "src640": "https://cdn.pixabay.com/photo/2017/08/10/19/10/architecture-2626598_640.jpg",
        "src1280": "https://cdn.pixabay.com/photo/2017/08/10/19/10/architecture-2626598_1280.jpg"
    },
    {
        "id": "6857079",
        "src640": "https://cdn.pixabay.com/photo/2021/12/09/01/57/little-girl-6857079_640.jpg",
        "src1280": "https://cdn.pixabay.com/photo/2021/12/09/01/57/little-girl-6857079_1280.jpg"
    },
    {
        "id": "4554013",
        "src640": "https://cdn.pixabay.com/photo/2019/10/16/09/48/model-4554013_640.jpg",
        "src1280": "https://cdn.pixabay.com/photo/2019/10/16/09/48/model-4554013_1280.jpg"
    },
    {
        "id": "2553452",
        "src640": "https://cdn.pixabay.com/photo/2017/07/30/04/15/cincinnati-2553452_640.jpg",
        "src1280": "https://cdn.pixabay.com/photo/2017/07/30/04/15/cincinnati-2553452_1280.jpg"
    },
    {
        "id": "7635916",
        "src640": "https://cdn.pixabay.com/photo/2022/12/05/04/27/ai-generated-7635916_640.jpg",
        "src1280": "https://cdn.pixabay.com/photo/2022/12/05/04/27/ai-generated-7635916_1280.jpg"
    },
    {
        "id": "1093078",
        "src640": "https://cdn.pixabay.com/photo/2015/12/14/19/50/italy-1093078_640.jpg",
        "src1280": "https://cdn.pixabay.com/photo/2015/12/14/19/50/italy-1093078_1280.jpg"
    },
    {
        "id": "8000989",
        "src640": "https://cdn.pixabay.com/photo/2023/05/17/20/32/tower-8000989_640.jpg",
        "src1280": "https://cdn.pixabay.com/photo/2023/05/17/20/32/tower-8000989_1280.jpg"
    },
    {
        "id": "5621646",
        "src640": "https://cdn.pixabay.com/photo/2020/10/02/16/42/tram-5621646_640.jpg",
        "src1280": "https://cdn.pixabay.com/photo/2020/10/02/16/42/tram-5621646_1280.jpg"
    },
    {
        "id": "7734359",
        "src640": "https://cdn.pixabay.com/photo/2023/01/21/15/18/ai-generated-7734359_640.jpg",
        "src1280": "https://cdn.pixabay.com/photo/2023/01/21/15/18/ai-generated-7734359_1280.jpg"
    },
    {
        "id": "843473",
        "src640": "https://cdn.pixabay.com/photo/2015/07/13/17/08/houses-843473_640.jpg",
        "src1280": "https://cdn.pixabay.com/photo/2015/07/13/17/08/houses-843473_1280.jpg"
    },
    {
        "id": "8005420",
        "src640": "https://cdn.pixabay.com/photo/2023/05/19/21/40/tower-8005420_640.jpg",
        "src1280": "https://cdn.pixabay.com/photo/2023/05/19/21/40/tower-8005420_1280.jpg"
    },
    {
        "id": "7276467",
        "src640": "https://cdn.pixabay.com/photo/2022/06/21/20/40/street-7276467_640.jpg",
        "src1280": "https://cdn.pixabay.com/photo/2022/06/21/20/40/street-7276467_1280.jpg"
    },
    {
        "id": "432678",
        "src640": "https://cdn.pixabay.com/photo/2014/09/01/10/28/jackdaw-432678_640.jpg",
        "src1280": "https://cdn.pixabay.com/photo/2014/09/01/10/28/jackdaw-432678_1280.jpg"
    },
    {
        "id": "4847247",
        "src640": "https://cdn.pixabay.com/photo/2020/02/14/01/07/france-4847247_640.jpg",
        "src1280": "https://cdn.pixabay.com/photo/2020/02/14/01/07/france-4847247_1280.jpg"
    },
    {
        "id": "3329768",
        "src640": "https://cdn.pixabay.com/photo/2018/04/18/08/23/wheel-3329768_640.jpg",
        "src1280": "https://cdn.pixabay.com/photo/2018/04/18/08/23/wheel-3329768_1280.jpg"
    },
    {
        "id": "208309",
        "src640": "https://cdn.pixabay.com/photo/2013/11/10/14/49/cragan-palace-208309_640.jpg",
        "src1280": "https://cdn.pixabay.com/photo/2013/11/10/14/49/cragan-palace-208309_1280.jpg"
    },
    {
        "id": "890353",
        "src640": "https://cdn.pixabay.com/photo/2015/08/15/23/45/willis-towers-890353_640.jpg",
        "src1280": "https://cdn.pixabay.com/photo/2015/08/15/23/45/willis-towers-890353_1280.jpg"
    },
    {
        "id": "2077456",
        "src640": "https://cdn.pixabay.com/photo/2017/02/18/15/39/church-2077456_640.jpg",
        "src1280": "https://cdn.pixabay.com/photo/2017/02/18/15/39/church-2077456_1280.jpg"
    },
    {
        "id": "220022",
        "src640": "https://cdn.pixabay.com/photo/2013/11/28/10/04/street-220022_640.jpg",
        "src1280": "https://cdn.pixabay.com/photo/2013/11/28/10/04/street-220022_1280.jpg"
    },
    {
        "id": "4028744",
        "src640": "https://cdn.pixabay.com/photo/2019/03/01/21/37/brooklyn-4028744_640.jpg",
        "src1280": "https://cdn.pixabay.com/photo/2019/03/01/21/37/brooklyn-4028744_1280.jpg"
    },
    {
        "id": "3274746",
        "src640": "https://cdn.pixabay.com/photo/2018/03/30/09/00/street-art-3274746_640.jpg",
        "src1280": "https://cdn.pixabay.com/photo/2018/03/30/09/00/street-art-3274746_1280.jpg"
    },
    {
        "id": "5128631",
        "src640": "https://cdn.pixabay.com/photo/2020/05/04/10/38/city-5128631_640.jpg",
        "src1280": "https://cdn.pixabay.com/photo/2020/05/04/10/38/city-5128631_1280.jpg"
    },
    {
        "id": "6974331",
        "src640": "https://cdn.pixabay.com/photo/2022/01/28/10/36/boxer-6974331_640.jpg",
        "src1280": "https://cdn.pixabay.com/photo/2022/01/28/10/36/boxer-6974331_1280.jpg"
    },
    {
        "id": "5973338",
        "src640": "https://cdn.pixabay.com/photo/2021/02/02/10/01/skeldergate-bridge-5973338_640.jpg",
        "src1280": "https://cdn.pixabay.com/photo/2021/02/02/10/01/skeldergate-bridge-5973338_1280.jpg"
    },
    {
        "id": "65018",
        "src640": "https://cdn.pixabay.com/photo/2012/11/07/02/42/uchisar-65018_640.jpg",
        "src1280": "https://cdn.pixabay.com/photo/2012/11/07/02/42/uchisar-65018_1280.jpg"
    },
    {
        "id": "3045319",
        "src640": "https://cdn.pixabay.com/photo/2017/12/28/14/19/portrait-of-a-white-horse-3045319_640.jpg",
        "src1280": "https://cdn.pixabay.com/photo/2017/12/28/14/19/portrait-of-a-white-horse-3045319_1280.jpg"
    },
    {
        "id": "4374749",
        "src640": "https://cdn.pixabay.com/photo/2019/07/31/08/55/munich-4374749_640.jpg",
        "src1280": "https://cdn.pixabay.com/photo/2019/07/31/08/55/munich-4374749_1280.jpg"
    },
    {
        "id": "2692469",
        "src640": "https://cdn.pixabay.com/photo/2017/08/29/08/42/church-2692469_640.jpg",
        "src1280": "https://cdn.pixabay.com/photo/2017/08/29/08/42/church-2692469_1280.jpg"
    },
    {
        "id": "8244389",
        "src640": "https://cdn.pixabay.com/photo/2023/09/10/07/46/girl-8244389_640.jpg",
        "src1280": "https://cdn.pixabay.com/photo/2023/09/10/07/46/girl-8244389_1280.jpg"
    },
    {
        "id": "3048757",
        "src640": "https://cdn.pixabay.com/photo/2017/12/29/21/37/architecture-3048757_640.jpg",
        "src1280": "https://cdn.pixabay.com/photo/2017/12/29/21/37/architecture-3048757_1280.jpg"
    },
    {
        "id": "4986622",
        "src640": "https://cdn.pixabay.com/photo/2020/03/31/08/07/gorgeous-4986622_640.jpg",
        "src1280": "https://cdn.pixabay.com/photo/2020/03/31/08/07/gorgeous-4986622_1280.jpg"
    },
    {
        "id": "7571916",
        "src640": "https://cdn.pixabay.com/photo/2022/11/05/14/21/girl-7571916_640.jpg",
        "src1280": "https://cdn.pixabay.com/photo/2022/11/05/14/21/girl-7571916_1280.jpg"
    },
    {
        "id": "669816",
        "src640": "https://cdn.pixabay.com/photo/2015/03/12/08/15/girl-669816_640.jpg",
        "src1280": "https://cdn.pixabay.com/photo/2015/03/12/08/15/girl-669816_1280.jpg"
    },
    {
        "id": "2725911",
        "src640": "https://cdn.pixabay.com/photo/2017/09/07/16/49/acropolis-2725911_640.jpg",
        "src1280": "https://cdn.pixabay.com/photo/2017/09/07/16/49/acropolis-2725911_1280.jpg"
    },
    {
        "id": "7772033",
        "src640": "https://cdn.pixabay.com/photo/2023/02/06/13/25/ai-generated-7772033_640.jpg",
        "src1280": "https://cdn.pixabay.com/photo/2023/02/06/13/25/ai-generated-7772033_1280.jpg"
    },
    {
        "id": "4242348",
        "src640": "https://cdn.pixabay.com/photo/2019/05/31/15/06/poverty-4242348_640.jpg",
        "src1280": "https://cdn.pixabay.com/photo/2019/05/31/15/06/poverty-4242348_1280.jpg"
    },
    {
        "id": "322464",
        "src640": "https://cdn.pixabay.com/photo/2014/04/12/14/55/political-322464_640.jpg",
        "src1280": "https://cdn.pixabay.com/photo/2014/04/12/14/55/political-322464_1280.jpg"
    },
    {
        "id": "579054",
        "src640": "https://cdn.pixabay.com/photo/2014/12/24/11/49/building-579054_640.jpg",
        "src1280": "https://cdn.pixabay.com/photo/2014/12/24/11/49/building-579054_1280.jpg"
    },
    {
        "id": "2408050",
        "src640": "https://cdn.pixabay.com/photo/2017/06/16/07/12/taipei-101-2408050_640.jpg",
        "src1280": "https://cdn.pixabay.com/photo/2017/06/16/07/12/taipei-101-2408050_1280.jpg"
    },
    {
        "id": "1559111",
        "src640": "https://cdn.pixabay.com/photo/2016/07/31/15/30/new-york-1559111_640.jpg",
        "src1280": "https://cdn.pixabay.com/photo/2016/07/31/15/30/new-york-1559111_1280.jpg"
    },
    {
        "id": "806728",
        "src640": "https://cdn.pixabay.com/photo/2015/06/12/11/12/granada-806728_640.jpg",
        "src1280": "https://cdn.pixabay.com/photo/2015/06/12/11/12/granada-806728_1280.jpg"
    },
    {
        "id": "8364830",
        "src640": "https://cdn.pixabay.com/photo/2023/11/04/12/48/cat-8364830_640.jpg",
        "src1280": "https://cdn.pixabay.com/photo/2023/11/04/12/48/cat-8364830_1280.jpg"
    },
    {
        "id": "5557634",
        "src640": "https://cdn.pixabay.com/photo/2020/09/09/13/23/facade-5557634_640.jpg",
        "src1280": "https://cdn.pixabay.com/photo/2020/09/09/13/23/facade-5557634_1280.jpg"
    },
    {
        "id": "2514557",
        "src640": "https://cdn.pixabay.com/photo/2017/07/18/02/20/parkour-2514557_640.jpg",
        "src1280": "https://cdn.pixabay.com/photo/2017/07/18/02/20/parkour-2514557_1280.jpg"
    },
    {
        "id": "1142025",
        "src640": "https://cdn.pixabay.com/photo/2016/01/15/16/47/night-1142025_640.jpg",
        "src1280": "https://cdn.pixabay.com/photo/2016/01/15/16/47/night-1142025_1280.jpg"
    },
    {
        "id": "2902066",
        "src640": "https://cdn.pixabay.com/photo/2017/10/30/10/45/sunset-2902066_640.jpg",
        "src1280": "https://cdn.pixabay.com/photo/2017/10/30/10/45/sunset-2902066_1280.jpg"
    }
]