[
    {
        "id": "897543",
        "src640": "https://cdn.pixabay.com/photo/2015/08/20/15/10/moscow-897543_640.jpg",
        "src1280": "https://cdn.pixabay.com/photo/2015/08/20/15/10/moscow-897543_1280.jpg"
    },
    {
        "id": "7099179",
        "src640": "https://cdn.pixabay.com/photo/2022/03/29/10/18/hair-stylist-7099179_640.jpg",
        "src1280": "https://cdn.pixabay.com/photo/2022/03/29/10/18/hair-stylist-7099179_1280.jpg"
    },
    {
        "id": "1355591",
        "src640": "https://cdn.pixabay.com/photo/2016/04/26/23/21/bath-1355591_640.jpg",
        "src1280": "https://cdn.pixabay.com/photo/2016/04/26/23/21/bath-1355591_1280.jpg"
    },
    {
        "id": "3262133",
        "src640": "https://cdn.pixabay.com/photo/2018/03/26/10/07/building-3262133_640.jpg",
        "src1280": "https://cdn.pixabay.com/photo/2018/03/26/10/07/building-3262133_1280.jpg"
    },
    {
        "id": "7429293",
        "src640": "https://cdn.pixabay.com/photo/2022/09/03/10/58/elbphilharmonie-7429293_640.jpg",
        "src1280": "https://cdn.pixabay.com/photo/2022/09/03/10/58/elbphilharmonie-7429293_1280.jpg"
    },
    {
        "id": "5794470",
        "src640": "https://cdn.pixabay.com/photo/2020/12/01/14/26/buildings-5794470_640.jpg",
        "src1280": "https://cdn.pixabay.com/photo/2020/12/01/14/26/buildings-5794470_1280.jpg"
    },
    {
        "id": "3576278",
        "src640": "https://cdn.pixabay.com/photo/2018/08/01/00/16/architecture-3576278_640.jpg",
        "src1280": "https://cdn.pixabay.com/photo/2018/08/01/00/16/architecture-3576278_1280.jpg"
    },
    {
        "id": "5253807",
        "src640": "https://cdn.pixabay.com/photo/2020/06/03/07/33/city-5253807_640.jpg",
        "src1280": "https://cdn.pixabay.com/photo/2020/06/03/07/33/city-5253807_1280.jpg"
    },
    {
        "id": "69430",
        "src640": "https://cdn.pixabay.com/photo/2012/12/11/21/28/city-69430_640.jpg",
        "src1280": "https://cdn.pixabay.com/photo/2012/12/11/21/28/city-69430_1280.jpg"
    },
    {
        "id": "2559123",
        "src640": "https://cdn.pixabay.com/photo/2017/07/31/17/19/green-2559123_640.jpg",
        "src1280": "https://cdn.pixabay.com/photo/2017/07/31/17/19/green-2559123_1280.jpg"
    },
    {
        "id": "8345416",
        "src640": "https://cdn.pixabay.com/photo/2023/10/27/14/08/spider-man-8345416_640.jpg",
        "src1280": "https://cdn.pixabay.com/photo/2023/10/27/14/08/spider-man-8345416_1280.jpg"
    },
    {
        "id": "7423604",
        "src640": "https://cdn.pixabay.com/photo/2022/08/31/15/08/seoul-7423604_640.jpg",
        "src1280": "https://cdn.pixabay.com/photo/2022/08/31/15/08/seoul-7423604_1280.jpg"
    },
    {
        "id": "5679348",
        "src640": "https://cdn.pixabay.com/photo/2020/10/23/17/17/taxi-5679348_640.jpg",
        "src1280": "https://cdn.pixabay.com/photo/2020/10/23/17/17/taxi-5679348_1280.jpg"
    },
    {
        "id": "883765",
        "src640": "https://cdn.pixabay.com/photo/2015/08/11/10/31/building-883765_640.jpg",
        "src1280": "https://cdn.pixabay.com/photo/2015/08/11/10/31/building-883765_1280.jpg"
    },
    {
        "id": "696682",
        "src640": "https://cdn.pixabay.com/photo/2015/03/28/23/35/border-collie-696682_640.jpg",
        "src1280": "https://cdn.pixabay.com/photo/2015/03/28/23/35/border-collie-696682_1280.jpg"
    },
    {
        "id": "1495272",
        "src640": "https://cdn.pixabay.com/photo/2016/07/03/18/35/church-1495272_640.jpg",
        "src1280": "https://cdn.pixabay.com/photo/2016/07/03/18/35/church-1495272_1280.jpg"
    },
    {
        "id": "798383",
        "src640": "https://cdn.pixabay.com/photo/2015/06/05/12/30/obelisk-798383_640.jpg",
        "src1280": "https://cdn.pixabay.com/photo/2015/06/05/12/30/obelisk-798383_1280.jpg"
    },
    {
        "id": "3887478",
        "src640": "https://cdn.pixabay.com/photo/2018/12/21/08/41/seville-3887478_640.jpg",
        "src1280": "https://cdn.pixabay.com/photo/2018/12/21/08/41/seville-3887478_1280.jpg"
    },
    {
        "id": "7037965",
        "src640": "https://cdn.pixabay.com/photo/2022/02/27/19/44/paris-7037965_640.jpg",
        "src1280": "https://cdn.pixabay.com/photo/2022/02/27/19/44/paris-7037965_1280.jpg"
    },
    {
        "id": "2857920",
        "src640": "https://cdn.pixabay.com/photo/2017/10/16/17/40/cliche-2857920_640.jpg",
        "src1280": "https://cdn.pixabay.com/photo/2017/10/16/17/40/cliche-2857920_1280.jpg"
    },
    {
        "id": "3258262",
        "src640": "https://cdn.pixabay.com/photo/2018/03/24/23/17/architecture-3258262_640.jpg",
        "src1280": "https://cdn.pixabay.com/photo/2018/03/24/23/17/architecture-3258262_1280.jpg"
    },
    {
        "id": "7188864",
        "src640": "https://cdn.pixabay.com/photo/2022/05/11/09/08/buildings-7188864_640.jpg",
        "src1280": "https://cdn.pixabay.com/photo/2022/05/11/09/08/buildings-7188864_1280.jpg"
    },
    {
        "id": "5556114",
        "src640": "https://cdn.pixabay.com/photo/2020/09/09/00/05/bike-5556114_640.jpg",
        "src1280": "https://cdn.pixabay.com/photo/2020/09/09/00/05/bike-5556114_1280.jpg"
    },
    {
        "id": "8129469",
        "src640": "https://cdn.pixabay.com/photo/2023/07/15/18/43/woman-8129469_640.jpg",
        "src1280": "https://cdn.pixabay.com/photo/2023/07/15/18/43/woman-8129469_1280.jpg"
    },
    {
        "id": "5169226",
        "src640": "https://cdn.pixabay.com/photo/2020/05/13/22/38/russia-5169226_640.jpg",
        "src1280": "https://cdn.pixabay.com/photo/2020/05/13/22/38/russia-5169226_1280.jpg"
    },
    {
        "id": "5052103",
        "src640": "https://cdn.pixabay.com/photo/2020/04/16/19/33/city-5052103_640.jpg",
        "src1280": "https://cdn.pixabay.com/photo/2020/04/16/19/33/city-5052103_1280.jpg"
    },
    {
        "id": "4362914",
        "src640": "https://cdn.pixabay.com/photo/2019/07/25/15/47/nyc-4362914_640.jpg",
        "src1280": "https://cdn.pixabay.com/photo/2019/07/25/15/47/nyc-4362914_1280.jpg"
    },
    {
        "id": "4346067",
        "src640": "https://cdn.pixabay.com/photo/2019/07/18/10/24/architecture-4346067_640.jpg",
        "src1280": "https://cdn.pixabay.com/photo/2019/07/18/10/24/architecture-4346067_1280.jpg"
    },
    {
        "id": "4519326",
        "src640": "https://cdn.pixabay.com/photo/2019/10/01/20/31/nice-4519326_640.jpg",
        "src1280": "https://cdn.pixabay.com/photo/2019/10/01/20/31/nice-4519326_1280.jpg"
    },
    {
        "id": "3847683",
        "src640": "https://cdn.pixabay.com/photo/2018/11/30/12/48/prague-3847683_640.jpg",
        "src1280": "https://cdn.pixabay.com/photo/2018/11/30/12/48/prague-3847683_1280.jpg"
    },
    {
        "id": "778427",
        "src640": "https://cdn.pixabay.com/photo/2015/05/22/08/09/bedroom-778427_640.jpg",
        "src1280": "https://cdn.pixabay.com/photo/2015/05/22/08/09/bedroom-778427_1280.jpg"
    },
    {
        "id": "8265441",
        "src640": "https://cdn.pixabay.com/photo/2023/09/20/19/03/bike-8265441_640.jpg",
        "src1280": "https://cdn.pixabay.com/photo/2023/09/20/19/03/bike-8265441_1280.jpg"
    },
    {
        "id": "2669",
        "src640": "https://cdn.pixabay.com/photo/2010/12/13/10/20/westminster-2669_640.jpg",
        "src1280": "https://cdn.pixabay.com/photo/2010/12/13/10/20/westminster-2669_1280.jpg"
    },
    {
        "id": "1545605",
        "src640": "https://cdn.pixabay.com/photo/2016/07/27/15/50/barcelona-1545605_640.jpg",
        "src1280": "https://cdn.pixabay.com/photo/2016/07/27/15/50/barcelona-1545605_1280.jpg"
    },
    {
        "id": "3187255",
        "src640": "https://cdn.pixabay.com/photo/2018/02/28/05/36/people-3187255_640.jpg",
        "src1280": "https://cdn.pixabay.com/photo/2018/02/28/05/36/people-3187255_1280.jpg"
    },
    {
        "id": "2102186",
        "src640": "https://cdn.pixabay.com/photo/2017/02/27/05/19/nature-2102186_640.jpg",
        "src1280": "https://cdn.pixabay.com/photo/2017/02/27/05/19/nature-2102186_1280.jpg"
    },
    {
        "id": "799923",
        "src640": "https://cdn.pixabay.com/photo/2015/06/06/22/01/london-799923_640.jpg",
        "src1280": "https://cdn.pixabay.com/photo/2015/06/06/22/01/london-799923_1280.jpg"
    },
    {
        "id": "3509248",
        "src640": "https://cdn.pixabay.com/photo/2018/07/01/11/48/girl-3509248_640.jpg",
        "src1280": "https://cdn.pixabay.com/photo/2018/07/01/11/48/girl-3509248_1280.jpg"
    },
    {
        "id": "3196718",
        "src640": "https://cdn.pixabay.com/photo/2018/03/03/22/11/portal-3196718_640.jpg",
        "src1280": "https://cdn.pixabay.com/photo/2018/03/03/22/11/portal-3196718_1280.jpg"
    },
    {
        "id": "13873",
        "src640": "https://cdn.pixabay.com/photo/2012/02/17/09/02/cat-13873_640.jpg",
        "src1280": "https://cdn.pixabay.com/photo/2012/02/17/09/02/cat-13873_1280.jpg"
    },
    {
        "id": "3259840",
        "src640": "https://cdn.pixabay.com/photo/2018/03/25/16/12/architecture-3259840_640.jpg",
        "src1280": "https://cdn.pixabay.com/photo/2018/03/25/16/12/architecture-3259840_1280.jpg"
    },
    {
        "id": "6567673",
        "src640": "https://cdn.pixabay.com/photo/2021/08/23/12/20/stairs-6567673_640.jpg",
        "src1280": "https://cdn.pixabay.com/photo/2021/08/23/12/20/stairs-6567673_1280.jpg"
    },
    {
        "id": "775527",
        "src640": "https://cdn.pixabay.com/photo/2015/05/20/14/35/paris-775527_640.jpg",
        "src1280": "https://cdn.pixabay.com/photo/2015/05/20/14/35/paris-775527_1280.jpg"
    },
    {
        "id": "95261",
        "src640": "https://cdn.pixabay.com/photo/2013/03/20/14/39/tree-95261_640.jpg",
        "src1280": "https://cdn.pixabay.com/photo/2013/03/20/14/39/tree-95261_1280.jpg"
    },
    {
        "id": "5112096",
        "src640": "https://cdn.pixabay.com/photo/2020/04/30/09/39/landscape-5112096_640.jpg",
        "src1280": "https://cdn.pixabay.com/photo/2020/04/30/09/39/landscape-5112096_1280.jpg"
    },
    {
        "id": "7970191",
        "src640": "https://cdn.pixabay.com/photo/2023/05/04/14/01/woman-7970191_640.jpg",
        "src1280": "https://cdn.pixabay.com/photo/2023/05/04/14/01/woman-7970191_1280.jpg"
    },
    {
        "id": "7359022",
        "src640": "https://cdn.pixabay.com/photo/2022/08/01/21/34/road-7359022_640.jpg",
        "src1280": "https://cdn.pixabay.com/photo/2022/08/01/21/34/road-7359022_1280.jpg"
    },
    {
        "id": "4440796",
        "src640": "https://cdn.pixabay.com/photo/2019/08/30/08/56/kaysersberg-4440796_640.jpg",
        "src1280": "https://cdn.pixabay.com/photo/2019/08/30/08/56/kaysersberg-4440796_1280.jpg"
    },
    {
        "id": "7557210",
        "src640": "https://cdn.pixabay.com/photo/2022/10/30/10/58/street-7557210_640.jpg",
        "src1280": "https://cdn.pixabay.com/photo/2022/10/30/10/58/street-7557210_1280.jpg"
    },
    {
        "id": "7077912",
        "src640": "https://cdn.pixabay.com/photo/2022/03/19/05/46/buildings-7077912_640.jpg",
        "src1280": "https://cdn.pixabay.com/photo/2022/03/19/05/46/buildings-7077912_1280.jpg"
    },
    {
        "id": "8315559",
        "src640": "https://cdn.pixabay.com/photo/2023/10/14/18/43/woman-8315559_640.jpg",
        "src1280": "https://cdn.pixabay.com/photo/2023/10/14/18/43/woman-8315559_1280.jpg"
    },
    {
        "id": "3921187",
        "src640": "https://cdn.pixabay.com/photo/2019/01/08/13/07/new-york-3921187_640.jpg",
        "src1280": "https://cdn.pixabay.com/photo/2019/01/08/13/07/new-york-3921187_1280.jpg"
    },
    {
        "id": "5957941",
        "src640": "https://cdn.pixabay.com/photo/2021/01/28/12/59/kyiv-pechersk-lavra-5957941_640.jpg",
        "src1280": "https://cdn.pixabay.com/photo/2021/01/28/12/59/kyiv-pechersk-lavra-5957941_1280.jpg"
    },
    {
        "id": "57826",
        "src640": "https://cdn.pixabay.com/photo/2012/09/23/09/03/fountain-57826_640.jpg",
        "src1280": "https://cdn.pixabay.com/photo/2012/09/23/09/03/fountain-57826_1280.jpg"
    },
    {
        "id": "5167231",
        "src640": "https://cdn.pixabay.com/photo/2020/05/13/12/08/woman-5167231_640.jpg",
        "src1280": "https://cdn.pixabay.com/photo/2020/05/13/12/08/woman-5167231_1280.jpg"
    },
    {
        "id": "4244580",
        "src640": "https://cdn.pixabay.com/photo/2019/06/01/17/27/wall-4244580_640.jpg",
        "src1280": "https://cdn.pixabay.com/photo/2019/06/01/17/27/wall-4244580_1280.jpg"
    },
    {
        "id": "599467",
        "src640": "https://cdn.pixabay.com/photo/2015/01/14/18/40/wheel-599467_640.jpg",
        "src1280": "https://cdn.pixabay.com/photo/2015/01/14/18/40/wheel-599467_1280.jpg"
    },
    {
        "id": "949827",
        "src640": "https://cdn.pixabay.com/photo/2015/09/21/13/12/naturehistorical-museum-949827_640.jpg",
        "src1280": "https://cdn.pixabay.com/photo/2015/09/21/13/12/naturehistorical-museum-949827_1280.jpg"
    },
    {
        "id": "8259129",
        "src640": "https://cdn.pixabay.com/photo/2023/09/17/18/26/girls-8259129_640.jpg",
        "src1280": "https://cdn.pixabay.com/photo/2023/09/17/18/26/girls-8259129_1280.jpg"
    },
    {
        "id": "4737215",
        "src640": "https://cdn.pixabay.com/photo/2020/01/03/02/04/regents-park-4737215_640.jpg",
        "src1280": "https://cdn.pixabay.com/photo/2020/01/03/02/04/regents-park-4737215_1280.jpg"
    },
    {
        "id": "933047",
        "src640": "https://cdn.pixabay.com/photo/2015/09/09/20/15/utrecht-933047_640.jpg",
        "src1280": "https://cdn.pixabay.com/photo/2015/09/09/20/15/utrecht-933047_1280.jpg"
    },
    {
        "id": "4948475",
        "src640": "https://cdn.pixabay.com/photo/2020/03/19/19/20/city-4948475_640.jpg",
        "src1280": "https://cdn.pixabay.com/photo/2020/03/19/19/20/city-4948475_1280.jpg"
    },
    {
        "id": "2725921",
        "src640": "https://cdn.pixabay.com/photo/2017/09/07/16/50/acropolis-2725921_640.jpg",
        "src1280": "https://cdn.pixabay.com/photo/2017/09/07/16/50/acropolis-2725921_1280.jpg"
    },
    {
        "id": "3760577",
        "src640": "https://cdn.pixabay.com/photo/2018/10/20/11/09/alley-3760577_640.jpg",
        "src1280": "https://cdn.pixabay.com/photo/2018/10/20/11/09/alley-3760577_1280.jpg"
    },
    {
        "id": "8365702",
        "src640": "https://cdn.pixabay.com/photo/2023/11/04/19/18/man-8365702_640.jpg",
        "src1280": "https://cdn.pixabay.com/photo/2023/11/04/19/18/man-8365702_1280.jpg"
    },
    {
        "id": "1029295",
        "src640": "https://cdn.pixabay.com/photo/2015/11/06/15/55/berlin-1029295_640.jpg",
        "src1280": "https://cdn.pixabay.com/photo/2015/11/06/15/55/berlin-1029295_1280.jpg"
    },
    {
        "id": "6058311",
        "src640": "https://cdn.pixabay.com/photo/2021/02/28/22/35/castle-6058311_640.jpg",
        "src1280": "https://cdn.pixabay.com/photo/2021/02/28/22/35/castle-6058311_1280.jpg"
    },
    {
        "id": "11197",
        "src640": "https://cdn.pixabay.com/photo/2011/12/17/00/33/traffic-lights-11197_640.jpg",
        "src1280": "https://cdn.pixabay.com/photo/2011/12/17/00/33/traffic-lights-11197_1280.jpg"
    },
    {
        "id": "5747103",
        "src640": "https://cdn.pixabay.com/photo/2020/11/15/20/18/buildings-5747103_640.jpg",
        "src1280": "https://cdn.pixabay.com/photo/2020/11/15/20/18/buildings-5747103_1280.jpg"
    },
    {
        "id": "174693",
        "src640": "https://cdn.pixabay.com/photo/2013/08/22/10/52/venice-174693_640.jpg",
        "src1280": "https://cdn.pixabay.com/photo/2013/08/22/10/52/venice-174693_1280.jpg"
    },
    {
        "id": "6762509",
        "src640": "https://cdn.pixabay.com/photo/2021/11/02/06/24/motorbike-6762509_640.jpg",
        "src1280": "https://cdn.pixabay.com/photo/2021/11/02/06/24/motorbike-6762509_1280.jpg"
    },
    {
        "id": "3195958",
        "src640": "https://cdn.pixabay.com/photo/2018/03/03/16/05/city-3195958_640.jpg",
        "src1280": "https://cdn.pixabay.com/photo/2018/03/03/16/05/city-3195958_1280.jpg"
    },
    {
        "id": "6519557",
        "src640": "https://cdn.pixabay.com/photo/2021/08/03/14/00/church-6519557_640.jpg",
        "src1280": "https://cdn.pixabay.com/photo/2021/08/03/14/00/church-6519557_1280.jpg"
    },
    {
        "id": "1780534",
        "src640": "https://cdn.pixabay.com/photo/2016/10/29/12/21/arcade-1780534_640.jpg",
        "src1280": "https://cdn.pixabay.com/photo/2016/10/29/12/21/arcade-1780534_1280.jpg"
    },
    {
        "id": "2555440",
        "src640": "https://cdn.pixabay.com/photo/2017/07/30/20/00/amsterdam-2555440_640.jpg",
        "src1280": "https://cdn.pixabay.com/photo/2017/07/30/20/00/amsterdam-2555440_1280.jpg"
    },
    {
        "id": "7665586",
        "src640": "https://cdn.pixabay.com/photo/2022/12/19/12/39/city-7665586_640.jpg",
        "src1280": "https://cdn.pixabay.com/photo/2022/12/19/12/39/city-7665586_1280.jpg"
    },
    {
        "id": "66",
        "src640": "https://cdn.pixabay.com/photo/2010/11/25/new-zealand-66_640.jpg",
        "src1280": "https://cdn.pixabay.com/photo/2010/11/25/new-zealand-66_1280.jpg"
    },
    {
        "id": "4902200",
        "src640": "https://cdn.pixabay.com/photo/2020/03/04/17/14/city-lights-4902200_640.jpg",
        "src1280": "https://cdn.pixabay.com/photo/2020/03/04/17/14/city-lights-4902200_1280.jpg"
    },
    {
        "id": "966182",
        "src640": "https://cdn.pixabay.com/photo/2015/09/30/22/41/slovakia-966182_640.jpg",
        "src1280": "https://cdn.pixabay.com/photo/2015/09/30/22/41/slovakia-966182_1280.jpg"
    },
    {
        "id": "8156293",
        "src640": "https://cdn.pixabay.com/photo/2023/07/29/06/13/buildings-8156293_640.jpg",
        "src1280": "https://cdn.pixabay.com/photo/2023/07/29/06/13/buildings-8156293_1280.jpg"
    },
    {
        "id": "4400650",
        "src640": "https://cdn.pixabay.com/photo/2019/08/12/08/07/central-station-4400650_640.jpg",
        "src1280": "https://cdn.pixabay.com/photo/2019/08/12/08/07/central-station-4400650_1280.jpg"
    },
    {
        "id": "7857578",
        "src640": "https://cdn.pixabay.com/photo/2023/03/16/21/37/reflection-7857578_640.jpg",
        "src1280": "https://cdn.pixabay.com/photo/2023/03/16/21/37/reflection-7857578_1280.jpg"
    },
    {
        "id": "3285709",
        "src640": "https://cdn.pixabay.com/photo/2018/04/03/01/46/frankfurt-main-3285709_640.jpg",
        "src1280": "https://cdn.pixabay.com/photo/2018/04/03/01/46/frankfurt-main-3285709_1280.jpg"
    },
    {
        "id": "4781659",
        "src640": "https://cdn.pixabay.com/photo/2020/01/20/23/01/girl-4781659_640.jpg",
        "src1280": "https://cdn.pixabay.com/photo/2020/01/20/23/01/girl-4781659_1280.jpg"
    },
    {
        "id": "4014479",
        "src640": "https://cdn.pixabay.com/photo/2019/02/22/21/38/berlin-4014479_640.jpg",
        "src1280": "https://cdn.pixabay.com/photo/2019/02/22/21/38/berlin-4014479_1280.jpg"
    },
    {
        "id": "8243606",
        "src640": "https://cdn.pixabay.com/photo/2023/09/09/18/16/moon-8243606_640.jpg",
        "src1280": "https://cdn.pixabay.com/photo/2023/09/09/18/16/moon-8243606_1280.jpg"
    },
    {
        "id": "4505987",
        "src640": "https://cdn.pixabay.com/photo/2019/09/26/13/36/clock-4505987_640.jpg",
        "src1280": "https://cdn.pixabay.com/photo/2019/09/26/13/36/clock-4505987_1280.jpg"
    },
    {
        "id": "5032060",
        "src640": "https://cdn.pixabay.com/photo/2020/04/11/21/11/space-5032060_640.jpg",
        "src1280": "https://cdn.pixabay.com/photo/2020/04/11/21/11/space-5032060_1280.jpg"
    },
    {
        "id": "92445",
        "src640": "https://cdn.pixabay.com/photo/2013/03/11/12/44/san-francisco-92445_640.jpg",
        "src1280": "https://cdn.pixabay.com/photo/2013/03/11/12/44/san-francisco-92445_1280.jpg"
    },
    {
        "id": "5324170",
        "src640": "https://cdn.pixabay.com/photo/2020/06/21/09/54/cranes-5324170_640.jpg",
        "src1280": "https://cdn.pixabay.com/photo/2020/06/21/09/54/cranes-5324170_1280.jpg"
    },
    {
        "id": "7242503",
        "src640": "https://cdn.pixabay.com/photo/2022/06/04/17/58/gothenburg-7242503_640.jpg",
        "src1280": "https://cdn.pixabay.com/photo/2022/06/04/17/58/gothenburg-7242503_1280.jpg"
    },
    {
        "id": "5375309",
        "src640": "https://cdn.pixabay.com/photo/2020/07/06/04/05/queen-victoria-market-5375309_640.jpg",
        "src1280": "https://cdn.pixabay.com/photo/2020/07/06/04/05/queen-victoria-market-5375309_1280.jpg"
    },
    {
        "id": "7332517",
        "src640": "https://cdn.pixabay.com/photo/2022/07/19/16/46/tailor-7332517_640.jpg",
        "src1280": "https://cdn.pixabay.com/photo/2022/07/19/16/46/tailor-7332517_1280.jpg"
    },
    {
        "id": "2909184",
        "src640": "https://cdn.pixabay.com/photo/2017/11/01/19/51/mannheim-2909184_640.jpg",
        "src1280": "https://cdn.pixabay.com/photo/2017/11/01/19/51/mannheim-2909184_1280.jpg"
    },
    {
        "id": "7450794",
        "src640": "https://cdn.pixabay.com/photo/2022/09/13/03/08/city-7450794_640.jpg",
        "src1280": "https://cdn.pixabay.com/photo/2022/09/13/03/08/city-7450794_1280.jpg"
    }
]