[
    {
        "id": "493830",
        "src640": "https://cdn.pixabay.com/photo/2014/10/18/23/05/city-hall-493830_640.jpg",
        "src1280": "https://cdn.pixabay.com/photo/2014/10/18/23/05/city-hall-493830_1280.jpg"
    },
    {
        "id": "4499656",
        "src640": "https://cdn.pixabay.com/photo/2019/09/23/20/21/new-york-4499656_640.jpg",
        "src1280": "https://cdn.pixabay.com/photo/2019/09/23/20/21/new-york-4499656_1280.jpg"
    },
    {
        "id": "2528107",
        "src640": "https://cdn.pixabay.com/photo/2017/07/22/08/46/lantern-2528107_640.jpg",
        "src1280": "https://cdn.pixabay.com/photo/2017/07/22/08/46/lantern-2528107_1280.jpg"
    },
    {
        "id": "7996025",
        "src640": "https://cdn.pixabay.com/photo/2023/05/15/21/04/woman-7996025_640.jpg",
        "src1280": "https://cdn.pixabay.com/photo/2023/05/15/21/04/woman-7996025_1280.jpg"
    },
    {
        "id": "7669253",
        "src640": "https://cdn.pixabay.com/photo/2022/12/21/05/59/woman-7669253_640.jpg",
        "src1280": "https://cdn.pixabay.com/photo/2022/12/21/05/59/woman-7669253_1280.jpg"
    },
    {
        "id": "2582033",
        "src640": "https://cdn.pixabay.com/photo/2017/08/05/01/43/sculpture-2582033_640.jpg",
        "src1280": "https://cdn.pixabay.com/photo/2017/08/05/01/43/sculpture-2582033_1280.jpg"
    },
    {
        "id": "3520058",
        "src640": "https://cdn.pixabay.com/photo/2018/07/06/09/26/duisburg-3520058_640.jpg",
        "src1280": "https://cdn.pixabay.com/photo/2018/07/06/09/26/duisburg-3520058_1280.jpg"
    },
    {
        "id": "4883103",
        "src640": "https://cdn.pixabay.com/photo/2020/02/27/01/31/cityscape-4883103_640.jpg",
        "src1280": "https://cdn.pixabay.com/photo/2020/02/27/01/31/cityscape-4883103_1280.jpg"
    },
    {
        "id": "5046503",
        "src640": "https://cdn.pixabay.com/photo/2020/04/15/12/44/travel-5046503_640.jpg",
        "src1280": "https://cdn.pixabay.com/photo/2020/04/15/12/44/travel-5046503_1280.jpg"
    },
    {
        "id": "1695553",
        "src640": "https://cdn.pixabay.com/photo/2016/09/26/09/48/raspberries-1695553_640.jpg",
        "src1280": "https://cdn.pixabay.com/photo/2016/09/26/09/48/raspberries-1695553_1280.jpg"
    },
    {
        "id": "5101846",
        "src640": "https://cdn.pixabay.com/photo/2020/04/27/21/17/prague-5101846_640.jpg",
        "src1280": "https://cdn.pixabay.com/photo/2020/04/27/21/17/prague-5101846_1280.jpg"
    },
    {
        "id": "2309439",
        "src640": "https://cdn.pixabay.com/photo/2017/05/13/12/09/munich-2309439_640.jpg",
        "src1280": "https://cdn.pixabay.com/photo/2017/05/13/12/09/munich-2309439_1280.jpg"
    },
    {
        "id": "7896410",
        "src640": "https://cdn.pixabay.com/photo/2023/04/03/09/34/woman-7896410_640.jpg",
        "src1280": "https://cdn.pixabay.com/photo/2023/04/03/09/34/woman-7896410_1280.jpg"
    },
    {
        "id": "1585494",
        "src640": "https://cdn.pixabay.com/photo/2016/08/11/11/53/pisa-1585494_640.jpg",
        "src1280": "https://cdn.pixabay.com/photo/2016/08/11/11/53/pisa-1585494_1280.jpg"
    },
    {
        "id": "7729947",
        "src640": "https://cdn.pixabay.com/photo/2023/01/19/18/32/woman-7729947_640.jpg",
        "src1280": "https://cdn.pixabay.com/photo/2023/01/19/18/32/woman-7729947_1280.jpg"
    },
    {
        "id": "2730272",
        "src640": "https://cdn.pixabay.com/photo/2017/09/08/21/33/nairobi-2730272_640.jpg",
        "src1280": "https://cdn.pixabay.com/photo/2017/09/08/21/33/nairobi-2730272_1280.jpg"
    },
    {
        "id": "3803656",
        "src640": "https://cdn.pixabay.com/photo/2018/11/09/02/52/newark-3803656_640.jpg",
        "src1280": "https://cdn.pixabay.com/photo/2018/11/09/02/52/newark-3803656_1280.jpg"
    },
    {
        "id": "201416",
        "src640": "https://cdn.pixabay.com/photo/2013/10/27/14/10/reflection-201416_640.jpg",
        "src1280": "https://cdn.pixabay.com/photo/2013/10/27/14/10/reflection-201416_1280.jpg"
    },
    {
        "id": "8266308",
        "src640": "https://cdn.pixabay.com/photo/2023/09/21/09/08/ai-generated-8266308_640.jpg",
        "src1280": "https://cdn.pixabay.com/photo/2023/09/21/09/08/ai-generated-8266308_1280.jpg"
    },
    {
        "id": "4122595",
        "src640": "https://cdn.pixabay.com/photo/2019/04/12/17/14/lubeck-4122595_640.jpg",
        "src1280": "https://cdn.pixabay.com/photo/2019/04/12/17/14/lubeck-4122595_1280.jpg"
    },
    {
        "id": "3860488",
        "src640": "https://cdn.pixabay.com/photo/2018/12/06/19/57/festival-3860488_640.jpg",
        "src1280": "https://cdn.pixabay.com/photo/2018/12/06/19/57/festival-3860488_1280.jpg"
    },
    {
        "id": "4370934",
        "src640": "https://cdn.pixabay.com/photo/2019/07/29/16/28/brussels-4370934_640.jpg",
        "src1280": "https://cdn.pixabay.com/photo/2019/07/29/16/28/brussels-4370934_1280.jpg"
    },
    {
        "id": "3313191",
        "src640": "https://cdn.pixabay.com/photo/2018/04/12/11/20/architecture-3313191_640.jpg",
        "src1280": "https://cdn.pixabay.com/photo/2018/04/12/11/20/architecture-3313191_1280.jpg"
    },
    {
        "id": "5445566",
        "src640": "https://cdn.pixabay.com/photo/2020/07/28/16/17/skyscraper-5445566_640.jpg",
        "src1280": "https://cdn.pixabay.com/photo/2020/07/28/16/17/skyscraper-5445566_1280.jpg"
    },
    {
        "id": "1376267",
        "src640": "https://cdn.pixabay.com/photo/2016/05/06/17/12/wine-tasting-1376267_640.jpg",
        "src1280": "https://cdn.pixabay.com/photo/2016/05/06/17/12/wine-tasting-1376267_1280.jpg"
    },
    {
        "id": "4884861",
        "src640": "https://cdn.pixabay.com/photo/2020/02/27/14/35/building-4884861_640.jpg",
        "src1280": "https://cdn.pixabay.com/photo/2020/02/27/14/35/building-4884861_1280.jpg"
    },
    {
        "id": "6945200",
        "src640": "https://cdn.pixabay.com/photo/2022/01/17/16/39/montreal-6945200_640.jpg",
        "src1280": "https://cdn.pixabay.com/photo/2022/01/17/16/39/montreal-6945200_1280.jpg"
    },
    {
        "id": "5268831",
        "src640": "https://cdn.pixabay.com/photo/2020/06/07/03/20/oil-painting-5268831_640.jpg",
        "src1280": "https://cdn.pixabay.com/photo/2020/06/07/03/20/oil-painting-5268831_1280.jpg"
    },
    {
        "id": "2524185",
        "src640": "https://cdn.pixabay.com/photo/2017/07/20/23/41/church-dome-2524185_640.jpg",
        "src1280": "https://cdn.pixabay.com/photo/2017/07/20/23/41/church-dome-2524185_1280.jpg"
    },
    {
        "id": "6551940",
        "src640": "https://cdn.pixabay.com/photo/2021/08/17/04/46/latin-american-tower-6551940_640.jpg",
        "src1280": "https://cdn.pixabay.com/photo/2021/08/17/04/46/latin-american-tower-6551940_1280.jpg"
    },
    {
        "id": "2084356",
        "src640": "https://cdn.pixabay.com/photo/2017/02/21/00/57/church-steeples-2084356_640.jpg",
        "src1280": "https://cdn.pixabay.com/photo/2017/02/21/00/57/church-steeples-2084356_1280.jpg"
    },
    {
        "id": "1835692",
        "src640": "https://cdn.pixabay.com/photo/2016/11/18/16/34/tower-1835692_640.jpg",
        "src1280": "https://cdn.pixabay.com/photo/2016/11/18/16/34/tower-1835692_1280.jpg"
    },
    {
        "id": "8051523",
        "src640": "https://cdn.pixabay.com/photo/2023/06/09/11/47/city-8051523_640.jpg",
        "src1280": "https://cdn.pixabay.com/photo/2023/06/09/11/47/city-8051523_1280.jpg"
    },
    {
        "id": "6620900",
        "src640": "https://cdn.pixabay.com/photo/2021/09/13/10/07/woman-6620900_640.jpg",
        "src1280": "https://cdn.pixabay.com/photo/2021/09/13/10/07/woman-6620900_1280.jpg"
    },
    {
        "id": "4692682",
        "src640": "https://cdn.pixabay.com/photo/2019/12/13/10/38/architecture-4692682_640.jpg",
        "src1280": "https://cdn.pixabay.com/photo/2019/12/13/10/38/architecture-4692682_1280.jpg"
    },
    {
        "id": "1145031",
        "src640": "https://cdn.pixabay.com/photo/2016/01/17/15/16/building-exterior-1145031_640.jpg",
        "src1280": "https://cdn.pixabay.com/photo/2016/01/17/15/16/building-exterior-1145031_1280.jpg"
    },
    {
        "id": "5242407",
        "src640": "https://cdn.pixabay.com/photo/2020/05/31/11/55/fashion-5242407_640.jpg",
        "src1280": "https://cdn.pixabay.com/photo/2020/05/31/11/55/fashion-5242407_1280.jpg"
    },
    {
        "id": "3843959",
        "src640": "https://cdn.pixabay.com/photo/2018/11/28/15/32/road-3843959_640.jpg",
        "src1280": "https://cdn.pixabay.com/photo/2018/11/28/15/32/road-3843959_1280.jpg"
    },
    {
        "id": "4331485",
        "src640": "https://cdn.pixabay.com/photo/2019/07/11/21/27/police-4331485_640.jpg",
        "src1280": "https://cdn.pixabay.com/photo/2019/07/11/21/27/police-4331485_1280.jpg"
    },
    {
        "id": "2881031",
        "src640": "https://cdn.pixabay.com/photo/2017/10/23/13/21/monument-2881031_640.jpg",
        "src1280": "https://cdn.pixabay.com/photo/2017/10/23/13/21/monument-2881031_1280.jpg"
    },
    {
        "id": "785984",
        "src640": "https://cdn.pixabay.com/photo/2015/05/27/06/01/eiffel-tower-785984_640.jpg",
        "src1280": "https://cdn.pixabay.com/photo/2015/05/27/06/01/eiffel-tower-785984_1280.jpg"
    },
    {
        "id": "5918288",
        "src640": "https://cdn.pixabay.com/photo/2021/01/15/02/10/buildings-5918288_640.jpg",
        "src1280": "https://cdn.pixabay.com/photo/2021/01/15/02/10/buildings-5918288_1280.jpg"
    },
    {
        "id": "3892342",
        "src640": "https://cdn.pixabay.com/photo/2018/12/24/06/43/skyscraper-3892342_640.jpg",
        "src1280": "https://cdn.pixabay.com/photo/2018/12/24/06/43/skyscraper-3892342_1280.jpg"
    },
    {
        "id": "5280533",
        "src640": "https://cdn.pixabay.com/photo/2020/06/10/00/54/city-5280533_640.jpg",
        "src1280": "https://cdn.pixabay.com/photo/2020/06/10/00/54/city-5280533_1280.jpg"
    },
    {
        "id": "3328073",
        "src640": "https://cdn.pixabay.com/photo/2018/04/17/17/03/architecture-3328073_640.jpg",
        "src1280": "https://cdn.pixabay.com/photo/2018/04/17/17/03/architecture-3328073_1280.jpg"
    },
    {
        "id": "7622952",
        "src640": "https://cdn.pixabay.com/photo/2022/11/28/19/14/buildings-7622952_640.jpg",
        "src1280": "https://cdn.pixabay.com/photo/2022/11/28/19/14/buildings-7622952_1280.jpg"
    },
    {
        "id": "4463962",
        "src640": "https://cdn.pixabay.com/photo/2019/09/09/15/55/bogota-4463962_640.jpg",
        "src1280": "https://cdn.pixabay.com/photo/2019/09/09/15/55/bogota-4463962_1280.jpg"
    },
    {
        "id": "4496157",
        "src640": "https://cdn.pixabay.com/photo/2019/09/22/14/28/architecture-4496157_640.jpg",
        "src1280": "https://cdn.pixabay.com/photo/2019/09/22/14/28/architecture-4496157_1280.jpg"
    },
    {
        "id": "3606242",
        "src640": "https://cdn.pixabay.com/photo/2018/08/14/18/29/do-photo-3606242_640.jpg",
        "src1280": "https://cdn.pixabay.com/photo/2018/08/14/18/29/do-photo-3606242_1280.jpg"
    },
    {
        "id": "8052142",
        "src640": "https://cdn.pixabay.com/photo/2023/06/09/16/16/anime-8052142_640.jpg",
        "src1280": "https://cdn.pixabay.com/photo/2023/06/09/16/16/anime-8052142_1280.jpg"
    },
    {
        "id": "5047184",
        "src640": "https://cdn.pixabay.com/photo/2020/04/15/15/50/fussen-5047184_640.jpg",
        "src1280": "https://cdn.pixabay.com/photo/2020/04/15/15/50/fussen-5047184_1280.jpg"
    },
    {
        "id": "7171109",
        "src640": "https://cdn.pixabay.com/photo/2022/05/03/07/27/buildings-7171109_640.jpg",
        "src1280": "https://cdn.pixabay.com/photo/2022/05/03/07/27/buildings-7171109_1280.jpg"
    },
    {
        "id": "8202573",
        "src640": "https://cdn.pixabay.com/photo/2023/08/20/15/25/woman-8202573_640.jpg",
        "src1280": "https://cdn.pixabay.com/photo/2023/08/20/15/25/woman-8202573_1280.jpg"
    },
    {
        "id": "7734325",
        "src640": "https://cdn.pixabay.com/photo/2023/01/21/15/16/ai-generated-7734325_640.jpg",
        "src1280": "https://cdn.pixabay.com/photo/2023/01/21/15/16/ai-generated-7734325_1280.jpg"
    },
    {
        "id": "4597054",
        "src640": "https://cdn.pixabay.com/photo/2019/11/02/18/10/towers-4597054_640.jpg",
        "src1280": "https://cdn.pixabay.com/photo/2019/11/02/18/10/towers-4597054_1280.jpg"
    },
    {
        "id": "4049071",
        "src640": "https://cdn.pixabay.com/photo/2019/03/11/17/24/buildings-4049071_640.jpg",
        "src1280": "https://cdn.pixabay.com/photo/2019/03/11/17/24/buildings-4049071_1280.jpg"
    },
    {
        "id": "5012405",
        "src640": "https://cdn.pixabay.com/photo/2020/04/07/07/31/skyscraper-5012405_640.jpg",
        "src1280": "https://cdn.pixabay.com/photo/2020/04/07/07/31/skyscraper-5012405_1280.jpg"
    },
    {
        "id": "8130165",
        "src640": "https://cdn.pixabay.com/photo/2023/07/16/06/49/women-8130165_640.jpg",
        "src1280": "https://cdn.pixabay.com/photo/2023/07/16/06/49/women-8130165_1280.jpg"
    },
    {
        "id": "5709315",
        "src640": "https://cdn.pixabay.com/photo/2020/11/03/10/27/arch-5709315_640.jpg",
        "src1280": "https://cdn.pixabay.com/photo/2020/11/03/10/27/arch-5709315_1280.jpg"
    },
    {
        "id": "4845154",
        "src640": "https://cdn.pixabay.com/photo/2020/02/13/10/08/water-4845154_640.jpg",
        "src1280": "https://cdn.pixabay.com/photo/2020/02/13/10/08/water-4845154_1280.jpg"
    },
    {
        "id": "2905047",
        "src640": "https://cdn.pixabay.com/photo/2017/10/31/11/58/bridge-2905047_640.jpg",
        "src1280": "https://cdn.pixabay.com/photo/2017/10/31/11/58/bridge-2905047_1280.jpg"
    },
    {
        "id": "3149306",
        "src640": "https://cdn.pixabay.com/photo/2018/02/12/22/38/fachwerkhaus-3149306_640.jpg",
        "src1280": "https://cdn.pixabay.com/photo/2018/02/12/22/38/fachwerkhaus-3149306_1280.jpg"
    },
    {
        "id": "187881",
        "src640": "https://cdn.pixabay.com/photo/2013/09/28/21/36/city-187881_640.jpg",
        "src1280": "https://cdn.pixabay.com/photo/2013/09/28/21/36/city-187881_1280.jpg"
    },
    {
        "id": "4833308",
        "src640": "https://cdn.pixabay.com/photo/2020/02/09/14/13/life-4833308_640.jpg",
        "src1280": "https://cdn.pixabay.com/photo/2020/02/09/14/13/life-4833308_1280.jpg"
    },
    {
        "id": "7309068",
        "src640": "https://cdn.pixabay.com/photo/2022/07/08/11/21/woman-7309068_640.jpg",
        "src1280": "https://cdn.pixabay.com/photo/2022/07/08/11/21/woman-7309068_1280.jpg"
    },
    {
        "id": "4834627",
        "src640": "https://cdn.pixabay.com/photo/2020/02/09/21/37/tower-4834627_640.jpg",
        "src1280": "https://cdn.pixabay.com/photo/2020/02/09/21/37/tower-4834627_1280.jpg"
    },
    {
        "id": "7309551",
        "src640": "https://cdn.pixabay.com/photo/2022/07/08/16/20/cyclist-7309551_640.jpg",
        "src1280": "https://cdn.pixabay.com/photo/2022/07/08/16/20/cyclist-7309551_1280.jpg"
    },
    {
        "id": "7974555",
        "src640": "https://cdn.pixabay.com/photo/2023/05/06/15/22/colorful-sweater-7974555_640.jpg",
        "src1280": "https://cdn.pixabay.com/photo/2023/05/06/15/22/colorful-sweater-7974555_1280.jpg"
    },
    {
        "id": "84482",
        "src640": "https://cdn.pixabay.com/photo/2013/02/21/19/02/architecture-84482_640.jpg",
        "src1280": "https://cdn.pixabay.com/photo/2013/02/21/19/02/architecture-84482_1280.jpg"
    },
    {
        "id": "7962118",
        "src640": "https://cdn.pixabay.com/photo/2023/05/01/04/34/woman-7962118_640.jpg",
        "src1280": "https://cdn.pixabay.com/photo/2023/05/01/04/34/woman-7962118_1280.jpg"
    },
    {
        "id": "5499619",
        "src640": "https://cdn.pixabay.com/photo/2020/08/18/23/42/subway-5499619_640.jpg",
        "src1280": "https://cdn.pixabay.com/photo/2020/08/18/23/42/subway-5499619_1280.jpg"
    },
    {
        "id": "7020841",
        "src640": "https://cdn.pixabay.com/photo/2022/02/18/14/40/woman-7020841_640.jpg",
        "src1280": "https://cdn.pixabay.com/photo/2022/02/18/14/40/woman-7020841_1280.jpg"
    },
    {
        "id": "5475263",
        "src640": "https://cdn.pixabay.com/photo/2020/08/09/11/26/road-5475263_640.jpg",
        "src1280": "https://cdn.pixabay.com/photo/2020/08/09/11/26/road-5475263_1280.jpg"
    },
    {
        "id": "6066130",
        "src640": "https://cdn.pixabay.com/photo/2021/03/03/19/58/street-6066130_640.jpg",
        "src1280": "https://cdn.pixabay.com/photo/2021/03/03/19/58/street-6066130_1280.jpg"
    },
    {
        "id": "6893851",
        "src640": "https://cdn.pixabay.com/photo/2021/12/25/21/12/city-6893851_640.jpg",
        "src1280": "https://cdn.pixabay.com/photo/2021/12/25/21/12/city-6893851_1280.jpg"
    },
    {
        "id": "227248",
        "src640": "https://cdn.pixabay.com/photo/2013/12/12/13/07/tram-227248_640.jpg",
        "src1280": "https://cdn.pixabay.com/photo/2013/12/12/13/07/tram-227248_1280.jpg"
    },
    {
        "id": "4002043",
        "src640": "https://cdn.pixabay.com/photo/2019/02/17/11/28/tower-4002043_640.jpg",
        "src1280": "https://cdn.pixabay.com/photo/2019/02/17/11/28/tower-4002043_1280.jpg"
    },
    {
        "id": "7736493",
        "src640": "https://cdn.pixabay.com/photo/2023/01/22/14/10/music-7736493_640.jpg",
        "src1280": "https://cdn.pixabay.com/photo/2023/01/22/14/10/music-7736493_1280.jpg"
    },
    {
        "id": "3587138",
        "src640": "https://cdn.pixabay.com/photo/2018/08/06/09/53/lantern-3587138_640.jpg",
        "src1280": "https://cdn.pixabay.com/photo/2018/08/06/09/53/lantern-3587138_1280.jpg"
    },
    {
        "id": "3187299",
        "src640": "https://cdn.pixabay.com/photo/2018/02/28/06/07/street-3187299_640.jpg",
        "src1280": "https://cdn.pixabay.com/photo/2018/02/28/06/07/street-3187299_1280.jpg"
    },
    {
        "id": "5149805",
        "src640": "https://cdn.pixabay.com/photo/2020/05/09/14/03/hawk-5149805_640.jpg",
        "src1280": "https://cdn.pixabay.com/photo/2020/05/09/14/03/hawk-5149805_1280.jpg"
    },
    {
        "id": "1890944",
        "src640": "https://cdn.pixabay.com/photo/2016/12/08/03/54/airport-1890944_640.jpg",
        "src1280": "https://cdn.pixabay.com/photo/2016/12/08/03/54/airport-1890944_1280.jpg"
    },
    {
        "id": "3790246",
        "src640": "https://cdn.pixabay.com/photo/2018/11/02/13/24/skyscraper-3790246_640.jpg",
        "src1280": "https://cdn.pixabay.com/photo/2018/11/02/13/24/skyscraper-3790246_1280.jpg"
    },
    {
        "id": "5306206",
        "src640": "https://cdn.pixabay.com/photo/2020/06/16/15/29/tram-5306206_640.jpg",
        "src1280": "https://cdn.pixabay.com/photo/2020/06/16/15/29/tram-5306206_1280.jpg"
    },
    {
        "id": "5683604",
        "src640": "https://cdn.pixabay.com/photo/2020/10/25/09/01/skyscraper-5683604_640.jpg",
        "src1280": "https://cdn.pixabay.com/photo/2020/10/25/09/01/skyscraper-5683604_1280.jpg"
    },
    {
        "id": "6945450",
        "src640": "https://cdn.pixabay.com/photo/2022/01/17/18/18/bitexco-financial-tower-6945450_640.jpg",
        "src1280": "https://cdn.pixabay.com/photo/2022/01/17/18/18/bitexco-financial-tower-6945450_1280.jpg"
    },
    {
        "id": "4791175",
        "src640": "https://cdn.pixabay.com/photo/2020/01/24/20/52/suleymaniye-4791175_640.jpg",
        "src1280": "https://cdn.pixabay.com/photo/2020/01/24/20/52/suleymaniye-4791175_1280.jpg"
    },
    {
        "id": "8032250",
        "src640": "https://cdn.pixabay.com/photo/2023/05/31/20/58/girl-8032250_640.jpg",
        "src1280": "https://cdn.pixabay.com/photo/2023/05/31/20/58/girl-8032250_1280.jpg"
    },
    {
        "id": "7142515",
        "src640": "https://cdn.pixabay.com/photo/2022/04/19/10/05/downtown-7142515_640.jpg",
        "src1280": "https://cdn.pixabay.com/photo/2022/04/19/10/05/downtown-7142515_1280.jpg"
    },
    {
        "id": "226078",
        "src640": "https://cdn.pixabay.com/photo/2013/12/09/15/36/guimaraes-226078_640.jpg",
        "src1280": "https://cdn.pixabay.com/photo/2013/12/09/15/36/guimaraes-226078_1280.jpg"
    },
    {
        "id": "4530154",
        "src640": "https://cdn.pixabay.com/photo/2019/10/06/13/06/architecture-4530154_640.jpg",
        "src1280": "https://cdn.pixabay.com/photo/2019/10/06/13/06/architecture-4530154_1280.jpg"
    },
    {
        "id": "5026002",
        "src640": "https://cdn.pixabay.com/photo/2020/04/10/14/24/quebec-city-5026002_640.jpg",
        "src1280": "https://cdn.pixabay.com/photo/2020/04/10/14/24/quebec-city-5026002_1280.jpg"
    },
    {
        "id": "4893972",
        "src640": "https://cdn.pixabay.com/photo/2020/03/01/20/05/building-4893972_640.jpg",
        "src1280": "https://cdn.pixabay.com/photo/2020/03/01/20/05/building-4893972_1280.jpg"
    },
    {
        "id": "5384543",
        "src640": "https://cdn.pixabay.com/photo/2020/07/08/17/02/night-5384543_640.jpg",
        "src1280": "https://cdn.pixabay.com/photo/2020/07/08/17/02/night-5384543_1280.jpg"
    },
    {
        "id": "4553137",
        "src640": "https://cdn.pixabay.com/photo/2019/10/15/22/59/paris-4553137_640.jpg",
        "src1280": "https://cdn.pixabay.com/photo/2019/10/15/22/59/paris-4553137_1280.jpg"
    },
    {
        "id": "7713446",
        "src640": "https://cdn.pixabay.com/photo/2023/01/12/06/51/yamanashi-7713446_640.jpg",
        "src1280": "https://cdn.pixabay.com/photo/2023/01/12/06/51/yamanashi-7713446_1280.jpg"
    },
    {
        "id": "5158780",
        "src640": "https://cdn.pixabay.com/photo/2020/05/11/15/25/building-5158780_640.jpg",
        "src1280": "https://cdn.pixabay.com/photo/2020/05/11/15/25/building-5158780_1280.jpg"
    }
]