[
    {
        "id": "7492505",
        "src640": "https://cdn.pixabay.com/photo/2022/10/02/00/59/city-7492505_640.jpg",
        "src1280": "https://cdn.pixabay.com/photo/2022/10/02/00/59/city-7492505_1280.jpg"
    },
    {
        "id": "2616409",
        "src640": "https://cdn.pixabay.com/photo/2017/08/10/00/23/vatican-2616409_640.jpg",
        "src1280": "https://cdn.pixabay.com/photo/2017/08/10/00/23/vatican-2616409_1280.jpg"
    },
    {
        "id": "7571329",
        "src640": "https://cdn.pixabay.com/photo/2022/11/05/08/04/building-7571329_640.jpg",
        "src1280": "https://cdn.pixabay.com/photo/2022/11/05/08/04/building-7571329_1280.jpg"
    },
    {
        "id": "7608814",
        "src640": "https://cdn.pixabay.com/photo/2022/11/22/06/16/woman-7608814_640.jpg",
        "src1280": "https://cdn.pixabay.com/photo/2022/11/22/06/16/woman-7608814_1280.jpg"
    },
    {
        "id": "6270651",
        "src640": "https://cdn.pixabay.com/photo/2021/05/21/09/27/tower-bridge-6270651_640.jpg",
        "src1280": "https://cdn.pixabay.com/photo/2021/05/21/09/27/tower-bridge-6270651_1280.jpg"
    },
    {
        "id": "3735719",
        "src640": "https://cdn.pixabay.com/photo/2018/10/09/19/18/radio-tower-3735719_640.jpg",
        "src1280": "https://cdn.pixabay.com/photo/2018/10/09/19/18/radio-tower-3735719_1280.jpg"
    },
    {
        "id": "5049235",
        "src640": "https://cdn.pixabay.com/photo/2020/04/16/05/37/high-first-5049235_640.jpg",
        "src1280": "https://cdn.pixabay.com/photo/2020/04/16/05/37/high-first-5049235_1280.jpg"
    },
    {
        "id": "4692657",
        "src640": "https://cdn.pixabay.com/photo/2019/12/13/10/27/chile-4692657_640.jpg",
        "src1280": "https://cdn.pixabay.com/photo/2019/12/13/10/27/chile-4692657_1280.jpg"
    },
    {
        "id": "7456552",
        "src640": "https://cdn.pixabay.com/photo/2022/09/15/14/18/poverty-7456552_640.jpg",
        "src1280": "https://cdn.pixabay.com/photo/2022/09/15/14/18/poverty-7456552_1280.jpg"
    },
    {
        "id": "2648495",
        "src640": "https://cdn.pixabay.com/photo/2017/08/16/17/10/bicycle-2648495_640.jpg",
        "src1280": "https://cdn.pixabay.com/photo/2017/08/16/17/10/bicycle-2648495_1280.jpg"
    },
    {
        "id": "4885641",
        "src640": "https://cdn.pixabay.com/photo/2020/02/27/19/37/dresden-4885641_640.jpg",
        "src1280": "https://cdn.pixabay.com/photo/2020/02/27/19/37/dresden-4885641_1280.jpg"
    },
    {
        "id": "5955033",
        "src640": "https://cdn.pixabay.com/photo/2021/01/27/14/14/palazzo-vecchio-5955033_640.jpg",
        "src1280": "https://cdn.pixabay.com/photo/2021/01/27/14/14/palazzo-vecchio-5955033_1280.jpg"
    },
    {
        "id": "5167683",
        "src640": "https://cdn.pixabay.com/photo/2020/05/13/14/24/russia-5167683_640.jpg",
        "src1280": "https://cdn.pixabay.com/photo/2020/05/13/14/24/russia-5167683_1280.jpg"
    },
    {
        "id": "4722976",
        "src640": "https://cdn.pixabay.com/photo/2019/12/27/17/50/bicycle-4722976_640.jpg",
        "src1280": "https://cdn.pixabay.com/photo/2019/12/27/17/50/bicycle-4722976_1280.jpg"
    },
    {
        "id": "3151102",
        "src640": "https://cdn.pixabay.com/photo/2018/02/13/17/13/architecture-3151102_640.jpg",
        "src1280": "https://cdn.pixabay.com/photo/2018/02/13/17/13/architecture-3151102_1280.jpg"
    },
    {
        "id": "5426969",
        "src640": "https://cdn.pixabay.com/photo/2020/07/21/17/43/night-5426969_640.jpg",
        "src1280": "https://cdn.pixabay.com/photo/2020/07/21/17/43/night-5426969_1280.jpg"
    },
    {
        "id": "1562924",
        "src640": "https://cdn.pixabay.com/photo/2016/08/02/09/59/house-1562924_640.jpg",
        "src1280": "https://cdn.pixabay.com/photo/2016/08/02/09/59/house-1562924_1280.jpg"
    },
    {
        "id": "2614751",
        "src640": "https://cdn.pixabay.com/photo/2017/08/09/14/48/eiffel-tower-2614751_640.jpg",
        "src1280": "https://cdn.pixabay.com/photo/2017/08/09/14/48/eiffel-tower-2614751_1280.jpg"
    },
    {
        "id": "6781121",
        "src640": "https://cdn.pixabay.com/photo/2021/11/09/10/09/woman-6781121_640.jpg",
        "src1280": "https://cdn.pixabay.com/photo/2021/11/09/10/09/woman-6781121_1280.jpg"
    },
    {
        "id": "3894329",
        "src640": "https://cdn.pixabay.com/photo/2018/12/25/14/06/tower-3894329_640.jpg",
        "src1280": "https://cdn.pixabay.com/photo/2018/12/25/14/06/tower-3894329_1280.jpg"
    },
    {
        "id": "6703904",
        "src640": "https://cdn.pixabay.com/photo/2021/10/12/15/58/pond-6703904_640.jpg",
        "src1280": "https://cdn.pixabay.com/photo/2021/10/12/15/58/pond-6703904_1280.jpg"
    },
    {
        "id": "2096730",
        "src640": "https://cdn.pixabay.com/photo/2017/02/25/01/16/cityscape-2096730_640.jpg",
        "src1280": "https://cdn.pixabay.com/photo/2017/02/25/01/16/cityscape-2096730_1280.jpg"
    },
    {
        "id": "2500849",
        "src640": "https://cdn.pixabay.com/photo/2017/07/13/15/41/bridge-2500849_640.jpg",
        "src1280": "https://cdn.pixabay.com/photo/2017/07/13/15/41/bridge-2500849_1280.jpg"
    },
    {
        "id": "265581",
        "src640": "https://cdn.pixabay.com/photo/2014/02/13/19/30/madrid-265581_640.jpg",
        "src1280": "https://cdn.pixabay.com/photo/2014/02/13/19/30/madrid-265581_1280.jpg"
    },
    {
        "id": "6670208",
        "src640": "https://cdn.pixabay.com/photo/2021/09/30/14/28/saigon-6670208_640.jpg",
        "src1280": "https://cdn.pixabay.com/photo/2021/09/30/14/28/saigon-6670208_1280.jpg"
    },
    {
        "id": "8031915",
        "src640": "https://cdn.pixabay.com/photo/2023/05/31/17/30/bird-8031915_640.jpg",
        "src1280": "https://cdn.pixabay.com/photo/2023/05/31/17/30/bird-8031915_1280.jpg"
    },
    {
        "id": "7487932",
        "src640": "https://cdn.pixabay.com/photo/2022/09/29/19/50/castle-7487932_640.jpg",
        "src1280": "https://cdn.pixabay.com/photo/2022/09/29/19/50/castle-7487932_1280.jpg"
    },
    {
        "id": "52884",
        "src640": "https://cdn.pixabay.com/photo/2012/07/25/23/48/caminito-52884_640.jpg",
        "src1280": "https://cdn.pixabay.com/photo/2012/07/25/23/48/caminito-52884_1280.jpg"
    },
    {
        "id": "4574160",
        "src640": "https://cdn.pixabay.com/photo/2019/10/24/12/18/house-4574160_640.jpg",
        "src1280": "https://cdn.pixabay.com/photo/2019/10/24/12/18/house-4574160_1280.jpg"
    },
    {
        "id": "672656",
        "src640": "https://cdn.pixabay.com/photo/2015/03/14/04/00/border-collie-672656_640.jpg",
        "src1280": "https://cdn.pixabay.com/photo/2015/03/14/04/00/border-collie-672656_1280.jpg"
    },
    {
        "id": "3405994",
        "src640": "https://cdn.pixabay.com/photo/2018/05/16/14/58/city-3405994_640.jpg",
        "src1280": "https://cdn.pixabay.com/photo/2018/05/16/14/58/city-3405994_1280.jpg"
    },
    {
        "id": "2248206",
        "src640": "https://cdn.pixabay.com/photo/2017/04/21/10/05/graffiti-2248206_640.jpg",
        "src1280": "https://cdn.pixabay.com/photo/2017/04/21/10/05/graffiti-2248206_1280.jpg"
    },
    {
        "id": "4261027",
        "src640": "https://cdn.pixabay.com/photo/2019/06/08/21/31/milan-4261027_640.jpg",
        "src1280": "https://cdn.pixabay.com/photo/2019/06/08/21/31/milan-4261027_1280.jpg"
    },
    {
        "id": "1027600",
        "src640": "https://cdn.pixabay.com/photo/2015/11/06/13/13/brussels-1027600_640.jpg",
        "src1280": "https://cdn.pixabay.com/photo/2015/11/06/13/13/brussels-1027600_1280.jpg"
    },
    {
        "id": "7039275",
        "src640": "https://cdn.pixabay.com/photo/2022/02/28/14/07/alley-7039275_640.jpg",
        "src1280": "https://cdn.pixabay.com/photo/2022/02/28/14/07/alley-7039275_1280.jpg"
    },
    {
        "id": "4569663",
        "src640": "https://cdn.pixabay.com/photo/2019/10/22/19/35/cathedral-4569663_640.jpg",
        "src1280": "https://cdn.pixabay.com/photo/2019/10/22/19/35/cathedral-4569663_1280.jpg"
    },
    {
        "id": "213658",
        "src640": "https://cdn.pixabay.com/photo/2013/11/20/09/35/planet-213658_640.jpg",
        "src1280": "https://cdn.pixabay.com/photo/2013/11/20/09/35/planet-213658_1280.jpg"
    },
    {
        "id": "5439558",
        "src640": "https://cdn.pixabay.com/photo/2020/07/26/13/31/u-a-e-5439558_640.jpg",
        "src1280": "https://cdn.pixabay.com/photo/2020/07/26/13/31/u-a-e-5439558_1280.jpg"
    },
    {
        "id": "1361204",
        "src640": "https://cdn.pixabay.com/photo/2016/04/29/16/06/los-angeles-1361204_640.jpg",
        "src1280": "https://cdn.pixabay.com/photo/2016/04/29/16/06/los-angeles-1361204_1280.jpg"
    },
    {
        "id": "4270847",
        "src640": "https://cdn.pixabay.com/photo/2019/06/13/06/41/street-4270847_640.jpg",
        "src1280": "https://cdn.pixabay.com/photo/2019/06/13/06/41/street-4270847_1280.jpg"
    },
    {
        "id": "8208807",
        "src640": "https://cdn.pixabay.com/photo/2023/08/23/15/27/ai-generated-8208807_640.jpg",
        "src1280": "https://cdn.pixabay.com/photo/2023/08/23/15/27/ai-generated-8208807_1280.jpg"
    },
    {
        "id": "7638047",
        "src640": "https://cdn.pixabay.com/photo/2022/12/06/01/51/ai-generated-7638047_640.jpg",
        "src1280": "https://cdn.pixabay.com/photo/2022/12/06/01/51/ai-generated-7638047_1280.jpg"
    },
    {
        "id": "5533556",
        "src640": "https://cdn.pixabay.com/photo/2020/08/31/20/32/road-5533556_640.jpg",
        "src1280": "https://cdn.pixabay.com/photo/2020/08/31/20/32/road-5533556_1280.jpg"
    },
    {
        "id": "4669964",
        "src640": "https://cdn.pixabay.com/photo/2019/12/03/12/38/bridge-4669964_640.jpg",
        "src1280": "https://cdn.pixabay.com/photo/2019/12/03/12/38/bridge-4669964_1280.jpg"
    },
    {
        "id": "5158785",
        "src640": "https://cdn.pixabay.com/photo/2020/05/11/15/26/building-5158785_640.jpg",
        "src1280": "https://cdn.pixabay.com/photo/2020/05/11/15/26/building-5158785_1280.jpg"
    },
    {
        "id": "4051960",
        "src640": "https://cdn.pixabay.com/photo/2019/03/12/21/49/new-york-4051960_640.jpg",
        "src1280": "https://cdn.pixabay.com/photo/2019/03/12/21/49/new-york-4051960_1280.jpg"
    },
    {
        "id": "1367894",
        "src640": "https://cdn.pixabay.com/photo/2016/05/02/19/22/architecture-1367894_640.jpg",
        "src1280": "https://cdn.pixabay.com/photo/2016/05/02/19/22/architecture-1367894_1280.jpg"
    },
    {
        "id": "4700467",
        "src640": "https://cdn.pixabay.com/photo/2019/12/16/23/31/abidjan-4700467_640.jpg",
        "src1280": "https://cdn.pixabay.com/photo/2019/12/16/23/31/abidjan-4700467_1280.jpg"
    },
    {
        "id": "4875444",
        "src640": "https://cdn.pixabay.com/photo/2020/02/24/07/37/sky-4875444_640.jpg",
        "src1280": "https://cdn.pixabay.com/photo/2020/02/24/07/37/sky-4875444_1280.jpg"
    },
    {
        "id": "7721319",
        "src640": "https://cdn.pixabay.com/photo/2023/01/15/22/51/adventure-7721319_640.jpg",
        "src1280": "https://cdn.pixabay.com/photo/2023/01/15/22/51/adventure-7721319_1280.jpg"
    },
    {
        "id": "79773",
        "src640": "https://cdn.pixabay.com/photo/2013/02/09/19/09/philadelphia-79773_640.jpg",
        "src1280": "https://cdn.pixabay.com/photo/2013/02/09/19/09/philadelphia-79773_1280.jpg"
    },
    {
        "id": "4688784",
        "src640": "https://cdn.pixabay.com/photo/2019/12/11/17/07/wall-4688784_640.jpg",
        "src1280": "https://cdn.pixabay.com/photo/2019/12/11/17/07/wall-4688784_1280.jpg"
    },
    {
        "id": "7015298",
        "src640": "https://cdn.pixabay.com/photo/2022/02/15/17/03/architecture-7015298_640.jpg",
        "src1280": "https://cdn.pixabay.com/photo/2022/02/15/17/03/architecture-7015298_1280.jpg"
    },
    {
        "id": "4915067",
        "src640": "https://cdn.pixabay.com/photo/2020/03/09/09/20/building-4915067_640.jpg",
        "src1280": "https://cdn.pixabay.com/photo/2020/03/09/09/20/building-4915067_1280.jpg"
    },
    {
        "id": "3785870",
        "src640": "https://cdn.pixabay.com/photo/2018/10/31/14/05/hong-kong-3785870_640.jpg",
        "src1280": "https://cdn.pixabay.com/photo/2018/10/31/14/05/hong-kong-3785870_1280.jpg"
    },
    {
        "id": "5046495",
        "src640": "https://cdn.pixabay.com/photo/2020/04/15/12/43/travel-5046495_640.jpg",
        "src1280": "https://cdn.pixabay.com/photo/2020/04/15/12/43/travel-5046495_1280.jpg"
    },
    {
        "id": "2890633",
        "src640": "https://cdn.pixabay.com/photo/2017/10/26/10/29/paris-2890633_640.jpg",
        "src1280": "https://cdn.pixabay.com/photo/2017/10/26/10/29/paris-2890633_1280.jpg"
    },
    {
        "id": "4834119",
        "src640": "https://cdn.pixabay.com/photo/2020/02/09/18/15/venice-4834119_640.jpg",
        "src1280": "https://cdn.pixabay.com/photo/2020/02/09/18/15/venice-4834119_1280.jpg"
    },
    {
        "id": "116035",
        "src640": "https://cdn.pixabay.com/photo/2013/06/03/22/47/goal-116035_640.jpg",
        "src1280": "https://cdn.pixabay.com/photo/2013/06/03/22/47/goal-116035_1280.jpg"
    },
    {
        "id": "2288883",
        "src640": "https://cdn.pixabay.com/photo/2017/05/06/04/19/door-2288883_640.jpg",
        "src1280": "https://cdn.pixabay.com/photo/2017/05/06/04/19/door-2288883_1280.jpg"
    },
    {
        "id": "6379573",
        "src640": "https://cdn.pixabay.com/photo/2021/07/01/14/42/street-6379573_640.jpg",
        "src1280": "https://cdn.pixabay.com/photo/2021/07/01/14/42/street-6379573_1280.jpg"
    },
    {
        "id": "7577183",
        "src640": "https://cdn.pixabay.com/photo/2022/11/07/20/23/building-7577183_640.jpg",
        "src1280": "https://cdn.pixabay.com/photo/2022/11/07/20/23/building-7577183_1280.jpg"
    },
    {
        "id": "4800148",
        "src640": "https://cdn.pixabay.com/photo/2020/01/28/16/21/city-4800148_640.jpg",
        "src1280": "https://cdn.pixabay.com/photo/2020/01/28/16/21/city-4800148_1280.jpg"
    },
    {
        "id": "5973336",
        "src640": "https://cdn.pixabay.com/photo/2021/02/02/10/01/alley-5973336_640.jpg",
        "src1280": "https://cdn.pixabay.com/photo/2021/02/02/10/01/alley-5973336_1280.jpg"
    },
    {
        "id": "5635054",
        "src640": "https://cdn.pixabay.com/photo/2020/10/07/12/44/table-5635054_640.jpg",
        "src1280": "https://cdn.pixabay.com/photo/2020/10/07/12/44/table-5635054_1280.jpg"
    },
    {
        "id": "347973",
        "src640": "https://cdn.pixabay.com/photo/2014/05/19/11/46/westminster-347973_640.jpg",
        "src1280": "https://cdn.pixabay.com/photo/2014/05/19/11/46/westminster-347973_1280.jpg"
    },
    {
        "id": "610684",
        "src640": "https://cdn.pixabay.com/photo/2015/01/25/01/30/church-610684_640.jpg",
        "src1280": "https://cdn.pixabay.com/photo/2015/01/25/01/30/church-610684_1280.jpg"
    },
    {
        "id": "4716680",
        "src640": "https://cdn.pixabay.com/photo/2019/12/24/12/31/berlin-4716680_640.jpg",
        "src1280": "https://cdn.pixabay.com/photo/2019/12/24/12/31/berlin-4716680_1280.jpg"
    },
    {
        "id": "4056974",
        "src640": "https://cdn.pixabay.com/photo/2019/03/15/12/01/venice-4056974_640.jpg",
        "src1280": "https://cdn.pixabay.com/photo/2019/03/15/12/01/venice-4056974_1280.jpg"
    },
    {
        "id": "7276188",
        "src640": "https://cdn.pixabay.com/photo/2022/06/21/17/08/girl-7276188_640.jpg",
        "src1280": "https://cdn.pixabay.com/photo/2022/06/21/17/08/girl-7276188_1280.jpg"
    },
    {
        "id": "3424628",
        "src640": "https://cdn.pixabay.com/photo/2018/05/23/18/00/germany-3424628_640.jpg",
        "src1280": "https://cdn.pixabay.com/photo/2018/05/23/18/00/germany-3424628_1280.jpg"
    },
    {
        "id": "727980",
        "src640": "https://cdn.pixabay.com/photo/2015/04/17/21/02/truss-727980_640.jpg",
        "src1280": "https://cdn.pixabay.com/photo/2015/04/17/21/02/truss-727980_1280.jpg"
    },
    {
        "id": "5927468",
        "src640": "https://cdn.pixabay.com/photo/2021/01/18/08/47/zaragoza-5927468_640.jpg",
        "src1280": "https://cdn.pixabay.com/photo/2021/01/18/08/47/zaragoza-5927468_1280.jpg"
    },
    {
        "id": "7401860",
        "src640": "https://cdn.pixabay.com/photo/2022/08/21/19/01/girl-7401860_640.jpg",
        "src1280": "https://cdn.pixabay.com/photo/2022/08/21/19/01/girl-7401860_1280.jpg"
    },
    {
        "id": "4092827",
        "src640": "https://cdn.pixabay.com/photo/2019/03/31/10/52/paris-4092827_640.jpg",
        "src1280": "https://cdn.pixabay.com/photo/2019/03/31/10/52/paris-4092827_1280.jpg"
    },
    {
        "id": "4122422",
        "src640": "https://cdn.pixabay.com/photo/2019/04/12/15/55/city-4122422_640.jpg",
        "src1280": "https://cdn.pixabay.com/photo/2019/04/12/15/55/city-4122422_1280.jpg"
    },
    {
        "id": "882660",
        "src640": "https://cdn.pixabay.com/photo/2015/08/10/13/06/matera-882660_640.jpg",
        "src1280": "https://cdn.pixabay.com/photo/2015/08/10/13/06/matera-882660_1280.jpg"
    },
    {
        "id": "7730424",
        "src640": "https://cdn.pixabay.com/photo/2023/01/19/23/50/ai-generated-7730424_640.jpg",
        "src1280": "https://cdn.pixabay.com/photo/2023/01/19/23/50/ai-generated-7730424_1280.jpg"
    },
    {
        "id": "4415671",
        "src640": "https://cdn.pixabay.com/photo/2019/08/19/07/51/building-4415671_640.jpg",
        "src1280": "https://cdn.pixabay.com/photo/2019/08/19/07/51/building-4415671_1280.jpg"
    },
    {
        "id": "2896655",
        "src640": "https://cdn.pixabay.com/photo/2017/10/28/10/39/raining-2896655_640.jpg",
        "src1280": "https://cdn.pixabay.com/photo/2017/10/28/10/39/raining-2896655_1280.jpg"
    },
    {
        "id": "7246962",
        "src640": "https://cdn.pixabay.com/photo/2022/06/06/20/48/rome-7246962_640.jpg",
        "src1280": "https://cdn.pixabay.com/photo/2022/06/06/20/48/rome-7246962_1280.jpg"
    },
    {
        "id": "4608414",
        "src640": "https://cdn.pixabay.com/photo/2019/11/07/09/32/tracks-4608414_640.jpg",
        "src1280": "https://cdn.pixabay.com/photo/2019/11/07/09/32/tracks-4608414_1280.jpg"
    },
    {
        "id": "4806575",
        "src640": "https://cdn.pixabay.com/photo/2020/01/30/21/04/minaret-4806575_640.jpg",
        "src1280": "https://cdn.pixabay.com/photo/2020/01/30/21/04/minaret-4806575_1280.jpg"
    },
    {
        "id": "5387968",
        "src640": "https://cdn.pixabay.com/photo/2020/07/09/16/35/bike-5387968_640.jpg",
        "src1280": "https://cdn.pixabay.com/photo/2020/07/09/16/35/bike-5387968_1280.jpg"
    },
    {
        "id": "4862150",
        "src640": "https://cdn.pixabay.com/photo/2020/02/19/12/58/architecture-4862150_640.jpg",
        "src1280": "https://cdn.pixabay.com/photo/2020/02/19/12/58/architecture-4862150_1280.jpg"
    },
    {
        "id": "3371939",
        "src640": "https://cdn.pixabay.com/photo/2018/05/03/17/49/body-of-water-3371939_640.jpg",
        "src1280": "https://cdn.pixabay.com/photo/2018/05/03/17/49/body-of-water-3371939_1280.jpg"
    },
    {
        "id": "7993748",
        "src640": "https://cdn.pixabay.com/photo/2023/05/14/20/32/tower-7993748_640.jpg",
        "src1280": "https://cdn.pixabay.com/photo/2023/05/14/20/32/tower-7993748_1280.jpg"
    },
    {
        "id": "7622197",
        "src640": "https://cdn.pixabay.com/photo/2022/11/28/14/27/skyline-7622197_640.jpg",
        "src1280": "https://cdn.pixabay.com/photo/2022/11/28/14/27/skyline-7622197_1280.jpg"
    },
    {
        "id": "2264076",
        "src640": "https://cdn.pixabay.com/photo/2017/04/27/00/05/french-2264076_640.jpg",
        "src1280": "https://cdn.pixabay.com/photo/2017/04/27/00/05/french-2264076_1280.jpg"
    },
    {
        "id": "8202601",
        "src640": "https://cdn.pixabay.com/photo/2023/08/20/15/45/women-8202601_640.jpg",
        "src1280": "https://cdn.pixabay.com/photo/2023/08/20/15/45/women-8202601_1280.jpg"
    },
    {
        "id": "226002",
        "src640": "https://cdn.pixabay.com/photo/2013/12/09/14/43/japan-226002_640.jpg",
        "src1280": "https://cdn.pixabay.com/photo/2013/12/09/14/43/japan-226002_1280.jpg"
    },
    {
        "id": "7495397",
        "src640": "https://cdn.pixabay.com/photo/2022/10/03/09/16/woman-7495397_640.jpg",
        "src1280": "https://cdn.pixabay.com/photo/2022/10/03/09/16/woman-7495397_1280.jpg"
    },
    {
        "id": "7507374",
        "src640": "https://cdn.pixabay.com/photo/2022/10/08/16/54/woman-7507374_640.jpg",
        "src1280": "https://cdn.pixabay.com/photo/2022/10/08/16/54/woman-7507374_1280.jpg"
    },
    {
        "id": "3481649",
        "src640": "https://cdn.pixabay.com/photo/2018/06/17/23/51/manhattan-3481649_640.jpg",
        "src1280": "https://cdn.pixabay.com/photo/2018/06/17/23/51/manhattan-3481649_1280.jpg"
    }
]