[
    {
        "id": "4388221",
        "src640": "https://cdn.pixabay.com/photo/2019/08/06/12/15/quito-4388221_640.jpg",
        "src1280": "https://cdn.pixabay.com/photo/2019/08/06/12/15/quito-4388221_1280.jpg"
    },
    {
        "id": "342584",
        "src640": "https://cdn.pixabay.com/photo/2014/05/12/14/58/sidney-342584_640.jpg",
        "src1280": "https://cdn.pixabay.com/photo/2014/05/12/14/58/sidney-342584_1280.jpg"
    },
    {
        "id": "7101985",
        "src640": "https://cdn.pixabay.com/photo/2022/03/31/00/31/music-7101985_640.jpg",
        "src1280": "https://cdn.pixabay.com/photo/2022/03/31/00/31/music-7101985_1280.jpg"
    },
    {
        "id": "6611556",
        "src640": "https://cdn.pixabay.com/photo/2021/09/09/20/28/shalimar-gardens-6611556_640.jpg",
        "src1280": "https://cdn.pixabay.com/photo/2021/09/09/20/28/shalimar-gardens-6611556_1280.jpg"
    },
    {
        "id": "8245503",
        "src640": "https://cdn.pixabay.com/photo/2023/09/10/18/38/man-8245503_640.jpg",
        "src1280": "https://cdn.pixabay.com/photo/2023/09/10/18/38/man-8245503_1280.jpg"
    },
    {
        "id": "4864284",
        "src640": "https://cdn.pixabay.com/photo/2020/02/20/09/18/stairs-4864284_640.jpg",
        "src1280": "https://cdn.pixabay.com/photo/2020/02/20/09/18/stairs-4864284_1280.jpg"
    },
    {
        "id": "2655883",
        "src640": "https://cdn.pixabay.com/photo/2017/08/18/18/11/paris-2655883_640.jpg",
        "src1280": "https://cdn.pixabay.com/photo/2017/08/18/18/11/paris-2655883_1280.jpg"
    },
    {
        "id": "6889408",
        "src640": "https://cdn.pixabay.com/photo/2021/12/23/14/25/town-6889408_640.jpg",
        "src1280": "https://cdn.pixabay.com/photo/2021/12/23/14/25/town-6889408_1280.jpg"
    },
    {
        "id": "5377559",
        "src640": "https://cdn.pixabay.com/photo/2020/07/06/16/30/bridge-5377559_640.jpg",
        "src1280": "https://cdn.pixabay.com/photo/2020/07/06/16/30/bridge-5377559_1280.jpg"
    },
    {
        "id": "7735837",
        "src640": "https://cdn.pixabay.com/photo/2023/01/22/09/10/woman-7735837_640.jpg",
        "src1280": "https://cdn.pixabay.com/photo/2023/01/22/09/10/woman-7735837_1280.jpg"
    },
    {
        "id": "4707537",
        "src640": "https://cdn.pixabay.com/photo/2019/12/20/03/23/tower-4707537_640.jpg",
        "src1280": "https://cdn.pixabay.com/photo/2019/12/20/03/23/tower-4707537_1280.jpg"
    },
    {
        "id": "221571",
        "src640": "https://cdn.pixabay.com/photo/2013/11/30/18/39/pisa-221571_640.jpg",
        "src1280": "https://cdn.pixabay.com/photo/2013/11/30/18/39/pisa-221571_1280.jpg"
    },
    {
        "id": "4720324",
        "src640": "https://cdn.pixabay.com/photo/2019/12/26/12/27/main-tower-4720324_640.jpg",
        "src1280": "https://cdn.pixabay.com/photo/2019/12/26/12/27/main-tower-4720324_1280.jpg"
    },
    {
        "id": "6993028",
        "src640": "https://cdn.pixabay.com/photo/2022/02/04/15/39/cityscape-6993028_640.jpg",
        "src1280": "https://cdn.pixabay.com/photo/2022/02/04/15/39/cityscape-6993028_1280.jpg"
    },
    {
        "id": "7915974",
        "src640": "https://cdn.pixabay.com/photo/2023/04/11/07/05/woman-7915974_640.jpg",
        "src1280": "https://cdn.pixabay.com/photo/2023/04/11/07/05/woman-7915974_1280.jpg"
    },
    {
        "id": "7514783",
        "src640": "https://cdn.pixabay.com/photo/2022/10/11/17/12/woman-7514783_640.jpg",
        "src1280": "https://cdn.pixabay.com/photo/2022/10/11/17/12/woman-7514783_1280.jpg"
    },
    {
        "id": "889140",
        "src640": "https://cdn.pixabay.com/photo/2015/08/15/01/17/florence-889140_640.jpg",
        "src1280": "https://cdn.pixabay.com/photo/2015/08/15/01/17/florence-889140_1280.jpg"
    },
    {
        "id": "5270840",
        "src640": "https://cdn.pixabay.com/photo/2020/06/07/15/13/facade-5270840_640.jpg",
        "src1280": "https://cdn.pixabay.com/photo/2020/06/07/15/13/facade-5270840_1280.jpg"
    },
    {
        "id": "7322459",
        "src640": "https://cdn.pixabay.com/photo/2022/07/15/06/07/woman-7322459_640.jpg",
        "src1280": "https://cdn.pixabay.com/photo/2022/07/15/06/07/woman-7322459_1280.jpg"
    },
    {
        "id": "4952373",
        "src640": "https://cdn.pixabay.com/photo/2020/03/21/00/34/museum-4952373_640.jpg",
        "src1280": "https://cdn.pixabay.com/photo/2020/03/21/00/34/museum-4952373_1280.jpg"
    },
    {
        "id": "5265101",
        "src640": "https://cdn.pixabay.com/photo/2020/06/06/03/39/oil-painting-5265101_640.jpg",
        "src1280": "https://cdn.pixabay.com/photo/2020/06/06/03/39/oil-painting-5265101_1280.jpg"
    },
    {
        "id": "256541",
        "src640": "https://cdn.pixabay.com/photo/2014/02/02/04/21/atlantic-city-256541_640.jpg",
        "src1280": "https://cdn.pixabay.com/photo/2014/02/02/04/21/atlantic-city-256541_1280.jpg"
    },
    {
        "id": "5401061",
        "src640": "https://cdn.pixabay.com/photo/2020/07/13/15/16/bridge-5401061_640.jpg",
        "src1280": "https://cdn.pixabay.com/photo/2020/07/13/15/16/bridge-5401061_1280.jpg"
    },
    {
        "id": "5212400",
        "src640": "https://cdn.pixabay.com/photo/2020/05/24/04/45/urban-5212400_640.jpg",
        "src1280": "https://cdn.pixabay.com/photo/2020/05/24/04/45/urban-5212400_1280.jpg"
    },
    {
        "id": "964660",
        "src640": "https://cdn.pixabay.com/photo/2015/09/29/23/10/toronto-964660_640.jpg",
        "src1280": "https://cdn.pixabay.com/photo/2015/09/29/23/10/toronto-964660_1280.jpg"
    },
    {
        "id": "5219360",
        "src640": "https://cdn.pixabay.com/photo/2020/05/25/16/31/composing-5219360_640.jpg",
        "src1280": "https://cdn.pixabay.com/photo/2020/05/25/16/31/composing-5219360_1280.jpg"
    },
    {
        "id": "1227544",
        "src640": "https://cdn.pixabay.com/photo/2016/02/28/20/29/abu-dhabi-1227544_640.jpg",
        "src1280": "https://cdn.pixabay.com/photo/2016/02/28/20/29/abu-dhabi-1227544_1280.jpg"
    },
    {
        "id": "8033899",
        "src640": "https://cdn.pixabay.com/photo/2023/06/01/16/38/woman-8033899_640.jpg",
        "src1280": "https://cdn.pixabay.com/photo/2023/06/01/16/38/woman-8033899_1280.jpg"
    },
    {
        "id": "3184750",
        "src640": "https://cdn.pixabay.com/photo/2018/02/27/05/32/architecture-3184750_640.jpg",
        "src1280": "https://cdn.pixabay.com/photo/2018/02/27/05/32/architecture-3184750_1280.jpg"
    },
    {
        "id": "6858821",
        "src640": "https://cdn.pixabay.com/photo/2021/12/09/18/03/port-6858821_640.jpg",
        "src1280": "https://cdn.pixabay.com/photo/2021/12/09/18/03/port-6858821_1280.jpg"
    },
    {
        "id": "4799861",
        "src640": "https://cdn.pixabay.com/photo/2020/01/28/13/57/door-4799861_640.jpg",
        "src1280": "https://cdn.pixabay.com/photo/2020/01/28/13/57/door-4799861_1280.jpg"
    },
    {
        "id": "5700750",
        "src640": "https://cdn.pixabay.com/photo/2020/10/31/10/05/sea-5700750_640.jpg",
        "src1280": "https://cdn.pixabay.com/photo/2020/10/31/10/05/sea-5700750_1280.jpg"
    },
    {
        "id": "2639317",
        "src640": "https://cdn.pixabay.com/photo/2017/08/14/04/26/chateau-laurier-2639317_640.jpg",
        "src1280": "https://cdn.pixabay.com/photo/2017/08/14/04/26/chateau-laurier-2639317_1280.jpg"
    },
    {
        "id": "4384874",
        "src640": "https://cdn.pixabay.com/photo/2019/08/04/22/51/rental-bike-4384874_640.jpg",
        "src1280": "https://cdn.pixabay.com/photo/2019/08/04/22/51/rental-bike-4384874_1280.jpg"
    },
    {
        "id": "1580790",
        "src640": "https://cdn.pixabay.com/photo/2016/08/09/14/54/authun-1580790_640.jpg",
        "src1280": "https://cdn.pixabay.com/photo/2016/08/09/14/54/authun-1580790_1280.jpg"
    },
    {
        "id": "7619213",
        "src640": "https://cdn.pixabay.com/photo/2022/11/27/09/27/man-7619213_640.jpg",
        "src1280": "https://cdn.pixabay.com/photo/2022/11/27/09/27/man-7619213_1280.jpg"
    },
    {
        "id": "8017352",
        "src640": "https://cdn.pixabay.com/photo/2023/05/25/13/09/woman-8017352_640.jpg",
        "src1280": "https://cdn.pixabay.com/photo/2023/05/25/13/09/woman-8017352_1280.jpg"
    },
    {
        "id": "4770497",
        "src640": "https://cdn.pixabay.com/photo/2020/01/16/13/11/las-vegas-4770497_640.jpg",
        "src1280": "https://cdn.pixabay.com/photo/2020/01/16/13/11/las-vegas-4770497_1280.jpg"
    },
    {
        "id": "6462685",
        "src640": "https://cdn.pixabay.com/photo/2021/07/13/07/29/puddle-6462685_640.jpg",
        "src1280": "https://cdn.pixabay.com/photo/2021/07/13/07/29/puddle-6462685_1280.jpg"
    },
    {
        "id": "4158904",
        "src640": "https://cdn.pixabay.com/photo/2019/04/26/22/57/woman-4158904_640.jpg",
        "src1280": "https://cdn.pixabay.com/photo/2019/04/26/22/57/woman-4158904_1280.jpg"
    },
    {
        "id": "5480273",
        "src640": "https://cdn.pixabay.com/photo/2020/08/11/15/39/city-5480273_640.jpg",
        "src1280": "https://cdn.pixabay.com/photo/2020/08/11/15/39/city-5480273_1280.jpg"
    },
    {
        "id": "8110599",
        "src640": "https://cdn.pixabay.com/photo/2023/07/06/14/25/woman-8110599_640.jpg",
        "src1280": "https://cdn.pixabay.com/photo/2023/07/06/14/25/woman-8110599_1280.jpg"
    },
    {
        "id": "5198464",
        "src640": "https://cdn.pixabay.com/photo/2020/05/20/22/31/woman-5198464_640.jpg",
        "src1280": "https://cdn.pixabay.com/photo/2020/05/20/22/31/woman-5198464_1280.jpg"
    },
    {
        "id": "4467089",
        "src640": "https://cdn.pixabay.com/photo/2019/09/10/19/18/portugal-4467089_640.jpg",
        "src1280": "https://cdn.pixabay.com/photo/2019/09/10/19/18/portugal-4467089_1280.jpg"
    },
    {
        "id": "166901",
        "src640": "https://cdn.pixabay.com/photo/2013/07/25/11/56/mumbai-166901_640.jpg",
        "src1280": "https://cdn.pixabay.com/photo/2013/07/25/11/56/mumbai-166901_1280.jpg"
    },
    {
        "id": "83551",
        "src640": "https://cdn.pixabay.com/photo/2013/02/20/07/11/ice-cream-83551_640.jpg",
        "src1280": "https://cdn.pixabay.com/photo/2013/02/20/07/11/ice-cream-83551_1280.jpg"
    },
    {
        "id": "8108267",
        "src640": "https://cdn.pixabay.com/photo/2023/07/05/13/11/woman-8108267_640.jpg",
        "src1280": "https://cdn.pixabay.com/photo/2023/07/05/13/11/woman-8108267_1280.jpg"
    },
    {
        "id": "3238990",
        "src640": "https://cdn.pixabay.com/photo/2018/03/19/03/50/a-birds-eye-view-3238990_640.jpg",
        "src1280": "https://cdn.pixabay.com/photo/2018/03/19/03/50/a-birds-eye-view-3238990_1280.jpg"
    },
    {
        "id": "7633069",
        "src640": "https://cdn.pixabay.com/photo/2022/12/03/16/48/woman-7633069_640.jpg",
        "src1280": "https://cdn.pixabay.com/photo/2022/12/03/16/48/woman-7633069_1280.jpg"
    },
    {
        "id": "7998317",
        "src640": "https://cdn.pixabay.com/photo/2023/05/16/18/13/batman-7998317_640.jpg",
        "src1280": "https://cdn.pixabay.com/photo/2023/05/16/18/13/batman-7998317_1280.jpg"
    },
    {
        "id": "6882634",
        "src640": "https://cdn.pixabay.com/photo/2021/12/20/09/44/adult-6882634_640.jpg",
        "src1280": "https://cdn.pixabay.com/photo/2021/12/20/09/44/adult-6882634_1280.jpg"
    },
    {
        "id": "21835",
        "src640": "https://cdn.pixabay.com/photo/2012/03/04/00/15/architecture-21835_640.jpg",
        "src1280": "https://cdn.pixabay.com/photo/2012/03/04/00/15/architecture-21835_1280.jpg"
    },
    {
        "id": "4384732",
        "src640": "https://cdn.pixabay.com/photo/2019/08/04/20/33/paris-4384732_640.jpg",
        "src1280": "https://cdn.pixabay.com/photo/2019/08/04/20/33/paris-4384732_1280.jpg"
    },
    {
        "id": "2907329",
        "src640": "https://cdn.pixabay.com/photo/2017/11/01/08/01/street-2907329_640.jpg",
        "src1280": "https://cdn.pixabay.com/photo/2017/11/01/08/01/street-2907329_1280.jpg"
    },
    {
        "id": "2093990",
        "src640": "https://cdn.pixabay.com/photo/2017/02/24/05/22/urban-2093990_640.jpg",
        "src1280": "https://cdn.pixabay.com/photo/2017/02/24/05/22/urban-2093990_1280.jpg"
    },
    {
        "id": "2770365",
        "src640": "https://cdn.pixabay.com/photo/2017/09/21/02/19/empire-state-building-2770365_640.jpg",
        "src1280": "https://cdn.pixabay.com/photo/2017/09/21/02/19/empire-state-building-2770365_1280.jpg"
    },
    {
        "id": "8215622",
        "src640": "https://cdn.pixabay.com/photo/2023/08/26/19/19/dancing-8215622_640.jpg",
        "src1280": "https://cdn.pixabay.com/photo/2023/08/26/19/19/dancing-8215622_1280.jpg"
    },
    {
        "id": "4989634",
        "src640": "https://cdn.pixabay.com/photo/2020/04/01/00/38/city-4989634_640.jpg",
        "src1280": "https://cdn.pixabay.com/photo/2020/04/01/00/38/city-4989634_1280.jpg"
    },
    {
        "id": "7064484",
        "src640": "https://cdn.pixabay.com/photo/2022/03/12/16/16/skyscraper-7064484_640.jpg",
        "src1280": "https://cdn.pixabay.com/photo/2022/03/12/16/16/skyscraper-7064484_1280.jpg"
    },
    {
        "id": "179150",
        "src640": "https://cdn.pixabay.com/photo/2013/09/05/14/25/alhambra-179150_640.jpg",
        "src1280": "https://cdn.pixabay.com/photo/2013/09/05/14/25/alhambra-179150_1280.jpg"
    },
    {
        "id": "1932567",
        "src640": "https://cdn.pixabay.com/photo/2016/12/26/19/01/building-1932567_640.jpg",
        "src1280": "https://cdn.pixabay.com/photo/2016/12/26/19/01/building-1932567_1280.jpg"
    },
    {
        "id": "7471051",
        "src640": "https://cdn.pixabay.com/photo/2022/09/21/19/25/tower-7471051_640.jpg",
        "src1280": "https://cdn.pixabay.com/photo/2022/09/21/19/25/tower-7471051_1280.jpg"
    },
    {
        "id": "8232823",
        "src640": "https://cdn.pixabay.com/photo/2023/09/04/14/20/woman-8232823_640.jpg",
        "src1280": "https://cdn.pixabay.com/photo/2023/09/04/14/20/woman-8232823_1280.jpg"
    },
    {
        "id": "571627",
        "src640": "https://cdn.pixabay.com/photo/2014/12/17/15/56/woman-571627_640.jpg",
        "src1280": "https://cdn.pixabay.com/photo/2014/12/17/15/56/woman-571627_1280.jpg"
    },
    {
        "id": "598150",
        "src640": "https://cdn.pixabay.com/photo/2015/01/13/12/41/sacre-coeur-598150_640.jpg",
        "src1280": "https://cdn.pixabay.com/photo/2015/01/13/12/41/sacre-coeur-598150_1280.jpg"
    },
    {
        "id": "4352083",
        "src640": "https://cdn.pixabay.com/photo/2019/07/21/07/18/new-york-4352083_640.jpg",
        "src1280": "https://cdn.pixabay.com/photo/2019/07/21/07/18/new-york-4352083_1280.jpg"
    },
    {
        "id": "1375524",
        "src640": "https://cdn.pixabay.com/photo/2016/05/06/09/43/door-1375524_640.jpg",
        "src1280": "https://cdn.pixabay.com/photo/2016/05/06/09/43/door-1375524_1280.jpg"
    },
    {
        "id": "6710653",
        "src640": "https://cdn.pixabay.com/photo/2021/10/15/00/43/city-6710653_640.jpg",
        "src1280": "https://cdn.pixabay.com/photo/2021/10/15/00/43/city-6710653_1280.jpg"
    },
    {
        "id": "1845278",
        "src640": "https://cdn.pixabay.com/photo/2016/11/21/13/00/architecture-1845278_640.jpg",
        "src1280": "https://cdn.pixabay.com/photo/2016/11/21/13/00/architecture-1845278_1280.jpg"
    },
    {
        "id": "1348992",
        "src640": "https://cdn.pixabay.com/photo/2016/04/24/08/49/bratislava-1348992_640.jpg",
        "src1280": "https://cdn.pixabay.com/photo/2016/04/24/08/49/bratislava-1348992_1280.jpg"
    },
    {
        "id": "7008729",
        "src640": "https://cdn.pixabay.com/photo/2022/02/12/10/07/angel-statue-7008729_640.jpg",
        "src1280": "https://cdn.pixabay.com/photo/2022/02/12/10/07/angel-statue-7008729_1280.jpg"
    },
    {
        "id": "167944",
        "src640": "https://cdn.pixabay.com/photo/2013/07/26/17/57/portsmouth-167944_640.jpg",
        "src1280": "https://cdn.pixabay.com/photo/2013/07/26/17/57/portsmouth-167944_1280.jpg"
    },
    {
        "id": "857997",
        "src640": "https://cdn.pixabay.com/photo/2015/07/24/08/30/architecture-857997_640.jpg",
        "src1280": "https://cdn.pixabay.com/photo/2015/07/24/08/30/architecture-857997_1280.jpg"
    },
    {
        "id": "3139695",
        "src640": "https://cdn.pixabay.com/photo/2018/02/08/15/36/steeple-3139695_640.jpg",
        "src1280": "https://cdn.pixabay.com/photo/2018/02/08/15/36/steeple-3139695_1280.jpg"
    },
    {
        "id": "1522842",
        "src640": "https://cdn.pixabay.com/photo/2016/07/16/22/25/industrial-background-1522842_640.jpg",
        "src1280": "https://cdn.pixabay.com/photo/2016/07/16/22/25/industrial-background-1522842_1280.jpg"
    },
    {
        "id": "2597336",
        "src640": "https://cdn.pixabay.com/photo/2017/08/06/23/06/amusement-2597336_640.jpg",
        "src1280": "https://cdn.pixabay.com/photo/2017/08/06/23/06/amusement-2597336_1280.jpg"
    },
    {
        "id": "3635628",
        "src640": "https://cdn.pixabay.com/photo/2018/08/27/18/07/office-building-3635628_640.jpg",
        "src1280": "https://cdn.pixabay.com/photo/2018/08/27/18/07/office-building-3635628_1280.jpg"
    },
    {
        "id": "7765675",
        "src640": "https://cdn.pixabay.com/photo/2023/02/03/17/37/skyscrapers-7765675_640.jpg",
        "src1280": "https://cdn.pixabay.com/photo/2023/02/03/17/37/skyscrapers-7765675_1280.jpg"
    },
    {
        "id": "3822002",
        "src640": "https://cdn.pixabay.com/photo/2018/11/17/20/41/city-gate-3822002_640.jpg",
        "src1280": "https://cdn.pixabay.com/photo/2018/11/17/20/41/city-gate-3822002_1280.jpg"
    },
    {
        "id": "7414220",
        "src640": "https://cdn.pixabay.com/photo/2022/08/27/10/56/france-7414220_640.jpg",
        "src1280": "https://cdn.pixabay.com/photo/2022/08/27/10/56/france-7414220_1280.jpg"
    },
    {
        "id": "282602",
        "src640": "https://cdn.pixabay.com/photo/2014/03/07/16/55/salzburg-282602_640.jpg",
        "src1280": "https://cdn.pixabay.com/photo/2014/03/07/16/55/salzburg-282602_1280.jpg"
    },
    {
        "id": "4770571",
        "src640": "https://cdn.pixabay.com/photo/2020/01/16/13/31/morning-glory-4770571_640.jpg",
        "src1280": "https://cdn.pixabay.com/photo/2020/01/16/13/31/morning-glory-4770571_1280.jpg"
    },
    {
        "id": "7484613",
        "src640": "https://cdn.pixabay.com/photo/2022/09/28/09/55/background-7484613_640.jpg",
        "src1280": "https://cdn.pixabay.com/photo/2022/09/28/09/55/background-7484613_1280.jpg"
    },
    {
        "id": "7550044",
        "src640": "https://cdn.pixabay.com/photo/2022/10/27/04/51/cityscape-7550044_640.jpg",
        "src1280": "https://cdn.pixabay.com/photo/2022/10/27/04/51/cityscape-7550044_1280.jpg"
    },
    {
        "id": "4039274",
        "src640": "https://cdn.pixabay.com/photo/2019/03/07/00/55/new-york-city-4039274_640.jpg",
        "src1280": "https://cdn.pixabay.com/photo/2019/03/07/00/55/new-york-city-4039274_1280.jpg"
    },
    {
        "id": "4734856",
        "src640": "https://cdn.pixabay.com/photo/2020/01/02/03/06/new-york-4734856_640.jpg",
        "src1280": "https://cdn.pixabay.com/photo/2020/01/02/03/06/new-york-4734856_1280.jpg"
    },
    {
        "id": "7211031",
        "src640": "https://cdn.pixabay.com/photo/2022/05/21/09/05/ukrainian-flag-7211031_640.jpg",
        "src1280": "https://cdn.pixabay.com/photo/2022/05/21/09/05/ukrainian-flag-7211031_1280.jpg"
    },
    {
        "id": "4536132",
        "src640": "https://cdn.pixabay.com/photo/2019/10/08/23/00/beauty-4536132_640.jpg",
        "src1280": "https://cdn.pixabay.com/photo/2019/10/08/23/00/beauty-4536132_1280.jpg"
    },
    {
        "id": "7813326",
        "src640": "https://cdn.pixabay.com/photo/2023/02/25/13/52/skyscrapers-7813326_640.jpg",
        "src1280": "https://cdn.pixabay.com/photo/2023/02/25/13/52/skyscrapers-7813326_1280.jpg"
    },
    {
        "id": "2765380",
        "src640": "https://cdn.pixabay.com/photo/2017/09/19/14/10/florence-2765380_640.jpg",
        "src1280": "https://cdn.pixabay.com/photo/2017/09/19/14/10/florence-2765380_1280.jpg"
    },
    {
        "id": "7055050",
        "src640": "https://cdn.pixabay.com/photo/2022/03/08/05/59/ancient-town-7055050_640.jpg",
        "src1280": "https://cdn.pixabay.com/photo/2022/03/08/05/59/ancient-town-7055050_1280.jpg"
    },
    {
        "id": "7333083",
        "src640": "https://cdn.pixabay.com/photo/2022/07/19/22/06/architecture-7333083_640.jpg",
        "src1280": "https://cdn.pixabay.com/photo/2022/07/19/22/06/architecture-7333083_1280.jpg"
    },
    {
        "id": "4439506",
        "src640": "https://cdn.pixabay.com/photo/2019/08/29/17/29/olomouc-4439506_640.jpg",
        "src1280": "https://cdn.pixabay.com/photo/2019/08/29/17/29/olomouc-4439506_1280.jpg"
    },
    {
        "id": "7501328",
        "src640": "https://cdn.pixabay.com/photo/2022/10/05/19/02/woman-7501328_640.jpg",
        "src1280": "https://cdn.pixabay.com/photo/2022/10/05/19/02/woman-7501328_1280.jpg"
    },
    {
        "id": "4566922",
        "src640": "https://cdn.pixabay.com/photo/2019/10/21/19/01/portrait-4566922_640.jpg",
        "src1280": "https://cdn.pixabay.com/photo/2019/10/21/19/01/portrait-4566922_1280.jpg"
    },
    {
        "id": "7305194",
        "src640": "https://cdn.pixabay.com/photo/2022/07/06/13/34/women-7305194_640.jpg",
        "src1280": "https://cdn.pixabay.com/photo/2022/07/06/13/34/women-7305194_1280.jpg"
    },
    {
        "id": "4577945",
        "src640": "https://cdn.pixabay.com/photo/2019/10/25/19/59/venice-4577945_640.jpg",
        "src1280": "https://cdn.pixabay.com/photo/2019/10/25/19/59/venice-4577945_1280.jpg"
    }
]