[
    {
        "id": "6815896",
        "src640": "https://cdn.pixabay.com/photo/2021/11/22/06/20/church-6815896_640.jpg",
        "src1280": "https://cdn.pixabay.com/photo/2021/11/22/06/20/church-6815896_1280.jpg"
    },
    {
        "id": "4748496",
        "src640": "https://cdn.pixabay.com/photo/2020/01/07/20/12/door-4748496_640.jpg",
        "src1280": "https://cdn.pixabay.com/photo/2020/01/07/20/12/door-4748496_1280.jpg"
    },
    {
        "id": "4511519",
        "src640": "https://cdn.pixabay.com/photo/2019/09/28/18/48/city-4511519_640.jpg",
        "src1280": "https://cdn.pixabay.com/photo/2019/09/28/18/48/city-4511519_1280.jpg"
    },
    {
        "id": "4822641",
        "src640": "https://cdn.pixabay.com/photo/2020/02/05/23/07/tag-4822641_640.jpg",
        "src1280": "https://cdn.pixabay.com/photo/2020/02/05/23/07/tag-4822641_1280.jpg"
    },
    {
        "id": "7739542",
        "src640": "https://cdn.pixabay.com/photo/2023/01/23/19/59/man-7739542_640.jpg",
        "src1280": "https://cdn.pixabay.com/photo/2023/01/23/19/59/man-7739542_1280.jpg"
    },
    {
        "id": "7401932",
        "src640": "https://cdn.pixabay.com/photo/2022/08/21/19/42/alley-7401932_640.jpg",
        "src1280": "https://cdn.pixabay.com/photo/2022/08/21/19/42/alley-7401932_1280.jpg"
    },
    {
        "id": "4821616",
        "src640": "https://cdn.pixabay.com/photo/2020/02/05/16/05/building-4821616_640.jpg",
        "src1280": "https://cdn.pixabay.com/photo/2020/02/05/16/05/building-4821616_1280.jpg"
    },
    {
        "id": "1026663",
        "src640": "https://cdn.pixabay.com/photo/2015/11/06/12/06/old-new-synagogue-1026663_640.jpg",
        "src1280": "https://cdn.pixabay.com/photo/2015/11/06/12/06/old-new-synagogue-1026663_1280.jpg"
    },
    {
        "id": "4761108",
        "src640": "https://cdn.pixabay.com/photo/2020/01/12/21/12/krnov-4761108_640.jpg",
        "src1280": "https://cdn.pixabay.com/photo/2020/01/12/21/12/krnov-4761108_1280.jpg"
    },
    {
        "id": "5471359",
        "src640": "https://cdn.pixabay.com/photo/2020/08/07/18/49/city-5471359_640.jpg",
        "src1280": "https://cdn.pixabay.com/photo/2020/08/07/18/49/city-5471359_1280.jpg"
    },
    {
        "id": "50460",
        "src640": "https://cdn.pixabay.com/photo/2012/06/21/19/16/tree-50460_640.jpg",
        "src1280": "https://cdn.pixabay.com/photo/2012/06/21/19/16/tree-50460_1280.jpg"
    },
    {
        "id": "3397282",
        "src640": "https://cdn.pixabay.com/photo/2018/05/13/18/06/view-3397282_640.jpg",
        "src1280": "https://cdn.pixabay.com/photo/2018/05/13/18/06/view-3397282_1280.jpg"
    },
    {
        "id": "5470639",
        "src640": "https://cdn.pixabay.com/photo/2020/08/07/13/24/building-5470639_640.jpg",
        "src1280": "https://cdn.pixabay.com/photo/2020/08/07/13/24/building-5470639_1280.jpg"
    },
    {
        "id": "8008254",
        "src640": "https://cdn.pixabay.com/photo/2023/05/21/10/48/woman-8008254_640.jpg",
        "src1280": "https://cdn.pixabay.com/photo/2023/05/21/10/48/woman-8008254_1280.jpg"
    },
    {
        "id": "6553189",
        "src640": "https://cdn.pixabay.com/photo/2021/08/17/14/33/street-6553189_640.jpg",
        "src1280": "https://cdn.pixabay.com/photo/2021/08/17/14/33/street-6553189_1280.jpg"
    },
    {
        "id": "107888",
        "src640": "https://cdn.pixabay.com/photo/2013/04/29/10/13/padova-107888_640.jpg",
        "src1280": "https://cdn.pixabay.com/photo/2013/04/29/10/13/padova-107888_1280.jpg"
    },
    {
        "id": "1028207",
        "src640": "https://cdn.pixabay.com/photo/2015/11/06/14/08/roof-1028207_640.jpg",
        "src1280": "https://cdn.pixabay.com/photo/2015/11/06/14/08/roof-1028207_1280.jpg"
    },
    {
        "id": "4945683",
        "src640": "https://cdn.pixabay.com/photo/2020/03/18/22/54/budapest-4945683_640.jpg",
        "src1280": "https://cdn.pixabay.com/photo/2020/03/18/22/54/budapest-4945683_1280.jpg"
    },
    {
        "id": "6498881",
        "src640": "https://cdn.pixabay.com/photo/2021/07/28/10/43/stray-6498881_640.jpg",
        "src1280": "https://cdn.pixabay.com/photo/2021/07/28/10/43/stray-6498881_1280.jpg"
    },
    {
        "id": "4298782",
        "src640": "https://cdn.pixabay.com/photo/2019/06/25/18/31/london-4298782_640.jpg",
        "src1280": "https://cdn.pixabay.com/photo/2019/06/25/18/31/london-4298782_1280.jpg"
    },
    {
        "id": "4881014",
        "src640": "https://cdn.pixabay.com/photo/2020/02/26/08/10/barcelona-4881014_640.jpg",
        "src1280": "https://cdn.pixabay.com/photo/2020/02/26/08/10/barcelona-4881014_1280.jpg"
    },
    {
        "id": "7409795",
        "src640": "https://cdn.pixabay.com/photo/2022/08/25/09/36/linz-7409795_640.jpg",
        "src1280": "https://cdn.pixabay.com/photo/2022/08/25/09/36/linz-7409795_1280.jpg"
    },
    {
        "id": "5377550",
        "src640": "https://cdn.pixabay.com/photo/2020/07/06/16/29/cathedral-5377550_640.jpg",
        "src1280": "https://cdn.pixabay.com/photo/2020/07/06/16/29/cathedral-5377550_1280.jpg"
    },
    {
        "id": "5329399",
        "src640": "https://cdn.pixabay.com/photo/2020/06/22/14/35/nyc-5329399_640.jpg",
        "src1280": "https://cdn.pixabay.com/photo/2020/06/22/14/35/nyc-5329399_1280.jpg"
    },
    {
        "id": "86038",
        "src640": "https://cdn.pixabay.com/photo/2013/02/25/16/15/melbourne-86038_640.jpg",
        "src1280": "https://cdn.pixabay.com/photo/2013/02/25/16/15/melbourne-86038_1280.jpg"
    },
    {
        "id": "4679951",
        "src640": "https://cdn.pixabay.com/photo/2019/12/07/19/33/flower-4679951_640.jpg",
        "src1280": "https://cdn.pixabay.com/photo/2019/12/07/19/33/flower-4679951_1280.jpg"
    },
    {
        "id": "1622491",
        "src640": "https://cdn.pixabay.com/photo/2016/08/26/15/34/venice-1622491_640.jpg",
        "src1280": "https://cdn.pixabay.com/photo/2016/08/26/15/34/venice-1622491_1280.jpg"
    },
    {
        "id": "6472826",
        "src640": "https://cdn.pixabay.com/photo/2021/07/17/10/55/city-6472826_640.jpg",
        "src1280": "https://cdn.pixabay.com/photo/2021/07/17/10/55/city-6472826_1280.jpg"
    },
    {
        "id": "7568029",
        "src640": "https://cdn.pixabay.com/photo/2022/11/03/17/48/woman-7568029_640.jpg",
        "src1280": "https://cdn.pixabay.com/photo/2022/11/03/17/48/woman-7568029_1280.jpg"
    },
    {
        "id": "5725426",
        "src640": "https://cdn.pixabay.com/photo/2020/11/09/02/54/girl-5725426_640.jpg",
        "src1280": "https://cdn.pixabay.com/photo/2020/11/09/02/54/girl-5725426_1280.jpg"
    },
    {
        "id": "1611765",
        "src640": "https://cdn.pixabay.com/photo/2016/08/22/11/30/paris-1611765_640.jpg",
        "src1280": "https://cdn.pixabay.com/photo/2016/08/22/11/30/paris-1611765_1280.jpg"
    },
    {
        "id": "226870",
        "src640": "https://cdn.pixabay.com/photo/2013/12/11/15/47/kar-bridge-226870_640.jpg",
        "src1280": "https://cdn.pixabay.com/photo/2013/12/11/15/47/kar-bridge-226870_1280.jpg"
    },
    {
        "id": "107313",
        "src640": "https://cdn.pixabay.com/photo/2013/04/26/19/57/old-107313_640.jpg",
        "src1280": "https://cdn.pixabay.com/photo/2013/04/26/19/57/old-107313_1280.jpg"
    },
    {
        "id": "5165076",
        "src640": "https://cdn.pixabay.com/photo/2020/05/12/21/58/miami-5165076_640.jpg",
        "src1280": "https://cdn.pixabay.com/photo/2020/05/12/21/58/miami-5165076_1280.jpg"
    },
    {
        "id": "7613553",
        "src640": "https://cdn.pixabay.com/photo/2022/11/24/06/13/woman-7613553_640.jpg",
        "src1280": "https://cdn.pixabay.com/photo/2022/11/24/06/13/woman-7613553_1280.jpg"
    },
    {
        "id": "7607084",
        "src640": "https://cdn.pixabay.com/photo/2022/11/21/13/34/girl-7607084_640.jpg",
        "src1280": "https://cdn.pixabay.com/photo/2022/11/21/13/34/girl-7607084_1280.jpg"
    },
    {
        "id": "1521764",
        "src640": "https://cdn.pixabay.com/photo/2016/07/16/13/34/roussillon-1521764_640.jpg",
        "src1280": "https://cdn.pixabay.com/photo/2016/07/16/13/34/roussillon-1521764_1280.jpg"
    },
    {
        "id": "7638767",
        "src640": "https://cdn.pixabay.com/photo/2022/12/06/11/22/building-7638767_640.jpg",
        "src1280": "https://cdn.pixabay.com/photo/2022/12/06/11/22/building-7638767_1280.jpg"
    },
    {
        "id": "7340184",
        "src640": "https://cdn.pixabay.com/photo/2022/07/23/16/05/architecture-7340184_640.jpg",
        "src1280": "https://cdn.pixabay.com/photo/2022/07/23/16/05/architecture-7340184_1280.jpg"
    },
    {
        "id": "6544939",
        "src640": "https://cdn.pixabay.com/photo/2021/08/14/09/43/building-6544939_640.jpg",
        "src1280": "https://cdn.pixabay.com/photo/2021/08/14/09/43/building-6544939_1280.jpg"
    },
    {
        "id": "4034457",
        "src640": "https://cdn.pixabay.com/photo/2019/03/04/15/43/malta-4034457_640.jpg",
        "src1280": "https://cdn.pixabay.com/photo/2019/03/04/15/43/malta-4034457_1280.jpg"
    },
    {
        "id": "7198052",
        "src640": "https://cdn.pixabay.com/photo/2022/05/15/13/37/lonely-girl-in-ao-dai-7198052_640.jpg",
        "src1280": "https://cdn.pixabay.com/photo/2022/05/15/13/37/lonely-girl-in-ao-dai-7198052_1280.jpg"
    },
    {
        "id": "6999501",
        "src640": "https://cdn.pixabay.com/photo/2022/02/07/14/21/man-6999501_640.jpg",
        "src1280": "https://cdn.pixabay.com/photo/2022/02/07/14/21/man-6999501_1280.jpg"
    },
    {
        "id": "867150",
        "src640": "https://cdn.pixabay.com/photo/2015/07/30/10/28/zurich-867150_640.jpg",
        "src1280": "https://cdn.pixabay.com/photo/2015/07/30/10/28/zurich-867150_1280.jpg"
    },
    {
        "id": "6262594",
        "src640": "https://cdn.pixabay.com/photo/2021/05/18/08/07/buildings-6262594_640.jpg",
        "src1280": "https://cdn.pixabay.com/photo/2021/05/18/08/07/buildings-6262594_1280.jpg"
    },
    {
        "id": "5130062",
        "src640": "https://cdn.pixabay.com/photo/2020/05/04/18/14/weed-5130062_640.jpg",
        "src1280": "https://cdn.pixabay.com/photo/2020/05/04/18/14/weed-5130062_1280.jpg"
    },
    {
        "id": "3635605",
        "src640": "https://cdn.pixabay.com/photo/2018/08/27/17/58/bridge-3635605_640.jpg",
        "src1280": "https://cdn.pixabay.com/photo/2018/08/27/17/58/bridge-3635605_1280.jpg"
    },
    {
        "id": "7091750",
        "src640": "https://cdn.pixabay.com/photo/2022/03/25/20/17/city-7091750_640.jpg",
        "src1280": "https://cdn.pixabay.com/photo/2022/03/25/20/17/city-7091750_1280.jpg"
    },
    {
        "id": "3290121",
        "src640": "https://cdn.pixabay.com/photo/2018/04/04/15/36/architecture-3290121_640.jpg",
        "src1280": "https://cdn.pixabay.com/photo/2018/04/04/15/36/architecture-3290121_1280.jpg"
    },
    {
        "id": "2445000",
        "src640": "https://cdn.pixabay.com/photo/2017/06/26/20/03/sea-2445000_640.jpg",
        "src1280": "https://cdn.pixabay.com/photo/2017/06/26/20/03/sea-2445000_1280.jpg"
    },
    {
        "id": "4945118",
        "src640": "https://cdn.pixabay.com/photo/2020/03/18/18/31/ireland-4945118_640.jpg",
        "src1280": "https://cdn.pixabay.com/photo/2020/03/18/18/31/ireland-4945118_1280.jpg"
    },
    {
        "id": "7241723",
        "src640": "https://cdn.pixabay.com/photo/2022/06/04/11/19/city-7241723_640.jpg",
        "src1280": "https://cdn.pixabay.com/photo/2022/06/04/11/19/city-7241723_1280.jpg"
    },
    {
        "id": "7580293",
        "src640": "https://cdn.pixabay.com/photo/2022/11/09/10/49/woman-7580293_640.jpg",
        "src1280": "https://cdn.pixabay.com/photo/2022/11/09/10/49/woman-7580293_1280.jpg"
    },
    {
        "id": "7358075",
        "src640": "https://cdn.pixabay.com/photo/2022/08/01/12/36/early-morning-7358075_640.jpg",
        "src1280": "https://cdn.pixabay.com/photo/2022/08/01/12/36/early-morning-7358075_1280.jpg"
    },
    {
        "id": "4597343",
        "src640": "https://cdn.pixabay.com/photo/2019/11/02/20/14/window-4597343_640.jpg",
        "src1280": "https://cdn.pixabay.com/photo/2019/11/02/20/14/window-4597343_1280.jpg"
    },
    {
        "id": "7033619",
        "src640": "https://cdn.pixabay.com/photo/2022/02/25/06/00/street-7033619_640.jpg",
        "src1280": "https://cdn.pixabay.com/photo/2022/02/25/06/00/street-7033619_1280.jpg"
    },
    {
        "id": "6815408",
        "src640": "https://cdn.pixabay.com/photo/2021/11/21/22/33/tram-6815408_640.jpg",
        "src1280": "https://cdn.pixabay.com/photo/2021/11/21/22/33/tram-6815408_1280.jpg"
    },
    {
        "id": "6981498",
        "src640": "https://cdn.pixabay.com/photo/2022/01/30/16/13/canada-6981498_640.jpg",
        "src1280": "https://cdn.pixabay.com/photo/2022/01/30/16/13/canada-6981498_1280.jpg"
    },
    {
        "id": "7383187",
        "src640": "https://cdn.pixabay.com/photo/2022/08/13/08/57/woman-7383187_640.jpg",
        "src1280": "https://cdn.pixabay.com/photo/2022/08/13/08/57/woman-7383187_1280.jpg"
    },
    {
        "id": "3481654",
        "src640": "https://cdn.pixabay.com/photo/2018/06/17/23/51/manhattan-3481654_640.jpg",
        "src1280": "https://cdn.pixabay.com/photo/2018/06/17/23/51/manhattan-3481654_1280.jpg"
    },
    {
        "id": "2632557",
        "src640": "https://cdn.pixabay.com/photo/2017/08/11/19/55/sunset-2632557_640.jpg",
        "src1280": "https://cdn.pixabay.com/photo/2017/08/11/19/55/sunset-2632557_1280.jpg"
    },
    {
        "id": "7310822",
        "src640": "https://cdn.pixabay.com/photo/2022/07/09/12/41/girl-7310822_640.jpg",
        "src1280": "https://cdn.pixabay.com/photo/2022/07/09/12/41/girl-7310822_1280.jpg"
    },
    {
        "id": "1836364",
        "src640": "https://cdn.pixabay.com/photo/2016/11/18/18/44/cars-1836364_640.jpg",
        "src1280": "https://cdn.pixabay.com/photo/2016/11/18/18/44/cars-1836364_1280.jpg"
    },
    {
        "id": "7792694",
        "src640": "https://cdn.pixabay.com/photo/2023/02/15/21/50/louvre-7792694_640.jpg",
        "src1280": "https://cdn.pixabay.com/photo/2023/02/15/21/50/louvre-7792694_1280.jpg"
    },
    {
        "id": "3575951",
        "src640": "https://cdn.pixabay.com/photo/2018/07/31/21/13/city-3575951_640.jpg",
        "src1280": "https://cdn.pixabay.com/photo/2018/07/31/21/13/city-3575951_1280.jpg"
    },
    {
        "id": "7566690",
        "src640": "https://cdn.pixabay.com/photo/2022/11/03/05/47/woman-7566690_640.jpg",
        "src1280": "https://cdn.pixabay.com/photo/2022/11/03/05/47/woman-7566690_1280.jpg"
    },
    {
        "id": "943307",
        "src640": "https://cdn.pixabay.com/photo/2015/09/16/20/25/old-building-stones-943307_640.jpg",
        "src1280": "https://cdn.pixabay.com/photo/2015/09/16/20/25/old-building-stones-943307_1280.jpg"
    },
    {
        "id": "5979489",
        "src640": "https://cdn.pixabay.com/photo/2021/02/03/21/55/building-5979489_640.jpg",
        "src1280": "https://cdn.pixabay.com/photo/2021/02/03/21/55/building-5979489_1280.jpg"
    },
    {
        "id": "4591034",
        "src640": "https://cdn.pixabay.com/photo/2019/10/31/05/51/sunglasses-4591034_640.jpg",
        "src1280": "https://cdn.pixabay.com/photo/2019/10/31/05/51/sunglasses-4591034_1280.jpg"
    },
    {
        "id": "7060911",
        "src640": "https://cdn.pixabay.com/photo/2022/03/10/23/12/carrion-7060911_640.jpg",
        "src1280": "https://cdn.pixabay.com/photo/2022/03/10/23/12/carrion-7060911_1280.jpg"
    },
    {
        "id": "4889976",
        "src640": "https://cdn.pixabay.com/photo/2020/02/29/12/58/krakow-4889976_640.jpg",
        "src1280": "https://cdn.pixabay.com/photo/2020/02/29/12/58/krakow-4889976_1280.jpg"
    },
    {
        "id": "6495624",
        "src640": "https://cdn.pixabay.com/photo/2021/07/27/01/50/ao-dai-6495624_640.jpg",
        "src1280": "https://cdn.pixabay.com/photo/2021/07/27/01/50/ao-dai-6495624_1280.jpg"
    },
    {
        "id": "7567960",
        "src640": "https://cdn.pixabay.com/photo/2022/11/03/17/17/woman-7567960_640.jpg",
        "src1280": "https://cdn.pixabay.com/photo/2022/11/03/17/17/woman-7567960_1280.jpg"
    },
    {
        "id": "8200987",
        "src640": "https://cdn.pixabay.com/photo/2023/08/19/18/30/woman-8200987_640.jpg",
        "src1280": "https://cdn.pixabay.com/photo/2023/08/19/18/30/woman-8200987_1280.jpg"
    },
    {
        "id": "6715745",
        "src640": "https://cdn.pixabay.com/photo/2021/10/16/18/41/cosplay-6715745_640.jpg",
        "src1280": "https://cdn.pixabay.com/photo/2021/10/16/18/41/cosplay-6715745_1280.jpg"
    },
    {
        "id": "4255744",
        "src640": "https://cdn.pixabay.com/photo/2019/06/06/11/04/eiffel-tower-4255744_640.jpg",
        "src1280": "https://cdn.pixabay.com/photo/2019/06/06/11/04/eiffel-tower-4255744_1280.jpg"
    },
    {
        "id": "2121359",
        "src640": "https://cdn.pixabay.com/photo/2017/03/06/12/13/graffiti-2121359_640.jpg",
        "src1280": "https://cdn.pixabay.com/photo/2017/03/06/12/13/graffiti-2121359_1280.jpg"
    },
    {
        "id": "3982795",
        "src640": "https://cdn.pixabay.com/photo/2019/02/08/07/46/paris-3982795_640.jpg",
        "src1280": "https://cdn.pixabay.com/photo/2019/02/08/07/46/paris-3982795_1280.jpg"
    },
    {
        "id": "394024",
        "src640": "https://cdn.pixabay.com/photo/2014/07/15/15/16/uppsala-394024_640.jpg",
        "src1280": "https://cdn.pixabay.com/photo/2014/07/15/15/16/uppsala-394024_1280.jpg"
    },
    {
        "id": "652342",
        "src640": "https://cdn.pixabay.com/photo/2015/02/27/16/29/buildings-652342_640.jpg",
        "src1280": "https://cdn.pixabay.com/photo/2015/02/27/16/29/buildings-652342_1280.jpg"
    },
    {
        "id": "7460560",
        "src640": "https://cdn.pixabay.com/photo/2022/09/17/09/47/girl-7460560_640.jpg",
        "src1280": "https://cdn.pixabay.com/photo/2022/09/17/09/47/girl-7460560_1280.jpg"
    },
    {
        "id": "7300084",
        "src640": "https://cdn.pixabay.com/photo/2022/07/03/23/54/bicycle-7300084_640.jpg",
        "src1280": "https://cdn.pixabay.com/photo/2022/07/03/23/54/bicycle-7300084_1280.jpg"
    },
    {
        "id": "6127653",
        "src640": "https://cdn.pixabay.com/photo/2021/03/27/07/05/building-6127653_640.jpg",
        "src1280": "https://cdn.pixabay.com/photo/2021/03/27/07/05/building-6127653_1280.jpg"
    },
    {
        "id": "6758531",
        "src640": "https://cdn.pixabay.com/photo/2021/10/31/19/00/republic-square-6758531_640.jpg",
        "src1280": "https://cdn.pixabay.com/photo/2021/10/31/19/00/republic-square-6758531_1280.jpg"
    },
    {
        "id": "5013643",
        "src640": "https://cdn.pixabay.com/photo/2020/04/07/14/41/parisian-5013643_640.jpg",
        "src1280": "https://cdn.pixabay.com/photo/2020/04/07/14/41/parisian-5013643_1280.jpg"
    },
    {
        "id": "6039113",
        "src640": "https://cdn.pixabay.com/photo/2021/02/22/07/07/taipei-101-6039113_640.jpg",
        "src1280": "https://cdn.pixabay.com/photo/2021/02/22/07/07/taipei-101-6039113_1280.jpg"
    },
    {
        "id": "5867982",
        "src640": "https://cdn.pixabay.com/photo/2020/12/28/17/36/mountains-5867982_640.jpg",
        "src1280": "https://cdn.pixabay.com/photo/2020/12/28/17/36/mountains-5867982_1280.jpg"
    },
    {
        "id": "5443609",
        "src640": "https://cdn.pixabay.com/photo/2020/07/27/22/57/alley-5443609_640.jpg",
        "src1280": "https://cdn.pixabay.com/photo/2020/07/27/22/57/alley-5443609_1280.jpg"
    },
    {
        "id": "15244",
        "src640": "https://cdn.pixabay.com/photo/2012/02/22/09/13/plaza-15244_640.jpg",
        "src1280": "https://cdn.pixabay.com/photo/2012/02/22/09/13/plaza-15244_1280.jpg"
    },
    {
        "id": "4355208",
        "src640": "https://cdn.pixabay.com/photo/2019/07/22/14/14/city-4355208_640.jpg",
        "src1280": "https://cdn.pixabay.com/photo/2019/07/22/14/14/city-4355208_1280.jpg"
    },
    {
        "id": "5456172",
        "src640": "https://cdn.pixabay.com/photo/2020/08/01/19/55/trees-5456172_640.jpg",
        "src1280": "https://cdn.pixabay.com/photo/2020/08/01/19/55/trees-5456172_1280.jpg"
    },
    {
        "id": "6563522",
        "src640": "https://cdn.pixabay.com/photo/2021/08/21/20/21/central-park-6563522_640.jpg",
        "src1280": "https://cdn.pixabay.com/photo/2021/08/21/20/21/central-park-6563522_1280.jpg"
    },
    {
        "id": "6950828",
        "src640": "https://cdn.pixabay.com/photo/2022/01/19/19/41/san-francisco-6950828_640.jpg",
        "src1280": "https://cdn.pixabay.com/photo/2022/01/19/19/41/san-francisco-6950828_1280.jpg"
    },
    {
        "id": "4957156",
        "src640": "https://cdn.pixabay.com/photo/2020/03/22/13/34/building-4957156_640.jpg",
        "src1280": "https://cdn.pixabay.com/photo/2020/03/22/13/34/building-4957156_1280.jpg"
    },
    {
        "id": "7726029",
        "src640": "https://cdn.pixabay.com/photo/2023/01/18/04/10/tuktuk-7726029_640.jpg",
        "src1280": "https://cdn.pixabay.com/photo/2023/01/18/04/10/tuktuk-7726029_1280.jpg"
    }
]