[
    {
        "id": "6019582",
        "src640": "https://cdn.pixabay.com/photo/2021/02/16/00/55/empire-state-building-6019582_640.jpg",
        "src1280": "https://cdn.pixabay.com/photo/2021/02/16/00/55/empire-state-building-6019582_1280.jpg"
    },
    {
        "id": "7526462",
        "src640": "https://cdn.pixabay.com/photo/2022/10/17/02/14/toronto-7526462_640.jpg",
        "src1280": "https://cdn.pixabay.com/photo/2022/10/17/02/14/toronto-7526462_1280.jpg"
    },
    {
        "id": "7629245",
        "src640": "https://cdn.pixabay.com/photo/2022/12/01/14/46/city-buildings-7629245_640.jpg",
        "src1280": "https://cdn.pixabay.com/photo/2022/12/01/14/46/city-buildings-7629245_1280.jpg"
    },
    {
        "id": "8060656",
        "src640": "https://cdn.pixabay.com/photo/2023/06/13/10/41/ai-generated-8060656_640.jpg",
        "src1280": "https://cdn.pixabay.com/photo/2023/06/13/10/41/ai-generated-8060656_1280.jpg"
    },
    {
        "id": "2605379",
        "src640": "https://cdn.pixabay.com/photo/2017/08/07/16/22/tram-2605379_640.jpg",
        "src1280": "https://cdn.pixabay.com/photo/2017/08/07/16/22/tram-2605379_1280.jpg"
    },
    {
        "id": "5514239",
        "src640": "https://cdn.pixabay.com/photo/2020/08/24/15/43/building-5514239_640.jpg",
        "src1280": "https://cdn.pixabay.com/photo/2020/08/24/15/43/building-5514239_1280.jpg"
    },
    {
        "id": "7274509",
        "src640": "https://cdn.pixabay.com/photo/2022/06/20/19/59/castle-7274509_640.jpg",
        "src1280": "https://cdn.pixabay.com/photo/2022/06/20/19/59/castle-7274509_1280.jpg"
    },
    {
        "id": "7314315",
        "src640": "https://cdn.pixabay.com/photo/2022/07/11/07/12/people-7314315_640.jpg",
        "src1280": "https://cdn.pixabay.com/photo/2022/07/11/07/12/people-7314315_1280.jpg"
    },
    {
        "id": "7580504",
        "src640": "https://cdn.pixabay.com/photo/2022/11/09/12/43/footpath-7580504_640.jpg",
        "src1280": "https://cdn.pixabay.com/photo/2022/11/09/12/43/footpath-7580504_1280.jpg"
    },
    {
        "id": "274823",
        "src640": "https://cdn.pixabay.com/photo/2014/02/26/03/54/philippines-274823_640.jpg",
        "src1280": "https://cdn.pixabay.com/photo/2014/02/26/03/54/philippines-274823_1280.jpg"
    },
    {
        "id": "4708424",
        "src640": "https://cdn.pixabay.com/photo/2019/12/20/13/27/woman-4708424_640.jpg",
        "src1280": "https://cdn.pixabay.com/photo/2019/12/20/13/27/woman-4708424_1280.jpg"
    },
    {
        "id": "2644506",
        "src640": "https://cdn.pixabay.com/photo/2017/08/15/16/02/minaret-2644506_640.jpg",
        "src1280": "https://cdn.pixabay.com/photo/2017/08/15/16/02/minaret-2644506_1280.jpg"
    },
    {
        "id": "7453573",
        "src640": "https://cdn.pixabay.com/photo/2022/09/14/07/02/galata-tower-7453573_640.jpg",
        "src1280": "https://cdn.pixabay.com/photo/2022/09/14/07/02/galata-tower-7453573_1280.jpg"
    },
    {
        "id": "7631103",
        "src640": "https://cdn.pixabay.com/photo/2022/12/02/15/30/alexander-nevsky-cathedral-7631103_640.jpg",
        "src1280": "https://cdn.pixabay.com/photo/2022/12/02/15/30/alexander-nevsky-cathedral-7631103_1280.jpg"
    },
    {
        "id": "1026756",
        "src640": "https://cdn.pixabay.com/photo/2015/11/06/12/13/petri-1026756_640.jpg",
        "src1280": "https://cdn.pixabay.com/photo/2015/11/06/12/13/petri-1026756_1280.jpg"
    },
    {
        "id": "5163997",
        "src640": "https://cdn.pixabay.com/photo/2020/05/12/17/04/girl-5163997_640.jpg",
        "src1280": "https://cdn.pixabay.com/photo/2020/05/12/17/04/girl-5163997_1280.jpg"
    },
    {
        "id": "7471774",
        "src640": "https://cdn.pixabay.com/photo/2022/09/22/06/44/bridge-7471774_640.jpg",
        "src1280": "https://cdn.pixabay.com/photo/2022/09/22/06/44/bridge-7471774_1280.jpg"
    },
    {
        "id": "4292179",
        "src640": "https://cdn.pixabay.com/photo/2019/06/22/18/25/woman-4292179_640.jpg",
        "src1280": "https://cdn.pixabay.com/photo/2019/06/22/18/25/woman-4292179_1280.jpg"
    },
    {
        "id": "2667136",
        "src640": "https://cdn.pixabay.com/photo/2017/08/21/22/18/dreieich-2667136_640.jpg",
        "src1280": "https://cdn.pixabay.com/photo/2017/08/21/22/18/dreieich-2667136_1280.jpg"
    },
    {
        "id": "7323400",
        "src640": "https://cdn.pixabay.com/photo/2022/07/15/15/23/woman-7323400_640.jpg",
        "src1280": "https://cdn.pixabay.com/photo/2022/07/15/15/23/woman-7323400_1280.jpg"
    },
    {
        "id": "7838419",
        "src640": "https://cdn.pixabay.com/photo/2023/03/08/17/44/staff-7838419_640.jpg",
        "src1280": "https://cdn.pixabay.com/photo/2023/03/08/17/44/staff-7838419_1280.jpg"
    },
    {
        "id": "5955037",
        "src640": "https://cdn.pixabay.com/photo/2021/01/27/14/18/giottos-bell-tower-5955037_640.jpg",
        "src1280": "https://cdn.pixabay.com/photo/2021/01/27/14/18/giottos-bell-tower-5955037_1280.jpg"
    },
    {
        "id": "2524184",
        "src640": "https://cdn.pixabay.com/photo/2017/07/20/23/41/frauenkirche-2524184_640.jpg",
        "src1280": "https://cdn.pixabay.com/photo/2017/07/20/23/41/frauenkirche-2524184_1280.jpg"
    },
    {
        "id": "4420669",
        "src640": "https://cdn.pixabay.com/photo/2019/08/21/09/30/norway-4420669_640.jpg",
        "src1280": "https://cdn.pixabay.com/photo/2019/08/21/09/30/norway-4420669_1280.jpg"
    },
    {
        "id": "7705585",
        "src640": "https://cdn.pixabay.com/photo/2023/01/08/15/44/rome-7705585_640.jpg",
        "src1280": "https://cdn.pixabay.com/photo/2023/01/08/15/44/rome-7705585_1280.jpg"
    },
    {
        "id": "5096611",
        "src640": "https://cdn.pixabay.com/photo/2020/04/26/18/36/switzerland-5096611_640.jpg",
        "src1280": "https://cdn.pixabay.com/photo/2020/04/26/18/36/switzerland-5096611_1280.jpg"
    },
    {
        "id": "7676631",
        "src640": "https://cdn.pixabay.com/photo/2022/12/25/00/47/detective-7676631_640.jpg",
        "src1280": "https://cdn.pixabay.com/photo/2022/12/25/00/47/detective-7676631_1280.jpg"
    },
    {
        "id": "7562690",
        "src640": "https://cdn.pixabay.com/photo/2022/11/01/15/58/girlie-7562690_640.jpg",
        "src1280": "https://cdn.pixabay.com/photo/2022/11/01/15/58/girlie-7562690_1280.jpg"
    },
    {
        "id": "4753707",
        "src640": "https://cdn.pixabay.com/photo/2020/01/09/19/09/woman-4753707_640.jpg",
        "src1280": "https://cdn.pixabay.com/photo/2020/01/09/19/09/woman-4753707_1280.jpg"
    },
    {
        "id": "7698066",
        "src640": "https://cdn.pixabay.com/photo/2023/01/05/04/45/woman-7698066_640.jpg",
        "src1280": "https://cdn.pixabay.com/photo/2023/01/05/04/45/woman-7698066_1280.jpg"
    },
    {
        "id": "6817313",
        "src640": "https://cdn.pixabay.com/photo/2021/11/22/19/50/city-6817313_640.jpg",
        "src1280": "https://cdn.pixabay.com/photo/2021/11/22/19/50/city-6817313_1280.jpg"
    },
    {
        "id": "8022572",
        "src640": "https://cdn.pixabay.com/photo/2023/05/28/00/34/mother-and-son-8022572_640.jpg",
        "src1280": "https://cdn.pixabay.com/photo/2023/05/28/00/34/mother-and-son-8022572_1280.jpg"
    },
    {
        "id": "2928402",
        "src640": "https://cdn.pixabay.com/photo/2017/11/07/21/43/cami-2928402_640.jpg",
        "src1280": "https://cdn.pixabay.com/photo/2017/11/07/21/43/cami-2928402_1280.jpg"
    },
    {
        "id": "5227689",
        "src640": "https://cdn.pixabay.com/photo/2020/05/27/15/43/house-5227689_640.jpg",
        "src1280": "https://cdn.pixabay.com/photo/2020/05/27/15/43/house-5227689_1280.jpg"
    },
    {
        "id": "7712844",
        "src640": "https://cdn.pixabay.com/photo/2023/01/11/21/08/fantasy-7712844_640.jpg",
        "src1280": "https://cdn.pixabay.com/photo/2023/01/11/21/08/fantasy-7712844_1280.jpg"
    },
    {
        "id": "3035243",
        "src640": "https://cdn.pixabay.com/photo/2017/12/23/13/42/photographer-3035243_640.jpg",
        "src1280": "https://cdn.pixabay.com/photo/2017/12/23/13/42/photographer-3035243_1280.jpg"
    },
    {
        "id": "5043326",
        "src640": "https://cdn.pixabay.com/photo/2020/04/14/16/10/sun-5043326_640.jpg",
        "src1280": "https://cdn.pixabay.com/photo/2020/04/14/16/10/sun-5043326_1280.jpg"
    },
    {
        "id": "5554994",
        "src640": "https://cdn.pixabay.com/photo/2020/09/08/15/13/buildings-5554994_640.jpg",
        "src1280": "https://cdn.pixabay.com/photo/2020/09/08/15/13/buildings-5554994_1280.jpg"
    },
    {
        "id": "2582090",
        "src640": "https://cdn.pixabay.com/photo/2017/08/05/02/33/amusement-park-2582090_640.jpg",
        "src1280": "https://cdn.pixabay.com/photo/2017/08/05/02/33/amusement-park-2582090_1280.jpg"
    },
    {
        "id": "943989",
        "src640": "https://cdn.pixabay.com/photo/2015/09/17/11/54/las-vegas-943989_640.jpg",
        "src1280": "https://cdn.pixabay.com/photo/2015/09/17/11/54/las-vegas-943989_1280.jpg"
    },
    {
        "id": "5180433",
        "src640": "https://cdn.pixabay.com/photo/2020/05/17/07/21/ladder-5180433_640.jpg",
        "src1280": "https://cdn.pixabay.com/photo/2020/05/17/07/21/ladder-5180433_1280.jpg"
    },
    {
        "id": "2104986",
        "src640": "https://cdn.pixabay.com/photo/2017/02/28/06/33/vevey-2104986_640.jpg",
        "src1280": "https://cdn.pixabay.com/photo/2017/02/28/06/33/vevey-2104986_1280.jpg"
    },
    {
        "id": "7048526",
        "src640": "https://cdn.pixabay.com/photo/2022/03/05/07/41/city-7048526_640.jpg",
        "src1280": "https://cdn.pixabay.com/photo/2022/03/05/07/41/city-7048526_1280.jpg"
    },
    {
        "id": "1637338",
        "src640": "https://cdn.pixabay.com/photo/2016/09/01/19/40/volterra-1637338_640.jpg",
        "src1280": "https://cdn.pixabay.com/photo/2016/09/01/19/40/volterra-1637338_1280.jpg"
    },
    {
        "id": "2563391",
        "src640": "https://cdn.pixabay.com/photo/2017/08/01/08/08/architecture-2563391_640.jpg",
        "src1280": "https://cdn.pixabay.com/photo/2017/08/01/08/08/architecture-2563391_1280.jpg"
    },
    {
        "id": "7727854",
        "src640": "https://cdn.pixabay.com/photo/2023/01/18/21/16/architecture-7727854_640.jpg",
        "src1280": "https://cdn.pixabay.com/photo/2023/01/18/21/16/architecture-7727854_1280.jpg"
    },
    {
        "id": "8192663",
        "src640": "https://cdn.pixabay.com/photo/2023/08/15/19/18/man-8192663_640.jpg",
        "src1280": "https://cdn.pixabay.com/photo/2023/08/15/19/18/man-8192663_1280.jpg"
    },
    {
        "id": "6152449",
        "src640": "https://cdn.pixabay.com/photo/2021/04/05/07/15/ferrari-6152449_640.jpg",
        "src1280": "https://cdn.pixabay.com/photo/2021/04/05/07/15/ferrari-6152449_1280.jpg"
    },
    {
        "id": "6635677",
        "src640": "https://cdn.pixabay.com/photo/2021/09/18/17/28/woman-6635677_640.jpg",
        "src1280": "https://cdn.pixabay.com/photo/2021/09/18/17/28/woman-6635677_1280.jpg"
    },
    {
        "id": "4848317",
        "src640": "https://cdn.pixabay.com/photo/2020/02/14/11/54/city-4848317_640.jpg",
        "src1280": "https://cdn.pixabay.com/photo/2020/02/14/11/54/city-4848317_1280.jpg"
    },
    {
        "id": "7229802",
        "src640": "https://cdn.pixabay.com/photo/2022/05/29/19/09/concert-7229802_640.jpg",
        "src1280": "https://cdn.pixabay.com/photo/2022/05/29/19/09/concert-7229802_1280.jpg"
    },
    {
        "id": "7577215",
        "src640": "https://cdn.pixabay.com/photo/2022/11/07/20/58/cathedral-7577215_640.jpg",
        "src1280": "https://cdn.pixabay.com/photo/2022/11/07/20/58/cathedral-7577215_1280.jpg"
    },
    {
        "id": "6553033",
        "src640": "https://cdn.pixabay.com/photo/2021/08/17/13/05/market-6553033_640.jpg",
        "src1280": "https://cdn.pixabay.com/photo/2021/08/17/13/05/market-6553033_1280.jpg"
    },
    {
        "id": "4847245",
        "src640": "https://cdn.pixabay.com/photo/2020/02/14/01/07/france-4847245_640.jpg",
        "src1280": "https://cdn.pixabay.com/photo/2020/02/14/01/07/france-4847245_1280.jpg"
    },
    {
        "id": "933241",
        "src640": "https://cdn.pixabay.com/photo/2015/09/09/20/46/street-933241_640.jpg",
        "src1280": "https://cdn.pixabay.com/photo/2015/09/09/20/46/street-933241_1280.jpg"
    },
    {
        "id": "7477601",
        "src640": "https://cdn.pixabay.com/photo/2022/09/25/04/41/man-7477601_640.jpg",
        "src1280": "https://cdn.pixabay.com/photo/2022/09/25/04/41/man-7477601_1280.jpg"
    },
    {
        "id": "5425648",
        "src640": "https://cdn.pixabay.com/photo/2020/07/21/08/52/sw-5425648_640.jpg",
        "src1280": "https://cdn.pixabay.com/photo/2020/07/21/08/52/sw-5425648_1280.jpg"
    },
    {
        "id": "7198054",
        "src640": "https://cdn.pixabay.com/photo/2022/05/15/13/37/lonely-girl-in-ao-dai-7198054_640.jpg",
        "src1280": "https://cdn.pixabay.com/photo/2022/05/15/13/37/lonely-girl-in-ao-dai-7198054_1280.jpg"
    },
    {
        "id": "102867",
        "src640": "https://cdn.pixabay.com/photo/2013/04/12/00/02/nyc-102867_640.jpg",
        "src1280": "https://cdn.pixabay.com/photo/2013/04/12/00/02/nyc-102867_1280.jpg"
    },
    {
        "id": "4630618",
        "src640": "https://cdn.pixabay.com/photo/2019/11/16/17/00/bremen-4630618_640.jpg",
        "src1280": "https://cdn.pixabay.com/photo/2019/11/16/17/00/bremen-4630618_1280.jpg"
    },
    {
        "id": "4492453",
        "src640": "https://cdn.pixabay.com/photo/2019/09/20/19/26/matala-4492453_640.jpg",
        "src1280": "https://cdn.pixabay.com/photo/2019/09/20/19/26/matala-4492453_1280.jpg"
    },
    {
        "id": "5329401",
        "src640": "https://cdn.pixabay.com/photo/2020/06/22/14/36/nyc-5329401_640.jpg",
        "src1280": "https://cdn.pixabay.com/photo/2020/06/22/14/36/nyc-5329401_1280.jpg"
    },
    {
        "id": "4292182",
        "src640": "https://cdn.pixabay.com/photo/2019/06/22/18/25/woman-4292182_640.jpg",
        "src1280": "https://cdn.pixabay.com/photo/2019/06/22/18/25/woman-4292182_1280.jpg"
    },
    {
        "id": "3362483",
        "src640": "https://cdn.pixabay.com/photo/2018/04/30/11/39/architecture-3362483_640.jpg",
        "src1280": "https://cdn.pixabay.com/photo/2018/04/30/11/39/architecture-3362483_1280.jpg"
    },
    {
        "id": "2094241",
        "src640": "https://cdn.pixabay.com/photo/2017/02/24/08/36/lumpini-2094241_640.jpg",
        "src1280": "https://cdn.pixabay.com/photo/2017/02/24/08/36/lumpini-2094241_1280.jpg"
    },
    {
        "id": "6128912",
        "src640": "https://cdn.pixabay.com/photo/2021/03/27/16/28/city-6128912_640.jpg",
        "src1280": "https://cdn.pixabay.com/photo/2021/03/27/16/28/city-6128912_1280.jpg"
    },
    {
        "id": "5434707",
        "src640": "https://cdn.pixabay.com/photo/2020/07/24/18/11/alley-5434707_640.jpg",
        "src1280": "https://cdn.pixabay.com/photo/2020/07/24/18/11/alley-5434707_1280.jpg"
    },
    {
        "id": "2409775",
        "src640": "https://cdn.pixabay.com/photo/2017/06/16/17/56/berlin-2409775_640.jpg",
        "src1280": "https://cdn.pixabay.com/photo/2017/06/16/17/56/berlin-2409775_1280.jpg"
    },
    {
        "id": "6788621",
        "src640": "https://cdn.pixabay.com/photo/2021/11/12/10/48/church-6788621_640.jpg",
        "src1280": "https://cdn.pixabay.com/photo/2021/11/12/10/48/church-6788621_1280.jpg"
    },
    {
        "id": "2524166",
        "src640": "https://cdn.pixabay.com/photo/2017/07/20/23/38/frauenkirche-2524166_640.jpg",
        "src1280": "https://cdn.pixabay.com/photo/2017/07/20/23/38/frauenkirche-2524166_1280.jpg"
    },
    {
        "id": "5184852",
        "src640": "https://cdn.pixabay.com/photo/2020/05/18/07/01/moscow-5184852_640.jpg",
        "src1280": "https://cdn.pixabay.com/photo/2020/05/18/07/01/moscow-5184852_1280.jpg"
    },
    {
        "id": "4145664",
        "src640": "https://cdn.pixabay.com/photo/2019/04/22/04/42/street-4145664_640.jpg",
        "src1280": "https://cdn.pixabay.com/photo/2019/04/22/04/42/street-4145664_1280.jpg"
    },
    {
        "id": "260433",
        "src640": "https://cdn.pixabay.com/photo/2014/02/06/20/10/channel-260433_640.jpg",
        "src1280": "https://cdn.pixabay.com/photo/2014/02/06/20/10/channel-260433_1280.jpg"
    },
    {
        "id": "4827167",
        "src640": "https://cdn.pixabay.com/photo/2020/02/07/13/18/village-4827167_640.jpg",
        "src1280": "https://cdn.pixabay.com/photo/2020/02/07/13/18/village-4827167_1280.jpg"
    },
    {
        "id": "7631607",
        "src640": "https://cdn.pixabay.com/photo/2022/12/02/20/41/statue-7631607_640.jpg",
        "src1280": "https://cdn.pixabay.com/photo/2022/12/02/20/41/statue-7631607_1280.jpg"
    },
    {
        "id": "3722469",
        "src640": "https://cdn.pixabay.com/photo/2018/10/03/21/51/hamburg-3722469_640.jpg",
        "src1280": "https://cdn.pixabay.com/photo/2018/10/03/21/51/hamburg-3722469_1280.jpg"
    },
    {
        "id": "6331419",
        "src640": "https://cdn.pixabay.com/photo/2021/06/12/17/29/town-6331419_640.jpg",
        "src1280": "https://cdn.pixabay.com/photo/2021/06/12/17/29/town-6331419_1280.jpg"
    },
    {
        "id": "5706577",
        "src640": "https://cdn.pixabay.com/photo/2020/11/02/12/59/sunset-5706577_640.jpg",
        "src1280": "https://cdn.pixabay.com/photo/2020/11/02/12/59/sunset-5706577_1280.jpg"
    },
    {
        "id": "5151646",
        "src640": "https://cdn.pixabay.com/photo/2020/05/09/22/30/prague-5151646_640.jpg",
        "src1280": "https://cdn.pixabay.com/photo/2020/05/09/22/30/prague-5151646_1280.jpg"
    },
    {
        "id": "207999",
        "src640": "https://cdn.pixabay.com/photo/2013/11/09/20/20/shanghai-207999_640.jpg",
        "src1280": "https://cdn.pixabay.com/photo/2013/11/09/20/20/shanghai-207999_1280.jpg"
    },
    {
        "id": "315870",
        "src640": "https://cdn.pixabay.com/photo/2014/04/05/11/29/new-york-315870_640.jpg",
        "src1280": "https://cdn.pixabay.com/photo/2014/04/05/11/29/new-york-315870_1280.jpg"
    },
    {
        "id": "5815559",
        "src640": "https://cdn.pixabay.com/photo/2020/12/08/20/54/cars-5815559_640.jpg",
        "src1280": "https://cdn.pixabay.com/photo/2020/12/08/20/54/cars-5815559_1280.jpg"
    },
    {
        "id": "733490",
        "src640": "https://cdn.pixabay.com/photo/2015/04/21/16/30/san-francisco-733490_640.jpg",
        "src1280": "https://cdn.pixabay.com/photo/2015/04/21/16/30/san-francisco-733490_1280.jpg"
    },
    {
        "id": "4866195",
        "src640": "https://cdn.pixabay.com/photo/2020/02/20/23/43/leeuwarden-4866195_640.jpg",
        "src1280": "https://cdn.pixabay.com/photo/2020/02/20/23/43/leeuwarden-4866195_1280.jpg"
    },
    {
        "id": "1534123",
        "src640": "https://cdn.pixabay.com/photo/2016/07/22/03/55/rio-de-janeiro-1534123_640.jpg",
        "src1280": "https://cdn.pixabay.com/photo/2016/07/22/03/55/rio-de-janeiro-1534123_1280.jpg"
    },
    {
        "id": "2479815",
        "src640": "https://cdn.pixabay.com/photo/2017/07/06/23/06/church-2479815_640.jpg",
        "src1280": "https://cdn.pixabay.com/photo/2017/07/06/23/06/church-2479815_1280.jpg"
    },
    {
        "id": "7213977",
        "src640": "https://cdn.pixabay.com/photo/2022/05/22/16/51/girl-7213977_640.jpg",
        "src1280": "https://cdn.pixabay.com/photo/2022/05/22/16/51/girl-7213977_1280.jpg"
    },
    {
        "id": "8298557",
        "src640": "https://cdn.pixabay.com/photo/2023/10/06/15/39/architecture-8298557_640.jpg",
        "src1280": "https://cdn.pixabay.com/photo/2023/10/06/15/39/architecture-8298557_1280.jpg"
    },
    {
        "id": "3307124",
        "src640": "https://cdn.pixabay.com/photo/2018/04/10/11/40/passau-3307124_640.jpg",
        "src1280": "https://cdn.pixabay.com/photo/2018/04/10/11/40/passau-3307124_1280.jpg"
    },
    {
        "id": "1575372",
        "src640": "https://cdn.pixabay.com/photo/2016/08/06/23/51/taiwan-1575372_640.jpg",
        "src1280": "https://cdn.pixabay.com/photo/2016/08/06/23/51/taiwan-1575372_1280.jpg"
    },
    {
        "id": "4848730",
        "src640": "https://cdn.pixabay.com/photo/2020/02/14/15/59/valletta-4848730_640.jpg",
        "src1280": "https://cdn.pixabay.com/photo/2020/02/14/15/59/valletta-4848730_1280.jpg"
    },
    {
        "id": "4350272",
        "src640": "https://cdn.pixabay.com/photo/2019/07/20/07/07/fountain-4350272_640.jpg",
        "src1280": "https://cdn.pixabay.com/photo/2019/07/20/07/07/fountain-4350272_1280.jpg"
    },
    {
        "id": "6233684",
        "src640": "https://cdn.pixabay.com/photo/2021/05/06/15/17/kharkiv-6233684_640.jpg",
        "src1280": "https://cdn.pixabay.com/photo/2021/05/06/15/17/kharkiv-6233684_1280.jpg"
    },
    {
        "id": "7796487",
        "src640": "https://cdn.pixabay.com/photo/2023/02/17/17/12/television-tower-7796487_640.jpg",
        "src1280": "https://cdn.pixabay.com/photo/2023/02/17/17/12/television-tower-7796487_1280.jpg"
    },
    {
        "id": "5396535",
        "src640": "https://cdn.pixabay.com/photo/2020/07/12/08/48/lego-5396535_640.jpg",
        "src1280": "https://cdn.pixabay.com/photo/2020/07/12/08/48/lego-5396535_1280.jpg"
    },
    {
        "id": "7214283",
        "src640": "https://cdn.pixabay.com/photo/2022/05/22/18/25/madrid-7214283_640.jpg",
        "src1280": "https://cdn.pixabay.com/photo/2022/05/22/18/25/madrid-7214283_1280.jpg"
    },
    {
        "id": "3300664",
        "src640": "https://cdn.pixabay.com/photo/2018/04/08/08/29/lane-3300664_640.jpg",
        "src1280": "https://cdn.pixabay.com/photo/2018/04/08/08/29/lane-3300664_1280.jpg"
    }
]