[
    {
        "id": "4657350",
        "src640": "https://cdn.pixabay.com/photo/2019/11/27/16/47/skate-4657350_640.jpg",
        "src1280": "https://cdn.pixabay.com/photo/2019/11/27/16/47/skate-4657350_1280.jpg"
    },
    {
        "id": "8319822",
        "src640": "https://cdn.pixabay.com/photo/2023/10/16/18/18/ai-generated-8319822_640.jpg",
        "src1280": "https://cdn.pixabay.com/photo/2023/10/16/18/18/ai-generated-8319822_1280.jpg"
    },
    {
        "id": "6950972",
        "src640": "https://cdn.pixabay.com/photo/2022/01/19/20/51/hotel-building-6950972_640.jpg",
        "src1280": "https://cdn.pixabay.com/photo/2022/01/19/20/51/hotel-building-6950972_1280.jpg"
    },
    {
        "id": "1302378",
        "src640": "https://cdn.pixabay.com/photo/2016/04/02/09/14/cyprus-1302378_640.jpg",
        "src1280": "https://cdn.pixabay.com/photo/2016/04/02/09/14/cyprus-1302378_1280.jpg"
    },
    {
        "id": "4060703",
        "src640": "https://cdn.pixabay.com/photo/2019/03/17/11/30/prague-4060703_640.jpg",
        "src1280": "https://cdn.pixabay.com/photo/2019/03/17/11/30/prague-4060703_1280.jpg"
    },
    {
        "id": "5480324",
        "src640": "https://cdn.pixabay.com/photo/2020/08/11/15/56/tunnel-5480324_640.jpg",
        "src1280": "https://cdn.pixabay.com/photo/2020/08/11/15/56/tunnel-5480324_1280.jpg"
    },
    {
        "id": "4756034",
        "src640": "https://cdn.pixabay.com/photo/2020/01/10/19/00/lviv-4756034_640.jpg",
        "src1280": "https://cdn.pixabay.com/photo/2020/01/10/19/00/lviv-4756034_1280.jpg"
    },
    {
        "id": "3862676",
        "src640": "https://cdn.pixabay.com/photo/2018/12/08/00/44/street-3862676_640.jpg",
        "src1280": "https://cdn.pixabay.com/photo/2018/12/08/00/44/street-3862676_1280.jpg"
    },
    {
        "id": "4518621",
        "src640": "https://cdn.pixabay.com/photo/2019/10/01/15/44/policewoman-4518621_640.jpg",
        "src1280": "https://cdn.pixabay.com/photo/2019/10/01/15/44/policewoman-4518621_1280.jpg"
    },
    {
        "id": "5286706",
        "src640": "https://cdn.pixabay.com/photo/2020/06/11/13/16/city-5286706_640.jpg",
        "src1280": "https://cdn.pixabay.com/photo/2020/06/11/13/16/city-5286706_1280.jpg"
    },
    {
        "id": "977094",
        "src640": "https://cdn.pixabay.com/photo/2015/10/08/02/07/landsman-977094_640.jpg",
        "src1280": "https://cdn.pixabay.com/photo/2015/10/08/02/07/landsman-977094_1280.jpg"
    },
    {
        "id": "4736949",
        "src640": "https://cdn.pixabay.com/photo/2020/01/02/22/21/church-4736949_640.jpg",
        "src1280": "https://cdn.pixabay.com/photo/2020/01/02/22/21/church-4736949_1280.jpg"
    },
    {
        "id": "4092840",
        "src640": "https://cdn.pixabay.com/photo/2019/03/31/10/56/leipzig-4092840_640.jpg",
        "src1280": "https://cdn.pixabay.com/photo/2019/03/31/10/56/leipzig-4092840_1280.jpg"
    },
    {
        "id": "3819276",
        "src640": "https://cdn.pixabay.com/photo/2018/11/16/11/57/bridge-3819276_640.jpg",
        "src1280": "https://cdn.pixabay.com/photo/2018/11/16/11/57/bridge-3819276_1280.jpg"
    },
    {
        "id": "2572059",
        "src640": "https://cdn.pixabay.com/photo/2017/08/02/15/16/people-2572059_640.jpg",
        "src1280": "https://cdn.pixabay.com/photo/2017/08/02/15/16/people-2572059_1280.jpg"
    },
    {
        "id": "82536",
        "src640": "https://cdn.pixabay.com/photo/2013/02/17/13/41/schaffhausen-82536_640.jpg",
        "src1280": "https://cdn.pixabay.com/photo/2013/02/17/13/41/schaffhausen-82536_1280.jpg"
    },
    {
        "id": "7909699",
        "src640": "https://cdn.pixabay.com/photo/2023/04/08/15/58/girl-7909699_640.jpg",
        "src1280": "https://cdn.pixabay.com/photo/2023/04/08/15/58/girl-7909699_1280.jpg"
    },
    {
        "id": "2608698",
        "src640": "https://cdn.pixabay.com/photo/2017/08/07/22/38/architecture-2608698_640.jpg",
        "src1280": "https://cdn.pixabay.com/photo/2017/08/07/22/38/architecture-2608698_1280.jpg"
    },
    {
        "id": "4769474",
        "src640": "https://cdn.pixabay.com/photo/2020/01/16/02/06/macao-4769474_640.jpg",
        "src1280": "https://cdn.pixabay.com/photo/2020/01/16/02/06/macao-4769474_1280.jpg"
    },
    {
        "id": "1746266",
        "src640": "https://cdn.pixabay.com/photo/2016/10/16/21/12/window-1746266_640.jpg",
        "src1280": "https://cdn.pixabay.com/photo/2016/10/16/21/12/window-1746266_1280.jpg"
    },
    {
        "id": "7202374",
        "src640": "https://cdn.pixabay.com/photo/2022/05/17/11/15/matthias-church-7202374_640.jpg",
        "src1280": "https://cdn.pixabay.com/photo/2022/05/17/11/15/matthias-church-7202374_1280.jpg"
    },
    {
        "id": "2658129",
        "src640": "https://cdn.pixabay.com/photo/2017/08/19/11/22/fountain-2658129_640.jpg",
        "src1280": "https://cdn.pixabay.com/photo/2017/08/19/11/22/fountain-2658129_1280.jpg"
    },
    {
        "id": "2590062",
        "src640": "https://cdn.pixabay.com/photo/2017/08/06/07/56/building-2590062_640.jpg",
        "src1280": "https://cdn.pixabay.com/photo/2017/08/06/07/56/building-2590062_1280.jpg"
    },
    {
        "id": "931954",
        "src640": "https://cdn.pixabay.com/photo/2015/09/09/17/14/city-931954_640.jpg",
        "src1280": "https://cdn.pixabay.com/photo/2015/09/09/17/14/city-931954_1280.jpg"
    },
    {
        "id": "7359472",
        "src640": "https://cdn.pixabay.com/photo/2022/08/02/04/11/city-7359472_640.jpg",
        "src1280": "https://cdn.pixabay.com/photo/2022/08/02/04/11/city-7359472_1280.jpg"
    },
    {
        "id": "213594",
        "src640": "https://cdn.pixabay.com/photo/2013/11/20/05/12/seattle-213594_640.jpg",
        "src1280": "https://cdn.pixabay.com/photo/2013/11/20/05/12/seattle-213594_1280.jpg"
    },
    {
        "id": "2089590",
        "src640": "https://cdn.pixabay.com/photo/2017/02/22/14/39/clock-tower-2089590_640.jpg",
        "src1280": "https://cdn.pixabay.com/photo/2017/02/22/14/39/clock-tower-2089590_1280.jpg"
    },
    {
        "id": "4667683",
        "src640": "https://cdn.pixabay.com/photo/2019/12/02/12/50/queen-of-liberty-4667683_640.jpg",
        "src1280": "https://cdn.pixabay.com/photo/2019/12/02/12/50/queen-of-liberty-4667683_1280.jpg"
    },
    {
        "id": "315923",
        "src640": "https://cdn.pixabay.com/photo/2014/04/05/11/29/statue-315923_640.jpg",
        "src1280": "https://cdn.pixabay.com/photo/2014/04/05/11/29/statue-315923_1280.jpg"
    },
    {
        "id": "178659",
        "src640": "https://cdn.pixabay.com/photo/2013/09/03/18/50/trees-178659_640.jpg",
        "src1280": "https://cdn.pixabay.com/photo/2013/09/03/18/50/trees-178659_1280.jpg"
    },
    {
        "id": "6631057",
        "src640": "https://cdn.pixabay.com/photo/2021/09/16/20/57/building-6631057_640.jpg",
        "src1280": "https://cdn.pixabay.com/photo/2021/09/16/20/57/building-6631057_1280.jpg"
    },
    {
        "id": "5315845",
        "src640": "https://cdn.pixabay.com/photo/2020/06/19/06/23/building-5315845_640.jpg",
        "src1280": "https://cdn.pixabay.com/photo/2020/06/19/06/23/building-5315845_1280.jpg"
    },
    {
        "id": "3503500",
        "src640": "https://cdn.pixabay.com/photo/2018/06/28/10/08/charity-3503500_640.jpg",
        "src1280": "https://cdn.pixabay.com/photo/2018/06/28/10/08/charity-3503500_1280.jpg"
    },
    {
        "id": "8096400",
        "src640": "https://cdn.pixabay.com/photo/2023/06/29/13/21/ai-generated-8096400_640.jpg",
        "src1280": "https://cdn.pixabay.com/photo/2023/06/29/13/21/ai-generated-8096400_1280.jpg"
    },
    {
        "id": "5957948",
        "src640": "https://cdn.pixabay.com/photo/2021/01/28/12/59/lviv-5957948_640.jpg",
        "src1280": "https://cdn.pixabay.com/photo/2021/01/28/12/59/lviv-5957948_1280.jpg"
    },
    {
        "id": "7638982",
        "src640": "https://cdn.pixabay.com/photo/2022/12/06/13/33/people-7638982_640.jpg",
        "src1280": "https://cdn.pixabay.com/photo/2022/12/06/13/33/people-7638982_1280.jpg"
    },
    {
        "id": "5012582",
        "src640": "https://cdn.pixabay.com/photo/2020/04/07/08/53/tv-tower-5012582_640.jpg",
        "src1280": "https://cdn.pixabay.com/photo/2020/04/07/08/53/tv-tower-5012582_1280.jpg"
    },
    {
        "id": "7832109",
        "src640": "https://cdn.pixabay.com/photo/2023/03/05/19/40/ai-generated-7832109_640.jpg",
        "src1280": "https://cdn.pixabay.com/photo/2023/03/05/19/40/ai-generated-7832109_1280.jpg"
    },
    {
        "id": "856354",
        "src640": "https://cdn.pixabay.com/photo/2015/07/23/02/15/united-states-856354_640.jpg",
        "src1280": "https://cdn.pixabay.com/photo/2015/07/23/02/15/united-states-856354_1280.jpg"
    },
    {
        "id": "3319110",
        "src640": "https://cdn.pixabay.com/photo/2018/04/14/14/18/nord-lb-3319110_640.jpg",
        "src1280": "https://cdn.pixabay.com/photo/2018/04/14/14/18/nord-lb-3319110_1280.jpg"
    },
    {
        "id": "5165075",
        "src640": "https://cdn.pixabay.com/photo/2020/05/12/21/58/miami-5165075_640.jpg",
        "src1280": "https://cdn.pixabay.com/photo/2020/05/12/21/58/miami-5165075_1280.jpg"
    },
    {
        "id": "274421",
        "src640": "https://cdn.pixabay.com/photo/2014/02/25/17/13/notre-dame-274421_640.jpg",
        "src1280": "https://cdn.pixabay.com/photo/2014/02/25/17/13/notre-dame-274421_1280.jpg"
    },
    {
        "id": "7580297",
        "src640": "https://cdn.pixabay.com/photo/2022/11/09/10/50/woman-7580297_640.jpg",
        "src1280": "https://cdn.pixabay.com/photo/2022/11/09/10/50/woman-7580297_1280.jpg"
    },
    {
        "id": "2591802",
        "src640": "https://cdn.pixabay.com/photo/2017/08/06/11/56/urban-2591802_640.jpg",
        "src1280": "https://cdn.pixabay.com/photo/2017/08/06/11/56/urban-2591802_1280.jpg"
    },
    {
        "id": "7068838",
        "src640": "https://cdn.pixabay.com/photo/2022/03/14/19/44/world-clock-7068838_640.jpg",
        "src1280": "https://cdn.pixabay.com/photo/2022/03/14/19/44/world-clock-7068838_1280.jpg"
    },
    {
        "id": "3694852",
        "src640": "https://cdn.pixabay.com/photo/2018/09/22/09/58/cherry-blossoms-3694852_640.jpg",
        "src1280": "https://cdn.pixabay.com/photo/2018/09/22/09/58/cherry-blossoms-3694852_1280.jpg"
    },
    {
        "id": "2546609",
        "src640": "https://cdn.pixabay.com/photo/2017/07/27/20/13/aguimes-2546609_640.jpg",
        "src1280": "https://cdn.pixabay.com/photo/2017/07/27/20/13/aguimes-2546609_1280.jpg"
    },
    {
        "id": "4719498",
        "src640": "https://cdn.pixabay.com/photo/2019/12/26/01/46/rain-4719498_640.jpg",
        "src1280": "https://cdn.pixabay.com/photo/2019/12/26/01/46/rain-4719498_1280.jpg"
    },
    {
        "id": "4965482",
        "src640": "https://cdn.pixabay.com/photo/2020/03/24/20/51/cathedral-4965482_640.jpg",
        "src1280": "https://cdn.pixabay.com/photo/2020/03/24/20/51/cathedral-4965482_1280.jpg"
    },
    {
        "id": "4433475",
        "src640": "https://cdn.pixabay.com/photo/2019/08/27/06/35/christmas-4433475_640.jpg",
        "src1280": "https://cdn.pixabay.com/photo/2019/08/27/06/35/christmas-4433475_1280.jpg"
    },
    {
        "id": "4646477",
        "src640": "https://cdn.pixabay.com/photo/2019/11/23/07/42/traffic-4646477_640.jpg",
        "src1280": "https://cdn.pixabay.com/photo/2019/11/23/07/42/traffic-4646477_1280.jpg"
    },
    {
        "id": "7725978",
        "src640": "https://cdn.pixabay.com/photo/2023/01/18/03/24/ai-generated-7725978_640.jpg",
        "src1280": "https://cdn.pixabay.com/photo/2023/01/18/03/24/ai-generated-7725978_1280.jpg"
    },
    {
        "id": "7798663",
        "src640": "https://cdn.pixabay.com/photo/2023/02/18/20/43/alley-7798663_640.jpg",
        "src1280": "https://cdn.pixabay.com/photo/2023/02/18/20/43/alley-7798663_1280.jpg"
    },
    {
        "id": "7213885",
        "src640": "https://cdn.pixabay.com/photo/2022/05/22/16/36/lonely-girl-in-ao-dai-7213885_640.jpg",
        "src1280": "https://cdn.pixabay.com/photo/2022/05/22/16/36/lonely-girl-in-ao-dai-7213885_1280.jpg"
    },
    {
        "id": "4733949",
        "src640": "https://cdn.pixabay.com/photo/2020/01/01/16/55/tallinn-4733949_640.jpg",
        "src1280": "https://cdn.pixabay.com/photo/2020/01/01/16/55/tallinn-4733949_1280.jpg"
    },
    {
        "id": "5971823",
        "src640": "https://cdn.pixabay.com/photo/2021/02/01/19/53/building-5971823_640.jpg",
        "src1280": "https://cdn.pixabay.com/photo/2021/02/01/19/53/building-5971823_1280.jpg"
    },
    {
        "id": "2560726",
        "src640": "https://cdn.pixabay.com/photo/2017/07/31/20/22/architecture-2560726_640.jpg",
        "src1280": "https://cdn.pixabay.com/photo/2017/07/31/20/22/architecture-2560726_1280.jpg"
    },
    {
        "id": "5094252",
        "src640": "https://cdn.pixabay.com/photo/2020/04/26/08/44/nature-5094252_640.jpg",
        "src1280": "https://cdn.pixabay.com/photo/2020/04/26/08/44/nature-5094252_1280.jpg"
    },
    {
        "id": "3560018",
        "src640": "https://cdn.pixabay.com/photo/2018/07/24/21/04/london-3560018_640.jpg",
        "src1280": "https://cdn.pixabay.com/photo/2018/07/24/21/04/london-3560018_1280.jpg"
    },
    {
        "id": "5510551",
        "src640": "https://cdn.pixabay.com/photo/2020/08/23/10/36/woman-5510551_640.jpg",
        "src1280": "https://cdn.pixabay.com/photo/2020/08/23/10/36/woman-5510551_1280.jpg"
    },
    {
        "id": "187868",
        "src640": "https://cdn.pixabay.com/photo/2013/09/28/21/26/symi-187868_640.jpg",
        "src1280": "https://cdn.pixabay.com/photo/2013/09/28/21/26/symi-187868_1280.jpg"
    },
    {
        "id": "6580056",
        "src640": "https://cdn.pixabay.com/photo/2021/08/28/05/09/woman-6580056_640.jpg",
        "src1280": "https://cdn.pixabay.com/photo/2021/08/28/05/09/woman-6580056_1280.jpg"
    },
    {
        "id": "934476",
        "src640": "https://cdn.pixabay.com/photo/2015/09/10/14/08/new-years-eve-934476_640.jpg",
        "src1280": "https://cdn.pixabay.com/photo/2015/09/10/14/08/new-years-eve-934476_1280.jpg"
    },
    {
        "id": "2684010",
        "src640": "https://cdn.pixabay.com/photo/2017/08/26/19/23/paris-2684010_640.jpg",
        "src1280": "https://cdn.pixabay.com/photo/2017/08/26/19/23/paris-2684010_1280.jpg"
    },
    {
        "id": "3335930",
        "src640": "https://cdn.pixabay.com/photo/2018/04/20/12/58/outdoors-3335930_640.jpg",
        "src1280": "https://cdn.pixabay.com/photo/2018/04/20/12/58/outdoors-3335930_1280.jpg"
    },
    {
        "id": "3690317",
        "src640": "https://cdn.pixabay.com/photo/2018/09/20/09/21/rouen-3690317_640.jpg",
        "src1280": "https://cdn.pixabay.com/photo/2018/09/20/09/21/rouen-3690317_1280.jpg"
    },
    {
        "id": "5247539",
        "src640": "https://cdn.pixabay.com/photo/2020/06/01/17/04/high-school-5247539_640.jpg",
        "src1280": "https://cdn.pixabay.com/photo/2020/06/01/17/04/high-school-5247539_1280.jpg"
    },
    {
        "id": "4862902",
        "src640": "https://cdn.pixabay.com/photo/2020/02/19/18/42/the-regents-park-4862902_640.jpg",
        "src1280": "https://cdn.pixabay.com/photo/2020/02/19/18/42/the-regents-park-4862902_1280.jpg"
    },
    {
        "id": "738242",
        "src640": "https://cdn.pixabay.com/photo/2015/04/24/20/03/skyscraper-738242_640.jpg",
        "src1280": "https://cdn.pixabay.com/photo/2015/04/24/20/03/skyscraper-738242_1280.jpg"
    },
    {
        "id": "5695929",
        "src640": "https://cdn.pixabay.com/photo/2020/10/29/11/15/building-5695929_640.jpg",
        "src1280": "https://cdn.pixabay.com/photo/2020/10/29/11/15/building-5695929_1280.jpg"
    },
    {
        "id": "143830",
        "src640": "https://cdn.pixabay.com/photo/2013/07/07/12/51/berlin-143830_640.jpg",
        "src1280": "https://cdn.pixabay.com/photo/2013/07/07/12/51/berlin-143830_1280.jpg"
    },
    {
        "id": "4946517",
        "src640": "https://cdn.pixabay.com/photo/2020/03/19/06/40/tower-4946517_640.jpg",
        "src1280": "https://cdn.pixabay.com/photo/2020/03/19/06/40/tower-4946517_1280.jpg"
    },
    {
        "id": "6524361",
        "src640": "https://cdn.pixabay.com/photo/2021/08/05/16/02/building-6524361_640.jpg",
        "src1280": "https://cdn.pixabay.com/photo/2021/08/05/16/02/building-6524361_1280.jpg"
    },
    {
        "id": "4974346",
        "src640": "https://cdn.pixabay.com/photo/2020/03/27/17/09/bridge-4974346_640.jpg",
        "src1280": "https://cdn.pixabay.com/photo/2020/03/27/17/09/bridge-4974346_1280.jpg"
    },
    {
        "id": "4654434",
        "src640": "https://cdn.pixabay.com/photo/2019/11/26/12/22/dubai-4654434_640.jpg",
        "src1280": "https://cdn.pixabay.com/photo/2019/11/26/12/22/dubai-4654434_1280.jpg"
    },
    {
        "id": "95264",
        "src640": "https://cdn.pixabay.com/photo/2013/03/20/14/42/log-95264_640.jpg",
        "src1280": "https://cdn.pixabay.com/photo/2013/03/20/14/42/log-95264_1280.jpg"
    },
    {
        "id": "2484648",
        "src640": "https://cdn.pixabay.com/photo/2017/07/08/15/12/peng-town-2484648_640.jpg",
        "src1280": "https://cdn.pixabay.com/photo/2017/07/08/15/12/peng-town-2484648_1280.jpg"
    },
    {
        "id": "5797683",
        "src640": "https://cdn.pixabay.com/photo/2020/12/02/14/00/statue-of-liberty-5797683_640.jpg",
        "src1280": "https://cdn.pixabay.com/photo/2020/12/02/14/00/statue-of-liberty-5797683_1280.jpg"
    },
    {
        "id": "4339890",
        "src640": "https://cdn.pixabay.com/photo/2019/07/15/16/53/portugal-4339890_640.jpg",
        "src1280": "https://cdn.pixabay.com/photo/2019/07/15/16/53/portugal-4339890_1280.jpg"
    },
    {
        "id": "6605041",
        "src640": "https://cdn.pixabay.com/photo/2021/09/07/22/32/city-6605041_640.jpg",
        "src1280": "https://cdn.pixabay.com/photo/2021/09/07/22/32/city-6605041_1280.jpg"
    },
    {
        "id": "3335931",
        "src640": "https://cdn.pixabay.com/photo/2018/04/20/12/58/outdoors-3335931_640.jpg",
        "src1280": "https://cdn.pixabay.com/photo/2018/04/20/12/58/outdoors-3335931_1280.jpg"
    },
    {
        "id": "2637940",
        "src640": "https://cdn.pixabay.com/photo/2017/08/13/17/37/amsterdam-2637940_640.jpg",
        "src1280": "https://cdn.pixabay.com/photo/2017/08/13/17/37/amsterdam-2637940_1280.jpg"
    },
    {
        "id": "2653659",
        "src640": "https://cdn.pixabay.com/photo/2017/08/18/03/18/building-2653659_640.jpg",
        "src1280": "https://cdn.pixabay.com/photo/2017/08/18/03/18/building-2653659_1280.jpg"
    },
    {
        "id": "8344268",
        "src640": "https://cdn.pixabay.com/photo/2023/10/27/07/45/arabic-8344268_640.jpg",
        "src1280": "https://cdn.pixabay.com/photo/2023/10/27/07/45/arabic-8344268_1280.jpg"
    },
    {
        "id": "4310437",
        "src640": "https://cdn.pixabay.com/photo/2019/07/01/16/58/mirror-4310437_640.jpg",
        "src1280": "https://cdn.pixabay.com/photo/2019/07/01/16/58/mirror-4310437_1280.jpg"
    },
    {
        "id": "4122425",
        "src640": "https://cdn.pixabay.com/photo/2019/04/12/15/56/city-4122425_640.jpg",
        "src1280": "https://cdn.pixabay.com/photo/2019/04/12/15/56/city-4122425_1280.jpg"
    },
    {
        "id": "3260907",
        "src640": "https://cdn.pixabay.com/photo/2018/03/25/21/56/bielsko-biaa-3260907_640.jpg",
        "src1280": "https://cdn.pixabay.com/photo/2018/03/25/21/56/bielsko-biaa-3260907_1280.jpg"
    },
    {
        "id": "5794460",
        "src640": "https://cdn.pixabay.com/photo/2020/12/01/14/25/building-5794460_640.jpg",
        "src1280": "https://cdn.pixabay.com/photo/2020/12/01/14/25/building-5794460_1280.jpg"
    },
    {
        "id": "7143048",
        "src640": "https://cdn.pixabay.com/photo/2022/04/19/14/35/sunset-7143048_640.jpg",
        "src1280": "https://cdn.pixabay.com/photo/2022/04/19/14/35/sunset-7143048_1280.jpg"
    },
    {
        "id": "3232630",
        "src640": "https://cdn.pixabay.com/photo/2018/03/16/21/59/alley-3232630_640.jpg",
        "src1280": "https://cdn.pixabay.com/photo/2018/03/16/21/59/alley-3232630_1280.jpg"
    },
    {
        "id": "7145607",
        "src640": "https://cdn.pixabay.com/photo/2022/04/20/16/38/bus-stop-7145607_640.jpg",
        "src1280": "https://cdn.pixabay.com/photo/2022/04/20/16/38/bus-stop-7145607_1280.jpg"
    },
    {
        "id": "5258080",
        "src640": "https://cdn.pixabay.com/photo/2020/06/04/09/51/vinhomes-central-park-5258080_640.jpg",
        "src1280": "https://cdn.pixabay.com/photo/2020/06/04/09/51/vinhomes-central-park-5258080_1280.jpg"
    },
    {
        "id": "4744917",
        "src640": "https://cdn.pixabay.com/photo/2020/01/06/08/59/thailand-4744917_640.jpg",
        "src1280": "https://cdn.pixabay.com/photo/2020/01/06/08/59/thailand-4744917_1280.jpg"
    },
    {
        "id": "6701649",
        "src640": "https://cdn.pixabay.com/photo/2021/10/11/19/09/jindrichuv-hradec-6701649_640.jpg",
        "src1280": "https://cdn.pixabay.com/photo/2021/10/11/19/09/jindrichuv-hradec-6701649_1280.jpg"
    },
    {
        "id": "1586344",
        "src640": "https://cdn.pixabay.com/photo/2016/08/11/17/46/hoian-1586344_640.jpg",
        "src1280": "https://cdn.pixabay.com/photo/2016/08/11/17/46/hoian-1586344_1280.jpg"
    },
    {
        "id": "4793275",
        "src640": "https://cdn.pixabay.com/photo/2020/01/25/20/19/urban-4793275_640.jpg",
        "src1280": "https://cdn.pixabay.com/photo/2020/01/25/20/19/urban-4793275_1280.jpg"
    },
    {
        "id": "3989108",
        "src640": "https://cdn.pixabay.com/photo/2019/02/11/09/41/nypa-3989108_640.jpg",
        "src1280": "https://cdn.pixabay.com/photo/2019/02/11/09/41/nypa-3989108_1280.jpg"
    }
]