[
    {
        "id": "7272457",
        "src640": "https://cdn.pixabay.com/photo/2022/06/19/18/07/warsaw-7272457_640.jpg",
        "src1280": "https://cdn.pixabay.com/photo/2022/06/19/18/07/warsaw-7272457_1280.jpg"
    },
    {
        "id": "1711664",
        "src640": "https://cdn.pixabay.com/photo/2016/10/03/13/29/night-1711664_640.jpg",
        "src1280": "https://cdn.pixabay.com/photo/2016/10/03/13/29/night-1711664_1280.jpg"
    },
    {
        "id": "7027498",
        "src640": "https://cdn.pixabay.com/photo/2022/02/21/19/16/bridge-7027498_640.jpg",
        "src1280": "https://cdn.pixabay.com/photo/2022/02/21/19/16/bridge-7027498_1280.jpg"
    },
    {
        "id": "4173353",
        "src640": "https://cdn.pixabay.com/photo/2019/05/02/12/17/the-town-hall-4173353_640.jpg",
        "src1280": "https://cdn.pixabay.com/photo/2019/05/02/12/17/the-town-hall-4173353_1280.jpg"
    },
    {
        "id": "1006881",
        "src640": "https://cdn.pixabay.com/photo/2015/10/26/09/57/the-hague-1006881_640.jpg",
        "src1280": "https://cdn.pixabay.com/photo/2015/10/26/09/57/the-hague-1006881_1280.jpg"
    },
    {
        "id": "49318",
        "src640": "https://cdn.pixabay.com/photo/2012/05/30/17/39/city-49318_640.jpg",
        "src1280": "https://cdn.pixabay.com/photo/2012/05/30/17/39/city-49318_1280.jpg"
    },
    {
        "id": "3357165",
        "src640": "https://cdn.pixabay.com/photo/2018/04/28/12/27/skyscraper-3357165_640.jpg",
        "src1280": "https://cdn.pixabay.com/photo/2018/04/28/12/27/skyscraper-3357165_1280.jpg"
    },
    {
        "id": "7298687",
        "src640": "https://cdn.pixabay.com/photo/2022/07/03/08/52/woman-7298687_640.jpg",
        "src1280": "https://cdn.pixabay.com/photo/2022/07/03/08/52/woman-7298687_1280.jpg"
    },
    {
        "id": "7482147",
        "src640": "https://cdn.pixabay.com/photo/2022/09/27/05/43/woman-7482147_640.jpg",
        "src1280": "https://cdn.pixabay.com/photo/2022/09/27/05/43/woman-7482147_1280.jpg"
    },
    {
        "id": "3996480",
        "src640": "https://cdn.pixabay.com/photo/2019/02/14/11/58/myanmar-3996480_640.jpg",
        "src1280": "https://cdn.pixabay.com/photo/2019/02/14/11/58/myanmar-3996480_1280.jpg"
    },
    {
        "id": "5650487",
        "src640": "https://cdn.pixabay.com/photo/2020/10/13/00/48/building-5650487_640.jpg",
        "src1280": "https://cdn.pixabay.com/photo/2020/10/13/00/48/building-5650487_1280.jpg"
    },
    {
        "id": "7255105",
        "src640": "https://cdn.pixabay.com/photo/2022/06/10/19/01/girl-7255105_640.jpg",
        "src1280": "https://cdn.pixabay.com/photo/2022/06/10/19/01/girl-7255105_1280.jpg"
    },
    {
        "id": "5165077",
        "src640": "https://cdn.pixabay.com/photo/2020/05/12/21/58/miami-5165077_640.jpg",
        "src1280": "https://cdn.pixabay.com/photo/2020/05/12/21/58/miami-5165077_1280.jpg"
    },
    {
        "id": "7514716",
        "src640": "https://cdn.pixabay.com/photo/2022/10/11/16/38/woman-7514716_640.jpg",
        "src1280": "https://cdn.pixabay.com/photo/2022/10/11/16/38/woman-7514716_1280.jpg"
    },
    {
        "id": "5843144",
        "src640": "https://cdn.pixabay.com/photo/2020/12/18/22/27/berlin-5843144_640.jpg",
        "src1280": "https://cdn.pixabay.com/photo/2020/12/18/22/27/berlin-5843144_1280.jpg"
    },
    {
        "id": "5402476",
        "src640": "https://cdn.pixabay.com/photo/2020/07/14/01/21/building-5402476_640.jpg",
        "src1280": "https://cdn.pixabay.com/photo/2020/07/14/01/21/building-5402476_1280.jpg"
    },
    {
        "id": "1105977",
        "src640": "https://cdn.pixabay.com/photo/2015/12/23/18/31/architecture-1105977_640.jpg",
        "src1280": "https://cdn.pixabay.com/photo/2015/12/23/18/31/architecture-1105977_1280.jpg"
    },
    {
        "id": "4805197",
        "src640": "https://cdn.pixabay.com/photo/2020/01/30/11/23/lubeck-4805197_640.jpg",
        "src1280": "https://cdn.pixabay.com/photo/2020/01/30/11/23/lubeck-4805197_1280.jpg"
    },
    {
        "id": "6915621",
        "src640": "https://cdn.pixabay.com/photo/2022/01/04/18/05/woman-6915621_640.jpg",
        "src1280": "https://cdn.pixabay.com/photo/2022/01/04/18/05/woman-6915621_1280.jpg"
    },
    {
        "id": "6980577",
        "src640": "https://cdn.pixabay.com/photo/2022/01/30/12/05/street-6980577_640.jpg",
        "src1280": "https://cdn.pixabay.com/photo/2022/01/30/12/05/street-6980577_1280.jpg"
    },
    {
        "id": "2705333",
        "src640": "https://cdn.pixabay.com/photo/2017/09/01/20/05/beach-2705333_640.jpg",
        "src1280": "https://cdn.pixabay.com/photo/2017/09/01/20/05/beach-2705333_1280.jpg"
    },
    {
        "id": "7040982",
        "src640": "https://cdn.pixabay.com/photo/2022/03/01/10/01/buildings-7040982_640.jpg",
        "src1280": "https://cdn.pixabay.com/photo/2022/03/01/10/01/buildings-7040982_1280.jpg"
    },
    {
        "id": "5561176",
        "src640": "https://cdn.pixabay.com/photo/2020/09/10/18/22/building-5561176_640.jpg",
        "src1280": "https://cdn.pixabay.com/photo/2020/09/10/18/22/building-5561176_1280.jpg"
    },
    {
        "id": "6930621",
        "src640": "https://cdn.pixabay.com/photo/2022/01/11/13/43/tram-6930621_640.jpg",
        "src1280": "https://cdn.pixabay.com/photo/2022/01/11/13/43/tram-6930621_1280.jpg"
    },
    {
        "id": "7610197",
        "src640": "https://cdn.pixabay.com/photo/2022/11/22/17/11/castle-7610197_640.jpg",
        "src1280": "https://cdn.pixabay.com/photo/2022/11/22/17/11/castle-7610197_1280.jpg"
    },
    {
        "id": "912265",
        "src640": "https://cdn.pixabay.com/photo/2015/08/28/18/24/space-needle-912265_640.jpg",
        "src1280": "https://cdn.pixabay.com/photo/2015/08/28/18/24/space-needle-912265_1280.jpg"
    },
    {
        "id": "4647803",
        "src640": "https://cdn.pixabay.com/photo/2019/11/23/18/08/pune-4647803_640.jpg",
        "src1280": "https://cdn.pixabay.com/photo/2019/11/23/18/08/pune-4647803_1280.jpg"
    },
    {
        "id": "2097071",
        "src640": "https://cdn.pixabay.com/photo/2017/02/25/07/47/china-2097071_640.jpg",
        "src1280": "https://cdn.pixabay.com/photo/2017/02/25/07/47/china-2097071_1280.jpg"
    },
    {
        "id": "4757135",
        "src640": "https://cdn.pixabay.com/photo/2020/01/11/10/23/bank-4757135_640.jpg",
        "src1280": "https://cdn.pixabay.com/photo/2020/01/11/10/23/bank-4757135_1280.jpg"
    },
    {
        "id": "819849",
        "src640": "https://cdn.pixabay.com/photo/2015/06/24/11/29/alley-819849_640.jpg",
        "src1280": "https://cdn.pixabay.com/photo/2015/06/24/11/29/alley-819849_1280.jpg"
    },
    {
        "id": "4883333",
        "src640": "https://cdn.pixabay.com/photo/2020/02/27/03/46/boy-4883333_640.jpg",
        "src1280": "https://cdn.pixabay.com/photo/2020/02/27/03/46/boy-4883333_1280.jpg"
    },
    {
        "id": "2976642",
        "src640": "https://cdn.pixabay.com/photo/2017/11/25/11/53/cathedral-of-florence-2976642_640.jpg",
        "src1280": "https://cdn.pixabay.com/photo/2017/11/25/11/53/cathedral-of-florence-2976642_1280.jpg"
    },
    {
        "id": "3649837",
        "src640": "https://cdn.pixabay.com/photo/2018/09/02/20/39/blue-3649837_640.jpg",
        "src1280": "https://cdn.pixabay.com/photo/2018/09/02/20/39/blue-3649837_1280.jpg"
    },
    {
        "id": "7334643",
        "src640": "https://cdn.pixabay.com/photo/2022/07/20/17/41/teenager-7334643_640.jpg",
        "src1280": "https://cdn.pixabay.com/photo/2022/07/20/17/41/teenager-7334643_1280.jpg"
    },
    {
        "id": "3692195",
        "src640": "https://cdn.pixabay.com/photo/2018/09/21/01/11/big-ben-3692195_640.jpg",
        "src1280": "https://cdn.pixabay.com/photo/2018/09/21/01/11/big-ben-3692195_1280.jpg"
    },
    {
        "id": "3612477",
        "src640": "https://cdn.pixabay.com/photo/2018/08/17/10/07/street-3612477_640.jpg",
        "src1280": "https://cdn.pixabay.com/photo/2018/08/17/10/07/street-3612477_1280.jpg"
    },
    {
        "id": "7569214",
        "src640": "https://cdn.pixabay.com/photo/2022/11/04/07/27/girl-7569214_640.jpg",
        "src1280": "https://cdn.pixabay.com/photo/2022/11/04/07/27/girl-7569214_1280.jpg"
    },
    {
        "id": "7363037",
        "src640": "https://cdn.pixabay.com/photo/2022/08/03/16/52/woman-7363037_640.jpg",
        "src1280": "https://cdn.pixabay.com/photo/2022/08/03/16/52/woman-7363037_1280.jpg"
    },
    {
        "id": "7377081",
        "src640": "https://cdn.pixabay.com/photo/2022/08/10/12/33/person-7377081_640.jpg",
        "src1280": "https://cdn.pixabay.com/photo/2022/08/10/12/33/person-7377081_1280.jpg"
    },
    {
        "id": "7010734",
        "src640": "https://cdn.pixabay.com/photo/2022/02/13/09/50/man-7010734_640.jpg",
        "src1280": "https://cdn.pixabay.com/photo/2022/02/13/09/50/man-7010734_1280.jpg"
    },
    {
        "id": "3566996",
        "src640": "https://cdn.pixabay.com/photo/2018/07/27/23/52/pisa-3566996_640.jpg",
        "src1280": "https://cdn.pixabay.com/photo/2018/07/27/23/52/pisa-3566996_1280.jpg"
    },
    {
        "id": "7309041",
        "src640": "https://cdn.pixabay.com/photo/2022/07/08/10/55/dancing-7309041_640.jpg",
        "src1280": "https://cdn.pixabay.com/photo/2022/07/08/10/55/dancing-7309041_1280.jpg"
    },
    {
        "id": "7291704",
        "src640": "https://cdn.pixabay.com/photo/2022/06/29/12/55/prague-7291704_640.jpg",
        "src1280": "https://cdn.pixabay.com/photo/2022/06/29/12/55/prague-7291704_1280.jpg"
    },
    {
        "id": "2319176",
        "src640": "https://cdn.pixabay.com/photo/2017/05/16/22/01/malaysia-2319176_640.jpg",
        "src1280": "https://cdn.pixabay.com/photo/2017/05/16/22/01/malaysia-2319176_1280.jpg"
    },
    {
        "id": "2933516",
        "src640": "https://cdn.pixabay.com/photo/2017/11/09/13/14/the-cathedral-2933516_640.jpg",
        "src1280": "https://cdn.pixabay.com/photo/2017/11/09/13/14/the-cathedral-2933516_1280.jpg"
    },
    {
        "id": "5456843",
        "src640": "https://cdn.pixabay.com/photo/2020/08/02/06/35/building-5456843_640.jpg",
        "src1280": "https://cdn.pixabay.com/photo/2020/08/02/06/35/building-5456843_1280.jpg"
    },
    {
        "id": "3301865",
        "src640": "https://cdn.pixabay.com/photo/2018/04/08/17/29/outdoors-3301865_640.jpg",
        "src1280": "https://cdn.pixabay.com/photo/2018/04/08/17/29/outdoors-3301865_1280.jpg"
    },
    {
        "id": "779445",
        "src640": "https://cdn.pixabay.com/photo/2015/05/22/18/15/chicago-779445_640.jpg",
        "src1280": "https://cdn.pixabay.com/photo/2015/05/22/18/15/chicago-779445_1280.jpg"
    },
    {
        "id": "7303354",
        "src640": "https://cdn.pixabay.com/photo/2022/07/05/15/38/girl-7303354_640.jpg",
        "src1280": "https://cdn.pixabay.com/photo/2022/07/05/15/38/girl-7303354_1280.jpg"
    },
    {
        "id": "7318527",
        "src640": "https://cdn.pixabay.com/photo/2022/07/13/04/35/woman-7318527_640.jpg",
        "src1280": "https://cdn.pixabay.com/photo/2022/07/13/04/35/woman-7318527_1280.jpg"
    },
    {
        "id": "7099927",
        "src640": "https://cdn.pixabay.com/photo/2022/03/29/18/24/sky-7099927_640.jpg",
        "src1280": "https://cdn.pixabay.com/photo/2022/03/29/18/24/sky-7099927_1280.jpg"
    },
    {
        "id": "7406888",
        "src640": "https://cdn.pixabay.com/photo/2022/08/24/04/18/couple-7406888_640.jpg",
        "src1280": "https://cdn.pixabay.com/photo/2022/08/24/04/18/couple-7406888_1280.jpg"
    },
    {
        "id": "4054170",
        "src640": "https://cdn.pixabay.com/photo/2019/03/14/04/02/los-angeles-cathedral-4054170_640.jpg",
        "src1280": "https://cdn.pixabay.com/photo/2019/03/14/04/02/los-angeles-cathedral-4054170_1280.jpg"
    },
    {
        "id": "2721029",
        "src640": "https://cdn.pixabay.com/photo/2017/09/06/11/14/aberdeen-2721029_640.jpg",
        "src1280": "https://cdn.pixabay.com/photo/2017/09/06/11/14/aberdeen-2721029_1280.jpg"
    },
    {
        "id": "2251319",
        "src640": "https://cdn.pixabay.com/photo/2017/04/22/13/11/big-ben-2251319_640.jpg",
        "src1280": "https://cdn.pixabay.com/photo/2017/04/22/13/11/big-ben-2251319_1280.jpg"
    },
    {
        "id": "3999395",
        "src640": "https://cdn.pixabay.com/photo/2019/02/15/21/41/belgrade-3999395_640.jpg",
        "src1280": "https://cdn.pixabay.com/photo/2019/02/15/21/41/belgrade-3999395_1280.jpg"
    },
    {
        "id": "249001",
        "src640": "https://cdn.pixabay.com/photo/2014/01/21/08/26/bamberg-249001_640.jpg",
        "src1280": "https://cdn.pixabay.com/photo/2014/01/21/08/26/bamberg-249001_1280.jpg"
    },
    {
        "id": "79202",
        "src640": "https://cdn.pixabay.com/photo/2013/02/07/21/43/paris-79202_640.jpg",
        "src1280": "https://cdn.pixabay.com/photo/2013/02/07/21/43/paris-79202_1280.jpg"
    },
    {
        "id": "7526090",
        "src640": "https://cdn.pixabay.com/photo/2022/10/16/20/16/signs-7526090_640.jpg",
        "src1280": "https://cdn.pixabay.com/photo/2022/10/16/20/16/signs-7526090_1280.jpg"
    },
    {
        "id": "2903377",
        "src640": "https://cdn.pixabay.com/photo/2017/10/30/20/09/prague-2903377_640.jpg",
        "src1280": "https://cdn.pixabay.com/photo/2017/10/30/20/09/prague-2903377_1280.jpg"
    },
    {
        "id": "2928453",
        "src640": "https://cdn.pixabay.com/photo/2017/11/07/22/00/church-2928453_640.jpg",
        "src1280": "https://cdn.pixabay.com/photo/2017/11/07/22/00/church-2928453_1280.jpg"
    },
    {
        "id": "7013018",
        "src640": "https://cdn.pixabay.com/photo/2022/02/14/12/07/town-7013018_640.jpg",
        "src1280": "https://cdn.pixabay.com/photo/2022/02/14/12/07/town-7013018_1280.jpg"
    },
    {
        "id": "7377086",
        "src640": "https://cdn.pixabay.com/photo/2022/08/10/12/33/people-7377086_640.jpg",
        "src1280": "https://cdn.pixabay.com/photo/2022/08/10/12/33/people-7377086_1280.jpg"
    },
    {
        "id": "3642827",
        "src640": "https://cdn.pixabay.com/photo/2018/08/30/17/31/bucharest-3642827_640.jpg",
        "src1280": "https://cdn.pixabay.com/photo/2018/08/30/17/31/bucharest-3642827_1280.jpg"
    },
    {
        "id": "4589823",
        "src640": "https://cdn.pixabay.com/photo/2019/10/30/15/30/venice-4589823_640.jpg",
        "src1280": "https://cdn.pixabay.com/photo/2019/10/30/15/30/venice-4589823_1280.jpg"
    },
    {
        "id": "1155881",
        "src640": "https://cdn.pixabay.com/photo/2016/01/22/14/50/colosseum-1155881_640.jpg",
        "src1280": "https://cdn.pixabay.com/photo/2016/01/22/14/50/colosseum-1155881_1280.jpg"
    },
    {
        "id": "7734284",
        "src640": "https://cdn.pixabay.com/photo/2023/01/21/15/12/ai-generated-7734284_640.jpg",
        "src1280": "https://cdn.pixabay.com/photo/2023/01/21/15/12/ai-generated-7734284_1280.jpg"
    },
    {
        "id": "4620885",
        "src640": "https://cdn.pixabay.com/photo/2019/11/12/11/47/bell-4620885_640.jpg",
        "src1280": "https://cdn.pixabay.com/photo/2019/11/12/11/47/bell-4620885_1280.jpg"
    },
    {
        "id": "5995054",
        "src640": "https://cdn.pixabay.com/photo/2021/02/08/14/54/york-minster-5995054_640.jpg",
        "src1280": "https://cdn.pixabay.com/photo/2021/02/08/14/54/york-minster-5995054_1280.jpg"
    },
    {
        "id": "4382854",
        "src640": "https://cdn.pixabay.com/photo/2019/08/04/01/09/stockholm-4382854_640.jpg",
        "src1280": "https://cdn.pixabay.com/photo/2019/08/04/01/09/stockholm-4382854_1280.jpg"
    },
    {
        "id": "4987619",
        "src640": "https://cdn.pixabay.com/photo/2020/03/31/13/27/clouds-4987619_640.jpg",
        "src1280": "https://cdn.pixabay.com/photo/2020/03/31/13/27/clouds-4987619_1280.jpg"
    },
    {
        "id": "7015779",
        "src640": "https://cdn.pixabay.com/photo/2022/02/15/23/52/golden-gate-bridge-7015779_640.jpg",
        "src1280": "https://cdn.pixabay.com/photo/2022/02/15/23/52/golden-gate-bridge-7015779_1280.jpg"
    },
    {
        "id": "7303758",
        "src640": "https://cdn.pixabay.com/photo/2022/07/05/18/41/woman-7303758_640.jpg",
        "src1280": "https://cdn.pixabay.com/photo/2022/07/05/18/41/woman-7303758_1280.jpg"
    },
    {
        "id": "5510553",
        "src640": "https://cdn.pixabay.com/photo/2020/08/23/10/37/woman-5510553_640.jpg",
        "src1280": "https://cdn.pixabay.com/photo/2020/08/23/10/37/woman-5510553_1280.jpg"
    },
    {
        "id": "7522338",
        "src640": "https://cdn.pixabay.com/photo/2022/10/15/01/29/village-7522338_640.jpg",
        "src1280": "https://cdn.pixabay.com/photo/2022/10/15/01/29/village-7522338_1280.jpg"
    },
    {
        "id": "743060",
        "src640": "https://cdn.pixabay.com/photo/2015/04/28/06/27/italia-743060_640.jpg",
        "src1280": "https://cdn.pixabay.com/photo/2015/04/28/06/27/italia-743060_1280.jpg"
    },
    {
        "id": "4999595",
        "src640": "https://cdn.pixabay.com/photo/2020/04/03/17/23/toronto-4999595_640.jpg",
        "src1280": "https://cdn.pixabay.com/photo/2020/04/03/17/23/toronto-4999595_1280.jpg"
    },
    {
        "id": "4615354",
        "src640": "https://cdn.pixabay.com/photo/2019/11/10/10/02/architecture-4615354_640.jpg",
        "src1280": "https://cdn.pixabay.com/photo/2019/11/10/10/02/architecture-4615354_1280.jpg"
    },
    {
        "id": "3879612",
        "src640": "https://cdn.pixabay.com/photo/2018/12/17/00/46/tiltshift-3879612_640.jpg",
        "src1280": "https://cdn.pixabay.com/photo/2018/12/17/00/46/tiltshift-3879612_1280.jpg"
    },
    {
        "id": "5285517",
        "src640": "https://cdn.pixabay.com/photo/2020/06/11/06/55/oil-painting-5285517_640.jpg",
        "src1280": "https://cdn.pixabay.com/photo/2020/06/11/06/55/oil-painting-5285517_1280.jpg"
    },
    {
        "id": "175902",
        "src640": "https://cdn.pixabay.com/photo/2013/08/26/02/25/glass-facade-175902_640.jpg",
        "src1280": "https://cdn.pixabay.com/photo/2013/08/26/02/25/glass-facade-175902_1280.jpg"
    },
    {
        "id": "7349595",
        "src640": "https://cdn.pixabay.com/photo/2022/07/28/11/03/amsterdam-7349595_640.jpg",
        "src1280": "https://cdn.pixabay.com/photo/2022/07/28/11/03/amsterdam-7349595_1280.jpg"
    },
    {
        "id": "3879772",
        "src640": "https://cdn.pixabay.com/photo/2018/12/17/04/53/building-3879772_640.jpg",
        "src1280": "https://cdn.pixabay.com/photo/2018/12/17/04/53/building-3879772_1280.jpg"
    },
    {
        "id": "1026803",
        "src640": "https://cdn.pixabay.com/photo/2015/11/06/12/16/church-1026803_640.jpg",
        "src1280": "https://cdn.pixabay.com/photo/2015/11/06/12/16/church-1026803_1280.jpg"
    },
    {
        "id": "5413586",
        "src640": "https://cdn.pixabay.com/photo/2020/07/17/09/32/flower-5413586_640.jpg",
        "src1280": "https://cdn.pixabay.com/photo/2020/07/17/09/32/flower-5413586_1280.jpg"
    },
    {
        "id": "1757600",
        "src640": "https://cdn.pixabay.com/photo/2016/10/21/09/27/italy-1757600_640.jpg",
        "src1280": "https://cdn.pixabay.com/photo/2016/10/21/09/27/italy-1757600_1280.jpg"
    },
    {
        "id": "7454838",
        "src640": "https://cdn.pixabay.com/photo/2022/09/14/17/29/people-7454838_640.jpg",
        "src1280": "https://cdn.pixabay.com/photo/2022/09/14/17/29/people-7454838_1280.jpg"
    },
    {
        "id": "7284114",
        "src640": "https://cdn.pixabay.com/photo/2022/06/25/19/33/staff-7284114_640.jpg",
        "src1280": "https://cdn.pixabay.com/photo/2022/06/25/19/33/staff-7284114_1280.jpg"
    },
    {
        "id": "5023733",
        "src640": "https://cdn.pixabay.com/photo/2020/04/10/02/00/church-5023733_640.jpg",
        "src1280": "https://cdn.pixabay.com/photo/2020/04/10/02/00/church-5023733_1280.jpg"
    },
    {
        "id": "7145616",
        "src640": "https://cdn.pixabay.com/photo/2022/04/20/16/39/people-7145616_640.jpg",
        "src1280": "https://cdn.pixabay.com/photo/2022/04/20/16/39/people-7145616_1280.jpg"
    },
    {
        "id": "4038438",
        "src640": "https://cdn.pixabay.com/photo/2019/03/06/15/40/building-4038438_640.jpg",
        "src1280": "https://cdn.pixabay.com/photo/2019/03/06/15/40/building-4038438_1280.jpg"
    },
    {
        "id": "2531623",
        "src640": "https://cdn.pixabay.com/photo/2017/07/23/14/59/lamp-2531623_640.jpg",
        "src1280": "https://cdn.pixabay.com/photo/2017/07/23/14/59/lamp-2531623_1280.jpg"
    },
    {
        "id": "7392589",
        "src640": "https://cdn.pixabay.com/photo/2022/08/17/13/41/woman-7392589_640.jpg",
        "src1280": "https://cdn.pixabay.com/photo/2022/08/17/13/41/woman-7392589_1280.jpg"
    },
    {
        "id": "7078344",
        "src640": "https://cdn.pixabay.com/photo/2022/03/19/11/23/switzerland-7078344_640.jpg",
        "src1280": "https://cdn.pixabay.com/photo/2022/03/19/11/23/switzerland-7078344_1280.jpg"
    },
    {
        "id": "7058995",
        "src640": "https://cdn.pixabay.com/photo/2022/03/10/03/13/buildings-7058995_640.jpg",
        "src1280": "https://cdn.pixabay.com/photo/2022/03/10/03/13/buildings-7058995_1280.jpg"
    },
    {
        "id": "2913421",
        "src640": "https://cdn.pixabay.com/photo/2017/11/03/05/30/eiffel-tower-2913421_640.jpg",
        "src1280": "https://cdn.pixabay.com/photo/2017/11/03/05/30/eiffel-tower-2913421_1280.jpg"
    },
    {
        "id": "5995031",
        "src640": "https://cdn.pixabay.com/photo/2021/02/08/14/52/york-city-walls-5995031_640.jpg",
        "src1280": "https://cdn.pixabay.com/photo/2021/02/08/14/52/york-city-walls-5995031_1280.jpg"
    },
    {
        "id": "6781070",
        "src640": "https://cdn.pixabay.com/photo/2021/11/09/09/03/bridge-6781070_640.jpg",
        "src1280": "https://cdn.pixabay.com/photo/2021/11/09/09/03/bridge-6781070_1280.jpg"
    },
    {
        "id": "4023869",
        "src640": "https://cdn.pixabay.com/photo/2019/02/27/11/28/church-4023869_640.jpg",
        "src1280": "https://cdn.pixabay.com/photo/2019/02/27/11/28/church-4023869_1280.jpg"
    }
]