[
    {
        "id": "7226173",
        "src640": "https://cdn.pixabay.com/photo/2022/05/27/22/27/paris-7226173_640.jpg",
        "src1280": "https://cdn.pixabay.com/photo/2022/05/27/22/27/paris-7226173_1280.jpg"
    },
    {
        "id": "5412442",
        "src640": "https://cdn.pixabay.com/photo/2020/07/16/22/09/tattoos-5412442_640.jpg",
        "src1280": "https://cdn.pixabay.com/photo/2020/07/16/22/09/tattoos-5412442_1280.jpg"
    },
    {
        "id": "4683498",
        "src640": "https://cdn.pixabay.com/photo/2019/12/09/13/11/brooklyn-4683498_640.jpg",
        "src1280": "https://cdn.pixabay.com/photo/2019/12/09/13/11/brooklyn-4683498_1280.jpg"
    },
    {
        "id": "7091688",
        "src640": "https://cdn.pixabay.com/photo/2022/03/25/19/53/city-7091688_640.jpg",
        "src1280": "https://cdn.pixabay.com/photo/2022/03/25/19/53/city-7091688_1280.jpg"
    },
    {
        "id": "2619417",
        "src640": "https://cdn.pixabay.com/photo/2017/08/10/07/23/porto-2619417_640.jpg",
        "src1280": "https://cdn.pixabay.com/photo/2017/08/10/07/23/porto-2619417_1280.jpg"
    },
    {
        "id": "7344354",
        "src640": "https://cdn.pixabay.com/photo/2022/07/25/18/19/bicyclist-7344354_640.jpg",
        "src1280": "https://cdn.pixabay.com/photo/2022/07/25/18/19/bicyclist-7344354_1280.jpg"
    },
    {
        "id": "2439639",
        "src640": "https://cdn.pixabay.com/photo/2017/06/25/04/35/nanjing-2439639_640.jpg",
        "src1280": "https://cdn.pixabay.com/photo/2017/06/25/04/35/nanjing-2439639_1280.jpg"
    },
    {
        "id": "1570686",
        "src640": "https://cdn.pixabay.com/photo/2016/08/04/20/49/moscow-1570686_640.jpg",
        "src1280": "https://cdn.pixabay.com/photo/2016/08/04/20/49/moscow-1570686_1280.jpg"
    },
    {
        "id": "7228946",
        "src640": "https://cdn.pixabay.com/photo/2022/05/29/11/05/calgary-7228946_640.jpg",
        "src1280": "https://cdn.pixabay.com/photo/2022/05/29/11/05/calgary-7228946_1280.jpg"
    },
    {
        "id": "52162",
        "src640": "https://cdn.pixabay.com/photo/2012/07/09/12/56/fachwerkhauser-52162_640.jpg",
        "src1280": "https://cdn.pixabay.com/photo/2012/07/09/12/56/fachwerkhauser-52162_1280.jpg"
    },
    {
        "id": "5050717",
        "src640": "https://cdn.pixabay.com/photo/2020/04/16/13/50/waxing-5050717_640.jpg",
        "src1280": "https://cdn.pixabay.com/photo/2020/04/16/13/50/waxing-5050717_1280.jpg"
    },
    {
        "id": "1027599",
        "src640": "https://cdn.pixabay.com/photo/2015/11/06/13/13/brussels-1027599_640.jpg",
        "src1280": "https://cdn.pixabay.com/photo/2015/11/06/13/13/brussels-1027599_1280.jpg"
    },
    {
        "id": "7561630",
        "src640": "https://cdn.pixabay.com/photo/2022/11/01/08/35/pesona-7561630_640.jpg",
        "src1280": "https://cdn.pixabay.com/photo/2022/11/01/08/35/pesona-7561630_1280.jpg"
    },
    {
        "id": "2479336",
        "src640": "https://cdn.pixabay.com/photo/2017/07/06/20/30/spain-2479336_640.jpg",
        "src1280": "https://cdn.pixabay.com/photo/2017/07/06/20/30/spain-2479336_1280.jpg"
    },
    {
        "id": "2379321",
        "src640": "https://cdn.pixabay.com/photo/2017/06/07/04/55/ceiling-2379321_640.jpg",
        "src1280": "https://cdn.pixabay.com/photo/2017/06/07/04/55/ceiling-2379321_1280.jpg"
    },
    {
        "id": "116699",
        "src640": "https://cdn.pixabay.com/photo/2013/06/05/17/46/evangelische-christuskirche-116699_640.jpg",
        "src1280": "https://cdn.pixabay.com/photo/2013/06/05/17/46/evangelische-christuskirche-116699_1280.jpg"
    },
    {
        "id": "7010933",
        "src640": "https://cdn.pixabay.com/photo/2022/02/13/11/23/brandenburg-gate-7010933_640.jpg",
        "src1280": "https://cdn.pixabay.com/photo/2022/02/13/11/23/brandenburg-gate-7010933_1280.jpg"
    },
    {
        "id": "675252",
        "src640": "https://cdn.pixabay.com/photo/2015/03/16/01/37/harbor-675252_640.jpg",
        "src1280": "https://cdn.pixabay.com/photo/2015/03/16/01/37/harbor-675252_1280.jpg"
    },
    {
        "id": "3144848",
        "src640": "https://cdn.pixabay.com/photo/2018/02/10/23/59/water-3144848_640.jpg",
        "src1280": "https://cdn.pixabay.com/photo/2018/02/10/23/59/water-3144848_1280.jpg"
    },
    {
        "id": "6909344",
        "src640": "https://cdn.pixabay.com/photo/2022/01/02/02/14/city-6909344_640.jpg",
        "src1280": "https://cdn.pixabay.com/photo/2022/01/02/02/14/city-6909344_1280.jpg"
    },
    {
        "id": "7030655",
        "src640": "https://cdn.pixabay.com/photo/2022/02/23/13/08/man-7030655_640.jpg",
        "src1280": "https://cdn.pixabay.com/photo/2022/02/23/13/08/man-7030655_1280.jpg"
    },
    {
        "id": "7295242",
        "src640": "https://cdn.pixabay.com/photo/2022/07/01/09/01/woman-7295242_640.jpg",
        "src1280": "https://cdn.pixabay.com/photo/2022/07/01/09/01/woman-7295242_1280.jpg"
    },
    {
        "id": "7194485",
        "src640": "https://cdn.pixabay.com/photo/2022/05/13/20/06/woman-7194485_640.jpg",
        "src1280": "https://cdn.pixabay.com/photo/2022/05/13/20/06/woman-7194485_1280.jpg"
    },
    {
        "id": "602033",
        "src640": "https://cdn.pixabay.com/photo/2015/01/17/07/52/buildings-602033_640.jpg",
        "src1280": "https://cdn.pixabay.com/photo/2015/01/17/07/52/buildings-602033_1280.jpg"
    },
    {
        "id": "328807",
        "src640": "https://cdn.pixabay.com/photo/2014/04/20/22/00/petronas-towers-328807_640.jpg",
        "src1280": "https://cdn.pixabay.com/photo/2014/04/20/22/00/petronas-towers-328807_1280.jpg"
    },
    {
        "id": "3332578",
        "src640": "https://cdn.pixabay.com/photo/2018/04/19/08/31/industry-3332578_640.jpg",
        "src1280": "https://cdn.pixabay.com/photo/2018/04/19/08/31/industry-3332578_1280.jpg"
    },
    {
        "id": "8277556",
        "src640": "https://cdn.pixabay.com/photo/2023/09/26/14/08/cartoon-8277556_640.jpg",
        "src1280": "https://cdn.pixabay.com/photo/2023/09/26/14/08/cartoon-8277556_1280.jpg"
    },
    {
        "id": "7510749",
        "src640": "https://cdn.pixabay.com/photo/2022/10/10/04/44/girl-7510749_640.jpg",
        "src1280": "https://cdn.pixabay.com/photo/2022/10/10/04/44/girl-7510749_1280.jpg"
    },
    {
        "id": "1753784",
        "src640": "https://cdn.pixabay.com/photo/2016/10/19/19/28/new-york-1753784_640.jpg",
        "src1280": "https://cdn.pixabay.com/photo/2016/10/19/19/28/new-york-1753784_1280.jpg"
    },
    {
        "id": "2645676",
        "src640": "https://cdn.pixabay.com/photo/2017/08/15/21/28/building-2645676_640.jpg",
        "src1280": "https://cdn.pixabay.com/photo/2017/08/15/21/28/building-2645676_1280.jpg"
    },
    {
        "id": "2586530",
        "src640": "https://cdn.pixabay.com/photo/2017/08/05/23/14/building-2586530_640.jpg",
        "src1280": "https://cdn.pixabay.com/photo/2017/08/05/23/14/building-2586530_1280.jpg"
    },
    {
        "id": "1616962",
        "src640": "https://cdn.pixabay.com/photo/2016/08/24/12/48/road-bike-1616962_640.jpg",
        "src1280": "https://cdn.pixabay.com/photo/2016/08/24/12/48/road-bike-1616962_1280.jpg"
    },
    {
        "id": "4788325",
        "src640": "https://cdn.pixabay.com/photo/2020/01/23/17/34/mallorca-4788325_640.jpg",
        "src1280": "https://cdn.pixabay.com/photo/2020/01/23/17/34/mallorca-4788325_1280.jpg"
    },
    {
        "id": "322496",
        "src640": "https://cdn.pixabay.com/photo/2014/04/12/15/04/chimney-322496_640.jpg",
        "src1280": "https://cdn.pixabay.com/photo/2014/04/12/15/04/chimney-322496_1280.jpg"
    },
    {
        "id": "1667257",
        "src640": "https://cdn.pixabay.com/photo/2016/09/13/13/47/wawel-1667257_640.jpg",
        "src1280": "https://cdn.pixabay.com/photo/2016/09/13/13/47/wawel-1667257_1280.jpg"
    },
    {
        "id": "4901442",
        "src640": "https://cdn.pixabay.com/photo/2020/03/04/11/46/chernobyl-4901442_640.jpg",
        "src1280": "https://cdn.pixabay.com/photo/2020/03/04/11/46/chernobyl-4901442_1280.jpg"
    },
    {
        "id": "238969",
        "src640": "https://cdn.pixabay.com/photo/2014/01/05/02/56/sunset-238969_640.jpg",
        "src1280": "https://cdn.pixabay.com/photo/2014/01/05/02/56/sunset-238969_1280.jpg"
    },
    {
        "id": "4886777",
        "src640": "https://cdn.pixabay.com/photo/2020/02/28/08/18/graz-4886777_640.jpg",
        "src1280": "https://cdn.pixabay.com/photo/2020/02/28/08/18/graz-4886777_1280.jpg"
    },
    {
        "id": "6771361",
        "src640": "https://cdn.pixabay.com/photo/2021/11/05/13/09/man-6771361_640.jpg",
        "src1280": "https://cdn.pixabay.com/photo/2021/11/05/13/09/man-6771361_1280.jpg"
    },
    {
        "id": "4930079",
        "src640": "https://cdn.pixabay.com/photo/2020/03/14/09/22/amman-4930079_640.jpg",
        "src1280": "https://cdn.pixabay.com/photo/2020/03/14/09/22/amman-4930079_1280.jpg"
    },
    {
        "id": "4563837",
        "src640": "https://cdn.pixabay.com/photo/2019/10/20/14/36/houses-4563837_640.jpg",
        "src1280": "https://cdn.pixabay.com/photo/2019/10/20/14/36/houses-4563837_1280.jpg"
    },
    {
        "id": "7103485",
        "src640": "https://cdn.pixabay.com/photo/2022/03/31/17/55/kungure-7103485_640.jpg",
        "src1280": "https://cdn.pixabay.com/photo/2022/03/31/17/55/kungure-7103485_1280.jpg"
    },
    {
        "id": "7297910",
        "src640": "https://cdn.pixabay.com/photo/2022/07/02/19/15/woman-7297910_640.jpg",
        "src1280": "https://cdn.pixabay.com/photo/2022/07/02/19/15/woman-7297910_1280.jpg"
    },
    {
        "id": "7568860",
        "src640": "https://cdn.pixabay.com/photo/2022/11/04/02/07/street-7568860_640.jpg",
        "src1280": "https://cdn.pixabay.com/photo/2022/11/04/02/07/street-7568860_1280.jpg"
    },
    {
        "id": "5170285",
        "src640": "https://cdn.pixabay.com/photo/2020/05/14/16/01/leeds-5170285_640.jpg",
        "src1280": "https://cdn.pixabay.com/photo/2020/05/14/16/01/leeds-5170285_1280.jpg"
    },
    {
        "id": "6578578",
        "src640": "https://cdn.pixabay.com/photo/2021/08/27/12/37/turnstiles-6578578_640.jpg",
        "src1280": "https://cdn.pixabay.com/photo/2021/08/27/12/37/turnstiles-6578578_1280.jpg"
    },
    {
        "id": "7618367",
        "src640": "https://cdn.pixabay.com/photo/2022/11/26/20/19/flag-of-the-netherlands-7618367_640.jpg",
        "src1280": "https://cdn.pixabay.com/photo/2022/11/26/20/19/flag-of-the-netherlands-7618367_1280.jpg"
    },
    {
        "id": "7155141",
        "src640": "https://cdn.pixabay.com/photo/2022/04/25/06/02/man-7155141_640.jpg",
        "src1280": "https://cdn.pixabay.com/photo/2022/04/25/06/02/man-7155141_1280.jpg"
    },
    {
        "id": "117331",
        "src640": "https://cdn.pixabay.com/photo/2013/06/06/17/45/evangelische-christuskirche-117331_640.jpg",
        "src1280": "https://cdn.pixabay.com/photo/2013/06/06/17/45/evangelische-christuskirche-117331_1280.jpg"
    },
    {
        "id": "2867976",
        "src640": "https://cdn.pixabay.com/photo/2017/10/19/14/57/cami-2867976_640.jpg",
        "src1280": "https://cdn.pixabay.com/photo/2017/10/19/14/57/cami-2867976_1280.jpg"
    },
    {
        "id": "4896388",
        "src640": "https://cdn.pixabay.com/photo/2020/03/02/17/44/architecture-4896388_640.jpg",
        "src1280": "https://cdn.pixabay.com/photo/2020/03/02/17/44/architecture-4896388_1280.jpg"
    },
    {
        "id": "3622491",
        "src640": "https://cdn.pixabay.com/photo/2018/08/21/23/15/sunrise-3622491_640.jpg",
        "src1280": "https://cdn.pixabay.com/photo/2018/08/21/23/15/sunrise-3622491_1280.jpg"
    },
    {
        "id": "7139942",
        "src640": "https://cdn.pixabay.com/photo/2022/04/18/09/30/background-7139942_640.jpg",
        "src1280": "https://cdn.pixabay.com/photo/2022/04/18/09/30/background-7139942_1280.jpg"
    },
    {
        "id": "7229759",
        "src640": "https://cdn.pixabay.com/photo/2022/05/29/18/44/boy-7229759_640.jpg",
        "src1280": "https://cdn.pixabay.com/photo/2022/05/29/18/44/boy-7229759_1280.jpg"
    },
    {
        "id": "7095259",
        "src640": "https://cdn.pixabay.com/photo/2022/03/27/14/31/luxembourg-7095259_640.jpg",
        "src1280": "https://cdn.pixabay.com/photo/2022/03/27/14/31/luxembourg-7095259_1280.jpg"
    },
    {
        "id": "947310",
        "src640": "https://cdn.pixabay.com/photo/2015/09/19/15/07/alley-947310_640.jpg",
        "src1280": "https://cdn.pixabay.com/photo/2015/09/19/15/07/alley-947310_1280.jpg"
    },
    {
        "id": "2586669",
        "src640": "https://cdn.pixabay.com/photo/2017/08/05/23/32/building-2586669_640.jpg",
        "src1280": "https://cdn.pixabay.com/photo/2017/08/05/23/32/building-2586669_1280.jpg"
    },
    {
        "id": "2594181",
        "src640": "https://cdn.pixabay.com/photo/2017/08/06/16/59/architecture-2594181_640.jpg",
        "src1280": "https://cdn.pixabay.com/photo/2017/08/06/16/59/architecture-2594181_1280.jpg"
    },
    {
        "id": "2486753",
        "src640": "https://cdn.pixabay.com/photo/2017/07/09/11/47/porto-2486753_640.jpg",
        "src1280": "https://cdn.pixabay.com/photo/2017/07/09/11/47/porto-2486753_1280.jpg"
    },
    {
        "id": "793850",
        "src640": "https://cdn.pixabay.com/photo/2015/06/01/17/59/weekend-793850_640.jpg",
        "src1280": "https://cdn.pixabay.com/photo/2015/06/01/17/59/weekend-793850_1280.jpg"
    },
    {
        "id": "56659",
        "src640": "https://cdn.pixabay.com/photo/2012/09/10/05/37/wind-mill-56659_640.jpg",
        "src1280": "https://cdn.pixabay.com/photo/2012/09/10/05/37/wind-mill-56659_1280.jpg"
    },
    {
        "id": "2479996",
        "src640": "https://cdn.pixabay.com/photo/2017/07/07/00/38/red-church-2479996_640.jpg",
        "src1280": "https://cdn.pixabay.com/photo/2017/07/07/00/38/red-church-2479996_1280.jpg"
    },
    {
        "id": "2670452",
        "src640": "https://cdn.pixabay.com/photo/2017/08/22/21/01/black-and-white-2670452_640.jpg",
        "src1280": "https://cdn.pixabay.com/photo/2017/08/22/21/01/black-and-white-2670452_1280.jpg"
    },
    {
        "id": "922556",
        "src640": "https://cdn.pixabay.com/photo/2015/09/04/19/17/pitcher-922556_640.jpg",
        "src1280": "https://cdn.pixabay.com/photo/2015/09/04/19/17/pitcher-922556_1280.jpg"
    },
    {
        "id": "7494711",
        "src640": "https://cdn.pixabay.com/photo/2022/10/03/01/01/building-7494711_640.jpg",
        "src1280": "https://cdn.pixabay.com/photo/2022/10/03/01/01/building-7494711_1280.jpg"
    },
    {
        "id": "396638",
        "src640": "https://cdn.pixabay.com/photo/2014/07/18/20/55/tower-396638_640.jpg",
        "src1280": "https://cdn.pixabay.com/photo/2014/07/18/20/55/tower-396638_1280.jpg"
    },
    {
        "id": "2257827",
        "src640": "https://cdn.pixabay.com/photo/2017/04/24/20/53/city-2257827_640.jpg",
        "src1280": "https://cdn.pixabay.com/photo/2017/04/24/20/53/city-2257827_1280.jpg"
    },
    {
        "id": "51567",
        "src640": "https://cdn.pixabay.com/photo/2012/07/06/02/41/church-51567_640.jpg",
        "src1280": "https://cdn.pixabay.com/photo/2012/07/06/02/41/church-51567_1280.jpg"
    },
    {
        "id": "1898294",
        "src640": "https://cdn.pixabay.com/photo/2016/12/10/22/11/skateboarding-1898294_640.jpg",
        "src1280": "https://cdn.pixabay.com/photo/2016/12/10/22/11/skateboarding-1898294_1280.jpg"
    },
    {
        "id": "528200",
        "src640": "https://cdn.pixabay.com/photo/2014/11/12/11/47/skyscraper-528200_640.jpg",
        "src1280": "https://cdn.pixabay.com/photo/2014/11/12/11/47/skyscraper-528200_1280.jpg"
    },
    {
        "id": "699883",
        "src640": "https://cdn.pixabay.com/photo/2015/03/30/19/03/basel-699883_640.jpg",
        "src1280": "https://cdn.pixabay.com/photo/2015/03/30/19/03/basel-699883_1280.jpg"
    },
    {
        "id": "7339782",
        "src640": "https://cdn.pixabay.com/photo/2022/07/23/11/29/couple-7339782_640.jpg",
        "src1280": "https://cdn.pixabay.com/photo/2022/07/23/11/29/couple-7339782_1280.jpg"
    },
    {
        "id": "5628637",
        "src640": "https://cdn.pixabay.com/photo/2020/10/05/09/00/people-5628637_640.jpg",
        "src1280": "https://cdn.pixabay.com/photo/2020/10/05/09/00/people-5628637_1280.jpg"
    },
    {
        "id": "2816249",
        "src640": "https://cdn.pixabay.com/photo/2017/10/04/13/37/office-block-2816249_640.jpg",
        "src1280": "https://cdn.pixabay.com/photo/2017/10/04/13/37/office-block-2816249_1280.jpg"
    },
    {
        "id": "2562276",
        "src640": "https://cdn.pixabay.com/photo/2017/08/01/00/30/architecture-2562276_640.jpg",
        "src1280": "https://cdn.pixabay.com/photo/2017/08/01/00/30/architecture-2562276_1280.jpg"
    },
    {
        "id": "5893491",
        "src640": "https://cdn.pixabay.com/photo/2021/01/06/07/55/buildings-5893491_640.jpg",
        "src1280": "https://cdn.pixabay.com/photo/2021/01/06/07/55/buildings-5893491_1280.jpg"
    },
    {
        "id": "2428897",
        "src640": "https://cdn.pixabay.com/photo/2017/06/21/22/36/san-gimignano-2428897_640.jpg",
        "src1280": "https://cdn.pixabay.com/photo/2017/06/21/22/36/san-gimignano-2428897_1280.jpg"
    },
    {
        "id": "163223",
        "src640": "https://cdn.pixabay.com/photo/2013/07/17/15/56/munster-163223_640.jpg",
        "src1280": "https://cdn.pixabay.com/photo/2013/07/17/15/56/munster-163223_1280.jpg"
    },
    {
        "id": "6911237",
        "src640": "https://cdn.pixabay.com/photo/2022/01/02/21/45/city-6911237_640.jpg",
        "src1280": "https://cdn.pixabay.com/photo/2022/01/02/21/45/city-6911237_1280.jpg"
    },
    {
        "id": "7466976",
        "src640": "https://cdn.pixabay.com/photo/2022/09/20/04/55/man-7466976_640.jpg",
        "src1280": "https://cdn.pixabay.com/photo/2022/09/20/04/55/man-7466976_1280.jpg"
    },
    {
        "id": "6596326",
        "src640": "https://cdn.pixabay.com/photo/2021/09/03/18/42/home-6596326_640.jpg",
        "src1280": "https://cdn.pixabay.com/photo/2021/09/03/18/42/home-6596326_1280.jpg"
    },
    {
        "id": "6949094",
        "src640": "https://cdn.pixabay.com/photo/2022/01/19/08/10/palm-trees-6949094_640.jpg",
        "src1280": "https://cdn.pixabay.com/photo/2022/01/19/08/10/palm-trees-6949094_1280.jpg"
    },
    {
        "id": "2102645",
        "src640": "https://cdn.pixabay.com/photo/2017/02/27/10/11/dove-2102645_640.jpg",
        "src1280": "https://cdn.pixabay.com/photo/2017/02/27/10/11/dove-2102645_1280.jpg"
    },
    {
        "id": "7910515",
        "src640": "https://cdn.pixabay.com/photo/2023/04/09/02/54/statue-7910515_640.jpg",
        "src1280": "https://cdn.pixabay.com/photo/2023/04/09/02/54/statue-7910515_1280.jpg"
    },
    {
        "id": "2834322",
        "src640": "https://cdn.pixabay.com/photo/2017/10/09/18/27/glass-items-2834322_640.jpg",
        "src1280": "https://cdn.pixabay.com/photo/2017/10/09/18/27/glass-items-2834322_1280.jpg"
    },
    {
        "id": "7221466",
        "src640": "https://cdn.pixabay.com/photo/2022/05/25/22/12/street-7221466_640.jpg",
        "src1280": "https://cdn.pixabay.com/photo/2022/05/25/22/12/street-7221466_1280.jpg"
    },
    {
        "id": "7125237",
        "src640": "https://cdn.pixabay.com/photo/2022/04/11/08/41/temple-7125237_640.jpg",
        "src1280": "https://cdn.pixabay.com/photo/2022/04/11/08/41/temple-7125237_1280.jpg"
    },
    {
        "id": "4918035",
        "src640": "https://cdn.pixabay.com/photo/2020/03/10/06/52/people-4918035_640.jpg",
        "src1280": "https://cdn.pixabay.com/photo/2020/03/10/06/52/people-4918035_1280.jpg"
    },
    {
        "id": "3520002",
        "src640": "https://cdn.pixabay.com/photo/2018/07/06/08/47/groot-constantia-3520002_640.jpg",
        "src1280": "https://cdn.pixabay.com/photo/2018/07/06/08/47/groot-constantia-3520002_1280.jpg"
    },
    {
        "id": "681208",
        "src640": "https://cdn.pixabay.com/photo/2015/03/19/18/01/madrid-681208_640.jpg",
        "src1280": "https://cdn.pixabay.com/photo/2015/03/19/18/01/madrid-681208_1280.jpg"
    },
    {
        "id": "274244",
        "src640": "https://cdn.pixabay.com/photo/2014/02/25/12/49/window-274244_640.jpg",
        "src1280": "https://cdn.pixabay.com/photo/2014/02/25/12/49/window-274244_1280.jpg"
    },
    {
        "id": "5134401",
        "src640": "https://cdn.pixabay.com/photo/2020/05/05/18/27/church-5134401_640.jpg",
        "src1280": "https://cdn.pixabay.com/photo/2020/05/05/18/27/church-5134401_1280.jpg"
    },
    {
        "id": "4760503",
        "src640": "https://cdn.pixabay.com/photo/2020/01/12/17/16/lviv-4760503_640.jpg",
        "src1280": "https://cdn.pixabay.com/photo/2020/01/12/17/16/lviv-4760503_1280.jpg"
    },
    {
        "id": "7276334",
        "src640": "https://cdn.pixabay.com/photo/2022/06/21/18/58/ormana-7276334_640.jpg",
        "src1280": "https://cdn.pixabay.com/photo/2022/06/21/18/58/ormana-7276334_1280.jpg"
    },
    {
        "id": "991247",
        "src640": "https://cdn.pixabay.com/photo/2015/10/16/14/10/finland-991247_640.jpg",
        "src1280": "https://cdn.pixabay.com/photo/2015/10/16/14/10/finland-991247_1280.jpg"
    },
    {
        "id": "97552",
        "src640": "https://cdn.pixabay.com/photo/2013/03/29/13/14/ulm-97552_640.jpg",
        "src1280": "https://cdn.pixabay.com/photo/2013/03/29/13/14/ulm-97552_1280.jpg"
    },
    {
        "id": "7312737",
        "src640": "https://cdn.pixabay.com/photo/2022/07/10/12/21/stralsund-7312737_640.jpg",
        "src1280": "https://cdn.pixabay.com/photo/2022/07/10/12/21/stralsund-7312737_1280.jpg"
    },
    {
        "id": "7369821",
        "src640": "https://cdn.pixabay.com/photo/2022/08/07/04/48/woman-7369821_640.jpg",
        "src1280": "https://cdn.pixabay.com/photo/2022/08/07/04/48/woman-7369821_1280.jpg"
    }
]